\relax 
\ifx\hyper@anchor\@undefined
\global \let \oldcontentsline\contentsline
\gdef \contentsline#1#2#3#4{\oldcontentsline{#1}{#2}{#3}}
\global \let \oldnewlabel\newlabel
\gdef \newlabel#1#2{\newlabelxx{#1}#2}
\gdef \newlabelxx#1#2#3#4#5#6{\oldnewlabel{#1}{{#2}{#3}}}
\AtEndDocument{\let \contentsline\oldcontentsline
\let \newlabel\oldnewlabel}
\else
\global \let \hyper@last\relax 
\fi

\@writefile{toc}{\contentsline {section}{\numberline {1}Intro}{\thepage }{section.1}}
\@writefile{toc}{\contentsline {section}{\numberline {2}Methodology}{\thepage }{section.2}}
\@writefile{toc}{\contentsline {subsection}{\numberline {2.1}Word Count}{\thepage }{subsection.2.1}}
\@writefile{toc}{\contentsline {subsubsection}{\numberline {2.1.1}Design}{\thepage }{subsubsection.2.1.1}}
\@writefile{toc}{\contentsline {subsubsection}{\numberline {2.1.2}Implementation}{\thepage }{subsubsection.2.1.2}}
\@writefile{toc}{\contentsline {subsubsection}{\numberline {2.1.3}Evaluation}{\thepage }{subsubsection.2.1.3}}
\@writefile{toc}{\contentsline {subsection}{\numberline {2.2}Distributed Grep}{\thepage }{subsection.2.2}}
\@writefile{toc}{\contentsline {subsubsection}{\numberline {2.2.1}Design}{\thepage }{subsubsection.2.2.1}}
\@writefile{toc}{\contentsline {subsubsection}{\numberline {2.2.2}Implementation}{\thepage }{subsubsection.2.2.2}}
\@writefile{toc}{\contentsline {subsubsection}{\numberline {2.2.3}Evaluation}{\thepage }{subsubsection.2.2.3}}
\@writefile{toc}{\contentsline {subsection}{\numberline {2.3}Inverted Index}{\thepage }{subsection.2.3}}
\@writefile{toc}{\contentsline {subsubsection}{\numberline {2.3.1}Design}{\thepage }{subsubsection.2.3.1}}
\@writefile{toc}{\contentsline {subsubsection}{\numberline {2.3.2}Implementation}{\thepage }{subsubsection.2.3.2}}
\@writefile{toc}{\contentsline {subsubsection}{\numberline {2.3.3}Evaluation}{\thepage }{subsubsection.2.3.3}}
\@writefile{toc}{\contentsline {subsection}{\numberline {2.4}PageRank}{\thepage }{subsection.2.4}}
\@writefile{toc}{\contentsline {subsubsection}{\numberline {2.4.1}Design}{\thepage }{subsubsection.2.4.1}}
\@writefile{toc}{\contentsline {subsubsection}{\numberline {2.4.2}Implementation}{\thepage }{subsubsection.2.4.2}}
\@writefile{toc}{\contentsline {subsubsection}{\numberline {2.4.3}Evaluation}{\thepage }{subsubsection.2.4.3}}
\@writefile{toc}{\contentsline {section}{\numberline {3}Issues}{\thepage }{section.3}}
\@writefile{toc}{\contentsline {section}{\numberline {4}Reflection}{\thepage }{section.4}}
\bibstyle{abbrv}
