(dhowells@redhat.com)	asn1.h
(dhowells@redhat.com)	fscache-cache.h
(dhowells@redhat.com)	fscache.h
(dhowells@redhat.com)	log2.h
(dhowells@redhat.com)	oid_registry.h
(dhowells@redhat.com)	super.h
(dhowells@redhat.com)	thread_info.h
(gerg@snapgear.com)	inftl.h
(jonathan@buzzard.org.uk)	toshiba.h
(michael@linuxspecific.com)	usb_usual.h
(mvw@planets.elm.net)	acct.h
(sfrench@us.ibm.com)	dns_resolver.h
(tom.l.nguyen@intel.com)	pci-acpi.h
(wang840925@gmail.com)	dns_resolver.h
<74604.152@compuserve.com>	cycx_x25.h
<D.Murphy@motorola.com>	led-lm3530.h
<Hiroshi.DOYU@nokia.com>	omap-iommu.h
<James.Bottomley@HansenPartnership.com>	enclosure.h
<James.Bottomley@steeleye.com>	raid_class.h
<Matt_Domsch@dell.com>	edd.h
<a.gruenbacher@computer.org>	xattr.h
<acme@conectiva.com.br>	cyclomx.h
<acme@conectiva.com.br>	cycx_drv.h
<acme@conectiva.com.br>	cycx_x25.h
<agx@sigxcpu.org>	ds17287rtc.h
<alan@lxorguk.ukuu.org.uk>	if_fddi.h
<ambx1@neo.rr.com>	pnp.h
<amit.kachhap@linaro.org>	cpu_cooling.h
<aris@cathedrallabs.org>	uinput.h
<avorontsov@ru.mvista.com>	of_gpio.h
<bdschuym@pandora.be>	ebtables.h
<becker@super.org>	if_fddi.h
<ben@simtec.co.uk>	pl093.h
<ben@simtec.co.uk>	plat-ram.h
<ben@simtec.co.uk>	sm501.h
<bill@thedirks.org>	videodev2.h
<bjorn.helgaas@hp.com>	pnp.h
<bof@bof.de>	ip_set.h
<calle@calle.de>	capilli.h
<calle@calle.de>	capiutil.h
<cbouatmailru@gmail.com>	basic_mmio_gpio.h
<cel@netapp.com>	nfs_iostat.h
<dahinds@users.sourceforge.net>.	ftl.h
<davidel@xmailserver.org>	anon_inodes.h
<dg77.kim@samsung.com>	extcon.h
<dvelarde@us.ibm.com>	tpm.h
<dwalker@mvista.com>	plist.h
<dwmw2@infradead.org>	blktrans.h
<dwmw2@infradead.org>	cfi.h
<dwmw2@infradead.org>	cfi_endian.h
<dwmw2@infradead.org>	doc2000.h
<dwmw2@infradead.org>	flashchip.h
<dwmw2@infradead.org>	gen_probe.h
<dwmw2@infradead.org>	map.h
<dwmw2@infradead.org>	mtd.h
<dwmw2@infradead.org>	nand.h
<dwmw2@infradead.org>	nand_ecc.h
<dwmw2@infradead.org>	nftl.h
<eparis@redhat.com>	fsnotify_backend.h
<eranian@hpl.hp.com>	rtc.h
<etienne.basset@ensta.org>	lsm_audit.h
<etienne.basset@ensta.org>	lsm_audit.h
<fisaksen@bewan.com>	hdlc.h
<frodol@dds.nl>	i2c-algo-pcf.h
<g.liakhovetski@gmx.de>	shdma-base.h
<galak@kernel.crashing.org>	fsl_devices.h
<gandalf@wlug.westbo.se>	ip_set.h
<genek@compuserve.com>	cyclomx.h
<genek@compuserve.com>	cycx_drv.h
<gerg@snapgear.com>	doc2000.h
<gozem@linux.nu>	ip_set.h
<greg@kroah.com>	kref.h
<gregkh@suse.de>	device.h
<gw4pts@gw4pts.ampr.org>	skbuff.h
<gw7rrm@eeshack3.swan.ac.uk>	if_fddi.h
<hverkuil@xs4all.nl>	videodev2.h
<inaky.perez-gonzalez@intel.com>	spec.h
<inaky.perez-gonzalez@intel.com>	whci.h
<inaky.perez-gonzalez@intel.com>.	plist.h
<ivan.djelic@parrot.com>	nand_bch.h
<iwamatsu.nobuhiro@renesas.com>	shdma-base.h
<jbaron@redhat.com>	jump_label.h
<jeremy.kerr@canonical.com>	clk-private.h
<jeremy.kerr@canonical.com>	clk-provider.h
<jim.cromie@gmail.com>	nsc_gpio.h
<jmorris@redhat.com>	xattr.h
<jpirko@redhat.com>	if_team.h
<jt@hpl.hp.com>	wireless.h
<juergen@monocerus.demon.co.uk>	toshiba.h
<juha.yrjola@nokia.com>	omap-dma.h
<kadlec@blackhole.kfki.hu>	ip_set.h
<kadlec@blackhole.kfki.hu>	ip_set_timeout.h
<kai.germaschewski@gmx.de>	hdlc.h
<kees.cook@canonical.com>	syslog.h
<keescook@chromium.org>	pstore_ram.h
<keithp@keithp.com>	io-mapping.h
<ketuzsezr@darnok.org>	iscsi_ibft.h
<kjhall@us.ibm.com>	tpm.h
<kkeil@novell.com>	mISDNhw.h
<kkeil@novell.com>	mISDNhw.h
<klemets@it.kth.se>	i82593.h
<kmalkki@cc.hut.fi>	i2c-algo-pcf.h
<konradr@linux.vnet.ibm.com>	iscsi_ibft.h
<kyungmin.park@samsung.com>	bbm.h
<kyungmin.park@samsung.com>	onenand.h
<kyungmin.park@samsung.com>	onenand_regs.h
<lee.jones@linaro.org>	sys_soc.h
<leendert@watson.ibm.com>	tpm.h
<levinsasha928@gmail.com>	hashtable.h
<lockwood@android.com>	extcon.h
<m.szyprowski@samsung.com>	dma-contiguous.h
<marco.stornelli@gmail.com>	pstore_ram.h
<mattias.wallin@stericsson.com>	clksrc-dbx500-prcmu.h
<max_mk@yahoo.com>	if_tun.h
<mgross@linux.intel.com>	pm_qos.h
<micah@navi.cx>)	uinput.h
<mina86@mina86.com>	dma-contiguous.h
<mingo@redhat.com>	mutex.h
<minyard@mvista.com>	ipmi_smi.h
<mk7.kang@samsung.com>	max17040_battery.h
<mochel@osdl.org>	device.h
<mochel@osdl.org>	kref.h
<mporter@kernel.crashing.org>	rio.h
<mturquette@linaro.org>	clk-private.h
<mturquette@linaro.org>	clk-provider.h
<mturquette@linaro.org>	clk.h
<mvw@planets.elm.net>	mount.h
<myungjoo.ham@samsung.com>	extcon.h
<nico@fluxnic.net>	partitions.h
<oakad@yahoo.com>	memstick.h
<okir@monad.swb.de>	debug.h
<okir@monad.swb.de>	export.h
<okir@monad.swb.de>	nfsfh.h
<okir@monad.swb.de>	stats.h
<oskar@scara.com>	rational.h
<paul.s.diefenbaugh@intel.com>	acpi.h
<pavan_savoy@ti.com>	ti_wilink_st.h
<peppe.cavallaro@st.com>	stmmac.h
<pjones@redhat.com>	iscsi_ibft.h
<pzijlstr@redhat.com>	jump_label.h
<raisch@de.ibm.com>	inet_lro.h
<rjw@sisk.pl>	pm_runtime.h
<rjw@sisk.pl>,	pm_clock.h
<rkaiser@sysgo.de>	concat.h
<rongkai.zhan@windriver.com>	m48t59.h
<roque@di.fc.ul.pt>	in6.h
<rzsfl@rz.uni-sb.de>	skbuff.h
<safford@watson.ibm.com>	tpm.h
<sailer@watson.ibm.com>	tpm.h
<sct@redhat.com>	jbd2.h
<sds@epoch.ncsc.mil>	lsm_audit.h
<shiraz.hashim@st.com>	spear_smi.h
<shreshthakumar.sahu@stericsson.com>	led-lm3530.h
<sjhill@realitydiluted.com>	nand.h
<sjhill@realitydiluted.com>	nand_ecc.h
<source@mvista.com>	latch-addr-flash.h
<stefani@lkg.dec.com>	if_fddi.h
<stud11@cc4.kuleuven.ac.be>	if_fddi.h
<tglx@linutronix.de>	nand.h
<tglx@linutronix.de>	nand_ecc.h
<tglx@linutronix.de>	ndfc.h
<tglx@linutronix.de>	plist.h
<tglx@linuxtronix.de>	bbm.h
<themann@de.ibm.com>	inet_lro.h
<tomita@cinet.co.jp>	i8253.h
<tpmdd_devel@lists.sourceforge.net>	tpm.h
<vbordug@ru.mvista.com>	fs_uart_pd.h
<vince@simtec.co.uk>	sm501.h
<vipin.kumar@st.com>	fsmc.h
<vojtech@suse.cz>,	joystick.h
<waltje@uWalt.NL.Mugnet.ORG>	if_fddi.h
<ying.huang@intel.com>	uuid.h
<zaitcev@redhat.com>	usb_usual.h
<zhaojingmin@users.sourceforge.net>	nf_conntrack_h323_asn1.h
<zhaojingmin@users.sourceforge.net>	nf_conntrack_h323_types.h
<zohar@us.ibm.com>	integrity.h
jloup@gzip.org	zlib.h
jsun@junsun.net	physmap.h
jsun@mvista.com	physmap.h
madler@alumni.caltech.edu	zlib.h
simon@ncm.com,	if_eql.h
source@mvista.com	ipmi_smi.h
