"afs@REDHAT.COM"	key.h
(Michael.Hipp@student.uni-tuebingen.de)	isdn_ppp.h
(card@masi.ibp.fr)	ext2_fs.h
(card@masi.ibp.fr)	nilfs2_fs.h
(davem@redhat.com)	crypto.h
(dhowells@redhat.com)	asn1_decoder.h
(dhowells@redhat.com)	key-type.h
(dhowells@redhat.com)	key.h
(dhowells@redhat.com)	rxrpc.h
(fritz@isdn4linux.de)	isdn_ppp.h
(fritz@isdn4linux.de)	isdnif.h
(greg@kroah.com)	serial.h
(jj@sunsite.mff.cuni.cz)	linux_logo.h
(kai@germaschewski.name)	isdn_ppp.h
(lewing@isc.tamu.edu)	linux_logo.h
(markhe@nextd.demon.co.uk).	slab.h
(shaohua.li@intel.com)	pci-aspm.h
(tglx@linutronix.de)	rslib.h
(werner@ikt.de)	isdnif.h
(werner@titro.de)	isdn_divertif.h
(werner@titro.de)	isdn_divertif.h
(yanmin.zhang@intel.com)	pci-aspm.h
<Marc.Espie@openbsd.org>	genhd.h
<a.gruenbacher@computer.org>	posix_acl_xattr.h
<alex.williamson@redhat.com>	vfio.h
<alexey.orishko@stericsson.com>	cdc_ncm.h
<andrea@suse.de>	rbtree_augmented.h
<ankry@mif.pg.gda.pl>	genhd.h
<ashok.raj@intel.com>	dmar.h
<astor@fast.no>	crypto.h
<avorontsov@ru.mvista.com>	ahci_platform.h
<axboe@suse.de>	pktcdvd.h
<ben.williamson@greyinnovation.com>	audio.h
<ben@codiert.org>	nwpserial.h
<benh@kernel.crashing.org>	vgaarb.h
<benjamin.tissoires@gmail.com>	i2c-hid.h
<bjorn@mork.no>	cdc-wdm.h
<catalin.marinas@arm.com>	kmemleak.h
<cbou@mail.ru>	power_supply.h
<ccross@android.com>	i2c-tegra.h
<clameter@sgi.com>	quicklist.h
<daniel@caiaq.de>	audio-v2.h
<davidel@xmailserver.org>	eventfd.h
<davidel@xmailserver.org>	eventpoll.h
<dbrownell@users.sourceforge.net>	usbnet.h
<dgoeddel@trustedcs.com>	selinux.h
<dhollis@davehollis.com>	usbnet.h
<dipankar@in.ibm.com>	rcutree.h
<dirk.behme@de.bosch.com>	tps65010.h
<djiang@mvista.com>	edac.h
<dmitry.kasatkin@intel.com>	digsig.h
<dmitry.kasatkin@nokia.com>	digsig.h
<drew@colorado.edu>	genhd.h
<duwe@informatik.uni-erlangen.de>	mc146818rtc.h
<dwmw2@infradead.org>	rbtree_augmented.h
<eibach@gdsys.de>	ads1015.h
<ejka@openwrt.org>	vlynq.h
<fabien.chouteau@barco.com>	g_hid.h
<flamingice@sourmilk.net>	ieee80211.h
<giometti@linux.it>	i2c-mux.h
<giometti@linux.it>	pca954x.h
<giometti@linux.it>	pps_kernel.h
<gnb@alphalink.com.au>	linux_logo.h
<greg@kroah.com>	debugfs.h
<greg@kroah.com>	debugfs.h
<greg@kroah.com>	kobject.h
<gw4pts@gw4pts.ampr.org>	fddidevice.h
<hans.petter.selasky@stericsson.com>	cdc_ncm.h
<herbert@gondor.apana.org.au>	crypto.h
<hong-jun.chen@freescale.com>	fsl-diu-fb.h
<inaky.perez-gonzalez@intel.com>	association.h
<inaky.perez-gonzalez@intel.com>	wusb-wa.h
<inaky.perez-gonzalez@intel.com>	wusb.h
<info@eurotech.it>	i2c-mux.h
<info@eurotech.it>	pca954x.h
<iws@ovro.caltech.edu>	ltc4245.h
<j-keerthy@ti.com>	twl4030-madc.h
<jacmet@sunsite.dk>	i2c-ocores.h
<jgarzik@pobox.com>	ahci_platform.h
<jkmaline@cc.hut.fi>	ieee80211.h
<jkmaline@cc.hut.fi>	ieee80211.h
<jmorris@intercode.com.au>	crypto.h
<jmorris@redhat.com>	selinux.h
<jmorris@redhat.com>	selinux.h
<johann.deneux@gmail.com>	fixp-arith.h
<jschlst@samba.org>	llc.h
<jun1m@mars.dti.ne.jp>	sonypi.h
<jy0922.shim@samsung.com>	atmel_mxt_ts.h
<jy0922.shim@samsung.com>	mcs.h
<jy0922.shim@samsung.com>	mms114.h
<kai.svahn@nokia.com>	twl.h
<kgb@knm.org.pl>	genhd.h
<khc@pm.waw.pl>	hdlc.h
<kishon@ti.com>	omap_usb.h
<kishon@ti.com>	phy_companion.h
<koji@osrg.net>	nilfs2_fs.h
<kuninori.morimoto.gx@renesas.com>	renesas_usbhs.h
<laijs@cn.fujitsu.com>	srcu.h
<lenz@cs.wisc.edu>	leds.h
<levon@movementarian.org>	dcookies.h
<linux-xfs@oss.sgi.com>	posix_acl_xattr.h
<lockwood@android.com>	extcon_gpio.h
<luming.yu@intel.com>	video_output.h
<m.ashley@unsw.edu.au>	sonypi.h
<m@bues.ch>	ssb_driver_chipcommon.h
<marek.vasut@gmail.com>	ucb1400.h
<michael.lawnick.ext@nsn.com>	i2c-mux.h
<michael.lawnick.ext@nsn.com>	pca954x.h
<mike.mclagan@linux.org>	sdla.h
<mingo@redhat.com>	rtmutex.h
<minyard@mvista.com>	ipmi.h
<mporter@kernel.crashing.org>	rio_regs.h
<mvw@planets.elm.net>	quotaops.h
<myungjoo.ham@samsung.com>	extcon-adc-jack.h
<myungjoo.ham@samsung.com>	extcon_gpio.h
<nars@kadamba.org>	sonypi.h
<ncorbic@sangoma.com>	wanrouter.h
<neil@brown.name>	leds-tca6507.h
<obz@Kodak.COM>	net.h
<panto@intracom.gr>	fs_enet_pd.h
<paul.widmer@freescale.com>	fsl-diu-fb.h
<paulmck@linux.vnet.ibm.com>	rcutiny.h
<paulmck@linux.vnet.ibm.com>	rcutree.h
<paulmck@us.ibm.com>	rcutree.h
<paulmck@us.ibm.com>	srcu.h
<petero2@telia.com>	pktcdvd.h
<philipp.zabel@gmail.com>	gpio_vbus.h
<przanoni@gmail.com>	vgaarb.h
<pzijlstr@redhat.com>	proportions.h
<pzijlstr@redhat.com>	uprobes.h
<riverful.kim@samsung.com>	mcs.h
<rjw@sisk.pl>,	pm_domain.h
<rjw@sisk.pl>,	syscore_ops.h
<rpurdie@openedhand.com>	leds.h
<ryusuke@osrg.net>	nilfs2_fs.h
<samu.p.onkalo@nokia.com>	apds990x.h
<samu.p.onkalo@nokia.com>	bh1770glc.h
<shaohua.li@intel.com>	dmar.h
<siglesias@igalia.com>	ipack.h
<spyro@f2s.com>	power_supply.h
<srikanth.srinivasan@freescale.com>	fsl-diu-fb.h
<srk@ti.com>	tca6416_keypad.h
<stefani@lkg.dec.com>	fddidevice.h
<stefani@seibold.net>	kfifo.h
<stelian@popies.net>	sonypi.h
<stigge@antcom.de>	isp1301.h
<swetland@google.com>	msm_hsusb.h
<swetland@google.com>	msm_hsusb_hw.h
<t-kinjo@tc4.so-net.ne.jp>	sonypi.h
<teheo@suse.de>	sysfs.h
<tglx@linutronix.de>	perf_event.h
<tglx@timesys.com>	rtmutex.h
<tinytim@us.ibm.com>	selinux.h
<tony.luck@intel.com>	pstore.h
<tridge@valinux.com>	sonypi.h
<vbordug@ru.mvista.com>	fs_enet_pd.h
<vignatti@freedesktop.org>	vgaarb.h
<vojtech@suse.cz>,	hiddev.h
<walken@google.com>	rbtree_augmented.h
<waltje@uWalt.NL.Mugnet.ORG>	fddidevice.h
<waltje@uWalt.NL.Mugnet.ORG>	in.h
<waltje@uWalt.NL.Mugnet.ORG>	ip.h
<waltje@uWalt.NL.Mugnet.ORG>	net.h
<yogo@math.tau.ac.il>	genhd.h
<yorksun@freescale.com>	fsl-diu-fb.h
<yoshihiro.shimoda.uh@renesas.com>	r8a66597.h
<zohar@us.ibm.com>	evm.h
andersee@debian.org	cdrom.h
axboe@suse.de	cdrom.h
benh@kernel.crashing.org	of_fdt.h
david@tm.tno.nl	cdrom.h
device@lanana.org.	miscdevice.h
emoenke@gwdg.de	cdrom.h
rafetmad@oxy.edu	cdrom.h
source@mvista.com	ipmi.h
zecke@handhelds.org	apm-emulation.h
