(davem@davemloft.net)	xfrm_hash.c
(davem@redhat.com)	flow.c
(davem@redhat.com)	flow.c
(davem@redhat.com)	xfrm_user.c
(emserrat@geocities.com)	af_decnet.c
(emserrat@geocities.com)	af_decnet.c
(emserrat@geocities.com)	af_decnet.c
(emserrat@geocities.com)	af_decnet.c
(kuznet@ms2.inr.ac.ru)	flow.c
(kuznet@ms2.inr.ac.ru)	flow.c
(luciomaciel@zipmail.com.br)	pktgen.c
(nmalykh@bilim.com)	pktgen.c
(patrick@pandh.demon.co.uk)	af_decnet.c
020417--sigurdur@linpro.no	pktgen.c
<A.Cox@swansea.ac.uk>	sock.c
<SteveW@ACM.org>	dn_dev.c
<SteveW@ACM.org>	dn_fib.c
<SteveW@ACM.org>	dn_neigh.c
<SteveW@ACM.org>	dn_route.c
<SteveW@ACM.org>	dn_rules.c
<SteveW@ACM.org>	dn_table.c
<SteveW@ACM.org>	dn_timer.c
<SteveW@ACM.org>	sysctl_net_decnet.c
<Trond.Myklebust@netapp.com>	auth_generic.c
<a.bittau@cs.ucl.ac.uk>	ccid2.c
<a.bittau@cs.ucl.ac.uk>	ccid2.h
<a.bittau@cs.ucl.ac.uk>	feat.c
<a.bittau@cs.ucl.ac.uk>	feat.h
<acme@conectiva.com.br>	ccid.c
<acme@conectiva.com.br>	ccid.h
<acme@conectiva.com.br>	ccid2.c
<acme@conectiva.com.br>	ccid3.c
<acme@conectiva.com.br>	ccid3.h
<acme@conectiva.com.br>	dccp.h
<acme@conectiva.com.br>	input.c
<acme@conectiva.com.br>	input.c
<acme@conectiva.com.br>	ipv4.c
<acme@conectiva.com.br>	loss_interval.c
<acme@conectiva.com.br>	loss_interval.h
<acme@conectiva.com.br>	minisocks.c
<acme@conectiva.com.br>	output.c
<acme@conectiva.com.br>	output.c
<acme@conectiva.com.br>	packet_history.c
<acme@conectiva.com.br>	packet_history.h
<acme@conectiva.com.br>	proto.c
<acme@conectiva.com.br>	stream.c
<acme@conectiva.com.br>	tfrc.h
<acme@conectiva.com.br>	tfrc_equation.c
<acme@conectiva.com.br>	timer.c
<acme@conectiva.com.br>	timer.c
<acme@conectiva.com.br>");	proto.c
<acme@conectiva.com.br>.	ccid3.c
<acme@conectiva.com.br>.	ccid3.h
<acme@conectiva.com.br>.	packet_history.c
<acme@conectiva.com.br>.	packet_history.h
<acme@ghostprotocols.net>	ackvec.c
<acme@ghostprotocols.net>	ipv6.c
<acme@ghostprotocols.net>	ipv6.c
<acme@ghostprotocols.net>	ipv6.h
<acme@ghostprotocols.net>	options.c
<acme@mandriva.com>	ackvec.h
<acme@mandriva.com>	diag.c
<acme@mandriva.com>	sysctl.c
<acme@mandriva.com>	sysctl.c
<acme@mandriva.com>	sysctl.c
<acme@mandriva.com>");	diag.c
<acme@mandriva.com>");	ipv4.c
<acme@mandriva.com>");	ipv6.c
<acme@mandriva.com>");	ipv6.c
<acme@redhat.com>	tfrc.c
<adit.262@gmail.com>	pktgen.c
<airlied@linux.ie>	sched.c
<airlied@linux.ie>	xprtsock.c
<alan@lxorguk.ukuu.org.uk>	stream.c
<andros@umich.edu>	auth_gss.c
<andros@umich.edu>	gss_generic_token.c
<andros@umich.edu>	gss_krb5_crypto.c
<andros@umich.edu>	gss_krb5_mech.c
<andros@umich.edu>	gss_krb5_seal.c
<andros@umich.edu>	gss_krb5_seqnum.c
<andros@umich.edu>	gss_krb5_unseal.c
<andros@umich.edu>	svcauth_gss.c
<andy@warmcat.com>	radiotap.c
<ardelle.fan@intel.com>	primitive.c
<ardelle.fan@intel.com>	protocol.c
<ardelle.fan@intel.com>	sm_make_chunk.c
<ardelle.fan@intel.com>	sm_sideeffect.c
<ardelle.fan@intel.com>	sm_statefuns.c
<ardelle.fan@intel.com>	sm_statetable.c
<ardelle.fan@intel.com>	ulpevent.c
<aris@cathedrallabs.org>	options.c
<aron@hp.com>	pktgen.c
<bfields@umich.edu>	gss_krb5_crypto.c
<bfields@umich.edu>	gss_krb5_mech.c
<bfields@umich.edu>	gss_krb5_seal.c
<bfields@umich.edu>	gss_mech_switch.c
<bfields@umich.edu>	svcauth_gss.c
<buytenh@wantstofly.org>	pktgen.c
<buytenh@wantstofly.org>	pktgen.c
<buytenh@wantstofly.org>");	dsa.c
<cel@netapp.com>	xprt.c
<cel@netapp.com>	xprtsock.c
<chris@hundredacre.ac.uk>	sm_make_chunk.c
<chuck.lever@oracle.com>	rpcb_clnt.c
<daisyc@us.ibm.com>	associola.c
<daisyc@us.ibm.com>	debug.c
<daisyc@us.ibm.com>	endpointola.c
<daisyc@us.ibm.com>	protocol.c
<daisyc@us.ibm.com>	sm_make_chunk.c
<daisyc@us.ibm.com>	sm_sideeffect.c
<daisyc@us.ibm.com>	sm_statefuns.c
<daisyc@us.ibm.com>	sm_statetable.c
<dajiang.zhang@nokia.com>	endpointola.c
<dajiang.zhang@nokia.com>	sm_make_chunk.c
<dajiang.zhang@nokia.com>	sm_sideeffect.c
<dajiang.zhang@nokia.com>	sm_statefuns.c
<davem@redhat.com>	af_key.c
<derek@ihtfp.com>	af_key.c
<derek@ihtfp.com>	xfrm_policy.c
<derek@ihtfp.com>	xfrm_state.c
<dugsong@monkey.org>	auth_gss.c
<dugsong@monkey.org>	svcauth_gss.c
<emserrat@geocities.com>	af_decnet.c
<emserrat@geocities.com>	dn_dev.c
<emserrat@geocities.com>	dn_nsp_in.c
<emserrat@geocities.com>	dn_nsp_out.c
<emserrat@geocities.com>	dn_route.c
<evansmp@uhura.aston.ac.uk>	eth.c
<flla@stud.uni-sb.de>	sock.c
<francesco.fondelli@gmail.com>	pktgen.c
<gem@asplinux.ru>	af_key.c
<gerrit@erg.abdn.ac.uk>	feat.c
<gerrit@erg.abdn.ac.uk>	feat.h
<gilles.quillard@bull.net>	rpcb_clnt.c
<gilles.quillard@bull.net>	xprtsock.c
<gnb@melbourne.sgi.com>	svc.c
<greearb@candelatech.com>	pktgen.c
<greearb@candelatech.com>	pktgen.c
<greearb@candelatech.com>	pktgen.c
<gw4pts@gw4pts.ampr.org>	eth.c
<herbert@gondor.apana.org.au>	xfrm_ipcomp.c
<herbert@gondor.apana.org.au>	xfrm_output.c
<hui.huang@nokia.com>	associola.c
<hui.huang@nokia.com>	outqueue.c
<hui.huang@nokia.com>	sm_sideeffect.c
<hui.huang@nokia.com>	sm_statefuns.c
<hui.huang@nokia.com>	sm_statetable.c
<ian.mcdonald@jandi.co.nz>	ccid3.c
<ian.mcdonald@jandi.co.nz>	dccp.h
<ian.mcdonald@jandi.co.nz>	loss_interval.c
<ian.mcdonald@jandi.co.nz>	loss_interval.h
<ian.mcdonald@jandi.co.nz>	options.c
<ian.mcdonald@jandi.co.nz>	probe.c
<ian.mcdonald@jandi.co.nz>	probe.c
<ian.mcdonald@jandi.co.nz>	tfrc.h
<ian.mcdonald@jandi.co.nz>	tfrc_equation.c
<ian.mcdonald@jandi.co.nz>");	probe.c
<ian.mcdonald@jandi.co.nz>");	probe.c
<j@w1.fi>	lib80211.c
<j@w1.fi>	lib80211_crypt_ccmp.c
<j@w1.fi>	lib80211_crypt_tkip.c
<j@w1.fi>	lib80211_crypt_wep.c
<j@w1.fi>	mlme.c
<jens.laas@data.slu.se>	pktgen.c
<jgrimm@austin.ibm.com>	endpointola.c
<jgrimm@austin.ibm.com>	sm_sideeffect.c
<jgrimm@us.ibm.com>	associola.c
<jgrimm@us.ibm.com>	chunk.c
<jgrimm@us.ibm.com>	debug.c
<jgrimm@us.ibm.com>	objcnt.c
<jgrimm@us.ibm.com>	outqueue.c
<jgrimm@us.ibm.com>	protocol.c
<jgrimm@us.ibm.com>	sm_make_chunk.c
<jgrimm@us.ibm.com>	sm_statefuns.c
<jgrimm@us.ibm.com>	sm_statetable.c
<jgrimm@us.ibm.com>	ssnmap.c
<jgrimm@us.ibm.com>	tsnmap.c
<jgrimm@us.ibm.com>	ulpevent.c
<jgrimm@us.ibm.com>	ulpqueue.c
<jketreno@linux.intel.com>	lib80211.c
<jmorris@intercode.com.au>	xfrm_algo.c
<jmorris@intercode.com.au>	xfrm_ipcomp.c
<jmorris@intercode.com.au>");	xfrm_ipcomp.c
<johannes@sipsolutions.net>	chan.c
<johannes@sipsolutions.net>	core.c
<johannes@sipsolutions.net>	core.c
<johannes@sipsolutions.net>	core.h
<johannes@sipsolutions.net>	core.h
<johannes@sipsolutions.net>	ibss.c
<johannes@sipsolutions.net>	nl80211.c
<johannes@sipsolutions.net>	radiotap.c
<johannes@sipsolutions.net>	reg.c
<johannes@sipsolutions.net>	scan.c
<johannes@sipsolutions.net>	sme.c
<johannes@sipsolutions.net>	util.c
<johannes@sipsolutions.net>	wext-compat.c
<johannes@sipsolutions.net>	wext-core.c
<johannes@sipsolutions.net>	wext-priv.c
<johannes@sipsolutions.net>	wext-sme.c
<john.r.fastabend@intel.com>	dcbevent.c
<jpirko@redhat.com>	dev_addr_lists.c
<jrs@world.std.com>	clnt.c
<jschlst@samba.org>	filter.c
<jt@hpl.hp.com>	wext-core.c
<jt@hpl.hp.com>	wext-priv.c
<jt@hpl.hp.com>	wext-proc.c
<jt@hpl.hp.com>	wext-spy.c
<karl@athena.chicago.il.us>	associola.c
<karl@athena.chicago.il.us>	command.c
<karl@athena.chicago.il.us>	debug.c
<karl@athena.chicago.il.us>	endpointola.c
<karl@athena.chicago.il.us>	inqueue.c
<karl@athena.chicago.il.us>	outqueue.c
<karl@athena.chicago.il.us>	primitive.c
<karl@athena.chicago.il.us>	protocol.c
<karl@athena.chicago.il.us>	sm_make_chunk.c
<karl@athena.chicago.il.us>	sm_sideeffect.c
<karl@athena.chicago.il.us>	sm_statefuns.c
<karl@athena.chicago.il.us>	sm_statetable.c
<karl@athena.chicago.il.us>	tsnmap.c
<kevin.gao@intel.com>	associola.c
<kevin.gao@intel.com>	primitive.c
<kevin.gao@intel.com>	sm_make_chunk.c
<kevin.gao@intel.com>	sm_statefuns.c
<kotowsky@sctp.org>	sm_statefuns.c
<kunihiro@ipinfusion.com>	af_key.c
<kunihiro@ipinfusion.com>	xfrm_policy.c
<kunihiro@ipinfusion.com>	xfrm_state.c
<kunihiro@ipinfusion.com>	xfrm_user.c
<kuznet@ms2.inr.ac.ru>	af_key.c
<kuznet@ms2.inr.ac.ru>	dst.c
<kuznet@ms2.inr.ac.ru>	neighbour.c
<kuznet@ms2.inr.ac.ru>	pktgen.c
<kuznet@ms2.inr.ac.ru>	rtnetlink.c
<laforge@netfilter.org>	pktgen.c
<lindner_marek@yahoo.de>,	main.h
<linville@tuxdriver.com>	lib80211.c
<linville@tuxdriver.com>	lib80211_crypt_ccmp.c
<linville@tuxdriver.com>	lib80211_crypt_tkip.c
<linville@tuxdriver.com>	lib80211_crypt_wep.c
<linville@tuxdriver.com>	regdb.h
<linville@tuxdriver.com>");	lib80211.c
<lksctp-developers@lists.sourceforge.net>	associola.c
<lksctp-developers@lists.sourceforge.net>	chunk.c
<lksctp-developers@lists.sourceforge.net>	command.c
<lksctp-developers@lists.sourceforge.net>	debug.c
<lksctp-developers@lists.sourceforge.net>	endpointola.c
<lksctp-developers@lists.sourceforge.net>	inqueue.c
<lksctp-developers@lists.sourceforge.net>	objcnt.c
<lksctp-developers@lists.sourceforge.net>	outqueue.c
<lksctp-developers@lists.sourceforge.net>	primitive.c
<lksctp-developers@lists.sourceforge.net>	protocol.c
<lksctp-developers@lists.sourceforge.net>	sm_make_chunk.c
<lksctp-developers@lists.sourceforge.net>	sm_sideeffect.c
<lksctp-developers@lists.sourceforge.net>	sm_statefuns.c
<lksctp-developers@lists.sourceforge.net>	sm_statetable.c
<lksctp-developers@lists.sourceforge.net>	ssnmap.c
<lksctp-developers@lists.sourceforge.net>	tsnmap.c
<lksctp-developers@lists.sourceforge.net>	ulpevent.c
<lksctp-developers@lists.sourceforge.net>	ulpqueue.c
<lksctp-developers@lists.sourceforge.net>");	protocol.c
<lucy.liu@intel.com>	dcbnl.c
<lucy.liu@intel.com>");	dcbnl.c
<matthew@wil.cx>	ethtool.c
<matthew@wil.cx>	ethtool.c
<mcgrof@qca.qualcomm.com>	reg.c
<mcgrof@qca.qualcomm.com>	reg.h
<nacc@us.ibm.com>	pktgen.c
<narasimha@refcode.org>	primitive.c
<neilb@cse.unsw.edu.au>	cache.c
<neilb@cse.unsw.edu.au>	svcauth_gss.c
<okir@monad.swb.de>	auth_null.c
<okir@monad.swb.de>	auth_unix.c
<okir@monad.swb.de>	clnt.c
<okir@monad.swb.de>	rpcb_clnt.c
<okir@monad.swb.de>	sched.c
<okir@monad.swb.de>	socklib.c
<okir@monad.swb.de>	stats.c
<okir@monad.swb.de>	sunrpc_syms.c
<okir@monad.swb.de>	svc.c
<okir@monad.swb.de>	svcauth.c
<okir@monad.swb.de>	svcsock.c
<okir@monad.swb.de>	xdr.c
<okir@monad.swb.de>	xprt.c
<oliver.hartkopp@volkswagen.de>");	af_can.c
<oliver.hartkopp@volkswagen.de>");	bcm.c
<oliver.hartkopp@volkswagen.de>");	gw.c
<patience@newdream.net>");	ceph_common.c
<patrick@pandh.demon.co.uk>	af_decnet.c
<piggy@acm.org>	associola.c
<piggy@acm.org>	command.c
<piggy@acm.org>	debug.c
<piggy@acm.org>	endpointola.c
<piggy@acm.org>	inqueue.c
<piggy@acm.org>	outqueue.c
<piggy@acm.org>	primitive.c
<piggy@acm.org>	protocol.c
<piggy@acm.org>	sm_make_chunk.c
<piggy@acm.org>	sm_sideeffect.c
<piggy@acm.org>	sm_statefuns.c
<piggy@acm.org>	sm_statetable.c
<piggy@acm.org>	tsnmap.c
<piggy@acm.org>	ulpevent.c
<piggy@acm.org>	ulpqueue.c
<pmelange@null.cc.uic.edu>	outqueue.c
<rmlayer@us.ibm.com>	associola.c
<rmlayer@us.ibm.com>	sm_statefuns.c
<robert.olsson@its.uu.se>	pktgen.c
<robert.olsson@its.uu.se>");	pktgen.c
<roque@di.fc.ul.pt>	neighbour.c
<rzsfl@rz.uni-sb.de>	eth.c
<sage@newdream.net>");	ceph_common.c
<sakari.ailus@nokia.com>	caif_dev.c
<samudrala@us.ibm.com>	sm_statefuns.c
<shemminger@osdl.org>	pktgen.c
<shemminger@osdl.org>	probe.c
<shemminger@osdl.org>	probe.c
<siwu@hrz.tu-chemnitz.de>"	main.h
<sri@us.ibm.com>	associola.c
<sri@us.ibm.com>	chunk.c
<sri@us.ibm.com>	debug.c
<sri@us.ibm.com>	outqueue.c
<sri@us.ibm.com>	protocol.c
<sri@us.ibm.com>	sm_make_chunk.c
<sri@us.ibm.com>	sm_sideeffect.c
<sri@us.ibm.com>	sm_statetable.c
<sri@us.ibm.com>	tsnmap.c
<sri@us.ibm.com>	ulpevent.c
<sri@us.ibm.com>	ulpqueue.c
<steffen.klassert@secunet.com>	xfrm_replay.c
<steve@chygwyn.com>	dn_rtmsg.c
<steve@chygwyn.com>	dn_rules.c
<steve@chygwyn.com>	pktgen.c
<steve@chygwyn.com>");	dn_rtmsg.c
<swise@opengridcomputing.com>	netevent.c
<tom@opengridcomputing.com>	netevent.c
<tom@opengridcomputing.com>	svc_rdma.c
<tom@opengridcomputing.com>	svc_rdma_marshal.c
<tom@opengridcomputing.com>	svc_rdma_recvfrom.c
<tom@opengridcomputing.com>	svc_rdma_sendto.c
<tom@opengridcomputing.com>	svc_rdma_transport.c
<tom@opengridcomputing.com>	svc_xprt.c
<tom@opengridcomputing.com>");	svc_rdma.c
<tomasz@grobelny.oswiecenia.net>	qpolicy.c
<trond.myklebust@fys.uio.no>	rpc_pipe.c
<trond.myklebust@fys.uio.no>	xprtsock.c
<urs.thuermann@volkswagen.de>");	raw.c
<urs.thuermann@volkswagen.de>,	af_can.c
<waltje@uWalt.NL.Mugnet.ORG>	eth.c
<waltje@uWalt.NL.Mugnet.ORG>	sock.c
<xingang.guo@intel.com>	associola.c
<xingang.guo@intel.com>	debug.c
<xingang.guo@intel.com>	outqueue.c
<xingang.guo@intel.com>	sm_make_chunk.c
<yehuda@hq.newdream.net>");	ceph_common.c
Brendeland/sjur.brandeland@stericsson.com	caif_dev.c
Brendeland/sjur.brandeland@stericsson.com	caif_usb.c
Brendeland/sjur.brandeland@stericsson.com	cfcnfg.c
Brendeland/sjur.brandeland@stericsson.com	cfctrl.c
Brendeland/sjur.brandeland@stericsson.com	cfdbgl.c
Brendeland/sjur.brandeland@stericsson.com	cfdgml.c
Brendeland/sjur.brandeland@stericsson.com	cffrml.c
Brendeland/sjur.brandeland@stericsson.com	cfmuxl.c
Brendeland/sjur.brandeland@stericsson.com	cfpkt_skbuff.c
Brendeland/sjur.brandeland@stericsson.com	cfrfml.c
Brendeland/sjur.brandeland@stericsson.com	cfserl.c
Brendeland/sjur.brandeland@stericsson.com	cfsrvl.c
Brendeland/sjur.brandeland@stericsson.com	cfutill.c
Brendeland/sjur.brandeland@stericsson.com	cfveil.c
Brendeland/sjur.brandeland@stericsson.com	cfvidl.c
Brendeland/sjur.brandeland@stericsson.com	chnl_net.c
Daniel.Martensson@stericsson.com	chnl_net.c
Jens.Laas@data.slu.se	pktgen.c
SteveW@ACM.org	dn_nsp_out.c
dccp@vger.kernel.org"	packet_history.c
emserrat@geocities.com	af_decnet.c
emserrat@geocities.com	dn_nsp_in.c
emserrat@geocities.com	dn_nsp_out.c
emserrat@geocities.com	dn_route.c
ian.mcdonald@jandi.co.nz	ccid3.h
ian.mcdonald@jandi.co.nz	packet_history.c
ian.mcdonald@jandi.co.nz	packet_history.h
sjur.brandeland@stericsson.com	caif_socket.c
