((pshilovsky@samba.org)	smb2file.c
(arne@knoware.nl),	ncpsign_kernel.c
(arne@knoware.nl),	ncpsign_kernel.h
(avishay@gmail.com)	dir.c
(avishay@gmail.com)	dir.c
(avishay@gmail.com)	dir.c
(avishay@gmail.com)	dir.c
(avishay@gmail.com)	dir.c
(avishay@gmail.com)	dir.c
(avishay@gmail.com)	dir.c
(avishay@gmail.com)	dir.c
(avishay@gmail.com)	file.c
(avishay@gmail.com)	file.c
(avishay@gmail.com)	file.c
(avishay@gmail.com)	file.c
(avishay@gmail.com)	file.c
(avishay@gmail.com)	file.c
(avishay@gmail.com)	file.c
(avishay@gmail.com)	file.c
(avishay@gmail.com)	file.c
(avishay@gmail.com)	inode.c
(avishay@gmail.com)	inode.c
(avishay@gmail.com)	inode.c
(avishay@gmail.com)	inode.c
(avishay@gmail.com)	inode.c
(avishay@gmail.com)	inode.c
(avishay@gmail.com)	inode.c
(avishay@gmail.com)	inode.c
(avishay@gmail.com)	inode.c
(avishay@gmail.com)	inode.c
(avishay@gmail.com)	namei.c
(avishay@gmail.com)	namei.c
(avishay@gmail.com)	namei.c
(avishay@gmail.com)	namei.c
(avishay@gmail.com)	namei.c
(avishay@gmail.com)	ore.c
(avishay@gmail.com)	super.c
(avishay@gmail.com)	super.c
(avishay@gmail.com)	super.c
(avishay@gmail.com)	super.c
(avishay@gmail.com)	super.c
(avishay@gmail.com)	super.c
(avishay@gmail.com)	symlink.c
(avishay@gmail.com)	symlink.c
(avishay@gmail.com)	symlink.c
(avishay@gmail.com)	symlink.c
(card@masi.ibp.fr)	balloc.c
(card@masi.ibp.fr)	balloc.c
(card@masi.ibp.fr)	bitmap.c
(card@masi.ibp.fr)	bitmap.c
(card@masi.ibp.fr)	dir.c
(card@masi.ibp.fr)	dir.c
(card@masi.ibp.fr)	dir.c
(card@masi.ibp.fr)	dir.c
(card@masi.ibp.fr)	dir.c
(card@masi.ibp.fr)	dir.c
(card@masi.ibp.fr)	dir.c
(card@masi.ibp.fr)	dir.c
(card@masi.ibp.fr)	ext3.h
(card@masi.ibp.fr)	file.c
(card@masi.ibp.fr)	file.c
(card@masi.ibp.fr)	file.c
(card@masi.ibp.fr)	file.c
(card@masi.ibp.fr)	file.c
(card@masi.ibp.fr)	file.c
(card@masi.ibp.fr)	file.c
(card@masi.ibp.fr)	file.c
(card@masi.ibp.fr)	file.c
(card@masi.ibp.fr)	fsync.c
(card@masi.ibp.fr)	ialloc.c
(card@masi.ibp.fr)	ialloc.c
(card@masi.ibp.fr)	inode.c
(card@masi.ibp.fr)	inode.c
(card@masi.ibp.fr)	inode.c
(card@masi.ibp.fr)	inode.c
(card@masi.ibp.fr)	inode.c
(card@masi.ibp.fr)	inode.c
(card@masi.ibp.fr)	inode.c
(card@masi.ibp.fr)	inode.c
(card@masi.ibp.fr)	inode.c
(card@masi.ibp.fr)	inode.c
(card@masi.ibp.fr)	namei.c
(card@masi.ibp.fr)	namei.c
(card@masi.ibp.fr)	namei.c
(card@masi.ibp.fr)	namei.c
(card@masi.ibp.fr)	namei.c
(card@masi.ibp.fr)	super.c
(card@masi.ibp.fr)	super.c
(card@masi.ibp.fr)	super.c
(card@masi.ibp.fr)	super.c
(card@masi.ibp.fr)	super.c
(card@masi.ibp.fr)	super.c
(card@masi.ibp.fr)	symlink.c
(card@masi.ibp.fr)	symlink.c
(card@masi.ibp.fr)	symlink.c
(card@masi.ibp.fr)	symlink.c
(davem@caip.rutgers.edu)	file_table.c
(davem@caip.rutgers.edu),	balloc.c
(davem@caip.rutgers.edu),	balloc.c
(davem@caip.rutgers.edu),	fsync.c
(davem@caip.rutgers.edu),	ialloc.c
(davem@caip.rutgers.edu),	ialloc.c
(dhowells@redhat.com)	bind.c
(dhowells@redhat.com)	binfmt_elf_fdpic.c
(dhowells@redhat.com)	daemon.c
(dhowells@redhat.com)	dns_resolve.c
(dhowells@redhat.com)	interface.c
(dhowells@redhat.com)	key.c
(dhowells@redhat.com)	proc.c
(dhowells@redhat.com)	rdwr.c
(dhowells@redhat.com)	security.c
(gerg@snapgear.com)	binfmt_flat.c
(jlayton@redhat.com)	cifs_spnego.c
(jlayton@redhat.com)	cifs_spnego.h
(jra@samba.org)	cifsglob.h
(jra@samba.org)	smb2glob.h
(jra@samba.org)	smb2transport.c
(jra@samba.org)	transport.c
(mikulas@artax.karlin.mff.cuni.cz),	alloc.c
(mikulas@artax.karlin.mff.cuni.cz),	anode.c
(mikulas@artax.karlin.mff.cuni.cz),	buffer.c
(mikulas@artax.karlin.mff.cuni.cz),	dnode.c
(mikulas@artax.karlin.mff.cuni.cz),	ea.c
(mikulas@artax.karlin.mff.cuni.cz),	hpfs_fn.h
(mikulas@artax.karlin.mff.cuni.cz),	map.c
(mikulas@artax.karlin.mff.cuni.cz),	name.c
(niallain@gmail.com)	cifs_dfs_ref.c
(niallain@gmail.com)	dns_resolve.c
(okir@monad.swb.de)	nfssvc.c
(pshilovsky@samba.org)	smb2glob.h
(pshilovsky@samba.org)	smb2misc.c
(pshilovsky@samba.org)	smb2pdu.c
(pshilovsky@samba.org)	smb2pdu.h
(pshilovsky@samba.org)	smb2proto.h
(pshilovsky@samba.org)	smb2transport.c
(pshilovsky@samba.org),	smb2inode.c
(sct@redhat.com)	fsync.c
(sct@redhat.com),	balloc.c
(sct@redhat.com),	balloc.c
(sct@redhat.com),	ialloc.c
(sct@redhat.com),	ialloc.c
(sfrench@us.ibm.com)	cifs_debug.c
(sfrench@us.ibm.com)	cifs_debug.h
(sfrench@us.ibm.com)	cifs_dfs_ref.c
(sfrench@us.ibm.com)	cifs_fs_sb.h
(sfrench@us.ibm.com)	cifs_spnego.h
(sfrench@us.ibm.com)	cifs_unicode.c
(sfrench@us.ibm.com)	cifsacl.c
(sfrench@us.ibm.com)	cifsacl.h
(sfrench@us.ibm.com)	cifsencrypt.c
(sfrench@us.ibm.com)	cifsfs.c
(sfrench@us.ibm.com)	cifsfs.h
(sfrench@us.ibm.com)	cifsglob.h
(sfrench@us.ibm.com)	cifspdu.h
(sfrench@us.ibm.com)	cifsproto.h
(sfrench@us.ibm.com)	cifssmb.c
(sfrench@us.ibm.com)	connect.c
(sfrench@us.ibm.com)	dns_resolve.c
(sfrench@us.ibm.com)	dns_resolve.h
(sfrench@us.ibm.com)	ioctl.c
(sfrench@us.ibm.com)	ioctl.c
(sfrench@us.ibm.com)	ioctl.c
(sfrench@us.ibm.com)	link.c
(sfrench@us.ibm.com)	misc.c
(sfrench@us.ibm.com)	netmisc.c
(sfrench@us.ibm.com)	ntlmssp.h
(sfrench@us.ibm.com)	readdir.c
(sfrench@us.ibm.com)	rfc1002pdu.h
(sfrench@us.ibm.com)	sess.c
(sfrench@us.ibm.com)	smb2glob.h
(sfrench@us.ibm.com)	smb2inode.c
(sfrench@us.ibm.com)	smb2maperror.c
(sfrench@us.ibm.com)	smb2misc.c
(sfrench@us.ibm.com)	smb2pdu.c
(sfrench@us.ibm.com)	smb2pdu.h
(sfrench@us.ibm.com)	smb2proto.h
(sfrench@us.ibm.com)	smb2status.h
(sfrench@us.ibm.com)	smb2transport.c
(sfrench@us.ibm.com)	smbencrypt.c
(sfrench@us.ibm.com)	smberr.h
(sfrench@us.ibm.com)	smbfsctl.h
(sfrench@us.ibm.com)	transport.c
(sfrench@us.ibm.com),	smb2file.c
(sjayaraman@suse.de>	cache.c
(sjayaraman@suse.de>	fscache.h
(wang840925@gmail.com)	dns_resolve.c
<a.gruenbacher@computer.org>	xattr_trusted.c
<a.gruenbacher@computer.org>	xattr_trusted.c
<a.gruenbacher@computer.org>	xattr_user.c
<abartlet@samba.org>	smbencrypt.c
<adilger@clusterfs.com>	resize.c
<agruen@suse.de>	nfs2acl.c
<agruen@suse.de>	nfs3acl.c
<andrea@suse.de>	block_dev.c
<andros@citi.umich.edu>	nfs4recover.c
<andros@umich.edu>	nfs4callback.c
<andros@umich.edu>	nfs4proc.c
<andros@umich.edu>	nfs4xdr.c
<andros@umich.edu>	state.h
<andros@umich.edu>	xdr4.h
<avishay@gmail.com>");	super.c
<avishay@gmail.com>");	super.c
<avishay@gmail.com>");	super.c
<avishay@gmail.com>");	super.c
<avishay@gmail.com>");	super.c
<avishay@gmail.com>");	super.c
<ben@simtec.co.uk>	namei.h
<bfields@umich.edu>	nfs4acl.c
<bharrosh@panasas.com>	dir.c
<bharrosh@panasas.com>	dir.c
<bharrosh@panasas.com>	dir.c
<bharrosh@panasas.com>	dir.c
<bharrosh@panasas.com>	dir.c
<bharrosh@panasas.com>	dir.c
<bharrosh@panasas.com>	dir.c
<bharrosh@panasas.com>	dir.c
<bharrosh@panasas.com>	file.c
<bharrosh@panasas.com>	file.c
<bharrosh@panasas.com>	file.c
<bharrosh@panasas.com>	file.c
<bharrosh@panasas.com>	file.c
<bharrosh@panasas.com>	file.c
<bharrosh@panasas.com>	file.c
<bharrosh@panasas.com>	file.c
<bharrosh@panasas.com>	file.c
<bharrosh@panasas.com>	inode.c
<bharrosh@panasas.com>	inode.c
<bharrosh@panasas.com>	inode.c
<bharrosh@panasas.com>	inode.c
<bharrosh@panasas.com>	inode.c
<bharrosh@panasas.com>	inode.c
<bharrosh@panasas.com>	inode.c
<bharrosh@panasas.com>	inode.c
<bharrosh@panasas.com>	inode.c
<bharrosh@panasas.com>	inode.c
<bharrosh@panasas.com>	namei.c
<bharrosh@panasas.com>	namei.c
<bharrosh@panasas.com>	namei.c
<bharrosh@panasas.com>	namei.c
<bharrosh@panasas.com>	namei.c
<bharrosh@panasas.com>	ore.c
<bharrosh@panasas.com>	ore_raid.h
<bharrosh@panasas.com>	super.c
<bharrosh@panasas.com>	super.c
<bharrosh@panasas.com>	super.c
<bharrosh@panasas.com>	super.c
<bharrosh@panasas.com>	super.c
<bharrosh@panasas.com>	super.c
<bharrosh@panasas.com>	symlink.c
<bharrosh@panasas.com>	symlink.c
<bharrosh@panasas.com>	symlink.c
<bharrosh@panasas.com>	symlink.c
<bharrosh@panasas.com>");	ore.c
<bjschuma@netapp.com>	fault_inject.c
<davidel@xmailserver.org>	timerfd.c
<davidm@lineo.com>	binfmt_flat.c
<davidm@snapgear.com>	binfmt_flat.c
<dwmw2@infradead.org>	compr.h
<dwmw2@infradead.org>	erase.c
<dwmw2@infradead.org>	erase.c
<dwmw2@infradead.org>	gc.c
<dwmw2@infradead.org>	gc.c
<dwmw2@infradead.org>	jffs2_fs_sb.h
<dwmw2@infradead.org>	jffs2_fs_sb.h
<dwmw2@infradead.org>	nodelist.h
<dwmw2@infradead.org>	nodemgmt.c
<gam3@acm.org>	nfsfh.c
<gerg@snapgear.com>	binfmt_flat.c
<havasi@inf.u-szeged.hu>,	compr.h
<havasi@inf.u-szeged.hu>,	summary.h
<hirofumi@mail.parknet.co.jp>	nls_euc-jp.c
<info@fsf.org>"	ore_raid.h
<jeremy@sw.oz.au>	binfmt_elf_fdpic.c
<jlayton@redhat.com>	netns.h
<jlayton@redhat.com>	nfs4recover.c
<jlayton@redhat.com>	smb1ops.c
<jlayton@redhat.com>	smb2ops.c
<jsedlak@umich.edu>	nfs4acl.c
<kandros@umich.edu>	nfs4state.c
<keescook@chromium.org>	ram.c
<kjahds@kjahds.com>	binfmt_flat.c
<kmsmith@umich.edu>	nfs4callback.c
<kmsmith@umich.edu>	nfs4proc.c
<kmsmith@umich.edu>	nfs4state.c
<kmsmith@umich.edu>	nfs4xdr.c
<kmsmith@umich.edu>	state.h
<kmsmith@umich.edu>	xdr4.h
<levon@movementarian.org>	dcookies.c
<mahalcro@us.ibm.com>	crypto.c
<mahalcro@us.ibm.com>	debug.c
<mahalcro@us.ibm.com>	debug.c
<mahalcro@us.ibm.com>	ecryptfs_kernel.h
<mahalcro@us.ibm.com>	kthread.c
<mahalcro@us.ibm.com>	read_write.c
<marco.stornelli@gmail.com>	ram.c
<marco.stornelli@gmail.com>");	ram.c
<marius@umich.edu>	idmap.h
<marius@umich.edu>	nfs4acl.c
<marius@umich.edu>	nfs4idmap.c
<mcthomps@us.ibm.com>	crypto.c
<mcthomps@us.ibm.com>	keystore.c
<mhalcrow@us.ibm.com>	keystore.c
<mhalcrow@us.ibm.com>	messaging.c
<mhalcrow@us.ibm.com>	miscdev.c
<neilb@cse.unsw.edu.au>	nfsfh.c
<neilb@cse.unsw.edu.au>	vfs.c
<okir@monad.swb.de>	auth.c
<okir@monad.swb.de>	auth.h
<okir@monad.swb.de>	cache.h
<okir@monad.swb.de>	lockd.c
<okir@monad.swb.de>	nfs3proc.c
<okir@monad.swb.de>	nfs3xdr.c
<okir@monad.swb.de>	nfscache.c
<okir@monad.swb.de>	nfsctl.c
<okir@monad.swb.de>	nfsd.h
<okir@monad.swb.de>	nfsfh.c
<okir@monad.swb.de>	nfsfh.h
<okir@monad.swb.de>	nfsproc.c
<okir@monad.swb.de>	nfssvc.c
<okir@monad.swb.de>	nfsxdr.c
<okir@monad.swb.de>	stats.c
<okir@monad.swb.de>	vfs.c
<okir@monad.swb.de>	vfs.h
<okir@monad.swb.de>	xdr3.h
<okir@monad.swb.de>");	nfsctl.c
<pajko@halom.u-szeged.hu>,	summary.h
<pauli@snapgear.com>	binfmt_flat.c
<sct@redhat.com>,	ext3.h
<sfrench@us.ibm.com>");	cifsfs.c
<sjayaraman@suse.de>	fscache.c
<taka@valinux.co.jp>	vfs.c
<tony.luck@intel.com>	platform.c
<trevor.highland@gmail.com>	ecryptfs_kernel.h
<trevor.highland@gmail.com>	keystore.c
<tyhicks@ou.edu>	ecryptfs_kernel.h
<tyhicks@ou.edu>	messaging.c
<weth@inf.u-szeged.hu>,	summary.h
hch@infradead.org\n");	vxfs_olt.c
janetinc@us.ibm.com	direct-io.c
nathans@sgi.com	direct-io.c
okir@monad.swb.de).\n");	nfsctl.c
pbadari@us.ibm.com	direct-io.c
pbadari@us.ibm.com	direct-io.c
rhys@sucs.swan.ac.uk	nls_iso8859-14.c
vandrove@vc.cvut.cz	ncplib_kernel.c
