(Alan_Altmark@us.ibm.com)	iucv.c
(alan@lxorguk.ukuu.org.uk)	af_netrom.c
(alan@lxorguk.ukuu.org.uk)	nr_route.c
(davem@redhat.com)	l2tp_core.c
(devik@cdi.cz).	xt_connbytes.c
(dlm@g7led.demon.co.uk)	af_netrom.c
(dlm@g7led.demon.co.uk)	nr_in.c
(dlm@g7led.demon.co.uk)	nr_out.c
(elfert@de.ibm.com,	iucv.c
(felfert@millenux.com)");	iucv.c
(g4klx@g4klx.demon.co.uk)	af_netrom.c
(g4klx@g4klx.demon.co.uk)	nr_dev.c
(g4klx@g4klx.demon.co.uk)	nr_in.c
(g4klx@g4klx.demon.co.uk)	nr_out.c
(g4klx@g4klx.demon.co.uk)	nr_route.c
(g4klx@g4klx.demon.co.uk)	nr_subr.c
(g4klx@g4klx.demon.co.uk)	nr_timer.c
(hadi@cyberus.ca)	sch_gred.c
(jchapman@katalix.com)	l2tp_core.c
(jchapman@katalix.com)	l2tp_ppp.c
(marc@mbsi.ca).	xt_conntrack.c
(oh2bns@sral.fi)	nr_loopback.c
(oh2bns@sral.fi)	nr_route.c
(ralf@gnu.org)	nr_timer.c
(rusty@rustcorp.com.au).	xt_connlimit.c
(shaver@zeroknowledge.com)	sysctl_net_netrom.c
(ursula.braun@de.ibm.com)	iucv.c
(xenia@us.ibm.com)	iucv.c
<a.nielsen@shikadi.net>	xt_LED.c
<a.nielsen@shikadi.net>");	xt_LED.c
<acme@conectiva.com.br>	af_netlink.c
<acme@conectiva.com.br>	resources.c
<acme@xconectiva.com.br>	l2tp_core.c
<alan@lxorguk.ukuu.org.uk>	af_netlink.c
<alex.bluesman.smirnov@gmail.com>	ieee802154_dev.c
<alex.bluesman.smirnov@gmail.com>	mac802154.h
<alex.bluesman.smirnov@gmail.com>	mac_cmd.c
<alex.bluesman.smirnov@gmail.com>	mib.c
<alex.bluesman.smirnov@gmail.com>	monitor.c
<alex.bluesman.smirnov@gmail.com>	rx.c
<alex.bluesman.smirnov@gmail.com>	tx.c
<alex.bluesman.smirnov@gmail.com>	wpan.c
<alex@pilotsoft.com>	cls_fw.c
<alexander.h.duyck@intel.com>	act_skbedit.c
<alexander.h.duyck@intel.com>	sch_multiq.c
<alexander.h.duyck@intel.com>");	act_skbedit.c
<baggins@pld.org.pl>");	xt_LOG.c
<baronchon@n7mm.org>	act_csum.c
<bdschuym@pandora.be>	xt_physdev.c
<bdschuym@pandora.be>");	xt_physdev.c
<ben@redfrontdoor.org>	ip_vs_nfct.c
<bof@bof.de>	ip_set_bitmap_ip.c
<bof@bof.de>	ip_set_bitmap_ipmac.c
<bof@bof.de>	ip_set_core.c
<bof@bof.de>	xt_set.c
<brueckner@linux.vnet.ibm.com>	af_iucv.c
<celston@katalix.com>");	l2tp_ip6.c
<chentschel@arnet.com.ar>	nf_conntrack_sip.c
<chentschel@arnet.com.ar>	nf_nat_sip.c
<chentschel@arnet.com.ar>");	nf_conntrack_sip.c
<chentschel@arnet.com.ar>");	nf_nat_sip.c
<clement.moreau@inventel.fr>	core.c
<clement.moreau@inventel.fr>	core.c
<clement.moreau@inventel.fr>	core.c
<clement.moreau@inventel.fr>	core.c
<clement.moreau@inventel.fr>	core.c
<clement.moreau@inventel.fr>	netdev.c
<clg@fr.ibm.com>	mq_sysctl.c
<coreteam@netfilter.org>	nf_conntrack_core.c
<coreteam@netfilter.org>	nf_conntrack_ecache.c
<coreteam@netfilter.org>	nf_conntrack_ftp.c
<coreteam@netfilter.org>	nf_conntrack_helper.c
<coreteam@netfilter.org>	nf_conntrack_l3proto_generic.c
<coreteam@netfilter.org>	nf_conntrack_proto.c
<coreteam@netfilter.org>	nf_conntrack_proto_generic.c
<coreteam@netfilter.org>	nf_conntrack_proto_udplite.c
<coreteam@netfilter.org>	nf_conntrack_standalone.c
<coreteam@netfilter.org>	nf_nat_ftp.c
<coreteam@netfilter.org>	nf_nat_helper.c
<coreteam@netfilter.org>	nf_nat_proto_common.c
<coreteam@netfilter.org>	nf_nat_proto_tcp.c
<coreteam@netfilter.org>	nf_nat_proto_udp.c
<coreteam@netfilter.org>	nf_nat_proto_udplite.c
<coreteam@netfilter.org>	nf_nat_proto_unknown.c
<coreteam@netfilter.org>	xt_LOG.c
<coreteam@netfilter.org>	xt_mac.c
<coreteam@netfilter.org>	xt_multiport.c
<coreteam@netfilter.org>	xt_nat.c
<coreteam@netfilter.org>	xt_state.c
<coreteam@netfilter.org>");	xt_LOG.c
<coreteam@netfilter.org>");	xt_mac.c
<coreteam@netfilter.org>");	xt_multiport.c
<dave.taht@bufferbloat.net>	sch_codel.c
<david.libault@inventel.fr>	core.c
<david.libault@inventel.fr>	core.c
<david.libault@inventel.fr>	core.c
<david.libault@inventel.fr>	core.c
<david.libault@inventel.fr>	core.c
<david.libault@inventel.fr>	netdev.c
<david.libault@inventel.fr>	sock.c
<david.libault@inventel.fr>	sock.c
<david.libault@inventel.fr>	sock.c
<david.libault@inventel.fr>	sock.c
<dbaryshkov@gmail.com>	mac802154.h
<dbaryshkov@gmail.com>	mac_cmd.c
<dbaryshkov@gmail.com>	mib.c
<dbaryshkov@gmail.com>	monitor.c
<dbaryshkov@gmail.com>	rx.c
<dbaryshkov@gmail.com>	tx.c
<dbaryshkov@gmail.com>	wpan.c
<delaunois@info.ucl.be>	xt_TEE.c
<devik@cdi.cz>	sch_htb.c
<devivie@info.enserb.u-bordeaux.fr>	xt_limit.c
<don@isis.cs3-inc.com>	xt_u32.c
<dragos@iname.com>	sem.c
<dtor@mail.ru>	sch_tbf.c
<dustin.kirkland@us.ibm.com>	sem.c
<ebiederm@xmision.com>	ipc_sysctl.c
<edumazet@google.com>	sch_codel.c
<edumazet@google.com>	sch_fq_codel.c
<ejbs@netlabs.com.uy>	cls_api.c
<ejbs@netlabs.com.uy>	sch_api.c
<eric.dumazet@gmail.com>	sch_choke.c
<eric.dumazet@gmail.com>	sch_sfb.c
<eric.dumazet@gmail.com>");	xt_cpu.c
<ext-timo.teras@nokia.com>	xt_IDLETIMER.c
<ext-timo.teras@nokia.com>");	xt_IDLETIMER.c
<eychenne@info.enserb.u-bordeaux.fr>	xt_limit.c
<fabrice@netfilter.org>	xt_time.c
<fabrice@netfilter.org>.	xt_statistic.c
<fw@strlen.de>	em_ipset.c
<fw@strlen.de>");	em_ipset.c
<g4klx@g4klx.demon.co.uk>");	af_netrom.c
<g4klx@g4klx.demon.co.uk>");	af_x25.c
<gandalf@netfilter.org>");	xt_helper.c
<gandalf@wlug.westbo.se>	ip_set_bitmap_ipmac.c
<gandalf@wlug.westbo.se>	xt_helper.c
<gandalf@wlug.westbo.se>	xt_set.c
<gozem@linux.nu>	ip_set_bitmap_ip.c
<gozem@linux.nu>	ip_set_bitmap_ipmac.c
<gozem@linux.nu>	ip_set_core.c
<gozem@linux.nu>	xt_set.c
<gustavo@padovan.org>	l2cap_core.c
<gustavo@padovan.org>	l2cap_sock.c
<gw4pts@gw4pts.ampr.org>	af_packet.c
<hadi@cyberus.ca>	sch_generic.c
<hadi@nortelnetworks.com>:	sch_api.c
<hadi@nortelnetworks.com>:	sch_prio.c
<hans.schillstrom@ericsson.com>	ip_vs_est.c
<hans.schillstrom@ericsson.com>	ip_vs_proto_tcp.c
<hans.schillstrom@ericsson.com>	ip_vs_proto_udp.c
<hans.schillstrom@ericsson.com>	xt_HMARK.c
<hans.schillstrom@ericsson.com>");	xt_HMARK.c
<heder@google.com>	ip_vs_nfct.c
<heder@google.com>	xt_ipvs.c
<heder@google.com>");	xt_ipvs.c
<herbert@gondor.apana.org.au>	act_nat.c
<hno@marasystems.com>	xt_CONNSECMARK.c
<inaky.perez-gonzalez@intel.com>	debug-levels.h
<inaky.perez-gonzalez@intel.com>	debugfs.c
<inaky.perez-gonzalez@intel.com>	id-table.c
<inaky.perez-gonzalez@intel.com>	op-msg.c
<inaky.perez-gonzalez@intel.com>	op-reset.c
<inaky.perez-gonzalez@intel.com>	op-rfkill.c
<inaky.perez-gonzalez@intel.com>	op-state-get.c
<inaky.perez-gonzalez@intel.com>	stack.c
<inaky.perez-gonzalez@intel.com>	wimax-internal.h
<ja@ssi.bg>	ip_vs_conn.c
<ja@ssi.bg>	ip_vs_core.c
<ja@ssi.bg>	ip_vs_ctl.c
<ja@ssi.bg>	ip_vs_nfct.c
<ja@ssi.bg>	ip_vs_proto.c
<ja@ssi.bg>	ip_vs_proto_tcp.c
<ja@ssi.bg>	ip_vs_proto_udp.c
<ja@ssi.bg>	ip_vs_xmit.c
<ja@ssi.bg>,	ip_vs_proto_ah_esp.c
<jch@pps.jussieu.fr>	sch_sfb.c
<jchapman@katalix.com>");	l2tp_core.c
<jchapman@katalix.com>");	l2tp_debugfs.c
<jchapman@katalix.com>");	l2tp_eth.c
<jchapman@katalix.com>");	l2tp_ip.c
<jchapman@katalix.com>");	l2tp_netlink.c
<jchapman@katalix.com>");	l2tp_ppp.c
<jengelh@medozas.de>	xt_mark.c
<jengelh@medozas.de>");	xt_TCPOPTSTRIP.c
<jengelh@medozas.de>");	xt_TEE.c
<jengelh@medozas.de>");	xt_connlimit.c
<jengelh@medozas.de>");	xt_conntrack.c
<jengelh@medozas.de>");	xt_iprange.c
<jengelh@medozas.de>");	xt_recent.c
<jengelh@medozas.de>");	xt_time.c
<jengelh@medozas.de>");	xt_u32.c
<jenhunt@us.ibm.com>	af_iucv.c
<jenhunt@us.ibm.com>");	af_iucv.c
<jjciarla@raiz.uncu.edu.ar>	ip_vs_app.c
<jmorris@intercode.com.au>");	xt_length.c
<jmorris@redhat.com>	xt_CONNSECMARK.c
<jmorris@redhat.com>	xt_SECMARK.c
<jmorris@redhat.com>");	xt_CONNSECMARK.c
<jmorris@redhat.com>");	xt_SECMARK.c
<jmorros@intercode.com.au>	xt_length.c
<johannes@sipsolutions.net>	genetlink.c
<johannes@sipsolutions.net>	l2tp_netlink.c
<john.r.fastabend@intel.com>	sch_mqprio.c
<jolsa@redhat.com>	nf_conntrack_snmp.c
<jolsa@redhat.com>");	nf_conntrack_snmp.c
<jschlst@samba.org>	nf_conntrack_netlink.c
<jschlst@samba.org>,	nfnetlink.c
<kaber@trash.net>	cls_flow.c
<kaber@trash.net>	nf_conntrack_broadcast.c
<kaber@trash.net>	nf_conntrack_netbios_ns.c
<kaber@trash.net>	nf_conntrack_netlink.c
<kaber@trash.net>	nf_conntrack_proto_dccp.c
<kaber@trash.net>	nf_conntrack_proto_udplite.c
<kaber@trash.net>	nf_conntrack_sip.c
<kaber@trash.net>	nf_nat_proto_common.c
<kaber@trash.net>	nf_nat_proto_dccp.c
<kaber@trash.net>	nf_nat_proto_sctp.c
<kaber@trash.net>	nf_nat_proto_udplite.c
<kaber@trash.net>	nf_nat_sip.c
<kaber@trash.net>	sch_drr.c
<kaber@trash.net>	sch_hfsc.c
<kaber@trash.net>	sch_mq.c
<kaber@trash.net>	xt_CLASSIFY.c
<kaber@trash.net>	xt_CT.c
<kaber@trash.net>	xt_NETMAP.c
<kaber@trash.net>	xt_NFLOG.c
<kaber@trash.net>	xt_RATEEST.c
<kaber@trash.net>	xt_addrtype.c
<kaber@trash.net>	xt_devgroup.c
<kaber@trash.net>	xt_ecn.c
<kaber@trash.net>	xt_nat.c
<kaber@trash.net>	xt_policy.c
<kaber@trash.net>	xt_rateest.c
<kaber@trash.net>	xt_recent.c
<kaber@trash.net>	xt_statistic.c
<kaber@trash.net>");	cls_flow.c
<kaber@trash.net>");	nf_conntrack_netbios_ns.c
<kaber@trash.net>");	nf_conntrack_proto_dccp.c
<kaber@trash.net>");	nf_nat_proto_dccp.c
<kaber@trash.net>");	nf_nat_proto_sctp.c
<kaber@trash.net>");	nf_nat_proto_udplite.c
<kaber@trash.net>");	xt_CLASSIFY.c
<kaber@trash.net>");	xt_NETMAP.c
<kaber@trash.net>");	xt_NFLOG.c
<kaber@trash.net>");	xt_RATEEST.c
<kaber@trash.net>");	xt_addrtype.c
<kaber@trash.net>");	xt_devgroup.c
<kaber@trash.net>");	xt_nat.c
<kaber@trash.net>");	xt_policy.c
<kaber@trash.net>");	xt_rateest.c
<kaber@trash.net>");	xt_recent.c
<kaber@trash.net>");	xt_statistic.c
<kadlec@blackhole.kfki.hu>	ip_set_bitmap_ip.c
<kadlec@blackhole.kfki.hu>	ip_set_bitmap_ipmac.c
<kadlec@blackhole.kfki.hu>	ip_set_bitmap_port.c
<kadlec@blackhole.kfki.hu>	ip_set_core.c
<kadlec@blackhole.kfki.hu>	ip_set_getport.c
<kadlec@blackhole.kfki.hu>	ip_set_hash_ip.c
<kadlec@blackhole.kfki.hu>	ip_set_hash_ipport.c
<kadlec@blackhole.kfki.hu>	ip_set_hash_ipportip.c
<kadlec@blackhole.kfki.hu>	ip_set_hash_ipportnet.c
<kadlec@blackhole.kfki.hu>	ip_set_hash_net.c
<kadlec@blackhole.kfki.hu>	ip_set_hash_netiface.c
<kadlec@blackhole.kfki.hu>	ip_set_hash_netport.c
<kadlec@blackhole.kfki.hu>	ip_set_list_set.c
<kadlec@blackhole.kfki.hu>	xt_iprange.c
<kadlec@blackhole.kfki.hu>	xt_set.c
<kadlec@blackhole.kfki.hu>");	ip_set_bitmap_ip.c
<kadlec@blackhole.kfki.hu>");	ip_set_bitmap_ipmac.c
<kadlec@blackhole.kfki.hu>");	ip_set_bitmap_port.c
<kadlec@blackhole.kfki.hu>");	ip_set_core.c
<kadlec@blackhole.kfki.hu>");	ip_set_hash_ip.c
<kadlec@blackhole.kfki.hu>");	ip_set_hash_ipport.c
<kadlec@blackhole.kfki.hu>");	ip_set_hash_ipportip.c
<kadlec@blackhole.kfki.hu>");	ip_set_hash_ipportnet.c
<kadlec@blackhole.kfki.hu>");	ip_set_hash_net.c
<kadlec@blackhole.kfki.hu>");	ip_set_hash_netiface.c
<kadlec@blackhole.kfki.hu>");	ip_set_hash_netport.c
<kadlec@blackhole.kfki.hu>");	ip_set_list_set.c
<kadlec@blackhole.kfki.hu>");	xt_iprange.c
<kadlec@blackhole.kfki.hu>");	xt_set.c
<karlis@mt.lv>	cls_fw.c
<karlis@mt.lv>	cls_fw.c
<kleptog@svana.org>	l2tp_core.c
<kleptog@svana.org>	l2tp_ppp.c
<krauso@barr.cz>	sch_htb.c
<kraxel@bytesex.org>	xt_connlimit.c
<kuznet@ms2.inr.ac.ru>	act_police.c
<kuznet@ms2.inr.ac.ru>	af_netlink.c
<kuznet@ms2.inr.ac.ru>	cls_api.c
<kuznet@ms2.inr.ac.ru>	cls_fw.c
<kuznet@ms2.inr.ac.ru>	cls_route.c
<kuznet@ms2.inr.ac.ru>	cls_rsvp.c
<kuznet@ms2.inr.ac.ru>	cls_rsvp.h
<kuznet@ms2.inr.ac.ru>	cls_rsvp6.c
<kuznet@ms2.inr.ac.ru>	cls_u32.c
<kuznet@ms2.inr.ac.ru>	em_u32.c
<kuznet@ms2.inr.ac.ru>	sch_api.c
<kuznet@ms2.inr.ac.ru>	sch_cbq.c
<kuznet@ms2.inr.ac.ru>	sch_fifo.c
<kuznet@ms2.inr.ac.ru>	sch_generic.c
<kuznet@ms2.inr.ac.ru>	sch_prio.c
<kuznet@ms2.inr.ac.ru>	sch_red.c
<kuznet@ms2.inr.ac.ru>	sch_sfq.c
<kuznet@ms2.inr.ac.ru>	sch_tbf.c
<kuznet@ms2.inr.ac.ru>	sch_teql.c
<laforge@gnumonks.org>	af_netlink.c
<laforge@gnumonks.org>	nf_conntrack_irc.c
<laforge@gnumonks.org>	nf_conntrack_netlink.c
<laforge@gnumonks.org>	nf_conntrack_pptp.c
<laforge@gnumonks.org>	nf_conntrack_proto_gre.c
<laforge@gnumonks.org>	nf_nat_irc.c
<laforge@gnumonks.org>	nfnetlink.c
<laforge@gnumonks.org>	xt_ecn.c
<laforge@gnumonks.org>");	nf_conntrack_pptp.c
<laforge@gnumonks.org>");	nf_nat_irc.c
<laforge@netfilter.org>	nf_nat_helper.c
<laforge@netfilter.org>	nfnetlink_log.c
<laforge@netfilter.org>	nfnetlink_log.c
<laforge@netfilter.org>	xt_DSCP.c
<laforge@netfilter.org>	xt_HL.c
<laforge@netfilter.org>	xt_NFQUEUE.c
<laforge@netfilter.org>	xt_dccp.c
<laforge@netfilter.org>	xt_dscp.c
<laforge@netfilter.org>	xt_hl.c
<laforge@netfilter.org>	xt_tcpmss.c
<laforge@netfilter.org>");	nf_conntrack_irc.c
<laforge@netfilter.org>");	nfnetlink.c
<laforge@netfilter.org>");	nfnetlink_log.c
<laforge@netfilter.org>");	xt_DSCP.c
<laforge@netfilter.org>");	xt_HL.c
<laforge@netfilter.org>");	xt_NFQUEUE.c
<laforge@netfilter.org>");	xt_connbytes.c
<laforge@netfilter.org>");	xt_dccp.c
<laforge@netfilter.org>");	xt_dscp.c
<laforge@netfilter.org>");	xt_ecn.c
<levon@movementarian.org>	ioctl.c
<lincoln@cesar.org.br>	nf_conntrack_ftp.c
<linux-wimax@intel.com>	debug-levels.h
<linux-wimax@intel.com>	debugfs.c
<linux-wimax@intel.com>	id-table.c
<linux-wimax@intel.com>	op-msg.c
<linux-wimax@intel.com>	op-reset.c
<linux-wimax@intel.com>	op-rfkill.c
<linux-wimax@intel.com>	op-state-get.c
<linux-wimax@intel.com>	stack.c
<linux-wimax@intel.com>	wimax-internal.h
<linux-wimax@intel.com>");	stack.c
<lisovy@gmail.cz>	em_canid.c
<lokec@ccs.neu.edu>	af_packet.c
<luciano.coelho@nokia.com>	xt_IDLETIMER.c
<luciano.coelho@nokia.com>	xt_IDLETIMER.c
<luciano.coelho@nokia.com>");	xt_IDLETIMER.c
<makar@phoenix.kharkov.ua>	sch_red.c
<manfred@colorfullife.com>	sem.c
<manfred@colorfullife.com>	sem.c
<manfred@colorfullife.com>	sem.c
<manfred@colorfullife.com>	sem.c
<marc@mbsi.ca>	xt_SECMARK.c
<marc@mbsi.ca>	xt_TCPMSS.c
<marc@mbsi.ca>	xt_mark.c
<marc@mbsi.ca>	xt_tcpmss.c
<marc@mbsi.ca>");	xt_TCPMSS.c
<marc@mbsi.ca>");	xt_conntrack.c
<marc@mbsi.ca>");	xt_mark.c
<marc@mbsi.ca>");	xt_tcpmss.c
<marcel@holtmann.org>	capi.c
<marcel@holtmann.org>	cmtp.h
<marcel@holtmann.org>	hidp.h
<marcel@holtmann.org>	tty.c
<marcel@holtmann.org>");	af_bluetooth.c
<marcel@holtmann.org>");	core.c
<marcel@holtmann.org>");	core.c
<marcel@holtmann.org>");	core.c
<marcel@holtmann.org>");	core.c
<marcel@holtmann.org>");	core.c
<marko@buuri.name>	ip_vs_nq.c
<marko@buuri.name>	ip_vs_sed.c
<martin.bene@icomedias.com>:	xt_connlimit.c
<maxim.gorbachev@siemens.com>	mac802154.h
<maxim.gorbachev@siemens.com>	mib.c
<maxim.gorbachev@siemens.com>	monitor.c
<maxim.gorbachev@siemens.com>	rx.c
<maxim.gorbachev@siemens.com>	tx.c
<maxim.gorbachev@siemens.com>	wpan.c
<maxk@qualcomm.com>	af_bluetooth.c
<maxk@qualcomm.com>	bnep.h
<maxk@qualcomm.com>	core.c
<maxk@qualcomm.com>	core.c
<maxk@qualcomm.com>	core.c
<maxk@qualcomm.com>	core.c
<maxk@qualcomm.com>	core.c
<maxk@qualcomm.com>	hci_conn.c
<maxk@qualcomm.com>	hci_core.c
<maxk@qualcomm.com>	hci_event.c
<maxk@qualcomm.com>	hci_sock.c
<maxk@qualcomm.com>	l2cap_core.c
<maxk@qualcomm.com>	l2cap_sock.c
<maxk@qualcomm.com>	lib.c
<maxk@qualcomm.com>	netdev.c
<maxk@qualcomm.com>	sco.c
<maxk@qualcomm.com>	sock.c
<maxk@qualcomm.com>	sock.c
<maxk@qualcomm.com>	sock.c
<maxk@qualcomm.com>	sock.c
<maxk@qualcomm.com>	tty.c
<mb@ozaba.mine.nu>	nf_nat_tftp.c
<mb@ozaba.mine.nu>");	nf_nat_tftp.c
<mgm@paktronix.com>	xt_DSCP.c
<michal@logix.cz>	xt_pkttype.c
<michal@logix.cz>");	xt_pkttype.c
<mitch@sfgoth.com>");	pppoatm.c
<mkiiskila@yahoo.com>	lec.c
<mkiiskila@yahoo.com>	lec.h
<mkiiskila@yahoo.com>	lec_arpc.h
<mostrows@speakeasy.net>	l2tp_core.c
<netfilter@interlinx.bc.ca>	nf_conntrack_amanda.c
<netfilter@interlinx.bc.ca>	nf_nat_amanda.c
<netfilter@interlinx.bc.ca>");	nf_conntrack_amanda.c
<netfilter@interlinx.bc.ca>");	nf_nat_amanda.c
<nichols@pollere.com>	sch_codel.c
<oliver.hartkopp@volkswagen.de>	em_canid.c
<olwi@aq.ml.com.ua>	sch_hfsc.c
<pablo@eurodev.net>	xt_string.c
<pablo@eurodev.net>");	xt_string.c
<pablo@netfilter.org>	nf_conntrack_netlink.c
<pablo@netfilter.org>	nf_conntrack_timeout.c
<pablo@netfilter.org>	nf_conntrack_timestamp.c
<pablo@netfilter.org>	nfnetlink.c
<pablo@netfilter.org>	nfnetlink_acct.c
<pablo@netfilter.org>	nfnetlink_cthelper.c
<pablo@netfilter.org>	nfnetlink_cttimeout.c
<pablo@netfilter.org>	nfnetlink_queue_ct.c
<pablo@netfilter.org>	xt_HMARK.c
<pablo@netfilter.org>	xt_cluster.c
<pablo@netfilter.org>	xt_nfacct.c
<pablo@netfilter.org>");	nfnetlink_acct.c
<pablo@netfilter.org>");	nfnetlink_cthelper.c
<pablo@netfilter.org>");	nfnetlink_cttimeout.c
<pablo@netfilter.org>");	xt_cluster.c
<pablo@netfilter.org>");	xt_nfacct.c
<panther@balabit.hu>	xt_addrtype.c
<paulius.zaleckas@teltonika.lt>	op-state-get.c
<pavel.smolenskiy@gmail.com>	mac802154.h
<pavel.smolenskiy@gmail.com>	rx.c
<peter.kese@ijs.si>	ip_vs_conn.c
<peter.kese@ijs.si>	ip_vs_core.c
<peter.kese@ijs.si>	ip_vs_ctl.c
<peter.kese@ijs.si>	ip_vs_rr.c
<peter.kese@ijs.si>	ip_vs_sched.c
<peter.kese@ijs.si>	ip_vs_wlc.c
<pisa@cmp.felk.cvut.cz>	em_canid.c
<proellt@gmx.de>	ip_vs_dh.c
<rani@magic.metawire.com>	sch_api.c
<rusty@rustcorp.com.au>	nf_nat_irc.c
<rusty@rustcorp.com.au>");	nf_conntrack_ftp.c
<rusty@rustcorp.com.au>");	nf_nat_ftp.c
<rusty@rustcorp.com.au>");	xt_state.c
<rv@wallfire.org>");	xt_limit.c
<samj@samj.net>	xt_quota.c
<samj@samj.net>");	xt_quota.c
<sampsa@netsonic.fi>	xt_realm.c
<sampsa@netsonic.fi>");	xt_realm.c
<samuel@sortiz.org>	l2tp_netlink.c
<schwidefsky@de.ibm.com>	iucv.c
<sebastian.classen@freenet.ag>");	xt_TEE.c
<sfrost@snowman.net>	xt_recent.c
<shemminger@osdl.org>	sch_netem.c
<shemminger@vyatta.com>	sch_choke.c
<slapin@ossfans.org>	mac_cmd.c
<slapin@ossfans.org>	mib.c
<slapin@ossfans.org>	monitor.c
<slapin@ossfans.org>	tx.c
<slapin@ossfans.org>	wpan.c
<sojkam1@fel.cvut.cz>	em_canid.c
<solt@dns.toxicfilms.tv>	xt_HL.c
<solt@dns.toxicfilms.tv>	xt_hl.c
<solt@dns.toxicfilms.tv>");	xt_HL.c
<solt@dns.toxicfilms.tv>");	xt_hl.c
<stef.coene@docum.org>	sch_htb.c
<svenning@post5.tele.dk>	xt_NETMAP.c
<svens@bitebene.org>	xt_TCPOPTSTRIP.c
<svens@bitebene.org>,	xt_TCPOPTSTRIP.c
<tgraf@suug.ch>	cls_basic.c
<tgraf@suug.ch>	cls_cgroup.c
<tgraf@suug.ch>	em_cmp.c
<tgraf@suug.ch>	em_meta.c
<tgraf@suug.ch>	em_nbyte.c
<tgraf@suug.ch>	em_text.c
<tgraf@suug.ch>	em_u32.c
<tgraf@suug.ch>	ematch.c
<tgraf@suug.ch>	genetlink.c
<tgraf@suug.ch>	sch_blackhole.c
<tw@eter.tym.pl>	sch_htb.c
<ursula.braun@de.ibm.com>	af_iucv.c
<van@pollere.net>	sch_codel.c
<waltje@uWalt.NL.Mugnet.ORG>	af_packet.c
<wensong@gnuchina.org>	ip_vs_dh.c
<wensong@gnuchina.org>	ip_vs_lblc.c
<wensong@gnuchina.org>	ip_vs_lblcr.c
<wensong@gnuchina.org>	ip_vs_sh.c
<wensong@linuxvirtualserver.org>	ip_vs_app.c
<wensong@linuxvirtualserver.org>	ip_vs_conn.c
<wensong@linuxvirtualserver.org>	ip_vs_core.c
<wensong@linuxvirtualserver.org>	ip_vs_ctl.c
<wensong@linuxvirtualserver.org>	ip_vs_est.c
<wensong@linuxvirtualserver.org>	ip_vs_ftp.c
<wensong@linuxvirtualserver.org>	ip_vs_lc.c
<wensong@linuxvirtualserver.org>	ip_vs_nq.c
<wensong@linuxvirtualserver.org>	ip_vs_proto.c
<wensong@linuxvirtualserver.org>	ip_vs_proto_ah_esp.c
<wensong@linuxvirtualserver.org>	ip_vs_proto_tcp.c
<wensong@linuxvirtualserver.org>	ip_vs_proto_udp.c
<wensong@linuxvirtualserver.org>	ip_vs_rr.c
<wensong@linuxvirtualserver.org>	ip_vs_sched.c
<wensong@linuxvirtualserver.org>	ip_vs_sed.c
<wensong@linuxvirtualserver.org>	ip_vs_sync.c
<wensong@linuxvirtualserver.org>	ip_vs_wlc.c
<wensong@linuxvirtualserver.org>	ip_vs_wrr.c
<wensong@linuxvirtualserver.org>	ip_vs_xmit.c
<xemul@openvz.org>	namespace.c
<xemul@openvz.org>	sem.c
<yasuyuki.kozakai@toshiba.co.jp>	nf_conntrack_l3proto_generic.c
<yon@astaro.de>	xt_esp.c
<yon@astaro.de>");	xt_esp.c
<zhaojingmin@users.sourceforge.net>	nf_conntrack_h323_asn1.c
<zhaojingmin@users.sourceforge.net>	nf_conntrack_h323_types.c
devik@cdi.cz	sch_htb.c
felfert@millenux.com)	iucv.c
laforge@netfilter.org	xt_recent.c
romieu@fr.zoreil.com	proc.c
