(card@masi.ibp.fr)	ext4.h
(card@masi.ibp.fr)	fsync.c
(card@masi.ibp.fr)	ialloc.c
(card@masi.ibp.fr)	indirect.c
(chaosman@ontika.net)	qnx6.h
(chaosman@ontika.net)	super_mmi.c
(davem@caip.rutgers.edu),	fsync.c
(davem@caip.rutgers.edu),	ialloc.c
(dhowells@redhat.com)	cookie.c
(dhowells@redhat.com)	file-nommu.c
(dhowells@redhat.com)	fsdef.c
(dhowells@redhat.com)	histogram.c
(dhowells@redhat.com)	internal.h
(dhowells@redhat.com)	internal.h
(dhowells@redhat.com)	main.c
(dhowells@redhat.com)	netfs.c
(dhowells@redhat.com)	object-list.c
(dhowells@redhat.com)	object.c
(dhowells@redhat.com)	operation.c
(dhowells@redhat.com)	page.c
(dhowells@redhat.com)	proc.c
(dhowells@redhat.com)	stats.c
(ecd@skynet.be)	compat.c
(jakub@redhat.com)	compat.c
(pavel@ucw.cz)	compat.c
(sct@redhat.com)	fsync.c
(sct@redhat.com),	ialloc.c
(sct@redhat.com),	indirect.c
(tytso@mit.edu)	block_validity.c
<Al.Smith@aeschi.ch.eu.org>";	efs.h
<a-fujita@rs.jp.nec.com>	move_extent.c
<a.gruenbacher@computer.org>	xattr_acl.c
<a.gruenbacher@computer.org>	xattr_trusted.c
<achender@linux.vnet.ibm.com>	extents_status.c
<achender@linux.vnet.ibm.com>	extents_status.h
<adilger@clusterfs.com>	resize.c
<adkulkar@umail.iu.edu>	cache.c
<adkulkar@umail.iu.edu>	cache.c
<adkulkar@umail.iu.edu>	cache.h
<agruen@suse.de>	generic_acl.c
<agruen@suse.de>	nfsacl.c
<alex@clusterfs.com>	ext4_extents.h
<alex@clusterfs.com>	extents.c
<alex@clusterfs.com>	mballoc.h
<aneesh.kumar@linux.vnet.ibm.com>	acl.h
<aneesh.kumar@linux.vnet.ibm.com>	acl.h
<aneesh.kumar@linux.vnet.ibm.com>	xattr.h
<aneesh.kumar@linux.vnet.ibm.com>	xattr.h
<arjan@infradead.org>	compr.c
<arjanv@redhat.com>	compr_rtime.c
<arjanv@redhat.com>	compr_rubin.c
<boyu.mt@taobao.com>	inline.c
<dwmw2@infradead.org>	background.c
<dwmw2@infradead.org>	background.c
<dwmw2@infradead.org>	build.c
<dwmw2@infradead.org>	build.c
<dwmw2@infradead.org>	compr.c
<dwmw2@infradead.org>	compr_lzo.c
<dwmw2@infradead.org>	compr_rtime.c
<dwmw2@infradead.org>	compr_rubin.c
<dwmw2@infradead.org>	compr_zlib.c
<dwmw2@infradead.org>	compr_zlib.c
<dwmw2@infradead.org>	debug.h
<dwmw2@infradead.org>	debug.h
<dwmw2@infradead.org>	debug.h
<dwmw2@infradead.org>	debug.h
<dwmw2@infradead.org>	dir.c
<dwmw2@infradead.org>	dir.c
<dwmw2@infradead.org>	dir.c
<dwmw2@infradead.org>	dir.c
<dwmw2@infradead.org>	dir.c
<dwmw2@infradead.org>	dir.c
<dwmw2@infradead.org>	dir.c
<dwmw2@infradead.org>	dir.c
<dwmw2@infradead.org>	dir.c
<dwmw2@infradead.org>	dir.c
<dwmw2@infradead.org>	dir.c
<dwmw2@infradead.org>	dir.c
<dwmw2@infradead.org>	dir.c
<dwmw2@infradead.org>	dir.c
<dwmw2@infradead.org>	file.c
<dwmw2@infradead.org>	file.c
<dwmw2@infradead.org>	file.c
<dwmw2@infradead.org>	file.c
<dwmw2@infradead.org>	file.c
<dwmw2@infradead.org>	file.c
<dwmw2@infradead.org>	file.c
<dwmw2@infradead.org>	file.c
<dwmw2@infradead.org>	file.c
<dwmw2@infradead.org>	file.c
<dwmw2@infradead.org>	fs.c
<dwmw2@infradead.org>	fs.c
<dwmw2@infradead.org>	ioctl.c
<dwmw2@infradead.org>	ioctl.c
<dwmw2@infradead.org>	ioctl.c
<dwmw2@infradead.org>	ioctl.c
<dwmw2@infradead.org>	ioctl.c
<dwmw2@infradead.org>	ioctl.c
<dwmw2@infradead.org>	jffs2_fs_i.h
<dwmw2@infradead.org>	jffs2_fs_i.h
<dwmw2@infradead.org>	malloc.c
<dwmw2@infradead.org>	nodelist.c
<dwmw2@infradead.org>	os-linux.h
<dwmw2@infradead.org>	read.c
<dwmw2@infradead.org>	readinode.c
<dwmw2@infradead.org>	scan.c
<dwmw2@infradead.org>	scan.c
<dwmw2@infradead.org>	super.c
<dwmw2@infradead.org>	super.c
<dwmw2@infradead.org>	super.c
<dwmw2@infradead.org>	super.c
<dwmw2@infradead.org>	super.c
<dwmw2@infradead.org>	symlink.c
<dwmw2@infradead.org>	symlink.c
<dwmw2@infradead.org>	symlink.c
<dwmw2@infradead.org>	symlink.c
<dwmw2@infradead.org>	wbuf.c
<dwmw2@infradead.org>	write.c
<dwmw2@infradead.org>	writev.c
<eparis@redhat.com>	fsnotify.c
<eparis@redhat.com>	group.c
<eparis@redhat.com>	inode_mark.c
<eparis@redhat.com>	mark.c
<eparis@redhat.com>	notification.c
<eparis@redhat.com>	vfsmount_mark.c
<ericvh@gmail.com>	fid.c
<ericvh@gmail.com>	fid.h
<ericvh@gmail.com>	v9fs.c
<ericvh@gmail.com>	v9fs.h
<ericvh@gmail.com>	v9fs_vfs.h
<ericvh@gmail.com>	vfs_addr.c
<ericvh@gmail.com>	vfs_dentry.c
<ericvh@gmail.com>	vfs_dir.c
<ericvh@gmail.com>	vfs_file.c
<ericvh@gmail.com>	vfs_inode.c
<ericvh@gmail.com>	vfs_inode_dotl.c
<ericvh@gmail.com>	vfs_super.c
<ericvh@gmail.com>");	v9fs.c
<havasi@inf.u-szeged.hu>,	compr.c
<havasi@inf.u-szeged.hu>,	summary.c
<hughd@google.com>	extents_status.c
<kaigai@ak.jp.nec.com>	acl.c
<kaigai@ak.jp.nec.com>	acl.c
<kaigai@ak.jp.nec.com>	acl.c
<kaigai@ak.jp.nec.com>	security.c
<kaigai@ak.jp.nec.com>	summary.c
<kaigai@ak.jp.nec.com>	xattr.c
<kaigai@ak.jp.nec.com>	xattr.c
<kaigai@ak.jp.nec.com>	xattr.c
<kaigai@ak.jp.nec.com>	xattr.c
<kaigai@ak.jp.nec.com>	xattr_user.c
<kaigai@ak.jp.nec.com>	xattr_user.c
<kaigai@ak.jp.nec.com>	xattr_user.c
<lucho@ionkov.net>	fid.c
<lucho@ionkov.net>");	v9fs.c
<pajko@halom.u-szeged.hu>,	summary.c
<pierre.peiffer@bull.net>	extents.c
<rminnich@lanl.gov>	v9fs.c
<rminnich@lanl.gov>	v9fs.h
<rminnich@lanl.gov>	v9fs_vfs.h
<rminnich@lanl.gov>	vfs_addr.c
<rminnich@lanl.gov>	vfs_dentry.c
<rminnich@lanl.gov>	vfs_dir.c
<rminnich@lanl.gov>	vfs_file.c
<rminnich@lanl.gov>	vfs_inode.c
<rminnich@lanl.gov>	vfs_inode_dotl.c
<rminnich@lanl.gov>	vfs_super.c
<rminnich@lanl.gov>");	v9fs.c
<rml@novell.com>	inotify_fsnotify.c
<rml@novell.com>	inotify_user.c
<rpurdie@openedhand.com>	compr_lzo.c
<sct@redhat.com>,	ext4_jbd2.h
<t-sato@yk.jp.nec.com>	move_extent.c
<tglx@linutronix.de>	wbuf.c
<tglx@linutronix.de>	wbuf.c
<ttb@tentacle.dhs.org>	inotify_fsnotify.c
<ttb@tentacle.dhs.org>	inotify_user.c
<wenqing.lz@taobao.com>	extents_status.c
<wenqing.lz@taobao.com>	extents_status.h
<weth@inf.u-szeged.hu>,	summary.c
<xiaoqiangnk@gmail.com>	extents_status.c
<xiaoqiangnk@gmail.com>	extents_status.h
hjw@zvw.de	amigaffs.c
info@clusterfs.com	ext4_extents.h
info@clusterfs.com	extents.c
kuhlmav@elec.canterbury.ac.nz	util.c
