(Thomas.Meckel@mni.fh-giessen.de)	locks.c
(andy@lysaker.kvaerner.no),	locks.c
(andy@lysaker.kvaerner.no),	locks.c
(andy@lysaker.kvaerner.no),	locks.c
(andy@lysaker.kvaerner.no),	locks.c
(andy@lysaker.kvaerner.no),	locks.c
(andy@lysaker.kvaerner.no),	locks.c
(andy@lysaker.kvaerner.no),	locks.c
(andy@lysaker.kvaerner.no),	locks.c
(andy@lysaker.kvaerner.no),	locks.c
(andy@lysaker.kvaerner.no),	locks.c
(andy@lysaker.kvaerner.no),	locks.c
(andy@lysaker.kvaerner.no),	locks.c
(andy@lysaker.kvaerner.no),	locks.c
(andy@lysaker.kvaerner.no),	locks.c
(card@masi.ibp.fr)	reservations.c
(coda@cs.cmu.edu).	coda_linux.c
(dhowells@redhat.com)	afs.h
(dhowells@redhat.com)	afs_cm.h
(dhowells@redhat.com)	cell.c
(dhowells@redhat.com)	client.c
(dhowells@redhat.com)	cmservice.c
(dhowells@redhat.com)	fscache-index.c
(dhowells@redhat.com)	fscache.c
(dhowells@redhat.com)	fscache.h
(dhowells@redhat.com)	fsclient.c
(dhowells@redhat.com)	getroot.c
(dhowells@redhat.com)	internal.h
(dhowells@redhat.com)	internal.h
(dhowells@redhat.com)	internal.h
(dhowells@redhat.com)	mmap-nommu.c
(dhowells@redhat.com)	mntpt.c
(dhowells@redhat.com)	nfs4client.c
(dhowells@redhat.com)	nfs4getroot.c
(dhowells@redhat.com)	rxrpc.c
(dhowells@redhat.com)	security.c
(dhowells@redhat.com)	server.c
(dhowells@redhat.com)	storage.c
(dhowells@redhat.com)	vlocation.c
(dhowells@redhat.com)	vnode.c
(dhowells@redhat.com)	volume.c
(dje@spiff.uucp),	locks.c
(eggert@twinsun.com).	udftime.c
(m_kato@ga2.so-net.ne.jp)	befs.h
(m_kato@ga2.so-net.ne.jp)	befs_fs_types.h
(m_kato@ga2.so-net.ne.jp)	debug.c
(m_kato@ga2.so-net.ne.jp)	io.c
(okir@monad.swb.de)	svc.c
(okir@monad.swb.de),	locks.c
(pageone@netcom.com),	locks.c
(pgmdsg@ibi.com),	locks.c
(torbjorn.lindh@gopta.se),	super.c
(torbjorn.lindh@gopta.se),	super.c
(torbjorn.lindh@gopta.se),	super.c
(torbjorn.lindh@gopta.se),	super.c
(torbjorn.lindh@gopta.se),	super.c
(torbjorn.lindh@gopta.se),	super.c
(torbjorn.lindh@gopta.se),	super.c
(torbjorn.lindh@gopta.se),	super.c
(will@cs.earlham.edu)	befs_fs_types.h
(wpp@marie.physik.tu-berlin.de),	locks.c
<A.Cox@swansea.ac.uk>	proc.c
<A.Cox@swansea.ac.uk>	proc.c
<Garth.Goodson@netapp.com>	nfs4filelayoutdev.c
<Garth.Goodson@netapp.com>	pnfs_dev.c
<Trond.Myklebust@netapp.com>	cache_lib.c
<Trond.Myklebust@netapp.com>	cache_lib.h
<Trond.Myklebust@netapp.com>	dns_resolve.c
<Trond.Myklebust@netapp.com>	namespace.c
<Trond.Myklebust@netapp.com>	namespace.c
<Trond.Myklebust@netapp.com>	nfs4namespace.c
<Trond.Myklebust@netapp.com>	nfs4session.c
<Trond.Myklebust@netapp.com>	nfs4session.h
<Trond.Myklebust@netapp.com>	nfs4sysctl.c
<a.gruenbacher@computer.org>	mbcache.c
<a.gruenbacher@computer.org>");	mbcache.c
<adc@coe.neu.edu>	namei_msdos.c
<alan@lxorguk.ukuu.org.uk>	psdev.c
<albert@ccs.neu.edu>	namei_msdos.c
<amagai@osrg.net>	ifile.h
<amagai@osrg.net>,	gcinode.c
<amagai@osrg.net>.	alloc.c
<amagai@osrg.net>.	alloc.h
<amagai@osrg.net>.	ifile.c
<andros@citi.umich.edu>	blocklayout.c
<andros@citi.umich.edu>	blocklayout.h
<andros@citi.umich.edu>	blocklayoutdev.c
<andros@citi.umich.edu>	blocklayoutdm.c
<andros@citi.umich.edu>	extents.c
<andros@citi.umich.edu>");	blocklayout.c
<andros@umich.edu>	nfs4proc.c
<andros@umich.edu>	nfs4xdr.c
<bcrl@kvack.org>	aio.c
<bfennema@falcon.csc.calpoly.edu>	ecma_167.h
<bfennema@falcon.csc.calpoly.edu>	osta_udf.h
<bhalevy@panasas.com>	objio_osd.c
<bhalevy@panasas.com>	objlayout.c
<bhalevy@panasas.com>	objlayout.h
<bhalevy@panasas.com>	pnfs_osd_xdr_cli.c
<bhalevy@panasas.com>");	objio_osd.c
<bharrosh@panasas.com>	objio_osd.c
<bharrosh@panasas.com>	objlayout.c
<bharrosh@panasas.com>	objlayout.h
<bharrosh@panasas.com>	pnfs_osd_xdr_cli.c
<bjschuma@netapp.com>	nfs4super.c
<braam@maths.ox.ac.uk>	psdev.c
<braam@maths.ox.ac.uk>,	upcall.c
<callahan@maths.ox.ac.uk>	upcall.c
<cel@netapp.com>	direct.c
<cel@netapp.com>	direct.c
<cel@netapp.com>	iostat.h
<chaffee@cs.berkeley.edu>.	namei_vfat.c
<chan.jeong@lge.com>	lzo_wrapper.c
<coda@cs.cmu.edu>	coda_cache.h
<coda@cs.cmu.edu>.	pioctl.c
<coda@cs.cmu.edu>.	upcall.c
<davidel@xmailserver.org>	eventfd.c
<davidel@xmailserver.org>	eventpoll.c
<dhildebz@umich.edu>	nfs4filelayout.c
<dhildebz@umich.edu>	nfs4filelayout.h
<dhildebz@umich.edu>	nfs4filelayoutdev.c
<dhildebz@umich.edu>	pnfs.c
<dhildebz@umich.edu>	pnfs.h
<dhildebz@umich.edu>	pnfs_dev.c
<dhildebz@umich.edu>");	nfs4filelayout.c
<dhowells@redhat.com>	namespace.c
<dhowells@redhat.com>	namespace.c
<dhowells@redhat.com>	nfs4namespace.c
<gero@gkminix.han.de>	nfsroot.c
<hirofumi@mail.parknet.co.jp>	namei_vfat.c
<iisaman@umich.edu>	blocklayout.c
<iisaman@umich.edu>	blocklayout.h
<iisaman@umich.edu>	blocklayoutdev.c
<iisaman@umich.edu>	blocklayoutdm.c
<iisaman@umich.edu>	extents.c
<ionut@cs.columbia.edu>	nfs2xdr.c
<jelson@circlemud.org>	pipe.c
<jeremy@goop.org>	expire.c
<jeremy@goop.org>	root.c
<joern@logfs.org>	compr.c
<joern@logfs.org>	dev_bdev.c
<joern@logfs.org>	dev_mtd.c
<joern@logfs.org>	gc.c
<joern@logfs.org>	journal.c
<joern@logfs.org>	journal.c
<joern@logfs.org>	logfs.h
<joern@logfs.org>	logfs_abi.h
<joern@logfs.org>	readwrite.c
<kaber@trash.net>	netdevices.c
<kihara@osrg.net>	btnode.c
<kihara@osrg.net>	btnode.h
<kihara@osrg.net>,	gcinode.c
<kihara@osrg.net>.	page.c
<kihara@osrg.net>.	page.h
<kmsmith@umich.edu>	nfs4proc.c
<kmsmith@umich.edu>	nfs4renewd.c
<kmsmith@umich.edu>	nfs4state.c
<kmsmith@umich.edu>	nfs4xdr.c
<koji@osrg.net>	nilfs.h
<koji@osrg.net>.	alloc.c
<koji@osrg.net>.	alloc.h
<koji@osrg.net>.	bmap.c
<koji@osrg.net>.	bmap.h
<koji@osrg.net>.	cpfile.c
<koji@osrg.net>.	cpfile.h
<koji@osrg.net>.	dat.c
<koji@osrg.net>.	dat.h
<koji@osrg.net>.	direct.h
<koji@osrg.net>.	sufile.c
<koji@osrg.net>.	sufile.h
<m_kato@ga2.so-net.ne.jp>	datastream.c
<manfred@colorfullife.com>	pipe.c
<marius@umich.edu>	idmap.c
<miklos@szeredi.hu>	control.c
<miklos@szeredi.hu>	dev.c
<miklos@szeredi.hu>	fuse_i.h
<mjc@emmy.smith.edu>	psdev.c
<okir@monad.swb.de>	clntlock.c
<okir@monad.swb.de>	clntproc.c
<okir@monad.swb.de>	host.c
<okir@monad.swb.de>	mon.c
<okir@monad.swb.de>	mount_clnt.c
<okir@monad.swb.de>	svc.c
<okir@monad.swb.de>	svc4proc.c
<okir@monad.swb.de>	svclock.c
<okir@monad.swb.de>	svcproc.c
<okir@monad.swb.de>	svcshare.c
<okir@monad.swb.de>	svcsubs.c
<okir@monad.swb.de>	write.c
<okir@monad.swb.de>	write.c
<okir@monad.swb.de>	xdr.c
<okir@monad.swb.de>	xdr4.c
<okir@monad.swb.de>");	svc.c
<phillip@squashfs.org.uk>	block.c
<phillip@squashfs.org.uk>	decompressor.c
<phillip@squashfs.org.uk>	decompressor.h
<phillip@squashfs.org.uk>	export.c
<phillip@squashfs.org.uk>	fragment.c
<phillip@squashfs.org.uk>	id.c
<phillip@squashfs.org.uk>	squashfs.h
<phillip@squashfs.org.uk>	squashfs_fs.h
<phillip@squashfs.org.uk>	squashfs_fs_i.h
<phillip@squashfs.org.uk>	squashfs_fs_sb.h
<phillip@squashfs.org.uk>	xattr.c
<phillip@squashfs.org.uk>	xattr.h
<phillip@squashfs.org.uk>	xattr_id.c
<phillip@squashfs.org.uk>	xz_wrapper.c
<phillip@squashfs.org.uk>	zlib_wrapper.c
<raven@themaw.net>	autofs_i.h
<raven@themaw.net>	dev-ioctl.c
<raven@themaw.net>	expire.c
<raven@themaw.net>	root.c
<raven@themaw.net>	waitq.c
<rgooch@atnf.csiro.au>,	super.c
<rgooch@atnf.csiro.au>,	super.c
<rgooch@atnf.csiro.au>,	super.c
<rgooch@atnf.csiro.au>,	super.c
<rgooch@atnf.csiro.au>,	super.c
<rgooch@atnf.csiro.au>,	super.c
<rgooch@atnf.csiro.au>,	super.c
<rgooch@atnf.csiro.au>,	super.c
<ryusuke@osrg.net>	btnode.c
<ryusuke@osrg.net>	btnode.h
<ryusuke@osrg.net>	ifile.h
<ryusuke@osrg.net>	mdt.c
<ryusuke@osrg.net>	mdt.h
<ryusuke@osrg.net>	nilfs.h
<ryusuke@osrg.net>	recovery.c
<ryusuke@osrg.net>	recovery.c
<ryusuke@osrg.net>	segbuf.c
<ryusuke@osrg.net>	segbuf.h
<ryusuke@osrg.net>	segment.c
<ryusuke@osrg.net>	segment.c
<ryusuke@osrg.net>	segment.h
<ryusuke@osrg.net>	the_nilfs.c
<ryusuke@osrg.net>	the_nilfs.h
<ryusuke@osrg.net>,	alloc.c
<ryusuke@osrg.net>,	alloc.h
<ryusuke@osrg.net>,	page.c
<ryusuke@osrg.net>,	page.h
<ryusuke@osrg.net>.	gcinode.c
<ryusuke@osrg.net>.	gcinode.c
<ryusuke@osrg.net>.	ifile.c
<ryusuke@osrg.net>.	sufile.c
<sct@redhat.com>,	checkpoint.c
<sct@redhat.com>,	commit.c
<sct@redhat.com>,	revoke.c
<sct@redhat.com>,	transaction.c
<sfr@canb.auug.org.au>,	locks.c
<tigran@veritas.com>	bfs.h
<tj@kernel.org>	cuse.c
<tj@kernel.org>");	cuse.c
<trond.myklebust@fys.uio.no>	pagelist.c
<trond.myklebust@fys.uio.no>	xdr4.c
<will_dyson@pobox.com	io.c
<will_dyson@pobox.com	linuxvfs.c
<will_dyson@pobox.com>	befs.h
<will_dyson@pobox.com>	btree.c
<will_dyson@pobox.com>	btree.c
<will_dyson@pobox.com>	datastream.c
<will_dyson@pobox.com>	endian.h
<willy@debian.org>,	locks.c
<willy@debian.org>,	locks.c
<wp@bszh.de>	namei_vfat.c
axboe@suse.de	mpage.c
okir@monad.swb.de	read.c
