"linux-ntfs-dev@lists.sourceforge.net	mft.c
"linux-ntfs-dev@lists.sourceforge.net	mft.c
(aeglos@valinor.owl.de).	part_tbl.c
(card@masi.ibp.fr)	balloc.c
(card@masi.ibp.fr)	file.c
(card@masi.ibp.fr)	file.c
(card@masi.ibp.fr)	file.c
(card@masi.ibp.fr)	file.c
(card@masi.ibp.fr)	file.c
(card@masi.ibp.fr)	file.c
(card@masi.ibp.fr)	file.c
(davem@caip.rutgers.edu),	balloc.c
(dhowells@redhat.com)	internal.h
(dhowells@redhat.com)	mmu.c
(dhowells@redhat.com)	nommu.c
(ecd@skynet.be)	compat_ioctl.c
(ericy@cais.com).	binfmt_elf.c
(ericy@cais.com).	binfmt_som.c
(flar@allandria.com)	bfind.c
(flar@allandria.com)	bnode.c
(flar@allandria.com)	brec.c
(flar@allandria.com)	btree.c
(flar@allandria.com)	btree.h
(hari@in.ibm.com)	vmcore.c
(jakub@redhat.com)	compat_ioctl.c
(pavel@ucw.cz)	compat_ioctl.c
(sct@redhat.com),	balloc.c
<CBertsch@microtest.com>).	posix_acl.c
<David.Howells@nexor.co.uk>	kcore.c
<Gerhard.Wichert@pdb.siemens.de>	array.c
<Jeff_Tranter@Mitel.COM>	array.c
<Yves.Arrouye@marin.fdn.fr>	array.c
<a.gruenbacher@computer.org>	posix_acl.c
<a.gruenbacher@computer.org>	xattr.h
<a.gruenbacher@computer.org>	xattr.h
<agruen@suse.de>	acl.h
<agruen@suse.de>	acl.h
<alan@lxorguk.ukuu.org.uk>	array.c
<alex@clusterfs.com>	mballoc.c
<andrea@suse.de>	buffer.c
<aneesh.kumar@linux.vnet.ibm.com>	migrate.c
<axboe@kernel.dk>	bio.c
<bruna.moreira@indt.org.br>	base.c
<crowbar@concepts.nl>	array.c
<davi@haxent.com.br>	signalfd.c
<davidel@xmailserver.org>	anon_inodes.c
<davidel@xmailserver.org>	signalfd.c
<davidel@xmailserver.org>	signalfd.c
<dth@cistron.nl>	array.c
<ebiederm@xmission.com>	proc_net.c
<edjard.mota@indt.org.br>	base.c
<forissier@isia.cma.fr>	array.c
<haible@ma2s2.mathematik.uni-karlsruhe.de>	array.c
<ilias.biris@indt.org.br>	base.c
<jeremy@sw.oz.au>	binfmt_elf.c
<jeremy@sw.oz.au>	kcore.c
<johnsonm@stolaf.edu>	array.c
<kanoj@sgi.com>	kcore.c
<martin.petersen@oracle.com>	bio-integrity.c
<mauricio.lin@indt.org.br>	base.c
<middelin@polyware.iaf.nl>	array.c
<ntfs@flatcap.org>	upcase.c
<pasky@ucw.cz>	hostfs_kern.c
<paul.mundt@nokia.com>:	base.c
<roman@ardistech.com>	attr.c
<roman@ardistech.com>	bfind.c
<roman@ardistech.com>	bnode.c
<roman@ardistech.com>	brec.c
<roman@ardistech.com>	btree.c
<roman@ardistech.com>	btree.h
<roman@ardistech.com>	catalog.c
<roman@ardistech.com>	extent.c
<roman@ardistech.com>	hfs.h
<roman@ardistech.com>	hfs_fs.h
<roman@ardistech.com>	mdb.c
<roman@ardistech.com>	part_tbl.c
<roman@ardistech.com>	string.c
<roman@ardistech.com>	sysdep.c
<rubini@ipvvis.unipv.it>	array.c
<sct@redhat.com>,	checkpoint.c
<sct@redhat.com>,	checkpoint.c
<sct@redhat.com>,	commit.c
<sct@redhat.com>,	journal.c
<sct@redhat.com>,	journal.c
<sct@redhat.com>,	recovery.c
<sct@redhat.com>,	recovery.c
<sct@redhat.com>,	revoke.c
<sct@redhat.com>,	transaction.c
<simo.piiroinen@nokia.com>:	base.c
<teheo@suse.de>	bin.c
<teheo@suse.de>	mount.c
<teheo@suse.de>	sysfs.h
<tigran@veritas.com>	kcore.c
<tigran@veritas.com>	kcore.c
<willy@bofh.ai>	binfmt_som.c
Paul.Russell@rustcorp.com.au)	generic.c
aeb@cwi.nl	array.c
info@clusterfs.com	mballoc.c
