(balbir@in.ibm.com).	core.c
(guenther@pool.informatik.rwth-aachen.de)	atari.h
(me@bobcopeland.com)	karma.c
(menage@google.com)	core.c
(ralf@gnu.org)	arch.h
(schwab@ls5.informatik.uni-dortmund.de)	atari.h
<Christian.Limpach@cl.cam.ac.uk>	interface.h
<Doi.Tsunehisa@jp.fujitsu.com>	interface.h
<Holger.Smolinski@de.ibm.com>	ibm.c
<Linux390@de.ibm.com>	ibm.c
<Matt_Domsch@dell.com>	efi.c
<Matt_Domsch@dell.com>	efi.c
<Matt_Domsch@dell.com>	efi.c
<Matt_Domsch@dell.com>	efi.c
<Matt_Domsch@dell.com>	efi.c
<Matt_Domsch@dell.com>	efi.c
<Matt_Domsch@dell.com>	efi.c
<Matt_Domsch@dell.com>	efi.c
<Matt_Domsch@dell.com>	efi.c
<Matt_Domsch@dell.com>	efi.c
<Matt_Domsch@dell.com>	efi.c
<Matt_Domsch@dell.com>	efi.c
<Matt_Domsch@dell.com>	efi.c
<Matt_Domsch@dell.com>	efi.c
<Matt_Domsch@dell.com>	efi.h
<alex.williamson@hp.com>	acpi-ext.h
<alex.williamson@hp.com>	interface.h
<anandk@wiproge.med.ge.com>	msdos.c
<andrea@cpushare.com>	seccomp.c
<andrea@suse.de>	blk-core.c
<andrea@suse.de>	elevator.c
<anil.s.keshavamurthy@intel.com>	kdebug.h
<anil.s.keshavamurthy@intel.com>	kprobes.h
<anthony.xu@intel.com>	interface.h
<arun.sharma@intel.com>	ptrace.h
<arun.sharma@intel.com>	ptrace.h
<asit.k.mallick@intel.com>	barrier.h
<asit.k.mallick@intel.com>	irqflags.h
<asit.k.mallick@intel.com>	processor.h
<asit.k.mallick@intel.com>	rwsem.h
<asit.k.mallick@intel.com>	switch_to.h
<asit.k.mallick@intel.com>	vga.h
<axboe@kernel.dk>	blk-cgroup.c
<axboe@kernel.dk>	blk-cgroup.h
<axboe@kernel.dk>	cfq-iosched.c
<axboe@kernel.dk>	deadline-iosched.c
<axboe@kernel.dk>	elevator.c
<axboe@suse.de>	blk-core.c
<axboe@suse.de>	blk-core.c
<axboe@suse.de>	bsg.c
<axboe@suse.de>	scsi_ioctl.c
<bjorn.helgaas@hp.com>	acpi-ext.h
<bjorn.helgaas@hp.com>	pci.c
<bjorn.helgaas@hp.com>	smp.h
<clameter@sgi.com>	rwsem.h
<dan.magenheimer@hp.com>	privop.h
<dan.magenheimer@hp.com>	pvchk_inst.h
<davej@suse.de>	elevator.c
<davem@davemloft.net>	fixup.c
<davidm@hpl.hp.com>	agp.h
<davidm@hpl.hp.com>	asmmacro.h
<davidm@hpl.hp.com>	atomic.h
<davidm@hpl.hp.com>	barrier.h
<davidm@hpl.hp.com>	bitops.h
<davidm@hpl.hp.com>	break.h
<davidm@hpl.hp.com>	cache.h
<davidm@hpl.hp.com>	cacheflush.h
<davidm@hpl.hp.com>	cmpxchg.h
<davidm@hpl.hp.com>	dma-mapping.h
<davidm@hpl.hp.com>	dma.h
<davidm@hpl.hp.com>	elf.h
<davidm@hpl.hp.com>	fpu.h
<davidm@hpl.hp.com>	hardirq.h
<davidm@hpl.hp.com>	hw_irq.h
<davidm@hpl.hp.com>	intrinsics.h
<davidm@hpl.hp.com>	irqflags.h
<davidm@hpl.hp.com>	kregs.h
<davidm@hpl.hp.com>	machvec.h
<davidm@hpl.hp.com>	mca_asm.h
<davidm@hpl.hp.com>	mmu_context.h
<davidm@hpl.hp.com>	pal.h
<davidm@hpl.hp.com>	patch.h
<davidm@hpl.hp.com>	pci.c
<davidm@hpl.hp.com>	percpu.h
<davidm@hpl.hp.com>	pgalloc.h
<davidm@hpl.hp.com>	processor.h
<davidm@hpl.hp.com>	ptrace.h
<davidm@hpl.hp.com>	ptrace.h
<davidm@hpl.hp.com>	ptrace_offsets.h
<davidm@hpl.hp.com>	rse.h
<davidm@hpl.hp.com>	sal.h
<davidm@hpl.hp.com>	sections.h
<davidm@hpl.hp.com>	sigcontext.h
<davidm@hpl.hp.com>	smp.h
<davidm@hpl.hp.com>	spinlock.h
<davidm@hpl.hp.com>	string.h
<davidm@hpl.hp.com>	switch_to.h
<davidm@hpl.hp.com>	thread_info.h
<davidm@hpl.hp.com>	tlb.h
<davidm@hpl.hp.com>	tlbflush.h
<davidm@hpl.hp.com>	unistd.h
<davidm@hpl.hp.com>	unistd.h
<davidm@hpl.hp.com>,	bugs.h
<davidm@hpl.hp.com>,	checksum.h
<davidm@hpl.hp.com>,	current.h
<davidm@hpl.hp.com>,	fcntl.h
<davidm@hpl.hp.com>,	mman.h
<davidm@hpl.hp.com>,	mman.h
<davidm@hpl.hp.com>,	param.h
<davidm@hpl.hp.com>,	param.h
<davidm@hpl.hp.com>,	siginfo.h
<davidm@hpl.hp.com>,	siginfo.h
<davidm@hpl.hp.com>,	signal.h
<davidm@hpl.hp.com>,	signal.h
<davidm@hpl.hp.com>,	socket.h
<davidm@hpl.hp.com>,	sockios.h
<davidm@hpl.hp.com>,	stat.h
<davidm@hpl.hp.com>,	statfs.h
<davidm@hpl.hp.com>,	swab.h
<davidm@hpl.hp.com>,	termbits.h
<davidm@hpl.hp.com>,	termios.h
<davidm@hpl.hp.com>,	user.h
<dcinege@psychosis.com>	do_mounts_md.c
<dmitry.adamushko@gmail.com>	fair.c
<don.dugger@intel.com>	barrier.h
<don.dugger@intel.com>	irqflags.h
<don.dugger@intel.com>	processor.h
<don.dugger@intel.com>	switch_to.h
<don.dugger@intel.com>	vga.h
<drummond@valinux.com>	pal.h
<drummond@valinux.com>	smp.h
<drummond@valinux.com>	spinlock.h
<dwmw2@infradead.org>	ihex2fw.c
<eddie.dong@intel.com>	interface.h
<efault@gmx.de>	fair.c
<efocht@ess.nec.de>	mmu_context.h
<efocht@ess.nec.de>	mmzone.h
<efocht@ess.nec.de>	nodedata.h
<efocht@ess.nec.de>	numa.h
<eranian@hpl.hp.com>	pal.h
<eranian@hpl.hp.com>	perfmon.h
<eranian@hpl.hp.com>	perfmon.h
<eranian@hpl.hp.com>	perfmon_default_smpl.h
<eranian@hpl.hp.com>	processor.h
<eranian@hpl.hp.com>	ptrace.h
<eranian@hpl.hp.com>	ptrace.h
<fabio@gandalf.sssup.it>	blk-cgroup.c
<fabio@gandalf.sssup.it>	blk-cgroup.h
<fenghua.yu@intel.com>	ptrace.h
<fenghua.yu@intel.com>	ptrace.h
<frankeh@us.ibm.com>	base.c
<frankeh@us.ibm.com>	fs.c
<fred.yang@intel.com>	interface.h
<frederick.v.lewis@intel.com>	sal.h
<ghaskins@novell.com>	cpupri.c
<goutham.rao@intel.com>	pgalloc.h
<grif@acm.org>	main.c
<guichaz@gmail.com>	clock.c
<hollisb@us.ibm.com>	interface.h
<hollisb@us.ibm.com>,	xencomm.h
<hongjiu.lu@intel.com>	intel_intrin.h
<jaharkes@cs.cmu.edu>	ihex2fw.c
<jakob.kemi@telia.com>	ldm.c
<jakob.kemi@telia.com>	ldm.h
<jbeulich@novell.com>	interface.h
<jean-paul.saman@nxp.com>	noinitramfs.c
<jenna.s.hall@intel.com>	mca_asm.h
<jenna.s.hall@intel.com>	sal.h
<john.levon@sun.com>	interface.h
<jonsmirl@gmail.com>	fixup.c
<jun.nakajima@intel.com>	gcc_intrin.h
<jun.nakajima@intel.com>	gcc_intrin.h
<jun.nakajima@intel.com>	ia64regs.h
<jun.nakajima@intel.com>	intel_intrin.h
<k-suganuma@da.jp.nec.com>	mmzone.h
<k-suganuma@da.jp.nec.com>	nodedata.h
<kanno.masaki@jp.fujitsu.com>	interface.h
<kaos@sgi.com>	mca_asm.h
<kaos@sgi.com>.	kdebug.h
<kay.sievers@vrfy.org>	ksysfs.c
<kaz@jp.fujitsu.com>	interface.h
<keir.fraser@citrix.com>	interface.h
<kenneth.w.chen@intel.com>	mutex.h
<kenneth.w.chen@intel.com>	rwsem.h
<kevin.tian@intel.com>	interface.h
<kouya@jp.fujitsu.com>	interface.h
<ldm@flatcap.org>	ldm.c
<ldm@flatcap.org>	ldm.h
<manfred@colorfullife.com>	core.c
<markgw@sgi.com>	sn_hwperf.h
<martin.petersen@oracle.com>	blk-integrity.c
<matthewc@hp.com>	interface.h
<matthewc@hp.com>	interface.h
<mingo@redhat.com>	clock.c
<mingo@redhat.com>	fair.c
<mingo@redhat.com>	mutex-debug.c
<mingo@redhat.com>	rtmutex-debug.c
<mingo@redhat.com>	rtmutex.c
<mj@ucw.cz>	vga.h
<nauman@google.com>	blk-cgroup.c
<nauman@google.com>	blk-cgroup.h
<neilb@cse.unsw.edu.au>	blk-core.c
<nhinds@us.ibm.com>	base.c
<nhinds@us.ibm.com>	fs.c
<oberpar@linux.vnet.ibm.com>	base.c
<oberpar@linux.vnet.ibm.com>	base.c
<oberpar@linux.vnet.ibm.com>	fs.c
<oberpar@linux.vnet.ibm.com>	fs.c
<oberpar@linux.vnet.ibm.com>	gcc_3_4.c
<oberpar@linux.vnet.ibm.com>	gcov.h
<paolo.valente@unimore.it>	blk-cgroup.c
<paolo.valente@unimore.it>	blk-cgroup.h
<phdm@macqel.be>	sysv68.c
<pjones@redhat.com>	bsg.c
<pzijlstr@redhat.com>	clock.c
<pzijlstr@redhat.com>	fair.c
<rajancr@us.ibm.com>	base.c
<rajancr@us.ibm.com>	fs.c
<rajeevvp@yahoo.com>	msdos.c
<rja@sgi.com>	mca.h
<rjw@sisk.pl>,	pm.c
<rostedt@goodmis.org>	rtmutex-debug.c
<rusty.lynch@intel.com>	kdebug.h
<rusty.lynch@intel.com>	kprobes.h
<sameske@de.ibm.com>	ibm.c
<samuel.thibault@eu.citrix.com>	interface.h
<seto.hidetoshi@jp.fujitsu.com>	cputime.h
<shaohua.li@intel.com>	syscall.h
<sprasad@engr.sgi.com>	machvec.h
<sprasad@engr.sgi.com>	mca.h
<sprasad@engr.sgi.com>	mca_asm.h
<sprasad@sprasad.engr.sgi.com>	pal.h
<sprasad@sprasad.engr.sgi.com>	sal.h
<srostedt@redhat.com>	clock.c
<suresh.b.siddha@intel.com>	gcc_intrin.h
<suresh.b.siddha@intel.com>	gcc_intrin.h
<suresh.b.siddha@intel.com>	ia64regs.h
<suresh.b.siddha@intel.com>	intel_intrin.h
<suresh.b.siddha@intel.com>	ptrace.h
<suresh.b.siddha@intel.com>	ptrace.h
<t.horikoshi@jp.fujitsu.com>	interface.h
<tgingold@free.fr>	interface.h
<tglx@linutronix.de>	fair.c
<tglx@timesys.com>	rtmutex-debug.c
<tglx@timesys.com>	rtmutex.c
<tim@cyberelk.demon.co.uk>	parport.h
<tj@kernel.org>	blk-flush.c
<tristan.gingold@bull.net>,	xcom_hcall.h
<vatsa@linux.vnet.ibm.com>	fair.c
<vgoyal@redhat.com>	blk-cgroup.c
<vgoyal@redhat.com>	blk-cgroup.h
<vgoyal@redhat.com>	blk-throttle.c
<vijay@engr.sgi.com>	machvec.h
<vijay@engr.sgi.com>	mca.h
<vijay@engr.sgi.com>	mca_asm.h
<wad@chromium.org>	seccomp.c
<xiantao.zhang@intel.com>	interface.h
<xiantao.zhang@intel.com>	kvm.h
<xiantao.zhang@intel.com>	kvm_host.h
<xing.z.zhang@intel.com>	interface.h
<yamahata@valinux.co.jp>	interface.h
<yutaka.ezaki@jp.fujitsu.com>	interface.h
dan.magenheimer@hp.com	interface.h
ian.pratt@cl.cam.ac.uk	interface.h
james@bpgc.com:	msdos.c
lankeste@fwi.uva.nl,	msdos.c
michael.fetterman@cl.cam.ac.uk	interface.h
