(adrian@remus.rutgers.edu)	unistd.h
(adrian@remus.rutgers.edu)	unistd.h
(adrian@remus.rutgers.edu)	unistd.h
(anton@linuxcare.com.au)	atomic_32.h
(anton@linuxcare.com.au)	cmpxchg_32.h
(anton@samba.org)	hardirq_32.h
(anton@samba.org)	starfire.h
(anton@samba.org)	vaddrs.h
(daniel@gaisler.com)	leon.h
(daniel@gaisler.com),Konrad	leon_amba.h
(davem@caip.rutgers.edu)	asi.h
(davem@caip.rutgers.edu)	auxio_32.h
(davem@caip.rutgers.edu)	auxio_64.h
(davem@caip.rutgers.edu)	bitops_64.h
(davem@caip.rutgers.edu)	ecc.h
(davem@caip.rutgers.edu)	eeprom.h
(davem@caip.rutgers.edu)	fpumacro.h
(davem@caip.rutgers.edu)	hardirq_32.h
(davem@caip.rutgers.edu)	idprom.h
(davem@caip.rutgers.edu)	iommu_32.h
(davem@caip.rutgers.edu)	machines.h
(davem@caip.rutgers.edu)	mbus.h
(davem@caip.rutgers.edu)	mxcc.h
(davem@caip.rutgers.edu)	openprom.h
(davem@caip.rutgers.edu)	pgtable_32.h
(davem@caip.rutgers.edu)	pgtable_64.h
(davem@caip.rutgers.edu)	pgtsrmmu.h
(davem@caip.rutgers.edu)	processor_64.h
(davem@caip.rutgers.edu)	psr.h
(davem@caip.rutgers.edu)	resource.h
(davem@caip.rutgers.edu)	spinlock_64.h
(davem@caip.rutgers.edu)	string_32.h
(davem@caip.rutgers.edu)	swift.h
(davem@caip.rutgers.edu)	timer_32.h
(davem@caip.rutgers.edu)	traps.h
(davem@caip.rutgers.edu)	traps.h
(davem@caip.rutgers.edu)	traps.h
(davem@caip.rutgers.edu)	tsunami.h
(davem@caip.rutgers.edu)	uaccess_32.h
(davem@caip.rutgers.edu)	uctx.h
(davem@caip.rutgers.edu)	vaddrs.h
(davem@caip.rutgers.edu)	viking.h
(davem@caip.rutgers.edu)	winmacro.h
(davem@caip.rutgers.edu).	delay_32.h
(davem@caipfs.rutgers.edu)	asmmacro.h
(davem@davemloft.net)	atomic_32.h
(davem@davemloft.net)	bugs.h
(davem@davemloft.net)	bugs.h
(davem@davemloft.net)	cache.h
(davem@davemloft.net)	cache.h
(davem@davemloft.net)	cmpxchg_32.h
(davem@davemloft.net)	cpudata_64.h
(davem@davemloft.net)	current.h
(davem@davemloft.net)	current.h
(davem@davemloft.net)	floppy_64.h
(davem@davemloft.net)	ide.h
(davem@davemloft.net)	iommu_64.h
(davem@davemloft.net)	irq_64.h
(davem@davemloft.net)	oplib_64.h
(davem@davemloft.net)	smp_64.h
(davem@davemloft.net)	spitfire.h
(davem@davemloft.net)	timer_64.h
(davem@davemloft.net)	unistd.h
(davem@davemloft.net)	unistd.h
(davem@davemloft.net)	unistd.h
(davem@davemloft.net).	delay_64.h
(davem@redhat.com)	atomic_64.h
(davem@redhat.com)	bbc.h
(davem@redhat.com)	fhc.h
(davem@redhat.com)	sfp-machine_32.h
(davem@redhat.com)	thread_info_64.h
(davem@redhat.com),	rwsem.h
(davem@redhat.com).	sfp-machine_64.h
(davidm@snapgear.com)	flat.h
(ebrower@usa.net)	apc.h
(ebrower@usa.net)	auxio_64.h
(ecd@skynet.be)	apb.h
(ecd@skynet.be)	envctrl.h
(ecd@skynet.be)	floppy_64.h
(ecd@skynet.be)	ide.h
(ecd@skynet.be)	parport.h
(eiselekd@web.de,konrad@gaisler.com)	leon.h
(eiselekd@web.de,konrad@gaisler.com),	leon_amba.h
(gerg@snapgear.com)	init.c
(gerg@snapgear.com)	memory.c
(gerg@snapgear.com)	setup.c
(jj@sunsite.mff.cuni.cz)	floppy_64.h
(jj@sunsite.mff.cuni.cz)	fpumacro.h
(jj@sunsite.mff.cuni.cz)	io-unit.h
(jj@sunsite.mff.cuni.cz)	oplib_64.h
(jj@sunsite.mff.cuni.cz)	pgtable_32.h
(jj@sunsite.mff.cuni.cz)	pgtable_64.h
(jj@sunsite.mff.cuni.cz)	piggyback.c
(jj@sunsite.mff.cuni.cz)	string_32.h
(jj@sunsite.mff.cuni.cz)	uaccess_32.h
(jj@sunsite.mff.cuni.cz)	utrap.h
(jj@ultra.linux.cz)	irq_64.h
(jj@ultra.linux.cz)	sfp-machine_64.h
(jj@ultra.linux.cz)	visasm.h
(jj@ultra.linux.cz)	xor_32.h
(jj@ultra.linux.cz)	xor_64.h
(jj@ultra.linux.cz),	sfp-machine_32.h
(konrad@gaisler.com)	leon.h
(konrad@gaisler.com)	leon_amba.h
(paul@sfe.com.au)	asi.h
(pmaydell@chiark.greenend.org.uk).	sfp-machine_32.h
(rth@cygnus.com),	sfp-machine_32.h
(rth@cygnus.com),	sfp-machine_64.h
(schwidefsky@de.ibm.com)	current.h
(schwidefsky@de.ibm.com)	current.h
(vinh.truong@eng.sun.com)	envctrl.h
(wesolows@foobazco.org)	atomic_32.h
(wesolows@foobazco.org)	cmpxchg_32.h
(wesolows@foobazco.org)	cpudata_32.h
(zaitcev@yahoo.com)	current.h
(zaitcev@yahoo.com)	current.h
<agulbra@nvg.unit.no>	checksum.c
<davem@davemloft.net>	xor_64.h
<davidm@snapgear.com>	init.c
<davidm@snapgear.com>	kmap.c
<davidm@snapgear.com>	kmap.c
<davidm@snapgear.com>	signal.c
<ebrower@usa.net>	display7seg.h
<ebrower@usa.net>	watchdog.h
<ftom@netcom.com>	checksum.c
<jeff@lineo.ca>	setup.c
<jeff@lineo.ca>,	fault.c
<jeff@lineo.ca>,	init.c
<jeff@ryeham.ee.ryerson.ca>,	process.c
<jj@sunsite.mff.cuni.cz>	obio.h
<jorge@laser.satlink.net>	checksum.c
<kjahds@kjahds.com>	setup.c
<kjahds@kjahds.com>,	init.c
<kjahds@kjahds.com>,	memory.c
<kjahds@kjahds.com>,	process.c
<mingo@redhat.com>	highmem.h
<mj@ucw.cz>	vga.h
<prumpf@tux.org>.	atomic_32.h
<prumpf@tux.org>.	cmpxchg_32.h
<sam@ravnborg.org>	piggyback.c
<schwab@issan.informatik.uni-dortmund.de>	checksum.c
<ysato@sourceforge.jp>	delay.h
<ysato@users.sourcefoge.jp>	itu.c
<ysato@users.sourcefoge.jp>	timer16.c
<ysato@users.sourcefoge.jp>	timer8.c
<ysato@users.sourceforge.jp>	cacheflush.h
<ysato@users.sourceforge.jp>	gpio.c
<ysato@users.sourceforge.jp>	irq.c
<ysato@users.sourceforge.jp>	irq.c
<ysato@users.sourceforge.jp>	irq.c
<ysato@users.sourceforge.jp>	pci.h
<ysato@users.sourceforge.jp>	process.c
<ysato@users.sourceforge.jp>	ptrace.c
<ysato@users.sourceforge.jp>	ptrace_h8300h.c
<ysato@users.sourceforge.jp>	ptrace_h8s.c
<ysato@users.sourceforge.jp>	setup.c
<ysato@users.sourceforge.jp>	signal.c
<ysato@users.sourceforge.jp>	time.c
<ysato@users.sourceforge.jp>	tpu.c
<ysato@users.sourceforge.jp>	traps.c
<ysato@users.sourceforge.jp>,	memory.c
<ysato@users.sourceforge.jp>\n");	setup.c
<zaitcev@ipmce.su>	asi.h
<zaitcev@yahoo.com>	piggyback.c
Gerhard.Wichert@pdb.siemens.de	highmem.h
