(chris@mips.com)	kernel-entry-init.h
(davem@davemloft.net)	c-r3k.c
(davem@davemloft.net)	c-r4k.c
(davem@davemloft.net)	c-tx39.c
(davem@davemloft.net)	r4kcache.h
(davem@davemloft.net)	tlb-r3k.c
(davem@davemloft.net)	tlb-r4k.c
(davem@davemloft.net)	tlb-r8k.c
(davem@davemloft.net).	sc-ip22.c
(davem@davemloft.net).	sc-r5k.c
(dhowells@redhat.com)	thread_info.h
(dm@sgi.com)	sgi.h
(hch@lst.de)	mmzone.h
(kanoj@sgi.com)	mmzone.h
(kanoj@sgi.com)	smp-ops.h
(mlachwani@mvista.com)	rbtx4938.h
(mlachwani@mvista.com)	spi.h
(mlachwani@mvista.com)	tx4938.h
(ralf@gnu.org)	agent.h
(ralf@gnu.org)	arch.h
(ralf@gnu.org)	arch.h
(ralf@gnu.org)	c-r4k.c
(ralf@gnu.org)	r4kcache.h
(ralf@gnu.org),	sc-ip22.c
(ralf@gnu.org),	sc-r5k.c
(rischelp@idt.com)	pci.h
(rischelp@idt.com)	pci.h
(rischelp@idt.com)	pci.h
(rischelp@idt.com)	pci.h
<ajoshi@unixbox.com>	dma-default.c
<ajoshi@unixbox.com>	dma-octeon.c
<allen.stichter@idt.com>	eth.h
<ddaney@caviumnetworks.com>");	octeon-platform.c
<florian@openwrt.org>	cpu-feature-overrides.h
<florian@openwrt.org>	cpu-feature-overrides.h
<florian@openwrt.org>	cpu-feature-overrides.h
<florian@openwrt.org>	cpu-feature-overrides.h
<florian@openwrt.org>	cpu-feature-overrides.h
<florian@openwrt.org>	cpu-feature-overrides.h
<florian@openwrt.org>	cpu-feature-overrides.h
<florian@openwrt.org>	ddr.h
<florian@openwrt.org>	eth.h
<florian@openwrt.org>	gpio.h
<florian@openwrt.org>	gpio.h
<florian@openwrt.org>	integ.h
<florian@openwrt.org>	prom.h
<florian@openwrt.org>	prom.h
<florian@openwrt.org>	prom.h
<florian@openwrt.org>	prom.h
<florian@openwrt.org>	timer.h
<manuel.lauss@googlemail.com>	gpio-au1300.h
<mporter@embeddedalley.com>	hugetlbpage.c
<nbd@openwrt.org>	rb.h
<patrickglass@gmail.com>	gpio.c
<patrickglass@gmail.com>	gpio_extended.c
<ralf@gnu.org>	dma-octeon.c
<rischelp@idt.com>	timer.h
<rohit.seth@intel.com>	hugetlbpage.c
<ryan.holmQVist@idt.com>	ddr.h
<ryan.holmQVist@idt.com>	gpio.h
<ryan.holmQVist@idt.com>	gpio.h
<ryan.holmQVist@idt.com>	integ.h
<ryan.holmQVist@idt.com>	prom.h
<ryan.holmQVist@idt.com>	prom.h
<ryan.holmQVist@idt.com>	prom.h
<ryan.holmQVist@idt.com>	prom.h
<source@mvista.com>	au1000.h
<source@mvista.com>	au1000_dma.h
<wuzhangjin@gmail.com>	cs5536_vsm.h
<wuzhangjin@gmail.com>	mem.h
carstenl@mips.com	init.c
carstenl@mips.com	mc146818rtc.h
carstenl@mips.com	mc146818rtc.h
carstenl@mips.com	msp_prom.c
carstenl@mips.com	msp_time.c
carstenl@mips.com	tlb-r4k.c
carstenl@mips.com	tlb-r8k.c
dan@embeddededge.com	au1100_mmc.h
dan@embeddededge.com	au1xxx_dbdma.h
dan@embeddededge.com	au1xxx_psc.h
jsun@junsun.net	fpu.h
jsun@junsun.net	msp_setup.c
jsun@junsun.net	time.h
jsun@mvista.com	fpu.h
jsun@mvista.com	msp_setup.c
jsun@mvista.com	time.h
kevink@mips.com	init.c
liujl@lemote.com	cs5536_pci.h
mlachwani@mvista.com	smsc_fdc37m81x.h
ppopov@mvista.com	msp_prom.c
ralf@gnu.org	tlb-r4k.c
ralf@gnu.org	tlb-r8k.c
ryan.holmQVist@idt.com	dma.h
ryan.holmQVist@idt.com	dma.h
ryan.holmQVist@idt.com	dma_v.h
ryan.holmQVist@idt.com	gpio.h
ryan.holmQVist@idt.com	gpio.h
sato@sm.sony.co.jp	au1000.h
source@mvista.com	msp_prom.c
source@mvista.com	rbtx4927.h
source@mvista.com	smsc_fdc37m81x.h
source@mvista.com	tx4927.h
support@cavium.com	cvmx-lmcx-defs.h
support@caviumnetworks.com	cvmx-address.h
support@caviumnetworks.com	cvmx-agl-defs.h
support@caviumnetworks.com	cvmx-asm.h
support@caviumnetworks.com	cvmx-asxx-defs.h
support@caviumnetworks.com	cvmx-bootinfo.h
support@caviumnetworks.com	cvmx-bootmem.c
support@caviumnetworks.com	cvmx-bootmem.h
support@caviumnetworks.com	cvmx-ciu-defs.h
support@caviumnetworks.com	cvmx-ciu2-defs.h
support@caviumnetworks.com	cvmx-cmd-queue.c
support@caviumnetworks.com	cvmx-cmd-queue.h
support@caviumnetworks.com	cvmx-dbg-defs.h
support@caviumnetworks.com	cvmx-dpi-defs.h
support@caviumnetworks.com	cvmx-fau.h
support@caviumnetworks.com	cvmx-fpa-defs.h
support@caviumnetworks.com	cvmx-fpa.h
support@caviumnetworks.com	cvmx-gmxx-defs.h
support@caviumnetworks.com	cvmx-gpio-defs.h
support@caviumnetworks.com	cvmx-helper-board.c
support@caviumnetworks.com	cvmx-helper-board.h
support@caviumnetworks.com	cvmx-helper-errata.c
support@caviumnetworks.com	cvmx-helper-errata.h
support@caviumnetworks.com	cvmx-helper-jtag.c
support@caviumnetworks.com	cvmx-helper-jtag.h
support@caviumnetworks.com	cvmx-helper-loop.c
support@caviumnetworks.com	cvmx-helper-loop.h
support@caviumnetworks.com	cvmx-helper-npi.c
support@caviumnetworks.com	cvmx-helper-npi.h
support@caviumnetworks.com	cvmx-helper-rgmii.c
support@caviumnetworks.com	cvmx-helper-rgmii.h
support@caviumnetworks.com	cvmx-helper-sgmii.c
support@caviumnetworks.com	cvmx-helper-sgmii.h
support@caviumnetworks.com	cvmx-helper-spi.c
support@caviumnetworks.com	cvmx-helper-spi.h
support@caviumnetworks.com	cvmx-helper-util.c
support@caviumnetworks.com	cvmx-helper-util.h
support@caviumnetworks.com	cvmx-helper-xaui.c
support@caviumnetworks.com	cvmx-helper-xaui.h
support@caviumnetworks.com	cvmx-helper.c
support@caviumnetworks.com	cvmx-helper.h
support@caviumnetworks.com	cvmx-interrupt-decodes.c
support@caviumnetworks.com	cvmx-interrupt-rsl.c
support@caviumnetworks.com	cvmx-iob-defs.h
support@caviumnetworks.com	cvmx-ipd-defs.h
support@caviumnetworks.com	cvmx-ipd.h
support@caviumnetworks.com	cvmx-l2c-defs.h
support@caviumnetworks.com	cvmx-l2c.c
support@caviumnetworks.com	cvmx-l2c.h
support@caviumnetworks.com	cvmx-l2d-defs.h
support@caviumnetworks.com	cvmx-l2t-defs.h
support@caviumnetworks.com	cvmx-led-defs.h
support@caviumnetworks.com	cvmx-mdio.h
support@caviumnetworks.com	cvmx-mio-defs.h
support@caviumnetworks.com	cvmx-mixx-defs.h
support@caviumnetworks.com	cvmx-mpi-defs.h
support@caviumnetworks.com	cvmx-npei-defs.h
support@caviumnetworks.com	cvmx-npi-defs.h
support@caviumnetworks.com	cvmx-packet.h
support@caviumnetworks.com	cvmx-pci-defs.h
support@caviumnetworks.com	cvmx-pciercx-defs.h
support@caviumnetworks.com	cvmx-pcsx-defs.h
support@caviumnetworks.com	cvmx-pcsxx-defs.h
support@caviumnetworks.com	cvmx-pemx-defs.h
support@caviumnetworks.com	cvmx-pescx-defs.h
support@caviumnetworks.com	cvmx-pexp-defs.h
support@caviumnetworks.com	cvmx-pip-defs.h
support@caviumnetworks.com	cvmx-pip.h
support@caviumnetworks.com	cvmx-pko-defs.h
support@caviumnetworks.com	cvmx-pko.c
support@caviumnetworks.com	cvmx-pko.h
support@caviumnetworks.com	cvmx-pow-defs.h
support@caviumnetworks.com	cvmx-pow.h
support@caviumnetworks.com	cvmx-rnm-defs.h
support@caviumnetworks.com	cvmx-scratch.h
support@caviumnetworks.com	cvmx-sli-defs.h
support@caviumnetworks.com	cvmx-smix-defs.h
support@caviumnetworks.com	cvmx-spi.c
support@caviumnetworks.com	cvmx-spi.h
support@caviumnetworks.com	cvmx-spinlock.h
support@caviumnetworks.com	cvmx-spxx-defs.h
support@caviumnetworks.com	cvmx-sriox-defs.h
support@caviumnetworks.com	cvmx-srxx-defs.h
support@caviumnetworks.com	cvmx-stxx-defs.h
support@caviumnetworks.com	cvmx-sysinfo.c
support@caviumnetworks.com	cvmx-sysinfo.h
support@caviumnetworks.com	cvmx-uctlx-defs.h
support@caviumnetworks.com	cvmx-wqe.h
support@caviumnetworks.com	cvmx.h
support@caviumnetworks.com	octeon-feature.h
support@caviumnetworks.com	octeon-model.c
support@caviumnetworks.com	octeon-model.h
takuzo@sm.sony.co.jp	au1000.h
tim@embeddededge.com	au1100_mmc.h
zhangfx@lemote.com	dma-coherence.h
