(cernekee@gmail.com)	bmips.h
(davem@davemloft.net)	asmmacro-32.h
(davem@davemloft.net)	asmmacro-64.h
(davem@davemloft.net)	cpu.h
(davem@davemloft.net)	sgiarcs.h
(kanoj@sgi.com)	smp.h
(ldavies@agile.tv)	cobalt.h
(ralf@gnu.org)	sgiarcs.h
(ralf@gnu.org)	xtalk.h
(ralf@gnu.org)	xwidget.h
(tsbogend@alpha.franken.de)	sni.h
<a2ebde260608230500o3407b108hc03debb9da6e62c@mail.gmail.com>	page.h
<apatard@mandriva.com>	gpio.h
<apatard@mandriva.com>	gpio.h
<apatard@mandriva.com>	gpio.h
<apatard@mandriva.com>	gpio.h
<apatard@mandriva.com>	gpio.h
<apatard@mandriva.com>	gpio.h
<apatard@mandriva.com>	gpio.h
<apatard@mandriva.com>	gpio.h
<apatard@mandriva.com>	gpio.h
<apatard@mandriva.com>	gpio.h
<aurelien@aurel32.net>	bcm47xx.h
<blogic@openwrt.org>	lantiq.h
<blogic@openwrt.org>	lantiq_irq.h
<blogic@openwrt.org>	lantiq_platform.h
<blogic@openwrt.org>	lantiq_soc.h
<blogic@openwrt.org>	lantiq_soc.h
<blogic@openwrt.org>	xway_dma.h
<chris.steel@nxp.com>	irq-mapping.h
<chris.steel@nxp.com>	pnx833x.h
<daniel.j.laird@nxp.com>	irq-mapping.h
<daniel.j.laird@nxp.com>	pnx833x.h
<geert@sonycom.com>	nile4.h
<ito@mlb.co.jp>	tb0287.h
<jnarayanan@atheros.com>	ar71xx_regs.h
<jorge@laser.satlink.net>,	checksum.h
<juhosg@openwrt.org>	ar71xx_regs.h
<juhosg@openwrt.org>	ar933x_uart.h
<juhosg@openwrt.org>	ar933x_uart_platform.h
<juhosg@openwrt.org>	ath79.h
<juhosg@openwrt.org>	ath79_spi_platform.h
<kaloz@openwrt.org>	ar71xx_regs.h
<kaloz@openwrt.org>	ath79.h
<keguang.zhang@gmail.com>	loongson1.h
<keguang.zhang@gmail.com>	prom.h
<keguang.zhang@gmail.com>	regs-clk.h
<keguang.zhang@gmail.com>	regs-wdt.h
<lars@metafoo.de>	clock.h
<lars@metafoo.de>	dma.h
<lars@metafoo.de>	jz4740_fb.h
<lars@metafoo.de>	jz4740_nand.h
<lars@metafoo.de>	platform.h
<lars@metafoo.de>	platform.h
<lars@metafoo.de>	timer.h
<liujl@lemote.com>	cs5536.h
<macro@mips.com>	io.h
<matsu@megasolution.jp>	tb0219.h
<mingo@redhat.com>	highmem.h
<nbd@openwrt.org>	nvram.h
<nschichan@corp.free.fr>	kexec.h
<richard.liu@st.com>	gpio.h
<richard.liu@st.com>	gpio.h
<richard.liu@st.com>	gpio.h
<richard.liu@st.com>	gpio.h
<richard.liu@st.com>	gpio.h
<richard.liu@st.com>	gpio.h
<richard.liu@st.com>	gpio.h
<richard.liu@st.com>	gpio.h
<richard.liu@st.com>	gpio.h
<richard.liu@st.com>	gpio.h
<thh@lasat.com>	lasat.h
<thomas.koeller@baslerweb.com>	rm9k-ocd.h
<thomas.langer@lantiq.com>	falcon_irq.h
<wuzhangjin@gmail.com>	ftrace.h
<wuzhangjin@gmail.com>	loongson.h
<wuzhangjin@gmail.com>	machine.h
Gerhard.Wichert@pdb.siemens.de	highmem.h
carstenl@mips.com	exec.h
carstenl@mips.com	fpu_emulator.h
carstenl@mips.com	mipsregs.h
carstenl@mips.com	msp_cic_int.h
carstenl@mips.com	msp_prom.h
carstenl@mips.com	msp_slp_int.h
carstenl@mips.com	switch_to.h
chris@mips.com	dsp.h
jsun@junsun.net	debug.h
jsun@mvista.com	debug.h
kevink@mips.com	fpu_emulator.h
kevink@mips.com	mipsregs.h
kevink@mips.org	exec.h
kevink@mips.org	switch_to.h
