<andy@openmoko.org>	mach-gta02.c
<ben-linux@fluff.org>	adc.c
<ben-linux@fluff.org>	clock-s3c2416.c
<ben-linux@fluff.org>	h1940.h
<ben-linux@fluff.org>	mach-h1940.c
<ben-linux@fluff.org>	mach-jive.c
<ben-linux@fluff.org>	mach-n30.c
<ben-linux@fluff.org>	mach-rx3715.c
<ben-linux@fluff.org>	mach-smdk2413.c
<ben-linux@fluff.org>	mach-smdk2413.c
<ben-linux@fluff.org>	mach-smdk2413.c
<ben-linux@fluff.org>	mach-smdk2440.c
<ben-linux@fluff.org>	mach-smdk2443.c
<ben-linux@fluff.org>	pwm-clock.c
<ben-linux@fluff.org>	wakeup-mask.c
<ben@simtec.co.uk>	anubis-cpld.h
<ben@simtec.co.uk>	anubis-irq.h
<ben@simtec.co.uk>	anubis-map.h
<ben@simtec.co.uk>	bast-cpld.h
<ben@simtec.co.uk>	bast-ide.c
<ben@simtec.co.uk>	bast-irq.c
<ben@simtec.co.uk>	bast-irq.h
<ben@simtec.co.uk>	bast-map.h
<ben@simtec.co.uk>	clock-clksrc.c
<ben@simtec.co.uk>	clock-s3c2412.c
<ben@simtec.co.uk>	clock-s3c2440.c
<ben@simtec.co.uk>	clock-s3c2443.c
<ben@simtec.co.uk>	clock-s3c244x.c
<ben@simtec.co.uk>	common-s3c2443.c
<ben@simtec.co.uk>	common-smdk.c
<ben@simtec.co.uk>	dma-s3c2410.c
<ben@simtec.co.uk>	dma-s3c2412.c
<ben@simtec.co.uk>	dma-s3c2440.c
<ben@simtec.co.uk>	dma-s3c2443.c
<ben@simtec.co.uk>	dma-s3c24xx.h
<ben@simtec.co.uk>	dma.h
<ben@simtec.co.uk>	dma.h
<ben@simtec.co.uk>	dma.h
<ben@simtec.co.uk>	gpio-nrs.h
<ben@simtec.co.uk>	gpio-track.h
<ben@simtec.co.uk>	gpio.h
<ben@simtec.co.uk>	gpio.h
<ben@simtec.co.uk>	h1940-latch.h
<ben@simtec.co.uk>	init.c
<ben@simtec.co.uk>	irq-pm.c
<ben@simtec.co.uk>	irq-s3c2412.c
<ben@simtec.co.uk>	irq-s3c2440.c
<ben@simtec.co.uk>	irq-s3c2443.c
<ben@simtec.co.uk>	irq-s3c244x.c
<ben@simtec.co.uk>	irq-vic-timer.c
<ben@simtec.co.uk>	irqs.h
<ben@simtec.co.uk>	irqs.h
<ben@simtec.co.uk>	irqs.h
<ben@simtec.co.uk>	irqs.h
<ben@simtec.co.uk>	irqs.h
<ben@simtec.co.uk>	mach-amlm5900.c
<ben@simtec.co.uk>	mach-anubis.c
<ben@simtec.co.uk>	mach-anubis.c
<ben@simtec.co.uk>	mach-at2440evb.c
<ben@simtec.co.uk>	mach-bast.c
<ben@simtec.co.uk>	mach-bast.c
<ben@simtec.co.uk>	mach-h1940.c
<ben@simtec.co.uk>	mach-jive.c
<ben@simtec.co.uk>	mach-mini2440.c
<ben@simtec.co.uk>	mach-n30.c
<ben@simtec.co.uk>	mach-osiris-dvs.c
<ben@simtec.co.uk>	mach-osiris.c
<ben@simtec.co.uk>	mach-osiris.c
<ben@simtec.co.uk>	mach-rx3715.c
<ben@simtec.co.uk>	mach-smdk2410.c
<ben@simtec.co.uk>	mach-smdk2413.c
<ben@simtec.co.uk>	mach-smdk2440.c
<ben@simtec.co.uk>	mach-smdk2443.c
<ben@simtec.co.uk>	mach-tct_hammer.c
<ben@simtec.co.uk>	mach-vr1000.c
<ben@simtec.co.uk>	mach-vr1000.c
<ben@simtec.co.uk>	map.h
<ben@simtec.co.uk>	osiris-cpld.h
<ben@simtec.co.uk>	osiris-map.h
<ben@simtec.co.uk>	pm-check.c
<ben@simtec.co.uk>	pm-core.h
<ben@simtec.co.uk>	pm-gpio.c
<ben@simtec.co.uk>	pm-s3c2410.c
<ben@simtec.co.uk>	pm-s3c2412.c
<ben@simtec.co.uk>	pm.c
<ben@simtec.co.uk>	pm.c
<ben@simtec.co.uk>	pm.c
<ben@simtec.co.uk>	pm.c
<ben@simtec.co.uk>	regs-s3c2412-mem.h
<ben@simtec.co.uk>	regs-s3c2412.h
<ben@simtec.co.uk>	regs-s3c2443-clock.h
<ben@simtec.co.uk>	s3c2410.c
<ben@simtec.co.uk>	s3c2412.c
<ben@simtec.co.uk>	s3c2440.c
<ben@simtec.co.uk>	s3c2442.c
<ben@simtec.co.uk>	s3c2443.c
<ben@simtec.co.uk>	s3c244x.c
<ben@simtec.co.uk>	s5p-irq-pm.c
<ben@simtec.co.uk>	s5p-pm.c
<ben@simtec.co.uk>	setup-i2c.c
<ben@simtec.co.uk>	simtec-audio.c
<ben@simtec.co.uk>	simtec-nor.c
<ben@simtec.co.uk>	simtec-pm.c
<ben@simtec.co.uk>	simtec-usb.c
<ben@simtec.co.uk>	simtec.h
<ben@simtec.co.uk>	tick.h
<ben@simtec.co.uk>	vr1000-cpld.h
<ben@simtec.co.uk>	vr1000-irq.h
<ben@simtec.co.uk>	vr1000-map.h
<ben@simtec.co.uk>");	mach-osiris-dvs.c
<ben@simtec.co.uk>,	adc.c
<bryan.wu@canonical.com>	leds.c
<buserror@gmail.com>	mach-mini2440.c
<buserror@gmail.com>	mach-mini2440.c
<ccross@android.com>	cpuidle-tegra20.c
<ccross@android.com>	cpuidle-tegra30.c
<ccross@android.com>	cpuidle.c
<ccross@android.com>	fuse.c
<ccross@android.com>	fuse.h
<ccross@android.com>	tegra2_emc.c
<ccross@android.com>	tegra2_emc.h
<ccross@android.com>");	cpu-tegra.c
<ccross@google.com>	board.h
<ccross@google.com>	board.h
<ccross@google.com>	clock.c
<ccross@google.com>	clock.c
<ccross@google.com>	clock.h
<ccross@google.com>	clock.h
<ccross@google.com>	cpu-tegra.c
<ccross@google.com>	io.c
<ccross@google.com>	io.c
<ccross@google.com>	iomap.h
<ccross@google.com>	pm.h
<ccross@google.com>	pm.h
<ccross@google.com>	powergate.c
<ccross@google.com>	powergate.h
<ccross@google.com>	tegra20_clocks.c
<ccross@google.com>	tegra20_clocks_data.c
<ccross@google.com>	timer.c
<ccross@google.com>	timer.c
<christer@weinigel.se>	mach-n30.c
<christer@weinigel.se>	mach-n30.c
<christer@weinigel.se>,	mach-n30.c
<danders@amltd.com>	mach-amlm5900.c
<danders@amltd.com>	mach-tct_hammer.c
<daniel@caiaq.de>	gpio.c
<deepak.sikri@st.com>	hotplug.c
<deepak.sikri@st.com>	hotplug.c
<deepak.sikri@st.com>	hotplug.c
<deepak.sikri@st.com>	hotplug.c
<dima@android.com>	board-mahimahi.c
<gking@nvidia.com>	cpuidle-tegra20.c
<gking@nvidia.com>	cpuidle-tegra30.c
<gking@nvidia.com>	cpuidle.c
<gleixner@autronix.de>	autcpu12.h
<guillaume.gourat@nexvision.fr>	mach-otom.c
<guillaume.gourat@nexvision.tv>	mach-nexcoder.c
<guillaume.gourat@nexvision.tv>	mach-nexcoder.c
<guillaume.gourat@nexvision.tv>	mach-otom.c
<heiko@sntech.de>	spi-core.h
<janos.dev@gmail.com>	board-nas4220b.c
<jekhor@gmail.com>	mach-smdk2416.c
<jekhor@gmail.com>,	irq-s3c2416.c
<jekhor@gmail.com>,	mach-smdk2416.c
<jekhor@gmail.com>,	regs-s3c2416-mem.h
<jekhor@gmail.com>,	regs-s3c2416.h
<jekhor@gmail.com>,	s3c2416.c
<jy0922.shim@samsung.com>	s5p-irq-gpioint.c
<kaloz@openwrt.org>	board-wbd111.c
<kaloz@openwrt.org>	board-wbd222.c
<konkers@google.com>	board.h
<konkers@google.com>	board.h
<konkers@google.com>	clk.h
<konkers@google.com>	clk.h
<konkers@google.com>	gpio-names.h
<konkers@google.com>	io.c
<konkers@google.com>	io.c
<konkers@google.com>	iomap.h
<kyungmin.park@samsung.com>	s5p-irq-gpioint.c
<laforge@openmoko.org>	mach-gta02.c
<laforge@openmoko.org>	mach-qt2410.c
<linux@simtec.co.uk>	idle.h
<linux@simtec.co.uk>	regs-clock.h
<linux@simtec.co.uk>	regs-dsc.h
<linux@simtec.co.uk>	regs-gpio.h
<linux@simtec.co.uk>	regs-irq.h
<linux@simtec.co.uk>	regs-lcd.h
<linux@simtec.co.uk>	regs-mem.h
<linux@simtec.co.uk>	regs-power.h
<linux@simtec.co.uk>	regs-sdi.h
<m.szyprowski@samsung.com>	s5p-irq-gpioint.c
<marvin24@gmx.de>	board-paz00.c
<marvin24@gmx.de>	board-paz00.h
<mgherzan@gmail.com>	bpf_jit_32.c
<mgherzan@gmail.com>	bpf_jit_32.h
<mike@compulab.co.il>	board-harmony-pcie.c
<mike@compulab.co.il>	pcie.c
<paulius.zaleckas@teltonika.lt>	board-nas4220b.c
<paulius.zaleckas@teltonika.lt>	board-rut1xx.c
<paulius.zaleckas@teltonika.lt>	devices.c
<paulius.zaleckas@teltonika.lt>	global_reg.h
<paulius.zaleckas@teltonika.lt>	gpio.c
<paulius.zaleckas@teltonika.lt>	mm.c
<paulius.zaleckas@teltonika.lt>	system.h
<paulius.zaleckas@teltonika.lt>	time.c
<paulius.zaleckas@teltonika.lt>	time.c
<pavel@ucw.cz>	board-trout-gpio.c
<pdeschrijver@nvidia.com>	cpuidle-tegra20.c
<pdeschrijver@nvidia.com>	cpuidle-tegra30.c
<pdeschrijver@nvidia.com>	cpuidle.c
<ramaxlo@gmail.com>	mach-at2440evb.c
<ramaxlo@gmail.com>	mach-mini2440.c
<sbz@spgui.org>	mach-at2440evb.c
<sbz@spgui.org>	mach-mini2440.c
<shiraz.hashim@st.com>	platsmp.c
<shiraz.hashim@st.com>	platsmp.c
<shiraz.hashim@st.com>	platsmp.c
<shiraz.hashim@st.com>	platsmp.c
<stepanm@codeaurora.org>");	devices-iommu.c
<swetland@google.com>	board-halibut.c
<swetland@google.com>	board-sapphire.c
<swetland@google.com>	board-trout-mmc.c
<swetland@google.com>	board-trout-panel.c
<swetland@google.com>	board-trout.c
<swetland@google.com>	board-trout.h
<swetland@google.com>	irqs-7x00.h
<swetland@google.com>	msm_iomap-7x00.h
<swetland@google.com>	msm_iomap-7x30.h
<swetland@google.com>	msm_iomap-8960.h
<swetland@google.com>	msm_iomap-8x50.h
<swetland@google.com>	msm_iomap-8x60.h
<swetland@google.com>	msm_iomap.h
<swetland@google.com>	msm_smd.h
<swetland@google.com>	proc_comm.c
<swetland@google.com>	smd.c
<swetland@google.com>	smd_debug.c
<swetland@google.com>	vreg.c
<swetland@google.com>	vreg.h
<swetland@google.com>");	smd.c
<sylvester.nawrocki@gmail.com>	setup-camif.c
<tglx@linutronix.de>	mach-vstms.c
<thomas_tsai@htc.com>	board-sapphire.c
<viresh.linux@gmail.com>	generic.h
<viresh.linux@gmail.com>	spear.h
<viresh.linux@gmail.com>	spear1310.c
<viresh.linux@gmail.com>	spear1340.c
<viresh.linux@gmail.com>	spear13xx.c
<werner@openmoko.org>	mach-gta02.c
<yauhen.kharuzhy@promwad.com>	irq-s3c2416.c
<yauhen.kharuzhy@promwad.com>	mach-smdk2416.c
<yauhen.kharuzhy@promwad.com>	regs-s3c2416-mem.h
<yauhen.kharuzhy@promwad.com>	regs-s3c2416.h
<yauhen.kharuzhy@promwad.com>	s3c2416.c
<yauhen.kharuzhy@promwad.com>	setup-sdhci-gpio.c
guillaume.gourat@nexvision.fr	otom-map.h
kernel@pengutronix.de	gpio.c
