(abhijitpagare@ti.com)	powerdomains44xx_data.c
(b-cousson@ti.com)	ctrl_module_core_44xx.h
(b-cousson@ti.com)	ctrl_module_pad_core_44xx.h
(b-cousson@ti.com)	ctrl_module_pad_wkup_44xx.h
(b-cousson@ti.com)	mux44xx.c
(b-cousson@ti.com)	powerdomains44xx_data.c
(b-cousson@ti.com)	prm44xx.h
(b-cousson@ti.com)	scrm44xx.h
(hari@in.ibm.com)	crash_dump.c
(paul@pwsan.com)	powerdomains44xx_data.c
(paul@pwsan.com)	prm44xx.h
(rnayak@ti.com)	prm44xx.h
(santosh.shilimkar@ti.com)	ctrl_module_core_44xx.h
(santosh.shilimkar@ti.com)	ctrl_module_pad_core_44xx.h
(santosh.shilimkar@ti.com)	ctrl_module_pad_wkup_44xx.h
<Hiroshi.DOYU@nokia.com>	omap-iommu.c
<abhijitpagare@ti.com>	clockdomain.c
<alim.akhtar@samsung.com>	mach-armlex4210.c
<andrew@mcdonald.org.uk>	sha1_glue.c
<balbi@ti.com>	usb-host.c
<ben@simtec.co.uk>	pm-core.h
<ben@simtec.co.uk>	pm.c
<ben@simtec.co.uk>	timex.h
<ben@simtec.co.uk>	timex.h
<ben@simtec.co.uk>	timex.h
<ben@simtec.co.uk>	timex.h
<ben@simtec.co.uk>	timex.h
<bryan.wu@canonical.com>	leds.c
<chaos.youn@samsung.com>	mach-smdk4x12.c
<chaos.youn@samsung.com>	mach-smdkv310.c
<dan.j.williams@intel.com>	iq81340mc.c
<dan.j.williams@intel.com>	iq81340sc.c
<davis_g@mvista.com>	kgdb.c
<dsaxena@plexity.net>	kgdb.c
<eduardo.valentin@indt.org.br>	mcbsp.c
<hemahk@ti.com>	omap_phy_internal.c
<jassi.brar@samsung.com>	dev-audio.c
<jassi.brar@samsung.com>	dma.h
<jassi.brar@samsung.com>	dma.h
<jbeisert@netscape.net>	mach-scb9328.c
<jef@linuxbe.org>	sha1_glue.c
<jeremy.kerr@canonical.com>	devtree.c
<jhkim@insignal.co.kr>	mach-origen.c
<jpihet@mvista.com>	perf_event_v7.c
<juha.yrjola@nokia.com>	board-n8x0.c
<juha.yrjola@solidboot.com>	sdram-nokia.c
<jy0922.shim@samsung.com>	regs-usb-phy.h
<jy0922.shim@samsung.com>	setup-usb-phy.c
<karthik-dp@ti.com>	cpuidle34xx.c
<kernel@pengutronix.de>	platform-flexcan.c
<keshava_mgowda@ti.com>	usb-host.c
<kgene.kim@samsung.com>	mach-exynos5-dt.c
<kgene.kim@samsung.com>	mach-smdk4x12.c
<kgene.kim@samsung.com>	mach-smdk4x12.c
<kgene.kim@samsung.com>	mach-smdkv310.c
<kgene.kim@samsung.com>	mach-smdkv310.c
<kyungmin.park@samsung.com>	board-apollon.c
<kyungmin.park@samsung.com>	board-apollon.c
<kyungmin.park@samsung.com>	mach-nuri.c
<kyungmin.park@samsung.com>	mach-universal_c210.c
<lauri.leukkunen@nokia.com>	sdram-nokia.c
<lg@denx.de>	mach-pcm037_eet.c
<linus.walleij@stericsson.com>	tcm.c
<linus.walleij@stericsson.com>	tcm.h
<mike@compulab.co.il>	common-board-devices.c
<minipli@googlemail.com>	sha1_glue.c
<nico@marvell.com>	kprobes.c
<paul.mundt@nokia.com>	serial.c
<philb@gnu.org>,	fiq.c
<pmaydell@chiark.greenend.org.uk>	signal.c
<r-woodruff2@ti.com>	cclock2420_data.c
<r-woodruff2@ti.com>	clkt2xxx_osc.c
<r-woodruff2@ti.com>	clkt2xxx_virt_prcm_set.c
<r-woodruff2@ti.com>	clock.h
<r-woodruff2@ti.com>	clock2430.c
<r-woodruff2@ti.com>	clock_common_data.c
<r-woodruff2@ti.com>	cpuidle34xx.c
<r-woodruff2@ti.com>	pm34xx.c
<r.sricharan@ti.com>	omap54xx.h
<rabin@rab.in>	ftrace.c
<rickard.andersson@stericsson.com>	tcm.c
<rickard.andersson@stericsson.com>	tcm.h
<rnayak@ti.com>	cclock2420_data.c
<rnayak@ti.com>	cpuidle34xx.c
<rnayak@ti.com>	cpuidle44xx.c
<rnayak@ti.com>	pm34xx.c
<rnayak@ti.com>	prm3xxx.c
<rnayak@ti.com>	vc.h
<rnayak@ti.com>	vp3xxx_data.c
<s.hauer@pengutronix.de>	early_printk.c
<sagar.abhishek@gmail.com>	ftrace.c
<sagar.abhishek@gmail.com>	kprobes.c
<santosh.shilimkar@ti.com	serial.c
<santosh.shilimkar@ti.com>	board-4430sdp.c
<santosh.shilimkar@ti.com>	cpuidle44xx.c
<santosh.shilimkar@ti.com>	gpmc.c
<santosh.shilimkar@ti.com>	omap-smp.c
<santosh.shilimkar@ti.com>	omap3-restart.c
<santosh.shilimkar@ti.com>	omap4-common.c
<santosh.shilimkar@ti.com>	omap54xx.h
<saschahauer@web.de>	mach-scb9328.c
<srinath@mistralsolutions.com>	board-am3517crane.c
<thara@ti.com>	omap_hwmod_common_data.c
<thara@ti.com>	smartreflex-class3.c
<thara@ti.com>	smartreflex-class3.c
<thara@ti.com>	vc.h
<thara@ti.com>	vp3xxx_data.c
<thomas.abraham@linaro.org>	mach-exynos4-dt.c
<tixy@yxit.co.uk>.	kprobes-common.c
<tixy@yxit.co.uk>.	kprobes-test-arm.c
<tixy@yxit.co.uk>.	kprobes-test-thumb.c
<tixy@yxit.co.uk>.	kprobes-test.c
<tixy@yxit.co.uk>.	kprobes-test.h
<tixy@yxit.co.uk>.	kprobes-thumb.c
<tixy@yxit.co.uk>.	kprobes.h
<tony.lindgren@nokia.com>	soc.h
<tony@atomide.com>	cpuidle34xx.c
<tony@atomide.com>	irq.c
<tony@atomide.com>	irq.c
<tony@atomide.com>	mux44xx.c
<tony@atomide.com>	omap3-restart.c
<tony@atomide.com>	pm34xx.c
<tuukka.tikkanen@elektrobit.com>.	irq.c
<tuukka.tikkanen@elektrobit.com>.	irq.c
<u.kleine-koenig@pengutronix.de>	devices-common.h
<u.kleine-koenig@pengutronix.de>	platform-fec.c
<u.kleine-koenig@pengutronix.de>	platform-fsl-usb2-udc.c
<u.kleine-koenig@pengutronix.de>	platform-imx-dma.c
<u.kleine-koenig@pengutronix.de>	platform-imx-fb.c
<u.kleine-koenig@pengutronix.de>	platform-imx-keypad.c
<u.kleine-koenig@pengutronix.de>	platform-imx-uart.c
<u.kleine-koenig@pengutronix.de>	platform-imx2-wdt.c
<u.kleine-koenig@pengutronix.de>	platform-imx21-hcd.c
<u.kleine-koenig@pengutronix.de>	platform-imxdi_rtc.c
<u.kleine-koenig@pengutronix.de>	platform-ipu-core.c
<u.kleine-koenig@pengutronix.de>	platform-mx1-camera.c
<u.kleine-koenig@pengutronix.de>	platform-mx2-camera.c
<u.kleine-koenig@pengutronix.de>	platform-mx2-emma.c
<u.kleine-koenig@pengutronix.de>	platform-mxc-ehci.c
<u.kleine-koenig@pengutronix.de>	platform-mxc-mmc.c
<u.kleine-koenig@pengutronix.de>	platform-mxc_nand.c
<u.kleine-koenig@pengutronix.de>	platform-mxc_pwm.c
<u.kleine-koenig@pengutronix.de>	platform-mxc_rtc.c
<u.kleine-koenig@pengutronix.de>	platform-spi_imx.c
<u.kleine-koenig@pengutronix.de>	return_address.c
<ucdevel@gmail.com>");	aes_glue.c
<ucdevel@gmail.com>");	sha1_glue.c
<vikram.pandita@ti.com>	usb-host.c
<w.sang@pengutronix.de>	platform-sdhci-esdhc-imx.c
<will.deacon@arm.com>	hw_breakpoint.c
<will.deacon@arm.com>	perf_event.c
<will.deacon@arm.com>	perf_event_cpu.c
<will.deacon@arm.com>	perf_event_xscale.c
<x0080970@ti.com>	vc.h
<x0080970@ti.com>	vp3xxx_data.c
Shilimkar<santosh.shilimkar@ti.com>	soc.h
kernel@pengutronix.de	devices.c
linux-omap@vger.kernel.org	ctrl_module_core_44xx.h
linux-omap@vger.kernel.org	ctrl_module_pad_core_44xx.h
linux-omap@vger.kernel.org	ctrl_module_pad_wkup_44xx.h
linux-omap@vger.kernel.org	mux44xx.c
linux-omap@vger.kernel.org	powerdomains44xx_data.c
linux-omap@vger.kernel.org	prm44xx.h
linux-omap@vger.kernel.org	scrm44xx.h
