(aurelien.jacquiot@jaluna.com)	c6x_ksyms.c
(aurelien.jacquiot@jaluna.com)	hardirq.h
(aurelien.jacquiot@jaluna.com)	module.h
(aurelien.jacquiot@jaluna.com)	special_insns.h
(aurelien.jacquiot@jaluna.com)	sys_c6x.c
(aurelien.jacquiot@jaluna.com)	unaligned.h
(msalter@redhat.com)	module.h
(msalter@redhat.com)	procinfo.h
(msalter@redhat.com)	timer64.c
(sfr@canb.auug.org.au)	apm.c
<AMartin@nvidia.com>:	fixup.c
<Kaloz@openwrt.org>	gateway7001-setup.c
<Kaloz@openwrt.org>	wg302v2-setup.c
<a.zummo@towertech.it>	dsmg600-pci.c
<a.zummo@towertech.it>	dsmg600-setup.c
<a.zummo@towertech.it>	nas100d-setup.c
<a.zummo@towertech.it>	nslu2-setup.c
<andrew@lunn.ch>	board-ts219.c
<aurelien.jacquiot@ti.com>	dma-coherent.c
<benoit.canet@gmail.com>	netspace_v2-setup.c
<buytenh@marvell.com>	mv88f6281gtw_ge-setup.c
<byron.bbradley@gmail.com>	board-ts219.c
<byron.bbradley@gmail.com>	ts219-setup.c
<byron.bbradley@gmail.com>	ts41x-setup.c
<chohnstaedt@innominate.com>	ixp4xx_npe.c
<davem@davemloft.net>	fixup.c
<dhaval.vasa@einfochips.com>	openrd-setup.c
<dhaval.vasa@einfochips.com>	openrd-setup.c
<dhaval.vasa@einfochips.com>	openrd-setup.c
<dsaxena@mvista.com>	coyote-pci.c
<dsaxena@plexity.net>	avila-pci.c
<dsaxena@plexity.net>	avila-setup.c
<dsaxena@plexity.net>	avila-setup.c
<dsaxena@plexity.net>	common-pci.c
<dsaxena@plexity.net>	coyote-setup.c
<dsaxena@plexity.net>	ixdp425-pci.c
<dsaxena@plexity.net>	ixdp425-setup.c
<dsaxena@plexity.net>	ixdpg425-pci.c
<gerg@snapgear.com>	common-pci.c
<gores@marvell.com>	guruplug-setup.c
<gxt@mprc.pku.edu.cn>	clock.c
<gxt@mprc.pku.edu.cn>	cpu-ucv2.c
<gxt@mprc.pku.edu.cn>	dma.c
<gxt@mprc.pku.edu.cn>	dma.c
<gxt@mprc.pku.edu.cn>	fpu-ucf64.h
<gxt@mprc.pku.edu.cn>	gpio.c
<gxt@mprc.pku.edu.cn>	hibernate.c
<gxt@mprc.pku.edu.cn>	puv3-core.c
<gxt@mprc.pku.edu.cn>	puv3-nb0916.c
<gxt@mprc.pku.edu.cn>	time.c
<gxt@mprc.pku.edu.cn>	time.c
<hap9@epoch.ncsc.mil>	xen.c
<hpa@linux.intel.com>	mkpiggy.c
<iwamatsu@nigauri.org>	board-openblocks_a6.c
<iws@ovro.caltech.edu>	broadcom_bus.c
<jason@lakedaemon.net>	board-dreamplug.c
<jason@lakedaemon.net>	board-dt.c
<jason@lakedaemon.net>	board-dt.c
<jason@lakedaemon.net>	board-goflexnet.c
<jason@lakedaemon.net>	board-usi_topkick.c
<jesse.barnes@intel.com>	mrst.c
<jhcaiced@osso.org.co>	irq.c
<jhcaiced@osso.org.co>	irq.c
<jhcaiced@osso.org.co>	irq.c
<jhcaiced@osso.org.co>	irq.c
<jm@lentin.co.uk>	board-dnskw.c
<jonsmirl@gmail.com>	fixup.c
<josh.coombs@gmail.com>	board-dockstar.c
<josh.coombs@gmail.com>	board-goflexnet.c
<kaloz@openwrt.org>	gateway7001-pci.c
<kaloz@openwrt.org>	gateway7001-pci.c
<kaloz@openwrt.org>	gateway7001-setup.c
<kaloz@openwrt.org>	gateway7001-setup.c
<kaloz@openwrt.org>	wg302v2-pci.c
<kaloz@openwrt.org>	wg302v2-pci.c
<kaloz@openwrt.org>	wg302v2-setup.c
<kaloz@openwrt.org>	wg302v2-setup.c
<kernel@giantshoulderinc.com>	avila-setup.c
<khc@pm.waw.pl>	goramo_mlr.c
<khc@pm.waw.pl>	ixp4xx_npe.c
<khc@pm.waw.pl>	ixp4xx_qmgr.c
<khc@pm.waw.pl>	qmgr.h
<konrad.wilk@oracle.com>	xen.c
<matthew@wil.cx>	mmconfig_32.c
<maz@misterjones.org>	vulcan-pci.c
<maz@misterjones.org>	vulcan-setup.c
<maz@misterjones.org>	vulcan-setup.c
<michael.jochum@omicron.at>	miccpt-pci.c
<michael@walle.cc>	board-lsxl.c
<mj@ucw.cz>	common.c
<mj@ucw.cz>	common.c
<mj@ucw.cz>	common.c
<mj@ucw.cz>	i386.c
<mj@ucw.cz>	irq.c
<mj@ucw.cz>	irq.c
<mj@ucw.cz>	irq.c
<mj@ucw.cz>	irq.c
<mj@ucw.cz>	visws.c
<mlj28@cam.ac.uk>	avila-pci.c
<mlj28@cam.ac.uk>	avila-setup.c
<msalter@redhat.com>	cache.c
<msalter@redhat.com>	clock.h
<msalter@redhat.com>	devicetree.c
<msalter@redhat.com>	dscr.c
<msalter@redhat.com>	dscr.h
<msalter@redhat.com>	emif.c
<msalter@redhat.com>	megamod-pic.c
<msalter@redhat.com>	pll.c
<msalter@redhat.com>	plldata.c
<msalter@redhat.com>	soc.c
<msalter@redhat.com>	soc.h
<msalter@redhat.com>	swab.h
<msalter@redhat.com>	syscall.h
<msalter@redhat.com>	syscalls.h
<msalter@redhat.com>	unaligned.h
<mwester@dls.net>	dsmg600-setup.c
<rod@whitby.id.au>	dsmg600-setup.c
<rod@whitby.id.au>	dsmg600-setup.c
<rod@whitby.id.au>	fsg-pci.c
<rod@whitby.id.au>	fsg-setup.c
<rod@whitby.id.au>	fsg-setup.c
<rod@whitby.id.au>	nas100d-setup.c
<rod@whitby.id.au>	nas100d-setup.c
<rod@whitby.id.au>	nslu2-setup.c
<rod@whitby.id.au>	nslu2-setup.c
<rod@whitby.id.au>	vulcan-setup.c
<rusty@rustcorp.com.au>	boot.c
<s.peter@mpl.ch>	board-mplcec4.c
<saeed@marvell.com>	db88f6281-bp-setup.c
<saeed@marvell.com>	rd88f6192-nas-setup.c
<saeed@marvell.com>	rd88f6281-setup.c
<sguinot@lacie.com>	d2net_v2-setup.c
<sguinot@lacie.com>	netspace_v2-setup.c
<sguinot@lacie.com>	netxbig_v2-setup.c
<shadi@marvell.com>	sheevaplug-setup.c
<simon.guinot@sequanux.org>	board-ns2.c
<stefano.stabellini@eu.citrix.com>	xen.c
<support@numascale.com>	numachip.c
<tbm@cyrius.com>	board-ts219.c
<tbm@cyrius.com>	ts219-setup.c
<tbm@cyrius.com>	ts219-setup.c
<tbm@cyrius.com>	ts41x-setup.c
<tbm@cyrius.com>	ts41x-setup.c
<valentin.longchamp@keymile.com>	board-km_kirkwood.c
Drew@Colorado.EDU	i386.c
hm@ix.de	i386.c
