(davem@redhat.com)	setup-bus.c
(davem@redhat.com)	setup-irq.c
(davem@redhat.com)	setup-res.c
(david.rusling@reo.mts.dec.com)	setup-bus.c
(david.rusling@reo.mts.dec.com)	setup-irq.c
(david.rusling@reo.mts.dec.com)	setup-res.c
(davidm@cs.arizona.edu)	setup-bus.c
(davidm@cs.arizona.edu)	setup-irq.c
(davidm@cs.arizona.edu)	setup-res.c
(dhowells@redhat.com)	atomic.h
(dhowells@redhat.com)	ax88796.h
(dhowells@redhat.com)	barrier.h
(dhowells@redhat.com)	bitops.h
(dhowells@redhat.com)	bug.h
(dhowells@redhat.com)	bugs.h
(dhowells@redhat.com)	busctl-regs.h
(dhowells@redhat.com)	cache-page.c
(dhowells@redhat.com)	cache.h
(dhowells@redhat.com)	cacheflush.h
(dhowells@redhat.com)	checksum.h
(dhowells@redhat.com)	cmpxchg.h
(dhowells@redhat.com)	cpu-irqs.h
(dhowells@redhat.com)	current.h
(dhowells@redhat.com)	debug-stub.c
(dhowells@redhat.com)	delay.h
(dhowells@redhat.com)	dm9000.h
(dhowells@redhat.com)	elf-fdpic.c
(dhowells@redhat.com)	elf.h
(dhowells@redhat.com)	fault.c
(dhowells@redhat.com)	flash.c
(dhowells@redhat.com)	futex.c
(dhowells@redhat.com)	gdb-io.c
(dhowells@redhat.com)	gdb-io.h
(dhowells@redhat.com)	gdb-stub.c
(dhowells@redhat.com)	gdb-stub.h
(dhowells@redhat.com)	gpio-regs.h
(dhowells@redhat.com)	hardirq.h
(dhowells@redhat.com)	highmem.c
(dhowells@redhat.com)	highmem.h
(dhowells@redhat.com)	hw_irq.h
(dhowells@redhat.com)	init.c
(dhowells@redhat.com)	io.h
(dhowells@redhat.com)	irc-regs.h
(dhowells@redhat.com)	irq-mb93091.c
(dhowells@redhat.com)	irq-mb93093.c
(dhowells@redhat.com)	irq-mb93493.c
(dhowells@redhat.com)	irq.h
(dhowells@redhat.com)	irq_regs.h
(dhowells@redhat.com)	irqflags.h
(dhowells@redhat.com)	kmap.c
(dhowells@redhat.com)	local.h
(dhowells@redhat.com)	local.h
(dhowells@redhat.com)	mb-regs.h
(dhowells@redhat.com)	mb86943a.h
(dhowells@redhat.com)	mb93091-fpga-irqs.h
(dhowells@redhat.com)	mb93093-fpga-irqs.h
(dhowells@redhat.com)	mb93493-irqs.h
(dhowells@redhat.com)	mb93493-regs.h
(dhowells@redhat.com)	mc146818rtc.h
(dhowells@redhat.com)	mem-layout.h
(dhowells@redhat.com)	mmu-context.c
(dhowells@redhat.com)	mmu.h
(dhowells@redhat.com)	mmu_context.h
(dhowells@redhat.com)	module.c
(dhowells@redhat.com)	module.c
(dhowells@redhat.com)	module.h
(dhowells@redhat.com)	pci-dma.c
(dhowells@redhat.com)	pci-frv.c
(dhowells@redhat.com)	pci-irq.c
(dhowells@redhat.com)	pci-vdk.c
(dhowells@redhat.com)	perf_event.h
(dhowells@redhat.com)	pgalloc.c
(dhowells@redhat.com)	pgalloc.h
(dhowells@redhat.com)	pgtable.h
(dhowells@redhat.com)	process.c
(dhowells@redhat.com)	process.c
(dhowells@redhat.com)	processor.h
(dhowells@redhat.com)	ptrace.c
(dhowells@redhat.com)	ptrace.c
(dhowells@redhat.com)	ptrace.h
(dhowells@redhat.com)	ptrace.h
(dhowells@redhat.com)	sections.h
(dhowells@redhat.com)	segment.h
(dhowells@redhat.com)	serial-regs.h
(dhowells@redhat.com)	setup.c
(dhowells@redhat.com)	setup.h
(dhowells@redhat.com)	setup.h
(dhowells@redhat.com)	sigcontext.h
(dhowells@redhat.com)	signal.c
(dhowells@redhat.com)	spinlock.h
(dhowells@redhat.com)	spr-regs.h
(dhowells@redhat.com)	string.h
(dhowells@redhat.com)	switch_to.h
(dhowells@redhat.com)	sys_frv.c
(dhowells@redhat.com)	syscall.h
(dhowells@redhat.com)	sysctl.c
(dhowells@redhat.com)	thread_info.h
(dhowells@redhat.com)	time.c
(dhowells@redhat.com)	timer-regs.h
(dhowells@redhat.com)	tlbflush.h
(dhowells@redhat.com)	traps.c
(dhowells@redhat.com)	traps.c
(dhowells@redhat.com)	types.h
(dhowells@redhat.com)	types.h
(dhowells@redhat.com)	uaccess.c
(dhowells@redhat.com)	uaccess.h
(dhowells@redhat.com)	unaligned.h
(dhowells@redhat.com)	user.h
(dhowells@redhat.com)	vga.h
(dhowells@redhat.com)	virtconvert.h
(dmalek@jlc.net)	dma-alloc.c
(dwmw2@infradead.org)	pci-dma-nommu.c
(greg@kroah.com)	acpiphp.h
(greg@kroah.com)	acpiphp_core.c
(greg@kroah.com)	cpci_hotplug.h
(greg@kroah.com)	cpci_hotplug_core.c
(greg@kroah.com)	cpqphp.h
(greg@kroah.com)	cpqphp_ctrl.c
(greg@kroah.com)	cpqphp_nvram.c
(greg@kroah.com)	cpqphp_nvram.h
(greg@kroah.com)	cpqphp_pci.c
(greg@kroah.com)	cpqphp_sysfs.c
(greg@kroah.com)	ibmphp.h
(greg@kroah.com)	ibmphp_core.c
(greg@kroah.com)	ibmphp_ebda.c
(greg@kroah.com)	ibmphp_pci.c
(greg@kroah.com)	ibmphp_res.c
(greg@kroah.com)	pci_hotplug_core.c
(greg@kroah.com)	pciehp.h
(greg@kroah.com)	pciehp_core.c
(greg@kroah.com)	pciehp_ctrl.c
(greg@kroah.com)	pciehp_hpc.c
(greg@kroah.com)	pciehp_pci.c
(greg@kroah.com)	pcihp_skeleton.c
(greg@kroah.com)	pcihp_slot.c
(greg@kroah.com)	shpchp.h
(greg@kroah.com)	shpchp_core.c
(greg@kroah.com)	shpchp_ctrl.c
(greg@kroah.com)	shpchp_hpc.c
(greg@kroah.com)	shpchp_pci.c
(greg@kroah.com)	shpchp_sysfs.c
(h-aono@ap.jp.nec.com)	acpiphp.h
(h-aono@ap.jp.nec.com)	acpiphp_core.c
(h-aono@ap.jp.nec.com)	acpiphp_glue.c
(matthew.wilcox@hp.com)	acpiphp.h
(matthew.wilcox@hp.com)	acpiphp_core.c
(matthew.wilcox@hp.com)	acpiphp_glue.c
(prarit@sgi.com,	sgi_hotplug.c
(rajesh.shah@intel.com)	acpiphp_glue.c
(shaohua.li@intel.com)	aspm.c
(t-kochi@bq.jp.nec.com)	acpiphp.h
(t-kochi@bq.jp.nec.com)	acpiphp_core.c
(t-kochi@bq.jp.nec.com)	acpiphp_glue.c
(tom.l.nguyen@intel.com)	msi.c
(tom.l.nguyen@intel.com)	msi.h
(tom.l.nguyen@intel.com)	portdrv.h
(tom.l.nguyen@intel.com)	portdrv_bus.c
(yanmin.zhang@intel.com)	aspm.c
<James.Bottomley@HansenPartnership.com>	irq.c
<James.Bottomley@HansenPartnership.com>	irq.c
<Jordan_Hargrave@dell.com>	pci-label.c
<Narendra_K@dell.com>,	pci-label.c
<achiang@hp.com>	slot.c
<agulbra@nvg.unit.no>	checksum.c
<agust@denx.de>	adma.c
<andrea@suse.de>	setup-res.c
<anemo@mba.ocn.ne.jp>");	txx9dmac.c
<baohua.song@csr.com>");	sirf-dma.c
<bernie@codewiz.org>	serial.h
<buytenh@wantstofly.org>	ep93xx_dma.c
<cbrake@accelent.com>	pm.c
<christer@weinigel.se>	quirks.c
<dan.zink@compaq.com>,	cpqphp_core.c
<dan.zink@compaq.com>,	pciehp_core.c
<dan.zink@compaq.com>,	shpchp_core.c
<dely.l.sy@intel.com>"	pciehp_core.c
<dely.l.sy@intel.com>"	shpchp_core.c
<dhowells@redhat.com>\n");	setup.c
<dhowells@redhat.com>\n");	setup.c
<ebiederman@lnxi.com>	htirq.c
<ebony.zhu@freescale.com>,	fsldma.c
<ebony.zhu@freescale.com>,	fsldma.h
<ftom@netcom.com>	checksum.c
<g.liakhovetski@gmx.de>	shdma-base.c
<g.liakhovetski@gmx.de>	shdma.c
<g.liakhovetski@gmx.de>");	shdma-base.c
<greg@kroah.com>	cpqphp.h
<greg@kroah.com>	cpqphp_core.c
<greg@kroah.com>	cpqphp_core.c
<greg@kroah.com>	cpqphp_ctrl.c
<greg@kroah.com>	cpqphp_nvram.c
<greg@kroah.com>	cpqphp_nvram.h
<greg@kroah.com>	cpqphp_pci.c
<greg@kroah.com>	cpqphp_sysfs.c
<greg@kroah.com>	pci-driver.c
<greg@kroah.com>	pci-sysfs.c
<greg@kroah.com>	pcihp_skeleton.c
<greg@kroah.com>	shpchp_sysfs.c
<greg@kroah.com>"	cpqphp_core.c
<greg@kroah.com>"	pcihp_skeleton.c
<greg@kroah.com>,	pci_hotplug_core.c
<greg@kroah.com>,	pciehp.h
<greg@kroah.com>,	pciehp_core.c
<greg@kroah.com>,	pciehp_core.c
<greg@kroah.com>,	pciehp_ctrl.c
<greg@kroah.com>,	pciehp_pci.c
<greg@kroah.com>,	shpchp_core.c
<greg@kroah.com>,	shpchp_core.c
<greg@kroah.com>,	shpchp_ctrl.c
<greg@kroah.com>,	shpchp_pci.c
<greg@kroah.com>,<kristen.c.accardi@intel.com>	pciehp_hpc.c
<greg@kroah.com>,<kristen.c.accardi@intel.com>	shpchp.h
<greg@kroah.com>,<kristen.c.accardi@intel.com>	shpchp_hpc.c
<gregkh@us.ibm.com>	ibmphp.h
<gregkh@us.ibm.com>	ibmphp_core.c
<gregkh@us.ibm.com>	ibmphp_ebda.c
<gregkh@us.ibm.com>	ibmphp_hpc.c
<gregkh@us.ibm.com>	ibmphp_pci.c
<gregkh@us.ibm.com>	ibmphp_res.c
<gregkh@us.ibm.com>,	acpiphp.h
<gregkh@us.ibm.com>,	acpiphp_core.c
<hap9@epoch.ncsc.mil>	xen-pcifront.c
<hong-jun.chen@freescale.com>.	mpc512x_dma.c
<info@pelagicore.com>");	timb_dma.c
<ink@jurassic.park.msu.ru>	setup-bus.c
<ink@jurassic.park.msu.ru>	setup-bus.c
<ink@jurassic.park.msu.ru>	setup-res.c
<iwamatsu.nobuhiro@renesas.com>	shdma-base.c
<iwamatsu.nobuhiro@renesas.com>	shdma.c
<iwamatsu.nobuhiro@renesas.com>	shdma.h
<iwamatsu.nobuhiro@renesas.com>");	shdma.c
<jang@linux.vnet.ibm.com");	s390_pci_hpc.c
<jang@linux.vnet.ibm.com>	s390_pci_hpc.c
<jassi.brar@samsung.com>	pl330.c
<jassi.brar@samsung.com>");	pl330.c
<jbarnes@sgi.com>	pci-sysfs.c
<jeff@lineo.ca>,	fault.c
<jeff@lineo.ca>,	init.c
<joerg.roedel@amd.com>	ats.c
<joerg.roedel@amd.com>	ats.c
<john.williams@petalogix.com>	cache.c
<john.williams@petalogix.com>	cpuinfo-pvr-full.c
<john.williams@petalogix.com>	cpuinfo-static.c
<john.williams@petalogix.com>	cpuinfo.c
<john.williams@petalogix.com>	pvr.c
<john.williams@petalogix.com>	sys_microblaze.c
<johnrose@austin.ibm.com>	rpadlpar.h
<johnrose@austin.ibm.com>	rpadlpar_core.c
<johnrose@austin.ibm.com>	rpadlpar_sysfs.c
<jonas.aberg@stericsson.com>	ste_dma40.c
<jonas.aberg@stericsson.com>	ste_dma40_ll.c
<jonas.aberg@stericsson.com>	ste_dma40_ll.h
<jonsmirl@yahoo.com>	pci-sysfs.c
<jorge@laser.satlink.net>	checksum.c
<jshah@us.ibm.com>	ibmphp_hpc.c
<kjahds@kjahds.com>,	init.c
<kosmo@semihalf.com>");	mpc512x_dma.c
<kosmo@semihalf.com>.	mpc512x_dma.c
<kristen.c.accardi@intel.com>	acpi_pcihp.c
<kristen.c.accardi@intel.com>	acpiphp_core.c
<kristen.c.accardi@intel.com>	acpiphp_glue.c
<kristen.c.accardi@intel.com>	pci_hotplug_core.c
<kristen.c.accardi@intel.com>	pciehp.h
<kristen.c.accardi@intel.com>	pciehp_core.c
<kristen.c.accardi@intel.com>	pciehp_ctrl.c
<kristen.c.accardi@intel.com>	pciehp_pci.c
<kristen.c.accardi@intel.com>	shpchp_core.c
<kristen.c.accardi@intel.com>	shpchp_ctrl.c
<kristen.c.accardi@intel.com>	shpchp_pci.c
<ldewangan@nvidia.com>");	tegra20-apb-dma.c
<leoy@marvell.com>");	mmp_tdma.c
<lg@denx.de>	ipu_idmac.c
<lg@denx.de>	ipu_intern.h
<lg@denx.de>	ipu_irq.c
<lg@denx.de>");	ipu_idmac.c
<linus.walleij@stericsson.com>	amba-pl08x.c
<lxie@us.ibm.com>	rpadlpar_core.c
<lxie@us.ibm.com>	rpaphp.h
<lxie@us.ibm.com>	rpaphp_core.c
<lxie@us.ibm.com>	rpaphp_core.c
<lxie@us.ibm.com>	rpaphp_pci.c
<lxie@us.ibm.com>	rpaphp_pci.c
<lxie@us.ibm.com>	rpaphp_slot.c
<lxie@us.ibm.com>	rpaphp_slot.c
<lxie@us.ibm.com>"	rpaphp_core.c
<lxie@us.ibm.com>,	rpaphp.h
<matthew@wil.cx>	slot.c
<mika.westerberg@iki.fi>");	ep93xx_dma.c
<mj@suse.cz>	pci-irq.c
<mj@ucw.cz>	pci-frv.h
<mj@ucw.cz>	pci.c
<mj@ucw.cz>	pci.c
<mj@ucw.cz>	proc.c
<mj@ucw.cz>	quirks.c
<monstr@monstr.eu>	cache.c
<monstr@monstr.eu>	cpuinfo-pvr-full.c
<monstr@monstr.eu>	cpuinfo-static.c
<monstr@monstr.eu>	cpuinfo.c
<monstr@monstr.eu>	early_printk.c
<monstr@monstr.eu>	ftrace.c
<monstr@monstr.eu>	heartbeat.c
<monstr@monstr.eu>	intc.c
<monstr@monstr.eu>	mb.c
<monstr@monstr.eu>	microblaze_ksyms.c
<monstr@monstr.eu>	microblaze_oprofile.c
<monstr@monstr.eu>	pvr.c
<monstr@monstr.eu>	stacktrace.c
<monstr@monstr.eu>	sys_microblaze.c
<monstr@monstr.eu>	timer.c
<mporter@ti.com>");	edma.c
<nicolas.ferre@atmel.com>");	at_hdmac.c
<per.forlin@stericsson.com>	ste_dma40.c
<per.forlin@stericsson.com>	ste_dma40_ll.c
<per.friden@stericsson.com>	coh901318.c
<per.friden@stericsson.com>	coh901318_lli.c
<per.friden@stericsson.com>	coh901318_lli.h
<per.friden@stericsson.com>	ste_dma40_ll.h
<peter.pearse@arm.com>	amba-pl08x.c
<rjw@sisk.pl>,	portdrv_acpi.c
<rmallon@gmail.com>	ep93xx_dma.c
<rongjun.ying@csr.com>,	sirf-dma.c
<s.hauer@pengutronix.de>	imx-dma.c
<s.hauer@pengutronix.de>	imx-sdma.c
<s.hauer@pengutronix.de>");	imx-dma.c
<s.hauer@pengutronix.de>");	imx-sdma.c
<saeed@marvell.com>");	mv_xor.c
<schwab@issan.informatik.uni-dortmund.de>	checksum.c
<scottm@somanetworks.com>	cpci_hotplug.h
<scottm@somanetworks.com>	cpci_hotplug_core.c
<scottm@somanetworks.com>	cpci_hotplug_pci.c
<scottm@somanetworks.com>	cpcihp_generic.c
<scottm@somanetworks.com>	cpcihp_zt5550.c
<scottm@somanetworks.com>	cpcihp_zt5550.h
<scottm@somanetworks.com>"	cpci_hotplug_core.c
<scottm@somanetworks.com>"	cpcihp_generic.c
<scottm@somanetworks.com>"	cpcihp_zt5550.c
<scottm@somanetworks.com>"	pci_hotplug_core.c
<shaohua.li@intel.com>	pci-acpi.c
<t-kochi@bq.jp.nec.com>	acpiphp.h
<t-kochi@bq.jp.nec.com>,	acpiphp_core.c
<tom.l.nguyen@intel.com>	pci-acpi.c
<torben.mathiasen@hp.com>	cpqphp_core.c
<vernux@us.ibm.com>	acpiphp_ibm.c
<vernux@us.ibm.com>	acpiphp_ibm.c
<vernux@us.ibm.com>"	acpiphp_ibm.c
<vinod.koul@intel.com>	intel_mid_dma.c
<vinod.koul@intel.com>	intel_mid_dma_regs.h
<vinod.koul@intel.com>");	intel_mid_dma.c
<viresh.linux@gmail.com>");	dw_dmac.c
<wei.zhang@freescale.com>,	fsldma.c
<wei.zhang@freescale.com>,	fsldma.h
<willy@hp.com>"	acpiphp_core.c
<yong.y.wang@intel.com>");	pch_dma.c
<yu.zhao@intel.com>	ats.c
<yu.zhao@intel.com>	iov.c
<yur@emcraft.com>	adma.c
<yur@emcraft.com>	adma.h
<yur@emcraft.com>	dma.h
<yur@emcraft.com>	dma.h
<yur@emcraft.com>	dma.h
<yur@emcraft.com>	xor.h
<yur@emcraft.com>	xor.h
<yur@emcraft.com>");	adma.c
<zhangfei.gao@marvell.com>");	mmp_tdma.c
<zubarev@us.ibm.com>,	acpiphp_ibm.c
dickie@sgi.com,	sgi_hotplug.c
habeck@sgi.com)");	sgi_hotplug.c
linux-kernel@vger.kernel.org\n");	irq.c
linux-kernel@vger.kernel.org\n");	irq.c
msalter@redhat.com	pm-mb93093.c
