(daniel.schaeffer@timesys.com)	mach-imx27lite.c
(dave.jiang@intel.com)	iop33x.h
(dave.jiang@intel.com)	uart.c
(kernel@pengutronix.de)	board-pcm038.h
(kernel@pengutronix.de)	eukrea-baseboards.h
(kernel@pengutronix.de)	eukrea_mbimx27-baseboard.c
(kernel@pengutronix.de)	eukrea_mbimxsd25-baseboard.c
(kernel@pengutronix.de)	eukrea_mbimxsd35-baseboard.c
(kernel@pengutronix.de)	eukrea_mbimxsd51-baseboard.c
(kernel@pengutronix.de)	mach-cpuimx27.c
(kernel@pengutronix.de)	mach-imx27lite.c
(kernel@pengutronix.de)	mach-pca100.c
(kernel@pengutronix.de)	mach-pcm038.c
(kernel@pengutronix.de)	mm-imx21.c
(kernel@pengutronix.de)	mm-imx27.c
(kernel@pengutronix.de)	mxc.h
(kernel@pengutronix.de)	pcm970-baseboard.c
(shane@minirl.com)	mach-bug.c
(shane@minirl.com)	mach-kzm_arm11_01.c
(shane@minirl.com)	mach-mx21ads.c
(shane@minirl.com)	mach-mx27ads.c
(shane@minirl.com)	mach-mx31ads.c
(shane@minirl.com)	mach-mx31lite.c
(shane@minirl.com)	mach-mxt_td60.c
(shane@minirl.com)	mm-imx25.c
(shane@minirl.com)	mm-imx3.c
<Andrey.Porodko@gmail.com>	board-neuros-osd2.c
<alexg@meprolight.com>	mach-mx35_3ds.c
<amit.kucheria@canonical.com>	iomux-mx51.h
<amit.kucheria@canonical.com>	mach-cpuimx51sd.c
<amit.kucheria@canonical.com>	mach-mx51_babbage.c
<amit.kucheria@canonical.com>	mach-mx51_babbage.c
<armlinux@phytec.de>	iomux-mx25.h
<armlinux@phytec.de>	iomux-mx35.h
<armlinux@phytec.de>	iomux-v3.c
<armlinux@phytec.de>	iomux-v3.h
<augulis.darius@gmail.com>	mx1-camera-fiq-ksym.c
<avorontsov@mvista.com>	cns3420vb.c
<avorontsov@mvista.com>	devices.h
<avorontsov@mvista.com>	pcie.c
<bryan.wu@canonical.com>	leds.c
<daniel@caiaq.de>	board-mx31lilly.h
<daniel@caiaq.de>	board-mx31lite.h
<daniel@caiaq.de>	cpu-imx25.c
<daniel@caiaq.de>	cpu-imx31.c
<daniel@caiaq.de>	cpu-imx35.c
<daniel@caiaq.de>	ehci-imx25.c
<daniel@caiaq.de>	ehci-imx27.c
<daniel@caiaq.de>	ehci-imx31.c
<daniel@caiaq.de>	ehci-imx35.c
<daniel@caiaq.de>	ehci-imx5.c
<daniel@caiaq.de>	mach-mx31lilly.c
<daniel@caiaq.de>	mach-mx31lite.c
<daniel@caiaq.de>	mx31lilly-db.c
<daniel@caiaq.de>	mx31lite-db.c
<daniel@caiaq.de>	ulpi.c
<dave.jiang@intel.com>	iq80331.c
<dave.jiang@intel.com>	iq80332.c
<dave.jiang@intel.com>	irq.c
<dave.jiang@intel.com>	irq.c
<eric@eukrea.com>	mach-cpuimx51sd.c
<eric@eukrea.com>	mach-cpuimx51sd.c
<eric@eukrea.com>	mach-eukrea_cpuimx25.c
<fabio.estevam@freescale.com>	mach-imx27ipcam.c
<fabio.estevam@freescale.com>	mach-mx27_3ds.c
<fabio.estevam@freescale.com>	mach-mx35_3ds.c
<fabio.estevam@freescale.com>	mach-vpr200.c
<g.liakhovetski@gmx.de>	dma-register.h
<hs4233@mail.mn-solutions.de>	iomux-mx21.h
<hs4233@mail.mn-solutions.de>	iomux-mx27.h
<hs4233@mail.mn-solutions.de>	iomux-mx2x.h
<hs4233@mail.mn-solutions.de>	iomux-v1.h
<jason77.wang@gmail.com>	3ds_debugboard.c
<jason77.wang@gmail.com>	mach-mx51_3ds.c
<jbeisert@netscape.net>	mach-apf9328.c
<jeremy.kerr@canonical.com>	clk-gate2.c
<jorgeluis.zapata@gmail.com>	board-neuros-osd2.c
<kernel@pengutronix.de>	clk-imx31.c
<kernel@pengutronix.de>	crmregs-imx3.h
<kernel@pengutronix.de>	iomux-imx31.c
<kernel@pengutronix.de>	iomux-mx1.h
<kernel@pengutronix.de>	iomux-mx27.h
<kernel@pengutronix.de>	iomux-mx2x.h
<kernel@pengutronix.de>	iomux-mx3.h
<kernel@pengutronix.de>	iomux-v1.h
<kernel@pengutronix.de>	iomux-v3.c
<kernel@pengutronix.de>	mach-eukrea_cpuimx25.c
<kernel@pengutronix.de>	mach-mx25_3ds.c
<komal_shah802003@yahoo.com>	devices-da8xx.c
<kuninori.morimoto.gx@renesas.com>	board-bonito.c
<kuninori.morimoto.gx@renesas.com>	board-mackerel.c
<kuninori.morimoto.gx@renesas.com>	dma-register.h
<kuninori.morimoto.gx@renesas.com>	intc-r8a7740.c
<kuninori.morimoto.gx@renesas.com>	pfc-r8a7740.c
<kuninori.morimoto.gx@renesas.com>	pm-rmobile.c
<kuninori.morimoto.gx@renesas.com>	r8a7740.h
<linus.walleij@stericsson.com>	core.c
<linus.walleij@stericsson.com>	core.c
<linus.walleij@stericsson.com>	core.c
<linus.walleij@stericsson.com>	core.c
<linus.walleij@stericsson.com>	core.c
<linus.walleij@stericsson.com>	core.c
<linus.walleij@stericsson.com>	dummyspichip.c
<linus.walleij@stericsson.com>	i2c.c
<linus.walleij@stericsson.com>	i2c.h
<linus.walleij@stericsson.com>	regulator.c
<linus.walleij@stericsson.com>	spi.c
<linus.walleij@stericsson.com>	spi.h
<linus.walleij@stericsson.com>	timer.c
<linus.walleij@stericsson.com>	u300-regs.h
<linus.walleij@stericsson.com>");	dummyspichip.c
<maramaopercheseimorto@gmail.com>	mach-armadillo5x0.c
<maramaopercheseimorto@gmail.com>	mach-mx31lilly.c
<maramaopercheseimorto@gmail.com>	mx31lilly-db.c
<maramaopercheseimorto@gmail.com>	mx31lite-db.c
<mgreer@mvista.com>	board-da830-evm.c
<mgreer@mvista.com>	common.c
<mgreer@mvista.com>	common.c
<mgreer@mvista.com>	da830.c
<mgreer@mvista.com>	da8xx.h
<morimoto.kuninori@renesas.com>	pm-rmobile.h
<morimoto.kuninori@renesas.com>	sh7372.h
<mturquette@linaro.org>	clk-gate2.c
<neuros@groups.google.com>	board-neuros-osd2.c
<paulius.zaleckas@teltonika.lt>	mx1.h
<per.friden@stericsson.com>	coh901318.h
<per.friden@stericsson.com>	dma_channels.h
<philip@opensdr.com>	board-sffsdr.c
<r.schwebel@pengutronix.de>,	mach-cpuimx27.c
<r.schwebel@pengutronix.de>,	mach-imx27lite.c
<r.schwebel@pengutronix.de>,	mach-pca100.c
<r.schwebel@pengutronix.de>,	mach-pcm038.c
<richard.liu@caviumnetworks.com>	pcie.c
<rickard.andersson@stericsson.com>	syscon.h
<rnayak@ti.com>	cpufreq.c
<rnayak@ti.com>	cpufreq.c
<s.hauer@pengutronix.de>	clk-imx35.c
<s.hauer@pengutronix.de>	clk-imx51-imx53.c
<s.hauer@pengutronix.de>	epit.c
<s.hauer@pengutronix.de>	ssi-fiq-ksym.c
<s.hauer@pengutronix.de>	ulpi.c
<s.hauer@pengutronix.de>,	clk-imx1.c
<sascha@saschahauer.de>	mach-mx1ads.c
<saschahauer@web.de>	mach-apf9328.c
<schen@mvista.com>	cp_intc.c
<schen@mvista.com>	cp_intc.h
<shimoda.yoshihiro@renesas.com>	board-kota2.c
<source@mvista.com>	board-dm644x-evm.c
<source@mvista.com>	board-dm644x-evm.c
<source@mvista.com>	cp_intc.c
<source@mvista.com>	cp_intc.h
<source@mvista.com>	devices-da8xx.c
<source@mvista.com>	gpio-davinci.h
<source@mvista.com>	mux.c
<source@mvista.com>	mux.h
<source@mvista.com>	mux.h
<source@mvista.com>	serial.h
<source@mvista.com>	time.c
<source@mvista.com>	time.c
<support@armadeus.com>	mach-apf9328.c
<tony@atomide.com>	cpufreq.c
<tony@atomide.com>	cpufreq.c
<u.kleine-koenig@pengutronix.de>	devices-imx1.h
<u.kleine-koenig@pengutronix.de>	devices-imx21.h
<u.kleine-koenig@pengutronix.de>	devices-imx25.h
<u.kleine-koenig@pengutronix.de>	devices-imx27.h
<u.kleine-koenig@pengutronix.de>	devices-imx31.h
<u.kleine-koenig@pengutronix.de>	devices-imx35.h
<u.kleine-koenig@pengutronix.de>	devices-imx51.h
<u.kleine-koenig@pengutronix.de>	platform-imx-i2c.c
<u.kleine-koenig@pengutronix.de>	platform-imx-ssi.c
<u.kleine-koenig@pengutronix.de>	platform-imx_udc.c
<u.kleine-koenig@pengutronix.de>	platform-mxc_rnga.c
<u.kleine-koenig@pengutronix.de>	platform-mxc_w1.c
<valentin.longchamp@epfl.ch>	iomux-imx31.c
<yanok@emcraft.com>	mach-qong.c
<yoshii.takashi.zj@renesas.com>	board-kota2.c
eric@eukrea.com	eukrea-baseboards.h
eric@eukrea.com	eukrea_mbimx27-baseboard.c
eric@eukrea.com	eukrea_mbimxsd25-baseboard.c
eric@eukrea.com	eukrea_mbimxsd35-baseboard.c
eric@eukrea.com	eukrea_mbimxsd51-baseboard.c
eric@eukrea.com	mach-cpuimx27.c
eric@eukrea.com	mach-cpuimx35.c
hs4233@mail.mn-solutions.de	mx21.h
hugo.villeneuve@lyrtech.com	board-sffsdr.c
kernel@pengutronix.de	avic.c
kernel@pengutronix.de	clk-imx21.c
kernel@pengutronix.de	cpu-imx27.c
kernel@pengutronix.de	iim.h
kernel@pengutronix.de	mx21.h
kernel@pengutronix.de	mx27.h
kernel@pengutronix.de	mx2x.h
kernel@pengutronix.de	system.c
mfuzzey@gmail.com	clk-imx21.c
yanok@emcraft.com	system.c
