(corey@world.std.com)	ray_cs.c
(pe1rxq@amsat.org)	zd1201.c
<acme@conectiva.com.br>	ray_cs.c
<agx@sigxcpu.org>	at76c50x-usb.c
<agx@sigxcpu.org>	at76c50x-usb.h
<agx@sigxcpu.org>");	at76c50x-usb.c
<alex@foogod.com>");	at76c50x-usb.c
<andreas.jaggi@waterwave.ch>	leds.c
<andreas.jaggi@waterwave.ch>	lo.c
<andreas.jaggi@waterwave.ch>	phy_a.c
<andreas.jaggi@waterwave.ch>	phy_common.c
<andreas.jaggi@waterwave.ch>	phy_g.c
<andreas.jaggi@waterwave.ch>	tables.c
<andyw@pobox.com>	hostap_pci.c
<bellucda@tiscali.it>	ray_cs.c
<br1@einfach.org>	key.c
<br1@einfach.org>	mac80211-ops.c
<buytenh@marvell.com>");	mwl8k.c
<chunkeey@googlemail.com>	carl9170.h
<chunkeey@googlemail.com>	cmd.h
<chunkeey@googlemail.com>	debug.c
<chunkeey@googlemail.com>	debug.c
<chunkeey@googlemail.com>	debug.c
<chunkeey@googlemail.com>	fw.c
<chunkeey@googlemail.com>	fwcmd.h
<chunkeey@googlemail.com>	fwdesc.h
<chunkeey@googlemail.com>	hw.h
<chunkeey@googlemail.com>	hw.h
<chunkeey@googlemail.com>	led.c
<chunkeey@googlemail.com>	led.c
<chunkeey@googlemail.com>	led.c
<chunkeey@googlemail.com>	rx.c
<chunkeey@googlemail.com>	tx.c
<chunkeey@googlemail.com>	wlan.h
<chunkeey@web.de>	fwio.c
<chunkeey@web.de>	lmac.h
<chunkeey@web.de>	p54pci.c
<chunkeey@web.de>	p54spi.c
<chunkeey@web.de>	p54spi.h
<chunkeey@web.de>	p54spi_eeprom.h
<chunkeey@web.de>");	p54spi.c
<corey@world.std.com>");	ray_cs.c
<damien.bergamini@free.fr>	ar5523.c
<damien.bergamini@free.fr>	ar5523.h
<damien.bergamini@free.fr>	ar5523_hw.h
<dsd@gentoo.org>	zd_rf.h
<dsd@gentoo.org>	zd_rf_al2230.c
<dsd@gentoo.org>	zd_rf_al7230b.c
<flamingice@sourmilk.net>	fwio.c
<flamingice@sourmilk.net>	lmac.h
<flamingice@sourmilk.net>	p54.h
<flamingice@sourmilk.net>	p54pci.c
<flamingice@sourmilk.net>	p54pci.h
<flamingice@sourmilk.net>	p54usb.c
<flamingice@sourmilk.net>	p54usb.h
<flamingice@sourmilk.net>");	p54pci.c
<flamingice@sourmilk.net>");	p54usb.c
<hch@lst.de>	ar5523.c
<hch@lst.de>	ar5523.h
<hch@lst.de>	ar5523_hw.h
<j@w1.fi>	hostap_ap.c
<j@w1.fi>	hostap_ap.c
<j@w1.fi>	hostap_hw.c
<j@w1.fi>	hostap_hw.c
<j@w1.fi>	hostap_main.c
<j@w1.fi>	hostap_main.c
<jbnote@gmail.com>,	fwio.c
<jbnote@gmail.com>,	lmac.h
<jbnote@gmail.com>,	p54.h
<jbnote@gmail.com>,	p54pci.h
<jbnote@gmail.com>,	p54usb.c
<jbnote@gmail.com>,	p54usb.h
<jean-baptiste.note@m4x.org>,	p54pci.c
<jirislaby@gmail.com>	base.c
<jirislaby@gmail.com>	caps.c
<jirislaby@gmail.com>	initvals.c
<jirislaby@gmail.com>	mac80211-ops.c
<jirislaby@gmail.com>	pcu.c
<jirislaby@gmail.com>	reset.c
<joerg.albert@gmx.de>	at76c50x-usb.c
<joerg.albert@gmx.de>	at76c50x-usb.h
<joerg.albert@gmx.de>");	at76c50x-usb.c
<johannes@sipsolutions.net>	carl9170.h
<johannes@sipsolutions.net>	cmd.c
<johannes@sipsolutions.net>	cmd.h
<johannes@sipsolutions.net>	debug.c
<johannes@sipsolutions.net>	debug.c
<johannes@sipsolutions.net>	debug.c
<johannes@sipsolutions.net>	eeprom.h
<johannes@sipsolutions.net>	eeprom.h
<johannes@sipsolutions.net>	eeprom.h
<johannes@sipsolutions.net>	eeprom.h
<johannes@sipsolutions.net>	fwcmd.h
<johannes@sipsolutions.net>	fwio.c
<johannes@sipsolutions.net>	hw.h
<johannes@sipsolutions.net>	hw.h
<johannes@sipsolutions.net>	led.c
<johannes@sipsolutions.net>	led.c
<johannes@sipsolutions.net>	led.c
<johannes@sipsolutions.net>	mac.c
<johannes@sipsolutions.net>	mac.c
<johannes@sipsolutions.net>	p54spi.c
<johannes@sipsolutions.net>	p54spi_eeprom.h
<johannes@sipsolutions.net>	phy.c
<johannes@sipsolutions.net>	phy.c
<johannes@sipsolutions.net>	rx.c
<johannes@sipsolutions.net>	tx.c
<johannes@sipsolutions.net>	wlan.h
<juhosg@openwrt.org>	ahb.c
<juhosg@openwrt.org>	ahb.c
<kalle.valo@iki.fi>	at76c50x-usb.c
<kalle.valo@iki.fi>");	at76c50x-usb.c
<kaloz@openwrt.org>	ahb.c
<kaloz@openwrt.org>	ahb.c
<kugelfang@gentoo.org>	leds.c
<kugelfang@gentoo.org>	lo.c
<kugelfang@gentoo.org>	phy_a.c
<kugelfang@gentoo.org>	phy_common.c
<kugelfang@gentoo.org>	phy_g.c
<kugelfang@gentoo.org>	tables.c
<m@bues.ch>	leds.c
<m@bues.ch>	lo.c
<m@bues.ch>	pcmcia.c
<m@bues.ch>	phy_a.c
<m@bues.ch>	phy_common.c
<m@bues.ch>	phy_g.c
<m@bues.ch>	phy_lp.c
<m@bues.ch>	phy_n.c
<m@bues.ch>	pio.c
<m@bues.ch>	radio_2055.c
<m@bues.ch>	tables.c
<m@bues.ch>	tables_lpphy.c
<m@bues.ch>	tables_nphy.c
<m@bues.ch>	wa.c
<martin-langer@gmx.de>,	leds.c
<martin-langer@gmx.de>,	lo.c
<martin-langer@gmx.de>,	phy_a.c
<martin-langer@gmx.de>,	phy_common.c
<martin-langer@gmx.de>,	phy_g.c
<martin-langer@gmx.de>,	tables.c
<mcgrof@winlab.rutgers.edu>	base.c
<mcgrof@winlab.rutgers.edu>	mac80211-ops.c
<mcgrof@winlab.rutgers.edu>	pcu.c
<mcgrof@winlab.rutgers.edu>	reset.c
<mentor@madwifi.org>	pcu.c
<mickflemm@gmail.com>	ath5k.h
<mickflemm@gmail.com>	attach.c
<mickflemm@gmail.com>	caps.c
<mickflemm@gmail.com>	desc.c
<mickflemm@gmail.com>	desc.h
<mickflemm@gmail.com>	dma.c
<mickflemm@gmail.com>	dma.c
<mickflemm@gmail.com>	initvals.c
<mickflemm@gmail.com>	pcu.c
<mickflemm@gmail.com>	qcu.c
<mickflemm@gmail.com>	reset.c
<mickflemm@gmail.com>	rfbuffer.h
<mickflemm@gmail.com>	rfgain.h
<n0_5p4m_p13453@hotmail.com>	at76c50x-usb.c
<n0_5p4m_p13453@hotmail.com>");	at76c50x-usb.c
<netrolller.3d@gmail.com>	phy_lp.c
<netrolller.3d@gmail.com>	tables_lpphy.c
<oku@masqmail.cx>");	at76c50x-usb.c
<pe1rxq@amsat.org>");	zd1201.c
<pontus.fuchs@gmail.com>	ar5523.c
<pontus.fuchs@gmail.com>	ar5523.h
<pontus.fuchs@gmail.com>	ar5523_hw.h
<proski@gnu.org>	desc.c
<proski@gnu.org>	pcu.c
<proski@gnu.org>	reset.c
<proski@gnu.org>");	at76c50x-usb.c
<reyk@openbsd.org>	ath5k.h
<reyk@openbsd.org>	attach.c
<reyk@openbsd.org>	caps.c
<reyk@openbsd.org>	desc.c
<reyk@openbsd.org>	desc.h
<reyk@openbsd.org>	dma.c
<reyk@openbsd.org>	dma.c
<reyk@openbsd.org>	initvals.c
<reyk@openbsd.org>	pcu.c
<reyk@openbsd.org>	qcu.c
<reyk@openbsd.org>	reset.c
<reyk@openbsd.org>	rfgain.h
<reyk@vantronix.net>	hostap_pci.c
<sesmo@gmx.net>	at76c50x-usb.c
<sesmo@gmx.net>");	at76c50x-usb.c
<stefano.brivio@polimi.it>	leds.c
<stefano.brivio@polimi.it>	lo.c
<stefano.brivio@polimi.it>	phy_a.c
<stefano.brivio@polimi.it>	phy_common.c
<stefano.brivio@polimi.it>	phy_g.c
<stefano.brivio@polimi.it>	tables.c
<stefano.brivio@polimi.it>	wa.c
<tobias.doerffel@gmail.com>	rfkill.c
<tobias.doerffel@gmail.com>	rfkill.c
<weongyo@freebsd.org>	ar5523.c
<weongyo@freebsd.org>	ar5523.h
<weongyo@freebsd.org>	ar5523_hw.h
<wil6210@qca.qualcomm.com>");	pcie_bus.c
<zajec5@gmail.com>	bus.c
<zajec5@gmail.com>	phy_ht.c
<zajec5@gmail.com>	phy_lcn.c
<zajec5@gmail.com>	phy_n.c
<zajec5@gmail.com>	radio_2055.c
<zajec5@gmail.com>	radio_2056.c
<zajec5@gmail.com>	radio_2057.c
<zajec5@gmail.com>	radio_2059.c
<zajec5@gmail.com>	tables_nphy.c
<zajec5@gmail.com>	tables_phy_ht.c
<zajec5@gmail.com>	tables_phy_lcn.c
corey@world.std.com>";	ray_cs.c
dahinds@users.sourceforge.net	ray_cs.c
james@madingley.org	hostap_plx.c
linux-wireless@vger.kernel.org	rx.c
