(laurent.pinchart@ideasonboard.com)	shmob_drm_backlight.c
(laurent.pinchart@ideasonboard.com)	shmob_drm_backlight.h
(laurent.pinchart@ideasonboard.com)	shmob_drm_crtc.c
(laurent.pinchart@ideasonboard.com)	shmob_drm_crtc.h
(laurent.pinchart@ideasonboard.com)	shmob_drm_drv.c
(laurent.pinchart@ideasonboard.com)	shmob_drm_drv.h
(laurent.pinchart@ideasonboard.com)	shmob_drm_kms.c
(laurent.pinchart@ideasonboard.com)	shmob_drm_kms.h
(laurent.pinchart@ideasonboard.com)	shmob_drm_plane.c
(laurent.pinchart@ideasonboard.com)	shmob_drm_plane.h
(laurent.pinchart@ideasonboard.com)	shmob_drm_regs.h
<C.Emde@osadl.org>	drm_edid_load.c
<James.Bottomley@steeleye.com>	attribute_container.c
<James.Bottomley@steeleye.com>	transport_class.c
<airlied@linux.ie>	drm_crtc.c
<airlied@linux.ie>	drm_crtc.c
<airlied@linux.ie>	drm_crtc_helper.c
<airlied@linux.ie>	drm_crtc_helper.c
<airlied@linux.ie>	drm_fb_helper.c
<airlied@linux.ie>	drm_fb_helper.c
<airlied@linux.ie>	intel_drv.h
<airlied@linux.ie>	intel_dvo.c
<airlied@linux.ie>	intel_hdmi.c
<airlied@linux.ie>	intel_i2c.c
<airlied@linux.ie>	intel_lvds.c
<airlied@linux.ie>	intel_lvds.c
<airlied@linux.ie>	intel_modes.c
<airlied@linux.ie>	intel_panel.c
<airlied@linux.ie>	intel_panel.c
<airlied@linux.ie>	intel_sdvo.c
<airlied@linux.ie>	mga_ioc32.c
<airlied@linux.ie>	r128_ioc32.c
<airlied@redhat.com>	ast_drv.c
<airlied@redhat.com>	ast_drv.h
<airlied@redhat.com>	ast_fb.c
<airlied@redhat.com>	ast_main.c
<airlied@redhat.com>	ast_mode.c
<airlied@redhat.com>	ast_post.c
<airlied@redhat.com>	ast_ttm.c
<airlied@redhat.com>	cirrus_ttm.c
<airlied@redhat.com>	drm_prime.c
<airlied@redhat.com>	i915_gem_dmabuf.c
<airlied@redhat.com>	mgag200_i2c.c
<airlied@redhat.com>	mgag200_ttm.c
<airlied@redhat.com>	r600_cp.c
<airlied@redhat.com>	radeon_atpx_handler.c
<airlied@redhat.com>	radeon_trace_points.c
<alanh@fairlite.demon.co.uk>	i915_ioc32.c
<alanh@fairlite.demon.co.uk>	radeon_reg.h
<alexander.deucher@amd.com>	cayman_blit_shaders.c
<alexander.deucher@amd.com>	evergreen_blit_kms.c
<alexander.deucher@amd.com>	evergreen_blit_shaders.c
<alexander.deucher@amd.com>	r600_blit.c
<alexander.deucher@amd.com>	r600_blit_shaders.c
<alexander.deucher@amd.com>	r600_cp.c
<alexander.deucher@amd.com>	si_blit_shaders.c
<alexdeucher@gmail.com>	radeon_pm.c
<anholt@FreeBSD.org>	mga_irq.c
<anholt@FreeBSD.org>	r128_irq.c
<arnd@arndb.de>,	dma-buf.c
<ben@bwidawsk.net>	i915_gem_context.c
<ben@bwidawsk.net>	i915_sysfs.c
<bgamari@gmail.com>	drm_debugfs.c
<bgamari@gmail.com>	drm_debugfs.c
<bgamari@gmail.com>	drm_info.c
<bgamari@gmail.com>	drm_info.c
<currojerez@riseup.net>");	ch7006_drv.c
<currojerez@riseup.net>");	sil164_drv.c
<daenzerm@student.ethz.ch>	r128_drv.h
<daniel@ffwll.ch>	dma-buf.c
<daniel@ffwll.ch>	intel_overlay.c
<daryll@valinux.com>	tdfx_drv.c
<dave.mueller@gmx.ch>	dvo_tfp410.c
<deathsimple@vodafone.de>	radeon_semaphore.c
<dmunsie@cecropia.com>	drm_edid.c
<duwe@caldera.de>	drm_context.c
<eric@anholt.net>	drm_crtc.c
<eric@anholt.net>	drm_crtc_helper.c
<eric@anholt.net>	dvo_ch7017.c
<eric@anholt.net>	dvo_ivch.c
<eric@anholt.net>	i915_debugfs.c
<eric@anholt.net>	i915_gem.c
<eric@anholt.net>	i915_gem_evict.c
<eric@anholt.net>	i915_gem_execbuffer.c
<eric@anholt.net>	i915_gem_stolen.c
<eric@anholt.net>	i915_gem_tiling.c
<eric@anholt.net>	intel_bios.c
<eric@anholt.net>	intel_bios.h
<eric@anholt.net>	intel_crt.c
<eric@anholt.net>	intel_display.c
<eric@anholt.net>	intel_dvo.c
<eric@anholt.net>	intel_hdmi.c
<eric@anholt.net>	intel_i2c.c
<eric@anholt.net>	intel_lvds.c
<eric@anholt.net>	intel_panel.c
<eric@anholt.net>	intel_ringbuffer.c
<eric@anholt.net>	intel_sdvo.c
<eric@anholt.net>	intel_sdvo_regs.h
<eric@anholt.net>	intel_tv.c
<eugeni.dodonov@intel.com>	intel_ddi.c
<eugeni.dodonov@intel.com>	intel_pm.c
<faith@valinux.com>	drm_bufs.c
<faith@valinux.com>	drm_context.c
<faith@valinux.com>	drm_dma.c
<faith@valinux.com>	drm_drv.c
<faith@valinux.com>	drm_ioctl.c
<faith@valinux.com>	drm_irq.c
<faith@valinux.com>	drm_lock.c
<faith@valinux.com>	drm_memory.c
<faith@valinux.com>	drm_proc.c
<faith@valinux.com>	drm_stub.c
<faith@valinux.com>	mga_dma.c
<faith@valinux.com>	mga_drv.c
<faith@valinux.com>	r128_drv.c
<faith@valinux.com>	r128_drv.h
<faith@valinux.com>	radeon_reg.h
<faith@valinux.com>	tdfx_drv.c
<fulivi@lycos.com>	radeon_legacy_tv.c
<gareth@valinux.com>	drm_bufs.c
<gareth@valinux.com>	drm_context.c
<gareth@valinux.com>	drm_dma.c
<gareth@valinux.com>	drm_drv.c
<gareth@valinux.com>	drm_ioctl.c
<gareth@valinux.com>	drm_irq.c
<gareth@valinux.com>	drm_lock.c
<gareth@valinux.com>	drm_memory.c
<gareth@valinux.com>	drm_proc.c
<gareth@valinux.com>	mga_dma.c
<gareth@valinux.com>	mga_drv.c
<gareth@valinux.com>	mga_drv.h
<gareth@valinux.com>	mga_state.c
<gareth@valinux.com>	mga_warp.c
<gareth@valinux.com>	r128_cce.c
<gareth@valinux.com>	r128_drv.c
<gareth@valinux.com>	r128_drv.h
<gareth@valinux.com>	r128_state.c
<gareth@valinux.com>	radeon_cp.c
<gareth@valinux.com>	radeon_drv.c
<gareth@valinux.com>	radeon_drv.h
<gareth@valinux.com>	radeon_state.c
<gareth@valinux.com>	tdfx_drv.c
<gareth@valinux.com>	tdfx_drv.h
<glisse@freedesktop.org>	radeon_agp.c
<glisse@freedesktop.org>	radeon_cs.c
<glisse@freedesktop.org>	radeon_fence.c
<glisse@freedesktop.org>	radeon_object.c
<glisse@freedesktop.org>	radeon_sa.c
<glisse@freedesktop.org>	radeon_ttm.c
<gregkh@suse.de>	bus.c
<hong.liu@intel.com>	intel_opregion.c
<jbarnes@virtuousgeek.org>	i915_suspend.c
<jbarnes@virtuousgeek.org>	intel_sprite.c
<jesse.barnes@intel.com>	drm_crtc.c
<jesse.barnes@intel.com>	drm_crtc_helper.c
<jesse.barnes@intel.com>	drm_edid.c
<jesse.barnes@intel.com>	drm_edid_modes.h
<jesse.barnes@intel.com>	drm_fb_helper.c
<jesse.barnes@intel.com>	intel_drv.h
<jesse.barnes@intel.com>	intel_hdmi.c
<jesse.barnes@intel.com>	intel_i2c.c
<jesse.barnes@intel.com>	intel_lvds.c
<jesse.barnes@intel.com>	intel_modes.c
<jesse.barnes@intel.com>	intel_panel.c
<jesse.barnes@intel.com>	intel_sdvo.c
<jesse.barnes@intel.com>	intel_tv.c
<jgarzik@pobox.com>	cirrus_mode.c
<jhartmann@valinux.com>	mga_dma.c
<jhartmann@valinux.com>	mga_state.c
<jlee@novell.com>	poulsbo.c
<jlee@novell.com>");	poulsbo.c
<keith@tungstengraphics.com>	mga_dma.c
<keith@tungstengraphics.com>	mga_irq.c
<keith@tungstengraphics.com>	mga_state.c
<keith@tungstengraphics.com>	r128_irq.c
<keith@tungstengraphics.com>	radeon_irq.c
<keith@tungstengraphics.com>	radeon_mem.c
<keith@tungstengraphics.com>	via_irq.c
<keithp@keithp.com>	i915_debugfs.c
<keithp@keithp.com>	i915_gem_debug.c
<keithp@keithp.com>	intel_dp.c
<lars@metafoo.de>	drm_fb_cma_helper.c
<laurent.pinchart@ideasonboard.com>");	shmob_drm_drv.c
<m.szyprowski@samsung.com>	dma-contiguous.c
<martin@valinux.com>	r128_drv.h
<martin@valinux.com>	radeon_cp.c
<martin@valinux.com>	radeon_drv.h
<martin@valinux.com>	radeon_state.c
<martin@xfree86.org>	radeon_reg.h
<matthew.j.sottek@intel.com>	drm_proc.c
<michel@daenzer.net>	radeon_irq.c
<mina86@mina86.com>	dma-contiguous.c
<mjg@redhat.com>	cirrus_drv.c
<mjg@redhat.com>	intel_opregion.c
<nanhai.zou@intel.com>	intel_ringbuffer.c
<paulus@samba.org>	radeon_ioc32.c
<prefect_@gmx.net>	r300_cmdbuf.c
<rob.clark@linaro.org>	drm_prime.c
<rob@ti.com>	dma-buf.c
<sumit.semwal@ti.com>	dma-buf.c
<teheo@suse.de>	devres.c
<terry1@beam.ltd.uk>	via_irq.c
<unichrome@shipmail.org>	via_irq.c
<zajec5@gmail.com>	radeon_pm.c
bgamari@gmail.com	drm_debugfs.c
bgamari@gmail.com	drm_info.c
dawes@XFree86.Org	mgag200_reg.h
dri-devel@lists.freedesktop.org,	intel_panel.c
faith@acm.org	drm_stub.c
faith@precisioninsight.com	r128_drv.c
faith@precisioninsight.com	r128_drv.h
faith@precisioninsight.com	tdfx_drv.c
faith@valinux.com	drm_dma.c
faith@valinux.com	drm_ioctl.c
faith@valinux.com	drm_irq.c
faith@valinux.com	drm_lock.c
faith@valinux.com	drm_memory.c
faith@valinux.com	drm_proc.c
g.desbief@aix.pacwan.net	mgag200_reg.h
gareth@valinux.com	drm_bufs.c
gareth@valinux.com	drm_context.c
gareth@valinux.com	drm_drv.c
gareth@valinux.com	mga_warp.c
gareth@valinux.com	r128_state.c
gareth@valinux.com	tdfx_drv.h
hao<haihao.xiang@intel.com>	intel_ringbuffer.c
hohndel@XFree86.Org	mgag200_reg.h
jhartmann@precisioninsight.com	mga_dma.c
jhartmann@precisioninsight.com	mga_drv.c
jhartmann@precisioninsight.com	mga_drv.h
jhartmann@precisioninsight.com	mga_state.c
kevin@precisioninsight.com	r128_cce.c
rates@usSupportedRefreshRate.	atombios.h
rates@usSupportedRefreshRate.	atombios.h
xorg-driver-ati@lists.x.org\n");	radeon_display.c
