"<ilw@linux.intel.com>"	3945-mac.c
"<ilw@linux.intel.com>"	common.h
(frible@teaser.fr)	yam.c
(fventuri@mediaone.net)\n";	sb1000.c
(greg@kroah.com)	orinoco_usb.c
(pe1rxq@amsat.org)	zd1201.h
(petkan@users.sourceforge.net)	pegasus.h
(petkan@users.sourceforge.net)	rtl8150.c
(sailer@ife.ee.ethz.ch)	baycom_epp.c
(sailer@ife.ee.ethz.ch)	baycom_par.c
(sailer@ife.ee.ethz.ch)	baycom_ser_fdx.c
(sailer@ife.ee.ethz.ch)	baycom_ser_hdx.c
(sailer@ife.ee.ethz.ch)	hdlcdrv.c
(sailer@ife.ee.ethz.ch)	yam.c
<21cnbao@gmail.com>");	bfin_can.c
<Larry.FInger@lwfinger.net>");	base.c
<Larry.Finger@lwfinger.net>	base.c
<Larry.Finger@lwfinger.net>	base.h
<Larry.Finger@lwfinger.net>	btc.h
<Larry.Finger@lwfinger.net>	cam.c
<Larry.Finger@lwfinger.net>	cam.h
<Larry.Finger@lwfinger.net>	core.c
<Larry.Finger@lwfinger.net>	core.h
<Larry.Finger@lwfinger.net>	debug.h
<Larry.Finger@lwfinger.net>	def.h
<Larry.Finger@lwfinger.net>	def.h
<Larry.Finger@lwfinger.net>	def.h
<Larry.Finger@lwfinger.net>	def.h
<Larry.Finger@lwfinger.net>	def.h
<Larry.Finger@lwfinger.net>	dm.c
<Larry.Finger@lwfinger.net>	dm.c
<Larry.Finger@lwfinger.net>	dm.c
<Larry.Finger@lwfinger.net>	dm.c
<Larry.Finger@lwfinger.net>	dm.c
<Larry.Finger@lwfinger.net>	dm.h
<Larry.Finger@lwfinger.net>	dm.h
<Larry.Finger@lwfinger.net>	dm.h
<Larry.Finger@lwfinger.net>	dm.h
<Larry.Finger@lwfinger.net>	dm.h
<Larry.Finger@lwfinger.net>	dm_common.c
<Larry.Finger@lwfinger.net>	dm_common.h
<Larry.Finger@lwfinger.net>	efuse.c
<Larry.Finger@lwfinger.net>	efuse.h
<Larry.Finger@lwfinger.net>	fw_common.c
<Larry.Finger@lwfinger.net>	fw_common.h
<Larry.Finger@lwfinger.net>	hal_bt_coexist.c
<Larry.Finger@lwfinger.net>	hal_bt_coexist.h
<Larry.Finger@lwfinger.net>	hal_btc.c
<Larry.Finger@lwfinger.net>	hal_btc.h
<Larry.Finger@lwfinger.net>	led.c
<Larry.Finger@lwfinger.net>	led.c
<Larry.Finger@lwfinger.net>	led.c
<Larry.Finger@lwfinger.net>	led.c
<Larry.Finger@lwfinger.net>	led.c
<Larry.Finger@lwfinger.net>	led.h
<Larry.Finger@lwfinger.net>	led.h
<Larry.Finger@lwfinger.net>	led.h
<Larry.Finger@lwfinger.net>	led.h
<Larry.Finger@lwfinger.net>	led.h
<Larry.Finger@lwfinger.net>	mac.c
<Larry.Finger@lwfinger.net>	mac.h
<Larry.Finger@lwfinger.net>	pci.c
<Larry.Finger@lwfinger.net>	pci.h
<Larry.Finger@lwfinger.net>	phy.c
<Larry.Finger@lwfinger.net>	phy.c
<Larry.Finger@lwfinger.net>	phy.c
<Larry.Finger@lwfinger.net>	phy.c
<Larry.Finger@lwfinger.net>	phy.c
<Larry.Finger@lwfinger.net>	phy.c
<Larry.Finger@lwfinger.net>	phy.h
<Larry.Finger@lwfinger.net>	phy.h
<Larry.Finger@lwfinger.net>	phy.h
<Larry.Finger@lwfinger.net>	phy.h
<Larry.Finger@lwfinger.net>	phy.h
<Larry.Finger@lwfinger.net>	phy.h
<Larry.Finger@lwfinger.net>	phy_common.c
<Larry.Finger@lwfinger.net>	phy_common.h
<Larry.Finger@lwfinger.net>	ps.c
<Larry.Finger@lwfinger.net>	ps.h
<Larry.Finger@lwfinger.net>	pwrseq.c
<Larry.Finger@lwfinger.net>	pwrseq.h
<Larry.Finger@lwfinger.net>	pwrseqcmd.c
<Larry.Finger@lwfinger.net>	pwrseqcmd.h
<Larry.Finger@lwfinger.net>	radio.c
<Larry.Finger@lwfinger.net>	rc.c
<Larry.Finger@lwfinger.net>	rc.h
<Larry.Finger@lwfinger.net>	reg.h
<Larry.Finger@lwfinger.net>	reg.h
<Larry.Finger@lwfinger.net>	reg.h
<Larry.Finger@lwfinger.net>	reg.h
<Larry.Finger@lwfinger.net>	reg.h
<Larry.Finger@lwfinger.net>	regd.c
<Larry.Finger@lwfinger.net>	regd.h
<Larry.Finger@lwfinger.net>	rf.c
<Larry.Finger@lwfinger.net>	rf.c
<Larry.Finger@lwfinger.net>	rf.c
<Larry.Finger@lwfinger.net>	rf.c
<Larry.Finger@lwfinger.net>	rf.c
<Larry.Finger@lwfinger.net>	rf.h
<Larry.Finger@lwfinger.net>	rf.h
<Larry.Finger@lwfinger.net>	rf.h
<Larry.Finger@lwfinger.net>	rf.h
<Larry.Finger@lwfinger.net>	rf.h
<Larry.Finger@lwfinger.net>	stats.c
<Larry.Finger@lwfinger.net>	stats.h
<Larry.Finger@lwfinger.net>	sw.c
<Larry.Finger@lwfinger.net>	sw.c
<Larry.Finger@lwfinger.net>	sw.c
<Larry.Finger@lwfinger.net>	sw.c
<Larry.Finger@lwfinger.net>	sw.c
<Larry.Finger@lwfinger.net>	table.c
<Larry.Finger@lwfinger.net>	table.c
<Larry.Finger@lwfinger.net>	table.c
<Larry.Finger@lwfinger.net>	table.c
<Larry.Finger@lwfinger.net>	table.c
<Larry.Finger@lwfinger.net>	table.h
<Larry.Finger@lwfinger.net>	table.h
<Larry.Finger@lwfinger.net>	table.h
<Larry.Finger@lwfinger.net>	table.h
<Larry.Finger@lwfinger.net>	table.h
<Larry.Finger@lwfinger.net>	trx.c
<Larry.Finger@lwfinger.net>	trx.c
<Larry.Finger@lwfinger.net>	trx.c
<Larry.Finger@lwfinger.net>	trx.c
<Larry.Finger@lwfinger.net>	trx.c
<Larry.Finger@lwfinger.net>	trx.h
<Larry.Finger@lwfinger.net>	trx.h
<Larry.Finger@lwfinger.net>	trx.h
<Larry.Finger@lwfinger.net>	trx.h
<Larry.Finger@lwfinger.net>	trx.h
<Larry.Finger@lwfinger.net>	wifi.h
<Larry.Finger@lwfinger.net>	xmit.c
<Larry.Finger@lwfinger.net>");	sw.c
<Larry.Finger@lwfinger.net>");	sw.c
<Larry.Finger@lwfinger.net>");	sw.c
<Larry.Finger@lwfinger.net>");	sw.c
<Larry.Finger@lwfinger.net>");	sw.c
<P.B.Cheblakov@inp.nsk.su>	plx_pci.c
<P.B.Cheblakov@inp.nsk.su>");	plx_pci.c
<acme@conectiva.com.br>	wl3501_cs.c
<acme@conectiva.com.br>,"	wl3501_cs.c
<ajb@spheresystems.co.uk>	hso.c
<ajk@comnets.uni-bremen.de>	6pack.c
<anantgole@ti.com>");	ti_hecc.c
<anbadeol@gmail.com>");	tscan1.c
<andi@lisas.de>	mcs7830.c
<andreas.jaggi@waterwave.ch>	ilt.c
<andreas.jaggi@waterwave.ch>	leds.c
<andreas.jaggi@waterwave.ch>	radio.c
<andreas.jaggi@waterwave.ch>	radio.h
<andreas.jaggi@waterwave.ch>	xmit.c
<andreas@gaisler.com>	grcan.c
<andrey@cozybit.com>	if_spi.c
<andrey@cozybit.com>	if_spi.h
<andrey@cozybit.com>,	if_spi.c
<arnd@arndb.de>	mcs7830.c
<arnd@arndb.de>");	macvtap.c
<balrogg@gmail.com>	lg-vl600.c
<becker@scyld.com>	loopback.c
<benh@kernel.crashing.org>");	airport.c
<benh@kernel.crashing.org>)";	airport.c
<bhupesh.sharma@st.com>	c_can.c
<bhupesh.sharma@st.com>	c_can.h
<bhupesh.sharma@st.com>	c_can_platform.c
<bhupesh.sharma@st.com>");	c_can.c
<bhupesh.sharma@st.com>");	c_can_platform.c
<bjd@jooz.net>	rndis_wlan.c
<bjorn@mork.no>	cdc_mbim.c
<bjorn@mork.no>	qmi_wwan.c
<bjorn@mork.no>");	cdc_mbim.c
<bjorn@mork.no>");	qmi_wwan.c
<breed@users.sourceforge.net>	airo_cs.c
<buytenh@wantstofly.org>");	mv88e6060.c
<buytenh@wantstofly.org>");	mv88e6xxx.c
<bystricky.juro@erd.epson.com>	cdc_subset.c
<celston@katalix.com>,	mcp251x.c
<chaoming_li@realsil.com.cn>");	base.c
<chaoming_li@realsil.com.cn>");	sw.c
<chaoming_li@realsil.com.cn>");	sw.c
<chaoming_li@realsil.com.cn>");	sw.c
<chaoming_li@realsil.com.cn>");	sw.c
<chaoming_li@realsil.com.cn>");	sw.c
<chripell@evolware.org>	mcp251x.c
<chripell@evolware.org>");	mcp251x.c
<colin@cozybit.com>	if_spi.c
<colin@cozybit.com>	if_spi.h
<colin@cozybit.com>");	if_spi.c
<d.barow@option.com>	hso.c
<dahinds@users.sourceforge.net>.	airo_cs.c
<dan@telent.net>");	orinoco_plx.c
<dan@telent.net>)";	orinoco_plx.c
<dhollis@davehollis.com>	asix.h
<dhollis@davehollis.com>	asix_common.c
<dhollis@davehollis.com>	asix_devices.c
<dhollis@davehollis.com>	ax88172a.c
<dhollis@davehollis.com>	mcs7830.c
<diego@giagio.com>	ipheth.c
<diego@giagio.com>");	ipheth.c
<disdos@traum404.de>	orinoco_nortel.c
<disdos@traum404.de>");	orinoco_nortel.c
<disdos@traum404.de>)";	orinoco_nortel.c
<f.aben@option.com>	hso.c
<federico.vaga@gmail.com>	c_can_pci.c
<federico.vaga@gmail.com>");	c_can_pci.c
<fventuri@mediaone.net>");	sb1000.c
<gregkh@suse.de>	hso.c
<gsuarez@smithmicro.com>");	cdc_mbim.c
<hans@esrac.ele.tue.nl>	mkiss.c
<hermes@gibson.dropbear.id.au>	orinoco_pci.c
<hermes@gibson.dropbear.id.au>");	main.c
<hermes@gibson.dropbear.id.au>");	main.c
<hermes@gibson.dropbear.id.au>");	main.c
<hermes@gibson.dropbear.id.au>");	orinoco_cs.c
<hermes@gibson.dropbear.id.au>");	orinoco_pci.c
<hermes@gibson.dropbear.id.au>,	main.c
<hermes@gibson.dropbear.id.au>,	main.c
<hermes@gibson.dropbear.id.au>,	main.c
<hermes@gibson.dropbear.id.au>,"	orinoco_plx.c
<hjk@hansjkoch.de>	at91_can.c
<hjk@hansjkoch.de>	c_can.c
<ilw@linux.intel.com>	3945-debug.c
<ilw@linux.intel.com>	3945-mac.c
<ilw@linux.intel.com>	3945-rs.c
<ilw@linux.intel.com>	3945.c
<ilw@linux.intel.com>	3945.h
<ilw@linux.intel.com>	4965-calib.c
<ilw@linux.intel.com>	4965-debug.c
<ilw@linux.intel.com>	4965-mac.c
<ilw@linux.intel.com>	4965-rs.c
<ilw@linux.intel.com>	4965.c
<ilw@linux.intel.com>	4965.h
<ilw@linux.intel.com>	commands.h
<ilw@linux.intel.com>	common.c
<ilw@linux.intel.com>	common.h
<ilw@linux.intel.com>	csr.h
<ilw@linux.intel.com>	debug.c
<ilw@linux.intel.com>	debug.c
<ilw@linux.intel.com>	iwl-spectrum.h
<ilw@linux.intel.com>	prph.h
<iws@ovro.caltech.edu>	janz-ican3.c
<iws@ovro.caltech.edu>");	janz-ican3.c
<j.dumon@option.com>	hso.c
<j@w1.fi>	mac80211_hwsim.c
<jacmet@sunsite.dk>	dm9601.c
<jacmet@sunsite.dk>");	dm9601.c
<jamie.painter@iname.com>	asix.h
<jamie.painter@iname.com>	asix_common.c
<jamie.painter@iname.com>	asix_devices.c
<jamie.painter@iname.com>	ax88172a.c
<jlopex@gmail.com>	mac80211_hwsim.c
<joerg@dorchain.net>");	orinoco_tmd.c
<joerg@dorchain.net>)";	orinoco_tmd.c
<jreuter@yaina.de>");	bpqether.c
<jreuter@yaina.de>");	scc.c
<jt@hpl.hp.com>)";	orinoco_pci.c
<jussi.kivilinna@mbnet.fi>	rndis_wlan.c
<kernel@pengutronix.de>	at91_can.c
<kernel@pengutronix.de>	c_can.c
<kernel@pengutronix.de>	mscan.c
<kernel@pengutronix.de>");	flexcan.c
<kernel@pengutronix.de>,	flexcan.c
<klaus.hitschler@gmx.de>	pcan_usb.c
<klaus.hitschler@gmx.de>	pcan_usb_core.c
<klaus.hitschler@gmx.de>	pcan_usb_core.h
<kugelfang@gentoo.org>	ilt.c
<kugelfang@gentoo.org>	leds.c
<kugelfang@gentoo.org>	radio.c
<kugelfang@gentoo.org>	radio.h
<kugelfang@gentoo.org>	xmit.c
<kurt.van.dijck@eia.be>");	softing_main.c
<linux@sierrawireless.com>	sierra_net.c
<loz@holmes.demon.co.uk>	6pack.c
<loz@holmes.demon.co.uk>	slcan.c
<m@bues.ch>	debugfs.c
<m@bues.ch>	debugfs.c
<m@bues.ch>	dma.c
<m@bues.ch>	ilt.c
<m@bues.ch>	leds.c
<m@bues.ch>	pio.c
<m@bues.ch>	radio.c
<m@bues.ch>	radio.h
<m@bues.ch>	rfkill.c
<m@bues.ch>	sysfs.c
<m@bues.ch>	xmit.c
<martin-langer@gmx.de>	xmit.c
<martin-langer@gmx.de>,	ilt.c
<martin-langer@gmx.de>,	leds.c
<martin-langer@gmx.de>,	radio.c
<martin-langer@gmx.de>,	radio.h
<matthias.fuchs@esd.eu>");	esd_usb2.c
<matthias.fuchs@esd.eu>,	esd_usb2.c
<matthias.fuchs@esd.eu>,	kvaser_usb.c
<mhchen@golf.ccl.itri.org.tw>,	wl3501_cs.c
<mkl@pengutronix.de>");	at91_can.c
<niemeyer@conectiva.com>	wl3501_cs.c
<niemeyer@conectiva.com>");	wl3501_cs.c
<noodles@earth.li>	cdc_subset.c
<oliver.hartkopp@volkswagen.de>");	sja1000.c
<olivier@sobrie.be>	kvaser_usb.c
<olivier@sobrie.be>");	kvaser_usb.c
<pavel@ucw.cz>	zaurus.c
<pchang23@sbcglobal.net>	asix.h
<pchang23@sbcglobal.net>	asix_common.c
<pchang23@sbcglobal.net>	asix_devices.c
<pchang23@sbcglobal.net>	ax88172a.c
<pchang23@sbcglobal.net>	mcs7830.c
<per.dalen@cnw.se>	kvaser_pci.c
<per.dalen@cnw.se>");	kvaser_pci.c
<petkan@users.sourceforge.net>"	rtl8150.c
<proski@gnu.org>	hermes_dld.c
<proski@gnu.org>	main.c
<proski@gnu.org>	main.c
<proski@gnu.org>	main.c
<proski@gnu.org>	orinoco_pci.c
<proski@gnu.org>	spectrum_cs.c
<proski@gnu.org>");	spectrum_cs.c
<proski@gnu.org>,	main.c
<proski@gnu.org>,	main.c
<proski@gnu.org>,	main.c
<proski@gnu.org>,"	orinoco_pci.c
<proski@gnu.org>,"	orinoco_plx.c
<s.hauer@pengutronix.de>	c_can.c
<s.hauer@pengutronix.de>	c_can.h
<s.hauer@pengutronix.de>	c_can_platform.c
<s.hauer@pengutronix.de>");	sja1000_platform.c
<shirsch@adelphia.net>	sb1000.c
<shirsch@adelphia.net>	sb1000.c
<simon.kallweit@intefo.ch>	c_can.c
<simon.kallweit@intefo.ch>	c_can.h
<simon.kallweit@intefo.ch>	c_can_platform.c
<simon@thekelleys.org.uk>	atmel.c
<socketcan@hartkopp.net>	ems_pcmcia.c
<socketcan@hartkopp.net>	slcan.c
<socketcan@hartkopp.net>");	slcan.c
<spse@secret.org.uk>	catc.c
<stefano.brivio@polimi.it>	ilt.c
<stefano.brivio@polimi.it>	leds.c
<stefano.brivio@polimi.it>	radio.c
<stefano.brivio@polimi.it>	radio.h
<stefano.brivio@polimi.it>	xmit.c
<steve.glendinning@shawell.net>");	smsc95xx.c
<urs.thuermann@volkswagen.de>");	vcan.c
<vojtech@suse.cz>"	catc.c
<vojtech@suse.cz>,	catc.c
<w.sang@pengutronix.de>	mpc5xxx_can.c
<waltje@uWalt.NL.Mugnet.ORG>	loopback.c
<waltje@uwalt.nl.mugnet.org>	6pack.c
<waltje@uwalt.nl.mugnet.org>	slcan.c
<wg@grandegger.com>	cc770.c
<wg@grandegger.com>	cc770.h
<wg@grandegger.com>	cc770_isa.c
<wg@grandegger.com>	cc770_platform.c
<wg@grandegger.com>	dev.c
<wg@grandegger.com>	ems_pci.c
<wg@grandegger.com>	kvaser_pci.c
<wg@grandegger.com>	mpc5xxx_can.c
<wg@grandegger.com>	mscan.c
<wg@grandegger.com>	peak_pci.c
<wg@grandegger.com>	plx_pci.c
<wg@grandegger.com>	sja1000_isa.c
<wg@grandegger.com>	sja1000_of_platform.c
<wg@grandegger.com>	sja1000_platform.c
<wg@grandegger.com>");	cc770.c
<wg@grandegger.com>");	cc770_isa.c
<wg@grandegger.com>");	cc770_platform.c
<wg@grandegger.com>");	dev.c
<wg@grandegger.com>");	mpc5xxx_can.c
<wg@grandegger.com>");	sja1000_isa.c
<wg@grandegger.com>");	sja1000_of_platform.c
<wlanfae@realtek.com>	base.c
<wlanfae@realtek.com>	base.h
<wlanfae@realtek.com>	btc.h
<wlanfae@realtek.com>	cam.c
<wlanfae@realtek.com>	cam.h
<wlanfae@realtek.com>	core.c
<wlanfae@realtek.com>	core.h
<wlanfae@realtek.com>	debug.h
<wlanfae@realtek.com>	def.h
<wlanfae@realtek.com>	def.h
<wlanfae@realtek.com>	def.h
<wlanfae@realtek.com>	def.h
<wlanfae@realtek.com>	def.h
<wlanfae@realtek.com>	dm.c
<wlanfae@realtek.com>	dm.c
<wlanfae@realtek.com>	dm.c
<wlanfae@realtek.com>	dm.c
<wlanfae@realtek.com>	dm.c
<wlanfae@realtek.com>	dm.h
<wlanfae@realtek.com>	dm.h
<wlanfae@realtek.com>	dm.h
<wlanfae@realtek.com>	dm.h
<wlanfae@realtek.com>	dm.h
<wlanfae@realtek.com>	dm_common.c
<wlanfae@realtek.com>	dm_common.h
<wlanfae@realtek.com>	efuse.c
<wlanfae@realtek.com>	efuse.h
<wlanfae@realtek.com>	fw_common.c
<wlanfae@realtek.com>	fw_common.h
<wlanfae@realtek.com>	hal_bt_coexist.c
<wlanfae@realtek.com>	hal_bt_coexist.h
<wlanfae@realtek.com>	hal_btc.c
<wlanfae@realtek.com>	hal_btc.h
<wlanfae@realtek.com>	led.c
<wlanfae@realtek.com>	led.c
<wlanfae@realtek.com>	led.c
<wlanfae@realtek.com>	led.c
<wlanfae@realtek.com>	led.c
<wlanfae@realtek.com>	led.h
<wlanfae@realtek.com>	led.h
<wlanfae@realtek.com>	led.h
<wlanfae@realtek.com>	led.h
<wlanfae@realtek.com>	led.h
<wlanfae@realtek.com>	mac.c
<wlanfae@realtek.com>	mac.h
<wlanfae@realtek.com>	pci.c
<wlanfae@realtek.com>	pci.h
<wlanfae@realtek.com>	phy.c
<wlanfae@realtek.com>	phy.c
<wlanfae@realtek.com>	phy.c
<wlanfae@realtek.com>	phy.c
<wlanfae@realtek.com>	phy.c
<wlanfae@realtek.com>	phy.c
<wlanfae@realtek.com>	phy.h
<wlanfae@realtek.com>	phy.h
<wlanfae@realtek.com>	phy.h
<wlanfae@realtek.com>	phy.h
<wlanfae@realtek.com>	phy.h
<wlanfae@realtek.com>	phy.h
<wlanfae@realtek.com>	phy_common.c
<wlanfae@realtek.com>	phy_common.h
<wlanfae@realtek.com>	ps.c
<wlanfae@realtek.com>	ps.h
<wlanfae@realtek.com>	pwrseq.c
<wlanfae@realtek.com>	pwrseq.h
<wlanfae@realtek.com>	pwrseqcmd.c
<wlanfae@realtek.com>	pwrseqcmd.h
<wlanfae@realtek.com>	rc.c
<wlanfae@realtek.com>	rc.h
<wlanfae@realtek.com>	reg.h
<wlanfae@realtek.com>	reg.h
<wlanfae@realtek.com>	reg.h
<wlanfae@realtek.com>	reg.h
<wlanfae@realtek.com>	reg.h
<wlanfae@realtek.com>	regd.c
<wlanfae@realtek.com>	regd.h
<wlanfae@realtek.com>	rf.c
<wlanfae@realtek.com>	rf.c
<wlanfae@realtek.com>	rf.c
<wlanfae@realtek.com>	rf.c
<wlanfae@realtek.com>	rf.c
<wlanfae@realtek.com>	rf.h
<wlanfae@realtek.com>	rf.h
<wlanfae@realtek.com>	rf.h
<wlanfae@realtek.com>	rf.h
<wlanfae@realtek.com>	rf.h
<wlanfae@realtek.com>	stats.c
<wlanfae@realtek.com>	stats.h
<wlanfae@realtek.com>	sw.c
<wlanfae@realtek.com>	sw.c
<wlanfae@realtek.com>	sw.c
<wlanfae@realtek.com>	sw.c
<wlanfae@realtek.com>	sw.c
<wlanfae@realtek.com>	sw.h
<wlanfae@realtek.com>	sw.h
<wlanfae@realtek.com>	sw.h
<wlanfae@realtek.com>	sw.h
<wlanfae@realtek.com>	sw.h
<wlanfae@realtek.com>	table.c
<wlanfae@realtek.com>	table.c
<wlanfae@realtek.com>	table.c
<wlanfae@realtek.com>	table.c
<wlanfae@realtek.com>	table.c
<wlanfae@realtek.com>	table.h
<wlanfae@realtek.com>	table.h
<wlanfae@realtek.com>	table.h
<wlanfae@realtek.com>	table.h
<wlanfae@realtek.com>	table.h
<wlanfae@realtek.com>	trx.c
<wlanfae@realtek.com>	trx.c
<wlanfae@realtek.com>	trx.c
<wlanfae@realtek.com>	trx.c
<wlanfae@realtek.com>	trx.c
<wlanfae@realtek.com>	trx.h
<wlanfae@realtek.com>	trx.h
<wlanfae@realtek.com>	trx.h
<wlanfae@realtek.com>	trx.h
<wlanfae@realtek.com>	trx.h
<wlanfae@realtek.com>	usb.c
<wlanfae@realtek.com>	usb.h
<wlanfae@realtek.com>	wifi.h
<wlanfae@realtek.com>");	base.c
<wlanfae@realtek.com>");	sw.c
<wlanfae@realtek.com>");	sw.c
<wlanfae@realtek.com>");	sw.c
<wlanfae@realtek.com>");	sw.c
<wlanfae@realtek.com>");	sw.c
Ignacio.Arenaza@studi.epfl.ch	baycom_ser_fdx.c
Ignacio.Arenaza@studi.epfl.ch	baycom_ser_hdx.c
dl1bke@db0pra.ampr.org	scc.c
frible@teaser.fr");	yam.c
fventuri@mediaone.net	sb1000.c
hb9jnx@hb9w.che.eu");	baycom_epp.c
hb9jnx@hb9w.che.eu");	baycom_par.c
hb9jnx@hb9w.che.eu");	baycom_ser_fdx.c
hb9jnx@hb9w.che.eu");	baycom_ser_hdx.c
hb9jnx@hb9w.che.eu");	hdlcdrv.c
jreuter@yaina.de	scc.c
majordomo@vger.kernel.org	scc.c
mhchen@golf.ccl.itri.org.tw	wl3501_cs.c
pisa@cmp.felk.cvut.cz	dev.c
sailer@ife.ee.ethz.ch,	baycom_epp.c
sailer@ife.ee.ethz.ch,	baycom_par.c
sailer@ife.ee.ethz.ch,	baycom_ser_fdx.c
sailer@ife.ee.ethz.ch,	baycom_ser_hdx.c
sailer@ife.ee.ethz.ch,	hdlcdrv.c
tadavis@lbl.gov	bond_main.c
tadavis@lbl.gov	bonding.h
tadavis@lbl.gov.	bond_main.c
