(Auvo.Hakkinen@cs.Helsinki.FI)	i2o_proc.c
(Juha.Sievanen@cs.Helsinki.FI),	i2o_proc.c
(greg@kroah.com)	vub300.c
(hp@axis.com)	mmc_spi.c
(jacob.jun.pan@intel.com)	dw_apb_timer.c
(mailto:DL-MPTFusionLinux@lsi.com)	mptbase.c
(mailto:DL-MPTFusionLinux@lsi.com)	mptbase.h
(mailto:DL-MPTFusionLinux@lsi.com)	mptctl.c
(mailto:DL-MPTFusionLinux@lsi.com)	mptctl.h
(mailto:DL-MPTFusionLinux@lsi.com)	mptdebug.h
(mailto:DL-MPTFusionLinux@lsi.com)	mptfc.c
(mailto:DL-MPTFusionLinux@lsi.com)	mptlan.c
(mailto:DL-MPTFusionLinux@lsi.com)	mptlan.h
(mailto:DL-MPTFusionLinux@lsi.com)	mptsas.c
(mailto:DL-MPTFusionLinux@lsi.com)	mptsas.h
(mailto:DL-MPTFusionLinux@lsi.com)	mptscsih.c
(mailto:DL-MPTFusionLinux@lsi.com)	mptscsih.h
(mailto:DL-MPTFusionLinux@lsi.com)	mptspi.c
(san@android.com)	msm_sdcc.c
<Auvo.Hakkinen@cs.Helsinki.FI>	exec-osm.c
<Auvo.Hakkinen@cs.Helsinki.FI>	iop.c
<Auvo.Hakkinen@cs.Helsinki.FI>	pci.c
<Juha.Sievanen@cs.Helsinki.FI>	exec-osm.c
<Juha.Sievanen@cs.Helsinki.FI>	iop.c
<Juha.Sievanen@cs.Helsinki.FI>	pci.c
<Markus.Lidel@shadowconnect.com>	bus-osm.c
<Markus.Lidel@shadowconnect.com>	bus-osm.c
<Markus.Lidel@shadowconnect.com>	config-osm.c
<Markus.Lidel@shadowconnect.com>	config-osm.c
<Markus.Lidel@shadowconnect.com>	core.h
<Markus.Lidel@shadowconnect.com>	core.h
<Markus.Lidel@shadowconnect.com>	core.h
<Markus.Lidel@shadowconnect.com>	core.h
<Markus.Lidel@shadowconnect.com>	device.c
<Markus.Lidel@shadowconnect.com>	device.c
<Markus.Lidel@shadowconnect.com>	i2o_proc.c
<Markus.Lidel@shadowconnect.com>");	bus-osm.c
<Markus.Lidel@shadowconnect.com>");	config-osm.c
<Markus.Lidel@shadowconnect.com>:	exec-osm.c
<Markus.Lidel@shadowconnect.com>:	exec-osm.c
<Markus.Lidel@shadowconnect.com>:	i2o_block.c
<Markus.Lidel@shadowconnect.com>:	i2o_block.h
<Markus.Lidel@shadowconnect.com>:	i2o_config.c
<Markus.Lidel@shadowconnect.com>:	i2o_scsi.c
<Markus.Lidel@shadowconnect.com>:	iop.c
<Markus.Lidel@shadowconnect.com>:	pci.c
<Markus.Lidel@shadowconnect.com>:	pci.c
<X.Xie@freescale.com>	sdhci-of-esdhc.c
<X.Xie@freescale.com>	sdhci-of-hlwd.c
<X.Xie@freescale.com>	sdhci-pltfm.c
<X.Xie@freescale.com>,	sdhci-of-esdhc.c
<alan@lxorguk.ukuu.org.uk>:	exec-osm.c
<alan@lxorguk.ukuu.org.uk>:	i2o_config.c
<alan@lxorguk.ukuu.org.uk>:	iop.c
<alan@lxorguk.ukuu.org.uk>:	pci.c
<alior@marvell.com>	time-armada-370-xp.c
<anarsoul@gmail.com>");	s3c_adc_battery.c
<andreiw@motorola.com>	quirks.c
<andrew@lunn.ch>	clk-gating-ctrl.c
<andrew@lunn.ch>	gpio-poweroff.c
<anish198519851985@gmail.com>	generic-adc-battery.c
<anish198519851985@gmail.com>");	generic-adc-battery.c
<arun.murthy@stericsson.com>	ab8500_btemp.c
<arun.murthy@stericsson.com>	ab8500_charger.c
<arun.murthy@stericsson.com>	ab8500_fg.c
<arun.murthy@stericsson.com>	abx500_chargalg.c
<avorontsov@mvista.com>	sdhci-cns3xxx.c
<avorontsov@mvista.com>");	sdhci-cns3xxx.c
<avorontsov@ru.mvista.com>	of_mmc_spi.c
<avorontsov@ru.mvista.com>	sdhci-of-esdhc.c
<avorontsov@ru.mvista.com>	sdhci-of-hlwd.c
<avorontsov@ru.mvista.com>	sdhci-pltfm.c
<avorontsov@ru.mvista.com>	sdhci-pltfm.h
<avorontsov@ru.mvista.com>");	sdhci-of-esdhc.c
<balajirrao@openmoko.org>	pcf50633-charger.c
<balajirrao@openmoko.org>");	pcf50633-charger.c
<ben-linux@fluff.org>	s3cmci.c
<ben-linux@fluff.org>");	s3cmci.c
<ben@simtec.co.uk>	sdhci-s3c.c
<ben@simtec.co.uk>");	sdhci-s3c.c
<benn@allwinnertech.com>	sunxi_timer.c
<boji.t.kannanthanam@intel.com>	exec-osm.c
<boji.t.kannanthanam@intel.com>	iop.c
<boji.t.kannanthanam@intel.com>	pci.c
<broonie@opensource.wolfsonmicro.com>	clk-wm831x.c
<broonie@opensource.wolfsonmicro.com>	internal.h
<broonie@opensource.wolfsonmicro.com>	regmap-debugfs.c
<broonie@opensource.wolfsonmicro.com>	regmap-i2c.c
<broonie@opensource.wolfsonmicro.com>	regmap-irq.c
<broonie@opensource.wolfsonmicro.com>	regmap-spi.c
<broonie@opensource.wolfsonmicro.com>	regmap.c
<broonie@opensource.wolfsonmicro.com>");	clk-wm831x.c
<broonie@opensource.wolfsonmicro.com>");	wm831x_backup.c
<broonie@opensource.wolfsonmicro.com>");	wm831x_power.c
<bruce.e.robertson@intel.com>	smb347-charger.c
<bruce.e.robertson@intel.com>");	smb347-charger.c
<cbou@mail.ru>	apm_power.c
<cbou@mail.ru>	ds2760_battery.c
<cbou@mail.ru>	pda_power.c
<cbou@mail.ru>	power_supply.h
<cbou@mail.ru>	power_supply_core.c
<cbou@mail.ru>	power_supply_leds.c
<cbou@mail.ru>	power_supply_sysfs.c
<cbou@mail.ru>");	ds2760_battery.c
<cbou@mail.ru>");	pda_power.c
<cbou@mail.ru>");	power_supply_core.c
<cbouatmailru@gmail.com>	test_power.c
<cbouatmailru@gmail.com>");	test_power.c
<daniel.jeong@ti.com>");	lp8727_charger.c
<david.vrabel@csr.com>");	ushc.c
<dchen@diasemi.com>	da9052-battery.c
<dchen@diasemi.com>");	da9052-battery.c
<deepak@plexity.net>	exec-osm.c
<deepak@plexity.net>	iop.c
<deepak@plexity.net>	pci.c
<dilinger@collabora.co.uk>	cs5535-clockevt.c
<dilinger@debian.org>	cs5535-clockevt.c
<dilinger@queued.net>");	cs5535-clockevt.c
<dp@opensource.wolfsonmicro.com>	regcache-lzo.c
<dp@opensource.wolfsonmicro.com>	regcache-rbtree.c
<dp@opensource.wolfsonmicro.com>	regcache.c
<dwang4@marvell.com>	sdhci-pxav2.c
<dwang4@marvell.com>	sdhci-pxav3.c
<dwmw2@infradead.org>	olpc_battery.c
<dwmw2@infradead.org>	pmu_battery.c
<dwmw2@infradead.org>	power_supply_sysfs.c
<dwmw2@infradead.org>	wm8350_power.c
<dwmw2@infradead.org>");	olpc_battery.c
<dwmw2@infradead.org>");	pmu_battery.c
<eugenyboger@dgap.mipt.ru>	apm_power.c
<eugenyboger@dgap.mipt.ru>	apm_power.c
<eugenyboger@dgap.mipt.ru>");	apm_power.c
<g.liakhovetski@gmx.de>	slot-gpio.c
<gerickson@nuovations.com>	ppc4xx_edac.c
<gerickson@nuovations.com>");	ppc4xx_edac.c
<giometti@linux.it>	bq27x00_battery.c
<giometti@linux.it>");	bq27x00_battery.c
<gregkh@suse.de>	core.c
<gregkh@suse.de>	core.c
<gregkh@suse.de>	dd.c
<gregkh@suse.de>	driver.c
<gregkh@suse.de>	driver.c
<gregkh@suse.de>	firmware.c
<gregkh@suse.de>	hypervisor.c
<haojian.zhuang@marvell.com>	88pm860x_battery.c
<haojian.zhuang@marvell.com>	88pm860x_charger.c
<haojian.zhuang@marvell.com>	max8925_power.c
<haveblue@us.ibm.com>	memory.c
<haveblue@us.ibm.com>	memory.c
<info@eurotech.it>	bq27x00_battery.c
<jan.nikitenko@gmail.com>	mmc_spi.c
<jeremy.kerr@canonical.com>	clk-fixed-rate.c
<jeremy.kerr@canonical.com>	clk-gate.c
<jim.cromie@gmail.com>");	scx200_hrt.c
<jm@lentin.co.uk>	gpio-poweroff.c
<jm@lentin.co.uk>");	gpio-poweroff.c
<johan.palsson@stericsson.com>	ab8500_btemp.c
<johan.palsson@stericsson.com>	ab8500_charger.c
<johan.palsson@stericsson.com>	ab8500_fg.c
<johan.palsson@stericsson.com>	abx500_chargalg.c
<jonas.aberg@stericsson.com>	clk-u300.c
<jonghwa3.lee@samsung.com>	clk-max77686.c
<jonghwa3.lee@samsung.com>");	clk-max77686.c
<josh.cartwright@ni.com>	clk-zynq.c
<jtzhou@marvell.com>	88pm860x_battery.c
<jtzhou@marvell.com>	88pm860x_charger.c
<karl.komierowski@stericsson.com>	ab8500_btemp.c
<karl.komierowski@stericsson.com>	ab8500_charger.c
<karl.komierowski@stericsson.com>	ab8500_fg.c
<karl.komierowski@stericsson.com>	abx500_chargalg.c
<kay.sievers@vrfy.org>	devtmpfs.c
<keguang.zhang@gmail.com>	clk-ls1x.c
<kzjeef@gmail.com>	jz4740-battery.c
<lars@metafoo.de>	bq27x00_battery.c
<lars@metafoo.de>	gpio-charger.c
<lars@metafoo.de>	jz4740-battery.c
<lars@metafoo.de>	jz4740_mmc.c
<lars@metafoo.de>");	gpio-charger.c
<lars@metafoo.de>");	jz4740-battery.c
<lars@metafoo.de>");	jz4740_mmc.c
<lee.jones@linaro.org>	soc.c
<linus.walleij@stericsson.com>	clk-u300.c
<linus.walleij@stericsson.com>	clksrc-dbx500-prcmu.c
<linux@brodo.de>	acpi_pm.c
<linux@prisktech.co.nz>	clk-vt8500.c
<madhu.cr@ti.com>	omap_hsmmc.c
<marc.zyngier@arm.com>	arm_generic.c
<marek.vasut@gmail.com>	jz4740-battery.c
<marek.vasut@gmail.com>	wm97xx_battery.c
<marek.vasut@gmail.com>");	wm97xx_battery.c
<markb@marvell.com>	sdhci-pxav3.c
<matthew.e.tolentino@intel.com>	memory.c
<matthew.e.tolentino@intel.com>	memory.c
<mattias.wallin@stericsson.com>	clksrc-dbx500-prcmu.c
<maximlevitsky@gmail.com>");	r592.c
<miguel.ojeda.sandonis@gmail.com>");	cfag12864b.c
<miguel.ojeda.sandonis@gmail.com>");	cfag12864bfb.c
<miguel.ojeda.sandonis@gmail.com>");	ks0108.c
<mika.westerberg@linux.intel.com>	smb347-charger.c
<mika.westerberg@linux.intel.com>");	smb347-charger.c
<mike@compulab.co.il>	da9030_battery.c
<mike@compulab.co.il>	sdhci-dove.c
<mike@compulab.co.il>");	sdhci-dove.c
<milo.kim@ti.com>	lp8788-charger.c
<milo.kim@ti.com>,	lp8727_charger.c
<mirq-linux@rere.qmqm.pl>");	cb710-mmc.c
<mj@ucw.cz>	quirks.c
<mjalori@ti.com>	omap_hsmmc.c
<mk7.kang@samsung.com>	max17040_battery.c
<mk7.kang@samsung.com>");	max17040_battery.c
<mreimer@vpop.net>	ds2760_battery.c
<mreimer@vpop.net>,	ds2760_battery.c
<mturquette@linaro.org>	clk-divider.c
<mturquette@linaro.org>	clk-fixed-rate.c
<mturquette@linaro.org>	clk-gate.c
<mturquette@linaro.org>	clk-mux.c
<mwwang@marvell.com>	sdhci-pxav3.c
<myungjoo.ham@samsung.com>	charger-manager.c
<myungjoo.ham@samsung.com>	max17042_battery.c
<myungjoo.ham@samsung.com>	max8903_charger.c
<myungjoo.ham@samsung.com>	max8997_charger.c
<myungjoo.ham@samsung.com>	max8998_charger.c
<myungjoo.ham@samsung.com>");	charger-manager.c
<myungjoo.ham@samsung.com>");	max17042_battery.c
<myungjoo.ham@samsung.com>");	max8903_charger.c
<myungjoo.ham@samsung.com>");	max8997_charger.c
<myungjoo.ham@samsung.com>");	max8998_charger.c
<nithish.mahalingam@intel.com>	intel_mid_battery.c
<nithish.mahalingam@intel.com>");	intel_mid_battery.c
<njun@marvell.com>	sdhci-pxav2.c
<notasas@gmail.com>	twl4030_charger.c
<oakad@yahoo.com>	jmb38x_ms.c
<oakad@yahoo.com>	memstick.c
<oakad@yahoo.com>	mspro_block.c
<oakad@yahoo.com>	tifm_ms.c
<oakad@yahoo.com>	tifm_sd.c
<pali.rohar@gmail.com>	bq2415x_charger.c
<pali.rohar@gmail.com>	bq27x00_battery.c
<pali.rohar@gmail.com>	rx51_battery.c
<pali.rohar@gmail.com>");	bq2415x_charger.c
<pali.rohar@gmail.com>");	rx51_battery.c
<pb@handhelds.org>,	sh_mobile_sdhi.c
<peter.ujfalusi@ti.com>	clk-twl6040.c
<peter.ujfalusi@ti.com>");	clk-twl6040.c
<pierre@ossman.eu>");	sdhci-pci.c
<pierre@ossman.eu>");	sdhci.c
<pierre@ossman.eu>");	wbsd.c
<ppisa@pikron.com>	mxcmmc.c
<prakity@marvell.com>	sdhci-pxav2.c
<prakity@marvell.com>	sdhci-pxav3.c
<renata@oktetlabs.ru>	ds2781_battery.c
<renata@oktetlabs.ru>");	ds2781_battery.c
<richard.zhao@linaro.org>	clk-divider.c
<richard.zhao@linaro.org>	clk-mux.c
<rjw@sisk.pl>,	clock_ops.c
<rjw@sisk.pl>,	common.c
<rjw@sisk.pl>,	domain.c
<rjw@sisk.pl>,	domain_governor.c
<rjw@sisk.pl>,	generic_ops.c
<rjw@sisk.pl>,	runtime.c
<rjw@sisk.pl>,	syscore.c
<rjw@sisk.pl>,	wakeup.c
<s.hauer@pengutronix.de>	clk-divider.c
<s.hauer@pengutronix.de>	clk-fixed-factor.c
<s.hauer@pengutronix.de>	clk-mux.c
<s.hauer@pengutronix.de>	mxcmmc.c
<saeed@marvell.com>	sdhci-dove.c
<saeed@marvell.com>,	sdhci-dove.c
<sameo@openedhand.com>	sh_mobile_sdhi.c
<saschasommer@freenet.de>	sdricoh_cs.c
<saschasommer@freenet.de>");	sdricoh_cs.c
<sebastian.hesselbarth@gmail.com>	clk-core.c
<sebastian.hesselbarth@gmail.com>	clk-gating-ctrl.c
<shashidharh@vayavyalabs.com>");	dw_mmc-pci.c
<spyro@f2s.com>	power_supply.h
<spyro@f2s.com>	power_supply_core.c
<spyro@f2s.com>	power_supply_leds.c
<spyro@f2s.com>	power_supply_sysfs.c
<spyro@f2s.com>");	tmio_mmc.c
<spyro@f2s.com>,	power_supply_core.c
<stern@rowland.harvard.edu>	runtime.c
<sweetlilmre@gmail.com>	z2_battery.c
<sweetlilmre@gmail.com>");	z2_battery.c
<szabolcs.gyurko@tlt.hu>	ds2760_battery.c
<szabolcs.gyurko@tlt.hu>,	ds2760_battery.c
<tardyp@gmail.com>	quirks.c
<teheo@suse.de>	dma-mapping.c
<thara@ti.com>	smartreflex.c
<thara@ti.com>	smartreflex.c
<thomas.ab@samsung.com");	dw_mmc-exynos.c
<tim@buttersideup.com>	r82600_edac.c
<tim@buttersideup.com>,	r82600_edac.c
<tk@maintech.de>	s3cmci.c
<tk@maintech.de>,	s3cmci.c
<tony.olech@elandigitalsystems.com>");	vub300.c
<tony@atomide.com>	omap.c
<ulf.hansson@linaro.org");	abx500-clk.c
<ulf.hansson@linaro.org>	abx500-clk.c
<ulf.hansson@linaro.org>	clk-prcc.c
<ulf.hansson@linaro.org>	clk-prcmu.c
<ulf.hansson@linaro.org>	u8500_clk.c
<ulf.hansson@linaro.org>	u8540_clk.c
<ulf.hansson@linaro.org>	u9540_clk.c
<vilensky@compulab.co.il>	ds2782_battery.c
<viresh.linux@gmail.com>	clk-aux-synth.c
<viresh.linux@gmail.com>	clk-frac-synth.c
<viresh.linux@gmail.com>	clk-gpt-synth.c
<viresh.linux@gmail.com>	clk-vco-pll.c
<viresh.linux@gmail.com>	sdhci-spear.c
<viresh.linux@gmail.com>	spear1310_clock.c
<viresh.linux@gmail.com>	spear1340_clock.c
<viresh.linux@gmail.com>	spear3xx_clock.c
<viresh.linux@gmail.com>	spear6xx_clock.c
<viresh.linux@gmail.com>");	sdhci-spear.c
<w.sang@pengutronix.de>	sdhci-esdhc-imx.c
<w.sang@pengutronix.de>	sdhci-esdhc.h
<w.sang@pengutronix.de>");	sdhci-esdhc-imx.c
<wei_wang@realsil.com.cn>	rtsx_pci_ms.c
<wei_wang@realsil.com.cn>	rtsx_pci_sdmmc.c
<wei_wang@realsil.com.cn>");	rtsx_pci_ms.c
<wei_wang@realsil.com.cn>");	rtsx_pci_sdmmc.c
<wuqm@marvell.com>	sdhci-pxav2.c
<x0080970@ti.com>	smartreflex.c
<x0khasim@ti.com>	omap_hsmmc.c
<xiechao.mail@gmail.com>	clk-apbc.c
<xiechao.mail@gmail.com>	clk-apmu.c
<xiechao.mail@gmail.com>	clk-frac.c
<xiechao.mail@gmail.com>	clk-frac.c
<xiechao.mail@gmail.com>	clk-mmp2.c
<xiechao.mail@gmail.com>	clk-pxa168.c
<xiechao.mail@gmail.com>	clk-pxa910.c
<yokota@pylone.jp>	test_power.c
<yusuke.goda.sx@renesas.com>	sh_mmcif.c
<yusuke.goda.sx@renesas.com>");	sh_mmcif.c
<zhangfei.gao@marvell.com>	sdhci-pxav2.c
<zhangfei.gao@marvell.com>	sdhci-pxav3.c
Saxena(deepak@plexity.net)	i2o_proc.c
Yrjölä<juha.yrjola@nokia.com>	omap.c
