"<laurent.pinchart@ideasonboard.com>"	uvc_driver.c
"<linux-media@vger.kernel.org>.\n",	anysee.c
"<luca.risolia@studio.unibo.it>"	sn9c102_core.c
(640x480@7.5	sonixb.c
(ademol@dibcom.fr)	dibusb-mb.c
(ademol@dibcom.fr)	dibusb-mc.c
(aet@rasterburn.org)	m920x.c
(alannisota@gmail.com)	gp8psk-fe.c
(alannisota@gmail.com)	gp8psk.c
(alannisota@gmail.com)	gp8psk.h
(alannisota@gmail.com)	gp8psk.h
(anders.blomdell@control.lth.se)	topro.c
(c.pascoe@itee.uq.edu.au)	cxusb.c
(ccheney@cheney.cx),	vicam.c
(david.cohen@indt.org.br)	tcm825x.h
(dh1pa@amsat.org)	opera1.c
(eric_sandeen@bigfoot.com)	tvaudio.c
(g.marco@freenet.de)	opera1.c
(galexand@acm.org)	tvaudio.c
(greg@kroah.com)	hdpvr-core.c
(j@jannau.net)	hdpvr-control.c
(j@jannau.net)	hdpvr-core.c
(j@jannau.net)	hdpvr-i2c.c
(j@jannau.net)	hdpvr-video.c
(j@jannau.net)	hdpvr.h
(jburks@wavicle.org),	vicam.c
(jtyner@cs.ucr.edu),	vicam.c
(kjsisson@bellsouth.net)	stv0680.c
(lafeuil@gmail.com)	topro.c
(laurent.pinchart@ideasonboard.com)	uvc_ctrl.c
(laurent.pinchart@ideasonboard.com)	uvc_debugfs.c
(laurent.pinchart@ideasonboard.com)	uvc_driver.c
(laurent.pinchart@ideasonboard.com)	uvc_entity.c
(laurent.pinchart@ideasonboard.com)	uvc_queue.c
(laurent.pinchart@ideasonboard.com)	uvc_status.c
(laurent.pinchart@ideasonboard.com)	uvc_v4l2.c
(laurent.pinchart@ideasonboard.com)	uvc_video.c
(liplianin@me.by)	dw2102.c
(luc@saillard.org)	pwc-ctrl.c
(luc@saillard.org)	pwc-dec1.c
(luc@saillard.org)	pwc-dec1.h
(luc@saillard.org)	pwc-dec23.c
(luc@saillard.org)	pwc-dec23.h
(luc@saillard.org)	pwc-if.c
(luc@saillard.org)	pwc-kiara.c
(luc@saillard.org)	pwc-kiara.h
(luc@saillard.org)	pwc-misc.c
(luc@saillard.org)	pwc-timon.c
(luc@saillard.org)	pwc-timon.h
(luc@saillard.org)	pwc-uncompress.c
(luc@saillard.org)	pwc-v4l.c
(luc@saillard.org)	pwc.h
(luca@ventoso.org)	af9005-fe.c
(luca@ventoso.org)	af9005-remote.c
(luca@ventoso.org)	af9005.c
(luca@ventoso.org)	af9005.h
(mchehab@infradead.org),	tvp7002.c
(mchehab@redhat.com)	mt9v011.c
(mkrufky@kernellabs.com)	mxl111sf.c
(mkrufky@kernellabs.com)	mxl111sf.h
(mkrufky@linuxtv.org)	cxusb.c
(mocm@thp.uni-koeln.de)	tveeprom.c
(monroe@pobox.com)	vicam.c
(patrick.boettcher@desy.de)	a800.c
(patrick.boettcher@desy.de)	cxusb.c
(patrick.boettcher@desy.de)	cypress_firmware.c
(patrick.boettcher@desy.de)	cypress_firmware.h
(patrick.boettcher@desy.de)	dibusb-common.c
(patrick.boettcher@desy.de)	dibusb-mb.c
(patrick.boettcher@desy.de)	dibusb-mc.c
(patrick.boettcher@desy.de)	dibusb.h
(patrick.boettcher@desy.de)	digitv.c
(patrick.boettcher@desy.de)	dtt200u.c
(patrick.boettcher@desy.de)	dtt200u.h
(patrick.boettcher@desy.de)	dvb-usb-common.h
(patrick.boettcher@desy.de)	dvb-usb-dvb.c
(patrick.boettcher@desy.de)	dvb-usb-firmware.c
(patrick.boettcher@desy.de)	dvb-usb-i2c.c
(patrick.boettcher@desy.de)	dvb-usb-init.c
(patrick.boettcher@desy.de)	dvb-usb-remote.c
(patrick.boettcher@desy.de)	dvb-usb-urb.c
(patrick.boettcher@desy.de)	dvb-usb.h
(patrick.boettcher@desy.de)	nova-t-usb2.c
(patrick.boettcher@desy.de)	umt-010.c
(patrick.boettcher@desy.de)	usb-urb.c
(patrick.boettcher@desy.de)	usb_urb.c
(patrick.boettcher@desy.de)	vp7045-fe.c
(patrick.boettcher@desy.de)	vp7045.c
(patrick.boettcher@desy.de)	vp7045.h
(pavel@ucw.cz),	vicam.c
(pe1rxq@amsat.org)	se401.c
(rjkm@thp.uni-koeln.de)	tveeprom.c
(skalamandra@poczta.onet.pl)	spca505.c
(tomimo@ncircle.nullnet.fi)	cinergyT2-core.c
(tomimo@ncircle.nullnet.fi)	cinergyT2-fe.c
(tomimo@ncircle.nullnet.fi)	cinergyT2.h
(tvboxspy@gmail.com)	it913x.c
(tvboxspy@gmail.com)	lmedm04.c
(vandebo@uclink.berkeley.edu)	tda7432.c
(vandebo@uclink.berkeley.edu)	tvaudio.c
<Adams.xu@azwave.com.cn>");	az6027.c
<Andre.Weidemann@web.de>");	pctv452e.c
<DwaineGarden@rogers.com>"	usbvision-video.c
<Henry.wang@AzureWave.com>	az6007.c
<Henry.wang@AzureWave.com>");	az6007.c
<Serge.A.S@tochka.ru>");	zc3xx.c
<adams.xu@azwave.com.cn>	az6027.c
<aet@rasterburn.org>");	m920x.c
<alannisota@gamil.com>");	gp8psk.c
<anders.blomdell@control.lth.se>");	topro.c
<aoanla@yahoo.com>	ov519.c
<aurel@gnuage.org>	mr97310a.c
<awalls@md.metrocast.net>	hdpvr-i2c.c
<bear24rw@gmail.com>	ov534.c
<bradlch@hotmail.com>	mars.c
<brijohn@gmail.com>	sn9c20x.c
<brijohn@gmail.com>,	sn9c20x.c
<bwallac1@san.rr.com>	ov519.c
<c.pascoe@itee.uq.edu.au>");	cxusb.c
<claudio@conectiva.com>	ov519.c
<comabug@gmail.com>");	gl861.c
<corbet@lwn.net>	tw9910.c
<cpbotha@ieee.org>	ov519.c
<crope@iki.fi>	af9015.c
<crope@iki.fi>	af9015.h
<crope@iki.fi>	af9035.c
<crope@iki.fi>	af9035.c
<crope@iki.fi>	af9035.h
<crope@iki.fi>	af9035.h
<crope@iki.fi>	anysee.c
<crope@iki.fi>	anysee.h
<crope@iki.fi>	au6610.c
<crope@iki.fi>	au6610.h
<crope@iki.fi>	ce6230.c
<crope@iki.fi>	ce6230.h
<crope@iki.fi>	dvb_usb.h
<crope@iki.fi>	dvb_usb_common.h
<crope@iki.fi>	dvb_usb_core.c
<crope@iki.fi>	dvb_usb_urb.c
<crope@iki.fi>	ec168.c
<crope@iki.fi>	ec168.h
<crope@iki.fi>	rtl28xxu.c
<crope@iki.fi>	rtl28xxu.c
<crope@iki.fi>	rtl28xxu.h
<crope@iki.fi>	rtl28xxu.h
<crope@iki.fi>");	af9015.c
<crope@iki.fi>");	af9035.c
<crope@iki.fi>");	anysee.c
<crope@iki.fi>");	au6610.c
<crope@iki.fi>");	ce6230.c
<crope@iki.fi>");	cypress_firmware.c
<crope@iki.fi>");	dvb_usb_core.c
<crope@iki.fi>");	ec168.c
<crope@iki.fi>");	rtl28xxu.c
<daniel-gl@gmx.net>	af9035.c
<daniel@qanu.de>	cinergyT2-core.c
<daniel@qanu.de>	cinergyT2-fe.c
<daniel@qanu.de>	cinergyT2.h
<darekk@automex.pl>	tvaudio.c
<david.cohen@indt.org.br>	tcm825x.c
<dkuhlen@gmx.net>	pctv452e.c
<dkuhlen@gmx.net>");	pctv452e.c
<dongsoo45.kim@samsung.com>	s5k6aa.c
<dperks@ibm.net>	adv7170.c
<dwainegarden@rogers.com>	usbvision-core.c
<dwainegarden@rogers.com>	usbvision-i2c.c
<dwainegarden@rogers.com>	usbvision.h
<elyk03@gmail.com>	mr97310a.c
<elyk03@gmail.com>,"	mr97310a.c
<eric_sandeen@bigfoot.com>	tda7432.c
<eric_sandeen@bigfoot.com>");	tda7432.c
<erodrig_97@yahoo.com>	mr97310a.c
<frank@zago.net>");	finepix.c
<g.liakhovetski@gmx.de>	ak881x.c
<g.liakhovetski@gmx.de>	mt9p031.c
<g.liakhovetski@gmx.de>");	ak881x.c
<hans.verkuil@cisco.com>");	ad9389b.c
<hdegoede@redhat.com>	autogain_functions.c
<hdegoede@redhat.com>	autogain_functions.h
<hdegoede@redhat.com>	cpia1.c
<hdegoede@redhat.com>	konica.c
<hdegoede@redhat.com>	mr97310a.c
<hdegoede@redhat.com>	mr97310a.c
<hdegoede@redhat.com>	ov519.c
<hdegoede@redhat.com>	pwc-ctrl.c
<hdegoede@redhat.com>	pwc-if.c
<hdegoede@redhat.com>	pwc-v4l.c
<hdegoede@redhat.com>	se401.c
<hdegoede@redhat.com>	stv0680.c
<hdegoede@redhat.com>	vicam.c
<hdegoede@redhat.com>	w996Xcf.c
<hdegoede@redhat.com>	xirlink_cit.c
<hdegoede@redhat.com>");	cpia1.c
<hdegoede@redhat.com>");	konica.c
<hdegoede@redhat.com>");	se401.c
<hdegoede@redhat.com>");	stv0680.c
<hdegoede@redhat.com>");	vicam.c
<hdegoede@redhat.com>");	xirlink_cit.c
<hechtb@gmail.com>");	mt9p031.c
<holger@convergence.de>	dvb-ttusb-budget.c
<holger@convergence.de>	ttusb2.c
<holger@convergence.de>	ttusb2.h
<holger@convergence.de>");	dvb-ttusb-budget.c
<holger@qanu.de>	cinergyT2-core.c
<holger@qanu.de>	cinergyT2-fe.c
<holger@qanu.de>	cinergyT2.h
<hvaibhav@ti.com>	tvp7002.c
<hverkuil@xs4all.nl>	cx2341x.c
<hverkuil@xs4all.nl>	tea6420.c
<hverkuil@xs4all.nl>	vp27smpx.c
<hverkuil@xs4all.nl>	wm8775.c
<isely@pobox.com>	pvrusb2-audio.c
<isely@pobox.com>	pvrusb2-audio.h
<isely@pobox.com>	pvrusb2-context.c
<isely@pobox.com>	pvrusb2-context.h
<isely@pobox.com>	pvrusb2-cs53l32a.c
<isely@pobox.com>	pvrusb2-cs53l32a.h
<isely@pobox.com>	pvrusb2-ctrl.c
<isely@pobox.com>	pvrusb2-ctrl.h
<isely@pobox.com>	pvrusb2-cx2584x-v4l.c
<isely@pobox.com>	pvrusb2-cx2584x-v4l.h
<isely@pobox.com>	pvrusb2-debug.h
<isely@pobox.com>	pvrusb2-debugifc.c
<isely@pobox.com>	pvrusb2-debugifc.h
<isely@pobox.com>	pvrusb2-devattr.c
<isely@pobox.com>	pvrusb2-devattr.h
<isely@pobox.com>	pvrusb2-eeprom.c
<isely@pobox.com>	pvrusb2-eeprom.h
<isely@pobox.com>	pvrusb2-encoder.c
<isely@pobox.com>	pvrusb2-encoder.c
<isely@pobox.com>	pvrusb2-encoder.h
<isely@pobox.com>	pvrusb2-hdw-internal.h
<isely@pobox.com>	pvrusb2-hdw.c
<isely@pobox.com>	pvrusb2-hdw.c
<isely@pobox.com>	pvrusb2-hdw.h
<isely@pobox.com>	pvrusb2-i2c-core.c
<isely@pobox.com>	pvrusb2-i2c-core.c
<isely@pobox.com>	pvrusb2-i2c-core.h
<isely@pobox.com>	pvrusb2-io.c
<isely@pobox.com>	pvrusb2-io.h
<isely@pobox.com>	pvrusb2-ioread.c
<isely@pobox.com>	pvrusb2-ioread.h
<isely@pobox.com>	pvrusb2-main.c
<isely@pobox.com>	pvrusb2-std.c
<isely@pobox.com>	pvrusb2-std.h
<isely@pobox.com>	pvrusb2-sysfs.c
<isely@pobox.com>	pvrusb2-sysfs.h
<isely@pobox.com>	pvrusb2-util.h
<isely@pobox.com>	pvrusb2-v4l2.c
<isely@pobox.com>	pvrusb2-v4l2.h
<isely@pobox.com>	pvrusb2-video-v4l.c
<isely@pobox.com>	pvrusb2-video-v4l.h
<isely@pobox.com>	pvrusb2-wm8775.c
<isely@pobox.com>	pvrusb2-wm8775.h
<isely@pobox.com>	pvrusb2.h
<isely@pobox.com>"	pvrusb2-hdw.c
<isely@pobox.com>"	pvrusb2-main.c
<j.w.r.degoede@hhs.nl>	pac_common.h
<jim@jtan.com>	ov534.c
<jim@jtan.com>	ov534.c
<jim@jtan.com>	ov534_9.c
<jim@jtan.com>	ov534_9.c
<jisom@ematic.com>	tda7432.c
<johannes@erdfelt.com>	cpia1.c
<kangyong@telegent.com>	pd-main.c
<kazz-0@mail.goo.ne.jp>	vp27smpx.c
<kernel@pengutronix.de>	mt9t001.c
<kernel@pengutronix.de>	tw9910.c
<keyson@users.sourceforge.net>	nw80x.c
<kilgota@auburn.edu>	mr97310a.c
<kilgota@auburn.edu>	mr97310a.c
<kilgota@auburn.edu>	mr97310a.c
<kilgota@auburn.edu>	sn9c2028.c
<kilgota@auburn.edu>");	jeilinj.c
<kilgota@auburn.edu>");	mr97310a.c
<kilgota@auburn.edu>");	sq905.c
<kilgota@auburn.edu>");	sq905c.c
<kraxel@bytesex.org>	btcx-risc.c
<kraxel@goldbach.in-berlin.de>	tveeprom.c
<laurent.pinchart@ideasonboard.com>	as3645a.c
<laurent.pinchart@ideasonboard.com>	mt9p031.c
<laurent.pinchart@ideasonboard.com>	mt9t001.c
<laurent.pinchart@ideasonboard.com>	uvc_isight.c
<laurent.pinchart@ideasonboard.com>");	as3645a.c
<laurent.pinchart@ideasonboard.com>");	mt9t001.c
<le_costantino@pixartargentina.com.ar>");	t613.c
<lg@denx.de>	mt9t031.c
<lg@denx.de>");	mt9t031.c
<lg@jfm.bc.ca>	ov519.c
<linux-dvb@giblets.org>	ttusb_dec.c
<linux-dvb@giblets.org>	ttusbdecfe.c
<linux-dvb@giblets.org>	ttusbdecfe.h
<linux-dvb@giblets.org>");	ttusb_dec.c
<luc@saillard.org>");	pwc-if.c
<luc@saillard.org>.	pwc-ctrl.c
<luc@saillard.org>.	pwc-ctrl.c
<luc@saillard.org>.	pwc-dec1.c
<luc@saillard.org>.	pwc-dec1.h
<luc@saillard.org>.	pwc-dec23.c
<luc@saillard.org>.	pwc-dec23.h
<luc@saillard.org>.	pwc-if.c
<luc@saillard.org>.	pwc-kiara.c
<luc@saillard.org>.	pwc-kiara.h
<luc@saillard.org>.	pwc-misc.c
<luc@saillard.org>.	pwc-timon.c
<luc@saillard.org>.	pwc-timon.h
<luc@saillard.org>.	pwc-uncompress.c
<luc@saillard.org>.	pwc-v4l.c
<luc@saillard.org>.	pwc.h
<luca.risolia@studio.unibo.it>	sn9c102.h
<luca.risolia@studio.unibo.it>	sn9c102_config.h
<luca.risolia@studio.unibo.it>	sn9c102_core.c
<luca.risolia@studio.unibo.it>	sn9c102_devtable.h
<luca.risolia@studio.unibo.it>	sn9c102_hv7131d.c
<luca.risolia@studio.unibo.it>	sn9c102_hv7131r.c
<luca.risolia@studio.unibo.it>	sn9c102_mi0343.c
<luca.risolia@studio.unibo.it>	sn9c102_mi0360.c
<luca.risolia@studio.unibo.it>	sn9c102_mt9v111.c
<luca.risolia@studio.unibo.it>	sn9c102_ov7630.c
<luca.risolia@studio.unibo.it>	sn9c102_ov7660.c
<luca.risolia@studio.unibo.it>	sn9c102_pas106b.c
<luca.risolia@studio.unibo.it>	sn9c102_pas202bcb.c
<luca.risolia@studio.unibo.it>	sn9c102_sensor.h
<luca.risolia@studio.unibo.it>	sn9c102_tas5110c1b.c
<luca.risolia@studio.unibo.it>	sn9c102_tas5110d.c
<luca.risolia@studio.unibo.it>	sn9c102_tas5130d1b.c
<luca.risolia@studio.unibo.it>	w996Xcf.c
<luca.risolia@studio.unibo.it>",	sn9c102_hv7131d.c
<luca.risolia@studio.unibo.it>",	sn9c102_hv7131r.c
<luca.risolia@studio.unibo.it>",	sn9c102_mi0343.c
<luca.risolia@studio.unibo.it>",	sn9c102_mi0360.c
<luca.risolia@studio.unibo.it>",	sn9c102_mt9v111.c
<luca.risolia@studio.unibo.it>",	sn9c102_ov7630.c
<luca.risolia@studio.unibo.it>",	sn9c102_ov7660.c
<luca.risolia@studio.unibo.it>",	sn9c102_pas106b.c
<luca.risolia@studio.unibo.it>",	sn9c102_pas202bcb.c
<luca.risolia@studio.unibo.it>",	sn9c102_tas5110c1b.c
<luca.risolia@studio.unibo.it>",	sn9c102_tas5110d.c
<luca.risolia@studio.unibo.it>",	sn9c102_tas5130d1b.c
<luca@ventoso.org>");	af9005-remote.c
<luca@ventoso.org>");	af9005.c
<m5602@x3ng.com.br>	m5602_bridge.h
<m5602@x3ng.com.br>	m5602_core.c
<m5602@x3ng.com.br>	m5602_mt9m111.c
<m5602@x3ng.com.br>	m5602_mt9m111.h
<m5602@x3ng.com.br>	m5602_ov7660.c
<m5602@x3ng.com.br>	m5602_ov7660.h
<m5602@x3ng.com.br>	m5602_ov9650.c
<m5602@x3ng.com.br>	m5602_ov9650.h
<m5602@x3ng.com.br>	m5602_po1030.c
<m5602@x3ng.com.br>	m5602_po1030.h
<m5602@x3ng.com.br>	m5602_s5k4aa.c
<m5602@x3ng.com.br>	m5602_s5k4aa.h
<m5602@x3ng.com.br>	m5602_s5k83a.c
<m5602@x3ng.com.br>	m5602_s5k83a.h
<m5602@x3ng.com.br>	m5602_sensor.h
<majortrips@gmail.com>	ov534.c
<majortrips@gmail.com>	ov534_9.c
<maramaopercheseimorto@gmail.com>	ov2640.c
<marbugge@cisco.com>");	ad9389b.c
<marek.vasut@gmail.com>	ov9640.h
<max@linuxmedialabs.com>	adv7170.c
<mchehab@infradead.org>	saa711x_regs.h
<mchehab@infradead.org>	tda7432.c
<mchehab@infradead.org>	tm6000-cards.c
<mchehab@infradead.org>	tm6000-core.c
<mchehab@infradead.org>	tm6000-i2c.c
<mchehab@infradead.org>	tm6000-regs.h
<mchehab@infradead.org>	tm6000-usb-isoc.h
<mchehab@infradead.org>	tm6000-video.c
<mchehab@infradead.org>	tm6000.h
<mchehab@infradead.org>	zc3xx-reg.h
<mchehab@redhat.com>	az6007.c
<mchehab@redhat.com>	tm6000-alsa.c
<mchehab@redhat.com>	tm6000-stds.c
<mchehab@redhat.com>");	az6007.c
<mchehab@redhat.com>");	mt9v011.c
<mchehab@redhat.com>");	tm6000-alsa.c
<mchehab@redhat.com>");	tm6000-dvb.c
<medaglia@undl.org.br>	sn9c102_pas202bcb.c
<michael@mihu.de>	tea6420.c
<michael@mihu.de>");	tea6420.c
<michel.ludwig@gmail.com>	tm6000-core.c
<michel.ludwig@gmail.com>	tm6000-dvb.c
<michel.ludwig@gmail.com>	tm6000-i2c.c
<michel.ludwig@gmail.com>	tm6000-video.c
<michel.ludwig@gmail.com>	tm6000.h
<microdia@googlegroups.com>	sn9c20x.c
<microdia@googlegroups.com>");	sn9c20x.c
<mirsev@cicese.mx>	adv7170.c
<mkrufky@kernellabs.com>	mxl111sf-demod.c
<mkrufky@kernellabs.com>	mxl111sf-demod.h
<mkrufky@kernellabs.com>	mxl111sf-gpio.c
<mkrufky@kernellabs.com>	mxl111sf-gpio.h
<mkrufky@kernellabs.com>	mxl111sf-i2c.c
<mkrufky@kernellabs.com>	mxl111sf-i2c.h
<mkrufky@kernellabs.com>	mxl111sf-phy.c
<mkrufky@kernellabs.com>	mxl111sf-phy.h
<mkrufky@kernellabs.com>	mxl111sf-reg.h
<mkrufky@kernellabs.com>	mxl111sf-tuner.c
<mkrufky@kernellabs.com>	mxl111sf-tuner.h
<mkrufky@kernellabs.com>");	mxl111sf-demod.c
<mkrufky@kernellabs.com>");	mxl111sf-tuner.c
<mkrufky@kernellabs.com>");	mxl111sf.c
<mkrufky@linuxtv.org>	pvrusb2-dvb.c
<mkrufky@linuxtv.org>	pvrusb2-fx2-cmd.h
<mkrufky@linuxtv.org>");	cxusb.c
<moinejf@free.fr>	ov519.c
<moinejf@free.fr>");	ov534_9.c
<morimoto.kuninori@renesas.com>	tw9910.c
<morimoto.kuninori@renesas.com>	tw9910.c
<mschimek@gmx.at>	pctv452e.c
<mschimek@gmx.at>");	pctv452e.c
<mxhaard@users.sourceforge.net>");	conex.c
<mxhaard@users.sourceforge.net>");	mars.c
<mxhaard@users.sourceforge.net>");	spca500.c
<mxhaard@users.sourceforge.net>");	spca501.c
<mxhaard@users.sourceforge.net>");	spca505.c
<mxhaard@users.sourceforge.net>");	spca506.c
<mxhaard@users.sourceforge.net>");	spca561.c
<mxhaard@users.sourceforge.net>");	sunplus.c
<mxhaard@users.sourceforge.net>");	tv8532.c
<nm127@freemail.hu>	gspca.c
<nm127@freemail.hu>	pac7302.c
<nm127@freemail.hu>	pac7302.c
<o.lorin@laposte.net>	gl860.c
<o.lorin@laposte.net>	gl860.h
<o.lorin@laposte.net>");	gl860.c
<olawlor@acm.org>	ov519.c
<ospite@studenti.unina.it>	kinect.c
<ospite@studenti.unina.it>	ov534.c
<ospite@studenti.unina.it>	ov534_9.c
<ospite@studenti.unina.it>");	kinect.c
<ospite@studenti.unina.it>");	ov534.c
<p.beutner@gmx.net>	ttusb_dec.c
<patrick.boettcher@desy.de>	dtt200u-fe.c
<patrick.boettcher@desy.de>	dvb_usb.h
<patrick.boettcher@desy.de>	dvb_usb_common.h
<patrick.boettcher@desy.de>	dvb_usb_core.c
<patrick.boettcher@desy.de>	dvb_usb_urb.c
<patrick.boettcher@desy.de>	vp702x-fe.c
<patrick.boettcher@desy.de>	vp702x.c
<patrick.boettcher@desy.de>"	flexcop-usb.c
<patrick.boettcher@desy.de>");	a800.c
<patrick.boettcher@desy.de>");	cxusb.c
<patrick.boettcher@desy.de>");	dibusb-mb.c
<patrick.boettcher@desy.de>");	dibusb-mc.c
<patrick.boettcher@desy.de>");	digitv.c
<patrick.boettcher@desy.de>");	dtt200u.c
<patrick.boettcher@desy.de>");	dvb-usb-init.c
<patrick.boettcher@desy.de>");	dvb_usb_core.c
<patrick.boettcher@desy.de>");	nova-t-usb2.c
<patrick.boettcher@desy.de>");	ttusb2.c
<patrick.boettcher@desy.de>");	umt-010.c
<patrick.boettcher@desy.de>");	vp702x.c
<patrick.boettcher@desy.de>");	vp7045.c
<pb@linuxtv.de>	ttusb2.h
<pb@linuxtv.org>	ttusb2.c
<pboettcher@dibcom.fr>");	dib0700_core.c
<pboettcher@kernellabs.com>");	technisat-usb2.c
<rbultje@ronald.bitfreak.net>	adv7170.c
<riverful.kim@samsung.com>.	noon010pc30.c
<rjkm@metzlerbros.de>	vp702x-fe.c
<rjkm@metzlerbros.de>	vp702x.c
<robert.jarzmik@free.fr>	m5602_mt9m111.h
<robert.jarzmik@free.fr>	mt9m111.c
<royale@zerezo.com>	dtv5100.c
<royale@zerezo.com>	dtv5100.h
<royale@zerezo.com>	zr364xx.c
<s.nawrocki@samsung.com>	noon010pc30.c
<s.nawrocki@samsung.com>	s5k6aa.c
<s.nawrocki@samsung.com>");	noon010pc30.c
<s.nawrocki@samsung.com>");	s5k6aa.c
<sakari.ailus@iki.fi>	smiapp-core.c
<sakari.ailus@iki.fi>	smiapp-core.c
<sakari.ailus@iki.fi>	smiapp-limits.c
<sakari.ailus@iki.fi>	smiapp-limits.h
<sakari.ailus@iki.fi>	smiapp-quirk.c
<sakari.ailus@iki.fi>	smiapp-quirk.h
<sakari.ailus@iki.fi>	smiapp-reg-defs.h
<sakari.ailus@iki.fi>	smiapp-reg.h
<sakari.ailus@iki.fi>	smiapp-regs.c
<sakari.ailus@iki.fi>	smiapp-regs.h
<sakari.ailus@iki.fi>	smiapp.h
<sakari.ailus@iki.fi>");	smiapp-core.c
<sakari.ailus@nokia.com>	tcm825x.c
<sakari.ailus@nokia.com>");	tcm825x.c
<samr7@cs.washington.edu>	sq930x.c
<samr7@cs.washington.edu>");	sq930x.c
<santiago.nunez@ridgerun.com>	tvp7002.c
<santiago.nunez@ridgerun.com>");	tvp7002.c
<scherr@net4you.net>	adv7170.c
<shijie8@gmail.com>	pd-main.c
<slts@free.fr>	pvrusb2-audio.c
<slts@free.fr>	pvrusb2-audio.h
<slts@free.fr>	pvrusb2-cs53l32a.c
<slts@free.fr>	pvrusb2-cs53l32a.h
<slts@free.fr>	pvrusb2-cx2584x-v4l.c
<slts@free.fr>	pvrusb2-cx2584x-v4l.h
<slts@free.fr>	pvrusb2-eeprom.c
<slts@free.fr>	pvrusb2-eeprom.h
<slts@free.fr>	pvrusb2-encoder.c
<slts@free.fr>	pvrusb2-encoder.h
<slts@free.fr>	pvrusb2-main.c
<slts@free.fr>	pvrusb2-v4l2.c
<slts@free.fr>	pvrusb2-video-v4l.c
<slts@free.fr>	pvrusb2-video-v4l.h
<slts@free.fr>	pvrusb2-wm8775.c
<slts@free.fr>	pvrusb2-wm8775.h
<slts@free.fr>	pvrusb2.h
<spse@secret.org.uk>	konica.c
<stefan.ringel@arcor.de>	tm6000-input.c
<thierry.merle@free.fr>	usbvision.h
<thomas.mair86@googlemail.com>	rtl28xxu.c
<thomas.mair86@googlemail.com>");	rtl28xxu.c
<tmbinc@elitedvb.net>	dvb-ttusb-budget.c
<tmbinc@elitedvb.net>	ttusb2.c
<tmbinc@elitedvb.net>	ttusb2.h
<tnt@246tNt.com>	nw80x.c
<toots@rastageeks.org>	ov519.c
<tskd2@yahoo.co.jp>	friio-fe.c
<tskd2@yahoo.co.jp>	friio.c
<tskd2@yahoo.co.jp>	friio.h
<tskd2@yahoo.co.jp>");	friio.c
<tuukkat76@gmail.com>	smiapp-core.c
<tvboxspy@gmail.com>");	it913x.c
<tvboxspy@gmail.com>");	lmedm04.c
<xbzhang@telegent.com>	pd-main.c
<zyziii@telegent.com>	pd-main.c
dh1pa@amsat.org");	opera1.c
g.marco@freenet.de");	opera1.c
linux-media@vger.kernel.org	usbvision.h
liplianin@me.by");	dw2102.c
mxhaard@magic.fr	conex.c
mxhaard@magic.fr	pac_common.h
mxhaard@magic.fr	sonixb.c
mxhaard@magic.fr	sonixj.c
mxhaard@magic.fr	spca561.c
mxhaard@magic.fr	sunplus.c
mxhaard@magic.fr	zc3xx.c
qq@kuku.eu.org	spca561.c
takeshi87@o2.pl	vc032x.c
