(benh@kernel.crashing.org)	apm_emu.c
(benh@kernel.crashing.org)	macio_asic.c
(funaho@jurai.org)	adb-iop.c
(funaho@jurai.org)	via-macii.c
(linux-kernel@hansmi.ch)	ams-core.c
(linux-kernel@hansmi.ch)	ams-i2c.c
(linux-kernel@hansmi.ch)	ams-input.c
(linux-kernel@hansmi.ch)	ams-pmu.c
(ramesh.agarwal@intel.com)	intel-mid-touch.c
(samuel@ibrium.se)	therm_windtunnel.c
(sreedhara.ds@intel.com)	intel-mid-touch.c
(stelian@popies.net)	ams-core.c
(stelian@popies.net)	ams-i2c.c
(stelian@popies.net)	ams-input.c
(todd.fischer@ridgerun.com)	tps6507x-ts.c
<Anantha.Narayanan@intel.com");	apds9802als.c
<Anthony.Olech@diasemi.com>");	da9052_tsi.c
<Filip.Zyzniewski@tefnet.plX	jornada720_kbd.c
<Franz.Sirl-kernel@lauterbach.com>");	adbhid.c
<James.Bottomley@HansenPartnership.com>	enclosure.c
<Kristoffer.Ericson@Gmail.com>	jornada720_kbd.c
<Kristoffer.Ericson@gmail.com>	jornada680_kbd.c
<Kristoffer.Ericson@gmail.com>	jornada720_ts.c
<Kristoffer.Ericson@gmail.com>");	jornada720_kbd.c
<abennett72@gmail.com>	hampshire.c
<abennett72@gmail.com>");	hampshire.c
<adrian@mcmen.demon.co.uk");	maple_keyb.c
<agust@denx.de>	digsy_mtc_eeprom.c
<agust@denx.de>	eeprom_93xx46.c
<agust@denx.de>");	eeprom_93xx46.c
<aidan@kublai.com>	adbhid.c
<alan@linux.intel.com>	cy8ctmg110_ts.c
<alan@redhat.com>	mk712.c
<alexandre.bounine@idt.com>	idt_gen2.c
<alexandre.bounine@idt.com>	idtcps.c
<alexandre.bounine@idt.com>	rio-scan.c
<alexandre.bounine@idt.com>	rio.c
<alexandre.bounine@idt.com>	tsi500.c
<alexandre.bounine@idt.com>	tsi568.c
<alexandre.bounine@idt.com>	tsi57x.c
<alexandre.bounine@idt.com>	tsi721.c
<alexandre.bounine@idt.com>	tsi721_dma.c
<amax@us.ibm.com>	command.c
<amax@us.ibm.com>	dot_command.c
<amax@us.ibm.com>	dot_command.h
<amax@us.ibm.com>	event.c
<amax@us.ibm.com>	heartbeat.c
<amax@us.ibm.com>	i2o.h
<amax@us.ibm.com>	ibmasm.h
<amax@us.ibm.com>	ibmasmfs.c
<amax@us.ibm.com>	lowlevel.c
<amax@us.ibm.com>	lowlevel.h
<amax@us.ibm.com>	module.c
<amax@us.ibm.com>	r_heartbeat.c
<amax@us.ibm.com>	remote.c
<amax@us.ibm.com>	remote.h
<amax@us.ibm.com>	uart.c
<amit.kachhap@linaro.org>	cpu_cooling.c
<amit.kachhap@linaro.org>	exynos_thermal.c
<andrew@macduff.dhs.org>	via-maciisi.c
<ankita@in.ibm.com>	lkdtm.c
<aospan@netup.ru>	altera-lpt.c
<bcasavan@sgi.com>");	ioc4.c
<ben-linux@fluff.org>	s3c2410_ts.c
<ben@simtec.co.uk>,	s3c2410_ts.c
<benh@kernel.crashing.org>	rack-meter.c
<benh@kernel.crashing.org>	therm_pm72.c
<benh@kernel.crashing.org>	windfarm.h
<benh@kernel.crashing.org>	windfarm_core.c
<benh@kernel.crashing.org>	windfarm_lm75_sensor.c
<benh@kernel.crashing.org>	windfarm_pid.c
<benh@kernel.crashing.org>	windfarm_pid.h
<benh@kernel.crashing.org>	windfarm_pm121.c
<benh@kernel.crashing.org>	windfarm_pm81.c
<benh@kernel.crashing.org>	windfarm_pm91.c
<benh@kernel.crashing.org>	windfarm_smu_controls.c
<benh@kernel.crashing.org>	windfarm_smu_sensors.c
<benh@kernel.crashing.org>");	rack-meter.c
<benh@kernel.crashing.org>");	therm_pm72.c
<benh@kernel.crashing.org>");	windfarm_ad7417_sensor.c
<benh@kernel.crashing.org>");	windfarm_core.c
<benh@kernel.crashing.org>");	windfarm_cpufreq_clamp.c
<benh@kernel.crashing.org>");	windfarm_fcu_controls.c
<benh@kernel.crashing.org>");	windfarm_lm75_sensor.c
<benh@kernel.crashing.org>");	windfarm_lm87_sensor.c
<benh@kernel.crashing.org>");	windfarm_pid.c
<benh@kernel.crashing.org>");	windfarm_pm72.c
<benh@kernel.crashing.org>");	windfarm_pm81.c
<benh@kernel.crashing.org>");	windfarm_pm91.c
<benh@kernel.crashing.org>");	windfarm_rm31.c
<benh@kernel.crashing.org>");	windfarm_smu_controls.c
<benh@kernel.crashing.org>");	windfarm_smu_sensors.c
<bersace@gmail.com>	windfarm_pm121.c
<bersace@gmail.com>");	windfarm_pm121.c
<bgardner@wabtec.com>	max6875.c
<bgardner@wabtec.com>");	max6875.c
<bigeasy@linutronix.de>	tsc40.c
<bigeasy@linutronix.de>");	tsc40.c
<bin.yang@marvell.com>	da9034-ts.c
<bin.yang@marvell.com>");	da9034-ts.c
<bobofdoom@gmail.com>	pxa27x_keypad.c
<bri@calyx.com>");	hil_kbd.c
<broonie@opensource.wolfsonmicro.com>	wm831x-ts.c
<broonie@opensource.wolfsonmicro.com>	zylonite-wm97xx.c
<broonie@opensource.wolfsonmicro.com>");	wm831x-ts.c
<broonie@opensource.wolfsonmicro.com>");	zylonite-wm97xx.c
<canetl@esiee.fr>	hpps2atkbd.h
<chicken@handhelds.org>	jornada720_kbd.c
<chicken@handhelds.org>	jornada720_ts.c
<chinyeow.sim.xt@renesas.com>	st1232.c
<chinyeow.sim.xt@renesas.com>");	st1232.c
<christoph.mair@gmail.com>	bmp085.c
<christoph.mair@gmail.com>");	bmp085.c
<chrisv@cyberswitching.com>	ad525x_dpot.c
<chrisv@cyberswitching.com>,	ad525x_dpot.c
<chul.kim@idt.com>	tsi721.c
<colin@colino.net>");	therm_adt746x.c
<damm@opensource.se>");	migor_ts.c
<dan.liang@atmel.com>");	atmel_tsadcc.c
<daniel.ritz@gmx.ch>	usbtouchscreen.c
<daniel.ritz@gmx.ch>"	usbtouchscreen.c
<daniel.stone@nokia.com>	lm8323.c
<daniel@caiaq.de>	eeti_ts.c
<daniel@caiaq.de>	isl29003.c
<daniel@caiaq.de>	lis3lv02d_i2c.c
<daniel@caiaq.de>	lis3lv02d_spi.c
<daniel@caiaq.de>	ti_dac7512.c
<daniel@caiaq.de>");	eeti_ts.c
<daniel@caiaq.de>");	isl29003.c
<daniel@caiaq.de>");	lis3lv02d_spi.c
<daniel@caiaq.de>");	ti_dac7512.c
<david.altobelli@hp.com>	hpilo.c
<david.altobelli@hp.com>	hpilo.h
<david.altobelli@hp.com>");	hpilo.c
<david@protonic.nl>	gpio_keys.c
<dchen@diasemi.com>	da9052_tsi.c
<ddstreet@ieee.org>	mtouch.c
<ddstreet@ieee.org>	touchit213.c
<ddstreet@ieee.org>	touchright.c
<ddstreet@ieee.org>	touchwin.c
<debackex@esiee.fr>	hpps2atkbd.h
<deller@gmx.de>	hilkbd.c
<deller@gmx.de>	hpps2atkbd.h
<dg77.kim@samsung.com>	exynos_thermal.c
<dg77.kim@samsung.com>");	exynos_thermal.c
<dh09.lee@samsung.com>	samsung-keypad.c
<dh09.lee@samsung.com>");	samsung-keypad.c
<dhd@debian.org>	proc.c
<dhd@debian.org>	via-maciisi.c
<dilinger@collabora.co.uk>	cs5535-mfgpt.c
<dilinger@debian.org>	cs5535-mfgpt.c
<dilinger@queued.net>");	cs5535-mfgpt.c
<djwong@us.ibm.com>	ics932s401.c
<djwong@us.ibm.com>");	ics932s401.c
<dqmeng@pixcir.com.cn>");	pixcir_i2c_ts.c
<drwyrm@gmail.com>	pcap_ts.c
<dtor@mail.ru>	fujitsu_ts.c
<dtor@mail.ru>");	fujitsu_ts.c
<dtor@mail.ru>");	input-polldev.c
<dtor@vmware.com>	vmw_balloon.c
<durgadoss.r@intel.com>	fair_share.c
<durgadoss.r@intel.com>	step_wise.c
<durgadoss.r@intel.com>	thermal_core.h
<durgadoss.r@intel.com>	user_space.c
<egtvedt@samfundet.no>");	atmel-wm97xx.c
<eric.andersson@unixphere.com>");	bmp085-i2c.c
<eric.andersson@unixphere.com>");	bmp085-spi.c
<eric.miao@marvell.com>	da9034-ts.c
<eric.miao@marvell.com>,	da9034-ts.c
<ext-timo.teras@nokia.com>	omap-keypad.c
<felipe.balbi@nokia.com>	lm8323.c
<felipe.balbi@nokia.com>");	lm8323.c
<fengwei.yin@marvell.com>	da9034-ts.c
<filip.zyzniewski@tefnet.pl>	jornada720_ts.c
<frodol@dds.nl>	eeprom.c
<frodol@dds.nl>	eeprom.c
<fthain@telegraphics.com.au>	via-macii.c
<gg@slimlogic.co.uk>	tps65910.c
<gg@slimlogic.co.uk>");	tps65910.c
<giometti@linux.it>	c2port-duramar2150.c
<giometti@linux.it>	isl29003.c
<giometti@linux.it>	pxa27x_keypad.c
<giometti@linux.it>	tsl2550.c
<giometti@linux.it>");	c2port-duramar2150.c
<giometti@linux.it>");	tsl2550.c
<grant.likely@secretlab.ca>	ds1682.c
<grant.likely@secretlab.ca>");	ds1682.c
<greg@kroah.com>	eeprom.c
<greg@kroah.com>");	eeprom.c
<haojian.zhuang@marvell.com>	88pm860x-ts.c
<haojian.zhuang@marvell.com>");	88pm860x-ts.c
<hcegtvedt@atmel.com>");	atmel-ssc.c
<heiko@sntech.de>	auo-pixcir-ts.c
<heiko@sntech.de>");	auo-pixcir-ts.c
<hemanthv@ti.com>	bh1780gli.c
<hemanthv@ti.com>");	bh1780gli.c
<hennerich@blackfin.uclinux.org>	ad525x_dpot.c
<hennerich@blackfin.uclinux.org>	ad525x_dpot.c
<hennerich@blackfin.uclinux.org>	bf54x-keys.c
<hennerich@blackfin.uclinux.org>");	ad525x_dpot-i2c.c
<hennerich@blackfin.uclinux.org>");	ad525x_dpot-spi.c
<hennerich@blackfin.uclinux.org>");	ad525x_dpot.c
<hennerich@blackfin.uclinux.org>");	ad7877.c
<hennerich@blackfin.uclinux.org>");	ad7879-i2c.c
<hennerich@blackfin.uclinux.org>");	ad7879-spi.c
<hennerich@blackfin.uclinux.org>");	ad7879.c
<hennerich@blackfin.uclinux.org>");	adp5520-keys.c
<hennerich@blackfin.uclinux.org>");	adp5588-keys.c
<hennerich@blackfin.uclinux.org>");	adp5589-keys.c
<hennerich@blackfin.uclinux.org>");	bf54x-keys.c
<herbert@13thfloor.at>	s3c2410_ts.c
<hongbo.zhang@linaro.com>	db8500_cpufreq_cooling.c
<hongbo.zhang@linaro.com>	db8500_thermal.c
<hongbo.zhang@stericsson.com>");	db8500_cpufreq_cooling.c
<hongbo.zhang@stericsson.com>");	db8500_thermal.c
<hsweeten@visionengravers.com>	ep93xx_keypad.c
<hsweeten@visionengravers.com>	ep93xx_pwm.c
<hsweeten@visionengravers.com>");	ep93xx_keypad.c
<hsweeten@visionengravers.com>");	ep93xx_pwm.c
<imre.deak@nokia.com>	ad7877.c
<imre.deak@nokia.com>	ad7879.c
<imre.deak@nokia.com>	ads7846.c
<info@eurotech.it>	c2port-duramar2150.c
<info@eurotech.it>	isl29003.c
<info@eurotech.it>	tsl2550.c
<iws@ovro.caltech.edu>	carma-fpga-program.c
<iws@ovro.caltech.edu>	carma-fpga.c
<iws@ovro.caltech.edu>");	carma-fpga-program.c
<iws@ovro.caltech.edu>");	carma-fpga.c
<j.cormack@doc.ic.ac.uk>");	newtonkbd.c
<j.cormack@doc.ic.ac.uk>,	newtonkbd.c
<jason.wessel@windriver.com>	kgdbts.c
<javier@dowhile0.org>	cyttsp_core.c
<javier@dowhile0.org>	cyttsp_core.h
<javier@dowhile0.org>	cyttsp_i2c.c
<javier@dowhile0.org>	cyttsp_spi.c
<jayakumar.lkml@gmail.com>");	wacom_w8001.c
<jayeeta.banerjee@stericsson.com>	tc3589x-keypad.c
<jcbian@pixcir.com.cn>,	pixcir_i2c_ts.c
<jedu@slimlogic.co.uk>	tps65910.c
<jedu@slimlogic.co.uk>");	tps65910.c
<jherrero@hvsistemas.es>");	opencores-kbd.c
<jiejing.zhang@freescale.com>	max11801_ts.c
<jiejing.zhang@freescale.com>	mpr121_touchkey.c
<jiejing.zhang@freescale.com>");	max11801_ts.c
<jiejing.zhang@freescale.com>");	mpr121_touchkey.c
<jirislaby@gmail.com>	phantom.c
<jirislaby@gmail.com>");	phantom.c
<johannes@sipsolutions.net>	via-pmu-event.c
<johannes@sipsolutions.net>	via-pmu-led.c
<johannes@sipsolutions.net>,	ams-i2c.c
<juhosg@openwrt.org>	gpio_keys_polled.c
<juhosg@openwrt.org>");	gpio_keys_polled.c
<jy0922.shim@samsung.com>	atmel_mxt_ts.c
<jy0922.shim@samsung.com>	mcs5000_ts.c
<jy0922.shim@samsung.com>	mcs_touchkey.c
<jy0922.shim@samsung.com>	mms114.c
<jy0922.shim@samsung.com>	samsung-keypad.c
<jy0922.shim@samsung.com>");	atmel_mxt_ts.c
<jy0922.shim@samsung.com>");	mcs5000_ts.c
<jy0922.shim@samsung.com>");	mcs_touchkey.c
<jy0922.shim@samsung.com>");	mms114.c
<jy0922.shim@samsung.com>");	samsung-keypad.c
<kalhan.trisal@intel.com");	hmc6352.c
<kalhan.trisal@intel.com>");	isl29020.c
<kev@cypress.com>	cyttsp_core.c
<kev@cypress.com>	cyttsp_core.h
<kev@cypress.com>	cyttsp_i2c.c
<kev@cypress.com>	cyttsp_spi.c
<kevin.wells@nxp.com");	lpc32xx_ts.c
<kevin.wells@nxp.com>	lpc32xx-keys.c
<kevin.wells@nxp.com>");	lpc32xx-keys.c
<klaus.k.pedersen@nokia.com>	tsc2005.c
<kristoffer.ericson@gmail.com>");	jornada680_kbd.c
<kristoffer.ericson@gmail.com>");	jornada720_ts.c
<kuninori.morimoto.gx@renesas.com>	rcar_thermal.c
<kuninori.morimoto.gx@renesas.com>");	rcar_thermal.c
<kwlee@mtekvision.com>	tsc2007.c
<kwlee@mtekvision.com>");	tsc2007.c
<kyle.manna@fuel7.com>	tca8418_keypad.c
<kyle.manna@fuel7.com>");	tca8418_keypad.c
<l.fu@pengutronix.de>	stmpe-ts.c
<l.fu@pengutronix.de>");	stmpe-ts.c
<l_indien@magic.fr>	smu.c
<laforge@openezx.org>	pcap_ts.c
<laforge@openmoko.org>	s3c2410_ts.c
<lars@metafoo.de>	jz4740-adc.c
<lars@metafoo.de>");	jz4740-adc.c
<lauri.leukkunen@nokia.com>	tsc2005.c
<lauri.leukkunen@nokia.com>");	tsc2005.c
<lenz@cs.wisc.edu>");	locomokbd.c
<linux-kernel@hansmi.ch>	via-pmu-backlight.c
<linux@simtec.co.uk>	s3c2410_ts.c
<linux@simtec.co.uk>");	s3c2410_ts.c
<liplianin@netup.ru>	altera-comp.c
<liplianin@netup.ru>	altera-exprt.h
<liplianin@netup.ru>	altera-jtag.c
<liplianin@netup.ru>	altera-jtag.h
<liplianin@netup.ru>	altera.c
<liplianin@netup.ru>");	altera.c
<lrg@slimlogic.co.uk>	mainstone-wm97xx.c
<lrg@slimlogic.co.uk>	wm9705.c
<lrg@slimlogic.co.uk>	wm9712.c
<lrg@slimlogic.co.uk>	wm9713.c
<lrg@slimlogic.co.uk>	wm97xx-core.c
<lrg@slimlogic.co.uk>");	mainstone-wm97xx.c
<lrg@slimlogic.co.uk>");	wm9705.c
<lrg@slimlogic.co.uk>");	wm9712.c
<lrg@slimlogic.co.uk>");	wm9713.c
<lrg@slimlogic.co.uk>");	wm97xx-core.c
<manjugk@ti.com>	twl4030_keypad.c
<maramaopercheseimorto@gmail.com>	imx_keypad.c
<maramaopercheseimorto@gmail.com>");	imx_keypad.c
<marek.vasut@gmail.com>	matrix_keypad.c
<marek.vasut@gmail.com>	ucb1400_ts.c
<marek.vasut@gmail.com>");	matrix_keypad.c
<marek.vasut@gmail.com>");	stowaway.c
<marek.vasut@gmail.com>,	stowaway.c
<masbock@us.ibm.com>,	ibmasm.h
<mcrapet@gmail.com>	ep93xx_pwm.c
<mcrapet@gmail.com>,	ep93xx_pwm.c
<mcuos.com@gmail.com>	w90p910_keypad.c
<mcuos.com@gmail.com>	w90p910_ts.c
<mcuos.com@gmail.com>");	w90p910_keypad.c
<mcuos.com@gmail.com>");	w90p910_ts.c
<miguel.aguilar@ridgerun.com>	davinci_keyscan.c
<mika.westerberg@linux.intel.com>	intel_msic.c
<mika.westerberg@linux.intel.com>");	intel_msic.c
<mirq-linux@rere.qmqm.pl>");	core.c
<mirq-linux@rere.qmqm.pl>");	core.c
<mj@atrey.karlin.mff.cuni.cz>	proc.c
<mk7.kang@samsung.com>	fsa9480.c
<mk7.kang@samsung.com>");	fsa9480.c
<mporter@kernel.crashing.org>	rio-access.c
<mporter@kernel.crashing.org>	rio-driver.c
<mporter@kernel.crashing.org>	rio-scan.c
<mporter@kernel.crashing.org>	rio-sysfs.c
<mporter@kernel.crashing.org>	rio.c
<mporter@kernel.crashing.org>	rio.h
<mporter@kernel.crashing.org>	tsi500.c
<mporter@kernel.crashing.org>	tsi568.c
<mporter@kernel.crashing.org>	tsi57x.c
<n1gp@hotmail.com>	mk712.c
<n1gp@hotmail.com>	penmount.c
<n1gp@hotmail.com>	touchit213.c
<n1gp@hotmail.com>	touchright.c
<n1gp@hotmail.com>	touchwin.c
<n1gp@hotmail.com>");	penmount.c
<n1gp@hotmail.com>");	touchright.c
<n1gp@hotmail.com>");	touchwin.c
<naveen.gaddipati@stericsson.com>	bu21013_ts.c
<naveen.gaddipati@stericsson.com>	nomadik-ske-keypad.c
<naveen.gaddipati@stericsson.com>	nomadik-ske-keypad.c
<naveen.gaddipati@stericsson.com>");	bu21013_ts.c
<nico@fluxnic.net>.	pxa27x_keypad.c
<nunojpg@gmail.com>	gpio_keys_polled.c
<oakad@yahoo.com>	tifm_7xx1.c
<oakad@yahoo.com>	tifm_core.c
<olivier@sobrie.be>");	ili210x.c
<pau@eslack.org>");	htcpen.c
<paulus@samba.org>	windfarm_max6690_sensor.c
<paulus@samba.org>	windfarm_pm112.c
<paulus@samba.org>	windfarm_smu_sat.c
<paulus@samba.org>");	windfarm_max6690_sensor.c
<paulus@samba.org>");	windfarm_pm112.c
<paulus@samba.org>");	windfarm_smu_sat.c
<pavan_savoy@ti.com>	st_core.c
<pavan_savoy@ti.com>	st_kim.c
<pavan_savoy@ti.com>	st_ll.c
<pavan_savoy@ti.com>");	st_kim.c
<pb@handhelds.org>");	gpio_keys.c
<penmount.touch@gmail.com>	penmount.c
<penmount.touch@gmail.com>");	penmount.c
<phil@netroedge.com>	eeprom.c
<phil@netroedge.com>	eeprom.c
<philb@gnu.org>	hilkbd.c
<pingc@wacom.com>	wacom_w8001.c
<pochini@denise.shiny.it>	adbhid.c
<pof@eslack.org>	htcpen.c
<private@claudio.ch>	touchit213.c
<private@claudio.ch>");	touchit213.c
<q1.kim@samsung.com>	max7359_keypad.c
<q1.kim@samsung.com>");	max7359_keypad.c
<quinlan@pathname.com>,	mk712.c
<rabin.vincent@stericsson.com>	stmpe-keypad.c
<rabin.vincent@stericsson.com>");	stmpe-keypad.c
<rachna@ti.com>");	ti_am335x_tsc.c
<rafiuddin.syed@ti.com>	omap4-keypad.c
<raphaelpereira@gmail.com>	qt1070.c
<raphaelpereira@gmail.com>	qt2160.c
<raphaelpereira@gmail.com>");	qt2160.c
<richard@codelemon.com>	inexio.c
<richard@codelemon.com>");	inexio.c
<riverful.kim@samsung.com>	mcs_touchkey.c
<riverful.kim@samsung.com>");	mcs_touchkey.c
<riyer@nvidia.com>");	tegra-kbc.c
<rmk@arm.linux.org.uk>	wm9705.c
<rmk@arm.linux.org.uk>	wm9712.c
<rmk@arm.linux.org.uk>	wm9713.c
<rmk@arm.linux.org.uk>	wm97xx-core.c
<rmk@arm.linux.org.uk>");	ucb1x00-core.c
<rui.zhang@intel.com>	thermal_sys.c
<s-paulraj@ti.com>	davinci_keyscan.c
<s.hauer@pengutronix.de>	mc13xxx-core.c
<s.hauer@pengutronix.de>");	mc13783_ts.c
<samu.p.onkalo@nokia.com>	apds990x.c
<samu.p.onkalo@nokia.com>	bh1770glc.c
<samu.p.onkalo@nokia.com>	lis3lv02d_i2c.c
<samuel@ibrium.se>");	therm_windtunnel.c
<samuli.konttila@aavamobile.com>");	cy8ctmg110_ts.c
<schmitz@biophys.uni-duesseldorf.de>");	atakbd.c
<siglesias@igalia.com>	ipack.c
<siglesias@igalia.com>	ipoctal.c
<siglesias@igalia.com>	ipoctal.h
<siglesias@igalia.com>	scc2698.h
<siglesias@igalia.com>	tpci200.c
<siglesias@igalia.com>	tpci200.h
<siglesias@igalia.com>");	ipack.c
<simon.budig@kernelconcepts.de>	edt-ft5x06.c
<simon.budig@kernelconcepts.de>");	edt-ft5x06.c
<simon.kagstrom@netinsight.net>	lkdtm.c
<spyro@f2s.com>	mainstone-wm97xx.c
<spyro@f2s.com>	wm9705.c
<spyro@f2s.com>	wm9712.c
<spyro@f2s.com>	wm9713.c
<spyro@f2s.com>	wm97xx-core.c
<spyro@f2s.com>	zylonite-wm97xx.c
<srk@ti.com>	tca6416-keypad.c
<srk@ti.com>");	tca6416-keypad.c
<stigge@antcom.de>	lpc32xx-keys.c
<stigge@antcom.de>");	lpc32xx-keys.c
<sujith.thomas@intel.com>	thermal_sys.c
<sundar.iyer@stericsson.com>	nomadik-ske-keypad.c
<sundar.iyer@stericsson.com>	tc3589x-keypad.c
<sundar.iyer@stericsson.com>");	nomadik-ske-keypad.c
<thomas.moll@sysgo.com>	rio-scan.c
<tias@ulyssis.org>	dynapro.c
<tias@ulyssis.org>");	dynapro.c
<timo.o.karjalainen@nokia.com>	lm8323.c
<timo.o.karjalainen@nokia.com>");	lm8323.c
<tobita.tatsunosuke@wacom.co.jp>	wacom_i2c.c
<tobita.tatsunosuke@wacom.co.jp>");	wacom_i2c.c
<todd.fischer@ridgerun.com>");	tps6507x-ts.c
<tonym@mac.linux-m68k.org>	via-macii.c
<triad@df.lth.se>	arm-charlcd.c
<triad@df.lth.se>");	arm-charlcd.c
<tsoni@codeaurora.org>");	pmic8xxx-keypad.c
<u.kleine-koenig@pengutronix.de>	mc13xxx-core.c
<u.kleine-koenig@pengutronix.de>");	mc13xxx-core.c
<ujjwal@kenati.com>	eeti_ts.c
<ujjwal@kenati.com>,	migor_ts.c
<vernux@us.ibm.com>	remote.c
<vernux@us.ibm.com>"	ibmasm.h
<vincenzo.frascino@st.com>	spear_thermal.c
<vincenzo.frascino@st.com>");	spear_thermal.c
<voice.shen@atmel.com>	qt1070.c
<voice.shen@atmel.com>");	qt1070.c
<vojtech@suse.cz>	mk712.c
<vojtech@suse.cz>");	atkbd.c
<vojtech@suse.cz>");	input.c
<vojtech@suse.cz>");	mk712.c
<vojtech@ucw.cz>");	amikbd.c
<vojtech@ucw.cz>");	elo.c
<vojtech@ucw.cz>");	evbug.c
<vojtech@ucw.cz>");	evdev.c
<vojtech@ucw.cz>");	gunze.c
<vojtech@ucw.cz>");	joydev.c
<vojtech@ucw.cz>");	mtouch.c
<vojtech@ucw.cz>");	sunkbd.c
<vojtech@ucw.cz>");	xtkbd.c
<vojtech@ucw.cz>,	amikbd.c
<vojtech@ucw.cz>,	atakbd.c
<vojtech@ucw.cz>,	evbug.c
<vojtech@ucw.cz>,	gunze.c
<vojtech@ucw.cz>,	sunkbd.c
<vojtech@ucw.cz>,	xtkbd.c
<w.sang@pengutronix.de>	lm8333.c
<w.sang@pengutronix.de>");	lm8333.c
<wei_wang@realsil.com.cn>	rtsx_pcr.h
<willy@bofh.ai>	hilkbd.c
<wonguk.jeong@samsung.com>	fsa9480.c
<x0066660@ti.com>	omap4-keypad.c
<x0khasim@ti.com>	twl4030_keypad.c
<yaoyong@marvell.com>");	pxa930_rotary.c
<yoichi_yuasa@tripeaks.co.jp>	gpio_keys_polled.c
<zap@homelink.ru>	mainstone-wm97xx.c
<zap@homelink.ru>	wm9705.c
<zap@homelink.ru>	wm9712.c
<zap@homelink.ru>	wm9713.c
<zap@homelink.ru>	wm97xx-core.c
<zap@homelink.ru>	zylonite-wm97xx.c
Anand<pratyush.anand@st.com>	spear13xx_pcie_gadget.c
Kumar<rajeev-dlh.kumar@st.com>	spear-keyboard.c
askulysh@image.kiev.ua");	hp680_ts_input.c
sreedhara.ds@intel.com");	intel-mid-touch.c
