"1080i@29.97"	v4l2-common.c
"480p@59.94"	v4l2-common.c
"720p@59.94"	v4l2-common.c
(alowe@mvista.com),	vpbe_osd.c
(ecd@skynet.be)	v4l2-compat-ioctl32.c
(jakub@redhat.com)	v4l2-compat-ioctl32.c
(mchehab@infradead.org)	tvp5150.c
(mchehab@infradead.org)	tvp5150_reg.h
(mchehab@infradead.org),	tvp7002_reg.h
(mchehab@redhat.com)	sr030pc30.c
(mkaricheri@gmail.com),	vpbe_osd.c
(mocm@thp.uni-koeln.de)	zoran.h
(mocm@thp.uni-koeln.de)	zoran_driver.c
(pavel@ucw.cz)	v4l2-compat-ioctl32.c
(phdm@macqel.be)	v4l2-compat-ioctl32.c
(rjkm@thp.uni-koeln.de)	zoran.h
(rjkm@thp.uni-koeln.de)	zoran_driver.c
(sailer@ife.ee.ethz.ch)	msp3400-driver.c
(source@mvista.com)	omap_vout.c
(source@mvista.com)	omap_voutlib.c
<Rainer@Johanni.de>	zoran.h
<Rainer@Johanni.de>	zoran_driver.c
<Scott.Jiang.Linux@gmail.com>");	adv7183.c
<Scott.Jiang.Linux@gmail.com>");	bfin_capture.c
<Scott.Jiang.Linux@gmail.com>");	vs6624.c
<achew@nvidia.com>");	ov9740.c
<agust@denx.de>	fsl-viu.c
<akoskipa@gmail.com>	isp.c
<alan@cymru.net>	v4l2-common.c
<alan@lxorguk.ukuu.org.uk>	media-devnode.c
<alan@lxorguk.ukuu.org.uk>	v4l2-common.c
<alan@lxorguk.ukuu.org.uk>	v4l2-dev.c
<alan@lxorguk.ukuu.org.uk>	v4l2-ioctl.c
<alpha292@bremen.or.jp>	saa717x.c
<andrzej.p@samsung.com>	jpeg-core.c
<andrzej.p@samsung.com>	jpeg-core.h
<andrzej.p@samsung.com>	jpeg-hw.h
<andrzej.p@samsung.com>	jpeg-regs.h
<andrzej.p@samsung.com>	videobuf2-dma-sg.c
<andrzej.p@samsung.com>");	jpeg-core.c
<aospan@netup.ru>	cimax2.c
<aospan@netup.ru>	cimax2.h
<aospan@netup.ru>	netup-eeprom.c
<aospan@netup.ru>	netup-eeprom.h
<aospan@netup.ru>	netup-init.c
<aospan@netup.ru>	netup-init.h
<arnd@arndb.de>	v4l2-compat-ioctl32.c
<artem.bityutskiy@nokia.com>	isp.c
<augulis.darius@gmail.com>	mx1_camera.c
<augulis.darius@gmail.com>	omap1_camera.c
<awalls@md.metrocast.net>	cx18-firmware.c
<awalls@md.metrocast.net>	cx23885-av.c
<awalls@md.metrocast.net>	cx23885-av.h
<awalls@md.metrocast.net>	cx23885-input.c
<awalls@md.metrocast.net>	cx23885-input.h
<awalls@md.metrocast.net>	cx23885-ioctl.c
<awalls@md.metrocast.net>	cx23885-ioctl.h
<awalls@md.metrocast.net>	cx23885-ir.c
<awalls@md.metrocast.net>	cx23885-ir.h
<awalls@md.metrocast.net>	cx23888-ir.c
<awalls@md.metrocast.net>	cx23888-ir.h
<awalls@md.metrocast.net>	cx25840-core.c
<awalls@md.metrocast.net>	cx25840-ir.c
<benoit.thebaudeau@advansee.com>	adv7393.c
<benoit.thebaudeau@advansee.com>	adv7393_regs.h
<bill@thedirks.org>	v4l2-common.c
<brian_rogers@comcast.net>	ir-kbd-i2c.c
<brijesh.j@ti.com>	tvp514x.c
<brijesh.j@ti.com>	tvp514x_regs.h
<c@groovy.org>	saa7127.c
<cavedon@sssup.it>	cx23885-input.c
<claudio@conectiva.com>	v4l2-dev.c
<corbet@lwn.net>	cafe-driver.c
<corbet@lwn.net>	mmp-driver.c
<corbet@lwn.net>	mt9t112.c
<corbet@lwn.net>	ov5642.c
<corbet@lwn.net>	ov6650.c
<corbet@lwn.net>	ov7670.c
<corbet@lwn.net>	ov772x.c
<corbet@lwn.net>	ov9640.c
<corbet@lwn.net>	via-camera.c
<corbet@lwn.net>");	cafe-driver.c
<corbet@lwn.net>");	mmp-driver.c
<corbet@lwn.net>");	ov7670.c
<corbet@lwn.net>");	via-camera.c
<czhang1974@gmail.com>	ir-kbd-i2c.c
<dacohen@gmail.com>	isp.c
<dacohen@gmail.com>	isph3a.h
<dacohen@gmail.com>	isph3a_aewb.c
<dacohen@gmail.com>	isph3a_af.c
<dacohen@gmail.com>	isphist.c
<dacohen@gmail.com>	isphist.h
<dacohen@gmail.com>	ispstat.c
<dacohen@gmail.com>	ispstat.h
<dan@merillat.org>	v4l2-common.c
<david.cohen@indt.org.br>.	omap24xxcam-dma.c
<dcurran@ti.com>	isp.c
<dongsoo45.kim@samsung.com>	m5mols.h
<dongsoo45.kim@samsung.com>	m5mols_capture.c
<dongsoo45.kim@samsung.com>	m5mols_controls.c
<dongsoo45.kim@samsung.com>	m5mols_core.c
<dongsoo45.kim@samsung.com>	m5mols_reg.h
<dongsoo45.kim@samsung.com>");	m5mols_core.c
<dperks@ibm.net>	adv7175.c
<dperks@ibm.net>	bt819.c
<dperks@ibm.net>	bt856.c
<dperks@ibm.net>	bt866.c
<dperks@ibm.net>	saa7115.c
<dperks@ibm.net>	saa7185.c
<dperks@ibm.net>	zoran.h
<dperks@ibm.net>	zoran_driver.c
<dperks@ibm.net>	zr36057.h
<ext-phil.2.carmody@nokia.com>	isp.c
<fcrozat@mail.dotcom.fr>	msp3400-driver.c
<g.liakhovetski@gmx.de>	imx074.c
<g.liakhovetski@gmx.de>	ov5642.c
<g.liakhovetski@gmx.de>	rj54n1cb0c.c
<g.liakhovetski@gmx.de>	sh_mobile_csi2.c
<g.liakhovetski@gmx.de>	sh_vou.c
<g.liakhovetski@gmx.de>	soc_mediabus.c
<g.liakhovetski@gmx.de>");	imx074.c
<g.liakhovetski@gmx.de>");	rj54n1cb0c.c
<g.liakhovetski@gmx.de>");	sh_mobile_csi2.c
<g.liakhovetski@gmx.de>");	sh_vou.c
<g.liakhovetski@gmx.de>");	soc_mediabus.c
<garetxe@euskalnet.net>	v4l2-common.c
<gwlund@lundeng.com>	mt9m032.c
<gz@lysator.liu.se>	ks0127.c
<hans.verkuil@cisco.com>");	adv7604.c
<hardik.shah@ti.com>	tvp514x.c
<hardik.shah@ti.com>	tvp514x_regs.h
<hechtb@gmail.com>	ov5642.c
<hechtb@gmail.com>");	ov5642.c
<henry@stuffedcow.net>	ir-kbd-i2c.c
<hiroshi.doyu@nokia.com>	isp.c
<hong-jun.chen@freescale.com>	fsl-viu.c
<htoa@gmx.net>	saa7127.c
<hvaibhav@ti.com>	isp.c
<hvaibhav@ti.com>	tvp514x.c
<hvaibhav@ti.com>	tvp514x_regs.h
<hvaibhav@ti.com>	tvp7002_reg.h
<hverkuil@xs4all.nl>	cafe-driver.c
<hverkuil@xs4all.nl>	cx18-firmware.c
<hverkuil@xs4all.nl>	cx18-vbi.c
<hverkuil@xs4all.nl>	saa7115.c
<hverkuil@xs4all.nl>	saa7127.c
<hverkuil@xs4all.nl>	saa717x.c
<hverkuil@xs4all.nl>	tda9840.c
<hverkuil@xs4all.nl>	tea6415c.c
<hverkuil@xs4all.nl>	tlv320aic23b.c
<hverkuil@xs4all.nl>	upd64031a.c
<hverkuil@xs4all.nl>	upd64083.c
<hverkuil@xs4all.nl>	v4l2-compat-ioctl32.c
<hverkuil@xs4all.nl>	v4l2-ctrls.c
<hverkuil@xs4all.nl>	v4l2-device.c
<hverkuil@xs4all.nl>	vino.c
<hverkuil@xs4all.nl>	wm8739.c
<hverkuil@xs4all.nl>.	cx25840-core.c
<hverkuil@xs4all.nl>.	cx25840-core.c
<ilkka.myllyperkio@sofica.fi>	isp.c
<info@pelagicore.com>");	timblogiw.c
<isely@pobox.com>	cx25840-firmware.c
<jelle@foks.us>	cx23885-417.c
<jkrzyszt@tis.icnet.pl>	omap1_camera.c
<jkrzyszt@tis.icnet.pl>	ov6650.c
<jkrzyszt@tis.icnet.pl>");	omap1_camera.c
<jkrzyszt@tis.icnet.pl>");	ov6650.c
<josh.wu@atmel.com>	atmel-isi.c
<josh.wu@atmel.com>");	atmel-isi.c
<jtp.park@samsung.com>	s5p_mfc_enc.c
<justin@suntiger.ee.up.ac.za>	v4l2-common.c
<k.debski@samsung.com>	g2d-hw.c
<k.debski@samsung.com>	g2d-regs.h
<k.debski@samsung.com>	g2d.c
<k.debski@samsung.com>	g2d.h
<k.debski@samsung.com>	s5p_mfc.c
<k.debski@samsung.com>	s5p_mfc_common.h
<k.debski@samsung.com>	s5p_mfc_dec.c
<k.debski@samsung.com>	s5p_mfc_enc.c
<k.debski@samsung.com>");	g2d.c
<k.debski@samsung.com>");	s5p_mfc.c
<kernel@pengutronix.de>	mt9m001.c
<kernel@pengutronix.de>	mt9t112.c
<kernel@pengutronix.de>	mt9v022.c
<kernel@pengutronix.de>	mt9v032.c
<kernel@pengutronix.de>	mx1_camera.c
<kernel@pengutronix.de>	omap1_camera.c
<kernel@pengutronix.de>	ov6650.c
<kernel@pengutronix.de>	ov772x.c
<kernel@pengutronix.de>	ov9640.c
<kernel@pengutronix.de>	pxa_camera.c
<kernel@pengutronix.de>	sh_mobile_ceu_camera.c
<kernel@pengutronix.de>	soc_camera.c
<kernel@pengutronix.de>	soc_camera_platform.c
<kernel@pengutronix.de>");	mt9m001.c
<kernel@pengutronix.de>");	mt9v022.c
<kernel@pengutronix.de>");	pxa_camera.c
<kernel@pengutronix.de>");	soc_camera.c
<khw0178.kim@samsung.com>");	gsc-core.c
<komoriya@paken.org>	upd64031a.c
<komoriya@paken.org>	upd64083.c
<kraxel@bytesex.org>	cx23885-417.c
<kraxel@bytesex.org>	ir-kbd-i2c.c
<kraxel@bytesex.org>	msp3400-driver.c
<kraxel@bytesex.org>	msp3400-kthreads.c
<kraxel@bytesex.org>	videobuf-core.c
<kraxel@bytesex.org>	videobuf-dma-sg.c
<kraxel@bytesex.org>	videobuf-dvb.c
<kraxel@bytesex.org>	videobuf-dvb.c
<l.vanstuivenberg@chello.nl>	ks0127.c
<laredo@gnu.org>	saa7127.c
<lars.haring@atmel.com>	atmel-isi.c
<laurent.pinchart@ideasonboard.com>	aptina-pll.c
<laurent.pinchart@ideasonboard.com>	aptina-pll.h
<laurent.pinchart@ideasonboard.com>	cfa_coef_table.h
<laurent.pinchart@ideasonboard.com>	gamma_table.h
<laurent.pinchart@ideasonboard.com>	isp.c
<laurent.pinchart@ideasonboard.com>	isp.c
<laurent.pinchart@ideasonboard.com>	isp.h
<laurent.pinchart@ideasonboard.com>	ispccdc.c
<laurent.pinchart@ideasonboard.com>	ispccdc.h
<laurent.pinchart@ideasonboard.com>	ispccp2.c
<laurent.pinchart@ideasonboard.com>	ispccp2.h
<laurent.pinchart@ideasonboard.com>	ispcsi2.c
<laurent.pinchart@ideasonboard.com>	ispcsi2.h
<laurent.pinchart@ideasonboard.com>	ispcsiphy.c
<laurent.pinchart@ideasonboard.com>	ispcsiphy.h
<laurent.pinchart@ideasonboard.com>	isph3a.h
<laurent.pinchart@ideasonboard.com>	isph3a_aewb.c
<laurent.pinchart@ideasonboard.com>	isph3a_af.c
<laurent.pinchart@ideasonboard.com>	isphist.c
<laurent.pinchart@ideasonboard.com>	isphist.h
<laurent.pinchart@ideasonboard.com>	isppreview.c
<laurent.pinchart@ideasonboard.com>	isppreview.h
<laurent.pinchart@ideasonboard.com>	ispqueue.c
<laurent.pinchart@ideasonboard.com>	ispqueue.h
<laurent.pinchart@ideasonboard.com>	ispreg.h
<laurent.pinchart@ideasonboard.com>	ispresizer.c
<laurent.pinchart@ideasonboard.com>	ispresizer.h
<laurent.pinchart@ideasonboard.com>	ispstat.c
<laurent.pinchart@ideasonboard.com>	ispstat.h
<laurent.pinchart@ideasonboard.com>	ispvideo.c
<laurent.pinchart@ideasonboard.com>	ispvideo.h
<laurent.pinchart@ideasonboard.com>	luma_enhance_table.h
<laurent.pinchart@ideasonboard.com>	media-device.c
<laurent.pinchart@ideasonboard.com>	media-devnode.c
<laurent.pinchart@ideasonboard.com>	media-entity.c
<laurent.pinchart@ideasonboard.com>	mt9v032.c
<laurent.pinchart@ideasonboard.com>	noise_filter_table.h
<laurent.pinchart@ideasonboard.com>	v4l2-subdev.c
<laurent.pinchart@ideasonboard.com>");	aptina-pll.c
<laurent.pinchart@ideasonboard.com>");	media-devnode.c
<laurent.pinchart@ideasonboard.com>");	mt9v032.c
<laurent.pinchart@skynet.be>	zoran_card.c
<laurent.pinchart@skynet.be>	zoran_card.h
<laurent.pinchart@skynet.be>	zoran_device.c
<laurent.pinchart@skynet.be>	zoran_device.h
<laurent.pinchart@skynet.be>	zoran_driver.c
<laurent.pinchart@skynet.be>	zoran_procfs.c
<laurent.pinchart@skynet.be>	zoran_procfs.h
<laurent.pinchart@skynet.be>	zr36060.c
<laurent.pinchart@skynet.be>	zr36060.h
<laurent.pinchart@skynet.be>");	zr36060.c
<lg@denx.de>	mx3_camera.c
<lg@denx.de>");	mx3_camera.c
<liplianin@me.by>	cx23885-f300.c
<liplianin@me.by>	dm1105.c
<liplianin@me.by>");	dm1105.c
<liplianin@netup.ru>	altera-ci.c
<liplianin@netup.ru>	altera-ci.h
<liplianin@netup.ru>	cimax2.c
<liplianin@netup.ru>	cimax2.h
<liplianin@netup.ru>	netup-init.c
<liplianin@netup.ru>	netup-init.h
<liplianin@netup.ru>");	altera-ci.c
<lirc@bartelmus.de>	ir-kbd-i2c.c
<lpinchart@freegates.be>	vpx3220.c
<m-karicheri2@ti.com>	tvp514x.c
<m-karicheri2@ti.com>	tvp514x_regs.h
<m.szyprowski@samsung.com>	mem2mem_testdev.c
<m.szyprowski@samsung.com>	v4l2-mem2mem.c
<m.szyprowski@samsung.com>	videobuf2-core.c
<m.szyprowski@samsung.com>	videobuf2-memops.c
<marek.vasut@gmail.com>	ov6650.c
<marek.vasut@gmail.com>	ov9640.c
<marek.vasut@gmail.com>");	ov9640.c
<martin@neutronstar.dyndns.org>	mt9m032.c
<martin@neutronstar.dyndns.org>");	mt9m032.c
<mats.randgaard@cisco.com>");	adv7604.c
<max@linuxmedialabs.com>	saa7115.c
<max@linuxmedialabs.com>	zoran_driver.c
<max@linuxmedialabs.com>)	zoran_card.c
<mchehab@infradead.org>	cx23885-input.c
<mchehab@infradead.org>	media-devnode.c
<mchehab@infradead.org>	saa7115.c
<mchehab@infradead.org>	v4l2-dev.c
<mchehab@infradead.org>	v4l2-ioctl.c
<mchehab@infradead.org>	videobuf-core.c
<mchehab@infradead.org>	videobuf-core.c
<mchehab@infradead.org>	videobuf-dma-contig.c
<mchehab@infradead.org>	videobuf-dma-sg.c
<mchehab@infradead.org>	videobuf-dma-sg.c
<mchehab@infradead.org>	videobuf-vmalloc.c
<mchehab@infradead.org>");	v4l2-dev.c
<mchehab@infradead.org>");	videobuf-core.c
<mchehab@infradead.org>");	videobuf-dma-sg.c
<mchehab@infradead.org>");	videobuf-vmalloc.c
<michael@mihu.de>	tda9840.c
<michael@mihu.de>	tea6415c.c
<michael@mihu.de>");	tda9840.c
<michael@mihu.de>");	tea6415c.c
<middelin@polyware.nl>	saa7110.c
<mijhail.moreyra@gmail.com>	cx23885-alsa.c
<mike@flyn.org>	v4l2-common.c
<mike@mlb.org>	bt819.c
<mike@mlb.org>	bt856.c
<mike@mlb.org>	bt866.c
<mike@mlb.org>	ks0127.c
<mirsev@cicese.mx>	adv7175.c
<mirsev@cicese.mx>	bt819.c
<mirsev@cicese.mx>	bt856.c
<mirsev@cicese.mx>	bt866.c
<mirsev@cicese.mx>	saa7110.c
<mirsev@cicese.mx>	zoran_card.c
<mirsev@cicese.mx>	zoran_card.h
<mirsev@cicese.mx>	zoran_device.c
<mirsev@cicese.mx>	zoran_device.h
<mirsev@cicese.mx>	zoran_driver.c
<mirsev@cicese.mx>	zoran_procfs.c
<mirsev@cicese.mx>	zoran_procfs.h
<mjalori@ti.com>	isp.c
<mjpeg-users@lists.sf.net>	zoran_card.c
<mjpeg-users@lists.sf.net>	zoran_card.h
<mjpeg-users@lists.sf.net>	zoran_device.c
<mjpeg-users@lists.sf.net>	zoran_device.h
<mjpeg-users@lists.sf.net>	zoran_procfs.c
<mjpeg-users@lists.sf.net>	zoran_procfs.h
<mkochano@pld.org.pl>	ir-kbd-i2c.c
<morimoto.kuninori@renesas.com>	mt9t112.c
<morimoto.kuninori@renesas.com>	mt9t112.c
<morimoto.kuninori@renesas.com>	ov6650.c
<morimoto.kuninori@renesas.com>	ov772x.c
<morimoto.kuninori@renesas.com>	ov9640.c
<mrechberger@gmail.com>	cx23885-input.c
<mrechberger@gmail.com>	ir-kbd-i2c.c
<mrh@ti.com>	tvp514x.c
<mrh@ti.com>	tvp514x_regs.h
<n9xmj@yahoo.com>	ir-kbd-i2c.c
<nufan_wfk@yahoo.com>	saa7127.c
<obi@saftware.de>	saa7127.c
<oldium.pro@seznam.cz>	ir-kbd-i2c.c
<p-kulkarni@ti.com>	isp.c
<paulius.zaleckas@teltonika.lt>	mx1_camera.c
<paulius.zaleckas@teltonika.lt>	omap1_camera.c
<paulius.zaleckas@teltonika.lt>");	mx1_camera.c
<pawel@osciak.com>	mem2mem_testdev.c
<pawel@osciak.com>	v4l2-mem2mem.c
<pawel@osciak.com>	videobuf2-core.c
<pawel@osciak.com>	videobuf2-dma-contig.c
<pawel@osciak.com>	videobuf2-memops.c
<pawel@osciak.com>	videobuf2-vmalloc.c
<pawel@osciak.com>");	mem2mem_testdev.c
<pawel@osciak.com>");	v4l2-mem2mem.c
<pawel@osciak.com>");	videobuf2-dma-contig.c
<pawel@osciak.com>");	videobuf2-memops.c
<pawel@osciak.com>");	videobuf2-vmalloc.c
<pawel@osciak.com>,	videobuf2-core.c
<pp@netppl.fi>	msp3400-driver.c
<quartz.jang@samsung.com>");	s5k4ecgx.c
<r-m@ti.com>	isp.c
<rbulter@hetnet.nl>	saa7127.c
<rbultje@ronald.bitfreak.net>	adv7175.c
<rbultje@ronald.bitfreak.net>	bt819.c
<rbultje@ronald.bitfreak.net>	bt856.c
<rbultje@ronald.bitfreak.net>	saa7110.c
<rbultje@ronald.bitfreak.net>	saa7115.c
<rbultje@ronald.bitfreak.net>	saa7185.c
<rbultje@ronald.bitfreak.net>	zoran_card.c
<rbultje@ronald.bitfreak.net>	zoran_card.h
<rbultje@ronald.bitfreak.net>	zoran_device.c
<rbultje@ronald.bitfreak.net>	zoran_device.h
<rbultje@ronald.bitfreak.net>	zoran_driver.c
<rbultje@ronald.bitfreak.net>	zoran_procfs.c
<rbultje@ronald.bitfreak.net>	zoran_procfs.h
<riverful.kim@samsung.com>	m5mols.h
<riverful.kim@samsung.com>	m5mols_capture.c
<riverful.kim@samsung.com>	m5mols_controls.c
<riverful.kim@samsung.com>	m5mols_core.c
<riverful.kim@samsung.com>	m5mols_reg.h
<riverful.kim@samsung.com>");	m5mols_core.c
<riverful.kim@samsung.com>.	sr030pc30.c
<robert.jarzmik@free.fr>	mt9t112.c
<s.nawrocki@samsung.com>	fimc-capture.c
<s.nawrocki@samsung.com>	fimc-core.c
<s.nawrocki@samsung.com>	fimc-lite-reg.c
<s.nawrocki@samsung.com>	fimc-lite.c
<s.nawrocki@samsung.com>	fimc-m2m.c
<s.nawrocki@samsung.com>	fimc-mdevice.c
<s.nawrocki@samsung.com>	fimc-reg.c
<s.nawrocki@samsung.com>	mipi-csis.c
<s.nawrocki@samsung.com>");	fimc-mdevice.c
<s.nawrocki@samsung.com>");	mipi-csis.c
<s.nawrocki@samsung.com>");	sr030pc30.c
<saaguirre@ti.com>	isp.c
<sakari.ailus@iki.fi>	adp1653.c
<sakari.ailus@iki.fi>	adp1653.c
<sakari.ailus@iki.fi>	cfa_coef_table.h
<sakari.ailus@iki.fi>	gamma_table.h
<sakari.ailus@iki.fi>	isp.c
<sakari.ailus@iki.fi>	isp.c
<sakari.ailus@iki.fi>	isp.h
<sakari.ailus@iki.fi>	ispccdc.c
<sakari.ailus@iki.fi>	ispccdc.h
<sakari.ailus@iki.fi>	ispccp2.c
<sakari.ailus@iki.fi>	ispccp2.h
<sakari.ailus@iki.fi>	ispcsi2.c
<sakari.ailus@iki.fi>	ispcsi2.h
<sakari.ailus@iki.fi>	ispcsiphy.c
<sakari.ailus@iki.fi>	ispcsiphy.h
<sakari.ailus@iki.fi>	isph3a.h
<sakari.ailus@iki.fi>	isph3a_aewb.c
<sakari.ailus@iki.fi>	isph3a_af.c
<sakari.ailus@iki.fi>	isphist.c
<sakari.ailus@iki.fi>	isphist.h
<sakari.ailus@iki.fi>	isppreview.c
<sakari.ailus@iki.fi>	isppreview.h
<sakari.ailus@iki.fi>	ispqueue.c
<sakari.ailus@iki.fi>	ispqueue.h
<sakari.ailus@iki.fi>	ispreg.h
<sakari.ailus@iki.fi>	ispresizer.c
<sakari.ailus@iki.fi>	ispresizer.h
<sakari.ailus@iki.fi>	ispstat.c
<sakari.ailus@iki.fi>	ispstat.h
<sakari.ailus@iki.fi>	ispvideo.c
<sakari.ailus@iki.fi>	ispvideo.h
<sakari.ailus@iki.fi>	luma_enhance_table.h
<sakari.ailus@iki.fi>	media-device.c
<sakari.ailus@iki.fi>	media-devnode.c
<sakari.ailus@iki.fi>	media-entity.c
<sakari.ailus@iki.fi>	noise_filter_table.h
<sakari.ailus@iki.fi>	smiapp-pll.c
<sakari.ailus@iki.fi>	smiapp-pll.h
<sakari.ailus@iki.fi>	v4l2-event.c
<sakari.ailus@iki.fi>	v4l2-fh.c
<sakari.ailus@iki.fi>	v4l2-subdev.c
<sakari.ailus@iki.fi>");	smiapp-pll.c
<sakari.ailus@nokia.com>	omap24xxcam-dma.c
<sakari.ailus@nokia.com>	omap24xxcam.c
<sakari.ailus@nokia.com>	omap24xxcam.h
<sakari.ailus@nokia.com>	v4l2-int-device.c
<sakari.ailus@nokia.com>");	adp1653.c
<sakari.ailus@nokia.com>");	omap24xxcam.c
<salfter@ssai.us>	tlv320aic23b.c
<sameerv@ti.com>	isp.c
<sangwook.lee@linaro.org>	s5k4ecgx.c
<sangwook.lee@linaro.org>");	s5k4ecgx.c
<santiago.nunez@ridgerun.com>	tvp7002_reg.h
<saschasommer@freenet.de>	cx23885-input.c
<scherr@net4you.at>	videocodec.c
<scherr@net4you.at>	videocodec.h
<scherr@net4you.at>	zr36016.c
<scherr@net4you.at>	zr36016.h
<scherr@net4you.at>	zr36050.c
<scherr@net4you.at>	zr36050.h
<scherr@net4you.at>");	videocodec.c
<scherr@net4you.at>");	zr36016.c
<scherr@net4you.at>");	zr36050.c
<scherr@net4you.net>	adv7175.c
<scherr@net4you.net>	saa7110.c
<scherr@net4you.net>	saa7115.c
<scherr@net4you.net>	saa7185.c
<scherr@net4you.net>	zoran_driver.c
<scherr@net4you.net>	zoran_driver.c
<sha@pengutronix.de>");	mx2_camera.c
<sivaraj@ti.com>	tvp514x.c
<sivaraj@ti.com>	tvp514x_regs.h
<source@mvista.com>	omap24xxcam-dma.c
<source@mvista.com>	omap24xxcam.c
<source@mvista.com>.	omap24xxcam.h
<stiletto@mediaone.net>	ks0127.c
<stiletto@mediaone.net>	ks0127.h
<stoth@kernellabs.com>	cx23885-alsa.c
<stoth@kernellabs.com>	cx25840-core.c
<stoth@kernellabs.com>	saa7164-api.c
<stoth@kernellabs.com>	saa7164-buffer.c
<stoth@kernellabs.com>	saa7164-bus.c
<stoth@kernellabs.com>	saa7164-cards.c
<stoth@kernellabs.com>	saa7164-cmd.c
<stoth@kernellabs.com>	saa7164-core.c
<stoth@kernellabs.com>	saa7164-dvb.c
<stoth@kernellabs.com>	saa7164-encoder.c
<stoth@kernellabs.com>	saa7164-fw.c
<stoth@kernellabs.com>	saa7164-i2c.c
<stoth@kernellabs.com>	saa7164-reg.h
<stoth@kernellabs.com>	saa7164-types.h
<stoth@kernellabs.com>	saa7164-vbi.c
<stoth@kernellabs.com>	saa7164.h
<stoth@kernellabs.com>");	saa7164-core.c
<stoth@linuxtv.org>	cx23885-417.c
<stoth@linuxtv.org>	cx23885-cards.c
<stoth@linuxtv.org>	cx23885-core.c
<stoth@linuxtv.org>	cx23885-dvb.c
<stoth@linuxtv.org>	cx23885-i2c.c
<stoth@linuxtv.org>	cx23885-reg.h
<stoth@linuxtv.org>	cx23885-vbi.c
<stoth@linuxtv.org>	cx23885-video.c
<stoth@linuxtv.org>	cx23885.h
<stoth@linuxtv.org>");	cx23885-core.c
<stoth@linuxtv.org>");	cx23885-video.c
<stoth@linuxtv.org>.	cx25840-core.c
<suapapa@insignal.co.kr>	s5k4ecgx.c
<svadivu@ti.com>	isp.c
<sylvester.nawrocki@gmail.com>	camif-capture.c
<sylvester.nawrocki@gmail.com>	camif-core.c
<sylvester.nawrocki@gmail.com>	camif-core.h
<sylvester.nawrocki@gmail.com>	camif-regs.c
<sylvester.nawrocki@gmail.com>	camif-regs.h
<sylvester.nawrocki@gmail.com>");	camif-core.c
<t-laramy@ti.com>	isp.c
<t.stanislaws@samsung.com>	hdmi_drv.c
<t.stanislaws@samsung.com>	hdmiphy_drv.c
<t.stanislaws@samsung.com>	mixer.h
<t.stanislaws@samsung.com>	mixer_drv.c
<t.stanislaws@samsung.com>	mixer_grp_layer.c
<t.stanislaws@samsung.com>	mixer_reg.c
<t.stanislaws@samsung.com>	mixer_video.c
<t.stanislaws@samsung.com>	mixer_vp_layer.c
<t.stanislaws@samsung.com>	sdo_drv.c
<t.stanislaws@samsung.com>	sii9234_drv.c
<t.stanislaws@samsung.com>");	hdmi_drv.c
<t.stanislaws@samsung.com>");	hdmiphy_drv.c
<t.stanislaws@samsung.com>");	mixer_drv.c
<t.stanislaws@samsung.com>");	sdo_drv.c
<t.stanislaws@samsung.com>");	sii9234_drv.c
<takahashi.takeo@renesas.com>	arv.c
<takahashi.takeo@renesas.com>");	arv.c
<tatrafford@comcast.net>	cx25840-core.c
<television@cneufeld.ca>	cx25840-core.c
<thara@ti.com>	isp.c
<tmnousia@cc.hut.fi>	indycam.c
<tmnousia@cc.hut.fi>	indycam.h
<tmnousia@cc.hut.fi>	saa7191.c
<tmnousia@cc.hut.fi>	saa7191.h
<tmnousia@cc.hut.fi>	vino.c
<tmnousia@cc.hut.fi>");	indycam.c
<tmnousia@cc.hut.fi>");	saa7191.c
<tmnousia@cc.hut.fi>");	vino.c
<tomasz.figa@gmail.com>	camif-capture.c
<tomasz.figa@gmail.com>	camif-core.c
<tomasz.figa@gmail.com>	camif-core.h
<tomasz.figa@gmail.com>	camif-regs.c
<tomasz.figa@gmail.com>	camif-regs.h
<tomasz.figa@gmail.com>");	camif-core.c
<toni.leinonen@nokia.com>	isp.c
<tuukkat76@gmail.com>	adp1653.c
<tuukkat76@gmail.com>	isp.c
<ulfc@bun.falkenberg.se>	vino.h
<ulrich.mueller42@web.de>	ir-kbd-i2c.c
<vimarsh.zutshi@gmail.com>	isp.c
corbet@lwn.net	mcam-core.c
corbet@lwn.net	mcam-core.h
corbet@lwn.net.	cafe-driver.c
http://www.mail-archive.com/linux-omap@vger.kernel.org/msg08149.html	isp.c
kayork@mail.utexas.edu:	ks0127.c
s.nawrocki@samsung.com	sr030pc30.c
