(anders@anduras.de)	appletouch.c
(b-cousson@ti.com)	emif.h
(davem@davemloft.net)	sparcspkr.c
(downey@zymeta.com)	keyspan_remote.c
(greg@kroah.com)	appletouch.c
(greg@kroah.com)	bcm5974.c
(johannes@sipsolutions.net)	appletouch.c
(johannes@sipsolutions.net)	bcm5974.c
(linux-kernel@hansmi.ch)	appletouch.c
(linux-kernel@hansmi.ch)	bcm5974.c
(nicolas@boichat.ch)	appletouch.c
(nicolas@boichat.ch)	bcm5974.c
(petero2@telia.com)	appletouch.c
(petero2@telia.com)	bcm5974.c
(robert@and.nl)	atarimouse.c
(ron@debian.org)	synaptics_usb.c
(ron@debian.org)	synaptics_usb.c
(rydberg@euromail.se)	bcm5974.c
(scott.shawcroft@gmail.com)	bcm5974.c
(stelian@popies.net)	appletouch.c
(stelian@popies.net)	bcm5974.c
<21cnbao@gmail.com>");	ad5624r_spi.c
<21cnbao@gmail.com>");	ad714x-i2c.c
<21cnbao@gmail.com>");	ad714x-spi.c
<21cnbao@gmail.com>");	ad714x.c
<Henk.Vergonet@gmail.com>	yealink.c
<Henk.Vergonet@gmail.com>	yealink.h
<Nancy.Chen@freescale.com>,	anatop-regulator.c
<Oliver.Schwartz@gmx.de>,	xpad.c
<Richard.Zidlicky@stud.informatik.uni-erlangen.de>	q40kbd.c
<a.zummo@towertech.it>	ixp4xx-beeper.c
<a.zummo@towertech.it>");	ixp4xx-beeper.c
<aaro.koskinen@iki.fi>");	retu-pwrbutton.c
<abach@stofanet.dk>	aiptek.c
<abach@stofanet.dk>	wacom.h
<adam.buchbinder@gmail.com>	xpad.c
<adrian@mcmen.demon.co.uk>");	maplecontrol.c
<adrian@mcmen.demon.co.uk>");	maplemouse.c
<aeh@db.org>	cm109.c
<alan@linux.intel.com>	mpu3050.c
<alex.perry@ieee.org>	kbtab.c
<alex@onefishtwo.ca>	gscps2.c
<aliguori@us.ibm.com>	xen-kbdfront.c
<amaloche@codeaurora.org>");	pm8xxx-vibrator.c
<aneesh@ti.com>	emif.c
<anilkumar@ti.com>");	tps65217-regulator.c
<anssi.hannula@gmail.com>	ff-core.c
<anssi.hannula@gmail.com>	ff-memless.c
<anssi.hannula@gmail.com>");	ff-memless.c
<anssi.hannula@gmail.com>)	uinput.c
<aris@cathedrallabs.org>	uinput.c
<arjan@opmeer.net>	elantech.c
<arjan@opmeer.net>	elantech.h
<armbru@redhat.com>	xen-kbdfront.c
<arndt@quelltext.com>	twidjoy.c
<axel.lin@gmail.com>");	lp3972.c
<balajirrao@openmoko.org>	pcf50633-input.c
<balajirrao@openmoko.org>	pcf50633-regulator.c
<balajirrao@openmoko.org>");	pcf50633-input.c
<balajirrao@openmoko.org>");	pcf50633-regulator.c
<basilisk@foobox.net>	appletouch.c
<bengt.g.jonsson@stericsson.com>	ab8500.c
<bengt.g.jonsson@stericsson.com>	db8500-prcmu.c
<bengt.g.jonsson@stericsson.com>	dbx500-prcmu.c
<bengt.jonsson@stericsson.com>	dbx500-prcmu.h
<bero@arklinux.org>	sparse-keymap.c
<bero@arklinux.org>	wistron_btns.c
<binary1230@yahoo.com>	xpad.c
<blackhawk@ivanhawkes.com>	xpad.c
<bri@calyx.com>");	hil_mlc.c
<bri@calyx.com>");	hp_sdc.c
<bri@calyx.com>");	hp_sdc_mlc.c
<bri@calyx.com>");	hp_sdc_rtc.c
<broonie@opensource.wolfsonmicro.com>	arizona-haptics.c
<broonie@opensource.wolfsonmicro.com>	arizona-ldo1.c
<broonie@opensource.wolfsonmicro.com>	arizona-micsupp.c
<broonie@opensource.wolfsonmicro.com>	dummy.c
<broonie@opensource.wolfsonmicro.com>	dummy.h
<broonie@opensource.wolfsonmicro.com>	fixed.c
<broonie@opensource.wolfsonmicro.com>	gpio-regulator.c
<broonie@opensource.wolfsonmicro.com>	userspace-consumer.c
<broonie@opensource.wolfsonmicro.com>	virtual.c
<broonie@opensource.wolfsonmicro.com>	wm831x-dcdc.c
<broonie@opensource.wolfsonmicro.com>	wm831x-isink.c
<broonie@opensource.wolfsonmicro.com>	wm831x-ldo.c
<broonie@opensource.wolfsonmicro.com>	wm8400-regulator.c
<broonie@opensource.wolfsonmicro.com>	wm8994-regulator.c
<broonie@opensource.wolfsonmicro.com>");	arizona-haptics.c
<broonie@opensource.wolfsonmicro.com>");	arizona-ldo1.c
<broonie@opensource.wolfsonmicro.com>");	arizona-micsupp.c
<broonie@opensource.wolfsonmicro.com>");	fixed.c
<broonie@opensource.wolfsonmicro.com>");	virtual.c
<broonie@opensource.wolfsonmicro.com>");	wm831x-ldo.c
<broonie@opensource.wolfsonmicro.com>");	wm831x-on.c
<broonie@opensource.wolfsonmicro.com>");	wm8400-regulator.c
<broonie@opensource.wolfsonmicro.com>");	wm8994-regulator.c
<bwheadley@earthlink.net>	aiptek.c
<cananian@alumni.priceton.edu>	synaptics.c
<canetl@esiee.fr>	gscps2.c
<canetl@esiee.fr>,	gscps2.c
<chf.fritz@googlemail.com>	xpad.c
<chris@crud.net>	aiptek.c
<chudson@kionix.com>	kxtj9.c
<chudson@kionix.com>");	kxtj9.c
<clifford@clifford.at>	aiptek.c
<clifford@clifford.at>	wacom.h
<corvus@gnu.org>	aiptek.c
<corvus@gnu.org>	wacom.h
<courtney.cavin@sonyericsson.com>	gp2ap002a00f.c
<courtney.cavin@sonyericsson.com>");	gp2ap002a00f.c
<daniel@caiaq.de>	rotary_encoder.c
<daniel@caiaq.de>,	rotary_encoder.c
<davem@davemloft.net>");	sparcspkr.c
<dbaryshkov@gmail.com>");	ps2mult.c
<dchen@diasemi.com>	da9052-regulator.c
<dchen@diasemi.com>	da9052_onkey.c
<dchen@diasemi.com>	da9055-regulator.c
<dchen@diasemi.com>	da9055_onkey.c
<dchen@diasemi.com>");	da9052-regulator.c
<dchen@diasemi.com>");	da9052_onkey.c
<dchen@diasemi.com>");	da9055-regulator.c
<dchen@diasemi.com>");	da9055_onkey.c
<debackex@esiee.fr>	gscps2.c
<deller@gmx.de>	gscps2.c
<deller@gmx.de>");	gscps2.c
<dg77.kim@samsung.com>	max8997_haptic.c
<dg77.kim@samsung.com>");	max8997_haptic.c
<dilinger@debian.org>	hgpk.c
<dm-devel@redhat.com>");	dm-bio-prison.c
<dm-devel@redhat.com>");	dm-block-manager.c
<dm-devel@redhat.com>");	dm-thin.c
<downey@zymeta.com>"	keyspan_remote.c
<drwyrm@gmail.com>	pcap-regulator.c
<drwyrm@gmail.com>");	pcap-regulator.c
<dtor@mail.ru>	alps.c
<dtor@mail.ru>	ff-core.c
<dtor@mail.ru>	ff-memless.c
<dtor@mail.ru>	hgpk.c
<dtor@mail.ru>	sparse-keymap.c
<dtor@mail.ru>	synaptics.c
<dtor@mail.ru>	wistron_btns.c
<dtor@mail.ru>");	libps2.c
<dtor@mail.ru>");	serio_raw.c
<dtor@mail.ru>");	sparse-keymap.c
<edouard.tisserant@wanadoo.fr>	acecad.c
<edouard.tisserant@wanadoo.fr>"	acecad.c
<egger@suse.de>	aiptek.c
<egger@suse.de>	wacom.h
<egtvedt@samfundet.no>");	at32psif.c
<egtvedt@samfundet.no>");	gpio_mouse.c
<eric.miao@marvell.com>"	da903x.c
<eric@yhbt.net>	logips2pp.c
<evanchsa@gmail.com>	trackpoint.c
<evanchsa@gmail.com>	trackpoint.h
<ext-jari.vanhala@nokia.com>	twl4030-vibra.c
<ext-javi.vanhala@nokia.com>	twl6040-vibra.c
<ext-roger.quadros@nokia.com>	fixed.c
<ext-roger.quadros@nokia.com>	gpio-regulator.c
<fabien.marteau@armadeus.com>	as5011.c
<fabien.marteau@armadeus.com>");	as5011.c
<felipe.balbi@nokia.com>	mc13783-pwrbutton.c
<felipe.balbi@nokia.com>	twl4030-pwrbutton.c
<felipe.balbi@nokia.com>	twl4030-vibra.c
<felipe.balbi@nokia.com>	twl6040-vibra.c
<felipe.balbi@nokia.com>");	twl4030-pwrbutton.c
<flepied@mandrakesoft.com>	wacom.h
<franz@caos.at>,	xpad.c
<g.liakhovetski@gmx.de>	as3711-regulator.c
<g.liakhovetski@gmx.de>");	as3711-regulator.c
<gg@slimlogic.co.uk>	max8907-regulator.c
<gg@slimlogic.co.uk>	palmas-regulator.c
<gg@slimlogic.co.uk>	tps65910-regulator.c
<gg@slimlogic.co.uk>");	palmas-regulator.c
<gg@slimlogic.co.uk>");	tps65910-regulator.c
<gkmarty@gmail.com>	zhenhua.c
<grinberg@compulab.co.il>	synaptics_i2c.c
<gxt@mprc.pku.edu.cn>	i8042-unicore32io.h
<haojian.zhuang@marvell.com>	88pm80x_onkey.c
<haojian.zhuang@marvell.com>	88pm8607.c
<haojian.zhuang@marvell.com>	88pm860x_onkey.c
<haojian.zhuang@marvell.com>	max8649.c
<haojian.zhuang@marvell.com>	max8925-regulator.c
<haojian.zhuang@marvell.com>	max8925_onkey.c
<haojian.zhuang@marvell.com>");	88pm8607.c
<haojian.zhuang@marvell.com>");	88pm860x_onkey.c
<haojian.zhuang@marvell.com>");	max8649.c
<haojian.zhuang@marvell.com>");	max8925-regulator.c
<haojian.zhuang@marvell.com>");	max8925_onkey.c
<hdoyu@nvidia.com>");	tegra20-mc.c
<hdoyu@nvidia.com>");	tegra30-mc.c
<heiko@sntech.de>	gpio-regulator.c
<heiko@sntech.de>	gpio_tilt_polled.c
<heiko@sntech.de>");	gpio-regulator.c
<heiko@sntech.de>");	gpio_tilt_polled.c
<hemanthv@ti.com>	cma3000_d0x.c
<hemanthv@ti.com>	cma3000_d0x.h
<hemanthv@ti.com>	cma3000_d0x_i2c.c
<hemanthv@ti.com>");	cma3000_d0x.c
<hemanthv@ti.com>");	cma3000_d0x_i2c.c
<hennerich@blackfin.uclinux.org>");	ad5446.c
<hennerich@blackfin.uclinux.org>");	ad5504.c
<hennerich@blackfin.uclinux.org>");	ad5686.c
<hennerich@blackfin.uclinux.org>");	ad5791.c
<hennerich@blackfin.uclinux.org>");	ad7298.c
<hennerich@blackfin.uclinux.org>");	ad7476.c
<hennerich@blackfin.uclinux.org>");	ad7793.c
<hennerich@blackfin.uclinux.org>");	ad7887.c
<hennerich@blackfin.uclinux.org>");	ad8366.c
<hennerich@blackfin.uclinux.org>");	ad9523.c
<hennerich@blackfin.uclinux.org>");	adf4350.c
<hennerich@blackfin.uclinux.org>");	adxl34x-i2c.c
<hennerich@blackfin.uclinux.org>");	adxl34x-spi.c
<hennerich@blackfin.uclinux.org>");	adxl34x.c
<hennerich@blackfin.uclinux.org>");	bfin_rotary.c
<henrik.saari@nokia.com>	twl4030-vibra.c
<henrik.saari@nokia.com>	twl6040-vibra.c
<honza@jikos.cz>	xpad.c
<ilya.muromec@gmail.com>	pcap_keys.c
<ilya.muromec@gmail.com>");	pcap_keys.c
<jasonparekh@gmail.com>	appletouch.c
<jedu@slimlogic.co.uk>	max8907-regulator.c
<jedu@slimlogic.co.uk>	tps65910-regulator.c
<jhovold@gmail.com>	lm3533-als.c
<jhovold@gmail.com>	rotary_encoder.c
<jhovold@gmail.com>");	lm3533-als.c
<jic23@kernel.org>");	industrialio-core.c
<jic23@kernel.org>");	max1363.c
<jinyoungp@nvidia.com>	aat2870-regulator.c
<jinyoungp@nvidia.com>");	aat2870-regulator.c
<johann.deneux@gmail.com>	iforce-ff.c
<johann.deneux@gmail.com>	iforce-main.c
<johann.deneux@gmail.com>	iforce-packets.c
<johann.deneux@gmail.com>	iforce-serio.c
<johann.deneux@gmail.com>	iforce-usb.c
<johann.deneux@gmail.com>	iforce.h
<johann.deneux@gmail.com>");	iforce-main.c
<jonas.aberg@stericsson.com>	dbx500-prcmu.h
<jonghwa3.lee@samsung.com>	max77686.c
<jorge.candelaria@ti.com>	twl6040-vibra.c
<jorge.candelaria@ti.com>");	twl6040-vibra.c
<joseph_lai@wistron.com>	mpu3050.c
<josh@joshisanerd.com>"	kbtab.c
<juhosg@openwrt.org>	gpio_tilt_polled.c
<kall@compass.com>	synaptics.c
<kenan.esau@conan.de>	lifebook.c
<kyungmin.park@samsung.com>	max8998.c
<kyungmin.park@samsung.com>");	max8998.c
<lars@metafoo.de>	ad5449.c
<lars@metafoo.de>	ad7791.c
<lars@metafoo.de>	ad_sigma_delta.c
<lars@metafoo.de>	adis.c
<lars@metafoo.de>	adis16136.c
<lars@metafoo.de>	adis_buffer.c
<lars@metafoo.de>	adis_trigger.c
<lars@metafoo.de>	industrialio-triggered-buffer.c
<lars@metafoo.de>	pwm-beeper.c
<lars@metafoo.de>");	ad5064.c
<lars@metafoo.de>");	ad5360.c
<lars@metafoo.de>");	ad5380.c
<lars@metafoo.de>");	ad5421.c
<lars@metafoo.de>");	ad5449.c
<lars@metafoo.de>");	ad5755.c
<lars@metafoo.de>");	ad5764.c
<lars@metafoo.de>");	ad7266.c
<lars@metafoo.de>");	ad7791.c
<lars@metafoo.de>");	ad_sigma_delta.c
<lars@metafoo.de>");	adis.c
<lars@metafoo.de>");	adis16136.c
<lars@metafoo.de>");	adis16480.c
<lars@metafoo.de>");	industrialio-triggered-buffer.c
<lars@metafoo.de>");	pwm-beeper.c
<ldewangan@nvidia.com>	max8973-regulator.c
<ldewangan@nvidia.com>	rc5t583-regulator.c
<ldewangan@nvidia.com>	tps51632-regulator.c
<ldewangan@nvidia.com>	tps62360-regulator.c
<ldewangan@nvidia.com>	tps80031-regulator.c
<ldewangan@nvidia.com>");	max8973-regulator.c
<ldewangan@nvidia.com>");	rc5t583-regulator.c
<ldewangan@nvidia.com>");	tps51632-regulator.c
<ldewangan@nvidia.com>");	tps62360-regulator.c
<ldewangan@nvidia.com>");	tps80031-regulator.c
<linus.walleij@linaro.org>	tps6105x-regulator.c
<linus.walleij@linaro.org>");	tps6105x-regulator.c
<linus.walleij@stericsson.com>	ab3100.c
<linux@dadeos.co.uk>	ati_remote2.c
<lost.distance@yahoo.com>	navpoint.c
<lost.distance@yahoo.com>");	navpoint.c
<lrg@slimlogic.co.uk>	core.c
<m.szyprowski@samsung.com>	lp3971.c
<m.szyprowski@samsung.com>	max8998.c
<m.szyprowski@samsung.com>");	lp3971.c
<macro@ds2.pg.gda.pl>	vsxxxaa.c
<magi@slimlogic.co.uk>	tps65912-regulator.c
<magi@slimlogic.co.uk>");	tps65912-regulator.c
<maramaopercheseimorto@gmail.com>	mc13783-regulator.c
<maramaopercheseimorto@gmail.com>	mc13xxx-regulator-core.c
<marek.vasut@gmail.com>	isl6271a-regulator.c
<marek.vasut@gmail.com>");	isl6271a-regulator.c
<marteaut@esiee.fr>	gscps2.c
<mattias.wallin@stericsson.com>	ab3100.c
<mattias.wallin@stericsson.com>");	ab3100.c
<merker@linuxtag.org>	vsxxxaa.c
<micah@navi.cx>)	uinput.c
<mike@compulab.co.il>	synaptics_i2c.c
<mike@compulab.co.il>	tps6586x-regulator.c
<mike@compulab.co.il>	userspace-consumer.c
<mike@compulab.co.il>");	da903x.c
<mike@compulab.co.il>");	tps6586x-regulator.c
<mike@compulab.co.il>");	userspace-consumer.c
<milo.kim@ti.com>	lp872x.c
<milo.kim@ti.com>	lp8788-buck.c
<milo.kim@ti.com>	lp8788-ldo.c
<milo.kim@ti.com>	lp8788_adc.c
<misael.lopez@ti.com>	twl6040-vibra.c
<misael.lopez@ti.com>");	twl6040-vibra.c
<mitr@volny.cz>	sparse-keymap.c
<mitr@volny.cz>	wistron_btns.c
<mitr@volny.cz>");	wistron_btns.c
<myungjoo.ham@samsung.com>	max8952.c
<myungjoo.ham@samsung.com>");	max8952.c
<myungjoo.ham@samsung.com>");	max8997.c
<myungjoo.ham@smasung.com>	max8997.c
<n0-1@freewrt.org>	rb532_button.c
<n0-1@freewrt.org>");	rb532_button.c
<neilb@cse.unsw.edu.au>	alps.c
<neilb@cse.unsw.edu.au>	hgpk.c
<nunojpg@gmail.com>	gpio_tilt_polled.c
<olof@lixom.net>	matrix-keymap.c
<oskar.andero@sonyericsson.com>	gp2ap002a00f.c
<panagiotis.issaris@mech.kuleuven.ac.be>	wacom.h
<paul.liu@linaro.org>");	anatop-regulator.c
<pawel.moll@arm.com>");	vexpress.c
<peter.de-schrijver@nokia.com>	mc13783-pwrbutton.c
<peter.de-schrijver@nokia.com>	twl4030-pwrbutton.c
<peter.de-schrijver@nokia.com>");	twl4030-pwrbutton.c
<petero2@telia.com>	alps.c
<petero2@telia.com>	alps.h
<petero2@telia.com>	hgpk.c
<petero2@telia.com>	synaptics.c
<pingc@wacom.com>	wacom.h
<pmeerw@pmeerw.net>	adjd_s311.c
<pmeerw@pmeerw.net>	mcp4725.c
<pmeerw@pmeerw.net>	vcnl4000.c
<pmeerw@pmeerw.net>");	adjd_s311.c
<pmeerw@pmeerw.net>");	mcp4725.c
<pmeerw@pmeerw.net>");	vcnl4000.c
<poeschel@lemonage.de>	viperboard_adc.c
<poeschel@lemonage.de>");	viperboard_adc.c
<popovec@fei.tuke.sk>");	walkera0701.c
<prumpf@tux.org>	gscps2.c
<psokolov@synopsys.com>	arc_ps2.c
<psokolov@synopsys.com>");	arc_ps2.c
<rachna@ti.com>");	ti_am335x_adc.c
<riddlebox@freesurf.ch>	synaptics.c
<rmk@arm.linux.org.uk>");	ambakmi.c
<rmk@arm.linux.org.uk>");	pcips2.c
<rmk@arm.linux.org.uk>");	sa1111ps2.c
<rmk@arm.uk.linux.org>	atarimouse.c
<rnayak@ti.com>	of_regulator.c
<rob@inpharmatica.co.uk>,	synaptics_usb.c
<ron@debian.org>,	synaptics_usb.c
<rpurdie@rpsys.net>");	apm-power.c
<rufus-kernel@hackish.org>	gamecon.c
<s.hauer@pengutronix.de>	mc13783-regulator.c
<s.hauer@pengutronix.de>	mc13xxx-regulator-core.c
<s.hauer@pengutronix.de>");	mc13783-regulator.c
<sam.mosel@computer.org>	aiptek.c
<sam.mosel@computer.org>	wacom.h
<santosh.shilimkar@ti.com>	emif.c
<sbkim73@samsung.com>");	s2mps11.c
<sbkim73@samsung.com>");	s5m8767.c
<schmitz@biophys.uni-duesseldorf.de>");	atarimouse.c
<sebastian_kapfer@gmx.net>	alps.c
<sjackman@gmail.com>	cm109.c
<sjackman@gmail.com>	cm109.c
<srinivas.pandruvada@intel.com>");	hid-sensor-accel-3d.c
<srinivas.pandruvada@intel.com>");	hid-sensor-als.c
<srinivas.pandruvada@intel.com>");	hid-sensor-attributes.c
<srinivas.pandruvada@intel.com>");	hid-sensor-gyro-3d.c
<srinivas.pandruvada@intel.com>");	hid-sensor-magn-3d.c
<srinivas.pandruvada@intel.com>");	hid-sensor-trigger.c
<steve@toth.demon.co.uk>,	xpad.c
<stigge@antcom.de>	max517.c
<stigge@antcom.de>	mcp4725.c
<stigge@antcom.de>");	max517.c
<sundar.iyer@stericsson.com>	ab8500-ponkey.c
<sundar.iyer@stericsson.com>	ab8500.c
<sundar.iyer@stericsson.com>	db8500-prcmu.c
<sundar.iyer@stericsson.com>	dbx500-prcmu.c
<sundar.iyer@stericsson.com>");	ab8500-ponkey.c
<sundar.iyer@stericsson.com>");	ab8500.c
<svoltz@numericable.fr>	acecad.c
<syrjala@sci.fi>	ati_remote2.c
<syrjala@sci.fi>");	ati_remote2.c
<thomas@wytron.com.tw>	altera_ps2.c
<thomas@wytron.com.tw>");	altera_ps2.c
<tiwai@suse.de>	fm801-gp.c
<tiwai@suse.de>");	fm801-gp.c
<tsbogend@alpha.franken.de>	sgi_btns.c
<tsoni@codeaurora.org>");	pmic8xxx-pwrkey.c
<vbyravarasu@nvidia.com>");	tps65090-regulator.c
<vojtech@suse.cz>	aiptek.c
<vojtech@suse.cz>	alps.c
<vojtech@suse.cz>	alps.h
<vojtech@suse.cz>	gamecon.c
<vojtech@suse.cz>	hgpk.c
<vojtech@suse.cz>	lifebook.c
<vojtech@suse.cz>	logips2pp.c
<vojtech@suse.cz>	logips2pp.h
<vojtech@suse.cz>");	i8042.c
<vojtech@suse.cz>");	psmouse-base.c
<vojtech@ucw.cz>	iforce-ff.c
<vojtech@ucw.cz>	iforce-main.c
<vojtech@ucw.cz>	iforce-packets.c
<vojtech@ucw.cz>	iforce-serio.c
<vojtech@ucw.cz>	iforce-usb.c
<vojtech@ucw.cz>	iforce.h
<vojtech@ucw.cz>	wacom.h
<vojtech@ucw.cz>"	wacom.h
<vojtech@ucw.cz>");	a3d.c
<vojtech@ucw.cz>");	adi.c
<vojtech@ucw.cz>");	amijoy.c
<vojtech@ucw.cz>");	amimouse.c
<vojtech@ucw.cz>");	analog.c
<vojtech@ucw.cz>");	cobra.c
<vojtech@ucw.cz>");	ct82c710.c
<vojtech@ucw.cz>");	db9.c
<vojtech@ucw.cz>");	emu10k1-gp.c
<vojtech@ucw.cz>");	gamecon.c
<vojtech@ucw.cz>");	gameport.c
<vojtech@ucw.cz>");	gf2k.c
<vojtech@ucw.cz>");	grip.c
<vojtech@ucw.cz>");	guillemot.c
<vojtech@ucw.cz>");	inport.c
<vojtech@ucw.cz>");	interact.c
<vojtech@ucw.cz>");	joydump.c
<vojtech@ucw.cz>");	lightning.c
<vojtech@ucw.cz>");	logibm.c
<vojtech@ucw.cz>");	magellan.c
<vojtech@ucw.cz>");	mousedev.c
<vojtech@ucw.cz>");	ns558.c
<vojtech@ucw.cz>");	parkbd.c
<vojtech@ucw.cz>");	pc110pad.c
<vojtech@ucw.cz>");	pcspkr.c
<vojtech@ucw.cz>");	q40kbd.c
<vojtech@ucw.cz>");	serio.c
<vojtech@ucw.cz>");	sermouse.c
<vojtech@ucw.cz>");	serport.c
<vojtech@ucw.cz>");	sidewinder.c
<vojtech@ucw.cz>");	spaceball.c
<vojtech@ucw.cz>");	spaceorb.c
<vojtech@ucw.cz>");	stinger.c
<vojtech@ucw.cz>");	tmdc.c
<vojtech@ucw.cz>");	turbografx.c
<vojtech@ucw.cz>");	warrior.c
<vojtech@ucw.cz>,	a3d.c
<vojtech@ucw.cz>,	adi.c
<vojtech@ucw.cz>,	amijoy.c
<vojtech@ucw.cz>,	analog.c
<vojtech@ucw.cz>,	cobra.c
<vojtech@ucw.cz>,	ct82c710.c
<vojtech@ucw.cz>,	db9.c
<vojtech@ucw.cz>,	emu10k1-gp.c
<vojtech@ucw.cz>,	gamecon.c
<vojtech@ucw.cz>,	gf2k.c
<vojtech@ucw.cz>,	grip.c
<vojtech@ucw.cz>,	guillemot.c
<vojtech@ucw.cz>,	iforce-ff.c
<vojtech@ucw.cz>,	iforce-main.c
<vojtech@ucw.cz>,	iforce-main.c
<vojtech@ucw.cz>,	iforce-packets.c
<vojtech@ucw.cz>,	iforce-serio.c
<vojtech@ucw.cz>,	iforce-usb.c
<vojtech@ucw.cz>,	iforce.h
<vojtech@ucw.cz>,	inport.c
<vojtech@ucw.cz>,	interact.c
<vojtech@ucw.cz>,	joydump.c
<vojtech@ucw.cz>,	lightning.c
<vojtech@ucw.cz>,	logibm.c
<vojtech@ucw.cz>,	magellan.c
<vojtech@ucw.cz>,	ns558.c
<vojtech@ucw.cz>,	pc110pad.c
<vojtech@ucw.cz>,	q40kbd.c
<vojtech@ucw.cz>,	rpckbd.c
<vojtech@ucw.cz>,	serio.c
<vojtech@ucw.cz>,	sermouse.c
<vojtech@ucw.cz>,	sidewinder.c
<vojtech@ucw.cz>,	spaceball.c
<vojtech@ucw.cz>,	spaceorb.c
<vojtech@ucw.cz>,	stinger.c
<vojtech@ucw.cz>,	tmdc.c
<vojtech@ucw.cz>,	turbografx.c
<vojtech@ucw.cz>,	warrior.c
<vojtech@ucw.cz>\n",	a3d.c
<vojtech@ucw.cz>\n",	sidewinder.c
<weixing@hanwang.com.cn>	hanwang.c
<weixing@hanwang.com.cn>"	hanwang.c
<will@sowerbutts.com>	powermate.c
<woong.byun@samsung.com>");	max77686.c
<woong.byun@smasung.com>	max77686.c
<yaoyong@marvell.com>	pxa930_trkball.c
<yaoyong@marvell.com>");	pxa930_trkball.c
<yfzhang@marvell.com>	fan53555.c
<yfzhang@marvell.com>");	fan53555.c
<yong.shen@linaro.org>	mc13783-regulator.c
<yong.shen@linaro.org>	mc13892-regulator.c
<yong.shen@linaro.org>	mc13xxx-regulator-core.c
<yong.shen@linaro.org>	mc13xxx.h
<yong.shen@linaro.org>");	mc13892-regulator.c
<yong.shen@linaro.org>");	mc13xxx-regulator-core.c
<zhouqiao@marvell.com>	88pm80x_onkey.c
<zhouqiao@marvell.com>");	88pm80x_onkey.c
daniel@gimpelevich.san-francisco.ca.us	cm109.c
jroberson@gtcocalcomp.com	gtco.c
july@nat.bg	cm109.c
linux@wolfsonmicro.com	wm8350-regulator.c
shill@gtcocalcomp.com	gtco.c
vojtech@ucw.cz\n",	cobra.c
