"<wlanfae@realtek.com>"	rtl_core.h
(davem@redhat.com)	rtl_crypto.h
(davem@redhat.com)	rtl_crypto.h
(greg@ced.co.uk)	ced_ioc.c
(greg@ced.co.uk)	ced_ioctl.h
(greg@ced.co.uk)	usb1401.c
(greg@ced.co.uk)	usb1401.h
(greg@kroah.com)	usb1401.c
(patrik.ostrihon@pwc.sk)	ft1000_cs.c
(w.chan@flarion.com).	ft1000_cs.c
<21cnbao@gmail.com>");	ad7150.c
<21cnbao@gmail.com>");	ad7152.c
<21cnbao@gmail.com>");	ade7753.c
<21cnbao@gmail.com>");	ade7754.c
<21cnbao@gmail.com>");	ade7758_core.c
<21cnbao@gmail.com>");	ade7759.c
<21cnbao@gmail.com>");	ade7854-i2c.c
<21cnbao@gmail.com>");	ade7854-spi.c
<21cnbao@gmail.com>");	ade7854.c
<21cnbao@gmail.com>");	adis16060_core.c
<21cnbao@gmail.com>");	adis16080_core.c
<21cnbao@gmail.com>");	adis16130_core.c
<21cnbao@gmail.com>");	adis16201_core.c
<21cnbao@gmail.com>");	adis16203_core.c
<21cnbao@gmail.com>");	adis16204_core.c
<21cnbao@gmail.com>");	adis16209_core.c
<21cnbao@gmail.com>");	adis16220_core.c
<21cnbao@gmail.com>");	adis16240_core.c
<21cnbao@gmail.com>");	adis16260_core.c
<adam@yggdrasil.com>	aes.c
<adam@yggdrasil.com>	scatterwalk.c
<adam@yggdrasil.com>	scatterwalk.h
<alois.schloegl@ist.ac.at>	usb1401.c
<amit.kucheria@verdurent.com>	tsl2563.c
<amit.kucheria@verdurent.com>	tsl2563.c
<andreamrl@tiscali.it>	ieee80211.h
<andreamrl@tiscali.it>	ieee80211_rx.c
<andreamrl@tiscali.it>	ieee80211_softmac.c
<andreamrl@tiscali.it>	ieee80211_softmac_wx.c
<andreamrl@tiscali.it>	ieee80211_tx.c
<andreamrl@tiscali.it>	r8180_93cx6.c
<andreamrl@tiscali.it>	r8180_93cx6.h
<andreamrl@tiscali.it>	r8180_pm.c
<andreamrl@tiscali.it>	r8180_pm.h
<andreamrl@tiscali.it>	r8190_rtl8256.h
<andreamrl@tiscali.it>	r8192U.h
<andreamrl@tiscali.it>	r8192U_hw.h
<andreamrl@tiscali.it>	r8192U_wx.c
<andreamrl@tiscali.it>	r8192U_wx.h
<andreamrl@tiscali.it>	rtllib.h
<andreamrl@tiscali.it>	rtllib_rx.c
<andreamrl@tiscali.it>	rtllib_softmac.c
<andreamrl@tiscali.it>	rtllib_softmac_wx.c
<andreamrl@tiscali.it>	rtllib_tx.c
<andreamrl@tiscali.it>,	r8192E_dev.c
<andreamrl@tiscali.it>,	r8192E_dev.h
<andreamrl@tiscali.it>,	r8192U_core.c
<andreamrl@tiscali.it>,	rtl_cam.c
<andreamrl@tiscali.it>,	rtl_cam.h
<andreamrl@tiscali.it>,	rtl_core.c
<andreamrl@tiscali.it>,	rtl_core.h
<andreamrl@tiscali.it>,	rtl_debug.c
<andreamrl@tiscali.it>,	rtl_eeprom.c
<andreamrl@tiscali.it>,	rtl_eeprom.h
<andreamrl@tiscali.it>,	rtl_ethtool.c
<andreamrl@tiscali.it>,	rtl_pci.c
<andreamrl@tiscali.it>,	rtl_pci.h
<andreamrl@tiscali.it>,	rtl_ps.c
<andreamrl@tiscali.it>,	rtl_ps.h
<andreamrl@tiscali.it>,	rtllib_debug.h
<arvidjaar@mail.ru>	wl_main.c
<astor@fast.no>	aes.c
<astor@fast.no>	rtl_crypto.h
<astor@fast.no>	rtl_crypto.h
<brg@gladman.me.uk>,	aes.c
<clameter@sgi.com>	tmem.c
<dahinds@users.sourceforge.net>.	ft1000_cs.c
<eduardo.valentin@ti.com>	omap-bandgap.c
<eduardo.valentin@ti.com>	omap-bandgap.h
<eduardo.valentin@ti.com>	omap-thermal-common.c
<eduardo.valentin@ti.com>	omap-thermal.h
<eduardo.valentin@ti.com>	omap4-thermal.c
<eduardo.valentin@ti.com>	omap5-thermal.c
<graff.yang@gmail.com>");	ad2s1200.c
<graff.yang@gmail.com>");	ad2s1210.c
<graff.yang@gmail.com>");	ad2s90.c
<hennerich@blackfin.uclinux.org>");	ad5933.c
<hennerich@blackfin.uclinux.org>");	ad7192.c
<hennerich@blackfin.uclinux.org>");	ad7280a.c
<hennerich@blackfin.uclinux.org>");	ad7606_core.c
<hennerich@blackfin.uclinux.org>");	ad7606_par.c
<hennerich@blackfin.uclinux.org>");	ad7606_spi.c
<hennerich@blackfin.uclinux.org>");	ad7746.c
<hennerich@blackfin.uclinux.org>");	ad7780.c
<hennerich@blackfin.uclinux.org>");	ad799x_core.c
<hennerich@blackfin.uclinux.org>");	ad9832.c
<hennerich@blackfin.uclinux.org>");	ad9834.c
<hennerich@blackfin.uclinux.org>");	iio-trig-bfin-timer.c
<hennerich@blackfin.uclinux.org>");	iio-trig-sysfs.c
<hvr@hvrlab.org>	aes.c
<ipw2100-admin@linux.intel.com>	ieee80211_module.c
<ipw2100-admin@linux.intel.com>	ieee80211_tx.c
<ipw2100-admin@linux.intel.com>	ieee80211_wx.c
<ipw2100-admin@linux.intel.com>	rtllib_module.c
<ipw2100-admin@linux.intel.com>	rtllib_tx.c
<ipw2100-admin@linux.intel.com>	rtllib_wx.c
<ivan@cyclades.com>	pc300-falc-lh.h
<ivan@cyclades.com>	pc300.h
<ivan@cyclades.com>	pc300_drv.c
<ivan@cyclades.com>\r\n"	pc300_drv.c
<j-keerthy@ti.com>	omap-bandgap.c
<jic23@kernel.org>	adis16400.h
<jic23@kernel.org>	adis16400_core.c
<jic23@kernel.org>	hmc5843.c
<jic23@kernel.org>	kxsd9.c
<jic23@kernel.org>	lis3l02dq.h
<jic23@kernel.org>	lis3l02dq_core.c
<jic23@kernel.org>	ring_hw.h
<jic23@kernel.org>	sca3000.h
<jic23@kernel.org>	sca3000_core.c
<jic23@kernel.org>	sca3000_ring.c
<jic23@kernel.org>");	iio-trig-gpio.c
<jic23@kernel.org>");	iio-trig-periodic-rtc.c
<jic23@kernel.org>");	iio_dummy_evgen.c
<jic23@kernel.org>");	iio_hwmon.c
<jic23@kernel.org>");	iio_simple_dummy.c
<jic23@kernel.org>");	kxsd9.c
<jic23@kernel.org>");	lis3l02dq_core.c
<jic23@kernel.org>");	sca3000_core.c
<jketreno@linux.intel.com>	ieee80211.h
<jketreno@linux.intel.com>	ieee80211_crypt.c
<jketreno@linux.intel.com>	ieee80211_crypt.h
<jketreno@linux.intel.com>	ieee80211_crypt.h
<jketreno@linux.intel.com>	rtllib.h
<jketreno@linux.intel.com>	rtllib_crypt.c
<jketreno@linux.intel.com>	rtllib_crypt.h
<jketreno@linux.intel.com>");	ieee80211_module.c
<jkmaline@cc.hut.fi>	ieee80211.h
<jkmaline@cc.hut.fi>	ieee80211.h
<jkmaline@cc.hut.fi>	ieee80211_crypt.c
<jkmaline@cc.hut.fi>	ieee80211_crypt.h
<jkmaline@cc.hut.fi>	ieee80211_crypt.h
<jkmaline@cc.hut.fi>	ieee80211_crypt.h
<jkmaline@cc.hut.fi>	ieee80211_crypt.h
<jkmaline@cc.hut.fi>	ieee80211_crypt_ccmp.c
<jkmaline@cc.hut.fi>	ieee80211_crypt_tkip.c
<jkmaline@cc.hut.fi>	ieee80211_crypt_wep.c
<jkmaline@cc.hut.fi>	ieee80211_module.c
<jkmaline@cc.hut.fi>	ieee80211_module.c
<jkmaline@cc.hut.fi>	ieee80211_rx.c
<jkmaline@cc.hut.fi>	ieee80211_rx.c
<jkmaline@cc.hut.fi>	ieee80211_wx.c
<jkmaline@cc.hut.fi>	ieee80211_wx.c
<jkmaline@cc.hut.fi>	michael_mic.c
<jkmaline@cc.hut.fi>	rtllib.h
<jkmaline@cc.hut.fi>	rtllib.h
<jkmaline@cc.hut.fi>	rtllib_crypt.c
<jkmaline@cc.hut.fi>	rtllib_crypt.h
<jkmaline@cc.hut.fi>	rtllib_crypt.h
<jkmaline@cc.hut.fi>	rtllib_crypt_ccmp.c
<jkmaline@cc.hut.fi>	rtllib_crypt_tkip.c
<jkmaline@cc.hut.fi>	rtllib_crypt_wep.c
<jkmaline@cc.hut.fi>	rtllib_module.c
<jkmaline@cc.hut.fi>	rtllib_module.c
<jkmaline@cc.hut.fi>	rtllib_rx.c
<jkmaline@cc.hut.fi>	rtllib_rx.c
<jkmaline@cc.hut.fi>	rtllib_wx.c
<jkmaline@cc.hut.fi>	rtllib_wx.c
<jkmaline@cc.hut.fi>");	michael_mic.c
<jlcooke@certainkey.com>	scatterwalk.c
<jlcooke@certainkey.com>	scatterwalk.h
<jmorris@intercode.com.au>	autoload.c
<jmorris@intercode.com.au>	cipher.c
<jmorris@intercode.com.au>	compress.c
<jmorris@intercode.com.au>	digest.c
<jmorris@intercode.com.au>	internal.h
<jmorris@intercode.com.au>	proc.c
<jmorris@intercode.com.au>	rtl_crypto.h
<jmorris@intercode.com.au>	rtl_crypto.h
<jmorris@intercode.com.au>	scatterwalk.c
<jmorris@intercode.com.au>	scatterwalk.h
<jon@oberheide.org>	arc4.c
<jon@oberheide.org>");	arc4.c
<kyle@debian.org>	aes.c
<lars@metafoo.de>	iio_event_monitor.c
<lawrence_wang@realsil.com.cn>	crypto_compat.h
<ldewangan@nvidia.com>");	ak8975.c
<ldewangan@nvidia.com>");	isl29028.c
<m-sonasath@ti.com>	omap-bandgap.c
<manuel.stahl@iis.fraunhofer.de>	adis16400.h
<manuel.stahl@iis.fraunhofer.de>	adis16400_core.c
<manuel.stahl@iis.fraunhofer.de>");	adis16400_core.c
<marex@denx.de>	mxs-lradc.c
<marex@denx.de>");	mxs-lradc.c
<ngupta@vflare.org>");	zram_drv.c
<pc300@cyclades.com");	pc300_drv.c
<pc300@cyclades.com>	pc300_drv.c
<pe1dnn@amsat.org>\n");	wl_main.c
<pmeerw@pmeerw.net>.	hmc5843.c
<reginak@cyclades.com>	pc300_tty.c
<shubhrajyoti@ti.com");	hmc5843.c
<shubhrajyoti@ti.com>	hmc5843.c
<sonic.zhang@analog.com>");	ad7291.c
<sonic.zhang@analog.com>");	ad7816.c
<sonic.zhang@analog.com>");	adt7316-i2c.c
<sonic.zhang@analog.com>");	adt7316-spi.c
<sonic.zhang@analog.com>");	adt7316.c
<sonic.zhang@analog.com>");	adt7410.c
<sr@denx.de>	spear_adc.c
<sr@denx.de>");	spear_adc.c
<stigge@antcom.de>	lpc32xx_adc.c
<stigge@antcom.de>");	lpc32xx_adc.c
<timo.o.karjalainen@nokia.com>	tsl2563.c
<wlanfae@realtek.com>	dot11d.c
<wlanfae@realtek.com>	dot11d.c
<wlanfae@realtek.com>	dot11d.h
<wlanfae@realtek.com>	dot11d.h
<wlanfae@realtek.com>	dot11d.h
<wlanfae@realtek.com>	r8190P_def.h
<wlanfae@realtek.com>	r8190P_rtl8256.c
<wlanfae@realtek.com>	r8190P_rtl8256.h
<wlanfae@realtek.com>	r8192E_cmdpkt.c
<wlanfae@realtek.com>	r8192E_cmdpkt.h
<wlanfae@realtek.com>	r8192E_dev.c
<wlanfae@realtek.com>	r8192E_dev.h
<wlanfae@realtek.com>	r8192E_firmware.c
<wlanfae@realtek.com>	r8192E_firmware.h
<wlanfae@realtek.com>	r8192E_hw.h
<wlanfae@realtek.com>	r8192E_hwimg.c
<wlanfae@realtek.com>	r8192E_hwimg.h
<wlanfae@realtek.com>	r8192E_phy.c
<wlanfae@realtek.com>	r8192E_phy.h
<wlanfae@realtek.com>	r8192E_phyreg.h
<wlanfae@realtek.com>	r8192U_core.c
<wlanfae@realtek.com>	rtl819x_BA.h
<wlanfae@realtek.com>	rtl819x_BA.h
<wlanfae@realtek.com>	rtl819x_BAProc.c
<wlanfae@realtek.com>	rtl819x_BAProc.c
<wlanfae@realtek.com>	rtl819x_HT.h
<wlanfae@realtek.com>	rtl819x_HT.h
<wlanfae@realtek.com>	rtl819x_HTProc.c
<wlanfae@realtek.com>	rtl819x_HTProc.c
<wlanfae@realtek.com>	rtl819x_Qos.h
<wlanfae@realtek.com>	rtl819x_Qos.h
<wlanfae@realtek.com>	rtl819x_TS.h
<wlanfae@realtek.com>	rtl819x_TS.h
<wlanfae@realtek.com>	rtl819x_TSProc.c
<wlanfae@realtek.com>	rtl819x_TSProc.c
<wlanfae@realtek.com>	rtl_cam.c
<wlanfae@realtek.com>	rtl_cam.h
<wlanfae@realtek.com>	rtl_core.c
<wlanfae@realtek.com>	rtl_core.h
<wlanfae@realtek.com>	rtl_debug.c
<wlanfae@realtek.com>	rtl_dm.c
<wlanfae@realtek.com>	rtl_dm.h
<wlanfae@realtek.com>	rtl_eeprom.c
<wlanfae@realtek.com>	rtl_eeprom.h
<wlanfae@realtek.com>	rtl_ethtool.c
<wlanfae@realtek.com>	rtl_pci.c
<wlanfae@realtek.com>	rtl_pci.h
<wlanfae@realtek.com>	rtl_pm.c
<wlanfae@realtek.com>	rtl_pm.h
<wlanfae@realtek.com>	rtl_ps.c
<wlanfae@realtek.com>	rtl_ps.h
<wlanfae@realtek.com>	rtl_wx.c
<wlanfae@realtek.com>	rtl_wx.h
<wlanfae@realtek.com>	rtllib_debug.h
Brenner<jbrenner@taosinc.com>");	tsl2583.c
Brenner<jbrenner@taosinc.com>");	tsl2x7x_core.c
greg@ced.co.uk	machine.h
greg@ced.co.uk	use1401.c
