(alborchers@steinerpoint.com)	f_acm.c
(alborchers@steinerpoint.com)	u_serial.c
(alborchers@steinerpoint.com)	u_serial.c
(ebu@cs.hut.fi).	pcl711.c
(grabner@icg.tugraz.at)	midi.c
(grabner@icg.tugraz.at)	midi.h
(grabner@icg.tugraz.at)	midibuf.h
(grabner@icg.tugraz.at)	pcm.h
(grabner@icg.tugraz.at)	pod.c
(greg@kroah.com)	alphatrack.c
(greg@kroah.com)	tranzport.c
(greg@kroah.com)	u_serial.c
(jalkanen@cs.hut.fi)	pcl711.c
(jsanchezv@teleline.es)	acl7225b.c
(jsanchezv@teleline.es)	pcl730.c
(m@taht.net)	alphatrack.c
(m@taht.net)	tranzport.c
(mina86@mina86.com)	f_acm.c
(mina86@mina86.com)	f_rndis.c
(mina86@mina86.com)	storage_common.c
(mocelet@sucs.org).	cb_pcimdas.c
(pberger@brimson.com)	u_serial.c
<BerndPorr@f2s.com>	usbdux.c
<BerndPorr@f2s.com>	usbduxsigma.c
<Joachim.Wuttke@icn.siemens.de>	comedi_test.c
<Joachim.Wuttke@icn.siemens.de>,	comedi_test.c
<Timothy.Curry@rdec.redstone.army.mil>	cb_pcimdda.c
<ZhenGang.Shang@Advantech.com.cn>	adv_pci1710.c
<abbotti@mev.co.uk>	adv_pci1723.c
<abbotti@mev.co.uk>	amplc_dio200.c
<abbotti@mev.co.uk>	amplc_pc236.c
<abbotti@mev.co.uk>	amplc_pc263.c
<abbotti@mev.co.uk>	amplc_pci224.c
<abbotti@mev.co.uk>	amplc_pci230.c
<abbotti@mev.co.uk>	comedi_compat32.c
<abbotti@mev.co.uk>	comedi_compat32.h
<acister@pcape1.pi.infn.it>	amcc_s5933.h
<advidgsf@sourceforge.net>	alphatrack.c
<advidgsf@sourceforge.net>	tranzport.c
<allanwillcox@ozemail.com.au>	amplc_pci230.c
<allanwillcox@ozemail.com.au>,	amplc_pci230.c
<anders.blomdell@control.lth.se>	daqboard2000.c
<anders.blomdell@control.lth.se>	daqboard2000.c
<anders.blomdell@control.lth.se>	dt2815.c
<anders.blomdell@control.lth.se>	dt9812.c
<anders.blomdell@control.lth.se>	jr3_pci.c
<anders.blomdell@control.lth.se>	jr3_pci.c
<anders.blomdell@control.lth.se>	multiq3.c
<anders.blomdell@control.lth.se>	multiq3.c
<anders.blomdell@control.lth.se>	rti802.c
<anders.blomdell@control.lth.se>	rti802.c
<anders.blomdell@control.lth.se>	serial2002.c
<anders.blomdell@control.lth.se>");	dt9812.c
<andreamrl@tiscali.it>	ieee80211.h
<andreamrl@tiscali.it>	ieee80211_rx.c
<andreamrl@tiscali.it>	ieee80211_softmac.c
<andreamrl@tiscali.it>	ieee80211_softmac_wx.c
<andreamrl@tiscali.it>	ieee80211_tx.c
<andreamrl@tiscali.it>	r8180.h
<andreamrl@tiscali.it>	r8180_93cx6.h
<andreamrl@tiscali.it>	r8180_core.c
<andreamrl@tiscali.it>	r8180_hw.h
<andreamrl@tiscali.it>	r8180_rtl8225.h
<andreamrl@tiscali.it>	r8180_rtl8225z2.c
<andreamrl@tiscali.it>	r8180_wx.c
<andreamrl@tiscali.it>	r8180_wx.h
<andreamrl@tiscali.it>");	r8180_core.c
<andrzej.p@samsung.com>	ccg.c
<andy.gross@ti.com>	omap_dmm_priv.h
<andy.gross@ti.com>	omap_dmm_tiler.c
<andy.gross@ti.com>	omap_dmm_tiler.h
<andy.gross@ti.com>");	omap_dmm_tiler.c
<anne.smorthit@sfwte.ch>	icp_multi.c
<asgard@etersoft.ru>	unioxx5.c
<b.spranger@pengutronix.de>	ndis.h
<baccala@freesoft.org>	quatech_daqp_cs.c
<baccala@freesoft.org>	quatech_daqp_cs.c
<baccala@freesoft.org>");	quatech_daqp_cs.c
<baugher@enteract.com>	das16.c
<baugher@enteract.com>	ni_atmio16d.c
<baugher@enteract.com>	ni_atmio16d.c
<benoit@android.com>	ccg.c
<bjoris@advalvas.be>	ni_670x.c
<bjoris@advalvas.be>	ni_670x.c
<calin@ajvar.org>	cb_pcimdda.c
<calin@ajvar.org>	cb_pcimdda.c
<calin@ajvar.org>	cb_pcimdda.c
<calin@ajvar.org>	comedi_bond.c
<calin@ajvar.org>	pcmda12.c
<calin@ajvar.org>	pcmda12.c
<calin@ajvar.org>	pcmmio.c
<calin@ajvar.org>	pcmmio.c
<calin@ajvar.org>	pcmuio.c
<calin@ajvar.org>	pcmuio.c
<calin@rtlab.org>");	cb_pcimdda.c
<chorns@users.sourceforge.net>	ndis.h
<comedi@comedi.org>");	ni_tio.c
<comedi@comedi.org>");	ni_tiocmd.c
<dahinds@users.sourceforge.net>.	cb_das16_cs.c
<dahinds@users.sourceforge.net>.	das08_cs.c
<dahinds@users.sourceforge.net>.	ni_daq_dio24.c
<dahinds@users.sourceforge.net>.	ni_labpc_cs.c
<dave@tech.buffalostate.edu>	pcl711.c
<dfcastelao@gmail.com>	adl_pci7x3x.c
<dhinds@pcmcia.sourceforge.org>.	quatech_daqp_cs.c
<dobes@tesnet.cz>	adl_pci9118.c
<dobes@tesnet.cz>	adl_pci9118.c
<dobes@tesnet.cz>	adv_pci1710.c
<dobes@tesnet.cz>	adv_pci1710.c
<dobes@tesnet.cz>	adv_pci_dio.c
<dobes@tesnet.cz>	adv_pci_dio.c
<dobes@tesnet.cz>	amcc_s5933.h
<dobes@tesnet.cz>	ni_atmio16d.c
<dobes@tesnet.cz>	pcl724.c
<dobes@tesnet.cz>	pcl724.c
<dobes@tesnet.cz>	pcl812.c
<dobes@tesnet.cz>	pcl812.c
<dobes@tesnet.cz>	pcl816.c
<dobes@tesnet.cz>	pcl818.c
<dobes@tesnet.cz>	pcl818.c
<drew_csillag@yahoo.com>	pcm3724.c
<drew_csillag@yahoo.com>	pcm3724.c
<ds@schleef.org>	8253.h
<ds@schleef.org>	8255.c
<ds@schleef.org>	8255.h
<ds@schleef.org>	8255_pci.c
<ds@schleef.org>	adl_pci6208.c
<ds@schleef.org>	adl_pci7x3x.c
<ds@schleef.org>	adq12b.c
<ds@schleef.org>	adv_pci1723.c
<ds@schleef.org>	am9513.h
<ds@schleef.org>	amplc_dio200.c
<ds@schleef.org>	amplc_pc236.c
<ds@schleef.org>	amplc_pc263.c
<ds@schleef.org>	amplc_pci224.c
<ds@schleef.org>	amplc_pci230.c
<ds@schleef.org>	cb_das16_cs.c
<ds@schleef.org>	cb_pcidas.c
<ds@schleef.org>	cb_pcidas64.c
<ds@schleef.org>	cb_pcidda.c
<ds@schleef.org>	cb_pcimdas.c
<ds@schleef.org>	cb_pcimdda.c
<ds@schleef.org>	comedi.h
<ds@schleef.org>	comedi_bond.c
<ds@schleef.org>	comedi_compat32.c
<ds@schleef.org>	comedi_compat32.h
<ds@schleef.org>	comedi_fops.c
<ds@schleef.org>	comedi_parport.c
<ds@schleef.org>	comedi_test.c
<ds@schleef.org>	comedidev.h
<ds@schleef.org>	comedilib.h
<ds@schleef.org>	contec_pci_dio.c
<ds@schleef.org>	das08.c
<ds@schleef.org>	das08_cs.c
<ds@schleef.org>	das16.c
<ds@schleef.org>	das16m1.c
<ds@schleef.org>	das1800.c
<ds@schleef.org>	das800.c
<ds@schleef.org>	dmm32at.c
<ds@schleef.org>	drivers.c
<ds@schleef.org>	dt2811.c
<ds@schleef.org>	dt2814.c
<ds@schleef.org>	dt2817.c
<ds@schleef.org>	dt282x.c
<ds@schleef.org>	dt3000.c
<ds@schleef.org>	gsc_hpdi.c
<ds@schleef.org>	icp_multi.c
<ds@schleef.org>	kcomedilib_main.c
<ds@schleef.org>	ke_counter.c
<ds@schleef.org>	me4000.c
<ds@schleef.org>	mite.c
<ds@schleef.org>	mite.h
<ds@schleef.org>	mpc624.c
<ds@schleef.org>	ni_6527.c
<ds@schleef.org>	ni_65xx.c
<ds@schleef.org>	ni_670x.c
<ds@schleef.org>	ni_at_a2150.c
<ds@schleef.org>	ni_at_ao.c
<ds@schleef.org>	ni_atmio.c
<ds@schleef.org>	ni_daq_700.c
<ds@schleef.org>	ni_mio_common.c
<ds@schleef.org>	ni_mio_cs.c
<ds@schleef.org>	ni_pcidio.c
<ds@schleef.org>	ni_pcimio.c
<ds@schleef.org>	ni_stc.h
<ds@schleef.org>	pcl711.c
<ds@schleef.org>	pcl726.c
<ds@schleef.org>	pcmad.c
<ds@schleef.org>	plx9052.h
<ds@schleef.org>	poc.c
<ds@schleef.org>	proc.c
<ds@schleef.org>	quatech_daqp_cs.c
<ds@schleef.org>	range.c
<ds@schleef.org>	rtd520.c
<ds@schleef.org>	rtd520.h
<ds@schleef.org>	rti800.c
<ds@schleef.org>	s526.c
<ds@schleef.org>	s626.c
<ds@schleef.org>	s626.h
<ds@schleef.org>	skel.c
<ds@schleef.org>	ssv_dnp.c
<ds@schleef.org>	unioxx5.c
<ds@schleef.org>	vmk80xx.c
<ds@schleef.org>");	cb_das16_cs.c
<ds@schleef.org>");	kcomedilib_main.c
<ds@schleef.org>");	ni_mio_cs.c
<ds@schleef.org>,	das08_cs.c
<dvecino@able.es>	ni_daq_700.c
<dvecino@able.es>	ni_daq_dio24.c
<dvecino@able.es>	ni_daq_dio24.c
<dvecino@able.es>");	ni_daq_dio24.c
<ebu@cs.hut.fi>	pcl711.c
<ebu@cs.hut.fi>	pcl711.c
<everett.wang@everteq.com>	s526.c
<ex18@kalman.iau.dtu.dk>	fl512.c
<ex18@kalman.iau.dtu.dk>	fl512.c
<fmhess@users.sourceforge.net>	cb_pcidas.c
<fmhess@users.sourceforge.net>	cb_pcidas.c
<fmhess@users.sourceforge.net>	cb_pcidas64.c
<fmhess@users.sourceforge.net>	cb_pcidas64.c
<fmhess@users.sourceforge.net>	cb_pcidda.c
<fmhess@users.sourceforge.net>	cb_pcidda.c
<fmhess@users.sourceforge.net>	comedi_fc.c
<fmhess@users.sourceforge.net>	comedi_fc.h
<fmhess@users.sourceforge.net>	comedi_test.c
<fmhess@users.sourceforge.net>	das08.c
<fmhess@users.sourceforge.net>	das08.h
<fmhess@users.sourceforge.net>	das08_cs.c
<fmhess@users.sourceforge.net>	das16.c
<fmhess@users.sourceforge.net>	das16m1.c
<fmhess@users.sourceforge.net>	das16m1.c
<fmhess@users.sourceforge.net>	das1800.c
<fmhess@users.sourceforge.net>	das1800.c
<fmhess@users.sourceforge.net>	das800.c
<fmhess@users.sourceforge.net>	das800.c
<fmhess@users.sourceforge.net>	gsc_hpdi.c
<fmhess@users.sourceforge.net>	gsc_hpdi.c
<fmhess@users.sourceforge.net>	ni_65xx.c
<fmhess@users.sourceforge.net>	ni_65xx.c
<fmhess@users.sourceforge.net>	ni_660x.c
<fmhess@users.sourceforge.net>	ni_at_a2150.c
<fmhess@users.sourceforge.net>	ni_labpc.c
<fmhess@users.sourceforge.net>	ni_labpc.c
<fmhess@users.sourceforge.net>	ni_labpc.h
<fmhess@users.sourceforge.net>	ni_labpc_cs.c
<fmhess@users.sourceforge.net>	ni_labpc_cs.c
<fmhess@users.sourceforge.net>	ni_mio_common.c
<fmhess@users.sourceforge.net>	ni_tio.c
<fmhess@users.sourceforge.net>	ni_tio.c
<fmhess@users.sourceforge.net>	ni_tiocmd.c
<fmhess@users.sourceforge.net>	ni_tiocmd.c
<fmhess@users.sourceforge.net>	plx9080.h
<fmhess@users.sourceforge.net>	poc.c
<fmhess@users.sourceforge.net>");	comedi_fc.c
<fmhess@users.sourceforge.net>");	das08_cs.c
<fmhess@users.sourceforge.net>");	ni_labpc_cs.c
<fmhess@users.sourceforge.net>,	comedi_test.c
<forensixs@gmx.de>	vmk80xx.c
<forensixs@gmx.de>");	vmk80xx.c
<forensixs@gmx.de>,	vmk80xx.c
<g.gebhardt@meilhaus.com>)	me4000.c
<gpalli@deis.unibo.it>");	s626.c
<gpalli@deis.unibo.it>,	s626.c
<gpalli@deis.unibo.it>,	s626.h
<hillmann@syscongroup.de>	me_daq.c
<hillmann@syscongroup.de>	me_daq.c
<hsweeten@visionengravers.com>	8255_pci.c
<hsweeten@visionengravers.com>	8255_pci.c
<hsweeten@visionengravers.com>	adl_pci7x3x.c
<hsweeten@visionengravers.com>	adl_pci7x3x.c
<hsweeten@visionengravers.com>");	adl_pci7x3x.c
<imr@oersted.dtu.dk>	cb_pcidas.c
<imr@oersted.dtu.dk>,	cb_pcidas.c
<ipw2100-admin@linux.intel.com>	ieee80211_module.c
<ipw2100-admin@linux.intel.com>	ieee80211_tx.c
<ipw2100-admin@linux.intel.com>	ieee80211_wx.c
<ivanmr@altavista.com>	cb_pcidda.c
<ivanmr@altavista.com>	cb_pcidda.c
<jalkanen@cs.hut.fi>	pcl711.c
<jalkanen@cs.hut.fi>,	pcl711.c
<jd@renko.co.uk>	8255_pci.c
<jd@renko.co.uk>	ni_65xx.c
<jd@renko.co.uk>,	ni_65xx.c
<jketreno@linux.intel.com>	ieee80211.h
<jketreno@linux.intel.com>	ieee80211_crypt.c
<jketreno@linux.intel.com>	ieee80211_crypt.h
<jketreno@linux.intel.com>");	ieee80211_module.c
<jkmaline@cc.hut.fi>	ieee80211.h
<jkmaline@cc.hut.fi>	ieee80211.h
<jkmaline@cc.hut.fi>	ieee80211_crypt.c
<jkmaline@cc.hut.fi>	ieee80211_crypt.h
<jkmaline@cc.hut.fi>	ieee80211_crypt.h
<jkmaline@cc.hut.fi>	ieee80211_crypt_ccmp.c
<jkmaline@cc.hut.fi>	ieee80211_crypt_tkip.c
<jkmaline@cc.hut.fi>	ieee80211_crypt_wep.c
<jkmaline@cc.hut.fi>	ieee80211_module.c
<jkmaline@cc.hut.fi>	ieee80211_module.c
<jkmaline@cc.hut.fi>	ieee80211_rx.c
<jkmaline@cc.hut.fi>	ieee80211_rx.c
<jkmaline@cc.hut.fi>	ieee80211_wx.c
<jkmaline@cc.hut.fi>	ieee80211_wx.c
<jmunhoz@igalia.com>	sm7xxfb.c
<juan@grigera.com.ar>	pcl816.c
<juan@grigera.com.ar>	pcl816.c
<kannan@iitb.ac.in>	dyna_pci10xx.c
<kempf@matsci.uni-sb.de>	ii_pci20kc.c
<kempf@matsci.uni-sb.de>	ii_pci20kc.c
<khc@rgstudio.com.pl>	plx9080.h
<linux-development@auerswald.de>	rndis.c
<linux-development@auerswald.de>	rndis.c
<lockwood@android.com>	ccg.c
<m@taht.net>");	alphatrack.c
<m@taht.net>");	tranzport.c
<mark.einon@gmail.com>	et131x.c
<mark.einon@gmail.com>");	et131x.c
<mike@mikelachaine.ca>	adl_pci7x3x.c
<mike@mikelachaine.ca>	adl_pci8164.c
<mike@mikelachaine.ca>	adl_pci8164.c
<miknix@gmail.com>	quickstart.c
<mina86@mina86.com>	f_fs.c
<mina86@mina86.com>	f_mass_storage.c
<molnar@ti.com>	tcm-sita.c
<molnar@ti.com>	tcm.h
<nsaspook@nsaspook.com>");	ni_daq_700.c
<nsaspook@nsaspook.com>,	ni_daq_700.c
<nsyeow@pd.jaring.my>	adl_pci6208.c
<pablo.mejia@cctechnol.com>	aio_aio12_8.c
<perry.j.piplani@nasa.gov>	dmm32at.c
<pshah.mumbai@gmail.com>	dyna_pci10xx.c
<pshah.mumbai@gmail.com>");	dyna_pci10xx.c
<r.ramachandra@ti.com>	tcm-sita.h
<r.ramachandra@ti.com>,	tcm-sita.c
<rlove@google.com>	ashmem.c
<rob.clark@linaro.org>	omap_debugfs.c
<rob.clark@linaro.org>	omap_gem.c
<rob.clark@linaro.org>	omap_gem_dmabuf.c
<rob.clark@linaro.org>	omap_gem_helpers.c
<rob.clark@linaro.org>	omap_irq.c
<rob.clark@linaro.org>	omap_plane.c
<rob@ti.com>	omap_connector.c
<rob@ti.com>	omap_crtc.c
<rob@ti.com>	omap_dmm_priv.h
<rob@ti.com>	omap_dmm_tiler.c
<rob@ti.com>	omap_dmm_tiler.h
<rob@ti.com>	omap_drm.h
<rob@ti.com>	omap_drv.c
<rob@ti.com>	omap_drv.h
<rob@ti.com>	omap_encoder.c
<rob@ti.com>	omap_fb.c
<rob@ti.com>	omap_fbdev.c
<rob@ti.com>");	omap_drv.c
<robert@schwebel.de>	ssv_dnp.c
<robert@schwebel.de>	ssv_dnp.c
<rsmgnu@gmail.com>,	adv_pci1723.c
<s.rivoir@gts.it>	contec_pci_dio.c
<set@ieee.org>	das08.c
<set@users.sf.net>	das08.c
<sraczynski@op.pl>	mpc624.c
<starblue@users.sourceforge.net>	alphatrack.c
<starblue@users.sourceforge.net>	tranzport.c
<steve.sharples@nottingham.ac.uk>,	amplc_pci230.c
<steveu@coppice.org>	echo.c
<steveu@coppice.org>	echo.h
<steveu@coppice.org>	fir.h
<steveu@coppice.org>	oslec.h
<svendsen@pvv.org>	das6402.c
<svendsen@pvv.org>	das6402.c
<thelerg@ib.cnea.gov.ar>	adq12b.c
<thelerg@ib.cnea.gov.ar>	adq12b.c
<trux@truxton.com>	ni_atmio.c
<trux@truxton.com>	ni_mio_common.c
<vjsoriano@agere.com>");	et131x.c
<zach.ware@cctechnol.com>	aio_iiro_16.c
Bernd.Porr@f2s.com	usbdux.c
Bernd.Porr@f2s.com	usbduxfast.c
Bernd.Porr@f2s.com	usbduxsigma.c
Bernd.Porr@f2s.com");	usbdux.c
Bernd.Porr@f2s.com");	usbduxsigma.c
BerndPorr@f2s.com");	usbdux.c
BerndPorr@f2s.com");	usbduxfast.c
BerndPorr@f2s.com");	usbduxfast.c
BerndPorr@f2s.com");	usbduxsigma.c
Herman.Bruyninckx@mech.kuleuven.ac.be,	ni_660x.c
Herman.Bruyninckx@mech.kuleuven.ac.be,	ni_tio.c
Herman.Bruyninckx@mech.kuleuven.ac.be,	ni_tiocmd.c
Klaas.Gadeyne@mech.kuleuven.ac.be,	ni_660x.c
Klaas.Gadeyne@mech.kuleuven.ac.be,	ni_tio.c
Klaas.Gadeyne@mech.kuleuven.ac.be,	ni_tiocmd.c
Wim.Meeussen@mech.kuleuven.ac.be,	ni_660x.c
Wim.Meeussen@mech.kuleuven.ac.be,	ni_tio.c
Wim.Meeussen@mech.kuleuven.ac.be,	ni_tiocmd.c
[asgard@etersoft.ru]	unioxx5.c
anders.blomdell@control.lth.se	dt9812.c
boyod.yang@siliconmotion.com.cn	sm7xx.h
boyod.yang@siliconmotion.com.cn	sm7xxfb.c
gewang@siliconmotion.com	sm7xx.h
gewang@siliconmotion.com	sm7xxfb.c
jayant.mangalampalli@intel.com	sep_crypto.c
jayant.mangalampalli@intel.com	sep_crypto.h
jayant.mangalampalli@intel.com	sep_dev.h
jayant.mangalampalli@intel.com	sep_driver_api.h
jayant.mangalampalli@intel.com	sep_driver_config.h
jayant.mangalampalli@intel.com	sep_driver_hw_defs.h
jayant.mangalampalli@intel.com	sep_main.c
mark.a.allyn@intel.com	sep_crypto.c
mark.a.allyn@intel.com	sep_crypto.h
mark.a.allyn@intel.com	sep_dev.h
mark.a.allyn@intel.com	sep_driver_api.h
mark.a.allyn@intel.com	sep_driver_config.h
mark.a.allyn@intel.com	sep_driver_hw_defs.h
mark.a.allyn@intel.com	sep_main.c
pshah.mumbai@gmail.com	dyna_pci10xx.c
wuzhangjin@gmail.com	sm7xx.h
wuzhangjin@gmail.com	sm7xxfb.c
