"SYSTEMBASE<tech@sysbas.com>"	sb_pci_mp.h
(davem@davemloft.net)	bbc_envctrl.c
(davem@davemloft.net)	bbc_i2c.c
(davem@davemloft.net)	uctrl.c
(davem@davemloft.net)");	leds-sunfire.c
(dl9pf@gmx.de)	leds-blinkm.c
(ebrower@usa.net)	display7seg.c
(ecd@skynet.be)	envctrl.c
(ecd@skynet.be)	flash.c
(ecd@skynet.be)	openprom.c
(ecd@skynet.be)");	openprom.c
(edwin_rong@realsil.com.cn)	debug.h
(edwin_rong@realsil.com.cn)	ms.c
(edwin_rong@realsil.com.cn)	ms.h
(edwin_rong@realsil.com.cn)	ms_mg.c
(edwin_rong@realsil.com.cn)	ms_mg.h
(edwin_rong@realsil.com.cn)	rts51x.c
(edwin_rong@realsil.com.cn)	rts51x.h
(edwin_rong@realsil.com.cn)	rts51x_card.c
(edwin_rong@realsil.com.cn)	rts51x_card.h
(edwin_rong@realsil.com.cn)	rts51x_chip.c
(edwin_rong@realsil.com.cn)	rts51x_chip.h
(edwin_rong@realsil.com.cn)	rts51x_fop.c
(edwin_rong@realsil.com.cn)	rts51x_fop.h
(edwin_rong@realsil.com.cn)	rts51x_scsi.c
(edwin_rong@realsil.com.cn)	rts51x_scsi.h
(edwin_rong@realsil.com.cn)	rts51x_transport.c
(edwin_rong@realsil.com.cn)	rts51x_transport.h
(edwin_rong@realsil.com.cn)	sd.c
(edwin_rong@realsil.com.cn)	sd.h
(edwin_rong@realsil.com.cn)	sd_cprm.c
(edwin_rong@realsil.com.cn)	sd_cprm.h
(edwin_rong@realsil.com.cn)	trace.h
(edwin_rong@realsil.com.cn)	xd.c
(edwin_rong@realsil.com.cn)	xd.h
(l.fu@pengutronix.de)	leds-pwm.c
(peter@hurleysoftware.com)");	fwserial.c
(ramesh.agarwal@intel.com)	clearpad_tm1217.c
(shadow@dementia.org)	uctrl.c
(tdyas@noc.rutgers.edu)	openprom.c
(tdyas@noc.rutgers.edu)	openprom.c
(vinh.truong@eng.sun.com)	envctrl.c
(wei_wang@realsil.com.cn)	debug.h
(wei_wang@realsil.com.cn)	ms.c
(wei_wang@realsil.com.cn)	ms.h
(wei_wang@realsil.com.cn)	ms_mg.c
(wei_wang@realsil.com.cn)	ms_mg.h
(wei_wang@realsil.com.cn)	rts51x.c
(wei_wang@realsil.com.cn)	rts51x.h
(wei_wang@realsil.com.cn)	rts51x_card.c
(wei_wang@realsil.com.cn)	rts51x_card.h
(wei_wang@realsil.com.cn)	rts51x_chip.c
(wei_wang@realsil.com.cn)	rts51x_chip.h
(wei_wang@realsil.com.cn)	rts51x_fop.c
(wei_wang@realsil.com.cn)	rts51x_fop.h
(wei_wang@realsil.com.cn)	rts51x_scsi.c
(wei_wang@realsil.com.cn)	rts51x_scsi.h
(wei_wang@realsil.com.cn)	rts51x_transport.c
(wei_wang@realsil.com.cn)	rts51x_transport.h
(wei_wang@realsil.com.cn)	sd.c
(wei_wang@realsil.com.cn)	sd.h
(wei_wang@realsil.com.cn)	sd_cprm.c
(wei_wang@realsil.com.cn)	sd_cprm.h
(wei_wang@realsil.com.cn)	trace.h
(wei_wang@realsil.com.cn)	xd.c
(wei_wang@realsil.com.cn)	xd.h
<D.Murphy@motorola.com>	leds-lm3530.c
<YY_Lee@issc.com.tw>	wbusb.c
<anemo@mba.ocn.ne.jp>	ledtrig-heartbeat.c
<anemo@mba.ocn.ne.jp>");	ledtrig-heartbeat.c
<balbi@ti.com>	omap_l3_smx.c
<balbi@ti.com>	omap_l3_smx.h
<barry.kasindorf@amd.com>	cpu_buffer.c
<bellucda@tiscali.it>	envctrl.c
<ben@simtec.co.uk>	leds-s3c24xx.c
<ben@simtec.co.uk>");	leds-s3c24xx.c
<bigeasy@linutronix.de>	leds-ot200.c
<bigeasy@linutronix.de>");	leds-ot200.c
<bootc@bootc.net>	leds-net48xx.c
<bootc@bootc.net>");	leds-net48xx.c
<broonie@opensource.wolfsonmicro.com>");	leds-wm831x-status.c
<bryan.wu@canonical.com>	ledtrig-cpu.c
<bryan.wu@canonical.com>");	ledtrig-cpu.c
<christian.gmeiner@gmail.com>	leds-ot200.c
<clameter@sgi.com>	tmem.c
<daniel.jeong@ti.com>");	leds-lm355x.c
<daniel.jeong@ti.com>");	leds-lm3642.c
<daniel@caiaq.de>	leds-lt3593.c
<daniel@caiaq.de>");	leds-lt3593.c
<dave@sr71.net>	leds-ss4200.c
<dave@sr71.net>");	leds-ss4200.c
<davem@davemloft.net>	leds-sunfire.c
<dchen@diasemi.com>	leds-da9052.c
<dchen@diasemi.com>");	leds-da9052.c
<dg77.kim@samsung.com>	leds-max8997.c
<dg77.kim@samsung.com>");	leds-max8997.c
<dl9pf@gmx.de>");	leds-blinkm.c
<ebrower@usa.net>	envctrl.c
<ebrower@usa.net>");	display7seg.c
<eric.miao@marvell.com>	leds-adp5520.c
<eric.miao@marvell.com>	leds-da903x.c
<eric.miao@marvell.com>	leds-mc13783.c
<eric.miao@marvell.com>");	leds-da903x.c
<evan_ko@phison.com>	phison.c
<fabio.baltieri@gmail.com>	ledtrig-oneshot.c
<fabio.baltieri@gmail.com>");	ledtrig-oneshot.c
<florian@openwrt.org>	leds-cobalt-qube.c
<florian@openwrt.org>");	leds-cobalt-qube.c
<giometti@linux.it>	ledtrig-backlight.c
<giometti@linux.it>");	ledtrig-backlight.c
<gshark.jeong@gmail.com>");	leds-lm355x.c
<gshark.jeong@gmail.com>");	leds-lm3642.c
<haojian.zhuang@marvell.com>	leds-88pm860x.c
<haojian.zhuang@marvell.com>");	leds-88pm860x.c
<hennerich@blackfin.uclinux.org>");	leds-adp5520.c
<info@eurotech.it>	ledtrig-backlight.c
<jhovold@gmail.com>	leds-lm3533.c
<jhovold@gmail.com>");	leds-lm3533.c
<jim_dailey@dell.com>	dell-led.c
<jonas@southpole.se>	ledtrig-transient.c
<khc@pm.waw.pl>	2t3e3.h
<khc@pm.waw.pl>	cpld.c
<khc@pm.waw.pl>	ctrl.c
<khc@pm.waw.pl>	ctrl.h
<khc@pm.waw.pl>	dc.c
<khc@pm.waw.pl>	exar7250.c
<khc@pm.waw.pl>	exar7300.c
<khc@pm.waw.pl>	intr.c
<khc@pm.waw.pl>	io.c
<khc@pm.waw.pl>	main.c
<khc@pm.waw.pl>	maps.c
<khc@pm.waw.pl>	module.c
<khc@pm.waw.pl>	netdev.c
<kishon@ti.com>	omap-ocp2scp.c
<kris@krisk.org>	leds-wrap.c
<kris@krisk.org>");	leds-wrap.c
<kristoffer.ericson@gmail.com>	leds-hp6xx.c
<kristoffer.ericson@gmail.com>");	leds-hp6xx.c
<l.fu@pengutronix.de>");	leds-pwm.c
<le_costantino@pixartargentina.com.ar>	wbusb.c
<lenz@cs.wisc.edu>	led-class.c
<lenz@cs.wisc.edu>	leds-locomo.c
<lenz@cs.wisc.edu>");	leds-locomo.c
<levon@movementarian.org>	buffer_sync.c
<levon@movementarian.org>	buffer_sync.h
<levon@movementarian.org>	cpu_buffer.c
<levon@movementarian.org>	cpu_buffer.h
<levon@movementarian.org>	event_buffer.c
<levon@movementarian.org>	event_buffer.h
<levon@movementarian.org>	oprof.c
<levon@movementarian.org>	oprof.h
<levon@movementarian.org>	oprofile_files.c
<levon@movementarian.org>	timer_int.c
<levon@movementarian.org>");	oprof.c
<lg@denx.de>	leds-dac124s085.c
<lg@denx.de>");	leds-dac124s085.c
<linus.walleij@linaro.org>	ledtrig-cpu.c
<linus.walleij@linaro.org>");	ledtrig-cpu.c
<lost.distance@yahoo.com>	leds-asic3.c
<lost.distance@yahoo.com>");	leds-asic3.c
<louis_davis@dell.com>	dell-led.c
<martyn.welch@ge.com");	vme_pio2_core.c
<martyn.welch@ge.com");	vme_user.c
<martyn.welch@ge.com>	vme_pio2_cntr.c
<martyn.welch@ge.com>	vme_pio2_core.c
<martyn.welch@ge.com>	vme_pio2_gpio.c
<martyn.welch@ge.com>	vme_user.c
<mathias.nyman@nokia.com>");	leds-lp5523.c
<me@felipebalbi.com>	ledtrig-gpio.c
<me@felipebalbi.com>");	ledtrig-gpio.c
<mike@compulab.co.il>	leds-adp5520.c
<mike@compulab.co.il>	leds-da903x.c
<mike@compulab.co.il>	leds-mc13783.c
<mike@compulab.co.il>");	leds-da903x.c
<milo.kim@ti.com>	leds-lp8788.c
<n0-1@freewrt.org>	leds-rb532.c
<n0-1@freewrt.org>");	leds-rb532.c
<nab@kernel.org>	target_core_file.c
<nab@kernel.org>	target_core_tpg.c
<nab@kernel.org>	target_core_ua.c
<neilb@suse.de>	ledtrig-transient.c
<neilb@suse.de>");	leds-tca6507.c
<ngupta@vflare.org>");	zsmalloc-main.c
<nick.forbes@incepta.com>	ledtrig-default-on.c
<nick.forbes@incepta.com>");	ledtrig-default-on.c
<nm127@freemail.hu>");	leds-clevo-mail.c
<nsankar@broadcom.com>");	crystalhd_lnx.c
<ospite@studenti.unina.it>	leds-lp3944.c
<ospite@studenti.unina.it>	leds-regulator.c
<ospite@studenti.unina.it>");	leds-lp3944.c
<ospite@studenti.unina.it>");	leds-regulator.c
<pavel@ucw.cz>	jsflash.c
<pavel@ucw.cz>	wbusb.c
<peter@hurleysoftware.com>	dma_fifo.c
<peter@hurleysoftware.com>	dma_fifo.h
<peter@hurleysoftware.com>	fwserial.c
<philippe.retornaz@epfl.ch>");	leds-mc13783.c
<prasadb@broadcom.com>");	crystalhd_lnx.c
<q1.kim@samsung.com>	leds-bd2802.c
<q1.kim@samsung.com>");	leds-bd2802.c
<r.sricharan@ti.com>	omap_l3_noc.c
<r.sricharan@ti.com>	omap_l3_noc.h
<r.sricharan@ti.com>	omap_l3_smx.c
<r.sricharan@ti.com>	omap_l3_smx.h
<ramesh.agarwal@intel.com>");	clearpad_tm1217.c
<raph@8d.com>	leds-gpio.c
<raph@8d.com>	leds-lt3593.c
<raph@8d.com>	leds-ns2.c
<raph@8d.com>	leds-pwm.c
<raph@8d.com>,	leds-gpio.c
<rgirod@confocus.com>,	leds-ss4200.c
<robert.richter@amd.com>	buffer_sync.c
<robert.richter@amd.com>	cpu_buffer.c
<robert.richter@amd.com>	cpu_buffer.h
<robert.richter@amd.com>	nmi_timer_int.c
<rod@whitby.id.au>	leds-fsg.c
<rod@whitby.id.au>	leds-fsg.c
<rod@whitby.id.au>");	leds-fsg.c
<rpurdie@openedhand.com>	led-class.c
<rpurdie@openedhand.com>	led-core.c
<rpurdie@openedhand.com>	led-triggers.c
<rpurdie@openedhand.com>	leds-fsg.c
<rpurdie@openedhand.com>	leds.h
<rpurdie@openedhand.com>	ledtrig-ide-disk.c
<rpurdie@openedhand.com>	ledtrig-oneshot.c
<rpurdie@openedhand.com>	ledtrig-timer.c
<rpurdie@openedhand.com>");	ledtrig-ide-disk.c
<rpurdie@openedhand.com>");	ledtrig-timer.c
<s.hauer@pengutronix.de>	ipu-common.c
<s.hauer@pengutronix.de>	ipu-dc.c
<s.hauer@pengutronix.de>	ipu-di.c
<s.hauer@pengutronix.de>	ipu-dmfc.c
<s.hauer@pengutronix.de>	ipu-dp.c
<s.hauer@pengutronix.de>	ipu-prv.h
<s.hauer@pengutronix.de>");	imx-drm-core.c
<s.hauer@pengutronix.de>");	ipu-common.c
<s.hauer@pengutronix.de>");	ipuv3-crtc.c
<samu.p.onkalo@nokia.com>	leds-lp5521.c
<samu.p.onkalo@nokia.com>	leds-lp5523.c
<santosh.shilimkar@ti.com>	omap_l3_noc.c
<santosh.shilimkar@ti.com>	omap_l3_noc.h
<santosh.shilimkar@ti.com>	omap_l3_smx.c
<santosh.shilimkar@ti.com>	omap_l3_smx.h
<sguinot@lacie.com>	leds-netxbig.c
<sguinot@lacie.com>	leds-ns2.c
<sguinot@lacie.com>");	leds-netxbig.c
<sguinot@lacie.com>");	leds-ns2.c
<shreshthakumar.sahu@stericsson.com>	leds-lm3530.c
<shreshthakumar.sahu@stericsson.com>");	leds-lm3530.c
<shuahkhan@gmail.com>	ledtrig-transient.c
<shuahkhan@gmail.com>");	ledtrig-transient.c
<tpiepho@freescale.com>");	leds-gpio.c
<u.kleine-koenig@pengutronix.de>	leds-gpio-register.c
<w@1wt.eu>	panel.c
David_Fries@digi.com	dgrp_tty.c
dave@sr71.net\n");	leds-ss4200.c
