(alan@lxorguk.ukuu.org.uk)	card.c
(alan@lxorguk.ukuu.org.uk)	usbusx2yaudio.c
(baccala@freesoft.org)	dbri.c
(dshust@shustring.com)	ac97_patch.c
(krzysztof.h1@wp.pl)	dbri.c
(mhabets@users.sourceforge.net)	dbri.c
(mjande@embedded.cl).	au88x0_mpu401.c
(mjander@embedded.cl)	au88x0.c
(mjander@users.sourceforge.cl)	au88x0_core.c
(mjander@users.sourceforge.net)	au88x0_eq.c
(mjander@users.sourceforge.net)	au88x0_eq.h
(rfkoenig@immd4.informatik.uni-erlangen.de)	dbri.c
(sailer@ife.ee.ethz.ch)	card.c
(sailer@ife.ee.ethz.ch)	usbusx2yaudio.c
(shadow@andrew.cmu.edu)	cs4231.c
(tdyas@eden.rutgers.edu)	amd7930.c
<James@superbug.co.uk>	emu10k1_main.c
<James@superbug.co.uk>	emufx.c
<James@superbug.co.uk>	emumixer.c
<James@superbug.co.uk>	emuproc.c
<James@superbug.demon.co.uk>	ca0106.h
<James@superbug.demon.co.uk>	ca0106_main.c
<James@superbug.demon.co.uk>	ca0106_mixer.c
<James@superbug.demon.co.uk>	ca0106_proc.c
<James@superbug.demon.co.uk>	emu10k1.c
<James@superbug.demon.co.uk>	emu10k1x.c
<James@superbug.demon.co.uk>	emumixer.c
<James@superbug.demon.co.uk>	p16v.c
<James@superbug.demon.co.uk>	p16v.h
<James@superbug.demon.co.uk>	p17v.h
<James@superbug.demon.co.uk>	tina2.h
<James@superbug.demon.co.uk>");	ca0106_main.c
<Matt_Wu@acersoftech.com.cn>	ali5451.c
<Matt_Wu@acersoftech.com.cn>");	ali5451.c
<adi@drcomp.erfurt.thur.de>"	hdspm.c
<adrian@mcmen.demon.co.uk>	aica.c
<adrian@mcmen.demon.co.uk>	aica.h
<adrian@mcmen.demon.co.uk>");	aica.c
<alan@lxorguk.ukuu.org.uk>	cs5530.c
<alan@lxorguk.ukuu.org.uk>	sound_core.c
<alex.pototskiy@gmail.com>	patch_conexant.c
<alsa@audioscience.com>	asihpi.c
<alsa@digigram.com>	mixart.c
<alsa@digigram.com>	mixart.h
<alsa@digigram.com>	mixart_core.c
<alsa@digigram.com>	mixart_core.h
<alsa@digigram.com>	mixart_hwdep.c
<alsa@digigram.com>	mixart_hwdep.h
<alsa@digigram.com>	mixart_mixer.c
<alsa@digigram.com>	mixart_mixer.h
<alsa@digigram.com>	pcxhr.c
<alsa@digigram.com>	pcxhr.h
<alsa@digigram.com>	pcxhr_core.c
<alsa@digigram.com>	pcxhr_core.h
<alsa@digigram.com>	pcxhr_hwdep.c
<alsa@digigram.com>	pcxhr_hwdep.h
<alsa@digigram.com>	pcxhr_mix22.c
<alsa@digigram.com>	pcxhr_mix22.h
<alsa@digigram.com>	pcxhr_mixer.c
<alsa@digigram.com>	pcxhr_mixer.h
<alsa@digigram.com>");	mixart.c
<andy@smile.org.ua>	fm801.c
<annabellesgarden@yahoo.de>	usX2Yhwdep.c
<annabellesgarden@yahoo.de>	usbus428ctldefs.h
<annabellesgarden@yahoo.de>	usx2y.h
<annabellesgarden@yahoo.de>	via82xx.c
<annabellesgarden@yahoo.de>");	usbusx2y.c
<ashwillis@programmer.net>	als300.c
<ashwillis@programmer.net>	cs5530.c
<ashwillis@programmer.net>");	als300.c
<audio@tridentmicro.com>	trident.c
<audio@tridentmicro.com>");	trident.c
<bart@etpmod.phys.tue.nl>,	als4000.c
<bart@etpmod.phys.tue.nl>,	als4000.c
<benny@hostmobility.com>	cs46xx_lib.c
<bentson@holmsjoen.com>	ac97_patch.c
<bollinger@digigram.com>,	pcxhr.c
<broonie@opensource.wolfsonmicro.com>	wm8776.h
<cedric.bregardis@free.fr>	aw2-alsa.c
<cedric.bregardis@free.fr>	aw2-saa7146.c
<cedric.bregardis@free.fr>	aw2-saa7146.h
<cedric.bregardis@free.fr>	aw2-tsl.c
<cedric.bregardis@free.fr>	saa7146.h
<cedric.bregardis@free.fr>,	aw2-alsa.c
<clemens@ladisch.de>	bt87x.c
<clemens@ladisch.de>	oxygen.c
<clemens@ladisch.de>	oxygen_io.c
<clemens@ladisch.de>	oxygen_lib.c
<clemens@ladisch.de>	oxygen_mixer.c
<clemens@ladisch.de>	oxygen_pcm.c
<clemens@ladisch.de>	timer.c
<clemens@ladisch.de>	virtuoso.c
<clemens@ladisch.de>	xonar_cs43xx.c
<clemens@ladisch.de>	xonar_dg.c
<clemens@ladisch.de>	xonar_hdmi.c
<clemens@ladisch.de>	xonar_lib.c
<clemens@ladisch.de>	xonar_pcm179x.c
<clemens@ladisch.de>	xonar_wm87x6.c
<clemens@ladisch.de>");	bt87x.c
<clemens@ladisch.de>");	oxygen.c
<clemens@ladisch.de>");	oxygen_lib.c
<clemens@ladisch.de>");	virtuoso.c
<dave@thedillows.org>	sis7019.c
<dave@thedillows.org>	sis7019.h
<dave@thedillows.org>");	sis7019.c
<davem@davemloft.net>	amd7930.c
<davem@davemloft.net>	cs4231.c
<dilinger@debian.org>	cs5535audio_olpc.c
<egtvedt@samfundet.no>");	abdac.c
<egtvedt@samfundet.no>");	ac97c.c
<egtvedt@samfundet.no>");	at73c213.c
<faber@faberman.de>	hdspm.c
<faber@faberman.de>	hdspm.c
<faber@faberman.de>	hdspm.c
<faberman@linuxproaudio.org>,	hdspm.c
<fmoraes@nc.rr.com>	ca0106.h
<fmoraes@nc.rr.com>	ca0106_main.c
<fmoraes@nc.rr.com>	ca0106_mixer.c
<fmoraes@nc.rr.com>	ca0106_proc.c
<fmoraes@nc.rr.com>	ca_midi.c
<fmoraes@nc.rr.com>	emu10k1x.c
<fmoraes@nc.rr.com>	p16v.c
<fmoraes@nc.rr.com>	p16v.h
<fmoraes@nc.rr.com>");	emu10k1x.c
<fzu@wemgehoertderstaat.de>	us122l.c
<fzu@wemgehoertderstaat.de>	usb_stream.c
<fzu@wemgehoertderstaat.de>	usb_stream.h
<fzu@wemgehoertderstaat.de>");	us122l.c
<gamal@alternex.com.br>	korg1212.c
<gamal@alternex.com.br>");	korg1212.c
<gruber@eikon.tum.de>	es1938.c
<henk@anda.nl>	rme32.c
<henk@anda.nl>	rme96.c
<hw7oshyuv3001@sneakemail.com>	als4000.c
<jayakumar.lkml@gmail.com>	cs5535audio_olpc.c
<jhassler@free.fr>	aw2-alsa.c
<jhassler@free.fr>	aw2-saa7146.c
<jhassler@free.fr>	aw2-saa7146.h
<jhassler@free.fr>	aw2-tsl.c
<jhassler@free.fr>	saa7146.h
<jhassler@free.fr>");	aw2-alsa.c
<jwoithe@just42.net>	patch_realtek.c
<kailang@realtek.com.tw>	patch_realtek.c
<kraxel@bytesex.org>	bt87x.c
<kraxel@cs.tu-berlin.de>	i2c.c
<lrg@slimlogic.co.uk>	ac97_patch.c
<maehara@debian.org>	ac97_patch.c
<martin-langer@gmx.de>,	rme32.c
<martin-langer@gmx.de>,	rme32.c
<martin.kirst@freenet.de>	rme9652.c
<mcdebugger@duganet.ru>	emu10k1_main.c
<miri@punknet.cz>");	es1938.c
<miri@punknet.cz>,	es1938.c
<mporter@embeddedalley.com>	patch_sigmatel.c
<mptei@users.sourceforge.net>.	intel8x0.c
<mranostay@embeddedalley.com>	hda_beep.c
<nokos@gmx.net>	riptide.c
<nokos@gmx.net>");	riptide.c
<paul@linuxaudiosystems.com>,	hdsp.c
<paul@linuxaudiosystems.com>,	hdspm.c
<pavel.hofman@ivitera.com>	ak4113.c
<pavel.hofman@ivitera.com>");	ak4113.c
<pbd@op.net>,	rme9652.c
<perex@jcu.cz>]	sound_core.c
<perex@perex.cz>	ac97_codec.c
<perex@perex.cz>	ac97_id.h
<perex@perex.cz>	ac97_local.h
<perex@perex.cz>	ac97_patch.c
<perex@perex.cz>	ac97_patch.h
<perex@perex.cz>	ac97_pcm.c
<perex@perex.cz>	ac97_proc.c
<perex@perex.cz>	ak4113.c
<perex@perex.cz>	ak4114.c
<perex@perex.cz>	ak4117.c
<perex@perex.cz>	ak4531_codec.c
<perex@perex.cz>	als4000.c
<perex@perex.cz>	au88x0_mpu401.c
<perex@perex.cz>	ca_midi.c
<perex@perex.cz>	cs4231.c
<perex@perex.cz>	cs46xx.c
<perex@perex.cz>	cs46xx_dsp_scb_types.h
<perex@perex.cz>	cs46xx_dsp_spos.h
<perex@perex.cz>	cs46xx_dsp_task_types.h
<perex@perex.cz>	cs46xx_lib.c
<perex@perex.cz>	cs46xx_lib.h
<perex@perex.cz>	cs8427.c
<perex@perex.cz>	dsp_spos.h
<perex@perex.cz>	emu10k1.c
<perex@perex.cz>	emu10k1_main.c
<perex@perex.cz>	emufx.c
<perex@perex.cz>	emumpu401.c
<perex@perex.cz>	emupcm.c
<perex@perex.cz>	emuproc.c
<perex@perex.cz>	fm801.c
<perex@perex.cz>	i2c.c
<perex@perex.cz>	intel8x0.c
<perex@perex.cz>	io.c
<perex@perex.cz>	irq.c
<perex@perex.cz>	last.c
<perex@perex.cz>	memory.c
<perex@perex.cz>	pdaudiocf.c
<perex@perex.cz>	pdaudiocf.h
<perex@perex.cz>	pdaudiocf_core.c
<perex@perex.cz>	pdaudiocf_irq.c
<perex@perex.cz>	pdaudiocf_pcm.c
<perex@perex.cz>	tea575x-tuner.c
<perex@perex.cz>	tea6330t.c
<perex@perex.cz>	trident_main.c
<perex@perex.cz>	trident_memory.c
<perex@perex.cz>	via82xx.c
<perex@perex.cz>	via82xx_modem.c
<perex@perex.cz>	voice.c
<perex@perex.cz>	ymfpci.c
<perex@perex.cz>	ymfpci.h
<perex@perex.cz>	ymfpci_main.c
<perex@perex.cz>");	ac97_codec.c
<perex@perex.cz>");	ak4114.c
<perex@perex.cz>");	ak4117.c
<perex@perex.cz>");	ak4531_codec.c
<perex@perex.cz>");	cs4281.c
<perex@perex.cz>");	cs46xx.c
<perex@perex.cz>");	cs8427.c
<perex@perex.cz>");	emu10k1.c
<perex@perex.cz>");	fm801.c
<perex@perex.cz>");	i2c.c
<perex@perex.cz>");	intel8x0.c
<perex@perex.cz>");	pdaudiocf.c
<perex@perex.cz>");	tea575x-tuner.c
<perex@perex.cz>");	tea6330t.c
<perex@perex.cz>");	via82xx.c
<perex@perex.cz>");	via82xx_modem.c
<perex@perex.cz>");	ymfpci.c
<perex@perex.cz>,	ak4xxx-adda.c
<perex@perex.cz>,	ak4xxx-adda.c
<perex@perex.cz>,	cs4281.c
<perex@perex.cz>,	cs46xx.h
<perex@perex.cz>,	emumixer.c
<perex@perex.cz>,	ens1370.c
<perex@perex.cz>,	ens1370.c
<perex@perex.cz>,	es1938.c
<perex@perex.cz>,	trident.c
<pilo.c@wanadoo.fr>	rme32.c
<pilo.c@wanadoo.fr>");	rme32.c
<pshou@realtek.com.tw>	patch_realtek.c
<remy.bruno@trinnov.com>	hdspm.c
<remy.bruno@trinnov.com>,	hdspm.c
<rene.rebe@gmx.net>:	tumbler.c
<rizurita@yahoo.com>	sh_dac_audio.c
<rizurita@yahoo.com>");	sh_dac_audio.c
<rob@pangalactic.org>	maestro3.c
<sailer@ife.ee.ethz.ch>	ens1370.c
<sailer@ife.ee.ethz.ch>");	ens1370.c
<sailer@ife.ee.ethz.ch>,	es1938.c
<sdm@fractalgraphics.com.au>	trident_memory.c
<support@audioscience.com>	hpi.h
<support@audioscience.com>	hpi6000.c
<support@audioscience.com>	hpi6000.h
<support@audioscience.com>	hpi6205.c
<support@audioscience.com>	hpi6205.h
<support@audioscience.com>	hpi_internal.h
<support@audioscience.com>	hpicmn.c
<support@audioscience.com>	hpicmn.h
<support@audioscience.com>	hpidebug.c
<support@audioscience.com>	hpidebug.h
<support@audioscience.com>	hpidspcd.c
<support@audioscience.com>	hpidspcd.h
<support@audioscience.com>	hpimsginit.c
<support@audioscience.com>	hpimsginit.h
<support@audioscience.com>	hpimsgx.c
<support@audioscience.com>	hpimsgx.h
<support@audioscience.com>	hpioctl.c
<support@audioscience.com>	hpioctl.h
<support@audioscience.com>	hpios.c
<support@audioscience.com>	hpios.h
<support@audioscience.com>	hpipcida.h
<support@audioscience.com>");	asihpi.c
<tausq@debian.org>	ad1889.c
<thomas@undata.org>");	hdsp.c
<thomas@undata.org>,	hdspm.c
<thomas@winischhofer.net>	trident_main.c
<titinger@digigram.com>");	pcxhr.c
<tiwai@suse.de>	ak4xxx-adda.c
<tiwai@suse.de>	atiixp_modem.c
<tiwai@suse.de>	awacs.c
<tiwai@suse.de>	awacs.h
<tiwai@suse.de>	beep.c
<tiwai@suse.de>	burgundy.c
<tiwai@suse.de>	burgundy.h
<tiwai@suse.de>	card.c
<tiwai@suse.de>	cmipci.c
<tiwai@suse.de>	daca.c
<tiwai@suse.de>	emu10k1_callback.c
<tiwai@suse.de>	emu10k1_patch.c
<tiwai@suse.de>	emu10k1_synth.c
<tiwai@suse.de>	emu10k1_synth_local.h
<tiwai@suse.de>	emumixer.c
<tiwai@suse.de>	emux.c
<tiwai@suse.de>	emux_effect.c
<tiwai@suse.de>	emux_hwdep.c
<tiwai@suse.de>	emux_nrpn.c
<tiwai@suse.de>	emux_oss.c
<tiwai@suse.de>	emux_proc.c
<tiwai@suse.de>	emux_seq.c
<tiwai@suse.de>	emux_synth.c
<tiwai@suse.de>	emux_voice.h
<tiwai@suse.de>	hda_auto_parser.c
<tiwai@suse.de>	hda_auto_parser.h
<tiwai@suse.de>	hda_codec.h
<tiwai@suse.de>	hda_generic.c
<tiwai@suse.de>	hda_hwdep.c
<tiwai@suse.de>	hda_local.h
<tiwai@suse.de>	hda_proc.c
<tiwai@suse.de>	keywest.c
<tiwai@suse.de>	lola.c
<tiwai@suse.de>	lola.h
<tiwai@suse.de>	lola_clock.c
<tiwai@suse.de>	lola_mixer.c
<tiwai@suse.de>	lola_pcm.c
<tiwai@suse.de>	lola_proc.c
<tiwai@suse.de>	maestro3.c
<tiwai@suse.de>	memory.c
<tiwai@suse.de>	patch_ca0132.c
<tiwai@suse.de>	patch_cmedia.c
<tiwai@suse.de>	patch_conexant.c
<tiwai@suse.de>	patch_realtek.c
<tiwai@suse.de>	patch_sigmatel.c
<tiwai@suse.de>	pmac.c
<tiwai@suse.de>	pmac.h
<tiwai@suse.de>	powermac.c
<tiwai@suse.de>	soundfont.c
<tiwai@suse.de>	trident_memory.c
<tiwai@suse.de>	tumbler.c
<tiwai@suse.de>	usbusx2yaudio.c
<tiwai@suse.de>	util_mem.c
<tiwai@suse.de>	via82xx.c
<tiwai@suse.de>	via82xx.c
<tiwai@suse.de>	via82xx_modem.c
<tiwai@suse.de>	vxp_mixer.c
<tiwai@suse.de>	vxp_ops.c
<tiwai@suse.de>	vxpocket.c
<tiwai@suse.de>	vxpocket.h
<tiwai@suse.de>");	ak4xxx-adda.c
<tiwai@suse.de>");	atiixp_modem.c
<tiwai@suse.de>");	card.c
<tiwai@suse.de>");	cmipci.c
<tiwai@suse.de>");	lola.c
<tiwai@suse.de>");	maestro3.c
<tiwai@suse.de>");	vxpocket.c
<torger@ludd.luth.se>	rme96.c
<torger@ludd.luth.se>");	rme96.c
<torger@ludd.luth.se>,	rme32.c
<torsten.schenk@zoho.com>	chip.c
<torsten.schenk@zoho.com>	comm.c
<torsten.schenk@zoho.com>	comm.h
<torsten.schenk@zoho.com>	common.h
<torsten.schenk@zoho.com>	control.c
<torsten.schenk@zoho.com>	control.h
<torsten.schenk@zoho.com>	firmware.c
<torsten.schenk@zoho.com>	midi.c
<torsten.schenk@zoho.com>	midi.h
<torsten.schenk@zoho.com>	pcm.c
<torsten.schenk@zoho.com>	pcm.c
<torsten.schenk@zoho.com>	pcm.h
<torsten.schenk@zoho.com>");	chip.c
<vojtech@suse.cz>,	au88x0_game.c
<voluspa@comhem.se>	emumixer.c
<voss@seehuhn.de>	pt2258.c
<voss@seehuhn.de>");	pt2258.c
<werner@suse.de>.	cmipci.c
<wfg@linux.intel.com>	patch_hdmi.c
<wfg@linux.intel.com>	patch_hdmi.c
<wni@nvidia.com>	patch_hdmi.c
<zab@zabbo.net>	maestro3.c
<zab@zabbo.net>,	maestro3.c
James@superbug.co.uk	emu10k1_main.c
James@superbug.co.uk	emu10k1_main.c
James@superbug.co.uk	emu10k1_main.c
James@superbug.co.uk	emu10k1_main.c
James@superbug.co.uk	emu10k1_main.c
James@superbug.co.uk	emu10k1_main.c
James@superbug.co.uk	emu10k1_main.c
James@superbug.co.uk	emu10k1_main.c
James@superbug.co.uk	emu10k1_main.c
James@superbug.co.uk	emu10k1_main.c
James@superbug.co.uk	emu10k1_main.c
audio@tridentmicro.com	trident.h
audio@tridentmicro.com	trident_main.c
benny@hostmobility.com	dsp_spos.c
benny@hostmobility.com	dsp_spos.h
benny@hostmobility.com	dsp_spos_scb_lib.c
dshust@shustring.com.	ac97_patch.c
mjander@embedded.cl).	au88x0_game.c
mjander@users.sourceforge.net	au88x0_a3d.c
mjander@users.sourceforge.net	au88x0_a3d.h
mjander@users.sourceforge.org	au88x0_a3ddata.c
mjander@users.sourceforge.org	au88x0_wt.h
mjander@users.sourceforge.org	au88x0_xtalk.c
mjander@users.sourceforge.org	au88x0_xtalk.h
openvortex-dev@nongnu.org.\n");	au88x0.c
shane-alsa@cm.nu	emu10k1_main.c
