(alan@lxorguk.ukuu.org.uk)	mixer.c
(alan@lxorguk.ukuu.org.uk)	mixer_quirks.c
(audio@crystal.cirrus.com).	swarm_cs4297a.c
(fizban@tin.it)	aedsp16.c
(fokkensr@vertis.nl)	sb_common.c
(fokkensr@vertis.nl)	sb_common.c
(fokkensr@vertis.nl)!	sb_ess.c
(marte@informatik.uni-muenchen.de)	dmasound_core.c
(michael@duck.syd.de)	dmasound_core.c
(ola.o.lilja@stericsson.com)	mop500.c
(patb@corel.ca)	waveartist.c
(rmk@arm.linux.org.uk)	waveartist.c
(sailer@ife.ee.ethz.ch)	mixer.c
(sailer@ife.ee.ethz.ch)	mixer_quirks.c
(twoller@crystal.cirrus.com)	swarm_cs4297a.c
<James@superbug.demon.co.uk>	mixer_maps.c
<Olaf_Giesbrecht@yahoo.de>	quirks-table.h
<acme@conectiva.com.br>	aedsp16.c
<acme@conectiva.com.br>	sb_common.c
<acme@conectiva.com.br>	sb_common.c
<alan@lxorguk.ukuu.org.uk>	kahlua.c
<andrewtv@usa.net>");	msnd.c
<andrewtv@usa.net>");	msnd.c
<andrewtv@usa.net>");	msnd_pinnacle.c
<andrewtv@usa.net>");	msnd_pinnacle.c
<apatard@mandriva.com>	kirkwood-dma.c
<apatard@mandriva.com>	kirkwood-i2s.c
<apatard@mandriva.com>	kirkwood-openrd.c
<apatard@mandriva.com>	kirkwood.h
<barbcode@xmen.cis.fordham.edu>	pss.c
<barbcode@xmen.cis.fordham.edu>	pss.c
<barbcode@xmen.cis.fordham.edu>	pss.c
<bin@bash.info>	mixer_maps.c
<broonie@opensource.wolfsonmicro.com>	soc-io.c
<broonie@opensource.wolfsonmicro.com>");	jack.c
<cananian@alumni.princeton.edu>	soundcard.c
<carlos@kenati.com>	siu.h
<carlos@kenati.com>	siu_dai.c
<carlos@kenati.com>	siu_pcm.c
<carlos@kenati.com>");	siu_dai.c
<chhellwig@infradead.org>	pss.c
<clemens@ladisch.de>	quirks-table.h
<clemens@ladisch.de>	quirks-table.h
<clemens@ladisch.de>	sb8_midi.c
<clemens@ladisch.de>	ua101.c
<clemens@ladisch.de>");	midi.c
<clemens@ladisch.de>");	midi.c
<clemens@ladisch.de>");	ua101.c
<dafastidio@libero.it>	ad1816a.c
<dafastidio@libero.it>	ad1816a_lib.c
<dafastidio@libero.it>	als100.c
<dafastidio@libero.it>	als100.c
<dafastidio@libero.it>	azt2320.c
<dafastidio@libero.it>	opti92x-ad1848.c
<dafastidio@libero.it>");	ad1816a.c
<dafastidio@libero.it>");	als100.c
<dafastidio@libero.it>");	azt2320.c
<dafastidio@libero.it>");	opti92x-ad1848.c
<dumas@linux.eu.org>	soundcard.c
<emillo@libero.it>	quirks-table.h
<fishbach@pool.informatik.rwth-aachen.de>	es18xx.c
<fishbach@pool.informatik.rwth-aachen.de>,	es18xx.c
<fizban@tin.it>");	aedsp16.c
<fmandarino@endrelia.com>	atmel-pcm-pdc.c
<fmandarino@endrelia.com>	atmel-pcm.h
<fmandarino@endrelia.com>	atmel_ssc_dai.c
<fmandarino@endrelia.com>	sam9g20_wm8731.c
<fvdpol@coil.demon.nl>	seq.c
<fvdpol@coil.demon.nl>	seq_clientmgr.c
<fvdpol@coil.demon.nl>	seq_clientmgr.h
<fvdpol@coil.demon.nl>	seq_fifo.c
<fvdpol@coil.demon.nl>	seq_fifo.h
<fvdpol@coil.demon.nl>	seq_info.c
<fvdpol@coil.demon.nl>	seq_info.h
<fvdpol@coil.demon.nl>	seq_memory.c
<fvdpol@coil.demon.nl>	seq_memory.h
<fvdpol@coil.demon.nl>	seq_midi.c
<fvdpol@coil.demon.nl>	seq_ports.c
<fvdpol@coil.demon.nl>	seq_ports.h
<fvdpol@coil.demon.nl>	seq_prioq.c
<fvdpol@coil.demon.nl>	seq_prioq.h
<fvdpol@coil.demon.nl>	seq_queue.c
<fvdpol@coil.demon.nl>	seq_queue.h
<fvdpol@coil.demon.nl>	seq_system.c
<fvdpol@coil.demon.nl>	seq_system.h
<fvdpol@coil.demon.nl>	seq_timer.c
<fvdpol@coil.demon.nl>	seq_timer.h
<fvdpol@coil.demon.nl>,	seq.c
<fvdpol@coil.demon.nl>,	seq_midi.c
<g.liakhovetski@gmx.de>	migor.c
<g.liakhovetski@gmx.de>	siu.h
<g.liakhovetski@gmx.de>	siu_dai.c
<g.liakhovetski@gmx.de>	siu_pcm.c
<g.liakhovetski@gmx.de>");	migor.c
<galatalt@stuy.edu>	cs4231.c
<gbritton@CapAccess.org>.	aedsp16.c
<gdm@gedamo.demon.co.uk>	sb8_main.c
<gdm@gedamo.demon.co.uk>	sb8_midi.c
<gstalusan@uwaterloo.ca>	cmi8330.c
<gstalusan@uwaterloo.ca>");	cmi8330.c
<iwai@ww.uni-erlangen.de>	seq_queue.c
<jgarzik@pobox.com>	sb_common.c
<jgarzik@pobox.com>	sb_common.c
<johannes@sipsolutions.net>	alsa.c
<johannes@sipsolutions.net>	alsa.h
<johannes@sipsolutions.net>	aoa-gpio.h
<johannes@sipsolutions.net>	aoa.h
<johannes@sipsolutions.net>	core.c
<johannes@sipsolutions.net>	core.c
<johannes@sipsolutions.net>	core.c
<johannes@sipsolutions.net>	gpio-feature.c
<johannes@sipsolutions.net>	gpio-pmf.c
<johannes@sipsolutions.net>	i2sbus.h
<johannes@sipsolutions.net>	interface.h
<johannes@sipsolutions.net>	layout.c
<johannes@sipsolutions.net>	onyx.c
<johannes@sipsolutions.net>	onyx.h
<johannes@sipsolutions.net>	soundbus.h
<johannes@sipsolutions.net>	tas.c
<johannes@sipsolutions.net>	tas.h
<johannes@sipsolutions.net>	toonie.c
<johannes@sipsolutions.net>");	core.c
<johannes@sipsolutions.net>");	core.c
<johannes@sipsolutions.net>");	core.c
<johannes@sipsolutions.net>");	layout.c
<johannes@sipsolutions.net>");	onyx.c
<johannes@sipsolutions.net>");	tas.c
<johannes@sipsolutions.net>");	toonie.c
<jwoithe@just42.net>:	als100.c
<kbob@sgi.com>");	vwsnd.c
<knan@mo.himolde.no>	interwave.c
<kristoffer.karlsson@stericsson.com>	mop500_ab8500.c
<krzysztof.h1@wp.pl>	jazz16.c
<krzysztof.h1@wp.pl>	sc6000.c
<krzysztof.h1@wp.pl>");	jazz16.c
<kuninori.morimoto.gx@renesas.com>	simple-card.c
<kuninori.morimoto.gx@renesas.com>");	simple-card.c
<kxp@atl.hp.com>	ad1816a.c
<lrg@slimlogic.co.uk>	atmel_ssc_dai.c
<lrg@slimlogic.co.uk>	soc-core.c
<mano@roarinelk.homelinux.net>	dma-sh7760.c
<mano@roarinelk.homelinux.net>	fsi.c
<mano@roarinelk.homelinux.net>	hac.c
<mano@roarinelk.homelinux.net>	ssi.c
<mano@roarinelk.homelinux.net>");	dma-sh7760.c
<mano@roarinelk.homelinux.net>");	hac.c
<mano@roarinelk.homelinux.net>");	sh7760-ac97.c
<mano@roarinelk.homelinux.net>");	ssi.c
<martin-langer@gmx.de>	miro.c
<martin-langer@gmx.de>");	miro.c
<morimoto.kuninori@renesas.com>	fsi.c
<morimoto.kuninori@renesas.com>");	fsi.c
<ola.o.lilja@stericsson.com>	mop500_ab8500.h
<ola.o.lilja@stericsson.com>,	mop500_ab8500.c
<ola.o.lilja@stericsson.com>,	ux500_msp_dai.c
<ola.o.lilja@stericsson.com>,	ux500_msp_dai.h
<ola.o.lilja@stericsson.com>,	ux500_msp_i2s.c
<ola.o.lilja@stericsson.com>,	ux500_msp_i2s.h
<ola.o.lilja@stericsson.com>,	ux500_pcm.c
<ola.o.lilja@stericsson.com>,	ux500_pcm.h
<paul@laufernet.com>	sb_card.c
<paul@laufernet.com>	sb_card.h
<pbd@op.net>	wavefront.c
<pbd@op.net>	wavefront_fx.c
<pbd@op.net>");	wavefront.c
<perex@perex.cz>	control.c
<perex@perex.cz>	control.c
<perex@perex.cz>	control.c
<perex@perex.cz>	cs4231.c
<perex@perex.cz>	cs4236.c
<perex@perex.cz>	cs4236_lib.c
<perex@perex.cz>	device.c
<perex@perex.cz>	device.c
<perex@perex.cz>	emu8000.c
<perex@perex.cz>	emu8000_synth.c
<perex@perex.cz>	es1688.c
<perex@perex.cz>	es1688_lib.c
<perex@perex.cz>	gus_dma.c
<perex@perex.cz>	gus_dram.c
<perex@perex.cz>	gus_instr.c
<perex@perex.cz>	gus_io.c
<perex@perex.cz>	gus_irq.c
<perex@perex.cz>	gus_main.c
<perex@perex.cz>	gus_mem.c
<perex@perex.cz>	gus_mem_proc.c
<perex@perex.cz>	gus_mixer.c
<perex@perex.cz>	gus_pcm.c
<perex@perex.cz>	gus_reset.c
<perex@perex.cz>	gus_tables.h
<perex@perex.cz>	gus_timer.c
<perex@perex.cz>	gus_uart.c
<perex@perex.cz>	gus_volume.c
<perex@perex.cz>	gusclassic.c
<perex@perex.cz>	gusextreme.c
<perex@perex.cz>	gusmax.c
<perex@perex.cz>	hwdep.c
<perex@perex.cz>	info.c
<perex@perex.cz>	info_oss.c
<perex@perex.cz>	init.c
<perex@perex.cz>	interwave.c
<perex@perex.cz>	io.c
<perex@perex.cz>	isadma.c
<perex@perex.cz>	memalloc.c
<perex@perex.cz>	memory.c
<perex@perex.cz>	misc.c
<perex@perex.cz>	mixer_oss.c
<perex@perex.cz>	msnd_midi.c
<perex@perex.cz>	mulaw.c
<perex@perex.cz>	opl3sa2.c
<perex@perex.cz>	pcm.c
<perex@perex.cz>	pcm.c
<perex@perex.cz>	pcm_lib.c
<perex@perex.cz>	pcm_memory.c
<perex@perex.cz>	pcm_misc.c
<perex@perex.cz>	pcm_native.c
<perex@perex.cz>	pcm_oss.c
<perex@perex.cz>	pcm_plugin.c
<perex@perex.cz>	pcm_plugin.h
<perex@perex.cz>	pcm_timer.c
<perex@perex.cz>	rate.c
<perex@perex.cz>	rawmidi.c
<perex@perex.cz>	sb16.c
<perex@perex.cz>	sb16_main.c
<perex@perex.cz>	sb8.c
<perex@perex.cz>	sb8_main.c
<perex@perex.cz>	sb8_midi.c
<perex@perex.cz>	seq_clientmgr.c
<perex@perex.cz>	seq_memory.c
<perex@perex.cz>	seq_midi.c
<perex@perex.cz>	seq_midi_event.c
<perex@perex.cz>	seq_ports.c
<perex@perex.cz>	seq_timer.c
<perex@perex.cz>	seq_virmidi.c
<perex@perex.cz>	sound.c
<perex@perex.cz>	sound_oss.c
<perex@perex.cz>	timer.c
<perex@perex.cz>	wss_lib.c
<perex@perex.cz>");	cs4231.c
<perex@perex.cz>");	cs4236.c
<perex@perex.cz>");	es1688.c
<perex@perex.cz>");	es1688_lib.c
<perex@perex.cz>");	gus_main.c
<perex@perex.cz>");	gusclassic.c
<perex@perex.cz>");	gusextreme.c
<perex@perex.cz>");	gusmax.c
<perex@perex.cz>");	hwdep.c
<perex@perex.cz>");	interwave.c
<perex@perex.cz>");	memalloc.c
<perex@perex.cz>");	mixer_oss.c
<perex@perex.cz>");	opl3sa2.c
<perex@perex.cz>");	rawmidi.c
<perex@perex.cz>");	sb16.c
<perex@perex.cz>");	sb16_main.c
<perex@perex.cz>");	sb8.c
<perex@perex.cz>");	seq.c
<perex@perex.cz>");	seq_midi.c
<perex@perex.cz>");	seq_midi_event.c
<perex@perex.cz>");	sound.c
<perex@perex.cz>");	wss_lib.c
<perex@perex.cz>,	linear.c
<perex@perex.cz>,	pcm.c
<perex@perex.cz>,	pcm.c
<perex@perex.cz>,	pcm_oss.c
<perex@perex.cz>,	sb8_main.c
<perex@perex.cz>,	timer.c
<perex@perex.cz>\n");	gus_main.c
<pierre-louis.bossart@linux.intel.com>	compress_offload.c
<rainer.wiesner@01019freenet.de>	azt2320.c
<rankinc@zipworld.com.au>	sb_common.c
<rankinc@zipworld.com.au>	sb_common.c
<richard@openedhand.com>	soc-core.c
<rmk@arm.linux.org.uk>	vidc.c
<rmk@arm.linux.org.uk>	vidc.h
<roger.xr.nilsson@stericsson.com>	ux500_msp_dai.c
<roger.xr.nilsson@stericsson.com>	ux500_msp_dai.h
<roger.xr.nilsson@stericsson.com>	ux500_pcm.c
<roger.xr.nilsson@stericsson.com>	ux500_pcm.h
<roger.xr.nilsson@stericsson.com>,	ux500_msp_i2s.c
<sandeep.kaushik@st.com>	ux500_msp_i2s.c
<sedji.gaouaou@atmel.com>	atmel-pcm-dma.c
<sedji.gaouaou@atmel.com>	atmel-pcm-pdc.c
<sedji.gaouaou@atmel.com>	atmel-pcm.h
<sedji.gaouaou@atmel.com>	atmel_ssc_dai.c
<sedji.gaouaou@atmel.com>	sam9g20_wm8731.c
<sedji.gaouaou@atmel.com>");	atmel-pcm-pdc.c
<sedji.gaouaou@atmel.com>");	sam9g20_wm8731.c
<sjg95@unixfe.rl.ac.uk>	aedsp16.c
<slapin@ossfans.org>	snd-soc-afeb9260.c
<slapin@ossfans.org>");	snd-soc-afeb9260.c
<stas@esc.kharkov.com>	sb_mixer.c
<stas@esc.kharkov.com>	sb_mixer.c
<steve@parabola.demon.co.uk>	emu8000.c
<steve@parabola.demon.co.uk>	emu8000_synth.c
<tiwai@suse.de>	control_compat.c
<tiwai@suse.de>	ctljack.c
<tiwai@suse.de>	emu8000.c
<tiwai@suse.de>	emu8000_callback.c
<tiwai@suse.de>	emu8000_local.h
<tiwai@suse.de>	emu8000_patch.c
<tiwai@suse.de>	emu8000_pcm.c
<tiwai@suse.de>	emu8000_synth.c
<tiwai@suse.de>	hwdep_compat.c
<tiwai@suse.de>	memalloc.c
<tiwai@suse.de>	mixer.c
<tiwai@suse.de>	mixer_maps.c
<tiwai@suse.de>	mixer_quirks.c
<tiwai@suse.de>	pcm_compat.c
<tiwai@suse.de>	rawmidi_compat.c
<tiwai@suse.de>	sb16_csp.c
<tiwai@suse.de>	seq_clientmgr.c
<tiwai@suse.de>	seq_compat.c
<tiwai@suse.de>	seq_device.c
<tiwai@suse.de>	seq_dummy.c
<tiwai@suse.de>	seq_lock.c
<tiwai@suse.de>	seq_memory.c
<tiwai@suse.de>	seq_oss.c
<tiwai@suse.de>	seq_oss_device.h
<tiwai@suse.de>	seq_oss_event.c
<tiwai@suse.de>	seq_oss_event.h
<tiwai@suse.de>	seq_oss_init.c
<tiwai@suse.de>	seq_oss_ioctl.c
<tiwai@suse.de>	seq_oss_midi.c
<tiwai@suse.de>	seq_oss_midi.h
<tiwai@suse.de>	seq_oss_readq.c
<tiwai@suse.de>	seq_oss_readq.h
<tiwai@suse.de>	seq_oss_rw.c
<tiwai@suse.de>	seq_oss_synth.c
<tiwai@suse.de>	seq_oss_synth.h
<tiwai@suse.de>	seq_oss_timer.c
<tiwai@suse.de>	seq_oss_timer.h
<tiwai@suse.de>	seq_oss_writeq.c
<tiwai@suse.de>	seq_oss_writeq.h
<tiwai@suse.de>	sgbuf.c
<tiwai@suse.de>	timer_compat.c
<tiwai@suse.de>	usbaudio.h
<tiwai@suse.de>	vmaster.c
<tiwai@suse.de>");	hrtimer.c
<tiwai@suse.de>");	seq_device.c
<tiwai@suse.de>");	seq_dummy.c
<tiwai@suse.de>");	seq_oss.c
<tiwai@suse.de>");	seq_virmidi.c
<tiwai@suse.de>");	timer.c
<tiwai@suse.de>,	memalloc.c
<tiwai@suse.de>,	quirks-table.h
<tiwai@suse.de>,	seq_midi_event.c
<tiwai@suse.de>,	seq_midi_event.c
<tiwai@suse.de>,	seq_virmidi.c
<tj.trevelyan@gmail.com>	sgio2audio.c
<torsten.schenk@zoho.com>	chip.h
<tsbogend@alpha.fanken.de>	hal2.c
<tsbogend@alpha.franken.de>	ad1843.c
<tsbogend@alpha.franken.de>	sgio2audio.c
<ulfc@bun.falkenberg.se>	hal2.h
<vinod.koul@linux.intel.com>	compress_offload.c
<vinod.koul@linux.intel.com>");	compress_offload.c
<vladimir.michl@upol.cz>	pss.c
<vladimir.michl@upol.cz>	pss.c
<voice.shen@atmel.com>	atmel-pcm-dma.c
<voice.shen@atmel.com>");	atmel-pcm-dma.c
andy@guildsoftware.com	sb_ess.c
annabellesgarden@yahoo.de	msnd_pinnacle_mixer.c
ctm@ardi.com	sb16.c
fokkensr@vertis.nl	sb_ess.c
hooft@chem.ruu.nl	opl3.c
lrg@slimlogic.co.uk");	soc-core.c
marco@driq.home.usn.nl:	uart6850.c
sedji.gaouaou@atmel.com,	atmel_ssc_dai.c
zezo@inet.bg	sb_ess.c
