 9	pgtable.h
 9	pgtable.h
 AES_DROUND01	opcodes.h
 AES_DROUND01_L	opcodes.h
 AES_DROUND23	opcodes.h
 AES_DROUND23_L	opcodes.h
 AES_EROUND01	opcodes.h
 AES_EROUND01_L	opcodes.h
 AES_EROUND23	opcodes.h
 AES_EROUND23_L	opcodes.h
 AES_KEXPAND0	opcodes.h
 AES_KEXPAND1	opcodes.h
 AES_KEXPAND2	opcodes.h
 ARRAY_SIZE	prom_irqtrans.c
 ARRAY_SIZE	sbus.c
 ATOMIC_HASH	atomic32.c
 ATOMIC_HASH	atomic32.c
 BUG	traps_32.c
 BUILD_PTE_VALID_SZHUGE_CACHE	tsb.h
 C	perf_event.c
 CAMELLIA_F	opcodes.h
 CAMELLIA_FL	opcodes.h
 CAMELLIA_FLI	opcodes.h
 CHOOSE_LOAD_FUNC	bpf_jit_comp.c
 COND	bpf_jit_comp.c
 COND_SEL	bpf_jit_comp.c
 CONFIG_CMD	pcic.c
 COOKIE	viohs.c
 COOKIE	viohs.c
 CPU	cpu.c
 CPU_PMU	cpu.c
 CRC32C	opcodes.h
 CROSS_64KB	floppy_32.h
 CTX_HWBITS	mmu_64.h
 CTX_NRBITS	mmu_64.h
 CTX_VALID	mmu_64.h
 DATA	pci_schizo.c
 DATA	psycho_common.c
 DECLARE_WAIT_QUEUE_HEAD	ds.c
 DEFINE_MUTEX	ds.c
 DEFINE_MUTEX	mdesc.c
 DEFINE_MUTEX	perf_event.c
 DEFINE_PER_CPU	nmi.c
 DEFINE_PER_CPU	nmi.c
 DEFINE_PER_CPU	nmi.c
 DEFINE_PER_CPU	nmi.c
 DEFINE_PER_CPU	pci_sun4v.c
 DEFINE_PER_CPU	sysfs.c
 DEFINE_PER_CPU	sysfs.c
 DEFINE_PER_CPU	time_64.c
 DEFINE_PER_CPU	time_64.c
 DEFINE_PER_CPU	tlb.c
 DEFINE_PER_CPU_SHARED_ALIGNED	leon_smp.c
 DEFINE_PER_CPU_SHARED_ALIGNED	sun4d_smp.c
 DEFINE_RATELIMIT_STATE	unaligned_64.c
 DEFINE_RAW_SPINLOCK	printf.c
 DEFINE_SEQLOCK	time_32.c
 DEFINE_SPINLOCK	atomic32.c
 DEFINE_SPINLOCK	auxio_32.c
 DEFINE_SPINLOCK	auxio_64.c
 DEFINE_SPINLOCK	chmc.c
 DEFINE_SPINLOCK	cpumap.c
 DEFINE_SPINLOCK	ds.c
 DEFINE_SPINLOCK	floppy_32.h
 DEFINE_SPINLOCK	hvapi.c
 DEFINE_SPINLOCK	irq_32.c
 DEFINE_SPINLOCK	irq_32.c
 DEFINE_SPINLOCK	irq_64.c
 DEFINE_SPINLOCK	leon_kernel.c
 DEFINE_SPINLOCK	leon_smp.c
 DEFINE_SPINLOCK	mdesc.c
 DEFINE_SPINLOCK	pci.c
 DEFINE_SPINLOCK	pci_msi.c
 DEFINE_SPINLOCK	pci_schizo.c
 DEFINE_SPINLOCK	process_64.c
 DEFINE_SPINLOCK	psycho_common.c
 DEFINE_SPINLOCK	smp_64.c
 DEFINE_SPINLOCK	srmmu.c
 DEFINE_SPINLOCK	sun4d_smp.c
 DEFINE_SPINLOCK	sun4m_smp.c
 DEFINE_SPINLOCK	traps_64.c
 DES_IIP	opcodes.h
 DES_IP	opcodes.h
 DES_KEXPAND	opcodes.h
 DES_ROUND	opcodes.h
 DEVICE_ATTR	pci.c
 DEVICE_ATTR	sysfs.c
 DEVICE_ATTR	sysfs.c
 ELF_PLAT_INIT	elf.h
 ERR_PTR	hugetlbpage.c
 ERR_PTR	ldc.c
 ERR_PTR	ldc.c
 ERR_PTR	ldc.c
 ERR_PTR	ldc.c
 ERR_PTR	perf_event.c
 ERR_PTR	perf_event.c
 ERR_PTR	perf_event.c
 ERR_PTR	perf_event.c
 ERR_PTR	perf_event.c
 ERR_PTR	perf_event.c
 EVENT_QUEUE_CONTROL_CLEAR	pci_fire.c
 EVENT_QUEUE_CONTROL_SET	pci_fire.c
 EVENT_QUEUE_HEAD	pci_fire.c
 EVENT_QUEUE_STATE	pci_fire.c
 EVENT_QUEUE_TAIL	pci_fire.c
 F1	bpf_jit_comp.c
 F2	bpf_jit_comp.c
 F3	bpf_jit_comp.c
 F3F	opcodes.h
 FLOATFUNC	math_32.c
 FLUSH_BEGIN	srmmu.c
 FLUSH_BEGIN	srmmu.c
 FPD_ENCODE	opcodes.h
 FPU	cpu.c
 GET_64BIT	pci.c
 HLIST_HEAD	ldc.c
 IGEN_MESSAGE	sun4d_smp.c
 IMM5_0	opcodes.h
 IMM5_9	opcodes.h
 INIT_THREAD_INFO	thread_info.h
 INIT_THREAD_INFO	thread_info_32.h
 INSTANTIATE	irq_32.c
 IOD	io-unit.c
 IOD	io-unit.c
 IOPTE_CONSISTENT	iommu.c
 IOPTE_CONSISTENT	iommu.c
 IOPTE_IS_DUMMY	iommu.c
 IOPTE_IS_DUMMY	iommu.c
 IOPTE_STREAMING	iommu.c
 IOPTE_STREAMING	iommu.c
 IO_PAGE_ALIGN	iommu_common.h
 KERNEL_PTE	srmmu.c
 KERN_PGTABLE_WALK	tsb.h
 KERN_TSB4M_LOOKUP_TL1	tsb.h
 KERN_TSB_LOOKUP_TL1	tsb.h
 KSTK_EIP	processor.h
 KSTK_EIP	processor_32.h
 KSTK_ESP	processor.h
 KSTK_ESP	processor_32.h
 LEON3_BYPASS_LOAD_PA	leon_kernel.c
 LEON_IMASK	leon_kernel.c
 LIST_HEAD	chmc.c
 LIST_HEAD	ds.c
 LIST_HEAD	mdesc.c
 MKIOPTE	io-unit.c
 MSI_CLEAR	pci_fire.c
 MSI_MAP	pci_fire.c
 NODE_DATA	mmzone.h
 OBP_TRANS_LOOKUP	tsb.h
 OP	bpf_jit_comp.c
 OP2	bpf_jit_comp.c
 OP3	bpf_jit_comp.c
 OR_LO	bpf_jit_comp.c
 OR_PTE_BIT	tsb.h
 PAGE_DOWN	page.h
 PAGE_UP	page.h
 PCI_STC_FLUSHFLAG_INIT	pci_impl.h
 PCI_STC_FLUSHFLAG_SET	pci_impl.h
 PSYCHO_CONFIG_BASE	psycho_common.h
 PSYCHO_CONFIG_ENCODE	psycho_common.h
 PTR_ERR	perf_event.c
 PTR_ERR	viohs.c
 RD	bpf_jit_comp.c
 RD	opcodes.h
 RD	visemul.c
 REGLOAD	leon_pci_grpci2.c
 REGSTORE	leon_pci_grpci2.c
 RS1	bpf_jit_comp.c
 RS1	opcodes.h
 RS1	visemul.c
 RS2	bpf_jit_comp.c
 RS2	opcodes.h
 RS2	visemul.c
 RS3	opcodes.h
 RTC_PORT	io_32.h
 S13	bpf_jit_comp.c
 SABRE_CONFIG_BASE	prom_irqtrans.c
 SABRE_CONFIG_ENCODE	prom_irqtrans.c
 SBI2DEVID	sbi.h
 SCHIZO_CONFIG_BASE	pci_schizo.c
 SCHIZO_CONFIG_ENCODE	pci_schizo.c
 SETHI	bpf_jit_comp.c
 SET_PERSONALITY	elf.h
 SG_ENT_PHYS_ADDRESS	iommu_common.h
 SHOW_CPUDATA_UINT_NAME	sysfs.c
 SHOW_CPUDATA_ULONG_NAME	sysfs.c
 SHOW_MMUSTAT_ULONG	sysfs.c
 SN2L_INIT	pcic.c
 STC_CTXMATCH_ADDR	iommu.c
 STC_CTXMATCH_ADDR	iommu.c
 STC_FLUSHFLAG_INIT	iommu.c
 STC_FLUSHFLAG_INIT	iommu.c
 STC_FLUSHFLAG_SET	iommu.c
 STC_FLUSHFLAG_SET	iommu.c
 SUN4M_INT_SBUS	sun4m_irq.c
 SUN4M_INT_VME	sun4m_irq.c
 Scott	starfire.c
 TAG	pci_schizo.c
 TAG	psycho_common.c
 TLBMISS_HANDLER_SETUP	mmu_context.h
 TLBMISS_HANDLER_SETUP	mmu_context.h
 TLBMISS_HANDLER_SETUP_PGD	mmu_context.h
 TLBMISS_HANDLER_SETUP_PGD	mmu_context.h
 TSB_CAS_TAG	tsb.h
 TSB_CAS_TAG_HIGH	tsb.h
 TSB_LOAD_QUAD	tsb.h
 TSB_LOAD_TAG	tsb.h
 TSB_LOAD_TAG_HIGH	tsb.h
 TSB_LOCK_TAG	tsb.h
 TSB_STORE	tsb.h
 TSB_WRITE	tsb.h
 TYPE	math_32.c
 TYPE	math_64.c
 USER_PGTABLE_CHECK_PMD_HUGE	tsb.h
 USER_PGTABLE_CHECK_PMD_HUGE	tsb.h
 USER_PGTABLE_WALK_TL1	tsb.h
 VISenter	ksyms.c
 VISenterhalf	ksyms.c
 VMEMMAP_ALIGN	init_64.h
 WDISP22	bpf_jit_comp.c
 WINREG_ADDR	unaligned_32.c
 ZERO_PAGE	pgtable.h
 ZERO_PAGE	pgtable.h
 _ALIGN	page.h
 _ALIGN_DOWN	page.h
 _ALIGN_UP	page.h
 _FP_ADD	math_32.c
 _FP_MUL_MEAT_t	math_32.c
 ___change_bit	atomic32.c
 ___change_bit	bitops_32.h
 ___change_bit	bitops_32.h
 ___clear_bit	atomic32.c
 ___clear_bit	bitops_32.h
 ___clear_bit	bitops_32.h
 ___rw_read_enter	ksyms.c
 ___rw_read_exit	ksyms.c
 ___rw_read_try	ksyms.c
 ___rw_write_enter	ksyms.c
 ___set_bit	atomic32.c
 ___set_bit	bitops_32.h
 ___set_bit	bitops_32.h
 __access_ok	uaccess.h
 __access_ok	uaccess.h
 __advance	ldc.c
 __advance	ldc.c
 __advance	ldc.c
 __alloc_bootmem	smp_64.c
 __arch_read_lock	spinlock_32.h
 __arch_read_trylock	spinlock_32.h
 __arch_read_unlock	spinlock_32.h
 __ashldi3	ksyms.c
 __ashrdi3	ksyms.c
 __asm__	thread_info.h
 __atomic_add_return	atomic32.c
 __atomic_add_unless	atomic32.c
 __attribute__	btext.c
 __attribute__	kstack.h
 __attribute__	kstack.h
 __attribute__	sun4d_smp.c
 __auxio_rmw	auxio_64.c
 __auxio_sbus_set_lte	auxio_64.c
 __auxio_set_bit	auxio_64.c
 __build_path_component	prom_32.c
 __build_path_component	prom_64.c
 __cheetah_flush_icache	traps_64.c
 __clear_user	uaccess.h
 __clear_user	uaccess.h
 __clear_user	uaccess.h
 __clear_user	uaccess.h
 __cmpdi2	cmpdi2.c
 __cmpxchg	cmpxchg_64.h
 __cmpxchg_called_with_bad_pointer	cmpxchg_64.h
 __cmpxchg_local_generic	cmpxchg_64.h
 __cmpxchg_u32	atomic32.c
 __cmpxchg_u32	cmpxchg_64.h
 __cmpxchg_u64	cmpxchg_64.h
 __copy_from_user	uaccess.h
 __copy_from_user	uaccess.h
 __copy_from_user	uaccess.h
 __copy_from_user	uaccess.h
 __copy_in_user	uaccess.h
 __copy_in_user	uaccess.h
 __copy_to_user	uaccess.h
 __copy_to_user	uaccess.h
 __copy_to_user	uaccess.h
 __copy_to_user	uaccess.h
 __copy_tofrom_user	uaccess.h
 __copy_tofrom_user	uaccess.h
 __copy_tofrom_user	uaccess.h
 __copy_tofrom_user	uaccess.h
 __copy_tofrom_user	uaccess.h
 __copy_tofrom_user	uaccess.h
 __copy_tofrom_user	uaccess.h
 __copy_tofrom_user	uaccess.h
 __copy_tofrom_user	uaccess.h
 __copy_tofrom_user	uaccess.h
 __cpu_die	smp_64.c
 __cpu_disable	smp_64.c
 __cpu_find_by	devices.c
 __cpu_find_by	devices.c
 __cpu_find_by	devices.c
 __cpu_up	smp_32.c
 __cpu_up	smp_64.c
 __crc32c_sparc64_finup	crc32c_glue.c
 __crc32c_sparc64_finup	crc32c_glue.c
 __ctxd	page_32.h
 __ctxd	page_32.h
 __delay	delay.h
 __delay	delay.h
 __delay	time_64.c
 __divdi3	ksyms.c
 __do_int_store	unaligned_32.c
 __do_int_store	unaligned_64.c
 __ds_send	ds.c
 __ebus_dma_reset	ebus.c
 __ecb3_crypt	des_glue.c
 __ecb3_crypt	des_glue.c
 __ecb_crypt	camellia_glue.c
 __ecb_crypt	camellia_glue.c
 __ecb_crypt	des_glue.c
 __ecb_crypt	des_glue.c
 __emit_load8	bpf_jit_comp.c
 __emit_skb_load8	bpf_jit_comp.c
 __fix_to_virt	fixmap.h
 __fix_to_virt	fixmap.h
 __flush_tlb_pending	tlb_64.h
 __get_ref	hvapi.c
 __get_user	uaccess.h
 __get_user	uaccess.h
 __get_user_asm	uaccess.h
 __get_user_asm	uaccess.h
 __get_user_check	uaccess.h
 __get_user_check	uaccess.h
 __get_user_common	uaccess.h
 __get_user_common	uaccess.h
 __get_user_nocheck	uaccess.h
 __get_user_nocheck	uaccess.h
 __get_user_unknown	uaccess.h
 __get_user_unknown	uaccess.h
 __global_pmu_poll	process_64.c
 __global_pmu_self	process_64.c
 __global_reg_poll	process_64.c
 __hbird_read_stick	time_64.c
 __hbird_read_stick	time_64.c
 __hbird_write_compare	time_64.c
 __hbird_write_stick	time_64.c
 __iopgprot	page_32.h
 __iopgprot	page_32.h
 __iopte	page_32.h
 __iopte	page_32.h
 __kunmap_atomic	highmem.c
 __ldc_channel_exists	ldc.c
 __ldc_channel_exists	ldc.c
 __local_flush_dcache_page	smp_64.c
 __lshrdi3	ksyms.c
 __m	uaccess.h
 __m	uaccess.h
 __md5_sparc64_update	md5_glue.c
 __muldi3	ksyms.c
 __pa	page.h
 __pa	page_32.h
 __page_aligned	init.c
 __page_aligned	init.c
 __pgd	page.h
 __pgd	page_32.h
 __pgd	page_32.h
 __pgd_offset	pgtable.h
 __pgd_offset	pgtable.h
 __pgprot	page.h
 __pgprot	page_32.h
 __pgprot	page_32.h
 __pgprot	page_32.h
 __pgprot	pgtable.h
 __pgprot	pgtable.h
 __pmd	page_32.h
 __pmd	page_32.h
 __pmd_offset	pgtable.h
 __pmd_offset	pgtable.h
 __printf	oplib_32.h
 __prom_console_write_buf	console_64.c
 __prom_getchild	tree_32.c
 __prom_getchild	tree_64.c
 __prom_getsibling	tree_32.c
 __prom_getsibling	tree_64.c
 __prom_nextprop	tree_32.c
 __pte	page.h
 __pte	page_32.h
 __pte	page_32.h
 __pte	pgtable.h
 __pte	pgtable.h
 __pte_free_tlb	pgalloc.h
 __pte_offset	pgtable.h
 __pte_offset	pgtable.h
 __pte_to_swp_entry	pgtable.h
 __pte_to_swp_entry	pgtable.h
 __pud_offset	pgtable.h
 __pud_offset	pgtable.h
 __put_ref	hvapi.c
 __put_user	uaccess.h
 __put_user	uaccess.h
 __put_user_asm	uaccess.h
 __put_user_asm	uaccess.h
 __put_user_check	uaccess.h
 __put_user_check	uaccess.h
 __put_user_nocheck	uaccess.h
 __put_user_nocheck	uaccess.h
 __put_user_unknown	uaccess.h
 __put_user_unknown	uaccess.h
 __raw_readb	io_32.h
 __raw_readb	io_64.h
 __raw_readl	io_32.h
 __raw_readl	io_64.h
 __raw_readq	io_64.h
 __raw_readw	io_32.h
 __raw_readw	io_64.h
 __raw_writeb	io_32.h
 __raw_writeb	io_64.h
 __raw_writel	io_32.h
 __raw_writel	io_64.h
 __raw_writeq	io_64.h
 __raw_writew	io_32.h
 __raw_writew	io_64.h
 __readb	io_32.h
 __readl	io_32.h
 __readw	io_32.h
 __schizo_init	pci_schizo.c
 __schizo_init	pci_schizo.c
 __send_ds_nack	ds.c
 __set_proc_ids	mdesc.c
 __set_rx_head	ldc.c
 __sha1_sparc64_update	sha1_glue.c
 __sha256_sparc64_update	sha256_glue.c
 __sha512_sparc64_update	sha512_glue.c
 __strlen_user	uaccess.h
 __strlen_user	uaccess.h
 __strlen_user	uaccess.h
 __strlen_user	uaccess.h
 __strncpy_from_user	uaccess.h
 __strncpy_from_user	uaccess.h
 __strncpy_from_user	uaccess.h
 __strncpy_from_user	uaccess.h
 __strnlen_user	uaccess.h
 __strnlen_user	uaccess.h
 __strnlen_user	uaccess.h
 __strnlen_user	uaccess.h
 __swp_entry	pgtable.h
 __swp_entry	pgtable.h
 __swp_entry_to_pte	pgtable.h
 __swp_entry_to_pte	pgtable.h
 __swp_offset	pgtable.h
 __swp_offset	pgtable.h
 __swp_type	pgtable.h
 __swp_type	pgtable.h
 __this_fixmap_does_not_exist	fixmap.h
 __tlb_remove_tlb_entry	tlb.h
 __tlb_remove_tlb_entry	tlb_32.h
 __tlb_remove_tlb_entry	tlb_64.h
 __tsb_insert	mmu_64.h
 __typeof__	uaccess.h
 __typeof__	uaccess.h
 __ua_size	uaccess.h
 __ua_size	uaccess.h
 __ucmpdi2	ucmpdi2.c
 __udelay	delay.h
 __udelay	delay.h
 __update_tlb	tlb-score.c
 __va	page.h
 __va	page_32.h
 __virt_to_fix	fixmap.h
 __virt_to_fix	fixmap.h
 __volatile__	aes_glue.c
 __volatile__	camellia_glue.c
 __volatile__	chmc.c
 __volatile__	cpu.c
 __volatile__	crc32c_glue.c
 __volatile__	des_glue.c
 __volatile__	fault_64.c
 __volatile__	fault_64.c
 __volatile__	kstack.h
 __volatile__	kstack.h
 __volatile__	kstack.h
 __volatile__	leon_mm.c
 __volatile__	leon_mm.c
 __volatile__	leon_mm.c
 __volatile__	leon_smp.c
 __volatile__	leon_smp.c
 __volatile__	md5_glue.c
 __volatile__	module.c
 __volatile__	pcr.c
 __volatile__	pcr.c
 __volatile__	pcr.c
 __volatile__	setup_32.c
 __volatile__	setup_64.c
 __volatile__	setup_64.c
 __volatile__	setup_64.c
 __volatile__	setup_64.c
 __volatile__	setup_64.c
 __volatile__	setup_64.c
 __volatile__	setup_64.c
 __volatile__	setup_64.c
 __volatile__	setup_64.c
 __volatile__	setup_64.c
 __volatile__	sha1_glue.c
 __volatile__	sha256_glue.c
 __volatile__	sha512_glue.c
 __volatile__	signal32.c
 __volatile__	signal32.c
 __volatile__	smp_64.c
 __volatile__	smp_64.c
 __volatile__	smp_64.c
 __volatile__	spinlock_32.h
 __volatile__	stacktrace.c
 __volatile__	tlbflush.h
 __volatile__	tlbflush.h
 __volatile__	tlbflush.h
 __volatile__	tlbflush.h
 __volatile__	traps_32.c
 __volatile__	traps_32.c
 __volatile__	traps_64.c
 __volatile__	unaligned_64.c
 __volatile__	visemul.c
 __writeb	io_32.h
 __writel	io_32.h
 __writew	io_32.h
 __xchg	cmpxchg.h
 __xchg	cmpxchg.h
 __xchg_called_with_bad_pointer	cmpxchg_64.h
 __xg	cmpxchg.h
 __xg	cmpxchg.h
 _cpu_map_rebuild	cpumap.c
 _inb	io_64.h
 _inl	io_64.h
 _inw	io_64.h
 _map_to_cpu	cpumap.c
 _outb	io_64.h
 _outl	io_64.h
 _outw	io_64.h
 _raw_readb	io_64.h
 _raw_readl	io_64.h
 _raw_readq	io_64.h
 _raw_readw	io_64.h
 _raw_writeb	io_64.h
 _raw_writel	io_64.h
 _raw_writeq	io_64.h
 _raw_writew	io_64.h
 _readb	io_64.h
 _readl	io_64.h
 _readq	io_64.h
 _readw	io_64.h
 _sbus_memset_io	io_64.h
 _sbus_readb	io_32.h
 _sbus_readb	io_64.h
 _sbus_readl	io_32.h
 _sbus_readl	io_64.h
 _sbus_readq	io_64.h
 _sbus_readw	io_32.h
 _sbus_readw	io_64.h
 _sbus_writeb	io_32.h
 _sbus_writeb	io_64.h
 _sbus_writel	io_32.h
 _sbus_writel	io_64.h
 _sbus_writeq	io_64.h
 _sbus_writew	io_32.h
 _sbus_writew	io_64.h
 _sigpause_common	signal_32.c
 _sigpause_common	signal_32.c
 _sigpause_common	signal_64.c
 _sigpause_common	signal_64.c
 _sigpause_common	signal_64.c
 _sparc_alloc_io	ioport.c
 _sparc_free_io	ioport.c
 _sparc_free_io	ioport.c
 _sparc_ioremap	ioport.c
 _sun4d_build_device_irq	sun4d_irq.c
 _upa_readb	upa.h
 _upa_readl	upa.h
 _upa_readq	upa.h
 _upa_readw	upa.h
 _upa_writeb	upa.h
 _upa_writel	upa.h
 _upa_writeq	upa.h
 _upa_writew	upa.h
 _writeb	io_64.h
 _writel	io_64.h
 _writeq	io_64.h
 _writew	io_64.h
 abort	sfp-util_32.h
 abort	sfp-util_64.h
 access_ok	uaccess.h
 access_ok	uaccess.h
 access_ok	uaccess.h
 access_ok	uaccess.h
 access_ok	uaccess.h
 access_ok	uaccess.h
 access_ok	uaccess.h
 access_ok	uaccess.h
 access_ok	uaccess.h
 access_ok	uaccess.h
 access_ok	unaligned_32.c
 ack_bad_irq	hardirq_64.h
 ack_bad_irq	irq_64.c
 acquire_sbi	sbi.h
 add_ssaaaa	sfp-util_32.h
 add_ssaaaa	sfp-util_64.h
 add_to_ctx_list	srmmu.c
 add_to_free_ctxlist	srmmu.c
 add_to_used_ctxlist	srmmu.c
 advance	unaligned_32.c
 advance	unaligned_64.c
 aes_decrypt	aes_glue.c
 aes_encrypt	aes_glue.c
 aes_sparc64_load_decrypt_keys_128	aes_glue.c
 aes_sparc64_load_decrypt_keys_192	aes_glue.c
 aes_sparc64_load_decrypt_keys_256	aes_glue.c
 aes_sparc64_load_encrypt_keys_128	aes_glue.c
 aes_sparc64_load_encrypt_keys_192	aes_glue.c
 aes_sparc64_load_encrypt_keys_256	aes_glue.c
 aes_sparc64_mod_fini	aes_glue.c
 aes_sparc64_mod_init	aes_glue.c
 ali_sound_dma_hack	pci.c
 all_drings_registered	viohs.c
 alloc_context	srmmu.c
 alloc_msi	pci_msi.c
 alloc_one_queue	irq_64.c
 ambapp_path_component	prom_32.c
 ambapp_path_component	prom_32.c
 apb_calc_first_last	pci.c
 apb_init	pci_sabre.c
 apc_free	apc.c
 apc_init	apc.c
 apc_ioctl	apc.c
 apc_open	apc.c
 apc_probe	apc.c
 apc_readb	apc.c
 apc_release	apc.c
 apc_setup	apc.c
 apc_swift_idle	apc.c
 apc_writeb	apc.c
 arch_align_stack	exec.h
 arch_arm_kprobe	kprobes.c
 arch_disarm_kprobe	kprobes.c
 arch_enter_lazy_cpu_mode	pgtable.h
 arch_enter_lazy_cpu_mode	pgtable.h
 arch_get_unmapped_area	sys_sparc_32.c
 arch_get_unmapped_area	sys_sparc_64.c
 arch_has_single_step	ptrace.h
 arch_has_single_step	ptrace.h
 arch_init_kprobes	kprobes.c
 arch_irq_work_raise	pcr.c
 arch_irqs_disabled	irqflags.h
 arch_irqs_disabled_flags	irqflags.h
 arch_irqs_disabled_flags	irqflags.h
 arch_local_irq_disable	irqflags.h
 arch_local_irq_enable	irq_32.c
 arch_local_irq_enable	irqflags.h
 arch_local_irq_restore	irq_32.c
 arch_local_irq_restore	irqflags.h
 arch_local_irq_save	irq_32.c
 arch_local_irq_save	irqflags.h
 arch_local_save_flags	irqflags.h
 arch_pick_mmap_layout	sys_sparc_64.c
 arch_prepare_kprobe	kprobes.c
 arch_read_can_lock	spinlock_32.h
 arch_read_lock	spinlock_32.h
 arch_read_lock_flags	spinlock_32.h
 arch_read_relax	spinlock_32.h
 arch_read_trylock	spinlock_32.h
 arch_read_unlock	spinlock_32.h
 arch_send_call_function_ipi_mask	smp_32.c
 arch_send_call_function_ipi_mask	smp_32.h
 arch_send_call_function_ipi_mask	smp_64.c
 arch_send_call_function_single_ipi	smp_32.c
 arch_send_call_function_single_ipi	smp_32.h
 arch_send_call_function_single_ipi	smp_64.c
 arch_setup_msi_irq	pci.c
 arch_show_interrupts	irq_32.c
 arch_show_interrupts	irq_64.c
 arch_spin_is_locked	spinlock_32.h
 arch_spin_lock	spinlock_32.h
 arch_spin_lock_flags	spinlock_32.h
 arch_spin_relax	spinlock_32.h
 arch_spin_trylock	spinlock_32.h
 arch_spin_unlock	spinlock_32.h
 arch_spin_unlock_wait	spinlock_32.h
 arch_teardown_msi_irq	pci.c
 arch_trampoline_kprobe	kprobes.c
 arch_trigger_all_cpu_backtrace	process_64.c
 arch_write_can_lock	spinlock_32.h
 arch_write_lock	spinlock_32.h
 arch_write_lock_flags	spinlock_32.h
 arch_write_relax	spinlock_32.h
 arch_write_trylock	spinlock_32.h
 arch_write_unlock	spinlock_32.h
 arena_alloc	ldc.c
 array	visemul.c
 asm	checksum_32.h
 asm	checksum_32.h
 asm	checksum_32.h
 asm	checksum_32.h
 asm	checksum_32.h
 asm	checksum_32.h
 asm	checksum_32.h
 asm	checksum_32.h
 asm	checksum_32.h
 asm	checksum_32.h
 asm	checksum_32.h
 asm	kprobes.c
 asm	leon_smp.c
 asm	leon_smp.c
 asm	leon_smp.c
 asm	leon_smp.c
 asm	leon_smp.c
 asm	leon_smp.c
 asm	processor_32.h
 asm	spinlock_32.h
 asm	spinlock_32.h
 asm	spinlock_32.h
 asm	spinlock_32.h
 asm	spinlock_32.h
 asm	sun4d_smp.c
 asm	sun4d_smp.c
 asm	sun4d_smp.c
 asm	sun4d_smp.c
 asm	sun4d_smp.c
 asm	sun4d_smp.c
 asm	thread_info_32.h
 asm	windows.c
 atomic_cmpxchg	atomic32.c
 atomic_set	atomic32.c
 audit_classes_init	audit.c
 audit_classify_arch	audit.c
 audit_classify_syscall	audit.c
 auxio_init	auxio_64.c
 auxio_power_probe	auxio_32.c
 auxio_power_probe	devices.c
 auxio_probe	auxio_32.c
 auxio_probe	auxio_64.c
 auxio_probe	devices.c
 auxio_set_led	auxio_64.c
 auxio_set_lte	auxio_64.c
 bad_kernel_pc	fault_64.c
 bad_trap	traps_64.c
 bad_trap_tl1	entry.h
 bad_trap_tl1	traps_64.c
 bit_map_clear	bitext.c
 bit_map_clear	bitext.h
 bit_map_init	bitext.c
 bit_map_init	bitext.h
 bit_map_string_get	bitext.c
 bit_map_string_get	bitext.h
 bmask	visemul.c
 bogus_32bit_fault_tpc	fault_64.c
 boot_cpu_id_too_large	entry.h
 boot_cpu_id_too_large	setup_64.c
 boot_flags_init	setup_32.c
 boot_flags_init	setup_64.c
 bootmem_init	srmmu.c
 bpf_flush_icache	bpf_jit_comp.c
 bpf_jit_compile	bpf_jit_comp.c
 bpf_jit_free	bpf_jit_comp.c
 bq4802_probe	time_64.c
 bshuffle	visemul.c
 btext_clearscreen	btext.c
 btext_drawchar	btext.c
 btext_drawtext	btext.c
 btext_find_display	btext.c
 btext_find_display	btext.h
 btext_initialize	btext.c
 bucket_clear_chain_pa	irq_64.c
 bucket_get_chain_pa	irq_64.c
 bucket_get_irq	irq_64.c
 bucket_set_irq	irq_64.c
 build_irq	irq_32.c
 build_irq	irq_64.c
 build_irq	prom_irqtrans.c
 build_irq	prom_irqtrans.c
 build_irq	prom_irqtrans.c
 build_irq	prom_irqtrans.c
 build_irq	prom_irqtrans.c
 build_irq	prom_irqtrans.c
 build_irq	sbus.c
 build_path_component	prom_32.c
 build_path_component	prom_64.c
 bzero	auxio_32.c
 c_start	cpu.c
 c_stop	cpu.c
 c_sys_nis_syscall	sys_sparc_64.c
 c_sys_nis_syscall	systbls.h
 calc_idprom_cksum	idprom.c
 calculate_multiple_pcrs	perf_event.c
 calculate_single_pcr	perf_event.c
 camellia_decrypt	camellia_glue.c
 camellia_encrypt	camellia_glue.c
 camellia_sparc64_load_keys	camellia_glue.c
 camellia_sparc64_mod_fini	camellia_glue.c
 camellia_sparc64_mod_init	camellia_glue.c
 central_irq_trans_init	prom_irqtrans.c
 change_bit	bitops_32.h
 check_excludes	perf_event.c
 check_if_starfire	starfire.c
 check_mmu_stats	sysfs.c
 check_nmi_watchdog	nmi.c
 check_one_pgsz	mdesc.c
 check_pending	sys_sparc_64.c
 check_pgt_cache	pgalloc.h
 check_stack_aligned	fault_32.c
 cheetah_cee_handler	traps_64.c
 cheetah_check_main_memory	traps_64.c
 cheetah_deferred_handler	traps_64.c
 cheetah_ecache_flush_init	traps_64.c
 cheetah_enable_pcache	traps_64.c
 cheetah_fecc_handler	traps_64.c
 cheetah_fix_ce	traps_64.c
 cheetah_flush_dcache	traps_64.c
 cheetah_flush_ecache	traps_64.c
 cheetah_flush_ecache_line	traps_64.c
 cheetah_flush_icache	traps_64.c
 cheetah_get_hipri	traps_64.c
 cheetah_plus_parity_error	entry.h
 cheetah_plus_parity_error	traps_64.c
 cheetah_plus_zap_dcache_parity	traps_64.c
 cheetah_recheck_errors	traps_64.c
 cheetah_xcall_deliver	smp_64.c
 chmc_bank_match	chmc.c
 chmc_destroy	chmc.c
 chmc_fetch_decode_regs	chmc.c
 chmc_interpret_one_decode_reg	chmc.c
 chmc_probe	chmc.c
 chmc_probe	chmc.c
 chmc_read_mcreg	chmc.c
 chmc_write_mcreg	chmc.c
 claim_dma_lock	floppy_32.h
 clear_bit	bitops_32.h
 clear_page	page.h
 clear_page	page_32.h
 clear_user	uaccess.h
 clear_user	uaccess.h
 clear_user_page	page.h
 clear_user_page	page_32.h
 clk_init	tadpole.c
 clk_slow	tadpole.c
 clock_board_calc_nslots	central.c
 clock_board_probe	central.c
 clock_init	time_32.c
 clock_init	time_64.c
 clock_probe	time_32.c
 clock_stop_probe	devices.c
 clock_stop_probe	tadpole.c
 clocksource_register	time_32.c
 clocksource_tick_read	time_64.c
 clone	process_32.c
 clone_stackframe	process_64.c
 cmpxchg	cmpxchg.h
 cmpxchg	cmpxchg.h
 cmpxchg	cmpxchg_64.h
 cmpxchg	cmpxchg_64.h
 cmpxchg64_local	cmpxchg_64.h
 cmpxchg_local	cmpxchg_64.h
 cnt	smp_64.c
 compat_sync_file_range	sys_sparc32.c
 compat_sys_ipc	sys_sparc32.c
 compat_sys_msgctl	sys_sparc32.c
 compat_sys_msgrcv	sys_sparc32.c
 compat_sys_msgsnd	sys_sparc32.c
 compat_sys_rt_sigqueueinfo	signal32.c
 compat_sys_semctl	sys_sparc32.c
 compat_sys_semtimedop	sys_sparc32.c
 compat_sys_shmat	sys_sparc32.c
 compat_sys_shmctl	sys_sparc32.c
 compat_sys_sysfs	sys_sparc32.c
 compute_si_addr	fault_32.c
 compute_size	user_fixup.c
 compute_size	user_fixup.c
 cookie_to_index	ldc.c
 copy_aligned_window	windows.c
 copy_from_user	uaccess.h
 copy_from_user	uaccess.h
 copy_from_user_fixup	user_fixup.c
 copy_from_user_overflow	usercopy.c
 copy_from_user_page	cacheflush.h
 copy_from_user_page	cacheflush.h
 copy_in_user_fixup	user_fixup.c
 copy_page	page.h
 copy_page	page_32.h
 copy_siginfo_from_user32	signal32.c
 copy_siginfo_to_user32	signal32.c
 copy_thread	process_32.c
 copy_thread	process_64.c
 copy_to_user_fixup	user_fixup.c
 copy_to_user_page	cacheflush.h
 copy_to_user_page	cacheflush.h
 copy_tsb	tsb.c
 copy_user_page	page.h
 copy_user_page	page_32.h
 cp_compat_stat64	sys_sparc32.c
 cpu_cache_init	cache.c
 cpu_cache_init	setup.h
 cpu_cache_init	setup.h
 cpu_data	nmi.c
 cpu_data	time_64.c
 cpu_find_by_instance	devices.c
 cpu_find_by_instance	oplib_32.h
 cpu_find_by_mid	devices.c
 cpu_find_by_mid	oplib_32.h
 cpu_get_hwmid	devices.c
 cpu_get_hwmid	oplib_32.h
 cpu_idle	leon_pmc.c
 cpu_idle	process_32.c
 cpu_idle	process_64.c
 cpu_instance_compare	devices.c
 cpu_logical_map	smp_32.h
 cpu_map_init	cpumap.h
 cpu_map_init	cpumap.h
 cpu_map_rebuild	cpumap.c
 cpu_map_rebuild	cpumap.h
 cpu_mid_compare	devices.c
 cpu_panic	smp_32.c
 cpu_panic	smp_32.h
 cpu_panic	smp_64.c
 cpu_play_dead	smp_64.c
 cpu_probe	kernel.h
 cpu_relax	processor.h
 cpu_relax	processor_32.h
 cpu_state	smp_64.c
 cpu_to_node	topology_64.h
 cpu_type_probe	cpu.c
 cpu_type_probe	cpu.c
 cpucap_info	kernel.h
 cpucap_info	setup_64.c
 cpufreq_frequency_table_cpuinfo	us2e_cpufreq.c
 cpufreq_frequency_table_cpuinfo	us3_cpufreq.c
 cpuinfo_id	cpumap.c
 cpumask_first	cpumap.c
 cpumask_first	leon_kernel.c
 cpumask_of_node	topology_64.h
 cpumask_of_pcibus	topology_64.h
 crc32c_compute	crc32c_glue.c
 crc32c_sparc64	crc32c_glue.c
 crc32c_sparc64_cra_init	crc32c_glue.c
 crc32c_sparc64_final	crc32c_glue.c
 crc32c_sparc64_init	crc32c_glue.c
 crc32c_sparc64_mod_fini	crc32c_glue.c
 crc32c_sparc64_mod_init	crc32c_glue.c
 crypto_register_algs	aes_glue.c
 crypto_register_algs	camellia_glue.c
 crypto_register_algs	des_glue.c
 crypto_register_shash	crc32c_glue.c
 crypto_register_shash	md5_glue.c
 crypto_register_shash	sha1_glue.c
 csum_fold	checksum.h
 csum_fold	checksum.h
 csum_fold	checksum.h
 csum_fold	checksum.h
 csum_fold	checksum.h
 csum_fold	checksum_32.h
 csum_fold	checksum_32.h
 csum_fold	checksum_32.h
 csum_fold	checksum_32.h
 csum_fold	checksum_64.h
 csum_fold	checksum_64.h
 csum_fold	checksum_64.h
 csum_fold	checksum_64.h
 csum_partial	checksum.h
 csum_partial	checksum_32.h
 csum_partial	checksum_64.h
 ctxd_val	page_32.h
 ctxd_val	page_32.h
 current_text_addr	processor.h
 current_text_addr	processor_32.h
 current_thread_info	irq_regs.h
 current_thread_info	thread_info.h
 current_thread_info	thread_info_32.h
 data_ack_nack	ldc.c
 debug_exception_vector	setup.h
 debug_exception_vector	setup.h
 decode_access_size	unaligned_32.c
 decode_access_size	unaligned_64.c
 decode_asi	unaligned_64.c
 decode_direction	unaligned_32.c
 decode_direction	unaligned_64.c
 decode_signedness	unaligned_32.c
 decode_signedness	unaligned_64.c
 deferred_pcr_work_irq	pcr.c
 deferred_pcr_work_irq	pcr.h
 defined	fault_64.c
 defined	fault_64.c
 defined	floppy.h
 defined	irq_32.c
 defined	mmu_64.h
 defined	setup_64.c
 defined	sfp-machine.h
 defined	smp_64.c
 defined	smp_64.c
 defined	smp_64.c
 defined	tsb.c
 defined	tsb.c
 defined	tsb.c
 defined	tsb.c
 defined	tsb.c
 defined	tsb.c
 defined	tsb.c
 defined	upa.h
 defined	xor.h
 des3_ede_decrypt	des_glue.c
 des3_ede_encrypt	des_glue.c
 des3_ede_sparc64_load_keys	des_glue.c
 des_decrypt	des_glue.c
 des_ekey	des_glue.c
 des_encrypt	des_glue.c
 des_sparc64_key_expand	des_glue.c
 des_sparc64_load_keys	des_glue.c
 des_sparc64_mod_fini	des_glue.c
 des_sparc64_mod_init	des_glue.c
 destroy_context	mmu_context.h
 destroy_context	mmu_context.h
 destroy_context	srmmu.c
 destroy_context	tsb.c
 device_initcall	auxio_64.c
 device_initcall	time_32.c
 device_initcall	time_64.c
 device_scan	devices.c
 die	bug.h
 die_if_kernel	bug.h
 die_if_kernel	traps_32.c
 die_if_kernel	traps_64.c
 die_nmi	nmi.c
 direct_pcr_read	pcr.c
 direct_pcr_write	pcr.c
 direct_pic_read	pcr.c
 direct_pic_write	pcr.c
 direct_picl_value	pcr.c
 display_system_type	idprom.c
 display_system_type	idprom.c
 dma_init	dma.c
 dma_make_coherent	ioport.c
 dma_supported	iommu.c
 dma_supported	iommu.c
 dma_supported	ioport.c
 do_BUG	traps_32.c
 do_BUG	traps_64.c
 do_cee	entry.h
 do_cee	traps_64.c
 do_cee_tl1	entry.h
 do_cee_tl1	traps_64.c
 do_dae_tl1	entry.h
 do_dae_tl1	traps_64.c
 do_div0	entry.h
 do_div0	traps_64.c
 do_div0_tl1	entry.h
 do_div0_tl1	traps_64.c
 do_flush_tlb_mm	tlb_64.h
 do_flush_tlb_mm	tlb_64.h
 do_fpdis_tl1	entry.h
 do_fpdis_tl1	traps_64.c
 do_fpe_common	entry.h
 do_fpe_common	traps_64.c
 do_fpieee	entry.h
 do_fpieee	traps_64.c
 do_fpieee_tl1	entry.h
 do_fpieee_tl1	traps_64.c
 do_fpother	entry.h
 do_fpother	traps_64.c
 do_fpother	unaligned_64.c
 do_fpother_tl1	entry.h
 do_fpother_tl1	traps_64.c
 do_getpsr	entry.h
 do_getpsr	traps_64.c
 do_hw_interrupt	entry.h
 do_hw_interrupt	kgdb_32.c
 do_hw_interrupt	traps_32.c
 do_iae_tl1	entry.h
 do_iae_tl1	traps_64.c
 do_ill_tl1	entry.h
 do_ill_tl1	traps_64.c
 do_illegal_instruction	entry.h
 do_illegal_instruction	traps_64.c
 do_irq_tl1	entry.h
 do_irq_tl1	traps_64.c
 do_large_mapping	srmmu.c
 do_lddfmna_tl1	entry.h
 do_lddfmna_tl1	traps_64.c
 do_mathemu	math_32.c
 do_mathemu	math_32.c
 do_mathemu	math_32.c
 do_mathemu	math_64.c
 do_mathemu	traps_32.c
 do_mathemu	traps_64.c
 do_notify_resume	signal_64.c
 do_one_mathemu	math_32.c
 do_one_mathemu	math_32.c
 do_page_fault	kprobes.c
 do_paw	entry.h
 do_paw	traps_64.c
 do_paw_tl1	entry.h
 do_paw_tl1	traps_64.c
 do_privact	entry.h
 do_privact	traps_64.c
 do_privact	unaligned_64.c
 do_privop	entry.h
 do_privop	traps_64.c
 do_rt_sigreturn	signal_32.c
 do_rt_sigreturn	signal_64.c
 do_rt_sigreturn	systbls.h
 do_rt_sigreturn32	signal32.c
 do_set_sstate	sstate.c
 do_signal	signal_32.c
 do_signal	signal_64.c
 do_signal	thread_info.h
 do_signal	thread_info_32.h
 do_signal32	signal32.c
 do_signal32	signal_64.c
 do_sigreturn	signal_32.c
 do_sigreturn	windows.c
 do_sigreturn32	signal32.c
 do_softirq	irq_64.c
 do_sparc64_fault	fault_64.c
 do_sparc64_fault	tsb.c
 do_stdfmna_tl1	entry.h
 do_stdfmna_tl1	traps_64.c
 do_sys32_sigaltstack	signal32.c
 do_sys32_sigstack	signal32.c
 do_sys_open	sys_sparc32.c
 do_syscall_trace	ptrace.h
 do_syscall_trace	ptrace.h
 do_tof	entry.h
 do_tof	traps_64.c
 do_tof_tl1	entry.h
 do_tof_tl1	traps_64.c
 do_vaw	entry.h
 do_vaw	traps_64.c
 do_vaw_tl1	entry.h
 do_vaw_tl1	traps_64.c
 dr_cpu_size_response	ds.c
 draw_byte	btext.c
 draw_byte	btext.c
 draw_byte_16	btext.c
 draw_byte_16	btext.c
 draw_byte_32	btext.c
 draw_byte_32	btext.c
 draw_byte_8	btext.c
 draw_byte_8	btext.c
 driver	fixmap.h
 driver_register	vio.c
 ds_conn_reset	ds.c
 ds_data	ds.c
 ds_event	ds.c
 ds_handshake	ds.c
 ds_init	ds.c
 ds_probe	ds.c
 ds_remove	ds.c
 ds_reset	ds.c
 ds_send	ds.c
 ds_thread	ds.c
 ds_up	ds.c
 dump_stack	process_32.c
 dump_stack	traps_64.c
 dump_tl1_traplog	traps_64.c
 early_pgtable_allocfail	srmmu.c
 ebus_dma_addr	ebus.c
 ebus_dma_enable	ebus.c
 ebus_dma_irq	ebus.c
 ebus_dma_irq_enable	ebus.c
 ebus_dma_prepare	ebus.c
 ebus_dma_register	ebus.c
 ebus_dma_request	ebus.c
 ebus_dma_residue	ebus.c
 ebus_dma_unregister	ebus.c
 ebus_path_component	prom_32.c
 ebus_path_component	prom_32.c
 ebus_path_component	prom_64.c
 edge	visemul.c
 elf_check_arch	elf.h
 emit_add	bpf_jit_comp.c
 emit_addi	bpf_jit_comp.c
 emit_alloc_stack	bpf_jit_comp.c
 emit_alu_K	bpf_jit_comp.c
 emit_alu_X	bpf_jit_comp.c
 emit_and	bpf_jit_comp.c
 emit_andi	bpf_jit_comp.c
 emit_branch	bpf_jit_comp.c
 emit_branch	bpf_jit_comp.c
 emit_branch_off	bpf_jit_comp.c
 emit_btst	bpf_jit_comp.c
 emit_btsti	bpf_jit_comp.c
 emit_call	bpf_jit_comp.c
 emit_clear	bpf_jit_comp.c
 emit_cmp	bpf_jit_comp.c
 emit_cmpi	bpf_jit_comp.c
 emit_jmpl	bpf_jit_comp.c
 emit_jump	bpf_jit_comp.c
 emit_ldmem	bpf_jit_comp.c
 emit_load16	bpf_jit_comp.c
 emit_load32	bpf_jit_comp.c
 emit_load8	bpf_jit_comp.c
 emit_load_cpu	bpf_jit_comp.c
 emit_load_cpu	bpf_jit_comp.c
 emit_load_cpu	bpf_jit_comp.c
 emit_loadimm	bpf_jit_comp.c
 emit_loadptr	bpf_jit_comp.c
 emit_neg	bpf_jit_comp.c
 emit_nop	bpf_jit_comp.c
 emit_read_y	bpf_jit_comp.c
 emit_reg_move	bpf_jit_comp.c
 emit_release_stack	bpf_jit_comp.c
 emit_set_const	bpf_jit_comp.c
 emit_skb_load16	bpf_jit_comp.c
 emit_skb_load32	bpf_jit_comp.c
 emit_skb_load8	bpf_jit_comp.c
 emit_skb_loadptr	bpf_jit_comp.c
 emit_stmem	bpf_jit_comp.c
 emit_sub	bpf_jit_comp.c
 emit_subi	bpf_jit_comp.c
 emit_write_y	bpf_jit_comp.c
 encrypt_to_decrypt	des_glue.c
 enumerate_cpuinfo_nodes	cpumap.c
 estar_to_divisor	us2e_cpufreq.c
 event_encoding	perf_event.c
 event_encoding	perf_event.c
 exit_thread	process_32.c
 exit_thread	process_64.c
 fault_in_user_windows	process_64.c
 fd	bootstr_32.c
 fd_cacheflush	floppy_32.h
 fd_clear_dma_ff	floppy_32.h
 fd_disable_dma	floppy_32.h
 fd_disable_irq	floppy_32.h
 fd_dma_mem_alloc	floppy_32.h
 fd_dma_mem_free	floppy_32.h
 fd_eject	floppy_32.h
 fd_enable_dma	floppy_32.h
 fd_enable_irq	floppy_32.h
 fd_free_dma	floppy_32.h
 fd_free_irq	floppy_32.h
 fd_inb	floppy_32.h
 fd_outb	floppy_32.h
 fd_request_dma	floppy_32.h
 fd_request_irq	floppy_32.h
 fd_set_dma_addr	floppy_32.h
 fd_set_dma_count	floppy_32.h
 fd_set_dma_mode	floppy_32.h
 fetch_reg	unaligned_32.c
 fetch_reg	unaligned_64.c
 fetch_reg	visemul.c
 fetch_sg_ctx	iommu.c
 fetch_sg_ctx	iommu.c
 fhc_probe	central.c
 fill_in_one_cpu	mdesc.c
 finish_arch_switch	switch_to.h
 fire_iclr_offset	prom_irqtrans.c
 fire_imap_offset	prom_irqtrans.c
 fire_init	pci_fire.c
 fire_irq_trans_init	prom_irqtrans.c
 fire_probe	pci_fire.c
 fix_to_virt	fixmap.h
 fixmap_set	fixmap.h
 fixup_exception	uaccess.h
 fixup_exception	uaccess.h
 fixup_irqs	irq_64.c
 flip_dword	io_32.h
 flip_word	io_32.h
 floating_point_load_or_store_p	unaligned_32.c
 floating_point_load_or_store_p	unaligned_64.c
 floppy_hardint	kernel.h
 flush_cache_all	cache.c
 flush_cache_all	cacheflush.h
 flush_cache_all	cacheflush.h
 flush_cache_dup_mm	cacheflush.h
 flush_cache_dup_mm	cacheflush.h
 flush_cache_mm	cache.c
 flush_cache_mm	cacheflush.h
 flush_cache_mm	cacheflush.h
 flush_cache_sigtramp	cache.c
 flush_cache_sigtramp	cacheflush.h
 flush_cache_sigtramp	cacheflush.h
 flush_cache_vmap	cacheflush.h
 flush_cache_vmap	cacheflush.h
 flush_cache_vunmap	cacheflush.h
 flush_cache_vunmap	cacheflush.h
 flush_data_cache_page	cache.c
 flush_dcache_all	cache.c
 flush_dcache_mmap_lock	cacheflush.h
 flush_dcache_mmap_lock	cacheflush.h
 flush_dcache_mmap_unlock	cacheflush.h
 flush_dcache_mmap_unlock	cacheflush.h
 flush_dcache_page	cache.c
 flush_dcache_page	cacheflush.h
 flush_dcache_page	cacheflush.h
 flush_dcache_page	ptrace_64.c
 flush_dcache_page_all	smp_64.c
 flush_dcache_range	cache.c
 flush_dcache_range	cacheflush.h
 flush_dcache_range	cacheflush.h
 flush_icache_all	cache.c
 flush_icache_all	cacheflush.h
 flush_icache_all	cacheflush.h
 flush_icache_range	cache.c
 flush_icache_range	cacheflush.h
 flush_icache_range	cacheflush.h
 flush_rx_dring	viohs.c
 flush_signal_insns	signal32.c
 flush_thread	process_32.c
 flush_thread	process_64.c
 flush_tlb_all	tlbflush.h
 flush_tlb_kernel_range	tlbflush.h
 flush_tlb_mm	tlbflush.h
 flush_tlb_one	tlbflush.h
 flush_tlb_page	tlbflush.h
 flush_tlb_pending	tlb.c
 flush_tlb_pending	tlb_64.h
 flush_tlb_range	tlbflush.h
 flush_tsb_kernel_range	tsb.c
 flush_tsb_user	tsb.c
 flush_tsb_user	tsb.c
 flush_user_windows	windows.c
 foo	asm-offsets.c
 force_user_fault	fault_32.c
 fork	process_32.c
 fork	process_64.c
 fork	tsb.c
 fpload	entry.h
 fpload	math_32.c
 fpload	signal_32.c
 fpsave	process_32.c
 free_context	srmmu.c
 free_init_pages	init.c
 free_init_pages	init.c
 free_initmem	init.c
 free_initmem	init.c
 free_initrd_mem	init.c
 free_initrd_mem	init.c
 free_msi	pci_msi.c
 free_pages	ioport.c
 free_queue	ldc.c
 ftrace_call_replace	ftrace.c
 ftrace_disable_ftrace_graph_caller	ftrace.c
 ftrace_dyn_arch_init	ftrace.c
 ftrace_enable_ftrace_graph_caller	ftrace.c
 ftrace_graph_call	ftrace.c
 ftrace_make_call	ftrace.c
 ftrace_make_nop	ftrace.c
 ftrace_modify_code	ftrace.c
 ftrace_modify_code	ftrace.c
 ftrace_modify_code	ftrace.c
 ftrace_modify_code	ftrace.c
 ftrace_modify_code	ftrace.c
 ftrace_modify_code	ftrace.c
 ftrace_update_ftrace_func	ftrace.c
 gdb_regs_to_pt_regs	kgdb_32.c
 gdb_regs_to_pt_regs	kgdb_64.c
 general_exception_vector	setup.h
 general_exception_vector	setup.h
 get_area	sys_sparc_64.c
 get_auxio	auxio_32.c
 get_cells	of_device_common.c
 get_current_freq	us3_cpufreq.c
 get_dma_residue	floppy_32.h
 get_ds	segment.h
 get_ds	uaccess.h
 get_ds	uaccess.h
 get_fault_insn	fault_64.c
 get_fb_unmapped_area	sys_sparc_64.c
 get_fs	segment.h
 get_fs	uaccess.h
 get_fs	uaccess.h
 get_fsr	psr.h
 get_irqmask	pcic.c
 get_nmi_count	nmi.c
 get_psr	psr.h
 get_ross_icr	ross.h
 get_sbi_ctl	sbi.h
 get_srmmu_type	srmmu.c
 get_user	uaccess.h
 get_user	uaccess.h
 get_user_insn	fault_64.c
 get_wchan	process_32.c
 get_wchan	process_64.c
 get_wchan	processor.h
 get_wchan	processor_32.h
 grpci2_build_device_irq	leon_pci_grpci2.c
 grpci2_cfg_w16	leon_pci_grpci2.c
 grpci2_cfg_w32	leon_pci_grpci2.c
 grpci2_cfg_w32	leon_pci_grpci2.c
 grpci2_cfg_w32	leon_pci_grpci2.c
 grpci2_cfg_w8	leon_pci_grpci2.c
 grpci2_err_interrupt	leon_pci_grpci2.c
 grpci2_hw_init	leon_pci_grpci2.c
 grpci2_init	leon_pci_grpci2.c
 grpci2_jump_interrupt	leon_pci_grpci2.c
 grpci2_map_irq	leon_pci_grpci2.c
 grpci2_mask_irq	leon_pci_grpci2.c
 grpci2_of_probe	leon_pci_grpci2.c
 grpci2_pci_flow_irq	leon_pci_grpci2.c
 grpci2_shutdown_irq	leon_pci_grpci2.c
 grpci2_startup_irq	leon_pci_grpci2.c
 grpci2_unmask_irq	leon_pci_grpci2.c
 handle_adedata	setup.h
 handle_adedata	setup.h
 handle_adelinsn	setup.h
 handle_adelinsn	setup.h
 handle_ades	setup.h
 handle_ades	setup.h
 handle_ccu	setup.h
 handle_ccu	setup.h
 handle_cee	setup.h
 handle_cee	setup.h
 handle_cpe	setup.h
 handle_cpe	setup.h
 handle_dbe	setup.h
 handle_dbe	setup.h
 handle_dve	setup.h
 handle_dve	setup.h
 handle_ibe	setup.h
 handle_ibe	setup.h
 handle_ld_nf	fault_64.c
 handle_ld_nf	unaligned_64.c
 handle_lddfmna	unaligned_64.c
 handle_ldf_stq	fault_64.c
 handle_ldf_stq	traps_64.c
 handle_ldf_stq	unaligned_64.c
 handle_mod	setup.h
 handle_mod	setup.h
 handle_nextprop_quirks	prom_common.c
 handle_nextprop_quirks	prom_common.c
 handle_nmi	setup.h
 handle_nmi	setup.h
 handle_pel	setup.h
 handle_pel	setup.h
 handle_popc	traps_64.c
 handle_popc	unaligned_64.c
 handle_reserved	setup.h
 handle_reserved	setup.h
 handle_ri	setup.h
 handle_ri	setup.h
 handle_stdfmna	unaligned_64.c
 handle_sys	setup.h
 handle_sys	setup.h
 handle_tlb_invaild	setup.h
 handle_tlb_invaild	setup.h
 handle_tlb_refill	setup.h
 handle_tlb_refill	setup.h
 handle_tr	setup.h
 handle_tr	setup.h
 handler	entry.h
 handler_irq	entry.h
 handler_irq	irq_32.c
 handler_irq	irq_64.c
 handshake_failure	viohs.c
 handshake_failure	viohs.c
 handshake_failure	viohs.c
 handshake_failure	viohs.c
 handshake_failure	viohs.c
 handshake_failure	viohs.c
 handshake_failure	viohs.c
 handshake_failure	viohs.c
 handshake_failure	viohs.c
 handshake_failure	viohs.c
 handshake_failure	viohs.c
 handshake_failure	viohs.c
 handshake_failure	viohs.c
 handshake_failure	viohs.c
 handshake_failure	viohs.c
 handshake_failure	viohs.c
 handshake_failure	viohs.c
 handshake_failure	viohs.c
 handshake_failure	viohs.c
 handshake_failure	viohs.c
 handshake_failure	viohs.c
 handshake_get_tx_packet	ldc.c
 hard_smp_processor_id	smp_32.h
 hard_smp_processor_id	smp_32.h
 hard_smp_processor_id	traps_64.c
 has_button_interrupt	power.c
 hbtick_add_compare	time_64.c
 hbtick_add_tick	time_64.c
 hbtick_disable_irq	time_64.c
 hbtick_get_tick	time_64.c
 hbtick_init_tick	time_64.c
 head_for_data	ldc.c
 huge_pmd_unshare	hugetlbpage.c
 hw_perf_disable	perf_event.c
 hw_perf_event_destroy	perf_event.c
 hyper_clear_all_tags	ross.h
 hyper_flush_cache_page	ross.h
 hyper_flush_cache_user	ross.h
 hyper_flush_unconditional_combined	ross.h
 hyper_flush_whole_icache	ross.h
 hypersparc_flush_cache_all	srmmu.c
 hypersparc_flush_cache_mm	srmmu.c
 hypersparc_flush_cache_page	srmmu.c
 hypersparc_flush_cache_range	srmmu.c
 hypersparc_flush_page_for_dma	srmmu.c
 hypersparc_flush_page_to_ram	srmmu.c
 hypersparc_flush_sig_insns	srmmu.c
 hypersparc_flush_tlb_all	srmmu.c
 hypersparc_flush_tlb_mm	srmmu.c
 hypersparc_flush_tlb_page	srmmu.c
 hypersparc_flush_tlb_range	srmmu.c
 hypersparc_setup_blockops	srmmu.c
 hypervisor_tlbop_error	traps_64.c
 hypervisor_tlbop_error_xcall	traps_64.c
 hypervisor_xcall_deliver	smp_64.c
 i2c_path_component	prom_64.c
 idprom_init	idprom.c
 ieee1394_path_component	prom_64.c
 if	math_64.c
 if	math_64.c
 if	math_64.c
 if	math_64.c
 if	unaligned_32.c
 if	unaligned_32.c
 inb	io_32.h
 inb	io_64.h
 inb_local	io_32.h
 inb_p	io_32.h
 inb_p	io_64.h
 index_to_divisor	us2e_cpufreq.c
 index_to_estar_mode	us2e_cpufreq.c
 init_IRQ	irq_32.c
 init_IRQ	irq_32.h
 init_IRQ	irq_64.c
 init_IRQ	kernel.h
 init_cpu_send_mondo_info	irq_64.c
 init_cur_cpu_trap	traps_64.c
 init_hw_perf_events	perf_event.c
 init_hypersparc	srmmu.c
 init_irqwork_curcpu	entry.h
 init_irqwork_curcpu	irq_64.c
 init_leon	leon_mm.c
 init_new_context	srmmu.c
 init_new_context	tsb.c
 init_new_context	tsb.c
 init_send_mondo_info	irq_64.c
 init_sparc64_elf_hwcap	setup_64.c
 init_swift	srmmu.c
 init_tag	viohs.c
 init_tsunami	srmmu.c
 init_turbosparc	srmmu.c
 init_vac_layout	srmmu.c
 init_viking	srmmu.c
 inl	io_32.h
 inl	io_64.h
 inl_p	io_32.h
 inl_p	io_64.h
 insb	PeeCeeI.c
 insb	io_32.h
 insb	io_64.h
 insb	leon_pci.c
 insb	pcic.c
 insl	PeeCeeI.c
 insl	io_32.h
 insl	io_64.h
 insl	leon_pci.c
 insl	pcic.c
 instruction	bpf_jit_comp.c
 instruction_dump	traps_32.c
 instruction_dump	traps_64.c
 instruction_pointer	ptrace.h
 instruction_pointer	ptrace.h
 insw	PeeCeeI.c
 insw	io_32.h
 insw	io_64.h
 insw	leon_pci.c
 insw	pcic.c
 interrupt_exception_vector	irq.h
 interrupt_exception_vector	irq.h
 interrupt_exception_vector	setup.h
 interrupt_exception_vector	setup.h
 invalid_64bit_range	sys_sparc_64.c
 invalid_frame_pointer	signal32.c
 invalid_frame_pointer	signal_32.c
 invalid_frame_pointer	signal_64.c
 inw	io_32.h
 inw	io_64.h
 inw_p	io_32.h
 inw_p	io_64.h
 io_remap_pfn_range	pgtable.h
 io_remap_pfn_range	pgtable.h
 iommu_alloc_ctx	iommu.c
 iommu_alloc_ctx	iommu.c
 iommu_batch_add	pci_sun4v.c
 iommu_batch_end	pci_sun4v.c
 iommu_batch_flush	pci_sun4v.c
 iommu_batch_flush	pci_sun4v.c
 iommu_batch_flush	pci_sun4v.c
 iommu_batch_new_entry	pci_sun4v.c
 iommu_batch_start	pci_sun4v.c
 iommu_flushall	iommu.c
 iommu_flushall	iommu.c
 iommu_free_ctx	iommu.c
 iommu_free_ctx	iommu.c
 iommu_is_span_boundary	iommu_common.h
 iommu_range_free	iommu.c
 iommu_range_free	iommu.c
 iommu_read	iommu.c
 iommu_read	iommu.c
 iommu_write	iommu.c
 iommu_write	iommu.c
 iopgprot_val	page_32.h
 iopgprot_val	page_32.h
 ioport_unmap	io_32.h
 ioport_unmap	io_64.h
 ioport_unmap	iomap.c
 iopte_make_dummy	iommu.c
 iopte_make_dummy	iommu.c
 iopte_val	page_32.h
 iopte_val	page_32.h
 ioread16	io_32.h
 ioread16	io_64.h
 ioread16_rep	io_32.h
 ioread16_rep	io_64.h
 ioread16be	io_32.h
 ioread16be	io_64.h
 ioread32	io_32.h
 ioread32	io_64.h
 ioread32_rep	io_32.h
 ioread32_rep	io_64.h
 ioread32be	io_32.h
 ioread32be	io_64.h
 ioread8	io_32.h
 ioread8	io_64.h
 ioread8_rep	io_32.h
 ioread8_rep	io_64.h
 ioremap	io_32.h
 ioremap	ioport.c
 ioremap	pcic.c
 ioremap_nocache	io_32.h
 ioremap_nocache	io_64.h
 ioremap_wc	io_32.h
 ioremap_wc	io_64.h
 iounit_get_area	io-unit.c
 iounit_get_scsi_one	io-unit.c
 iounit_get_scsi_sgl	io-unit.c
 iounit_init	io-unit.c
 iounit_iommu_init	io-unit.c
 iounit_map_dma_area	io-unit.c
 iounit_release_scsi_one	io-unit.c
 iounit_release_scsi_sgl	io-unit.c
 iounit_unmap_dma_area	io-unit.c
 iounmap	io_32.h
 iounmap	io_64.h
 iounmap	ioport.c
 iowrite16	io_32.h
 iowrite16	io_64.h
 iowrite16_rep	io_32.h
 iowrite16_rep	io_64.h
 iowrite16be	io_32.h
 iowrite16be	io_64.h
 iowrite32	io_32.h
 iowrite32	io_64.h
 iowrite32_rep	io_32.h
 iowrite32_rep	io_64.h
 iowrite32be	io_32.h
 iowrite32be	io_64.h
 iowrite8	io_32.h
 iowrite8	io_64.h
 iowrite8_rep	io_32.h
 iowrite8_rep	io_64.h
 ip_compute_csum	checksum.h
 ip_compute_csum	checksum.h
 ip_compute_csum	checksum_32.h
 ip_compute_csum	checksum_64.h
 ip_fast_csum	checksum.h
 ip_fast_csum	checksum_32.h
 ip_fast_csum	checksum_64.h
 irq_alloc	irq_32.c
 irq_alloc	irq_64.c
 irq_canonicalize	irq.h
 irq_canonicalize	irq.h
 irq_canonicalize	irq_32.h
 irq_chip_set_defaults	irq_64.c
 irq_choose_cpu	irq_64.c
 irq_choose_cpu	irq_64.c
 irq_choose_cpu	leon_kernel.c
 irq_choose_cpu	leon_kernel.c
 irq_free	irq_64.c
 irq_link	irq_32.c
 irq_link	irq_32.c
 irq_of_parse_and_map	of_device_common.c
 irq_trans_init	prom_32.c
 irq_trans_init	prom_irqtrans.c
 irq_unlink	irq_32.c
 irq_work_pa	irq_64.c
 is_compat_task	compat.h
 is_simm13	bpf_jit_comp.c
 iterate_cpu	cpumap.c
 jbusmc_destroy	chmc.c
 jbusmc_probe	chmc.c
 jbusmc_probe	chmc.c
 jit_free_defer	bpf_jit_comp.c
 jprobe_return	kprobes.c
 jprobe_return_trap_instruction	kprobes.c
 kern_addr_valid	pgtable.h
 kern_addr_valid	pgtable.h
 kern_addr_valid	traps_64.c
 kernel_mna_trap_fault	unaligned_32.c
 kernel_mna_trap_fault	unaligned_64.c
 kernel_unaligned_trap	traps_64.c
 kernel_unaligned_trap	unaligned_32.c
 kernel_unaligned_trap	unaligned_64.c
 kgdb_arch_exit	kgdb_32.c
 kgdb_arch_exit	kgdb_64.c
 kgdb_arch_init	kgdb_32.c
 kgdb_arch_init	kgdb_64.c
 kgdb_arch_set_pc	kgdb_32.c
 kgdb_arch_set_pc	kgdb_64.c
 kgdb_roundup_cpus	smp_64.c
 kgdb_trap	kgdb_32.c
 kgdb_trap	kgdb_64.c
 kill_prom_timer	irq_64.c
 kimage_addr_to_ra	kernel.h
 kimage_addr_to_ra	smp_64.c
 kmalloc	pcic.c
 kmap_atomic	highmem.c
 kmap_atomic	highmem.c
 kmap_init	highmem.c
 kprobe_fault_handler	kprobes.c
 kprobe_handler	kprobes.c
 kprobe_handler	kprobes.c
 kretprobe_trampoline_holder	kprobes.c
 kstack_is_trap_frame	kstack.h
 kstack_valid	kstack.h
 kstk_tos	processor.h
 ld_mmu_iommu	srmmu.c
 ld_mmu_iounit	io-unit.c
 ld_mmu_iounit	srmmu.c
 ldc_abort	ldc.c
 ldc_abort	ldc.c
 ldc_abort	ldc.c
 ldc_abort	ldc.c
 ldc_abort	ldc.c
 ldc_abort	ldc.c
 ldc_abort	ldc.c
 ldc_abort	ldc.c
 ldc_abort	ldc.c
 ldc_abort	ldc.c
 ldc_abort	ldc.c
 ldc_abort	ldc.c
 ldc_abort	ldc.c
 ldc_abort	ldc.c
 ldc_abort	ldc.c
 ldc_abort	ldc.c
 ldc_abort	ldc.c
 ldc_abort	ldc.c
 ldc_abort	ldc.c
 ldc_abort	ldc.c
 ldc_abort	ldc.c
 ldc_abort	ldc.c
 ldc_alloc	ldc.c
 ldc_alloc	ldc.c
 ldc_bind	ldc.c
 ldc_connect	ldc.c
 ldc_disconnect	ldc.c
 ldc_free	ldc.c
 ldc_init	ldc.c
 ldc_iommu_init	ldc.c
 ldc_iommu_release	ldc.c
 ldc_read	ldc.c
 ldc_read	ldc.c
 ldc_read	ldc.c
 ldc_rx	ldc.c
 ldc_set_state	ldc.c
 ldc_state	ldc.c
 ldc_tx	ldc.c
 ldc_write	ldc.c
 ldcdbg	ldc.c
 ldom_power_off	ds.c
 ldom_reboot	ds.c
 ldom_set_var	ds.c
 ldom_startcpu_cpuid	smp_64.c
 ldphys	tadpole.c
 led_blink	led.c
 led_exit	led.c
 led_init	led.c
 led_proc_open	led.c
 led_proc_show	led.c
 led_toggle	led.c
 leon3_getCacheRegs	leon_mm.c
 leon_boot_cpus	leon_smp.c
 leon_boot_one_cpu	leon_smp.c
 leon_build_device_irq	leon_kernel.c
 leon_callin	leon_smp.c
 leon_clear_clock_irq	leon_kernel.c
 leon_clear_profile_irq	leon_kernel.c
 leon_configure_cache_smp	leon_smp.c
 leon_configure_cache_smp	leon_smp.c
 leon_cross_call_irq	leon_smp.c
 leon_cycles_offset	leon_kernel.c
 leon_eirq_get	leon_kernel.c
 leon_eirq_setup	leon_kernel.c
 leon_enable_irq_cpu	leon_kernel.c
 leon_eoi_irq	leon_kernel.c
 leon_flush_cache_all	leon_mm.c
 leon_flush_cache_mm	leon_mm.c
 leon_flush_cache_page	leon_mm.c
 leon_flush_dcache_all	leon_mm.c
 leon_flush_icache_all	leon_mm.c
 leon_flush_needed	leon_mm.c
 leon_flush_page_for_dma	leon_mm.c
 leon_flush_page_to_ram	leon_mm.c
 leon_flush_pcache_all	leon_mm.c
 leon_flush_sig_insns	leon_mm.c
 leon_flush_tlb_all	leon_mm.c
 leon_flush_tlb_mm	leon_mm.c
 leon_get_ctable_ptr	leon_mm.c
 leon_get_irqmask	leon_kernel.c
 leon_handle_ext_irq	leon_kernel.c
 leon_init_IRQ	leon_kernel.c
 leon_init_smp	leon_smp.c
 leon_init_timers	leon_kernel.c
 leon_ipi_init	leon_smp.c
 leon_ipi_init	leon_smp.c
 leon_ipi_mask_one	leon_smp.c
 leon_ipi_resched	leon_smp.c
 leon_ipi_single	leon_smp.c
 leon_irq_rotate	leon_smp.c
 leon_load_profile_irq	leon_kernel.c
 leon_mask_irq	leon_kernel.c
 leon_patch	setup_32.c
 leon_pci_init	leon_pci.c
 leon_percpu_timer_ce_interrupt	leon_kernel.c
 leon_pmc_install	leon_pmc.c
 leon_send_ipi	leon_smp.c
 leon_shutdown_irq	leon_kernel.c
 leon_smp_done	leon_smp.c
 leon_smp_getbroadcast	leon_smp.c
 leon_smp_nrcpus	leon_smp.c
 leon_smp_setbroadcast	leon_smp.c
 leon_startup_irq	leon_kernel.c
 leon_switch_mm	leon_mm.c
 leon_swprobe	leon_mm.c
 leon_trans_init	leon_kernel.c
 leon_unmask_irq	leon_kernel.c
 leonsmp_ipi_interrupt	leon_smp.c
 load_mmu	srmmu.c
 load_pgd	pgtable.h
 load_pgd	pgtable.h
 local_flush_tlb_all	tlb-score.c
 local_flush_tlb_all	tlbflush.h
 local_flush_tlb_kernel_range	tlb-score.c
 local_flush_tlb_mm	tlb-score.c
 local_flush_tlb_mm	tlbflush.h
 local_flush_tlb_one	tlb-score.c
 local_flush_tlb_one	tlbflush.h
 local_flush_tlb_page	tlb-score.c
 local_softirq_pending	hardirq_64.h
 log_unaligned	unaligned_64.c
 longjmp_break_handler	kprobes.c
 machine_halt	process_32.c
 machine_halt	reboot.c
 machine_power_off	process_32.c
 machine_power_off	process_32.c
 machine_power_off	reboot.c
 machine_power_off	reboot.c
 machine_restart	process_32.c
 machine_restart	reboot.c
 major	hvapi.c
 make_cookie	ldc.c
 map_kernel	srmmu.c
 map_prom_timers	irq_64.c
 map_spbank	srmmu.c
 map_to_cpu	cpumap.c
 map_to_cpu	cpumap.h
 mark_core_ids	mdesc.c
 mark_proc_ids	mdesc.c
 mask_for_index	perf_event.c
 mb	barrier.h
 mc_capable	topology_64.h
 mc_list_add	chmc.c
 mc_list_del	chmc.c
 md5_sparc64_export	md5_glue.c
 md5_sparc64_final	md5_glue.c
 md5_sparc64_import	md5_glue.c
 md5_sparc64_init	md5_glue.c
 md5_sparc64_mod_fini	md5_glue.c
 md5_sparc64_mod_init	md5_glue.c
 mdesc_arc_target	mdesc.c
 mdesc_cpu_hwcap_list	setup_64.c
 mdesc_fill_in_cpu_data	mdesc.c
 mdesc_free	mdesc.c
 mdesc_get_page_sizes	mdesc.c
 mdesc_iterate_over_cpus	mdesc.c
 mdesc_kfree	mdesc.c
 mdesc_memblock_alloc	mdesc.c
 mdesc_memblock_free	mdesc.c
 mdesc_misc_init	mdesc.c
 mdesc_next_arc	mdesc.c
 mdesc_populate_present_mask	mdesc.c
 mdesc_register_notifier	mdesc.c
 mdesc_release	mdesc.c
 mdesc_update	mdesc.c
 mem_address_unaligned	traps_64.c
 mem_init	init.c
 mem_init	init.c
 mem_init	page_32.h
 memcmp	string_64.h
 memcpy	string_64.h
 memcpy_fromio	io_32.h
 memcpy_fromio	io_64.h
 memcpy_toio	io_32.h
 memcpy_toio	io_64.h
 memscan	string_64.h
 memset	string_64.h
 memset_io	io_32.h
 memset_io	io_64.h
 misc_register	mdesc.c
 mk_pte	pgtable.h
 mk_pte	pgtable.h
 mmap	hugetlbpage.c
 mmap	hugetlbpage.c
 mmap	pci.c
 mmap	pci.c
 mmap	sys_sparc_64.c
 mmap	sys_sparc_64.c
 mmap	sys_sparc_64.c
 mmap_rnd	sys_sparc_64.c
 mmiowb	io_32.h
 mmiowb	io_64.h
 mmu_get_scsi_one	ioport.c
 mmu_info	init_64.h
 mmu_info	srmmu.c
 mostek_probe	time_64.c
 mostek_read_byte	time_32.c
 mostek_read_byte	time_64.c
 mostek_write_byte	time_32.c
 mostek_write_byte	time_64.c
 msi_bitmap_alloc	pci_msi.c
 msi_bitmap_free	pci_msi.c
 msi_set_sync	msi.h
 msi_table_alloc	pci_msi.c
 msi_table_free	pci_msi.c
 n2_pcr_write	pcr.c
 n2_picl_value	pcr.c
 n4_pcr_read	pcr.c
 n4_pcr_write	pcr.c
 n4_pic_read	pcr.c
 n4_pic_write	pcr.c
 n4_picl_value	pcr.c
 nmi_adjust_hz	nmi.c
 nmi_adjust_hz	nmi.h
 nmi_adjust_hz_one	nmi.c
 nmi_cpu_busy	nmi.c
 nmi_init	nmi.c
 nmi_init	nmi.h
 nmi_init	pcr.c
 nmi_shutdown	nmi.c
 nop_for_index	perf_event.c
 notify_page_fault	fault_64.c
 num_online_cpus	cpumap.c
 of_bus_ambapp_match	of_device_32.c
 of_bus_default_count_cells	of_device_common.c
 of_bus_default_get_flags	of_device_common.c
 of_bus_default_get_flags	of_device_common.h
 of_bus_default_map	of_device_32.c
 of_bus_default_map	of_device_common.c
 of_bus_default_map	of_device_common.h
 of_bus_fhc_match	of_device_64.c
 of_bus_pci_get_flags	of_device_32.c
 of_bus_pci_get_flags	of_device_64.c
 of_bus_pci_match	of_device_32.c
 of_bus_pci_match	of_device_64.c
 of_bus_sbus_count_cells	of_device_common.c
 of_bus_sbus_count_cells	of_device_common.h
 of_bus_sbus_get_flags	of_device_32.c
 of_bus_sbus_match	of_device_common.c
 of_bus_sbus_match	of_device_common.h
 of_bus_simba_match	of_device_64.c
 of_console_init	prom.h
 of_console_init	prom.h
 of_console_init	prom_32.c
 of_console_init	prom_64.c
 of_debug	of_device_32.c
 of_debug	of_device_64.c
 of_fill_in_cpu_data	prom_32.c
 of_fill_in_cpu_data	prom_64.c
 of_find_in_proplist	prom_common.c
 of_getintprop_default	prom_common.c
 of_ioremap	of_device_common.c
 of_iounmap	ioport.c
 of_iounmap	of_device_64.c
 of_iterate_over_cpus	prom_64.c
 of_pci_slot_init	pci.c
 of_populate_present_mask	prom_64.c
 of_propagate_archdata	of_device_common.c
 of_read_addr	of_device_common.h
 of_set_property	prom_common.c
 ofpci_debug	pci.c
 ok_for_kernel	unaligned_32.c
 ok_for_kernel	unaligned_64.c
 outb	io_32.h
 outb	io_64.h
 outb_local	io_32.h
 outb_p	io_32.h
 outb_p	io_64.h
 outl	io_32.h
 outl	io_64.h
 outl_p	io_32.h
 outl_p	io_64.h
 outsb	PeeCeeI.c
 outsb	io_32.h
 outsb	io_64.h
 outsb	leon_pci.c
 outsb	pcic.c
 outsl	PeeCeeI.c
 outsl	io_32.h
 outsl	io_64.h
 outsl	leon_pci.c
 outsl	pcic.c
 outsw	PeeCeeI.c
 outsw	io_32.h
 outsw	io_64.h
 outsw	leon_pci.c
 outsw	pcic.c
 outw	io_32.h
 outw	io_64.h
 outw_p	io_32.h
 outw_p	io_64.h
 p1275_cmd_direct	p1275.c
 page_address	highmem.c
 page_cache_add_speculative	gup.c
 page_is_ram	init.c
 page_is_ram	init.c
 page_to_bus	page.h
 page_to_phys	io_32.h
 page_to_phys	io_64.h
 page_to_phys	ioport.c
 page_to_phys	page.h
 page_to_virt	page.h
 pages_in_region	ldc.c
 pages_in_region	ldc.c
 pagesize_code	ldc.c
 pagetable_init	pgtable.c
 pagetable_init	setup.h
 pagetable_init	setup.h
 paging_init	init.c
 paging_init	init.c
 paging_init	pgtable.h
 paging_init	pgtable.h
 parent_node	topology_64.h
 pause_patch	setup_64.c
 pbm_config_busmastering	pci_psycho.c
 pbm_config_busmastering	pci_schizo.c
 pbm_routes_this_ino	pci_schizo.c
 pci64_dma_supported	iommu.c
 pci64_dma_supported	iommu.c
 pci64_dma_supported	iommu.c
 pci64_dma_supported	iommu.c
 pci64_dma_supported	pci.c
 pci_bus_register_of_sysfs	pci.c
 pci_bus_slot_names	pci.c
 pci_config_read16	pci.c
 pci_config_read16	pci_impl.h
 pci_config_read32	pci.c
 pci_config_read32	pci_impl.h
 pci_config_read8	pci.c
 pci_config_read8	pci_impl.h
 pci_config_write16	pci.c
 pci_config_write16	pci_impl.h
 pci_config_write32	pci.c
 pci_config_write32	pci_impl.h
 pci_config_write8	pci.c
 pci_config_write8	pci_impl.h
 pci_determine_mem_io_space	pci_common.c
 pci_determine_mem_io_space	pci_impl.h
 pci_domain_nr	pci.c
 pci_enable_resources	leon_pci.c
 pci_fire_hw_init	pci_fire.c
 pci_fire_msi_init	pci_fire.c
 pci_fire_msi_init	pci_fire.c
 pci_fire_msi_teardown	pci_fire.c
 pci_fire_msiq_alloc	pci_fire.c
 pci_fire_msiq_free	pci_fire.c
 pci_fire_pbm_iommu_init	pci_fire.c
 pci_get_pbm_props	pci_common.c
 pci_get_pbm_props	pci_impl.h
 pci_iounmap	io_32.h
 pci_iounmap	io_64.h
 pci_iounmap	iomap.c
 pci_map_single	ioport.c
 pci_parse_of_flags	pci.c
 pci_path_component	prom_32.c
 pci_path_component	prom_32.c
 pci_path_component	prom_64.c
 pci_register_iommu_region	pci_common.c
 pci_scan_for_master_abort	pci_impl.h
 pci_scan_for_parity_error	pci_impl.h
 pci_scan_for_target_abort	pci_impl.h
 pci_sun4v_init	pci_sun4v.c
 pci_sun4v_iommu_init	pci_sun4v.c
 pci_sun4v_irq_trans_init	prom_irqtrans.c
 pci_sun4v_msi_init	pci_sun4v.c
 pci_sun4v_msi_init	pci_sun4v.c
 pci_sun4v_msi_teardown	pci_sun4v.c
 pci_sun4v_msiq_alloc	pci_sun4v.c
 pci_sun4v_msiq_free	pci_sun4v.c
 pci_sun4v_probe	pci_sun4v.c
 pci_sun4v_scan_bus	pci_sun4v.c
 pci_time_init	pcic.c
 pcibios_enable_device	leon_pci.c
 pcibios_enable_device	pci.c
 pcibios_enable_device	pcic.c
 pcibios_fixup_bus	leon_pci.c
 pcibios_fixup_bus	pci.c
 pcibios_fixup_bus	pcic.c
 pcibios_init	pci.c
 pcibios_init	pcic.c
 pcibios_set_master	pci.c
 pcibus_to_node	pci.c
 pcibus_to_node	topology_64.h
 pcibus_to_node	topology_64.h
 pcic_clear_clock_irq	pcic.c
 pcic_cycles_offset	pcic.c
 pcic_cycles_offset	pcic.c
 pcic_init	pcic.c
 pcic_load_profile_irq	pcic.c
 pcic_mask_irq	pcic.c
 pcic_nmi	pcic.c
 pcic_pbm_scan_bus	pcic.c
 pcic_present	pcic.c
 pcic_probe	pcic.c
 pcic_startup_irq	pcic.c
 pcic_unmask_irq	pcic.c
 pcic_write_config_dword	pcic.c
 pcic_write_config_dword	pcic.c
 pcic_write_config_dword	pcic.c
 pcmp	visemul.c
 pcpu_cpu_distance	smp_64.c
 pcpu_free_bootmem	smp_64.c
 pcpu_populate_pte	smp_64.c
 pcr_arch_init	pcr.c
 pcr_arch_init	pcr.h
 pdev_to_pnode	pcic.c
 pdist	visemul.c
 peaddr_set	tlbflush.h
 pectx_get	tlbflush.h
 pectx_set	tlbflush.h
 per_cpu_patch	entry.h
 per_cpu_patch	setup_32.c
 per_cpu_patch	setup_64.c
 perf_event_encode	perf_event.c
 perf_event_encode	perf_event.c
 perf_event_get_enc	perf_event.c
 perf_event_get_msk	perf_event.c
 perf_event_grab_pmc	perf_event.c
 perf_event_print_debug	perf_event.c
 perf_event_release_pmc	perf_event.c
 perf_stop_nmi_watchdog	perf_event.c
 perfctr_irq	nmi.c
 perfctr_irq	nmi.h
 perm_to_mte	ldc.c
 pevn_get	tlbflush.h
 pevn_set	tlbflush.h
 pfn_pte	pgtable.h
 pfn_pte	pgtable.h
 pfn_to_phys	page.h
 pfn_to_virt	page.h
 pfn_valid	page.h
 pfn_valid	page_32.h
 pformat	visemul.c
 pgd_ERROR	pgtable.h
 pgd_ERROR	pgtable.h
 pgd_bad	pgtable.h
 pgd_bad	pgtable.h
 pgd_clear	pgtable.h
 pgd_clear	pgtable.h
 pgd_free	pgalloc.h
 pgd_index	pgtable.h
 pgd_index	pgtable.h
 pgd_init	pgtable.c
 pgd_init	setup.h
 pgd_init	setup.h
 pgd_none	pgtable.h
 pgd_none	pgtable.h
 pgd_offset	pgtable.h
 pgd_offset	pgtable.h
 pgd_offset_k	pgtable.h
 pgd_offset_k	pgtable.h
 pgd_present	pgtable.h
 pgd_present	pgtable.h
 pgd_val	page.h
 pgd_val	page_32.h
 pgd_val	page_32.h
 pgoff_to_pte	pgtable.h
 pgoff_to_pte	pgtable.h
 pgprot_noncached	pgtable.h
 pgprot_noncached	pgtable.h
 pgprot_val	page.h
 pgprot_val	page_32.h
 pgprot_val	page_32.h
 pgtable_cache_init	pgtable.h
 pgtable_cache_init	pgtable.h
 pgtable_cache_init	tsb.c
 pgtable_trans_huge_deposit	tlb.c
 pgtable_trans_huge_withdraw	tlb.c
 phys_to_page	page.h
 phys_to_pfn	page.h
 pick_msiq	pci_msi.c
 pipeline	cpumap.c
 platform_device_register	time_64.c
 platform_device_register	time_64.c
 platform_device_register	time_64.c
 platform_device_register	time_64.c
 platform_device_register	time_64.c
 platform_driver_register	apc.c
 platform_driver_register	auxio_64.c
 platform_driver_register	leon_pci_grpci2.c
 platform_driver_register	pci_fire.c
 platform_driver_register	pci_psycho.c
 platform_driver_register	pci_sabre.c
 platform_driver_register	pci_schizo.c
 platform_driver_register	pci_sun4v.c
 platform_driver_register	pmc.c
 platform_driver_register	power.c
 platform_driver_register	time_32.c
 pmc_init	pmc.c
 pmc_leon_idle	leon_pmc.c
 pmc_leon_idle_fixup	leon_pmc.c
 pmc_leon_need_fixup	leon_pmc.c
 pmc_probe	pmc.c
 pmc_readb	pmc.c
 pmc_swift_idle	pmc.c
 pmc_writeb	pmc.c
 pmd_bad	pgtable.h
 pmd_bad	pgtable.h
 pmd_clear	pgtable.h
 pmd_clear	pgtable.h
 pmd_huge	hugetlbpage.c
 pmd_none	pgtable.h
 pmd_none	pgtable.h
 pmd_page	pgtable.h
 pmd_page	pgtable.h
 pmd_page_vaddr	pgtable.h
 pmd_page_vaddr	pgtable.h
 pmd_pgtable	pgalloc.h
 pmd_phys	pgtable.h
 pmd_phys	pgtable.h
 pmd_populate	srmmu.c
 pmd_present	pgtable.h
 pmd_present	pgtable.h
 pmd_set	srmmu.c
 pmd_val	page_32.h
 pmd_val	page_32.h
 pmd_val	pgtable.h
 pmd_val	pgtable.h
 pmd_val	pgtable.h
 pmd_val	pgtable.h
 pmu_snapshot_all_cpus	process_64.c
 pmul	visemul.c
 poke_hypersparc	srmmu.c
 poke_leonsparc	leon_mm.c
 poke_swift	srmmu.c
 poke_tsunami	srmmu.c
 poke_turbosparc	srmmu.c
 poke_viking	srmmu.c
 poll_idle	thread_info_32.h
 popc_patch	setup_64.c
 portid_compare	pci_schizo.c
 post_kprobe_handler	kprobes.c
 power_handler	power.c
 power_init	power.c
 power_probe	power.c
 pr_fmt	aes_glue.c
 pr_fmt	camellia_glue.c
 pr_fmt	crc32c_glue.c
 pr_fmt	des_glue.c
 pr_fmt	md5_glue.c
 pr_fmt	sha1_glue.c
 pr_fmt	sha256_glue.c
 pr_fmt	sha512_glue.c
 pre_flow_handler	irq_64.c
 printk	traps_64.c
 printk	traps_64.c
 probe_memory	srmmu.c
 process_attr	viohs.c
 process_dreg_ack	viohs.c
 process_dreg_info	viohs.c
 process_dreg_nack	viohs.c
 process_ds_work	ds.c
 process_rdx	ldc.c
 process_rdx	viohs.c
 process_rdx_ack	viohs.c
 process_rdx_ack	viohs.c
 process_rdx_info	viohs.c
 process_rdx_info	viohs.c
 process_rdx_nack	viohs.c
 process_rdx_nack	viohs.c
 process_rtr	ldc.c
 process_rts	ldc.c
 process_switch	setup_32.c
 process_switch	setup_64.c
 process_unknown	viohs.c
 process_ver	viohs.c
 process_ver_ack	ldc.c
 process_ver_ack	ldc.c
 process_ver_ack	viohs.c
 process_ver_info	ldc.c
 process_ver_info	ldc.c
 process_ver_info	viohs.c
 process_ver_nack	ldc.c
 process_ver_nack	ldc.c
 process_ver_nack	viohs.c
 process_version	ldc.c
 prof_counter	smp_32.h
 prof_multiplier	smp_32.h
 profile_pc	ptrace.h
 profile_pc	ptrace.h
 profile_pc	time_32.c
 profile_pc	time_64.c
 prom_apply_obio_ranges	oplib_32.h
 prom_build_devicetree	prom_common.c
 prom_cif_callback	p1275.c
 prom_cif_direct	p1275.c
 prom_cif_init	init_64.c
 prom_cif_init	init_64.c
 prom_cif_init	p1275.c
 prom_cmdline	misc_64.c
 prom_cmdline	oplib_32.h
 prom_common_nextprop	prom_common.c
 prom_console_write_buf	console_32.c
 prom_console_write_buf	console_64.c
 prom_console_write_buf	oplib_32.h
 prom_early_alloc	prom_32.c
 prom_early_alloc	prom_64.c
 prom_feval	misc_64.c
 prom_feval	oplib_32.h
 prom_finddevice	oplib_32.h
 prom_finddevice	tree_32.c
 prom_finddevice	tree_64.c
 prom_get_idprom	misc_64.c
 prom_get_idprom	oplib_32.h
 prom_get_memory_ihandle	misc_64.c
 prom_get_mmu_ihandle	misc_64.c
 prom_getbool	oplib_32.h
 prom_getbool	tree_32.c
 prom_getbool	tree_64.c
 prom_getchild	oplib_32.h
 prom_getchild	tree_32.c
 prom_getchild	tree_64.c
 prom_getint	oplib_32.h
 prom_getint	tree_32.c
 prom_getint	tree_64.c
 prom_getintdefault	devices.c
 prom_getintdefault	oplib_32.h
 prom_getintdefault	tree_32.c
 prom_getintdefault	tree_64.c
 prom_getparent	tree_64.c
 prom_getprev	oplib_32.h
 prom_getproperty	tree_32.c
 prom_getproplen	oplib_32.h
 prom_getproplen	tree_32.c
 prom_getproplen	tree_64.c
 prom_getrev	oplib_32.h
 prom_getsibling	oplib_32.h
 prom_getsibling	tree_32.c
 prom_getsibling	tree_64.c
 prom_getstring	oplib_32.h
 prom_getstring	tree_32.c
 prom_halt	misc_64.c
 prom_halt	oplib_32.h
 prom_halt_power_off	misc_64.c
 prom_idleself	misc_64.c
 prom_ihandle2path	tree_64.c
 prom_init	init_32.c
 prom_init	init_32.c
 prom_init	init_32.c
 prom_init	init_32.c
 prom_init	init_64.c
 prom_init	init_64.c
 prom_init	init_64.c
 prom_init	init_64.c
 prom_init	oplib_32.h
 prom_init	oplib_32.h
 prom_init_report	init_64.c
 prom_init_report	init_64.c
 prom_inst2pkg	oplib_32.h
 prom_inst2pkg	tree_32.c
 prom_inst2pkg	tree_64.c
 prom_meminit	memory.c
 prom_meminit	oplib_32.h
 prom_meminit_v0	memory.c
 prom_meminit_v2	memory.c
 prom_nbputchar	console_32.c
 prom_nextprop	prom_common.c
 prom_node_has_property	tree_64.c
 prom_node_to_node	tree_64.c
 prom_node_to_node	tree_64.c
 prom_node_to_node	tree_64.c
 prom_nodematch	tree_64.c
 prom_printf	printf.c
 prom_printf	printf.c
 prom_ranges_init	oplib_32.h
 prom_ranges_init	ranges.c
 prom_reboot	misc_64.c
 prom_reboot	oplib_32.h
 prom_resumecpu	misc_64.c
 prom_searchsiblings	oplib_32.h
 prom_searchsiblings	tree_32.c
 prom_searchsiblings	tree_64.c
 prom_service_exists	misc_64.c
 prom_setprop	tree_32.c
 prom_setsync	oplib_32.h
 prom_sleepself	misc_64.c
 prom_sleepsystem	misc_64.c
 prom_startcpu	leon_smp.c
 prom_startcpu	misc_64.c
 prom_startcpu	sun4d_smp.c
 prom_startcpu	sun4m_smp.c
 prom_startcpu_cpuid	misc_64.c
 prom_stopcpu_cpuid	misc_64.c
 prom_stopself	misc_64.c
 prom_sun4v_guest_soft_state	misc_64.c
 prom_sync_me	setup_32.c
 prom_unmap	misc_64.c
 prom_version	oplib_32.h
 prom_wakeupsystem	misc_64.c
 prom_world	init_64.h
 prom_world	p1275.c
 prom_world	smp_64.c
 prom_write	oplib_32.h
 prom_write	printf.c
 psycho_ce_intr	pci_psycho.c
 psycho_check_stc_error	psycho_common.c
 psycho_controller_hwinit	pci_psycho.c
 psycho_iclr_offset	prom_irqtrans.c
 psycho_init	pci_psycho.c
 psycho_iommu_flush	psycho_common.c
 psycho_irq_trans_init	prom_irqtrans.c
 psycho_onboard_imap_offset	prom_irqtrans.c
 psycho_pcierr_intr	psycho_common.c
 psycho_pcierr_intr	psycho_common.h
 psycho_pcierr_intr_other	psycho_common.c
 psycho_pcierr_intr_other	psycho_common.c
 psycho_pcislot_imap_offset	prom_irqtrans.c
 psycho_probe	pci_psycho.c
 psycho_register_error_handlers	pci_psycho.c
 psycho_ue_intr	pci_psycho.c
 pt_regs_to_gdb_regs	kgdb_32.c
 pt_regs_to_gdb_regs	kgdb_64.c
 pte_ERROR	pgtable.h
 pte_ERROR	pgtable.h
 pte_alloc_one	srmmu.c
 pte_clear	pgtable.h
 pte_clear	pgtable.h
 pte_dirty	pgtable.h
 pte_dirty	pgtable.h
 pte_file	pgtable.h
 pte_file	pgtable.h
 pte_free	pgalloc.h
 pte_free	srmmu.c
 pte_free_kernel	pgalloc.h
 pte_mkclean	pgtable.h
 pte_mkclean	pgtable.h
 pte_mkdirty	pgtable.h
 pte_mkdirty	pgtable.h
 pte_mkold	pgtable.h
 pte_mkold	pgtable.h
 pte_mkspecial	pgtable.h
 pte_mkspecial	pgtable.h
 pte_mkwrite	pgtable.h
 pte_mkwrite	pgtable.h
 pte_mkyoung	pgtable.h
 pte_mkyoung	pgtable.h
 pte_modify	pgtable.h
 pte_modify	pgtable.h
 pte_none	pgtable.h
 pte_none	pgtable.h
 pte_offset	pgtable.h
 pte_offset	pgtable.h
 pte_offset_kernel	pgtable.h
 pte_offset_kernel	pgtable.h
 pte_offset_map	pgtable.h
 pte_offset_map	pgtable.h
 pte_page	pgtable.h
 pte_page	pgtable.h
 pte_pfn	pgtable.h
 pte_pfn	pgtable.h
 pte_present	pgtable.h
 pte_present	pgtable.h
 pte_present	pgtable.h
 pte_present	pgtable.h
 pte_special	pgtable.h
 pte_special	pgtable.h
 pte_to_pgoff	pgtable.h
 pte_to_pgoff	pgtable.h
 pte_unmap	pgtable.h
 pte_unmap	pgtable.h
 pte_val	page.h
 pte_val	page_32.h
 pte_val	page_32.h
 pte_val	pgtable.h
 pte_val	pgtable.h
 pte_val	pgtable.h
 pte_val	pgtable.h
 pte_val	pgtable.h
 pte_val	pgtable.h
 pte_val	pgtable.h
 pte_val	pgtable.h
 pte_write	pgtable.h
 pte_write	pgtable.h
 pte_wrprotect	pgtable.h
 pte_wrprotect	pgtable.h
 pte_young	pgtable.h
 pte_young	pgtable.h
 ptr_to_compat	compat.h
 ptrace_disable	ptrace_32.c
 ptrace_disable	ptrace_64.c
 pud_huge	hugetlbpage.c
 purge_dups	ds.c
 put_psr	psr.h
 put_ross_icr	ross.h
 put_user	uaccess.h
 put_user	uaccess.h
 raw_smp_processor_id	cpumap.h
 raw_smp_processor_id	smp_32.h
 read_barrier_depends	barrier.h
 read_current_timer	time_64.c
 read_hbreg	us2e_cpufreq.c
 read_in_all_counters	perf_event.c
 read_mmustat_enable	sysfs.c
 read_nonraw	ldc.c
 read_raw	ldc.c
 read_safari_cfg	us3_cpufreq.c
 read_stream	ldc.c
 read_tsk_long	ptrace.h
 read_tsk_long	ptrace.h
 readb	io_32.h
 readb	io_64.h
 readb	time_32.c
 readb	time_64.c
 readb_relaxed	io_32.h
 readb_relaxed	io_64.h
 readl	ebus.c
 readl	ebus.c
 readl	io_32.h
 readl	io_64.h
 readl_relaxed	io_32.h
 readl_relaxed	io_64.h
 readq	io_64.h
 readq_relaxed	io_64.h
 readw	io_32.h
 readw	io_64.h
 readw_relaxed	io_32.h
 readw_relaxed	io_64.h
 record_exception	math_32.c
 record_exception	math_32.c
 record_exception	math_64.c
 record_exception	math_64.c
 record_one_cpu	mdesc.c
 register	fault_64.c
 register	perf_event.c
 register_cpu_online	sysfs.c
 register_dimm_printer	traps_64.c
 register_kprobe	kprobes.c
 register_mmu_stats	sysfs.c
 register_nodes	sysfs.c
 register_one_mondo	irq_64.c
 register_one_mondo	irq_64.c
 register_percpu_ce	time_32.c
 register_perf_hsvc	pcr.c
 register_proc_sparc_ioport	ioport.c
 register_proc_sparc_ioport	ioport.c
 register_services	ds.c
 register_services	ds.c
 register_sparc64_cpufreq_notifier	time_64.c
 relbranch_fixup	kprobes.c
 release_dma_lock	floppy_32.h
 release_region	floppy_32.h
 release_sbi	sbi.h
 release_sbi	sun4d_irq.c
 release_thread	processor.h
 release_thread	processor_32.h
 remap_it_my_way	ioport.c
 remove_from_ctx_list	srmmu.c
 report_broken_nmi	nmi.c
 report_crypto_hwcaps	setup_64.c
 report_hwcaps	setup_64.c
 report_one_hwcap	setup_64.c
 report_platform_properties	mdesc.c
 request_irq	irq_32.c
 request_irq	irq_32.c
 request_irq	irq_64.c
 request_region	floppy_32.h
 request_region	pcic.c
 restore_current	console_32.c
 restore_current	misc_32.c
 restore_current	mp.c
 restore_current	prom_32.c
 restore_current	tree_32.c
 restore_fpu_state	sigutil.h
 restore_fpu_state	sigutil_32.c
 restore_fpu_state	sigutil_64.c
 restore_previous_kprobe	kprobes.c
 restore_rwin_state	sigutil.h
 restore_rwin_state	sigutil_32.c
 restore_rwin_state	sigutil_64.c
 ret_from_fork	process_32.c
 ret_from_kernel_thread	process_32.c
 rmb	barrier.h
 rtc_probe	time_64.c
 rx_advance	ldc.c
 rx_data_wait	ldc.c
 rx_seq_ok	ldc.c
 rx_set_head	ldc.c
 sabre_ce_intr	pci_sabre.c
 sabre_device_needs_wsync	prom_irqtrans.c
 sabre_iclr_offset	prom_irqtrans.c
 sabre_init	pci_sabre.c
 sabre_irq_trans_init	prom_irqtrans.c
 sabre_onboard_imap_offset	prom_irqtrans.c
 sabre_pcislot_imap_offset	prom_irqtrans.c
 sabre_probe	pci_sabre.c
 sabre_read	prom_irqtrans.c
 sabre_register_error_handlers	pci_sabre.c
 sabre_scan_bus	pci_sabre.c
 sabre_ue_intr	pci_sabre.c
 sabre_wsync_handler	prom_irqtrans.c
 safe_compute_effective_address	fault_32.c
 safe_fetch_reg	unaligned_32.c
 save_fpu_state	sigutil.h
 save_fpu_state	sigutil_32.c
 save_fpu_state	sigutil_64.c
 save_previous_kprobe	kprobes.c
 save_rwin_state	sigutil.h
 save_rwin_state	sigutil_32.c
 save_rwin_state	sigutil_64.c
 save_stack_trace	stacktrace.c
 save_stack_trace_tsk	stacktrace.c
 sbus_build_irq	sbus.c
 sbus_can_burst64	io_32.h
 sbus_can_burst64	io_64.h
 sbus_can_dma_64bit	io_32.h
 sbus_can_dma_64bit	io_64.h
 sbus_cycles_offset	time_32.c
 sbus_init	sbus.c
 sbus_iommu_init	sbus.c
 sbus_irq_trans_init	prom_irqtrans.c
 sbus_memcpy_fromio	io_32.h
 sbus_memcpy_fromio	io_64.h
 sbus_memcpy_toio	io_32.h
 sbus_memcpy_toio	io_64.h
 sbus_memset_io	io_32.h
 sbus_memset_io	io_64.h
 sbus_path_component	prom_32.c
 sbus_path_component	prom_32.c
 sbus_path_component	prom_64.c
 sbus_readb	auxio_32.c
 sbus_readb	io_32.h
 sbus_readb	io_64.h
 sbus_readl	io_32.h
 sbus_readl	io_64.h
 sbus_readq	io_64.h
 sbus_readw	io_32.h
 sbus_readw	io_64.h
 sbus_set_sbus64	io_32.h
 sbus_set_sbus64	io_64.h
 sbus_set_sbus64	ioport.c
 sbus_set_sbus64	sbus.c
 sbus_time_init	time_32.c
 sbus_writeb	io_32.h
 sbus_writeb	io_64.h
 sbus_writel	io_32.h
 sbus_writel	io_64.h
 sbus_writeq	io_64.h
 sbus_writew	io_32.h
 sbus_writew	io_64.h
 scan_of_devices	of_device_32.c
 scan_of_devices	of_device_64.c
 scan_tree	of_device_32.c
 scan_tree	of_device_64.c
 sched_clock	time_64.c
 sched_init	traps_64.c
 schedule_deferred_pcr_work	pcr.h
 schizo_ce_intr	pci_schizo.c
 schizo_iclr_offset	prom_irqtrans.c
 schizo_imap_offset	prom_irqtrans.c
 schizo_init	pci_schizo.c
 schizo_irq_trans_init	prom_irqtrans.c
 schizo_pbm_hw_init	pci_schizo.c
 schizo_pbm_iommu_init	pci_schizo.c
 schizo_pbm_strbuf_init	pci_schizo.c
 schizo_pcierr_intr	pci_schizo.c
 schizo_pcierr_intr_other	pci_schizo.c
 schizo_pcierr_intr_other	pci_schizo.c
 schizo_probe	pci_schizo.c
 schizo_read	prom_irqtrans.c
 schizo_register_error_handlers	pci_schizo.c
 schizo_safarierr_intr	pci_schizo.c
 schizo_scan_bus	pci_schizo.c
 schizo_ue_intr	pci_schizo.c
 schizo_write	prom_irqtrans.c
 score7_FTLB_refill_Handler	tlb.h
 score_rt_sigreturn	syscalls.h
 score_sigaltstack	syscalls.h
 scrollscreen	btext.c
 scrollscreen	btext.c
 search_extables_range	extable.c
 segment_eq	segment.h
 segment_eq	uaccess.h
 segment_eq	uaccess.h
 self_refresh_ctl	us2e_cpufreq.c
 semop	sys_sparc32.c
 send_attr	viohs.c
 send_ctrl	viohs.c
 send_ctrl	viohs.c
 send_ctrl	viohs.c
 send_data_ack	ldc.c
 send_data_nack	ldc.c
 send_dreg	viohs.c
 send_events	ldc.c
 send_rdx	ldc.c
 send_rdx	viohs.c
 send_rtr	ldc.c
 send_rts	ldc.c
 send_tx_packet	ldc.c
 send_tx_packet	ldc.c
 send_tx_packet	ldc.c
 send_tx_packet	ldc.c
 send_tx_packet	ldc.c
 send_tx_packet	ldc.c
 send_version	viohs.c
 set_auxio	auxio_32.c
 set_bit	bitops_32.h
 set_core_ids	mdesc.c
 set_cpu_and_fpu	cpu.c
 set_fs	segment.h
 set_mb	barrier.h
 set_pmd	pgtable.h
 set_pmd	pgtable.h
 set_proc_ids	mdesc.c
 set_pte	pgtable.h
 set_pte	pgtable.h
 set_pte_at	pgtable.h
 set_pte_at	pgtable.h
 set_rtc_mmss	time_32.c
 set_rtc_mmss	time_32.c
 set_rtc_mmss	time_32.c
 set_sbi_ctl	sbi.h
 set_sbi_tid	sbi.h
 set_tx_tail	ldc.c
 set_tx_tail	ldc.c
 setjmp_pre_handler	kprobes.c
 setup_arch	setup_32.c
 setup_arch	setup_64.c
 setup_early_printk	setup.h
 setup_early_printk	setup.h
 setup_memory	pgtable.h
 setup_memory	pgtable.h
 setup_nmi_watchdog	nmi.c
 setup_per_cpu_areas	smp_64.c
 setup_profiling_timer	smp_32.c
 setup_profiling_timer	smp_64.c
 setup_protection_map	cache.c
 setup_sparc64_timer	smp_64.c
 setup_sparc64_timer	time_64.c
 setup_sun4v_pcr_ops	pcr.c
 setup_timer_ce	time_32.c
 setup_timer_cs	time_32.c
 setup_tsb_params	tsb.c
 setup_zero_page	init.c
 setup_zero_page	init.c
 sg_count_one	ldc.c
 sg_count_pages	ldc.c
 sha1_sparc64_export	sha1_glue.c
 sha1_sparc64_final	sha1_glue.c
 sha1_sparc64_import	sha1_glue.c
 sha1_sparc64_init	sha1_glue.c
 sha1_sparc64_mod_fini	sha1_glue.c
 sha1_sparc64_mod_init	sha1_glue.c
 sha224_sparc64_final	sha256_glue.c
 sha224_sparc64_init	sha256_glue.c
 sha256_sparc64_export	sha256_glue.c
 sha256_sparc64_final	sha256_glue.c
 sha256_sparc64_import	sha256_glue.c
 sha256_sparc64_init	sha256_glue.c
 sha256_sparc64_mod_fini	sha256_glue.c
 sha256_sparc64_mod_init	sha256_glue.c
 sha384_sparc64_final	sha512_glue.c
 sha384_sparc64_init	sha512_glue.c
 sha512_sparc64_final	sha512_glue.c
 sha512_sparc64_init	sha512_glue.c
 sha512_sparc64_mod_fini	sha512_glue.c
 sha512_sparc64_mod_init	sha512_glue.c
 shift_window_buffer	windows.c
 show_cpuinfo	cpu.c
 show_cpuinfo	cpu.c
 show_leds	sun4d_smp.c
 show_regs	process_32.c
 show_regs	process_64.c
 show_regwindow	process_64.c
 show_regwindow32	process_64.c
 show_regwindow32	process_64.c
 show_stack	process_32.c
 show_stack	traps_64.c
 show_sun4d_interrupts	kernel.h
 sign_extend_imm13	unaligned_32.c
 sign_extend_imm13	unaligned_64.c
 sigsuspend	signal_32.c
 sigsuspend	signal_64.c
 simple_map_to_cpu	cpumap.c
 simple_map_to_cpu	cpumap.c
 simple_map_to_cpu	cpumap.c
 single_open	ioport.c
 single_open	led.c
 sizeof	leon_pci.c
 sizeof	pcic.c
 sizeof	signal32.c
 sizeof	signal32.c
 sleeping_thread_to_gdb_regs	kgdb_32.c
 sleeping_thread_to_gdb_regs	kgdb_64.c
 smp4d_boot_cpus	smp_32.c
 smp4d_boot_cpus	sun4d_smp.c
 smp4d_boot_one_cpu	smp_32.c
 smp4d_boot_one_cpu	sun4d_smp.c
 smp4d_callin	sun4d_smp.c
 smp4d_cross_call_irq	sun4d_smp.c
 smp4d_ipi_init	sun4d_smp.c
 smp4d_ipi_init	sun4d_smp.c
 smp4d_percpu_timer_interrupt	sun4d_smp.c
 smp4d_smp_done	smp_32.c
 smp4d_smp_done	sun4d_smp.c
 smp4m_boot_cpus	smp_32.c
 smp4m_boot_cpus	sun4m_smp.c
 smp4m_boot_one_cpu	smp_32.c
 smp4m_boot_one_cpu	sun4m_smp.c
 smp4m_callin	sun4m_smp.c
 smp4m_cross_call_irq	sun4m_smp.c
 smp4m_irq_rotate	smp_32.h
 smp4m_percpu_timer_interrupt	sun4m_smp.c
 smp4m_smp_done	smp_32.c
 smp4m_smp_done	sun4m_smp.c
 smp_bogo	smp_32.c
 smp_bogo	smp_32.h
 smp_bogo	smp_64.c
 smp_boot_cpus	smp_32.h
 smp_boot_one_cpu	smp_64.c
 smp_call_function_client	smp_64.c
 smp_call_function_interrupt	smp_32.c
 smp_call_function_interrupt	smp_32.h
 smp_call_function_single_client	smp_64.c
 smp_call_function_single_interrupt	smp_32.c
 smp_call_function_single_interrupt	smp_32.h
 smp_callin	smp_32.h
 smp_callin	smp_64.c
 smp_capture	misc_64.c
 smp_capture	smp_64.c
 smp_capture	unaligned_32.c
 smp_cpus_done	smp_32.c
 smp_cpus_done	smp_64.c
 smp_cross_call	smp_64.c
 smp_cross_call_masked	smp_64.c
 smp_fetch_global_pmu	smp_64.c
 smp_fetch_global_regs	smp_64.c
 smp_fill_in_sib_core_maps	smp_64.c
 smp_flush_cache_all	srmmu.c
 smp_flush_cache_mm	srmmu.c
 smp_flush_cache_page	srmmu.c
 smp_flush_dcache_page_impl	smp_64.c
 smp_flush_page_for_dma	srmmu.c
 smp_flush_page_to_ram	srmmu.c
 smp_flush_sig_insns	srmmu.c
 smp_flush_tlb_all	srmmu.c
 smp_flush_tlb_kernel_range	smp_64.c
 smp_flush_tlb_mm	smp_64.c
 smp_flush_tlb_mm	srmmu.c
 smp_flush_tlb_mm	tlb_64.h
 smp_flush_tlb_page	srmmu.c
 smp_flush_tlb_pending	smp_64.c
 smp_info	smp_32.c
 smp_info	smp_32.h
 smp_info	smp_64.c
 smp_kgdb_capture_client	kgdb_64.c
 smp_mb	barrier.h
 smp_mb__after_clear_bit	bitops.h
 smp_mb__after_clear_bit	bitops_32.h
 smp_mb__before_clear_bit	bitops.h
 smp_mb__before_clear_bit	bitops_32.h
 smp_new_mmu_context_version	smp_64.c
 smp_new_mmu_context_version_client	smp_64.c
 smp_penguin_jailcell	smp_64.c
 smp_prepare_boot_cpu	smp_32.c
 smp_prepare_boot_cpu	smp_64.c
 smp_prepare_cpus	smp_32.c
 smp_prepare_cpus	smp_64.c
 smp_processor_id	fault_64.c
 smp_read_barrier_depends	barrier.h
 smp_receive_signal_client	smp_64.c
 smp_release	misc_64.c
 smp_release	smp_64.c
 smp_release	unaligned_32.c
 smp_resched_interrupt	smp_32.c
 smp_resched_interrupt	smp_32.h
 smp_rmb	barrier.h
 smp_send_reschedule	smp_32.c
 smp_send_reschedule	smp_64.c
 smp_send_stop	smp_32.c
 smp_send_stop	smp_64.c
 smp_setup_cpu_possible_map	smp_32.c
 smp_setup_cpu_possible_map	smp_32.h
 smp_setup_cpu_possible_map	smp_32.h
 smp_setup_processor_id	smp_64.c
 smp_start_sync_tick_client	smp_64.c
 smp_start_sync_tick_client	smp_64.c
 smp_store_cpu_info	smp_32.c
 smp_store_cpu_info	smp_32.h
 smp_synchronize_one_tick	smp_64.c
 smp_synchronize_tick_client	smp_64.c
 smp_tsb_sync	smp_64.c
 smp_wmb	barrier.h
 smt_capable	topology_64.h
 sp_banks_cmp	memory.c
 sp_enter_debugger	kdebug_32.h
 sparc32_classify_syscall	audit.c
 sparc32_classify_syscall	audit.c
 sparc32_classify_syscall	compat_audit.c
 sparc32_foo	asm-offsets.c
 sparc32_late_time_init	time_32.c
 sparc32_path_component	prom_32.c
 sparc32_path_component	prom_32.c
 sparc32_start_kernel	kernel.h
 sparc32_start_kernel	setup_32.c
 sparc64_foo	asm-offsets.c
 sparc64_get_clock_tick	time_64.c
 sparc64_get_context	signal_64.c
 sparc64_get_context	systbls.h
 sparc64_has_aes_opcode	aes_glue.c
 sparc64_has_camellia_opcode	camellia_glue.c
 sparc64_has_crc32c_opcode	crc32c_glue.c
 sparc64_has_des_opcode	des_glue.c
 sparc64_has_md5_opcode	md5_glue.c
 sparc64_has_sha1_opcode	sha1_glue.c
 sparc64_has_sha256_opcode	sha256_glue.c
 sparc64_has_sha512_opcode	sha512_glue.c
 sparc64_init_timers	time_64.c
 sparc64_msiq_interrupt	pci_msi.c
 sparc64_personality	systbls.h
 sparc64_set_context	signal_64.c
 sparc64_set_context	systbls.h
 sparc64_yield	process_64.c
 sparc_breakpoint	entry.h
 sparc_breakpoint	sys_sparc_64.c
 sparc_context_init	srmmu.c
 sparc_default_read_pmc	perf_event.c
 sparc_default_write_pmc	perf_event.c
 sparc_eject	floppy_32.h
 sparc_floppy_irq	irq_32.c
 sparc_floppy_request_irq	floppy_32.h
 sparc_floppy_request_irq	irq_32.c
 sparc_io_proc_open	ioport.c
 sparc_io_proc_show	ioport.c
 sparc_mmap_check	sys_sparc_32.c
 sparc_mmap_check	sys_sparc_64.c
 sparc_pipe	sys_sparc_32.c
 sparc_pipe	systbls.h
 sparc_pmu_add	perf_event.c
 sparc_pmu_cancel_txn	perf_event.c
 sparc_pmu_commit_txn	perf_event.c
 sparc_pmu_del	perf_event.c
 sparc_pmu_disable	perf_event.c
 sparc_pmu_disable_event	perf_event.c
 sparc_pmu_enable	perf_event.c
 sparc_pmu_enable_event	perf_event.c
 sparc_pmu_event_init	perf_event.c
 sparc_pmu_read	perf_event.c
 sparc_pmu_start	perf_event.c
 sparc_pmu_start_txn	perf_event.c
 sparc_pmu_stop	perf_event.c
 sparc_register_ioport	ioport.c
 sparc_sysrq_init	process_64.c
 sparc_vt_read_pmc	perf_event.c
 sparc_vt_write_pmc	perf_event.c
 spitfire_access_error	traps_64.c
 spitfire_cee_log	traps_64.c
 spitfire_clean_and_reenable_l1_caches	traps_64.c
 spitfire_data_access_exception	traps_64.c
 spitfire_data_access_exception_tl1	traps_64.c
 spitfire_enable_estate_errors	traps_64.c
 spitfire_insn_access_exception	traps_64.c
 spitfire_insn_access_exception_tl1	traps_64.c
 spitfire_log_udb_syndrome	traps_64.c
 spitfire_ue_log	traps_64.c
 spitfire_xcall_deliver	smp_64.c
 spitfire_xcall_helper	smp_64.c
 sprintf	sysfs.c
 sprintf	sysfs.c
 sprintf	sysfs.c
 sprintf	sysfs.c
 sprintf	vio.c
 sprintf	vio.c
 sprintf_dimm	traps_64.c
 srmmu_ctxd_set	srmmu.c
 srmmu_free_nocache	srmmu.c
 srmmu_is_bad	srmmu.c
 srmmu_nocache_calcsize	srmmu.c
 srmmu_nocache_calcsize	srmmu.c
 srmmu_nocache_init	srmmu.c
 srmmu_paging_init	srmmu.c
 srmmu_pmd_none	srmmu.c
 srmmu_probe	srmmu.c
 srmmu_unmapioaddr	srmmu.c
 srmmu_unmapiorange	srmmu.c
 sstate_init	sstate.c
 sstate_panic_event	sstate.c
 sstate_reboot_call	sstate.c
 sstate_running	sstate.c
 stack_unaligned	process_64.c
 starfire_hard_smp_processor_id	starfire.c
 starfire_hookup	starfire.c
 start_handshake	ldc.c
 start_handshake	viohs.c
 start_nmi_watchdog	nmi.c
 start_nmi_watchdog	nmi.h
 stick_add_compare	time_64.c
 stick_add_tick	time_64.c
 stick_disable_irq	time_64.c
 stick_get_tick	time_64.c
 stick_init_tick	time_64.c
 stop_nmi_watchdog	nmi.c
 stop_nmi_watchdog	nmi.h
 store_reg	visemul.c
 strlen	string_64.h
 strlen_user	uaccess.h
 strlen_user	uaccess.h
 strncmp	string_64.h
 strncpy_from_user	uaccess.h
 strncpy_from_user	uaccess.h
 strnlen_user	uaccess.h
 strnlen_user	uaccess.h
 sub_ddmmss	sfp-util_32.h
 sub_ddmmss	sfp-util_64.h
 subsys_initcall	auxio_64.c
 subsys_initcall	time_32.c
 subsys_initcall	time_64.c
 sun4d_build_timer_irq	sun4d_irq.c
 sun4d_clear_clock_irq	sun4d_irq.c
 sun4d_distribute_irqs	kernel.h
 sun4d_distribute_irqs	sun4d_irq.c
 sun4d_encode_irq	sun4d_irq.c
 sun4d_fixup_trap_table	sun4d_irq.c
 sun4d_free_irq	kernel.h
 sun4d_handler_irq	sun4d_irq.c
 sun4d_init_IRQ	kernel.h
 sun4d_init_IRQ	sun4d_irq.c
 sun4d_init_sbi_irq	io-unit.c
 sun4d_init_sbi_irq	sun4d_irq.c
 sun4d_init_smp	smp_32.h
 sun4d_init_smp	sun4d_smp.c
 sun4d_init_timers	sun4d_irq.c
 sun4d_ipi_interrupt	sun4d_smp.c
 sun4d_ipi_mask_one	sun4d_smp.c
 sun4d_ipi_resched	sun4d_smp.c
 sun4d_ipi_single	sun4d_smp.c
 sun4d_load_profile_irq	sun4d_irq.c
 sun4d_load_profile_irqs	sun4d_irq.c
 sun4d_mask_irq	sun4d_irq.c
 sun4d_sbus_handler_irq	sun4d_irq.c
 sun4d_send_ipi	sun4d_smp.c
 sun4d_shutdown_irq	sun4d_irq.c
 sun4d_startup_irq	sun4d_irq.c
 sun4d_swap	sun4d_smp.c
 sun4d_unmask_irq	sun4d_irq.c
 sun4dsmp_flush_tlb_all	srmmu.c
 sun4dsmp_flush_tlb_mm	srmmu.c
 sun4m_clear_clock_irq	sun4m_irq.c
 sun4m_clear_profile_irq	kernel.h
 sun4m_clear_profile_irq	sun4m_irq.c
 sun4m_init_IRQ	kernel.h
 sun4m_init_IRQ	sun4m_irq.c
 sun4m_init_smp	smp_32.h
 sun4m_init_smp	sun4m_smp.c
 sun4m_init_timers	sun4m_irq.c
 sun4m_ipi_mask_one	sun4m_smp.c
 sun4m_ipi_resched	sun4m_smp.c
 sun4m_ipi_single	sun4m_smp.c
 sun4m_load_profile_irq	sun4m_irq.c
 sun4m_mask_irq	sun4m_irq.c
 sun4m_nmi	sun4m_irq.c
 sun4m_pci_init_IRQ	pcic.c
 sun4m_send_ipi	sun4m_smp.c
 sun4m_shutdown_irq	sun4m_irq.c
 sun4m_startup_irq	sun4m_irq.c
 sun4m_unmask_irq	sun4m_irq.c
 sun4m_unmask_profile_irq	kernel.h
 sun4m_unmask_profile_irq	sun4m_irq.c
 sun4u_compute_tid	irq_64.c
 sun4u_irq_disable	irq_64.c
 sun4u_irq_enable	irq_64.c
 sun4u_irq_eoi	irq_64.c
 sun4u_path_component	prom_64.c
 sun4v_build_common	irq_64.c
 sun4v_build_irq	irq_64.c
 sun4v_build_irq	prom_irqtrans.c
 sun4v_build_irq	prom_irqtrans.c
 sun4v_build_virq	irq_64.c
 sun4v_cpu_probe	cpu.c
 sun4v_data_access_exception	traps_64.c
 sun4v_data_access_exception_tl1	traps_64.c
 sun4v_do_mna	traps_64.c
 sun4v_dtlb_error_report	entry.h
 sun4v_dtlb_error_report	traps_64.c
 sun4v_emit_err_attr_strings	traps_64.c
 sun4v_hvapi_init	hvapi.c
 sun4v_hvapi_init	setup_64.c
 sun4v_hvapi_unregister	hvapi.c
 sun4v_init_mondo_queues	irq_64.c
 sun4v_insn_access_exception	traps_64.c
 sun4v_insn_access_exception_tl1	traps_64.c
 sun4v_irq_disable	irq_64.c
 sun4v_irq_enable	irq_64.c
 sun4v_irq_eoi	irq_64.c
 sun4v_itlb_error_report	entry.h
 sun4v_itlb_error_report	traps_64.c
 sun4v_mdesc_init	mdesc.c
 sun4v_mmustat_conf	sysfs.c
 sun4v_nonresum_error	traps_64.c
 sun4v_nonresum_overflow	entry.h
 sun4v_nonresum_overflow	traps_64.c
 sun4v_patch	entry.h
 sun4v_patch	setup_64.c
 sun4v_path_component	prom_64.c
 sun4v_register_mondo_queues	entry.h
 sun4v_register_mondo_queues	irq_64.c
 sun4v_report_real_raddr	traps_64.c
 sun4v_resum_error	traps_64.c
 sun4v_resum_overflow	entry.h
 sun4v_resum_overflow	traps_64.c
 sun4v_vdev_irq_trans_init	prom_irqtrans.c
 sun4v_virq_disable	irq_64.c
 sun4v_virq_enable	irq_64.c
 sun4v_virq_eoi	irq_64.c
 sun_82072_fd_inb	floppy_32.h
 sun_82072_fd_outb	floppy_32.h
 sun_82077_fd_inb	floppy_32.h
 sun_82077_fd_outb	floppy_32.h
 sun_do_break	setup_32.c
 sun_do_break	setup_64.c
 sun_fd_disable_dma	floppy_32.h
 sun_fd_enable_dma	floppy_32.h
 sun_fd_request_irq	floppy_32.h
 sun_fd_set_dma_addr	floppy_32.h
 sun_fd_set_dma_count	floppy_32.h
 sun_fd_set_dma_mode	floppy_32.h
 sun_floppy_init	floppy_32.h
 sun_read_dir	floppy_32.h
 sun_read_dir	floppy_32.h
 sun_read_dir	floppy_32.h
 sun_set_dor	floppy_32.h
 sunfire_init	central.c
 supported_pmu	perf_event.c
 swift_clockstop	tadpole.c
 swift_flush_cache_all	srmmu.c
 swift_flush_cache_mm	srmmu.c
 swift_flush_cache_page	srmmu.c
 swift_flush_page_for_dma	srmmu.c
 swift_flush_page_to_ram	srmmu.c
 swift_flush_sig_insns	srmmu.c
 swift_flush_tlb_all	srmmu.c
 swift_flush_tlb_mm	srmmu.c
 swift_flush_tlb_page	srmmu.c
 swift_flush_tlb_page	srmmu.c
 switch_mm	tsb.c
 switch_to	switch_to.h
 synchronize_user_stack	process_64.c
 synchronize_user_stack	windows.c
 syndrome_to_qword_code	chmc.c
 sys32_delete_module	sys_sparc32.c
 sys32_ftruncate64	sys_sparc32.c
 sys32_truncate64	sys_sparc32.c
 sys64_munmap	systbls.h
 sys_delete_module	sys_sparc32.c
 sys_fadvise64_64	sys_sparc32.c
 sys_fallocate	sys_sparc32.c
 sys_ftruncate	sys_sparc32.c
 sys_getdomainname	sys_sparc_32.c
 sys_getdomainname	systbls.h
 sys_getpagesize	sys_sparc_32.c
 sys_getpagesize	sys_sparc_64.c
 sys_getpagesize	systbls.h
 sys_init_module	sys_sparc32.c
 sys_kern_features	sys_sparc_64.c
 sys_lookup_dcookie	sys_sparc32.c
 sys_mmap_pgoff	sys_sparc_32.c
 sys_mremap	sys_sparc_64.c
 sys_msgget	sys_sparc32.c
 sys_pread64	sys_sparc32.c
 sys_pwrite64	sys_sparc32.c
 sys_readahead	sys_sparc32.c
 sys_semget	sys_sparc32.c
 sys_semtimedop	sys_sparc32.c
 sys_shmdt	sys_sparc32.c
 sys_shmget	sys_sparc32.c
 sys_sigpause	signal_64.c
 sys_sigpause	systbls.h
 sys_sigsuspend	signal_32.c
 sys_sigsuspend	signal_64.c
 sys_sigsuspend	systbls.h
 sys_sysfs	sys_sparc32.c
 sys_truncate	sys_sparc32.c
 syscall_trace	ptrace_32.c
 syscall_trace_enter	entry.h
 syscall_trace_enter	ptrace_64.c
 syscall_trace_leave	entry.h
 syscall_trace_leave	ptrace_64.c
 sysfs_create_group	sysfs.c
 sysio_ce_handler	sbus.c
 sysio_imap_to_iclr	prom_irqtrans.c
 sysio_imap_to_iclr	sbus.c
 sysio_register_error_handlers	sbus.c
 sysio_sbus_error_handler	sbus.c
 sysio_ue_handler	sbus.c
 sysrq_handle_globpmu	process_64.c
 sysrq_handle_globreg	process_64.c
 tag_compare	tsb.c
 task_pt_regs	processor.h
 task_pt_regs	processor_32.h
 task_thread_info	process_32.c
 test_and_change_bit	bitops_32.h
 test_and_clear_bit	bitops_32.h
 test_and_set_bit	bitops_32.h
 test_thread_flag	compat.h
 thread_info_offsets_are_bolixed_dave	traps_64.c
 thread_info_offsets_are_bolixed_pete	traps_32.c
 thread_saved_pc	process_32.c
 thread_saved_pc	process_64.c
 thread_saved_pc	processor.h
 thread_saved_pc	processor_32.h
 tick_add_compare	time_64.c
 tick_add_tick	time_64.c
 tick_disable_irq	time_64.c
 tick_disable_protection	time_64.c
 tick_get_tick	time_64.c
 tick_init_tick	time_64.c
 time	perf_event.c
 time_init	time_32.c
 time_init	time_64.c
 timer_cs_read	time_32.c
 timer_interrupt	entry.h
 timer_interrupt	time_32.c
 timer_interrupt	time_64.c
 tlb_end_vma	tlb.h
 tlb_end_vma	tlb_32.h
 tlb_end_vma	tlb_64.h
 tlb_flush	tlb.h
 tlb_flush	tlb_32.h
 tlb_flush	tlb_64.h
 tlb_init	setup.h
 tlb_init	setup.h
 tlb_init	tlb-score.c
 tlb_load	misc_64.c
 tlb_load	misc_64.c
 tlb_probe	tlbflush.h
 tlb_read	tlbflush.h
 tlb_start_vma	tlb.h
 tlb_start_vma	tlb_32.h
 tlb_start_vma	tlb_64.h
 tlb_write_indexed	tlbflush.h
 tlb_write_random	tlbflush.h
 tlblock_get	tlbflush.h
 tlblock_set	tlbflush.h
 tlbpt_get	tlbflush.h
 tlbpt_set	tlbflush.h
 tomatillo_irq_trans_init	prom_irqtrans.c
 tomatillo_register_error_handlers	pci_schizo.c
 tomatillo_wsync_handler	prom_irqtrans.c
 topology_core_cpumask	topology_64.h
 topology_core_id	topology_64.h
 topology_init	setup_32.c
 topology_init	sysfs.c
 topology_physical_package_id	topology_64.h
 topology_thread_cpumask	topology_64.h
 touch_nmi_watchdog	nmi.c
 trampoline_probe_handler	kprobes.c
 trap_init	traps_32.c
 trap_init	traps_64.c
 trap_per_cpu_offsets_are_bolixed_dave	traps_64.c
 trim_init_extable	extable.c
 try_to_clear_window_buffer	windows.c
 tsb_config_offsets_are_bolixed_dave	traps_64.c
 tsb_context_switch	tsb.c
 tsb_destroy_one	tsb.c
 tsb_flush	mmu_64.h
 tsb_grow	tsb.c
 tsb_grow	tsb.c
 tsb_hash	tsb.c
 tsb_init	mmu_64.h
 tsb_size_to_rss_limit	tsb.c
 tsb_sync	smp_64.c
 tsk_is_polling	thread_info_32.h
 tsu_clockstop	tadpole.c
 tsunami_flush_cache_all	srmmu.c
 tsunami_flush_cache_mm	srmmu.c
 tsunami_flush_cache_page	srmmu.c
 tsunami_flush_cache_range	srmmu.c
 tsunami_flush_page_for_dma	srmmu.c
 tsunami_flush_page_to_ram	srmmu.c
 tsunami_flush_sig_insns	srmmu.c
 tsunami_flush_tlb_all	srmmu.c
 tsunami_flush_tlb_mm	srmmu.c
 tsunami_flush_tlb_page	srmmu.c
 tsunami_flush_tlb_range	srmmu.c
 tsunami_setup_blockops	srmmu.c
 turbosparc_flush_cache_all	srmmu.c
 turbosparc_flush_cache_mm	srmmu.c
 turbosparc_flush_cache_page	srmmu.c
 turbosparc_flush_cache_range	srmmu.c
 turbosparc_flush_dcache	turbosparc.h
 turbosparc_flush_icache	turbosparc.h
 turbosparc_flush_page_for_dma	srmmu.c
 turbosparc_flush_page_to_ram	srmmu.c
 turbosparc_flush_sig_insns	srmmu.c
 turbosparc_flush_tlb_all	srmmu.c
 turbosparc_flush_tlb_mm	srmmu.c
 turbosparc_flush_tlb_page	srmmu.c
 turbosparc_flush_tlb_range	srmmu.c
 turbosparc_get_ccreg	turbosparc.h
 turbosparc_idflash_clear	turbosparc.h
 turbosparc_inv_data_tag	turbosparc.h
 turbosparc_inv_insn_tag	turbosparc.h
 turbosparc_set_ccreg	turbosparc.h
 tx_advance	ldc.c
 tx_has_space_for	ldc.c
 udelay	delay.h
 udelay	delay.h
 udelay	time_64.c
 udiv_qrnnd	sfp-util_32.h
 udiv_qrnnd	sfp-util_64.h
 umul_ppmm	sfp-util_32.h
 umul_ppmm	sfp-util_64.h
 unaligned_panic	unaligned_32.c
 unaligned_panic	unaligned_64.c
 unexpected_irq	kernel.h
 unregister_cpu_online	sysfs.c
 unregister_dimm_printer	traps_64.c
 unregister_mmu_stats	sysfs.c
 unregister_perf_hsvc	pcr.c
 up_read	fault_32.c
 up_read	fault_64.c
 upa_path_component	prom_64.c
 upa_readb	upa.h
 upa_readl	starfire.c
 upa_readl	upa.h
 upa_readq	upa.h
 upa_readw	upa.h
 upa_writeb	upa.h
 upa_writel	upa.h
 upa_writeq	upa.h
 upa_writew	upa.h
 update_pcrs_for_enable	perf_event.c
 update_persistent_clock	time_32.c
 update_persistent_clock	time_64.c
 us2e_freq_cpu_exit	us2e_cpufreq.c
 us2e_freq_cpu_init	us2e_cpufreq.c
 us2e_freq_exit	us2e_cpufreq.c
 us2e_freq_get	us2e_cpufreq.c
 us2e_freq_init	us2e_cpufreq.c
 us2e_freq_verify	us2e_cpufreq.c
 us2e_set_cpu_divider_index	us2e_cpufreq.c
 us3_freq_cpu_exit	us3_cpufreq.c
 us3_freq_cpu_init	us3_cpufreq.c
 us3_freq_exit	us3_cpufreq.c
 us3_freq_get	us3_cpufreq.c
 us3_freq_init	us3_cpufreq.c
 us3_freq_verify	us3_cpufreq.c
 us3_set_cpu_divider_index	us3_cpufreq.c
 us3mc_cleanup	chmc.c
 us3mc_init	chmc.c
 us3mc_platform	chmc.c
 us3mc_probe	chmc.c
 us3mc_remove	chmc.c
 usb_path_component	prom_64.c
 use_1to1_mapping	of_device_32.c
 use_1to1_mapping	of_device_64.c
 use_1to1_mapping	of_device_common.c
 user_instruction_dump	traps_64.c
 user_mna_trap_fault	unaligned_32.c
 user_mode	ptrace.h
 user_mode	ptrace.h
 user_stack_pointer	ptrace.h
 user_stack_pointer	ptrace.h
 user_unaligned_trap	unaligned_32.c
 vdev_path_component	prom_64.c
 viking_flush_cache_all	srmmu.c
 viking_flush_cache_mm	srmmu.c
 viking_flush_cache_page	srmmu.c
 viking_flush_page	srmmu.c
 viking_flush_page_for_dma	srmmu.c
 viking_flush_page_to_ram	srmmu.c
 viking_flush_sig_insns	srmmu.c
 viking_flush_tlb_all	srmmu.c
 viking_flush_tlb_mm	srmmu.c
 viking_mxcc_flush_page	srmmu.c
 vio_add	vio.c
 vio_add_ds	vio.c
 vio_bus_match	vio.c
 vio_conn_reset	viohs.c
 vio_control_pkt_engine	viohs.c
 vio_dev_release	vio.c
 vio_device_probe	vio.c
 vio_device_remove	vio.c
 vio_init	vio.c
 vio_ldc_free	viohs.c
 vio_ldc_send	viohs.c
 vio_ldc_send	viohs.c
 vio_link_state_change	viohs.c
 vio_match_device	vio.c
 vio_md_node_match	vio.c
 vio_port_timer	viohs.c
 vio_port_up	viohs.c
 vio_register_driver	ds.c
 vio_remove	vio.c
 vio_send_sid	viohs.c
 vio_unregister_driver	vio.c
 vio_validate_sid	viohs.c
 virt_addr_valid	page.h
 virt_addr_valid	page_32.h
 virt_to_fix	fixmap.h
 virt_to_page	page.h
 virt_to_page	page_32.h
 virt_to_pfn	page.h
 virtual_dma_init	floppy_32.h
 vis_emul	visemul.c
 vm_munmap	sys_sparc_64.c
 vm_unmapped_area	sys_sparc_32.c
 vmalloc	fixmap.h
 vmalloc	module.c
 vmalloc	tsb.c
 watchdog_reset	pcic.c
 window_overflow_fault	fault_32.c
 window_ret_fault	fault_32.c
 window_underflow_fault	fault_32.c
 wmb	barrier.h
 write_hbreg	us2e_cpufreq.c
 write_mmustat_enable	sysfs.c
 write_nonraw	ldc.c
 write_raw	ldc.c
 write_safari_cfg	us3_cpufreq.c
 writeb	io_32.h
 writeb	io_64.h
 writel	io_32.h
 writel	io_64.h
 writeq	io_64.h
 writew	io_32.h
 writew	io_64.h
 xc0	smp_32.h
 xc1	smp_32.h
 xc2	smp_32.h
 xcall_deliver	smp_64.c
 xchg	cmpxchg.h
 xchg	cmpxchg.h
 xchg	cmpxchg_64.h
 xchg	cmpxchg_64.h
 xchg32	cmpxchg_64.h
 xchg32	cmpxchg_64.h
 xchg64	cmpxchg_64.h
 xchg64	cmpxchg_64.h
 xlate_dev_kmem_ptr	io_32.h
 xlate_dev_kmem_ptr	io_64.h
 xlate_dev_mem_ptr	io_32.h
 xlate_dev_mem_ptr	io_64.h
 xor_niagara_2	ksyms.c
 xor_vis_2	ksyms.c
 xres_free	ioport.c
