 ATOMIC_INIT	atomic.h
 ATOMIC_INIT	atomic.h
 ATOMIC_INIT	atomic.h
 Assert	misc.c
 Assert	misc.c
 Assert	misc.c
 Assert	misc.c
 CARRY	checksum.c
 CMOS_READ	mc146818rtc.h
 CMOS_READ	rtc.h
 CMOS_READ	rtc.h
 CMOS_WRITE	mc146818rtc.h
 CMOS_WRITE	rtc.h
 CMOS_WRITE	rtc.h
 CODEC_VAL	sync_serial.h
 DCACHE_CLEAR	dcache_clear.h
 DCACHE_CLEAR	dcache_clear.h
 DEBUGP	module.c
 DEBUGP	module.c
 DECLARE_EXPORT	hexagon_ksyms.c
 DEFINE_PER_CPU	smp.c
 DEFINE_PER_CPU	smp.c
 DEFINE_PER_CPU	time.c
 DEFINE_PER_CPU	time.c
 DEFINE_PER_CPU	topology.c
 DISABLE_INTERRUPTS	assembler.h
 DISABLE_INTERRUPTS	assembler.h
 Device	m32104ut_pld.h
 Device	m32700ut_pld.h
 Device	opsput_pld.h
 Dprintk	smpboot.c
 Dprintk	smpboot.c
 ENABLE_INTERRUPTS	assembler.h
 ENABLE_INTERRUPTS	assembler.h
 ENTRY	assembler.h
 GET_CURRENT	assembler.h
 GET_FRAME_RATE	sync_serial.h
 GET_FREQ	sync_serial.h
 GET_SPEED	sync_serial.h
 GET_WORD_RATE	sync_serial.h
 I2C_ARGREG	etraxi2c.h
 I2C_ARGSLAVE	etraxi2c.h
 I2C_ARGVALUE	etraxi2c.h
 I2C_READARG	etraxi2c.h
 I2C_WRITEARG	etraxi2c.h
 INEXT	ptrace.c
 INEXT	ptrace.c
 INIT_THREAD_INFO	thread_info.h
 INIT_THREAD_INFO	thread_info.h
 IO_BITNR	sv_addr_ag.h
 IO_BITNR_	sv_addr_ag.h
 IO_CFG_WRITE_MODE_VALUE	etraxgpio.h
 IO_EXTRACT	sv_addr_ag.h
 IO_EXTRACT_	sv_addr_ag.h
 IO_FIELD	sv_addr_ag.h
 IO_FIELD_	sv_addr_ag.h
 IO_MASK	sv_addr_ag.h
 IO_MASK_	sv_addr_ag.h
 IO_RD	sv_addr_ag.h
 IO_RD_B	sv_addr_ag.h
 IO_RD_D	sv_addr_ag.h
 IO_RD_W	sv_addr_ag.h
 IO_STATE	sv_addr_ag.h
 IO_STATE_	sv_addr_ag.h
 IO_STATE_VALUE	sv_addr_ag.h
 IO_STATE_VALUE_	sv_addr_ag.h
 IO_WIDTH	sv_addr_ag.h
 IO_WIDTH_	sv_addr_ag.h
 IS_KSEG1	ioremap-nommu.c
 IS_LOW512	ioremap-nommu.c
 KSEG0ADDR	addrspace.h
 KSEG0ADDR	addrspace.h
 KSEG1ADDR	addrspace.h
 KSEG1ADDR	addrspace.h
 KSEG2ADDR	addrspace.h
 KSEG2ADDR	addrspace.h
 KSEG3ADDR	addrspace.h
 KSEG3ADDR	addrspace.h
 KSEGX	addrspace.h
 KSEGX	addrspace.h
 KSTK_ESP	processor.h
 KSTK_ESP	processor.h
 KSTK_ESP	processor.h
 LDIMM	assembler.h
 LOCAL_INIT	local.h
 M32700	assembler.h
 M32700	assembler.h
 M32700UT_LAN_ICUISTS_ISN	m32700ut_lan.h
 M32700UT_LAN_VECB	m32700ut_lan.h
 M32700UT_LCD_ICUISTS_ISN	m32700ut_lcd.h
 M32700UT_LCD_VECB	m32700ut_lcd.h
 M32R_ICUISTS_ISN	m32r_mp_fpga.h
 M32R_ICUISTS_PIML	m32r_mp_fpga.h
 M32R_ICUISTS_VECB	m32r_mp_fpga.h
 MAX_LOW_PFN	discontig.c
 NODE_DATA	mmzone.h
 OF	misc.c
 OF	misc.c
 ONEXT	ptrace.c
 ONEXT	ptrace.c
 OPSPUT_LAN_ICUISTS_ISN	opsput_lan.h
 OPSPUT_LAN_VECB	opsput_lan.h
 OPSPUT_LCD_ICUISTS_ISN	opsput_lcd.h
 OPSPUT_LCD_VECB	opsput_lcd.h
 PCI_SPACE	io.h
 PCI_SPACE	io.h
 PCI_SPACE	io.h
 PCI_SPACE	io.h
 PCI_SPACE	io.h
 PCI_SPACE	io.h
 PHYSADDR	addrspace.h
 PHYSADDR	addrspace.h
 PKMAP_ADDR	mem-layout.h
 PKMAP_NR	mem-layout.h
 PLD_ICUISTS_ISN	m32104ut_pld.h
 PLD_ICUISTS_ISN	m32700ut_pld.h
 PLD_ICUISTS_ISN	opsput_pld.h
 PLD_ICUISTS_VECB	m32104ut_pld.h
 PLD_ICUISTS_VECB	m32700ut_pld.h
 PLD_ICUISTS_VECB	opsput_pld.h
 PRINT_CLOCK	smpboot.c
 REG1	align.c
 REG2	align.c
 RESET_DMA	svinto.h
 RESET_DMA_NUM	svinto.h
 RTC_INIT	rtc.h
 RTC_INIT	rtc.h
 RTC_PORT	mc146818rtc.h
 Register	s1d13806.h
 Register	s1d13806.h
 Register	s1d13806.h
 SELECT	checksum.c
 SEROUT	misc.c
 SEROUT	misc.c
 SEROUT	misc.c
 SEROUT	misc.c
 SET_PERSONALITY	elf.h
 SET_PERSONALITY	elf.h
 SET_PERSONALITY	elf.h
 SIGN	checksum.c
 START_PFN	discontig.c
 STRINGIFY	build.c
 Trace	misc.c
 Trace	misc.c
 Trace	misc.c
 Trace	misc.c
 Tracec	misc.c
 Tracec	misc.c
 Tracec	misc.c
 Tracec	misc.c
 Tracecv	misc.c
 Tracecv	misc.c
 Tracecv	misc.c
 Tracecv	misc.c
 Tracev	misc.c
 Tracev	misc.c
 Tracev	misc.c
 Tracev	misc.c
 Tracevv	misc.c
 Tracevv	misc.c
 Tracevv	misc.c
 Tracevv	misc.c
 VALID_PAGE	page.h
 VALID_PAGE	page.h
 VALID_PAGE	page.h
 VGA_MAP_MEM	vga.h
 VR_CARRY	checksum.c
 VR_NEGATE	checksum.c
 VR_SELECT	checksum.c
 WAIT_DMA	svinto.h
 WAIT_DMA_NUM	svinto.h
 ZERO_PAGE	pgtable.h
 ZERO_PAGE	pgtable.h
 _IOR	sync_serial.h
 _IOR	sync_serial.h
 _K_VM_event_vector	hexagon_vm.h
 __HVM_PTE_CVAL	vm_mmu.h
 __STR	assembler.h
 __STR	assembler.h
 __SYSCALL	syscalltab.c
 __access_ok	uaccess.h
 __access_ok	uaccess.h
 __alloc_pages	discontig.c
 __alloc_zeroed_user_highpage	page.h
 __alloc_zeroed_user_highpage	page.h
 __alloc_zeroed_user_highpage	page.h
 __ashldi3	m32r_ksyms.c
 __ashrdi3	m32r_ksyms.c
 __atomic_add_unless	atomic.h
 __atomic_add_unless	atomic.h
 __atomic_add_unless	atomic.h
 __clear_user	uaccess.h
 __clear_user	uaccess.h
 __clear_user_hexagon	uaccess.c
 __clear_user_hexagon	uaccess.c
 __clear_user_hexagon	uaccess.h
 __clear_user_hexagon	uaccess.h
 __const_udelay	delay.c
 __copy_from_user	uaccess.h
 __copy_from_user	uaccess.h
 __copy_to_user	uaccess.h
 __copy_to_user	uaccess.h
 __cpu_up	smp.c
 __cpu_up	smp.c
 __cpu_up	smpboot.c
 __delay	delay.c
 __do_clear_user	usercopy.c
 __do_clear_user	usercopy.c
 __do_strncpy_from_user	usercopy.c
 __do_strncpy_from_user	usercopy.c
 __fix_to_virt	fixmap.h
 __flush_tlb_all	tlbflush.h
 __flush_tlb_all	tlbflush.h
 __flush_tlb_all	tlbflush.h
 __flush_tlb_mm	tlbflush.h
 __flush_tlb_mm	tlbflush.h
 __flush_tlb_mm	tlbflush.h
 __ioremap	io.h
 __ioremap	io.h
 __ioremap	io.h
 __iounmap	ioremap.c
 __iounmap	ioremap.c
 __kgdb_notify	kgdb.c
 __local_add	local.h
 __local_dec	local.h
 __local_inc	local.h
 __local_sub	local.h
 __lshldi3	m32r_ksyms.c
 __lshrdi3	m32r_ksyms.c
 __muldi3	m32r_ksyms.c
 __ndelay	delay.c
 __pa	io.h
 __pa	io.h
 __pa	io.h
 __pgd	page.h
 __pgd	page.h
 __pgd	page.h
 __pgprot	page.h
 __pgprot	page.h
 __pgprot	page.h
 __pgprot	pgtable.h
 __pgprot	pgtable.h
 __pgprot	pgtable.h
 __pgprot	pgtable.h
 __pte	page.h
 __pte	page.h
 __pte	page.h
 __pte_free_tlb	pgalloc.h
 __pte_free_tlb	pgalloc.h
 __pte_offset	pgtable.h
 __pte_offset	pgtable.h
 __pte_to_swp_entry	pgtable.h
 __pte_to_swp_entry	pgtable.h
 __raw_readsl	io.c
 __raw_readsl	io.c
 __raw_readsl	io.c
 __raw_readsl	io.c
 __raw_readsl	io.c
 __raw_readsl	io.c
 __raw_readsl	io.c
 __raw_readsl	io.c
 __raw_readsl	io.c
 __raw_readsw	io.c
 __raw_readsw	io.c
 __raw_readsw	io.c
 __raw_readsw	io.c
 __raw_readsw	io.c
 __raw_readsw	io.c
 __raw_readsw	io.c
 __raw_readsw	io.c
 __raw_readsw	io.c
 __raw_writesl	io.c
 __raw_writesl	io.c
 __raw_writesl	io.c
 __raw_writesl	io.c
 __raw_writesl	io.c
 __raw_writesl	io.c
 __raw_writesl	io.c
 __raw_writesl	io.c
 __raw_writesl	io.c
 __raw_writesw	io.c
 __raw_writesw	io.c
 __raw_writesw	io.c
 __raw_writesw	io.c
 __raw_writesw	io.c
 __raw_writesw	io.c
 __raw_writesw	io.c
 __raw_writesw	io.c
 __raw_writesw	io.c
 __set_bit	bitops.h
 __set_bit	bitops.h
 __set_bit	bitops.h
 __stringify	module.h
 __strncpy_from_user	uaccess.h
 __strncpy_from_user	uaccess.h
 __strnlen_user	uaccess.h
 __strnlen_user	uaccess.h
 __swp_entry	pgtable.h
 __swp_entry	pgtable.h
 __swp_entry_to_pte	pgtable.h
 __swp_entry_to_pte	pgtable.h
 __swp_offset	pgtable.h
 __swp_offset	pgtable.h
 __swp_type	pgtable.h
 __swp_type	pgtable.h
 __this_fixmap_does_not_exist	fixmap.h
 __tlb_remove_tlb_entry	tlb.h
 __tlb_remove_tlb_entry	tlb.h
 __udelay	delay.c
 __udelay	delay.h
 __udelay	delay.h
 __udelay	time.c
 __udelay	time.c
 __va	io.h
 __va	io.h
 __va	io.h
 __val	boot.h
 __val	boot.h
 __virt_to_fix	fixmap.h
 __vmcache	hexagon_vm.h
 __vmcache	hexagon_vm.h
 __vmcache	hexagon_vm.h
 __vmcache	hexagon_vm.h
 __vmcache	hexagon_vm.h
 __vmcache	hexagon_vm.h
 __vmcache	hexagon_vm.h
 __vmcache	hexagon_vm.h
 __vmcache_dccleaninva	hexagon_vm.h
 __vmcache_dckill	hexagon_vm.h
 __vmcache_fetch_cfg	hexagon_vm.h
 __vmcache_icinva	hexagon_vm.h
 __vmcache_ickill	hexagon_vm.h
 __vmcache_l2kill	hexagon_vm.h
 __vmclrmap	hexagon_vm.h
 __vmgetie	hexagon_vm.h
 __vmgettime	hexagon_vm.h
 __vmintop	hexagon_vm.h
 __vmintop	hexagon_vm.h
 __vmintop	hexagon_vm.h
 __vmintop	hexagon_vm.h
 __vmintop	hexagon_vm.h
 __vmintop	hexagon_vm.h
 __vmintop	hexagon_vm.h
 __vmintop	hexagon_vm.h
 __vmintop	hexagon_vm.h
 __vmintop	hexagon_vm.h
 __vmintop	hexagon_vm.h
 __vmintop	hexagon_vm.h
 __vmintop_affinity	hexagon_vm.h
 __vmintop_clear	hexagon_vm.h
 __vmintop_get	hexagon_vm.h
 __vmintop_globdis	hexagon_vm.h
 __vmintop_globen	hexagon_vm.h
 __vmintop_locdis	hexagon_vm.h
 __vmintop_locen	hexagon_vm.h
 __vmintop_nop	hexagon_vm.h
 __vmintop_peek	hexagon_vm.h
 __vmintop_post	hexagon_vm.h
 __vmintop_status	hexagon_vm.h
 __vmnewmap	hexagon_vm.h
 __vmrte	hexagon_vm.h
 __vmsetie	hexagon_vm.h
 __vmsettime	hexagon_vm.h
 __vmsetvec	hexagon_vm.h
 __vmstart	hexagon_vm.h
 __vmstop	hexagon_vm.h
 __vmvpid	hexagon_vm.h
 __vmwait	hexagon_vm.h
 __vmyield	hexagon_vm.h
 activate_mm	mmu_context.h
 activate_mm	mmu_context.h
 aputs	misc.c
 aputs	misc.c
 aputs	misc.c
 aputs	misc.c
 arch_align_stack	exec.h
 arch_do_IRQ	vm_events.c
 arch_kgdb_breakpoint	kgdb.h
 arch_prepare_suspend	suspend.h
 arch_read_can_lock	spinlock.h
 arch_read_can_lock	spinlock.h
 arch_read_lock	spinlock.h
 arch_read_lock	spinlock.h
 arch_read_lock_flags	spinlock.h
 arch_read_lock_flags	spinlock.h
 arch_read_trylock	spinlock.h
 arch_read_trylock	spinlock.h
 arch_read_unlock	spinlock.h
 arch_read_unlock	spinlock.h
 arch_send_call_function_ipi_mask	smp.c
 arch_send_call_function_ipi_mask	smp.c
 arch_send_call_function_single_ipi	smp.c
 arch_send_call_function_single_ipi	smp.c
 arch_setup_additional_pages	vdso.c
 arch_spin_is_locked	spinlock.h
 arch_spin_is_locked	spinlock.h
 arch_spin_lock	spinlock.h
 arch_spin_lock	spinlock.h
 arch_spin_lock_flags	spinlock.h
 arch_spin_lock_flags	spinlock.h
 arch_spin_trylock	spinlock.h
 arch_spin_trylock	spinlock.h
 arch_spin_unlock	spinlock.h
 arch_spin_unlock	spinlock.h
 arch_spin_unlock_wait	spinlock.h
 arch_spin_unlock_wait	spinlock.h
 arch_write_can_lock	spinlock.h
 arch_write_can_lock	spinlock.h
 arch_write_lock	spinlock.h
 arch_write_lock	spinlock.h
 arch_write_lock_flags	spinlock.h
 arch_write_lock_flags	spinlock.h
 arch_write_trylock	spinlock.h
 arch_write_trylock	spinlock.h
 arch_write_unlock	spinlock.h
 arch_write_unlock	spinlock.h
 asm	stacktrace.c
 asm	thread_info.h
 asm	thread_info.h
 atomic_add	atomic.h
 atomic_add	atomic.h
 atomic_add	atomic.h
 atomic_add_negative	atomic.h
 atomic_add_negative	atomic.h
 atomic_add_negative	atomic.h
 atomic_add_return	atomic.h
 atomic_add_return	atomic.h
 atomic_add_return	atomic.h
 atomic_cmpxchg	atomic.h
 atomic_cmpxchg	atomic.h
 atomic_cmpxchg	atomic.h
 atomic_dec	atomic.h
 atomic_dec	atomic.h
 atomic_dec	atomic.h
 atomic_dec_and_test	atomic.h
 atomic_dec_and_test	atomic.h
 atomic_dec_and_test	atomic.h
 atomic_dec_return	atomic.h
 atomic_dec_return	atomic.h
 atomic_dec_return	atomic.h
 atomic_inc	atomic.h
 atomic_inc	atomic.h
 atomic_inc	atomic.h
 atomic_inc_and_test	atomic.h
 atomic_inc_and_test	atomic.h
 atomic_inc_and_test	atomic.h
 atomic_inc_return	atomic.h
 atomic_inc_return	atomic.h
 atomic_inc_return	atomic.h
 atomic_read	atomic.h
 atomic_read	atomic.h
 atomic_read	atomic.h
 atomic_set	atomic.h
 atomic_set	atomic.h
 atomic_set	atomic.h
 atomic_sub	atomic.h
 atomic_sub	atomic.h
 atomic_sub	atomic.h
 atomic_sub_and_test	atomic.h
 atomic_sub_and_test	atomic.h
 atomic_sub_and_test	atomic.h
 atomic_sub_return	atomic.h
 atomic_sub_return	atomic.h
 atomic_sub_return	atomic.h
 atomic_xchg	atomic.h
 atomic_xchg	atomic.h
 atomic_xchg	atomic.h
 atomic_xchg	mutex.h
 atomic_xchg	mutex.h
 barrier	barrier.h
 barrier	barrier.h
 barrier	barrier.h
 broadcast	time.c
 broadcast	time.c
 c_start	setup.c
 c_start	setup.c
 c_start	setup.c
 c_start	setup.c
 c_start	setup.c
 c_start	setup.c
 c_start	setup.c
 c_start	setup.c
 c_start	setup.c
 c_start	setup.c
 c_stop	setup.c
 c_stop	setup.c
 c_stop	setup.c
 c_stop	setup.c
 c_stop	setup.c
 c_stop	setup.c
 c_stop	setup.c
 c_stop	setup.c
 c_stop	setup.c
 c_stop	setup.c
 cache_error	traps.c
 cache_error	traps.c
 cachectl	cachectl.h
 calibrate_delay	setup.c
 calibrate_delay	setup.c
 calibrate_delay	setup.c
 calibrate_delay	setup.c
 calibrate_delay	setup.c
 calibrate_delay	setup.c
 calibrate_delay	setup.c
 calibrate_delay	setup.c
 calibrate_delay	setup.c
 calibrate_delay	setup.c
 change_bit	bitops.h
 change_bit	bitops.h
 change_bit	bitops.h
 check_bugs	bugs.h
 check_bugs	bugs.h
 check_bugs	bugs.h
 check_bugs	bugs.h
 check_pgt_cache	pgalloc.h
 check_pgt_cache	pgalloc.h
 clear_bit	bitops.h
 clear_bit	bitops.h
 clear_bit	bitops.h
 clear_page	page.h
 clear_page	page.h
 clear_page	page.h
 clear_user	uaccess.c
 clear_user_hexagon	uaccess.c
 clear_user_page	page.h
 clear_user_page	page.h
 clear_user_page	page.h
 cmpxchg	cmpxchg.h
 cmpxchg	cmpxchg.h
 copy_page	page.h
 copy_page	page.h
 copy_page	page.h
 copy_user_page	page.h
 copy_user_page	page.h
 copy_user_page	page.h
 cpu_idle	process.c
 cpu_idle	process.c
 cpu_relax	processor.h
 cpu_relax	processor.h
 cpu_relax	processor.h
 csum_fold	checksum.h
 csum_fold	checksum.h
 csum_fold	checksum.h
 csum_fold	checksum.h
 csum_fold	checksum.h
 csum_fold	checksum.h
 csum_fold	checksum.h
 csum_fold	checksum.h
 csum_fold	checksum.h
 csum_partial	checksum.c
 csum_partial	checksum.h
 csum_partial	checksum.h
 csum_partial	checksum.h
 csum_partial	csum_partial_copy.c
 current_regs	processor.h
 current_regs	processor.h
 current_regs	processor.h
 current_thread_info	current.h
 current_thread_info	current.h
 current_thread_info	thread_info.h
 current_thread_info	thread_info.h
 dbg_set_reg	kgdb.c
 decompress_kernel	misc.c
 decompress_kernel	misc.c
 default_idle	process.c
 default_idle	process.c
 default_idle	processor.h
 default_idle	processor.h
 default_idle	processor.h
 defined	assembler.h
 defined	assembler.h
 defined	assembler.h
 defined	assembler.h
 defined	delay.c
 defined	delay.c
 defined	m32104ut_pld.h
 defined	m32700ut_pld.h
 defined	m32r.h
 defined	m32r.h
 defined	m32r.h
 defined	m32r.h
 defined	m32r.h
 defined	m32r.h
 defined	m32r.h
 defined	m32r.h
 defined	m32r_sio.c
 defined	m32r_sio.c
 defined	m32r_sio.c
 defined	misc.c
 defined	misc.c
 defined	misc.c
 defined	misc.c
 defined	s1d13806.h
 defined	s1d13806.h
 defined	s1d13806.h
 defined	s1d13806.h
 defined	s1d13806.h
 defined	unaligned.h
 defined	vm_mmu.h
 del_fast_timer	fasttimer.h
 destroy_context	mmu_context.h
 destroy_context	mmu_context.h
 die	build.c
 die	fault-nommu.c
 die	fault.c
 die	traps.c
 die	traps.c
 die	traps.c
 die	traps.c
 die	traps.h
 die_if_kernel	traps.c
 die_if_kernel	traps.c
 die_if_kernel	traps.h
 disable_hlt	processor.h
 disable_hlt	processor.h
 disable_hlt	processor.h
 dma_alloc_coherent	dma-mapping.h
 dma_alloc_noncoherent	dma-mapping.h
 dma_capable	dma-mapping.h
 dma_free_coherent	dma-mapping.h
 dma_free_noncoherent	dma-mapping.h
 dma_is_consistent	dma-mapping.h
 dma_mapping_error	dma-mapping.h
 dma_set_mask	dma-mapping.h
 dma_set_mask	dma.c
 dma_supported	dma-mapping.h
 dma_supported	dma.c
 do_BUG	fault-nommu.c
 do_IRQ	irq.c
 do_boot_cpu	smpboot.c
 do_boot_cpu	smpboot.c
 do_csum	checksum.c
 do_genex	traps.c
 do_genex	traps.c
 do_machcheck	traps.c
 do_machcheck	traps.c
 do_notify_resume	signal.c
 do_notify_resume	signal.c
 do_page_fault	vm_fault.c
 do_sigaltstack	signal.c
 do_sigaltstack	signal.c
 do_signal	signal.c
 do_signal	signal.c
 do_signal	thread_info.h
 do_signal	thread_info.h
 do_trap0	traps.c
 do_trap0	traps.c
 ds1302_init	rtc.h
 ds1302_readreg	rtc.h
 ds1302_writereg	rtc.h
 dummy_handler	vm_events.c
 dump_fpu	process.c
 dump_fpu	process.c
 dump_stack	traps.c
 dump_stack	traps.c
 early_mem	init.c
 early_mem	init.c
 early_mem	init.c
 emu_add	align.c
 emu_addi	align.c
 emu_addx	align.c
 emu_and	align.c
 emu_cmp	align.c
 emu_cmpeq	align.c
 emu_cmpu	align.c
 emu_cmpz	align.c
 emu_ld	align.c
 emu_ldi	align.c
 emu_m32r2	align.c
 emu_mul	align.c
 emu_mullo_a0	align.c
 emu_mullo_a1	align.c
 emu_mv	align.c
 emu_mvfacmi_a0	align.c
 emu_mvfacmi_a1	align.c
 emu_neg	align.c
 emu_not	align.c
 emu_or	align.c
 emu_st	align.c
 emu_sub	align.c
 emu_subx	align.c
 emu_xor	align.c
 enable_hlt	processor.h
 enable_hlt	processor.h
 enable_hlt	processor.h
 eoi_irq	irq_cpu.c
 error	misc.c
 error	misc.c
 error	misc.c
 error	misc.c
 execute_protection_fault	vm_fault.c
 execute_protection_fault	vm_fault.h
 exit_thread	process.c
 exit_thread	process.c
 fast_timer_function_type	fasttimer.h
 fast_timer_init	fasttimer.h
 fb_is_primary_device	fb.h
 fix_to_virt	fixmap.h
 fixup_exception	extable.c
 flat_get_addr_from_rp	flat.h
 flat_put_addr_at_rp	flat.h
 fluch_cache_all	cachectl.h
 flush_cache_all_hexagon	cache.c
 flush_cache_all_hexagon	cache.c
 flush_cache_all_hexagon	cacheflush.h
 flush_cache_all_hexagon	cacheflush.h
 flush_dcache_range	cache.c
 flush_dcache_range	cache.c
 flush_dcache_range	cacheflush.h
 flush_dcache_range	cacheflush.h
 flush_etrax_cache	svinto.h
 flush_icache_range	cache.c
 flush_icache_range	cache.c
 flush_icache_range	cacheflush.h
 flush_icache_range	cacheflush.h
 flush_thread	process.c
 flush_thread	process.c
 flush_tlb	tlbflush.h
 flush_tlb	tlbflush.h
 flush_tlb	tlbflush.h
 flush_tlb_all	tlbflush.h
 flush_tlb_all	tlbflush.h
 flush_tlb_all	tlbflush.h
 flush_tlb_kernel_range	tlbflush.h
 flush_tlb_kernel_range	tlbflush.h
 flush_tlb_kernel_range	tlbflush.h
 flush_tlb_kernel_range	vm_tlb.c
 flush_tlb_mm	tlbflush.h
 flush_tlb_mm	tlbflush.h
 flush_tlb_mm	tlbflush.h
 flush_tlb_mm	vm_tlb.c
 flush_tlb_one	vm_tlb.c
 flush_tlb_page	vm_tlb.c
 flush_tlb_range	tlbflush.h
 flush_tlb_range	tlbflush.h
 flush_tlb_range	tlbflush.h
 flush_window	misc.c
 flush_window	misc.c
 flush_window	misc.c
 flush_window	misc.c
 free_area_init	init.c
 free_area_init	init.c
 free_area_init	init.c
 free_initmem	init.c
 free_initmem	init.c
 free_initmem	init.c
 free_initrd_mem	init.c
 free_initrd_mem	init.c
 free_initrd_mem	init.c
 from64to16	checksum.c
 get_byte	misc.c
 get_byte	misc.c
 get_current	current.h
 get_current	current.h
 get_reg	align.c
 get_wchan	process.c
 get_wchan	process.c
 get_wchan	processor.h
 get_wchan	processor.h
 get_wchan	processor.h
 handle_ipi	smp.c
 handle_ipi	smp.c
 handle_unaligned_access	align.c
 hexagon_clean_dcache_range	cache.c
 hexagon_clean_dcache_range	cache.c
 hexagon_clean_dcache_range	cacheflush.h
 hexagon_clean_dcache_range	cacheflush.h
 hexagon_dma_init	dma.c
 hexagon_inv_dcache_range	cache.c
 hexagon_inv_dcache_range	cache.c
 hexagon_inv_dcache_range	cacheflush.h
 hexagon_inv_dcache_range	cacheflush.h
 hexagon_kgdb_nmi_hook	kgdb.c
 htonl	flat.h
 htonl	flat.h
 htonl	flat.h
 htons	flat.h
 illegal_instruction	traps.c
 illegal_instruction	traps.c
 inb	io.h
 inb	io.h
 inb	io.h
 init_IRQ	irq_cpu.c
 init_cpu_to_physid	smpboot.c
 init_cpu_to_physid	smpboot.c
 init_ipi_lock	smpboot.c
 init_ipi_lock	smpboot.c
 init_mmu	fault.c
 init_tlb	fault.c
 inl	io.h
 inl	io.h
 inl	io.h
 insb	io.h
 insb	io.h
 insb	io.h
 insl	io.h
 insl	io.h
 insl	io.h
 insw	io.h
 insw	io.h
 insw	io.h
 intel_int	build.c
 intel_long	build.c
 intel_short	build.c
 ints_enabled	registers.h
 inw	io.h
 inw	io.h
 inw	io.h
 io_remap_pfn_range	pgtable.h
 io_remap_pfn_range	pgtable.h
 ioctl	rs485.h
 ioctl	rs485.h
 ioremap	time.c
 ioremap	time.c
 iounmap	io.h
 iounmap	io.h
 iounmap	io.h
 iounmap	ioremap-nommu.c
 ip_compute_csum	checksum.h
 ip_compute_csum	checksum.h
 ip_compute_csum	checksum.h
 ip_compute_csum	checksum.h
 ip_compute_csum	checksum.h
 ip_compute_csum	checksum.h
 ip_fast_csum	checksum.h
 ip_fast_csum	checksum.h
 ip_fast_csum	checksum.h
 ipi_timer	time.c
 ipi_timer	time.c
 ipi_timer	time.h
 irq_canonicalize	irq.h
 irq_canonicalize	irq.h
 irq_canonicalize	irq.h
 is_valid_bugaddr	traps.c
 is_valid_bugaddr	traps.c
 kgdb_arch_exit	kgdb.c
 kgdb_arch_init	kgdb.c
 kgdb_arch_set_pc	kgdb.c
 kgdb_roundup_cpus	kgdb.c
 kgdb_roundup_cpus	kgdb.c
 kgdb_wait	kgdb.c
 kmap_get_fixmap_pte	fixmap.h
 local_add	local.h
 local_add_negative	local.h
 local_add_return	local.h
 local_add_unless	local.h
 local_clear_mask	local.h
 local_cmpxchg	local.h
 local_dec	local.h
 local_dec_and_test	local.h
 local_dec_return	local.h
 local_flush_tlb_all	fault-nommu.c
 local_flush_tlb_all	fault.c
 local_flush_tlb_mm	fault-nommu.c
 local_flush_tlb_mm	fault.c
 local_flush_tlb_page	fault-nommu.c
 local_flush_tlb_page	fault.c
 local_inc	local.h
 local_inc_and_test	local.h
 local_inc_not_zero	local.h
 local_inc_return	local.h
 local_read	local.h
 local_set	local.h
 local_set_mask	local.h
 local_sub	local.h
 local_sub_and_test	local.h
 local_sub_return	local.h
 local_xchg	local.h
 machine_halt	reset.c
 machine_power_off	reset.c
 machine_restart	reset.c
 main	asm-offsets.c
 main	asm-offsets.c
 main	build.c
 map_cpu_to_physid	smpboot.c
 map_cpu_to_physid	smpboot.c
 mask_irq	irq_cpu.c
 mask_irq_num	irq_cpu.c
 mb	barrier.h
 mb	barrier.h
 mb	barrier.h
 mem_init	init.c
 mem_init	init.c
 mem_init	init.c
 mem_init	init.c
 mem_init	init.c
 mem_init	init.c
 mem_prof_init	discontig.c
 memcpy_fromio	io.h
 memcpy_fromio	io.h
 memcpy_fromio	io.h
 memcpy_toio	io.h
 memcpy_toio	io.h
 memcpy_toio	io.h
 memset_io	io.h
 memset_io	io.h
 memset_io	io.h
 memzero	misc.c
 memzero	misc.c
 misaligned_data_load	traps.c
 misaligned_data_load	traps.c
 misaligned_data_store	traps.c
 misaligned_data_store	traps.c
 misaligned_instruction	traps.c
 misaligned_instruction	traps.c
 mk_pte	pgtable.h
 mk_pte	pgtable.h
 mmap	pgtable.h
 mmap	pgtable.h
 mmiowb	io.h
 mmiowb	io.h
 mmiowb	io.h
 name	hexagon_ksyms.c
 node_localnr	mmzone.h
 nop	barrier.h
 nop	barrier.h
 nop	barrier.h
 outb	io.h
 outb	io.h
 outb	io.h
 outl	io.h
 outl	io.h
 outl	io.h
 outw	io.h
 outw	io.h
 outw	io.h
 page_to_phys	page.h
 page_to_phys	page.h
 page_to_phys	page.h
 paging_init	init.c
 paging_init	init.c
 paging_init	init.c
 pfn_pmd	pgtable-2level.h
 pfn_pte	pgtable-2level.h
 pfn_pte	pgtable.h
 pfn_pte	pgtable.h
 pfn_to_nid	mmzone.h
 pfn_valid	mmzone.h
 pfn_valid	mmzone.h
 pfn_valid	page.h
 pfn_valid	page.h
 pfn_valid	page.h
 pgd_ERROR	pgtable-2level.h
 pgd_ERROR	pgtable.h
 pgd_ERROR	pgtable.h
 pgd_bad	pgtable-2level.h
 pgd_clear	pgtable-2level.h
 pgd_free	pgalloc.h
 pgd_free	pgalloc.h
 pgd_index	pgtable.h
 pgd_index	pgtable.h
 pgd_none	pgtable-2level.h
 pgd_offset	pgtable.h
 pgd_offset	pgtable.h
 pgd_offset_k	pgtable.h
 pgd_offset_k	pgtable.h
 pgd_page	pgtable-2level.h
 pgd_page_vaddr	pgtable-2level.h
 pgd_present	pgtable-2level.h
 pgd_val	page.h
 pgd_val	page.h
 pgd_val	page.h
 pgoff_to_pte	pgtable-2level.h
 pgoff_to_pte	pgtable.h
 pgoff_to_pte	pgtable.h
 pgprot_val	page.h
 pgprot_val	page.h
 pgprot_val	page.h
 pgtable_cache_init	pgalloc.c
 pgtable_cache_init	pgtable.h
 pgtable_cache_init	pgtable.h
 phys_to_virt	dma.c
 physid_to_cpu	smpboot.c
 pm_power_off	reset.c
 pmd_ERROR	pgtable-2level.h
 pmd_bad	pgtable.h
 pmd_bad	pgtable.h
 pmd_clear	pgtable.h
 pmd_clear	pgtable.h
 pmd_index	pgtable.h
 pmd_index	pgtable.h
 pmd_none	pgtable.h
 pmd_none	pgtable.h
 pmd_page	mmzone.h
 pmd_page	pgtable.h
 pmd_page	pgtable.h
 pmd_pgtable	pgtable.h
 pmd_pgtable	pgtable.h
 pmd_present	pgtable.h
 pmd_present	pgtable.h
 pmd_val	pgtable.h
 pmd_val	pgtable.h
 pmd_val	pgtable.h
 pmd_val	pgtable.h
 poll_idle	thread_info.h
 poll_idle	thread_info.h
 precise_bus_error	traps.c
 precise_bus_error	traps.c
 prepare_rx_descriptor	svinto.h
 pt_badva	registers.h
 pt_cause	registers.h
 pt_elr	registers.h
 pt_psp	registers.h
 pt_set_elr	registers.h
 pt_set_kmode	registers.h
 pt_set_rte_sp	registers.h
 pt_set_usermode	registers.h
 pte_ERROR	pgtable-2level.h
 pte_dirty	pgtable.h
 pte_dirty	pgtable.h
 pte_exec	pgtable.h
 pte_exec	pgtable.h
 pte_file	pgtable.h
 pte_file	pgtable.h
 pte_free	pgalloc.h
 pte_free	pgalloc.h
 pte_free_kernel	pgalloc.h
 pte_free_kernel	pgalloc.h
 pte_mkclean	pgtable.h
 pte_mkclean	pgtable.h
 pte_mkdirty	pgtable.h
 pte_mkdirty	pgtable.h
 pte_mkexec	pgtable.h
 pte_mkexec	pgtable.h
 pte_mkhuge	pgtable.h
 pte_mkhuge	pgtable.h
 pte_mkold	pgtable.h
 pte_mkold	pgtable.h
 pte_mkspecial	pgtable.h
 pte_mkspecial	pgtable.h
 pte_mkwrite	pgtable.h
 pte_mkwrite	pgtable.h
 pte_mkyoung	pgtable.h
 pte_mkyoung	pgtable.h
 pte_modify	pgtable.h
 pte_modify	pgtable.h
 pte_none	pgtable-2level.h
 pte_none	pgtable.h
 pte_none	pgtable.h
 pte_offset_kernel	pgtable.h
 pte_offset_kernel	pgtable.h
 pte_offset_map	pgtable.h
 pte_offset_map	pgtable.h
 pte_offset_map_nested	pgtable.h
 pte_offset_map_nested	pgtable.h
 pte_page	pgtable-2level.h
 pte_page	pgtable.h
 pte_page	pgtable.h
 pte_pfn	pgtable-2level.h
 pte_pfn	pgtable.h
 pte_pfn	pgtable.h
 pte_present	pgtable.h
 pte_present	pgtable.h
 pte_present_exec_user	pgtable.h
 pte_present_exec_user	pgtable.h
 pte_read	pgtable.h
 pte_read	pgtable.h
 pte_same	pgtable-2level.h
 pte_special	pgtable.h
 pte_special	pgtable.h
 pte_to_pgoff	pgtable-2level.h
 pte_to_pgoff	pgtable.h
 pte_to_pgoff	pgtable.h
 pte_unmap	pgtable.h
 pte_unmap	pgtable.h
 pte_unmap_nested	pgtable.h
 pte_unmap_nested	pgtable.h
 pte_val	page.h
 pte_val	page.h
 pte_val	page.h
 pte_val	pgtable.h
 pte_val	pgtable.h
 pte_val	pgtable.h
 pte_val	pgtable.h
 pte_val	pgtable.h
 pte_val	pgtable.h
 pte_val	pgtable.h
 pte_val	pgtable.h
 pte_val	pgtable.h
 pte_val	pgtable.h
 pte_val	pgtable.h
 pte_val	pgtable.h
 pte_val	pgtable.h
 pte_val	pgtable.h
 pte_write	pgtable.h
 pte_write	pgtable.h
 pte_wrprotect	pgtable.h
 pte_wrprotect	pgtable.h
 pte_young	pgtable.h
 pte_young	pgtable.h
 ptep_get_and_clear	pgtable-2level.h
 ptrace_disable	ptrace.c
 ptrace_disable	ptrace.c
 ptrace_request	ptrace.c
 ptrace_request	ptrace.c
 putc	m32r_sio.c
 putc	m32r_sio.c
 putc	m32r_sio.c
 puts	m32r_sio.c
 qqstr	thread_info.h
 qqstr	thread_info.h
 qstr	thread_info.h
 qstr	thread_info.h
 raw_smp_processor_id	smp.h
 raw_smp_processor_id	smp.h
 raw_smp_processor_id	smp.h
 read_barrier_depends	barrier.h
 read_barrier_depends	barrier.h
 read_barrier_depends	barrier.h
 read_current_timer	timex.h
 read_current_timer	timex.h
 read_protection_fault	vm_fault.c
 read_protection_fault	vm_fault.h
 readb	io.h
 readb	io.h
 readb	io.h
 readb_relaxed	io.h
 readb_relaxed	io.h
 readb_relaxed	io.h
 readl	io.h
 readl	io.h
 readl	io.h
 readl_relaxed	io.h
 readl_relaxed	io.h
 readl_relaxed	io.h
 readw	io.h
 readw	io.h
 readw	io.h
 readw_relaxed	io.h
 readw_relaxed	io.h
 readw_relaxed	io.h
 register_die_notifier	kgdb.c
 release_thread	process.c
 release_thread	process.c
 release_thread	processor.h
 release_thread	processor.h
 release_thread	processor.h
 restore_sigcontext	signal.c
 restore_sigcontext	signal.c
 ret_from_fork	process.c
 ret_from_fork	process.c
 rmb	barrier.h
 rmb	barrier.h
 rmb	barrier.h
 save_stack_trace	stacktrace.c
 schedule_usleep	fasttimer.h
 select	etraxgpio.h
 send_ipi	smp.c
 send_ipi	smp.c
 serial_setup	misc.c
 serial_setup	misc.c
 serout	misc.c
 serout	misc.c
 set_bit	bitops.h
 set_bit	bitops.h
 set_bit	bitops.h
 set_fixmap	fixmap.h
 set_mb	barrier.h
 set_mb	barrier.h
 set_mb	barrier.h
 set_next_event	time.c
 set_next_event	time.c
 set_pgd	pgtable-2level.h
 set_pmd	fault.c
 set_pmd	pgtable-2level.h
 set_pmd	pgtable.h
 set_pmd	pgtable.h
 set_pte	pgtable-2level.h
 set_pte	pgtable.h
 set_pte	pgtable.h
 set_pte_at	pgtable-2level.h
 set_pte_at	pgtable.h
 set_pte_at	pgtable.h
 set_reg	align.c
 set_wake	irq_cpu.c
 setsockoptions	socket.h
 setsockoptions	socket.h
 setup_arch	setup.c
 setup_arch	setup.c
 setup_arch	setup.c
 setup_arch	setup.c
 setup_arch	setup.c
 setup_arch	setup.c
 setup_arch	setup.c
 setup_arch	setup.c
 setup_arch	setup.c
 setup_arch	setup.c
 setup_arch_memory	init.c
 setup_arch_memory	init.c
 setup_arch_memory	init.c
 setup_arch_memory	setup.c
 setup_arch_memory	setup.c
 setup_arch_memory	setup.c
 setup_arch_memory	setup.c
 setup_arch_memory	setup.c
 setup_arch_memory	setup.c
 setup_arch_memory	setup.c
 setup_arch_memory	setup.c
 setup_arch_memory	setup.c
 setup_arch_memory	setup.c
 setup_memory	discontig.c
 setup_normal_output_buffer	misc.c
 setup_normal_output_buffer	misc.c
 setup_percpu_clockdev	time.c
 setup_percpu_clockdev	time.c
 setup_percpu_clockdev	time.h
 setup_profiling_timer	smp.c
 setup_profiling_timer	smp.c
 setup_profiling_timer	smpboot.c
 setup_profiling_timer	smpboot.c
 setup_sigcontext	signal.c
 setup_sigcontext	signal.c
 show_cpu_info	smpboot.c
 show_cpu_info	smpboot.c
 show_cpuinfo	setup.c
 show_cpuinfo	setup.c
 show_cpuinfo	setup.c
 show_cpuinfo	setup.c
 show_cpuinfo	setup.c
 show_cpuinfo	setup.c
 show_cpuinfo	setup.c
 show_cpuinfo	setup.c
 show_cpuinfo	setup.c
 show_cpuinfo	setup.c
 show_mp_info	smpboot.c
 show_mp_info	smpboot.c
 show_regs	vm_events.c
 show_stack	traps.c
 show_stack	traps.c
 smp_call_function	kgdb.c
 smp_callin	smpboot.c
 smp_callin	smpboot.c
 smp_cpus_done	smp.c
 smp_cpus_done	smp.c
 smp_cpus_done	smpboot.c
 smp_mb	barrier.h
 smp_mb	barrier.h
 smp_mb	barrier.h
 smp_mb	barrier.h
 smp_mb	barrier.h
 smp_mb	barrier.h
 smp_mb__after_atomic_dec	atomic.h
 smp_mb__after_atomic_dec	atomic.h
 smp_mb__after_atomic_dec	atomic.h
 smp_mb__after_atomic_inc	atomic.h
 smp_mb__after_atomic_inc	atomic.h
 smp_mb__after_atomic_inc	atomic.h
 smp_mb__after_clear_bit	bitops.h
 smp_mb__after_clear_bit	bitops.h
 smp_mb__after_clear_bit	bitops.h
 smp_mb__after_local_dec	local.h
 smp_mb__after_local_inc	local.h
 smp_mb__before_atomic_dec	atomic.h
 smp_mb__before_atomic_dec	atomic.h
 smp_mb__before_atomic_dec	atomic.h
 smp_mb__before_atomic_inc	atomic.h
 smp_mb__before_atomic_inc	atomic.h
 smp_mb__before_atomic_inc	atomic.h
 smp_mb__before_clear_bit	bitops.h
 smp_mb__before_clear_bit	bitops.h
 smp_mb__before_clear_bit	bitops.h
 smp_mb__before_clear_bit	bitops.h
 smp_mb__before_clear_bit	bitops.h
 smp_mb__before_clear_bit	bitops.h
 smp_mb__before_local_dec	local.h
 smp_mb__before_local_inc	local.h
 smp_online	smpboot.c
 smp_online	smpboot.c
 smp_prepare_boot_cpu	smp.c
 smp_prepare_boot_cpu	smp.c
 smp_prepare_boot_cpu	smpboot.c
 smp_prepare_cpus	smp.c
 smp_prepare_cpus	smp.c
 smp_prepare_cpus	smpboot.c
 smp_read_barrier_depends	barrier.h
 smp_read_barrier_depends	barrier.h
 smp_read_barrier_depends	barrier.h
 smp_read_barrier_depends	barrier.h
 smp_read_barrier_depends	barrier.h
 smp_read_barrier_depends	barrier.h
 smp_rmb	barrier.h
 smp_rmb	barrier.h
 smp_rmb	barrier.h
 smp_rmb	barrier.h
 smp_rmb	barrier.h
 smp_rmb	barrier.h
 smp_send_reschedule	smp.c
 smp_send_reschedule	smp.c
 smp_send_stop	smp.c
 smp_send_stop	smp.c
 smp_start_cpus	smp.c
 smp_start_cpus	smp.c
 smp_store_cpu_info	smpboot.c
 smp_store_cpu_info	smpboot.c
 smp_vm_unmask_irq	smp.c
 smp_vm_unmask_irq	smp.c
 smp_wmb	barrier.h
 smp_wmb	barrier.h
 smp_wmb	barrier.h
 smp_wmb	barrier.h
 smp_wmb	barrier.h
 smp_wmb	barrier.h
 spanlines	cache.c
 spanlines	cache.c
 start_kernel	init.c
 start_kernel	init.c
 start_kernel	init.c
 start_secondary	smp.c
 start_secondary	smp.c
 start_secondary	smpboot.c
 start_secondary	smpboot.c
 start_secondary	smpboot.c
 start_thread	process.c
 start_thread	process.c
 strcmp	string.h
 strcmp	string.h
 strcmp	string.h
 strnlen_user	usercopy.c
 strnlen_user	usercopy.c
 switch_to	kgdb.c
 switch_to	switch_to.h
 switch_to	switch_to.h
 switch_to	switch_to.h
 sync_icache_dcache	init.c
 sync_icache_dcache	init.c
 sync_icache_dcache	init.c
 sync_icache_dcache	pgtable.h
 sync_icache_dcache	pgtable.h
 sys_cachectl	sys_m32r.c
 sys_cacheflush	sys_m32r.c
 sys_rt_sigreturn	signal.c
 sys_rt_sigreturn	signal.c
 sys_sigaltstack	signal.c
 sys_sigaltstack	signal.c
 sys_syscall	traps.c
 sys_syscall	traps.c
 sys_tas	sys_m32r.c
 task_pt_regs	processor.h
 task_pt_regs	processor.h
 task_pt_regs	processor.h
 test_and_change_bit	bitops.h
 test_and_change_bit	bitops.h
 test_and_change_bit	bitops.h
 test_and_clear_bit	bitops.h
 test_and_clear_bit	bitops.h
 test_and_clear_bit	bitops.h
 test_and_set_bit	bitops.h
 test_and_set_bit	bitops.h
 test_and_set_bit	bitops.h
 thread_saved_pc	process.c
 thread_saved_pc	process.c
 thread_saved_pc	processor.h
 thread_saved_pc	processor.h
 thread_saved_pc	processor.h
 time_init	time.c
 time_init	time.c
 time_init_deferred	time.c
 time_init_deferred	time.c
 timer_get_cycles	time.c
 timer_get_cycles	time.c
 timer_interrupt	time.c
 timer_interrupt	time.c
 tlb_end_vma	tlb.h
 tlb_end_vma	tlb.h
 tlb_flush	tlb.h
 tlb_flush	tlb.h
 tlb_flush_all	vm_tlb.c
 tlb_start_vma	tlb.h
 tlb_start_vma	tlb.h
 topology_init	topology.c
 trap_init	traps.c
 trap_init	traps.c
 udelay	delay.h
 udelay	delay.h
 unblank_screen	fault-nommu.c
 unblank_screen	fault.c
 unmap_cpu_to_physid	smpboot.c
 unmap_cpu_to_physid	smpboot.c
 unmask_irq	irq_cpu.c
 usage	build.c
 user_mode	registers.h
 user_regs	processor.h
 user_regs	processor.h
 user_regs	processor.h
 vdso_init	vdso.c
 vga_readb	vga.h
 vga_writeb	vga.h
 virt_addr_valid	page.h
 virt_addr_valid	page.h
 virt_addr_valid	page.h
 virt_to_fix	fixmap.h
 virt_to_page	page.h
 virt_to_page	page.h
 virt_to_page	page.h
 virt_to_phys	io.h
 virt_to_phys	io.h
 virt_to_phys	io.h
 vmstop	smp.c
 vmstop	smp.c
 volatile	cmpxchg.h
 volatile	cmpxchg.h
 wmb	barrier.h
 wmb	barrier.h
 wmb	barrier.h
 write_protection_fault	vm_fault.c
 write_protection_fault	vm_fault.h
 writeb	io.h
 writeb	io.h
 writeb	io.h
 writel	io.h
 writel	io.h
 writel	io.h
 writew	io.h
 writew	io.h
 writew	io.h
 xchg	cmpxchg.h
 xchg	cmpxchg.h
 xlate_dev_kmem_ptr	io.h
 xlate_dev_kmem_ptr	io.h
 xlate_dev_kmem_ptr	io.h
 xlate_dev_mem_ptr	io.h
 xlate_dev_mem_ptr	io.h
 xlate_dev_mem_ptr	io.h
 xxxxx_hexagon	cacheflush.h
 xxxxx_hexagon	cacheflush.h
 zone_sizes_init	discontig.c
