 AHB_SPEED_TO_REG	global_reg.h
 ANUBIS_IOADDR	anubis-map.h
 ARM_ADD_I	bpf_jit_32.h
 ARM_ADD_R	bpf_jit_32.h
 ARM_AND_I	bpf_jit_32.h
 ARM_AND_R	bpf_jit_32.h
 ARM_B	bpf_jit_32.h
 ARM_BIC_I	bpf_jit_32.h
 ARM_BIC_R	bpf_jit_32.h
 ARM_BLX_R	bpf_jit_32.h
 ARM_BX	bpf_jit_32.h
 ARM_CMP_I	bpf_jit_32.h
 ARM_CMP_R	bpf_jit_32.h
 ARM_EOR_I	bpf_jit_32.h
 ARM_EOR_R	bpf_jit_32.h
 ARM_LDM	bpf_jit_32.h
 ARM_LDRB_I	bpf_jit_32.h
 ARM_LDRB_R	bpf_jit_32.h
 ARM_LDRH_I	bpf_jit_32.h
 ARM_LDR_I	bpf_jit_32.h
 ARM_LSL_I	bpf_jit_32.h
 ARM_LSL_R	bpf_jit_32.h
 ARM_LSR_I	bpf_jit_32.h
 ARM_LSR_R	bpf_jit_32.h
 ARM_MOVT	bpf_jit_32.h
 ARM_MOVW	bpf_jit_32.h
 ARM_MOV_I	bpf_jit_32.h
 ARM_MOV_R	bpf_jit_32.h
 ARM_MUL	bpf_jit_32.h
 ARM_ORR_I	bpf_jit_32.h
 ARM_ORR_R	bpf_jit_32.h
 ARM_ORR_S	bpf_jit_32.h
 ARM_POP	bpf_jit_32.h
 ARM_PUSH	bpf_jit_32.h
 ARM_REV	bpf_jit_32.h
 ARM_REV16	bpf_jit_32.h
 ARM_RSB_I	bpf_jit_32.h
 ARM_STR_I	bpf_jit_32.h
 ARM_SUB_I	bpf_jit_32.h
 ARM_SUB_R	bpf_jit_32.h
 ARM_TST_I	bpf_jit_32.h
 ARM_TST_R	bpf_jit_32.h
 ARM_UDIV	bpf_jit_32.h
 ARM_UMULL	bpf_jit_32.h
 AUDIO_SYNC_2X_CLK	tegra30_clocks_data.c
 AUDIO_SYNC_CLK	tegra30_clocks_data.c
 AUDIO_SYNC_TAP_NIBBLE_SHIFT	tegra30_clocks.c
 BANK	regs-mem.h
 BAST_IOADDR	bast-map.h
 BAST_IOADDR	bast-map.h
 CHIP_ID	global_reg.h
 CHIP_REVISION	global_reg.h
 CLK	tegra20_clocks_data.c
 CLK_7X30	clock-7x30.h
 CLK_7X30S	clock-7x30.h
 CLK_DUPLICATE	tegra20_clocks_data.c
 CLK_DUPLICATE	tegra30_clocks_data.c
 CLK_OUT_CLK	tegra30_clocks_data.c
 CLK_PCOM	clock-pcom.h
 CLPS711X_GPIO	common.h
 CLPS711X_GPIO	common.h
 CLPS711X_GPIO	common.h
 CLPS711X_GPIO	common.h
 CLPS711X_GPIO	common.h
 CPU_CLOCK	tegra20_clocks.c
 CPU_CLOCK	tegra30_clocks.c
 CPU_RESET	tegra20_clocks.c
 CPU_RESET	tegra30_clocks.c
 DECLARE_BUTTON	mach-h1940.c
 DECLARE_COMPLETION	apbio.c
 DECLARE_DYN_IN	io.h
 DECLARE_DYN_OUT	io.h
 DECLARE_IO	io.h
 DECLARE_TASKLET	smd.c
 DEFINE_MUTEX	apbio.c
 DEFINE_MUTEX	clock.c
 DEFINE_MUTEX	clock.c
 DEFINE_MUTEX	cpu-tegra.c
 DEFINE_MUTEX	scm.c
 DEFINE_MUTEX	smd.c
 DEFINE_PER_CPU	cpuidle-tegra20.c
 DEFINE_PER_CPU	cpuidle-tegra30.c
 DEFINE_S3C_TIMER	devs.c
 DEFINE_SPINLOCK	gpiomux.c
 DEFINE_SPINLOCK	mach-h1940.c
 DEFINE_SPINLOCK	mach-rx1950.c
 DEFINE_SPINLOCK	platsmp.c
 DEFINE_SPINLOCK	platsmp.c
 DEFINE_SPINLOCK	platsmp.c
 DEFINE_SPINLOCK	platsmp.c
 DEFINE_SPINLOCK	powergate.c
 DEFINE_SPINLOCK	proc_comm.c
 DEFINE_SPINLOCK	tegra20_clocks.c
 DEFINE_SPINLOCK	tegra30_clocks.c
 DIV_ROUND_UP	tegra20_clocks.c
 DIV_ROUND_UP	tegra20_clocks.c
 DIV_ROUND_UP	tegra20_clocks.c
 DIV_ROUND_UP	tegra20_clocks.c
 DIV_ROUND_UP	tegra30_clocks.c
 DIV_ROUND_UP	tegra30_clocks.c
 DIV_ROUND_UP	tegra30_clocks.c
 DPRINT_ARRAY	irq-vic.c
 DPRINT_ARRAY	irq-vic.c
 DPRINT_REGS	irq-vic.c
 DPRINT_REGS	irq-vic.c
 ERR_PTR	adc.c
 ERR_PTR	adc.c
 ERR_PTR	vreg.c
 FL_OFFSET	iommu_hw-8xxx.h
 GET_ABID	iommu_hw-8xxx.h
 GET_ABURST	iommu_hw-8xxx.h
 GET_ACTLR	iommu_hw-8xxx.h
 GET_AFE	iommu_hw-8xxx.h
 GET_AFF	iommu_hw-8xxx.h
 GET_AFFD	iommu_hw-8xxx.h
 GET_AFULL	iommu_hw-8xxx.h
 GET_AINNERSHARED	iommu_hw-8xxx.h
 GET_AINST	iommu_hw-8xxx.h
 GET_ALEN	iommu_hw-8xxx.h
 GET_ALOCK	iommu_hw-8xxx.h
 GET_AMEMTYPE	iommu_hw-8xxx.h
 GET_AMID	iommu_hw-8xxx.h
 GET_APF	iommu_hw-8xxx.h
 GET_APID	iommu_hw-8xxx.h
 GET_APRIV	iommu_hw-8xxx.h
 GET_APROTNS	iommu_hw-8xxx.h
 GET_ASHARED	iommu_hw-8xxx.h
 GET_ATID	iommu_hw-8xxx.h
 GET_AWRITE	iommu_hw-8xxx.h
 GET_BE	iommu_hw-8xxx.h
 GET_BFBCR	iommu_hw-8xxx.h
 GET_BFBDFE	iommu_hw-8xxx.h
 GET_BFBSFE	iommu_hw-8xxx.h
 GET_BPMEMTYPE	iommu_hw-8xxx.h
 GET_BPMTCFG	iommu_hw-8xxx.h
 GET_BPRCISH	iommu_hw-8xxx.h
 GET_BPRCNSH	iommu_hw-8xxx.h
 GET_BPRCOSH	iommu_hw-8xxx.h
 GET_BPSHCFG	iommu_hw-8xxx.h
 GET_BYPASS	iommu_hw-8xxx.h
 GET_BYPASSD	iommu_hw-8xxx.h
 GET_CBACR_N	iommu_hw-8xxx.h
 GET_CBNDX	iommu_hw-8xxx.h
 GET_CBVMID	iommu_hw-8xxx.h
 GET_CFCFG	iommu_hw-8xxx.h
 GET_CFEIE	iommu_hw-8xxx.h
 GET_CFERE	iommu_hw-8xxx.h
 GET_CFG	iommu_hw-8xxx.h
 GET_CLIENTPD	iommu_hw-8xxx.h
 GET_CONTEXTIDR	iommu_hw-8xxx.h
 GET_CONTEXTIDR_ASID	iommu_hw-8xxx.h
 GET_CONTEXTIDR_PROCID	iommu_hw-8xxx.h
 GET_CONTEXT_FIELD	iommu_hw-8xxx.h
 GET_CR	iommu_hw-8xxx.h
 GET_CR_HUME	iommu_hw-8xxx.h
 GET_CR_TLBIALLCFG	iommu_hw-8xxx.h
 GET_CTX_REG	iommu_hw-8xxx.h
 GET_CTX_TLBIALL	iommu_hw-8xxx.h
 GET_DCDEE	iommu_hw-8xxx.h
 GET_DNA	iommu_hw-8xxx.h
 GET_DNLV2PA	iommu_hw-8xxx.h
 GET_DPSIZC	iommu_hw-8xxx.h
 GET_DPSIZR	iommu_hw-8xxx.h
 GET_EAR	iommu_hw-8xxx.h
 GET_ESR	iommu_hw-8xxx.h
 GET_ESRRESTORE	iommu_hw-8xxx.h
 GET_ESR_MULTI	iommu_hw-8xxx.h
 GET_ESYNR0	iommu_hw-8xxx.h
 GET_ESYNR0_ABID	iommu_hw-8xxx.h
 GET_ESYNR0_AMID	iommu_hw-8xxx.h
 GET_ESYNR0_APID	iommu_hw-8xxx.h
 GET_ESYNR0_ATID	iommu_hw-8xxx.h
 GET_ESYNR0_AVMID	iommu_hw-8xxx.h
 GET_ESYNR1	iommu_hw-8xxx.h
 GET_ESYNR1_ABURST	iommu_hw-8xxx.h
 GET_ESYNR1_AC	iommu_hw-8xxx.h
 GET_ESYNR1_AFULL	iommu_hw-8xxx.h
 GET_ESYNR1_AINNERSHARED	iommu_hw-8xxx.h
 GET_ESYNR1_AINST	iommu_hw-8xxx.h
 GET_ESYNR1_ALEN	iommu_hw-8xxx.h
 GET_ESYNR1_ALOCK	iommu_hw-8xxx.h
 GET_ESYNR1_AMEMTYPE	iommu_hw-8xxx.h
 GET_ESYNR1_AOOO	iommu_hw-8xxx.h
 GET_ESYNR1_APRIV	iommu_hw-8xxx.h
 GET_ESYNR1_APROTNS	iommu_hw-8xxx.h
 GET_ESYNR1_ASHARED	iommu_hw-8xxx.h
 GET_ESYNR1_ASIZE	iommu_hw-8xxx.h
 GET_ESYNR1_AWRITE	iommu_hw-8xxx.h
 GET_ESYNR1_DCD	iommu_hw-8xxx.h
 GET_FAR	iommu_hw-8xxx.h
 GET_FAULT	iommu_hw-8xxx.h
 GET_FAULT_AFF	iommu_hw-8xxx.h
 GET_FAULT_APF	iommu_hw-8xxx.h
 GET_FAULT_HTWDEEF	iommu_hw-8xxx.h
 GET_FAULT_HTWSEEF	iommu_hw-8xxx.h
 GET_FAULT_MHF	iommu_hw-8xxx.h
 GET_FAULT_SL	iommu_hw-8xxx.h
 GET_FAULT_SS	iommu_hw-8xxx.h
 GET_FAULT_TF	iommu_hw-8xxx.h
 GET_FAULT_TLBMF	iommu_hw-8xxx.h
 GET_FIELD	iommu_hw-8xxx.h
 GET_FLOOR	iommu_hw-8xxx.h
 GET_FLVIC	iommu_hw-8xxx.h
 GET_FSR	iommu_hw-8xxx.h
 GET_FSRRESTORE	iommu_hw-8xxx.h
 GET_FSYNR0	iommu_hw-8xxx.h
 GET_FSYNR1	iommu_hw-8xxx.h
 GET_FSYNR1_ASIZE	iommu_hw-8xxx.h
 GET_GLOBAL_FIELD	iommu_hw-8xxx.h
 GET_GLOBAL_REG	iommu_hw-8xxx.h
 GET_GLOBAL_REG_N	iommu_hw-8xxx.h
 GET_GLOBAL_TLBIALL	iommu_hw-8xxx.h
 GET_HAF	iommu_hw-8xxx.h
 GET_HIT	iommu_hw-8xxx.h
 GET_HTW	iommu_hw-8xxx.h
 GET_HTWDEEF	iommu_hw-8xxx.h
 GET_HTWSEEF	iommu_hw-8xxx.h
 GET_HUM	iommu_hw-8xxx.h
 GET_HUME	iommu_hw-8xxx.h
 GET_ICPC0	iommu_hw-8xxx.h
 GET_ICPC1	iommu_hw-8xxx.h
 GET_ICPC2	iommu_hw-8xxx.h
 GET_ICPC3	iommu_hw-8xxx.h
 GET_ICPC4	iommu_hw-8xxx.h
 GET_ICPC5	iommu_hw-8xxx.h
 GET_ICPC6	iommu_hw-8xxx.h
 GET_ICPC7	iommu_hw-8xxx.h
 GET_IDR	iommu_hw-8xxx.h
 GET_INDEX	iommu_hw-8xxx.h
 GET_IRPTNDX	iommu_hw-8xxx.h
 GET_ISH	iommu_hw-8xxx.h
 GET_LKE	iommu_hw-8xxx.h
 GET_M	iommu_hw-8xxx.h
 GET_M2VCBR_N	iommu_hw-8xxx.h
 GET_MAJOR	iommu_hw-8xxx.h
 GET_MHF	iommu_hw-8xxx.h
 GET_MINOR	iommu_hw-8xxx.h
 GET_MT	iommu_hw-8xxx.h
 GET_MTC0	iommu_hw-8xxx.h
 GET_MTC1	iommu_hw-8xxx.h
 GET_MTC2	iommu_hw-8xxx.h
 GET_MTC3	iommu_hw-8xxx.h
 GET_MTC4	iommu_hw-8xxx.h
 GET_MTC5	iommu_hw-8xxx.h
 GET_MTC6	iommu_hw-8xxx.h
 GET_MTC7	iommu_hw-8xxx.h
 GET_MULTI	iommu_hw-8xxx.h
 GET_N	iommu_hw-8xxx.h
 GET_NCB	iommu_hw-8xxx.h
 GET_NIRPT	iommu_hw-8xxx.h
 GET_NM2VCBMT	iommu_hw-8xxx.h
 GET_NMRR	iommu_hw-8xxx.h
 GET_NOFAULT_MT	iommu_hw-8xxx.h
 GET_NOFAULT_NOS	iommu_hw-8xxx.h
 GET_NOFAULT_NS	iommu_hw-8xxx.h
 GET_NOFAULT_SH	iommu_hw-8xxx.h
 GET_NOFAULT_SS	iommu_hw-8xxx.h
 GET_NOS0	iommu_hw-8xxx.h
 GET_NOS1	iommu_hw-8xxx.h
 GET_NOS2	iommu_hw-8xxx.h
 GET_NOS3	iommu_hw-8xxx.h
 GET_NOS4	iommu_hw-8xxx.h
 GET_NOS5	iommu_hw-8xxx.h
 GET_NOS6	iommu_hw-8xxx.h
 GET_NOS7	iommu_hw-8xxx.h
 GET_NPFAULT_PA	iommu_hw-8xxx.h
 GET_NSCFG	iommu_hw-8xxx.h
 GET_NSDESC	iommu_hw-8xxx.h
 GET_OCPC0	iommu_hw-8xxx.h
 GET_OCPC1	iommu_hw-8xxx.h
 GET_OCPC2	iommu_hw-8xxx.h
 GET_OCPC3	iommu_hw-8xxx.h
 GET_OCPC4	iommu_hw-8xxx.h
 GET_OCPC5	iommu_hw-8xxx.h
 GET_OCPC6	iommu_hw-8xxx.h
 GET_OCPC7	iommu_hw-8xxx.h
 GET_PAR	iommu_hw-8xxx.h
 GET_PD0	iommu_hw-8xxx.h
 GET_PD1	iommu_hw-8xxx.h
 GET_PR	iommu_hw-8xxx.h
 GET_PRIVCFG	iommu_hw-8xxx.h
 GET_PRRR	iommu_hw-8xxx.h
 GET_PTMEMTYPE	iommu_hw-8xxx.h
 GET_PTMTCFG	iommu_hw-8xxx.h
 GET_PTSHCFG	iommu_hw-8xxx.h
 GET_PW	iommu_hw-8xxx.h
 GET_RCISH	iommu_hw-8xxx.h
 GET_RCNSH	iommu_hw-8xxx.h
 GET_RCOSH	iommu_hw-8xxx.h
 GET_RESUME	iommu_hw-8xxx.h
 GET_REV	iommu_hw-8xxx.h
 GET_RPUE	iommu_hw-8xxx.h
 GET_RPUEIE	iommu_hw-8xxx.h
 GET_RPUERE	iommu_hw-8xxx.h
 GET_RPU_ACR	iommu_hw-8xxx.h
 GET_RWE	iommu_hw-8xxx.h
 GET_RWGE	iommu_hw-8xxx.h
 GET_RWVMID	iommu_hw-8xxx.h
 GET_SCTLR	iommu_hw-8xxx.h
 GET_SFVS	iommu_hw-8xxx.h
 GET_SH	iommu_hw-8xxx.h
 GET_SHDSH0	iommu_hw-8xxx.h
 GET_SHDSH1	iommu_hw-8xxx.h
 GET_SHNMSH0	iommu_hw-8xxx.h
 GET_SHNMSH1	iommu_hw-8xxx.h
 GET_SL	iommu_hw-8xxx.h
 GET_SLVIC	iommu_hw-8xxx.h
 GET_SPDM0SEL	iommu_hw-8xxx.h
 GET_SPDM1SEL	iommu_hw-8xxx.h
 GET_SPDM2SEL	iommu_hw-8xxx.h
 GET_SPDM3SEL	iommu_hw-8xxx.h
 GET_SPDMBE	iommu_hw-8xxx.h
 GET_SS	iommu_hw-8xxx.h
 GET_STALLD	iommu_hw-8xxx.h
 GET_TBE	iommu_hw-8xxx.h
 GET_TBHSEL	iommu_hw-8xxx.h
 GET_TBLSEL	iommu_hw-8xxx.h
 GET_TESTBUSCR	iommu_hw-8xxx.h
 GET_TF	iommu_hw-8xxx.h
 GET_TIPCF	iommu_hw-8xxx.h
 GET_TLBFLPTER	iommu_hw-8xxx.h
 GET_TLBIASID	iommu_hw-8xxx.h
 GET_TLBIASIDCFG	iommu_hw-8xxx.h
 GET_TLBIVA	iommu_hw-8xxx.h
 GET_TLBIVAA	iommu_hw-8xxx.h
 GET_TLBIVAACFG	iommu_hw-8xxx.h
 GET_TLBIVMID	iommu_hw-8xxx.h
 GET_TLBIVMIDCFG	iommu_hw-8xxx.h
 GET_TLBIVMID_VMID	iommu_hw-8xxx.h
 GET_TLBLCKR	iommu_hw-8xxx.h
 GET_TLBLCKR_TLBIALLCFG	iommu_hw-8xxx.h
 GET_TLBLKCRWE	iommu_hw-8xxx.h
 GET_TLBMCFG	iommu_hw-8xxx.h
 GET_TLBMF	iommu_hw-8xxx.h
 GET_TLBSIZE	iommu_hw-8xxx.h
 GET_TLBSLPTER	iommu_hw-8xxx.h
 GET_TLBTR0	iommu_hw-8xxx.h
 GET_TLBTR1	iommu_hw-8xxx.h
 GET_TLBTR1_PA	iommu_hw-8xxx.h
 GET_TLBTR1_VMID	iommu_hw-8xxx.h
 GET_TLBTR2	iommu_hw-8xxx.h
 GET_TLBTR2_ASID	iommu_hw-8xxx.h
 GET_TLBTR2_NSTID	iommu_hw-8xxx.h
 GET_TLBTR2_NV	iommu_hw-8xxx.h
 GET_TLBTR2_V	iommu_hw-8xxx.h
 GET_TLBTR2_VA	iommu_hw-8xxx.h
 GET_TNR	iommu_hw-8xxx.h
 GET_TRE	iommu_hw-8xxx.h
 GET_TTBCR	iommu_hw-8xxx.h
 GET_TTBR0	iommu_hw-8xxx.h
 GET_TTBR0_IRGNH	iommu_hw-8xxx.h
 GET_TTBR0_IRGNL	iommu_hw-8xxx.h
 GET_TTBR0_NOS	iommu_hw-8xxx.h
 GET_TTBR0_ORGN	iommu_hw-8xxx.h
 GET_TTBR0_PA	iommu_hw-8xxx.h
 GET_TTBR0_SH	iommu_hw-8xxx.h
 GET_TTBR1	iommu_hw-8xxx.h
 GET_TTBR1_IRGNH	iommu_hw-8xxx.h
 GET_TTBR1_IRGNL	iommu_hw-8xxx.h
 GET_TTBR1_NOS	iommu_hw-8xxx.h
 GET_TTBR1_ORGN	iommu_hw-8xxx.h
 GET_TTBR1_PA	iommu_hw-8xxx.h
 GET_TTBR1_SH	iommu_hw-8xxx.h
 GET_UR	iommu_hw-8xxx.h
 GET_UW	iommu_hw-8xxx.h
 GET_V2PCFG	iommu_hw-8xxx.h
 GET_V2PPR	iommu_hw-8xxx.h
 GET_V2PPW	iommu_hw-8xxx.h
 GET_V2PSR	iommu_hw-8xxx.h
 GET_V2PUR	iommu_hw-8xxx.h
 GET_V2PUW	iommu_hw-8xxx.h
 GET_VICTIM	iommu_hw-8xxx.h
 GET_VMID	iommu_hw-8xxx.h
 GET_WGSEL	iommu_hw-8xxx.h
 GET_XN	iommu_hw-8xxx.h
 GMAC_RXD_SKEW_SHIFT	global_reg.h
 GMAC_TXD_SKEW_SHIFT	global_reg.h
 GPIO_BASE	gpio.c
 GPIO_BASE	s5p-irq-gpioint.c
 H1940_LATCH_BIT	mach-h1940.c
 H1940_LATCH_GPIO	h1940-latch.h
 HB_JUMP_TABLE_PHYS	highbank.c
 HB_JUMP_TABLE_VIRT	highbank.c
 INTBIT	irq-s3c2412.c
 INTMSK	irq-s3c2412.c
 INTMSK	irq-s3c2416.c
 INTMSK	irq-s3c2443.c
 INTMSK_SUB	irq-s3c2412.c
 IO_ADDRESS	hardware.h
 IO_ADDRESS	hardware.h
 IO_ADDRESS	hardware.h
 IO_ADDRESS	hardware.h
 IO_ADDRESS	hardware.h
 IO_ADDRESS	hardware.h
 IO_ADDRESS	iomap.h
 IO_TO_VIRT	iomap.h
 IO_TO_VIRT_BETWEEN	iomap.h
 IO_TO_VIRT_XLATE	iomap.h
 IRQ_EINT	irqs.h
 IRQ_EINT	irqs.h
 IRQ_EINT	irqs.h
 IRQ_EINT	irqs.h
 IRQ_EINT	irqs.h
 IRQ_EINT_BIT	irqs.h
 IRQ_EINT_BIT	irqs.h
 IRQ_EINT_BIT	irqs.h
 IRQ_EINT_BIT	irqs.h
 IRQ_EINT_BIT	irqs.h
 LIST_HEAD	adc.c
 LIST_HEAD	clock.c
 LIST_HEAD	clock.c
 LIST_HEAD	s3c-dma-ops.c
 LIST_HEAD	s5p-irq-gpioint.c
 MAP	dma-s3c2412.c
 MAP	dma-s3c2443.c
 MUX_EXTERN_OUT	tegra30_clocks_data.c
 MUX_I2S_SPDIF	tegra30_clocks_data.c
 NMRR_ICP	iommu_hw-8xxx.h
 NMRR_OCP	iommu_hw-8xxx.h
 OP_IMM3	bpf_jit_32.c
 OSIRIS_IOADDR	osiris-map.h
 PA_CS2	mach-bast.c
 PA_CS2	mach-vr1000.c
 PA_CS3	mach-bast.c
 PA_CS3	mach-vr1000.c
 PA_CS4	mach-bast.c
 PA_CS4	mach-vr1000.c
 PA_CS5	mach-bast.c
 PA_CS5	mach-vr1000.c
 PCOM_GPIO_CFG	proc_comm.h
 PERIPH_CLK_TO_BIT	tegra30_clocks.c
 PERIPH_CLK_TO_ENB_BIT	tegra20_clocks.c
 PERIPH_CLK_TO_ENB_CLR_REG	tegra30_clocks.c
 PERIPH_CLK_TO_ENB_REG	tegra20_clocks.c
 PERIPH_CLK_TO_ENB_REG	tegra30_clocks.c
 PERIPH_CLK_TO_ENB_SET_REG	tegra20_clocks.c
 PERIPH_CLK_TO_ENB_SET_REG	tegra30_clocks.c
 PERIPH_CLK_TO_RST_CLR_REG	tegra30_clocks.c
 PERIPH_CLK_TO_RST_REG	tegra30_clocks.c
 PERIPH_CLK_TO_RST_SET_REG	tegra30_clocks.c
 PLLE_BASE_DIV	tegra30_clocks.c
 PLL_MISC	tegra20_clocks.c
 PLL_MISC	tegra30_clocks.c
 PLL_MISC_LOCK_ENABLE	tegra30_clocks.c
 PRRR_MT	iommu_hw-8xxx.h
 PRRR_NOS	iommu_hw-8xxx.h
 PTR_ERR	adc.c
 PTR_ERR	adc.c
 PTR_ERR	board-trout-mmc.c
 PTR_ERR	board-trout-panel.c
 PTR_ERR	board-trout-panel.c
 PTR_ERR	cpu-tegra.c
 PTR_ERR	cpu-tegra.c
 PTR_ERR	cpu-tegra.c
 PTR_ERR	cpu-tegra.c
 PTR_ERR	mach-rx1950.c
 PTR_ERR	pcie.c
 REG_OFFSET	s5p-irq-gpioint.c
 REG_TO_AHB_SPEED	global_reg.h
 S3C2410_BWSCON_GET	regs-mem.h
 S3C2410_CLKREG	regs-clock.h
 S3C2410_CLKSLOW_GET_SLOWVAL	regs-clock.h
 S3C2410_CLKSLOW_SLOWVAL	regs-clock.h
 S3C2410_DCLKCON_DCLK0_CMP	regs-clock.h
 S3C2410_DCLKCON_DCLK0_DIV	regs-clock.h
 S3C2410_DCLKCON_DCLK1_CMP	regs-clock.h
 S3C2410_DCLKCON_DCLK1_DIV	regs-clock.h
 S3C2410_EINTFLT_WIDTHMSK	regs-gpio.h
 S3C2410_EINTREG	regs-irq.h
 S3C2410_GPA	gpio-nrs.h
 S3C2410_GPA	mach-rx1950.c
 S3C2410_GPA	mach-rx1950.c
 S3C2410_GPB	gpio-nrs.h
 S3C2410_GPB_PUPDIS	regs-gpio.h
 S3C2410_GPC	gpio-nrs.h
 S3C2410_GPCCON_MASK	mach-jive.c
 S3C2410_GPCCON_MASK	mach-mini2440.c
 S3C2410_GPC_PUPDIS	regs-gpio.h
 S3C2410_GPD	gpio-nrs.h
 S3C2410_GPDCON_MASK	mach-jive.c
 S3C2410_GPDCON_MASK	mach-mini2440.c
 S3C2410_GPD_PUPDIS	regs-gpio.h
 S3C2410_GPE	gpio-nrs.h
 S3C2410_GPE_PUPDIS	regs-gpio.h
 S3C2410_GPF	gpio-nrs.h
 S3C2410_GPF_PUPDIS	regs-gpio.h
 S3C2410_GPG	gpio-nrs.h
 S3C2410_GPG_PUPDIS	regs-gpio.h
 S3C2410_GPH	gpio-nrs.h
 S3C2410_GPIONO	gpio-nrs.h
 S3C2410_GPIOREG	regs-gpio.h
 S3C2410_GPIO_NEXT	gpio-nrs.h
 S3C2410_GPJ	gpio-nrs.h
 S3C2410_GPK	gpio-nrs.h
 S3C2410_GPL	gpio-nrs.h
 S3C2410_GPM	gpio-nrs.h
 S3C2410_IRQ	irqs.h
 S3C2410_IRQ	irqs.h
 S3C2410_IRQ	irqs.h
 S3C2410_IRQ	irqs.h
 S3C2410_IRQ	irqs.h
 S3C2410_IRQ	irqs.h
 S3C2410_IRQ	irqs.h
 S3C2410_IRQ	irqs.h
 S3C2410_IRQ	irqs.h
 S3C2410_IRQ	irqs.h
 S3C2410_IRQREG	regs-irq.h
 S3C2410_IRQSUB	irqs.h
 S3C2410_IRQSUB	irqs.h
 S3C2410_IRQSUB	irqs.h
 S3C2410_IRQSUB	irqs.h
 S3C2410_IRQSUB	irqs.h
 S3C2410_LCDBANK	regs-lcd.h
 S3C2410_LCDBASEU	regs-lcd.h
 S3C2410_LCDCON1_CLKVAL	regs-lcd.h
 S3C2410_LCDCON2_GET_VBPD	regs-lcd.h
 S3C2410_LCDCON2_GET_VFPD	regs-lcd.h
 S3C2410_LCDCON2_GET_VSPW	regs-lcd.h
 S3C2410_LCDCON2_LINEVAL	regs-lcd.h
 S3C2410_LCDCON2_VBPD	regs-lcd.h
 S3C2410_LCDCON2_VFPD	regs-lcd.h
 S3C2410_LCDCON2_VSPW	regs-lcd.h
 S3C2410_LCDCON3_GET_HBPD	regs-lcd.h
 S3C2410_LCDCON3_GET_HFPD	regs-lcd.h
 S3C2410_LCDCON3_HBPD	regs-lcd.h
 S3C2410_LCDCON3_HFPD	regs-lcd.h
 S3C2410_LCDCON3_HOZVAL	regs-lcd.h
 S3C2410_LCDCON3_LINEBLANK	regs-lcd.h
 S3C2410_LCDCON3_WDLY	regs-lcd.h
 S3C2410_LCDCON4_GET_HSPW	regs-lcd.h
 S3C2410_LCDCON4_HSPW	regs-lcd.h
 S3C2410_LCDCON4_MVAL	regs-lcd.h
 S3C2410_LCDCON4_WLH	regs-lcd.h
 S3C2410_LCDREG	regs-lcd.h
 S3C2410_MEMREG	regs-mem.h
 S3C2410_OFFSIZE	regs-lcd.h
 S3C2410_PAGEWIDTH	regs-lcd.h
 S3C2410_PLLVAL	regs-clock.h
 S3C2410_TFTPAL	regs-lcd.h
 S3C2412_BLUELUT	regs-lcd.h
 S3C2412_EBIREG	regs-s3c2412-mem.h
 S3C2412_FRCPAT	regs-lcd.h
 S3C2412_GREENLUT	regs-lcd.h
 S3C2412_MEMREG	regs-s3c2412-mem.h
 S3C2412_REDLUT	regs-lcd.h
 S3C2412_SLPCON_EINT	regs-gpio.h
 S3C2412_SLPCON_HIGH	regs-gpio.h
 S3C2412_SLPCON_IN	regs-gpio.h
 S3C2412_SLPCON_LOW	regs-gpio.h
 S3C2412_SLPCON_MASK	regs-gpio.h
 S3C2412_SLPCON_PULL	regs-gpio.h
 S3C2412_SMBCR	regs-s3c2412-mem.h
 S3C2412_SMBSR	regs-s3c2412-mem.h
 S3C2412_SMBWSTBRDR	regs-s3c2412-mem.h
 S3C2412_SMBWSTOENR	regs-s3c2412-mem.h
 S3C2412_SMBWSTRD	regs-s3c2412-mem.h
 S3C2412_SMBWSTWENR	regs-s3c2412-mem.h
 S3C2412_SMBWSTWRR	regs-s3c2412-mem.h
 S3C2412_SMIDCYR	regs-s3c2412-mem.h
 S3C2412_SSMC	regs-s3c2412-mem.h
 S3C2412_SSMCREG	regs-s3c2412-mem.h
 S3C2412_SSMC_BANK	regs-s3c2412-mem.h
 S3C2416_DSC_GETSHIFT	regs-dsc.h
 S3C2416_IRQ	irqs.h
 S3C2416_IRQ	irqs.h
 S3C2416_IRQ	irqs.h
 S3C2416_IRQ	irqs.h
 S3C2416_IRQ	irqs.h
 S3C2416_MEMREG	regs-s3c2416-mem.h
 S3C2440_DSC_GETSHIFT	regs-dsc.h
 S3C2443_CLKREG	regs-s3c2443-clock.h
 S3C24XX_EINTREG	regs-irq.h
 S3C24XX_GPIOREG2	regs-gpio.h
 S3C24XX_PWRREG	regs-power.h
 S3C_TIMERREG	s5p-time.c
 S3C_VA_UARTx	map.h
 SCM_VERSION	scm.h
 SCRATCH_OFF	bpf_jit_32.c
 SEEN_MEM_WORD	bpf_jit_32.c
 SET_ABID	iommu_hw-8xxx.h
 SET_ABURST	iommu_hw-8xxx.h
 SET_ACTLR	iommu_hw-8xxx.h
 SET_AFE	iommu_hw-8xxx.h
 SET_AFF	iommu_hw-8xxx.h
 SET_AFFD	iommu_hw-8xxx.h
 SET_AFULL	iommu_hw-8xxx.h
 SET_AINNERSHARED	iommu_hw-8xxx.h
 SET_AINST	iommu_hw-8xxx.h
 SET_ALEN	iommu_hw-8xxx.h
 SET_ALOCK	iommu_hw-8xxx.h
 SET_AMEMTYPE	iommu_hw-8xxx.h
 SET_AMID	iommu_hw-8xxx.h
 SET_APF	iommu_hw-8xxx.h
 SET_APID	iommu_hw-8xxx.h
 SET_APRIV	iommu_hw-8xxx.h
 SET_APROTNS	iommu_hw-8xxx.h
 SET_ASHARED	iommu_hw-8xxx.h
 SET_ATID	iommu_hw-8xxx.h
 SET_AWRITE	iommu_hw-8xxx.h
 SET_BE	iommu_hw-8xxx.h
 SET_BFBCR	iommu_hw-8xxx.h
 SET_BFBDFE	iommu_hw-8xxx.h
 SET_BFBSFE	iommu_hw-8xxx.h
 SET_BPMEMTYPE	iommu_hw-8xxx.h
 SET_BPMTCFG	iommu_hw-8xxx.h
 SET_BPRCISH	iommu_hw-8xxx.h
 SET_BPRCNSH	iommu_hw-8xxx.h
 SET_BPRCOSH	iommu_hw-8xxx.h
 SET_BPSHCFG	iommu_hw-8xxx.h
 SET_BYPASS	iommu_hw-8xxx.h
 SET_BYPASSD	iommu_hw-8xxx.h
 SET_CBACR_N	iommu_hw-8xxx.h
 SET_CBNDX	iommu_hw-8xxx.h
 SET_CBVMID	iommu_hw-8xxx.h
 SET_CFCFG	iommu_hw-8xxx.h
 SET_CFEIE	iommu_hw-8xxx.h
 SET_CFERE	iommu_hw-8xxx.h
 SET_CFG	iommu_hw-8xxx.h
 SET_CLIENTPD	iommu_hw-8xxx.h
 SET_CONTEXTIDR	iommu_hw-8xxx.h
 SET_CONTEXTIDR_ASID	iommu_hw-8xxx.h
 SET_CONTEXTIDR_PROCID	iommu_hw-8xxx.h
 SET_CONTEXT_FIELD	iommu_hw-8xxx.h
 SET_CR	iommu_hw-8xxx.h
 SET_CR_HUME	iommu_hw-8xxx.h
 SET_CR_TLBIALLCFG	iommu_hw-8xxx.h
 SET_CTX_REG	iommu_hw-8xxx.h
 SET_CTX_TLBIALL	iommu_hw-8xxx.h
 SET_DCDEE	iommu_hw-8xxx.h
 SET_DNA	iommu_hw-8xxx.h
 SET_DNLV2PA	iommu_hw-8xxx.h
 SET_DPSIZC	iommu_hw-8xxx.h
 SET_DPSIZR	iommu_hw-8xxx.h
 SET_EAR	iommu_hw-8xxx.h
 SET_ESR	iommu_hw-8xxx.h
 SET_ESRRESTORE	iommu_hw-8xxx.h
 SET_ESR_MULTI	iommu_hw-8xxx.h
 SET_ESYNR0	iommu_hw-8xxx.h
 SET_ESYNR0_ABID	iommu_hw-8xxx.h
 SET_ESYNR0_AMID	iommu_hw-8xxx.h
 SET_ESYNR0_APID	iommu_hw-8xxx.h
 SET_ESYNR0_ATID	iommu_hw-8xxx.h
 SET_ESYNR0_AVMID	iommu_hw-8xxx.h
 SET_ESYNR1	iommu_hw-8xxx.h
 SET_ESYNR1_ABURST	iommu_hw-8xxx.h
 SET_ESYNR1_AC	iommu_hw-8xxx.h
 SET_ESYNR1_AFULL	iommu_hw-8xxx.h
 SET_ESYNR1_AINNERSHARED	iommu_hw-8xxx.h
 SET_ESYNR1_AINST	iommu_hw-8xxx.h
 SET_ESYNR1_ALEN	iommu_hw-8xxx.h
 SET_ESYNR1_ALOCK	iommu_hw-8xxx.h
 SET_ESYNR1_AMEMTYPE	iommu_hw-8xxx.h
 SET_ESYNR1_AOOO	iommu_hw-8xxx.h
 SET_ESYNR1_APRIV	iommu_hw-8xxx.h
 SET_ESYNR1_APROTNS	iommu_hw-8xxx.h
 SET_ESYNR1_ASHARED	iommu_hw-8xxx.h
 SET_ESYNR1_ASIZE	iommu_hw-8xxx.h
 SET_ESYNR1_AWRITE	iommu_hw-8xxx.h
 SET_ESYNR1_DCD	iommu_hw-8xxx.h
 SET_FAR	iommu_hw-8xxx.h
 SET_FAULT	iommu_hw-8xxx.h
 SET_FAULT_AFF	iommu_hw-8xxx.h
 SET_FAULT_APF	iommu_hw-8xxx.h
 SET_FAULT_HTWDEEF	iommu_hw-8xxx.h
 SET_FAULT_HTWSEEF	iommu_hw-8xxx.h
 SET_FAULT_MHF	iommu_hw-8xxx.h
 SET_FAULT_SL	iommu_hw-8xxx.h
 SET_FAULT_SS	iommu_hw-8xxx.h
 SET_FAULT_TF	iommu_hw-8xxx.h
 SET_FAULT_TLBMF	iommu_hw-8xxx.h
 SET_FIELD	iommu_hw-8xxx.h
 SET_FLOOR	iommu_hw-8xxx.h
 SET_FLVIC	iommu_hw-8xxx.h
 SET_FSR	iommu_hw-8xxx.h
 SET_FSRRESTORE	iommu_hw-8xxx.h
 SET_FSYNR0	iommu_hw-8xxx.h
 SET_FSYNR1	iommu_hw-8xxx.h
 SET_FSYNR1_ASIZE	iommu_hw-8xxx.h
 SET_GLOBAL_FIELD	iommu_hw-8xxx.h
 SET_GLOBAL_REG	iommu_hw-8xxx.h
 SET_GLOBAL_REG_N	iommu_hw-8xxx.h
 SET_GLOBAL_TLBIALL	iommu_hw-8xxx.h
 SET_HAF	iommu_hw-8xxx.h
 SET_HIT	iommu_hw-8xxx.h
 SET_HTWDEEF	iommu_hw-8xxx.h
 SET_HTWSEEF	iommu_hw-8xxx.h
 SET_HUME	iommu_hw-8xxx.h
 SET_ICPC0	iommu_hw-8xxx.h
 SET_ICPC1	iommu_hw-8xxx.h
 SET_ICPC2	iommu_hw-8xxx.h
 SET_ICPC3	iommu_hw-8xxx.h
 SET_ICPC4	iommu_hw-8xxx.h
 SET_ICPC5	iommu_hw-8xxx.h
 SET_ICPC6	iommu_hw-8xxx.h
 SET_ICPC7	iommu_hw-8xxx.h
 SET_INDEX	iommu_hw-8xxx.h
 SET_IRPTNDX	iommu_hw-8xxx.h
 SET_ISH	iommu_hw-8xxx.h
 SET_LKE	iommu_hw-8xxx.h
 SET_M	iommu_hw-8xxx.h
 SET_M2VCBR_N	iommu_hw-8xxx.h
 SET_MHF	iommu_hw-8xxx.h
 SET_MT	iommu_hw-8xxx.h
 SET_MTC0	iommu_hw-8xxx.h
 SET_MTC1	iommu_hw-8xxx.h
 SET_MTC2	iommu_hw-8xxx.h
 SET_MTC3	iommu_hw-8xxx.h
 SET_MTC4	iommu_hw-8xxx.h
 SET_MTC5	iommu_hw-8xxx.h
 SET_MTC6	iommu_hw-8xxx.h
 SET_MTC7	iommu_hw-8xxx.h
 SET_MULTI	iommu_hw-8xxx.h
 SET_N	iommu_hw-8xxx.h
 SET_NMRR	iommu_hw-8xxx.h
 SET_NOFAULT_MT	iommu_hw-8xxx.h
 SET_NOFAULT_NOS	iommu_hw-8xxx.h
 SET_NOFAULT_NS	iommu_hw-8xxx.h
 SET_NOFAULT_SH	iommu_hw-8xxx.h
 SET_NOFAULT_SS	iommu_hw-8xxx.h
 SET_NOS0	iommu_hw-8xxx.h
 SET_NOS1	iommu_hw-8xxx.h
 SET_NOS2	iommu_hw-8xxx.h
 SET_NOS3	iommu_hw-8xxx.h
 SET_NOS4	iommu_hw-8xxx.h
 SET_NOS5	iommu_hw-8xxx.h
 SET_NOS6	iommu_hw-8xxx.h
 SET_NOS7	iommu_hw-8xxx.h
 SET_NPFAULT_PA	iommu_hw-8xxx.h
 SET_NSCFG	iommu_hw-8xxx.h
 SET_NSDESC	iommu_hw-8xxx.h
 SET_OCPC0	iommu_hw-8xxx.h
 SET_OCPC1	iommu_hw-8xxx.h
 SET_OCPC2	iommu_hw-8xxx.h
 SET_OCPC3	iommu_hw-8xxx.h
 SET_OCPC4	iommu_hw-8xxx.h
 SET_OCPC5	iommu_hw-8xxx.h
 SET_OCPC6	iommu_hw-8xxx.h
 SET_OCPC7	iommu_hw-8xxx.h
 SET_PAR	iommu_hw-8xxx.h
 SET_PD0	iommu_hw-8xxx.h
 SET_PD1	iommu_hw-8xxx.h
 SET_PR	iommu_hw-8xxx.h
 SET_PRIVCFG	iommu_hw-8xxx.h
 SET_PRRR	iommu_hw-8xxx.h
 SET_PTMEMTYPE	iommu_hw-8xxx.h
 SET_PTMTCFG	iommu_hw-8xxx.h
 SET_PTSHCFG	iommu_hw-8xxx.h
 SET_PW	iommu_hw-8xxx.h
 SET_RCISH	iommu_hw-8xxx.h
 SET_RCNSH	iommu_hw-8xxx.h
 SET_RCOSH	iommu_hw-8xxx.h
 SET_RESUME	iommu_hw-8xxx.h
 SET_RPUE	iommu_hw-8xxx.h
 SET_RPUEIE	iommu_hw-8xxx.h
 SET_RPUERE	iommu_hw-8xxx.h
 SET_RPU_ACR	iommu_hw-8xxx.h
 SET_RWE	iommu_hw-8xxx.h
 SET_RWGE	iommu_hw-8xxx.h
 SET_RWVMID	iommu_hw-8xxx.h
 SET_SCTLR	iommu_hw-8xxx.h
 SET_SFVS	iommu_hw-8xxx.h
 SET_SH	iommu_hw-8xxx.h
 SET_SHDSH0	iommu_hw-8xxx.h
 SET_SHDSH1	iommu_hw-8xxx.h
 SET_SHNMSH0	iommu_hw-8xxx.h
 SET_SHNMSH1	iommu_hw-8xxx.h
 SET_SL	iommu_hw-8xxx.h
 SET_SLVIC	iommu_hw-8xxx.h
 SET_SPDM0SEL	iommu_hw-8xxx.h
 SET_SPDM1SEL	iommu_hw-8xxx.h
 SET_SPDM2SEL	iommu_hw-8xxx.h
 SET_SPDM3SEL	iommu_hw-8xxx.h
 SET_SPDMBE	iommu_hw-8xxx.h
 SET_SS	iommu_hw-8xxx.h
 SET_STALLD	iommu_hw-8xxx.h
 SET_TBE	iommu_hw-8xxx.h
 SET_TBHSEL	iommu_hw-8xxx.h
 SET_TBLSEL	iommu_hw-8xxx.h
 SET_TESTBUSCR	iommu_hw-8xxx.h
 SET_TF	iommu_hw-8xxx.h
 SET_TIPCF	iommu_hw-8xxx.h
 SET_TLBBFBS	iommu_hw-8xxx.h
 SET_TLBFLPTER	iommu_hw-8xxx.h
 SET_TLBIASID	iommu_hw-8xxx.h
 SET_TLBIASIDCFG	iommu_hw-8xxx.h
 SET_TLBIVA	iommu_hw-8xxx.h
 SET_TLBIVAA	iommu_hw-8xxx.h
 SET_TLBIVAACFG	iommu_hw-8xxx.h
 SET_TLBIVMID	iommu_hw-8xxx.h
 SET_TLBIVMIDCFG	iommu_hw-8xxx.h
 SET_TLBIVMID_VMID	iommu_hw-8xxx.h
 SET_TLBLKCR	iommu_hw-8xxx.h
 SET_TLBLKCRWE	iommu_hw-8xxx.h
 SET_TLBLKCR_TLBIALLCFG	iommu_hw-8xxx.h
 SET_TLBMCFG	iommu_hw-8xxx.h
 SET_TLBMF	iommu_hw-8xxx.h
 SET_TLBRSW	iommu_hw-8xxx.h
 SET_TLBRSW_INDEX	iommu_hw-8xxx.h
 SET_TLBSLPTER	iommu_hw-8xxx.h
 SET_TLBTR0	iommu_hw-8xxx.h
 SET_TLBTR1	iommu_hw-8xxx.h
 SET_TLBTR1_PA	iommu_hw-8xxx.h
 SET_TLBTR1_VMID	iommu_hw-8xxx.h
 SET_TLBTR2	iommu_hw-8xxx.h
 SET_TLBTR2_ASID	iommu_hw-8xxx.h
 SET_TLBTR2_NSTID	iommu_hw-8xxx.h
 SET_TLBTR2_NV	iommu_hw-8xxx.h
 SET_TLBTR2_V	iommu_hw-8xxx.h
 SET_TLBTR2_VA	iommu_hw-8xxx.h
 SET_TNR	iommu_hw-8xxx.h
 SET_TRE	iommu_hw-8xxx.h
 SET_TTBCR	iommu_hw-8xxx.h
 SET_TTBR0	iommu_hw-8xxx.h
 SET_TTBR0_IRGNH	iommu_hw-8xxx.h
 SET_TTBR0_IRGNL	iommu_hw-8xxx.h
 SET_TTBR0_NOS	iommu_hw-8xxx.h
 SET_TTBR0_ORGN	iommu_hw-8xxx.h
 SET_TTBR0_PA	iommu_hw-8xxx.h
 SET_TTBR0_SH	iommu_hw-8xxx.h
 SET_TTBR1	iommu_hw-8xxx.h
 SET_TTBR1_IRGNH	iommu_hw-8xxx.h
 SET_TTBR1_IRGNL	iommu_hw-8xxx.h
 SET_TTBR1_NOS	iommu_hw-8xxx.h
 SET_TTBR1_ORGN	iommu_hw-8xxx.h
 SET_TTBR1_PA	iommu_hw-8xxx.h
 SET_TTBR1_SH	iommu_hw-8xxx.h
 SET_UR	iommu_hw-8xxx.h
 SET_UW	iommu_hw-8xxx.h
 SET_V2PCFG	iommu_hw-8xxx.h
 SET_V2PPR	iommu_hw-8xxx.h
 SET_V2PPW	iommu_hw-8xxx.h
 SET_V2PSR	iommu_hw-8xxx.h
 SET_V2PUR	iommu_hw-8xxx.h
 SET_V2PUW	iommu_hw-8xxx.h
 SET_VICTIM	iommu_hw-8xxx.h
 SET_VMID	iommu_hw-8xxx.h
 SET_WGSEL	iommu_hw-8xxx.h
 SET_XN	iommu_hw-8xxx.h
 SL_OFFSET	iommu_hw-8xxx.h
 SPEAR1340_MIPHY_PLL_RATIO_TOP	spear1340.c
 SPEEDO_ID_SELECT_0	tegra20_speedo.c
 SPEEDO_ID_SELECT_1	tegra20_speedo.c
 SPI_WRITE	board-trout-panel.c
 SPI_WRITE1	board-trout-panel.c
 SREG_CPU_PWR_CTRL	sysregs.h
 SYNCIO_FRMLEN	clps711x.h
 SYNC_SOURCE	tegra30_clocks_data.c
 SYSCON1_ADCKSEL	clps711x.h
 SYSCON1_KBDSCAN	clps711x.h
 SYSCON3_VERSN	clps711x.h
 SYSFLG1_VERID	clps711x.h
 SYSPLD_REG	syspld.h
 TEGRA	pcie.c
 TIMER_COUNT	time.c
 TIMER_COUNT	time.c
 TIMER_CR	time.c
 TIMER_CR	time.c
 TIMER_LOAD	time.c
 TIMER_LOAD	time.c
 TIMER_MATCH1	time.c
 TIMER_MATCH1	time.c
 TIMER_MATCH2	time.c
 TIMER_MATCH2	time.c
 TIMER_RESOURCE	devs.c
 TROUT_BANK_TO_MASK_REG	board-trout.h
 TROUT_BANK_TO_STAT_REG	board-trout.h
 TROUT_GPIO_BANK	board-trout-gpio.c
 TROUT_GPIO_TO_INT	board-trout-gpio.c
 TROUT_GPIO_TO_INT	board-trout.h
 TROUT_INT_TO_BANK	board-trout.h
 TROUT_INT_TO_MASK	board-trout.h
 UTMIP_PLL_CFG1_ENABLE_DLY_COUNT	tegra30_clocks.c
 UTMIP_PLL_CFG1_XTAL_FREQ_COUNT	tegra30_clocks.c
 UTMIP_PLL_CFG2_ACTIVE_DLY_COUNT	tegra30_clocks.c
 UTMIP_PLL_CFG2_STABLE_COUNT	tegra30_clocks.c
 VA_C2	mach-bast.c
 VA_C2	mach-vr1000.c
 VA_C3	mach-bast.c
 VA_C3	mach-vr1000.c
 VA_C4	mach-bast.c
 VA_C4	mach-vr1000.c
 VA_C5	mach-bast.c
 VA_C5	mach-vr1000.c
 VIC_INT_TO_REG_ADDR	irq-vic.c
 VIC_INT_TO_REG_INDEX	irq-vic.c
 VIC_REG	irq-vic.c
 VIC_REG	irq-vic.c
 VIC_REG	irq-vic.c
 VIC_REG	irq-vic.c
 VIC_REG	irq-vic.c
 VIC_VECTADDR	irq-vic.c
 VIC_VECTPRIORITY	irq-vic.c
 VR1000_IOADDR	vr1000-map.h
 VR1000_IOADDR	vr1000-map.h
 VR1000_SERIAL_MAPBASE	mach-vr1000.c
 VREG	vreg.c
 _AL3_I	bpf_jit_32.h
 _AL3_R	bpf_jit_32.h
 __PORT_PCIO	io.h
 __PORT_PCIO	io.h
 __clk_get_rate	tegra30_clocks.c
 __inbc	io.h
 __inlc	io.h
 __inwc	io.h
 __ioaddr	io.h
 __ioaddrc	io.h
 __msm_gpiomux_write	gpiomux-v1.c
 __msm_gpiomux_write	gpiomux-v2.c
 __msm_gpiomux_write	gpiomux.h
 __outbc	io.h
 __outlc	io.h
 __outwc	io.h
 __raw_readl	tick.h
 __scm_call	scm.c
 __tegra_cpu_reset_handler	reset.h
 __tegra_cpu_reset_handler_end	reset.h
 __tegra_cpu_reset_handler_start	reset.h
 _emit	bpf_jit_32.c
 _smd_alloc_channel	smd_private.h
 _smd_alloc_channel	smd_private.h
 adc_dbg	adc.c
 adc_init	adc.c
 add_fixed_clk	common.c
 add_fixed_clk	common.c
 add_fixed_clk	common.c
 afi_readl	pcie.c
 afi_writel	pcie.c
 amlm5900_init	mach-amlm5900.c
 amlm5900_init_pm	mach-amlm5900.c
 amlm5900_map_io	mach-amlm5900.c
 anubis_init	mach-anubis.c
 anubis_map_io	mach-anubis.c
 anubis_nand_select	mach-anubis.c
 apb_dma_complete	apbio.c
 apbio_read	apbio.c
 arch_decomp_setup	uncompress.h
 arch_decomp_setup	uncompress.h
 arch_decomp_setup	uncompress.h
 arch_decomp_setup	uncompress.h
 arch_decomp_setup	uncompress.h
 arch_decomp_setup	uncompress.h
 arch_decomp_setup	uncompress.h
 arch_decomp_wdog	uncompress.h
 arch_decomp_wdog	uncompress.h
 arch_decomp_wdog	uncompress.h
 arch_decomp_wdog	uncompress.h
 arch_decomp_wdog	uncompress.h
 arch_decomp_wdog	uncompress.h
 arch_decomp_wdog	uncompress.h
 arch_reset	system.h
 asm	scm.c
 asm	scm.c
 asm	scm.c
 asm	scm.c
 asm	scm.c
 at2440evb_init	mach-at2440evb.c
 at2440evb_map_io	mach-at2440evb.c
 b_imm	bpf_jit_32.c
 bast_ide_init	bast-ide.c
 bast_init	mach-bast.c
 bast_irq_init	bast-irq.c
 bast_map_io	mach-bast.c
 bast_nand_select	mach-bast.c
 bast_pm_resume	mach-bast.c
 bast_pm_suspend	mach-bast.c
 bit_mask	clock-clksrc.c
 bogus_int	irq.c
 bogus_int	irq.c
 bogus_int	irq.c
 bogus_int	irq.c
 bpf_jit_compile	bpf_jit_32.c
 bpf_jit_free	bpf_jit_32.c
 bpf_jit_free_worker	bpf_jit_32.c
 build_body	bpf_jit_32.c
 build_epilogue	bpf_jit_32.c
 build_prologue	bpf_jit_32.c
 camif_get_gpios	setup-camif.c
 cdb89712_init	board-cdb89712.c
 ch_is_open	smd.c
 ch_read	smd.c
 ch_read_buffer	smd.c
 ch_read_done	smd.c
 ch_set_state	smd.c
 ch_write_buffer	smd.c
 ch_write_done	smd.c
 check_for_modem_crash	smd.c
 chipid_readl	tegra30_clocks.c
 clk_7x30_init	clock-7x30.h
 clk_div16_get_divider	tegra20_clocks.c
 clk_div16_get_divider	tegra30_clocks.c
 clk_div71_get_divider	tegra20_clocks.c
 clk_get_rate	clock-s3c2440.c
 clk_get_rate	pwm-clock.c
 clk_get_rate	pwm-clock.c
 clk_get_rate_all_locked	clk.h
 clk_get_rate_all_locked	clk.h
 clk_measure_input_freq	tegra20_clocks.c
 clk_measure_input_freq	tegra30_clocks.c
 clk_prepare_enable	pcie.c
 clk_pwm_scaler_get_rate	pwm-clock.c
 clk_pwm_scaler_set_rate	pwm-clock.c
 clk_pwm_tdiv_bits	pwm-clock.c
 clk_pwm_tdiv_get_rate	pwm-clock.c
 clk_pwm_tdiv_register	pwm-clock.c
 clk_pwm_tdiv_set_rate	pwm-clock.c
 clk_pwm_tdiv_update	pwm-clock.c
 clk_pwm_tin_register	pwm-clock.c
 clk_pwm_tin_set_parent	pwm-clock.c
 clk_readl	tegra20_clocks.c
 clk_readl	tegra30_clocks.c
 clk_set_div	tegra30_clocks.c
 clk_set_parent	pwm-clock.c
 clk_writel	tegra20_clocks.c
 clk_writel	tegra30_clocks.c
 clk_writel_delay	tegra30_clocks.c
 clock_debug_add	clock-debug.c
 clock_debug_enable_get	clock-debug.c
 clock_debug_enable_set	clock-debug.c
 clock_debug_init	clock-debug.c
 clock_debug_local_get	clock-debug.c
 clock_debug_rate_get	clock-debug.c
 clock_debug_rate_set	clock-debug.c
 clps711x_handle_irq	common.c
 clps711x_handle_irq	common.c
 clps711x_handle_irq	common.c
 clps711x_handle_irq	common.h
 clps711x_handle_irq	common.h
 clps711x_handle_irq	common.h
 clps711x_handle_irq	common.h
 clps711x_handle_irq	common.h
 clps711x_idle	common.c
 clps711x_idle	common.c
 clps711x_idle	common.c
 clps711x_idle_init	common.c
 clps711x_idle_init	common.c
 clps711x_idle_init	common.c
 clps711x_init_irq	common.c
 clps711x_init_irq	common.c
 clps711x_init_irq	common.c
 clps711x_init_irq	common.h
 clps711x_init_irq	common.h
 clps711x_init_irq	common.h
 clps711x_init_irq	common.h
 clps711x_init_irq	common.h
 clps711x_map_io	common.c
 clps711x_map_io	common.c
 clps711x_map_io	common.c
 clps711x_map_io	common.h
 clps711x_map_io	common.h
 clps711x_map_io	common.h
 clps711x_map_io	common.h
 clps711x_map_io	common.h
 clps711x_restart	common.c
 clps711x_restart	common.c
 clps711x_restart	common.c
 clps711x_restart	common.h
 clps711x_restart	common.h
 clps711x_restart	common.h
 clps711x_restart	common.h
 clps711x_restart	common.h
 clps711x_timer_init	common.c
 clps711x_timer_init	common.c
 clps711x_timer_init	common.c
 clps711x_timer_interrupt	common.c
 clps711x_timer_interrupt	common.c
 clps711x_timer_interrupt	common.c
 clps_readb	hardware.h
 clps_readb	hardware.h
 clps_readb	hardware.h
 clps_readb	hardware.h
 clps_readb	hardware.h
 clps_readb	hardware.h
 clps_readl	hardware.h
 clps_readl	hardware.h
 clps_readl	hardware.h
 clps_readl	hardware.h
 clps_readl	hardware.h
 clps_readl	hardware.h
 clps_readw	hardware.h
 clps_readw	hardware.h
 clps_readw	hardware.h
 clps_readw	hardware.h
 clps_readw	hardware.h
 clps_readw	hardware.h
 clps_writeb	hardware.h
 clps_writeb	hardware.h
 clps_writeb	hardware.h
 clps_writeb	hardware.h
 clps_writeb	hardware.h
 clps_writeb	hardware.h
 clps_writel	hardware.h
 clps_writel	hardware.h
 clps_writel	hardware.h
 clps_writel	hardware.h
 clps_writel	hardware.h
 clps_writel	hardware.h
 clps_writew	hardware.h
 clps_writew	hardware.h
 clps_writew	hardware.h
 clps_writew	hardware.h
 clps_writew	hardware.h
 clps_writew	hardware.h
 config_gpio_table	board-trout-mmc.c
 container_of	clock-clksrc.c
 container_of	pwm-clock.c
 cpu_enter_lowpower	hotplug.c
 cpu_enter_lowpower	hotplug.c
 cpu_enter_lowpower	hotplug.c
 cpu_enter_lowpower	hotplug.c
 cpu_is_msm7x01	cpu.h
 cpu_is_msm7x01	cpu.h
 cpu_is_msm7x30	cpu.h
 cpu_is_msm7x30	cpu.h
 cpu_is_msm8960	cpu.h
 cpu_is_msm8960	cpu.h
 cpu_is_msm8x60	cpu.h
 cpu_is_msm8x60	cpu.h
 cpu_is_qsd8x50	cpu.h
 cpu_is_qsd8x50	cpu.h
 cpu_leave_lowpower	hotplug.c
 cpu_leave_lowpower	hotplug.c
 cpu_leave_lowpower	hotplug.c
 cpu_leave_lowpower	hotplug.c
 cpufreq_frequency_table_verify	cpu-tegra.c
 cpufreq_register_driver	cpu-tegra.c
 debug_read_alloc_tbl	smd_debug.c
 debug_read_build_id	smd_debug.c
 debug_read_ch	smd_debug.c
 debug_read_mem	smd_debug.c
 debug_read_stat	smd_debug.c
 debug_read_version	smd_debug.c
 defined	apbio.c
 defined	board-msm7x30.c
 defined	board-trout-gpio.c
 defined	board.h
 defined	board.h
 defined	devs.c
 defined	dma-s3c2410.c
 defined	dma-s3c2410.c
 defined	gpio.h
 defined	gpio.h
 defined	gpio.h
 defined	gpio.h
 defined	gpiomux-8x50.c
 defined	gpiomux-v1.h
 defined	gpiomux-v1.h
 defined	gpiomux.h
 defined	irq-vic.c
 defined	irq-vic.c
 defined	irq-vic.c
 defined	irqs.h
 defined	irqs.h
 defined	irqs.h
 defined	irqs.h
 defined	irqs.h
 defined	irqs.h
 defined	irqs.h
 defined	irqs.h
 defined	irqs.h
 defined	irqs.h
 defined	leds.c
 defined	msm_iomap.h
 defined	msm_iomap.h
 defined	msm_iomap.h
 defined	msm_iomap.h
 defined	msm_iomap.h
 defined	pm-gpio.c
 defined	pm-s3c2410.c
 defined	pm-s3c2410.c
 defined	pm-s3c2410.c
 defined	proc_comm.c
 defined	regs-clock.h
 defined	regs-clock.h
 defined	regs-dsc.h
 defined	regs-dsc.h
 defined	regs-dsc.h
 defined	sirc.h
 defined	sirc.h
 defined	smd.c
 defined	smd.c
 defined	smd.c
 defined	smd_debug.c
 defined	smd_private.h
 defined	vreg.c
 dev_name	platformdata.c
 device	setup-sdhci-gpio.c
 device_register	s3c2410.c
 device_register	s3c2412.c
 device_register	s3c2416.c
 device_register	s3c2440.c
 device_register	s3c2442.c
 device_register	s3c2443.c
 dmaengine_terminate_all	dma-ops.c
 do_nothing_notify	smd.c
 do_smd_probe	smd.c
 dump_ch	smd_debug.c
 dw_dma_filter	generic.h
 dw_dma_filter	spear13xx.c
 edb7211_init	board-edb7211.c
 edb7211_lcd_backlight_set_intensity	board-edb7211.c
 edb7211_lcd_power_set	board-edb7211.c
 edb7211_map_io	board-edb7211.c
 edb7211_reserve	board-edb7211.c
 emc_readl	tegra2_emc.c
 emc_writel	tegra2_emc.c
 emit	bpf_jit_32.c
 emit_blx_r	bpf_jit_32.c
 emit_blx_r	bpf_jit_32.c
 emit_err_ret	bpf_jit_32.c
 emit_load_be16	bpf_jit_32.c
 emit_load_be16	bpf_jit_32.c
 emit_load_be32	bpf_jit_32.c
 emit_load_be32	bpf_jit_32.c
 emit_mov_i	bpf_jit_32.c
 emit_mov_i_no8m	bpf_jit_32.c
 emit_swap16	bpf_jit_32.c
 emit_udiv	bpf_jit_32.c
 enable_hlt	idle.c
 flowctrl_cpu_suspend_enter	flowctrl.c
 flowctrl_cpu_suspend_enter	flowctrl.h
 flowctrl_cpu_suspend_exit	flowctrl.c
 flowctrl_cpu_suspend_exit	flowctrl.h
 flowctrl_read_cpu_csr	flowctrl.c
 flowctrl_read_cpu_csr	flowctrl.h
 flowctrl_update	flowctrl.c
 flowctrl_update	flowctrl.c
 flowctrl_update	flowctrl.c
 flowctrl_write_cpu_csr	flowctrl.c
 flowctrl_write_cpu_csr	flowctrl.h
 flowctrl_write_cpu_halt	flowctrl.c
 flowctrl_write_cpu_halt	flowctrl.h
 fls	bpf_jit_32.c
 fls16	common.c
 fls16	common.c
 fls16	common.c
 flush	uncompress.h
 flush	uncompress.h
 flush	uncompress.h
 flush	uncompress.h
 flush	uncompress.h
 flush	uncompress.h
 flush	uncompress.h
 free_scm_command	scm.c
 fuse_speedo_calib	tegra30_speedo.c
 gemini_gpio_direction_input	gpio.c
 gemini_gpio_get	gpio.c
 gemini_gpio_init	gpio.c
 gemini_gpio_set	gpio.c
 gemini_idle	idle.c
 gemini_idle_init	idle.c
 gemini_map_io	mm.c
 gemini_timer_init	time.c
 gemini_timer_init	time.c
 gemini_timer_interrupt	time.c
 gemini_timer_interrupt	time.c
 gpio_ack_irq	gpio.c
 gpio_irq_handler	gpio.c
 gpio_mask_irq	gpio.c
 gpio_request	mach-h1940.c
 gpio_request	mach-rx1950.c
 gpio_set_irq_type	gpio.c
 gpio_unmask_irq	gpio.c
 gpiomux_init	gpiomux.c
 gta02_charger_worker	mach-gta02.c
 gta02_machine_init	mach-gta02.c
 gta02_map_io	mach-gta02.c
 gta02_panic_blink	mach-gta02.c
 gta02_pmu_attach_child_devices	mach-gta02.c
 gta02_pmu_attach_child_devices	mach-gta02.c
 gta02_pmu_event_callback	mach-gta02.c
 gta02_poweroff	mach-gta02.c
 gta02_udc_vbus_draw	mach-gta02.c
 h1940_backlight_exit	mach-h1940.c
 h1940_backlight_init	mach-h1940.c
 h1940_backlight_notify	mach-h1940.c
 h1940_bat_exit	mach-h1940.c
 h1940_bat_init	mach-h1940.c
 h1940_disable_charger	mach-h1940.c
 h1940_enable_charger	mach-h1940.c
 h1940_gpiolib_to_latch	mach-h1940.c
 h1940_init	mach-h1940.c
 h1940_init_irq	mach-h1940.c
 h1940_is_ac_online	mach-h1940.c
 h1940_latch_control	mach-h1940.c
 h1940_map_io	mach-h1940.c
 h1940_pm_return	h1940.h
 h1940_reserve	mach-h1940.c
 h1940_set_mmc_power	mach-h1940.c
 h1940bt_enable	h1940-bluetooth.c
 h1940bt_probe	h1940-bluetooth.c
 h1940bt_remove	h1940-bluetooth.c
 h1940bt_set_block	h1940-bluetooth.c
 halibut_init	board-halibut.c
 halibut_init_early	board-halibut.c
 halibut_init_irq	board-halibut.c
 halibut_init_late	board-halibut.c
 halibut_map_io	board-halibut.c
 handle_modem_crash	smd.c
 handle_smd_irq	smd.c
 harmony_init	board-dt-tegra20.c
 harmony_pcie_init	board-harmony-pcie.c
 harmony_pcie_init	board.h
 harmony_pcie_init	board.h
 harmony_pcie_init	board.h
 harmony_pcie_init	board.h
 harmony_regulator_init	board.h
 harmony_regulator_init	board.h
 highbank_clear_core_pwr	sysregs.h
 highbank_clear_pwr_request	sysregs.h
 highbank_init	highbank.c
 highbank_init_irq	highbank.c
 highbank_l2x0_disable	highbank.c
 highbank_power_off	highbank.c
 highbank_restart	system.c
 highbank_scu_map_io	highbank.c
 highbank_set_core_pwr	sysregs.h
 highbank_set_cpu_jump	highbank.c
 highbank_set_pwr_hard_reset	sysregs.h
 highbank_set_pwr_shutdown	sysregs.h
 highbank_set_pwr_soft_reset	sysregs.h
 highbank_set_pwr_suspend	sysregs.h
 highbank_timer_init	highbank.c
 ib4220b_init	board-nas4220b.c
 imm8m	bpf_jit_32.c
 imm_offset	bpf_jit_32.c
 in_region	pm-check.c
 inb	io.h
 init_audio_sync_clock_mux	tegra20_clocks_data.c
 inl	io.h
 insb	io.h
 insl	io.h
 insw	io.h
 int1_eoi	common.c
 int1_eoi	common.c
 int1_eoi	common.c
 int1_mask	common.c
 int1_mask	common.c
 int1_mask	common.c
 int1_unmask	common.c
 int1_unmask	common.c
 int1_unmask	common.c
 int2_eoi	common.c
 int2_eoi	common.c
 int2_eoi	common.c
 int2_mask	common.c
 int2_mask	common.c
 int2_mask	common.c
 int2_unmask	common.c
 int2_unmask	common.c
 int2_unmask	common.c
 int3_mask	common.c
 int3_mask	common.c
 int3_mask	common.c
 int3_unmask	common.c
 int3_unmask	common.c
 int3_unmask	common.c
 internal_pwr_rail_ctl_auto	clock-7x30.h
 inw	io.h
 inw	leds.c
 irqdbf	bast-irq.c
 irqdbf2	bast-irq.c
 is_dvs	mach-osiris-dvs.c
 is_in	pm-gpio.c
 is_load_to_a	bpf_jit_32.c
 is_out	pm-gpio.c
 is_sfn	pm-gpio.c
 jit_get_skb_b	bpf_jit_32.c
 jit_get_skb_h	bpf_jit_32.c
 jit_get_skb_w	bpf_jit_32.c
 jit_udiv	bpf_jit_32.c
 jive_lcm_reset	mach-jive.c
 jive_machine_init	mach-jive.c
 jive_map_io	mach-jive.c
 jive_mtdset	mach-jive.c
 jive_pm_resume	mach-jive.c
 jive_pm_suspend	mach-jive.c
 jive_power_off	mach-jive.c
 led_reg_read	leds.c
 led_reg_write	leds.c
 mahimahi_init	board-mahimahi.c
 mahimahi_init_late	board-mahimahi.c
 mahimahi_map_io	board-mahimahi.c
 mem_words_used	bpf_jit_32.c
 mini2440_features_setup	mach-mini2440.c
 mini2440_init	mach-mini2440.c
 mini2440_map_io	mach-mini2440.c
 msm7x30_init	board-msm7x30.c
 msm7x30_init_irq	board-msm7x30.c
 msm7x30_init_late	board-msm7x30.c
 msm7x30_map_io	board-msm7x30.c
 msm7x30_reserve	board-msm7x30.c
 msm8x60_dt_init	board-dt-8660.c
 msm8x60_init_irq	board-dt-8660.c
 msm8x60_init_late	board-dt-8660.c
 msm8x60_iommu_exit	devices-iommu.c
 msm8x60_iommu_init	devices-iommu.c
 msm_a2m_int	proc_comm.c
 msm_a2m_int	smd_private.h
 msm_a2m_int	smd_private.h
 msm_cpu_die	core.h
 msm_cpu_die	core.h
 msm_dt_init	board-dt-8960.c
 msm_dt_init_irq	board-dt-8960.c
 msm_gpiolib_get	board-trout-gpio.c
 msm_gpiolib_set	board-trout-gpio.c
 msm_gpiomux_get	gpiomux.c
 msm_gpiomux_get	msm_gpiomux.h
 msm_gpiomux_get	msm_gpiomux.h
 msm_gpiomux_put	gpiomux.c
 msm_gpiomux_put	msm_gpiomux.h
 msm_gpiomux_put	msm_gpiomux.h
 msm_init_gpio	board-sapphire.c
 msm_init_irq	board-sapphire.c
 msm_init_irq	irq-vic.c
 msm_init_last_radio_log	last_radio_log.c
 msm_init_last_radio_log	smd_private.h
 msm_init_sirc	sirc.c
 msm_init_sirc	sirc.h
 msm_init_smc91x	board-qsd8x50.c
 msm_iommu_fault_handler	iommu.h
 msm_irq_ack	irq-vic.c
 msm_irq_mask	irq-vic.c
 msm_irq_set_type	irq-vic.c
 msm_irq_set_wake	irq-vic.c
 msm_irq_unmask	irq-vic.c
 msm_irq_write_all_regs	irq-vic.c
 msm_proc_comm	proc_comm.c
 msm_proc_comm	proc_comm.c
 msm_proc_comm	proc_comm.h
 msm_sdcc_setup_power	board-qsd8x50.c
 msm_sirc_enter_sleep	sirc.h
 msm_sirc_exit_sleep	sirc.h
 msm_smd_init	smd.c
 msm_smd_probe	smd.c
 n30_hwinit	mach-n30.c
 n30_init	mach-n30.c
 n30_map_io	mach-n30.c
 n30_sdi_set_power	mach-n30.c
 nexcoder_init	mach-nexcoder.c
 nexcoder_map_io	mach-nexcoder.c
 nexcoder_sensorboard_init	mach-nexcoder.c
 nor_simtec_init	simtec-nor.c
 nor_simtec_init	simtec.h
 notify	msm_smd.h
 notify_dsp_smd	smd.c
 notify_modem_smd	smd.c
 notify_other_proc_comm	proc_comm.c
 notify_other_smsm	smd.c
 of_node_get	tegra2_emc.c
 open	smd.c
 osiris_dvs_probe	mach-osiris-dvs.c
 osiris_dvs_remove	mach-osiris-dvs.c
 osiris_dvs_resume	mach-osiris-dvs.c
 osiris_dvs_suspend	mach-osiris-dvs.c
 osiris_dvs_tps_setdvs	mach-osiris-dvs.c
 osiris_init	mach-osiris.c
 osiris_map_io	mach-osiris.c
 osiris_nand_select	mach-osiris.c
 osiris_pm_resume	mach-osiris.c
 osiris_pm_suspend	mach-osiris.c
 osiris_tps_release	mach-osiris.c
 osiris_tps_remove	mach-osiris.c
 osiris_tps_setup	mach-osiris.c
 otom11_init	mach-otom.c
 otom11_map_io	mach-otom.c
 outb	io.h
 outl	io.h
 outsb	io.h
 outsl	io.h
 outsw	io.h
 outw	io.h
 p720t_init	board-p720t.c
 p720t_init_early	board-p720t.c
 p720t_init_late	board-p720t.c
 p720t_lcd_backlight_set_intensity	board-p720t.c
 p720t_lcd_power_set	board-p720t.c
 p720t_map_io	board-p720t.c
 pads_readl	pcie.c
 pads_writel	pcie.c
 paz00_init	board-dt-tegra20.c
 pc_clk_disable	clock-pcom.c
 pc_clk_enable	clock-pcom.c
 pc_clk_get_rate	clock-pcom.c
 pc_clk_is_enabled	clock-pcom.c
 pc_clk_is_local	clock-pcom.c
 pc_clk_reset	clock-pcom.c
 pc_clk_reset	clock-pcom.h
 pc_clk_round_rate	clock-pcom.c
 pc_clk_set_flags	clock-pcom.c
 pc_clk_set_max_rate	clock-pcom.c
 pc_clk_set_min_rate	clock-pcom.c
 pc_clk_set_rate	clock-pcom.c
 periph_clk_source_mask	tegra30_clocks.c
 periph_clk_source_shift	tegra30_clocks.c
 phys_reg	uncompress.h
 phys_reg	uncompress.h
 phys_reg	uncompress.h
 phys_reg	uncompress.h
 phys_reg	uncompress.h
 phys_reg	uncompress.h
 phys_reg	uncompress.h
 platform_device_register	board-trout-panel.c
 platform_device_register	devices-msm7x00.c
 platform_device_register	devices-qsd8x50.c
 platform_device_register	devices.c
 platform_device_register	devices.c
 platform_device_register	devices.c
 platform_device_register	mach-osiris.c
 platform_driver_register	smd.c
 platform_driver_register	tegra2_emc.c
 platform_register_rtc	devices.c
 platform_register_uart	devices.c
 pll_disable	clock-7x30.h
 pll_enable	clock-7x30.h
 pm_simtec_init	simtec-pm.c
 pmc_read	powergate.c
 pmc_readl	pcie.c
 pmc_readl	tegra20_clocks.c
 pmc_readl	tegra30_clocks.c
 pmc_write	powergate.c
 pmc_writel	pcie.c
 pmc_writel	tegra20_clocks.c
 pmc_writel	tegra30_clocks.c
 power_supply_exit	mach-h1940.c
 power_supply_exit	mach-rx1950.c
 power_supply_init	mach-h1940.c
 power_supply_init	mach-rx1950.c
 powergate_open	powergate.c
 powergate_show	powergate.c
 pr_fmt	smd.c
 pr_fmt	spear1310.c
 pr_fmt	spear1340.c
 pr_fmt	spear13xx.c
 proc_comm_boot_wait	proc_comm.c
 proc_comm_boot_wait	proc_comm.h
 proc_comm_wait_for	proc_comm.c
 putc	uncompress.h
 putc	uncompress.h
 putc	uncompress.h
 putc	uncompress.h
 putc	uncompress.h
 putc	uncompress.h
 putc	uncompress.h
 pwm_tdiv_div_bits	pwm-clock.c
 qsd8x50_init	board-qsd8x50.c
 qsd8x50_init_irq	board-qsd8x50.c
 qsd8x50_init_late	board-qsd8x50.c
 qsd8x50_init_mmc	board-qsd8x50.c
 qsd8x50_map_io	board-qsd8x50.c
 qt2410_machine_init	mach-qt2410.c
 qt2410_map_io	mach-qt2410.c
 qt2410_tft_setup	mach-qt2410.c
 raw_smsm_get_state	smd.c
 raw_smsm_get_state	smd_private.h
 readl	apbio.c
 readl	flowctrl.c
 readl	pcie.c
 readl	pcie.c
 readl	pmc.c
 readl	powergate.c
 readl	smd.c
 readl	tegra2_emc.c
 register	regs-mem.h
 restore_cpu_arch_register	pm.h
 restore_cpu_arch_register	pm.h
 rev_sku_to_speedo_ids	tegra30_speedo.c
 rol32	bpf_jit_32.c
 rut1xx_init	board-rut1xx.c
 rx1950_backlight_exit	mach-rx1950.c
 rx1950_backlight_init	mach-rx1950.c
 rx1950_backlight_notify	mach-rx1950.c
 rx1950_bat_exit	mach-rx1950.c
 rx1950_bat_init	mach-rx1950.c
 rx1950_bl_power	mach-rx1950.c
 rx1950_disable_charger	mach-rx1950.c
 rx1950_enable_charger	mach-rx1950.c
 rx1950_init_machine	mach-rx1950.c
 rx1950_is_ac_online	mach-rx1950.c
 rx1950_lcd_power	mach-rx1950.c
 rx1950_map_io	mach-rx1950.c
 rx1950_reserve	mach-rx1950.c
 rx1950_set_mmc_power	mach-rx1950.c
 rx3715_init_irq	mach-rx3715.c
 rx3715_init_machine	mach-rx3715.c
 rx3715_map_io	mach-rx3715.c
 rx3715_reserve	mach-rx3715.c
 s3c2410_core_init	s3c2410.c
 s3c2410_dma_ctrl	s3c-dma-ops.c
 s3c2410_dma_ctrl	s3c-dma-ops.c
 s3c2410_dma_ctrl	s3c-dma-ops.c
 s3c2410_dma_ctrl	s3c-dma-ops.c
 s3c2410_dma_drvinit	dma-s3c2410.c
 s3c2410_dma_init	dma-s3c24xx.h
 s3c2410_init	s3c2410.c
 s3c2410_init	s3c2410.c
 s3c2410_init_clocks	s3c2410.c
 s3c2410_init_uarts	s3c2410.c
 s3c2410_map_io	s3c2410.c
 s3c2410_pm_add	pm-s3c2410.c
 s3c2410_pm_drvinit	pm-s3c2410.c
 s3c2410_pm_prepare	pm-s3c2410.c
 s3c2410_pm_resume	pm-s3c2410.c
 s3c2410_restart	s3c2410.c
 s3c2410_setup_clocks	s3c2410.c
 s3c2410a_core_init	s3c2410.c
 s3c2410a_dma_drvinit	dma-s3c2410.c
 s3c2410a_init	s3c2410.c
 s3c2410a_pm_drvinit	pm-s3c2410.c
 s3c2412_baseclk_add	clock-s3c2412.c
 s3c2412_clk_initparents	clock-s3c2412.c
 s3c2412_clkcon_enable	clock-s3c2412.c
 s3c2412_core_init	s3c2412.c
 s3c2412_cpu_suspend	pm-s3c2412.c
 s3c2412_dma_init	dma-s3c2412.c
 s3c2412_getrate_cam	clock-s3c2412.c
 s3c2412_getrate_i2s	clock-s3c2412.c
 s3c2412_getrate_uart	clock-s3c2412.c
 s3c2412_getrate_usbsrc	clock-s3c2412.c
 s3c2412_idle	s3c2412.c
 s3c2412_init	s3c2412.c
 s3c2412_init_clocks	s3c2412.c
 s3c2412_init_gpio2	s3c2412.c
 s3c2412_init_gpio2	s3c2412.c
 s3c2412_init_uarts	s3c2412.c
 s3c2412_irq_add	irq-s3c2412.c
 s3c2412_irq_cfsdi_ack	irq-s3c2412.c
 s3c2412_irq_cfsdi_mask	irq-s3c2412.c
 s3c2412_irq_cfsdi_unmask	irq-s3c2412.c
 s3c2412_irq_demux_cfsdi	irq-s3c2412.c
 s3c2412_irq_init	irq-s3c2412.c
 s3c2412_irq_rtc_wake	irq-s3c2412.c
 s3c2412_map_io	s3c2412.c
 s3c2412_pm_add	pm-s3c2412.c
 s3c2412_pm_init	pm-s3c2412.c
 s3c2412_pm_prepare	pm-s3c2412.c
 s3c2412_pm_resume	pm-s3c2412.c
 s3c2412_pm_suspend	pm-s3c2412.c
 s3c2412_restart	s3c2412.c
 s3c2412_setparent_armclk	clock-s3c2412.c
 s3c2412_setparent_cam	clock-s3c2412.c
 s3c2412_setparent_i2s	clock-s3c2412.c
 s3c2412_setparent_msysclk	clock-s3c2412.c
 s3c2412_setparent_uart	clock-s3c2412.c
 s3c2412_setparent_usbsrc	clock-s3c2412.c
 s3c2412_setparent_usysclk	clock-s3c2412.c
 s3c2412_setrate_cam	clock-s3c2412.c
 s3c2412_setrate_i2s	clock-s3c2412.c
 s3c2412_setrate_uart	clock-s3c2412.c
 s3c2412_setrate_usbsrc	clock-s3c2412.c
 s3c2412_setup_clocks	s3c2412.c
 s3c2412_sleep_enter	pm-s3c2412.c
 s3c2412_sleep_enter	pm-s3c2416.c
 s3c2412_upll_enable	clock-s3c2412.c
 s3c2416_core_init	s3c2416.c
 s3c2416_cpu_suspend	pm-s3c2416.c
 s3c2416_dma_init	dma-s3c2443.c
 s3c2416_fb_gpio_setup_24bpp	mach-smdk2416.c
 s3c2416_init	s3c2416.c
 s3c2416_init_clocks	clock-s3c2416.c
 s3c2416_init_uarts	s3c2416.c
 s3c2416_irq_ack_second	irq-s3c2416.c
 s3c2416_irq_add_second	irq-s3c2416.c
 s3c2416_irq_demux	irq-s3c2416.c
 s3c2416_irq_demux_dma	irq-s3c2416.c
 s3c2416_irq_demux_lcd	irq-s3c2416.c
 s3c2416_irq_demux_uart3	irq-s3c2416.c
 s3c2416_irq_demux_wdtac97	irq-s3c2416.c
 s3c2416_irq_dma_ack	irq-s3c2416.c
 s3c2416_irq_dma_mask	irq-s3c2416.c
 s3c2416_irq_dma_unmask	irq-s3c2416.c
 s3c2416_irq_init	irq-s3c2416.c
 s3c2416_irq_lcd_ack	irq-s3c2416.c
 s3c2416_irq_lcd_mask	irq-s3c2416.c
 s3c2416_irq_lcd_unmask	irq-s3c2416.c
 s3c2416_irq_mask_second	irq-s3c2416.c
 s3c2416_irq_resume	irq-s3c2416.c
 s3c2416_irq_suspend	irq-s3c2416.c
 s3c2416_irq_uart3_ack	irq-s3c2416.c
 s3c2416_irq_uart3_mask	irq-s3c2416.c
 s3c2416_irq_uart3_unmask	irq-s3c2416.c
 s3c2416_irq_unmask_second	irq-s3c2416.c
 s3c2416_irq_wdtac97_ack	irq-s3c2416.c
 s3c2416_irq_wdtac97_mask	irq-s3c2416.c
 s3c2416_irq_wdtac97_unmask	irq-s3c2416.c
 s3c2416_map_io	s3c2416.c
 s3c2416_pm_add	pm-s3c2416.c
 s3c2416_pm_init	pm-s3c2416.c
 s3c2416_pm_prepare	pm-s3c2416.c
 s3c2416_pm_resume	pm-s3c2416.c
 s3c2416_restart	s3c2416.c
 s3c2416_setup_sdhci0_cfg_gpio	setup-sdhci-gpio.c
 s3c2416_setup_sdhci1_cfg_gpio	setup-sdhci-gpio.c
 s3c2440_camif_upll_getrate	clock-s3c2440.c
 s3c2440_camif_upll_setrate	clock-s3c2440.c
 s3c2440_clk_add	clock-s3c2440.c
 s3c2440_clk_init	clock-s3c244x.c
 s3c2440_core_init	s3c244x.c
 s3c2440_dma_init	dma-s3c2440.c
 s3c2440_init	s3c2440.c
 s3c2440_irq_add	irq-s3c2440.c
 s3c2440_irq_init	irq-s3c2440.c
 s3c2440_irq_init	irq-s3c244x.c
 s3c2440_map_io	s3c2440.c
 s3c2440_pm_drvinit	pm-s3c2410.c
 s3c2440_setparent_armclk	clock-s3c244x.c
 s3c2442_camif_upll_setrate	s3c2442.c
 s3c2442_clk_add	s3c2442.c
 s3c2442_clk_init	clock-s3c244x.c
 s3c2442_clk_init	s3c2442.c
 s3c2442_core_init	s3c244x.c
 s3c2442_dma_drvinit	dma-s3c2410.c
 s3c2442_init	s3c2442.c
 s3c2442_irq_init	irq-s3c244x.c
 s3c2442_map_io	s3c2442.c
 s3c2442_pm_drvinit	pm-s3c2410.c
 s3c2443_armclk_getrate	common-s3c2443.c
 s3c2443_armclk_setrate	common-s3c2443.c
 s3c2443_clkcon_enable_h	common-s3c2443.c
 s3c2443_clkcon_enable_p	common-s3c2443.c
 s3c2443_clkcon_enable_s	common-s3c2443.c
 s3c2443_common_setup_clocks	common-s3c2443.c
 s3c2443_core_init	s3c2443.c
 s3c2443_dma_init	dma-s3c2443.c
 s3c2443_enable_hsmmc	clock-s3c2443.c
 s3c2443_gate	common-s3c2443.c
 s3c2443_gate	common-s3c2443.c
 s3c2443_gate	common-s3c2443.c
 s3c2443_gate	common-s3c2443.c
 s3c2443_getrate_mdivclk	common-s3c2443.c
 s3c2443_hclkdiv_getrate	common-s3c2443.c
 s3c2443_init	s3c2443.c
 s3c2443_init_clocks	clock-s3c2443.c
 s3c2443_init_uarts	s3c2443.c
 s3c2443_irq_cam_ack	irq-s3c2443.c
 s3c2443_irq_cam_mask	irq-s3c2443.c
 s3c2443_irq_cam_unmask	irq-s3c2443.c
 s3c2443_irq_demux	irq-s3c2443.c
 s3c2443_irq_demux_cam	irq-s3c2443.c
 s3c2443_irq_demux_dma	irq-s3c2443.c
 s3c2443_irq_demux_lcd	irq-s3c2443.c
 s3c2443_irq_demux_uart3	irq-s3c2443.c
 s3c2443_irq_demux_wdtac97	irq-s3c2443.c
 s3c2443_irq_dma_ack	irq-s3c2443.c
 s3c2443_irq_dma_mask	irq-s3c2443.c
 s3c2443_irq_dma_unmask	irq-s3c2443.c
 s3c2443_irq_init	irq-s3c2443.c
 s3c2443_irq_lcd_ack	irq-s3c2443.c
 s3c2443_irq_lcd_mask	irq-s3c2443.c
 s3c2443_irq_lcd_unmask	irq-s3c2443.c
 s3c2443_irq_uart3_ack	irq-s3c2443.c
 s3c2443_irq_uart3_mask	irq-s3c2443.c
 s3c2443_irq_uart3_unmask	irq-s3c2443.c
 s3c2443_irq_wdtac97_ack	irq-s3c2443.c
 s3c2443_irq_wdtac97_mask	irq-s3c2443.c
 s3c2443_irq_wdtac97_unmask	irq-s3c2443.c
 s3c2443_map_io	s3c2443.c
 s3c2443_pclkdiv_getrate	common-s3c2443.c
 s3c2443_prediv_getrate	common-s3c2443.c
 s3c2443_restart	s3c2443.c
 s3c2443_setparent_hsmmc	clock-s3c2443.c
 s3c2443_setparent_hsmmc	clock-s3c2443.c
 s3c244x_clk_add	clock-s3c244x.c
 s3c244x_init_clocks	s3c244x.c
 s3c244x_init_uarts	s3c244x.c
 s3c244x_irq_add	irq-s3c244x.c
 s3c244x_map_io	s3c244x.c
 s3c244x_restart	s3c244x.c
 s3c244x_resume	s3c244x.c
 s3c244x_setup_clocks	s3c244x.c
 s3c244x_suspend	s3c244x.c
 s3c24xx_clk_init	clock-s3c2440.c
 s3c24xx_default_idle	idle.h
 s3c24xx_dma_init_map	dma-s3c2410.c
 s3c24xx_dma_init_map	dma-s3c2412.c
 s3c24xx_dma_init_map	dma-s3c2440.c
 s3c24xx_dma_init_map	dma-s3c2443.c
 s3c24xx_dma_init_map	dma-s3c24xx.h
 s3c24xx_dma_order_set	dma-s3c24xx.h
 s3c24xx_fb_set_platdata	devs.c
 s3c24xx_hsudc_set_platdata	devs.c
 s3c24xx_init_clocks	init.c
 s3c24xx_init_uarts	init.c
 s3c24xx_irq_resume	irq-pm.c
 s3c24xx_irq_resume	s5p-irq-pm.c
 s3c24xx_irq_suspend	irq-pm.c
 s3c24xx_irq_suspend	s5p-irq-pm.c
 s3c24xx_mci_set_platdata	devs.c
 s3c24xx_ostimer_pending	tick.h
 s3c24xx_register_clock	pwm-clock.c
 s3c24xx_ts_cfg_gpio	setup-ts.c
 s3c24xx_ts_set_platdata	devs.c
 s3c24xx_ts_set_platdata	devs.c
 s3c24xx_udc_set_platdata	devs.c
 s3c64xx_onenand1_set_platdata	devs.c
 s3c64xx_spi0_cfg_gpio	setup-spi.c
 s3c64xx_spi0_set_platdata	devs.c
 s3c64xx_spi1_set_platdata	devs.c
 s3c64xx_spi2_set_platdata	devs.c
 s3c64xx_spi_setname	spi-core.h
 s3c_adc_convert	adc.c
 s3c_adc_dbgshow	adc.c
 s3c_adc_irq	adc.c
 s3c_adc_probe	adc.c
 s3c_adc_read	adc.c
 s3c_adc_release	adc.c
 s3c_adc_remove	adc.c
 s3c_adc_resume	adc.c
 s3c_adc_suspend	adc.c
 s3c_adc_try	adc.c
 s3c_arch_init	init.c
 s3c_camif_gpio_get	setup-camif.c
 s3c_camif_gpio_put	setup-camif.c
 s3c_dma_config	s3c-dma-ops.c
 s3c_dma_flush	s3c-dma-ops.c
 s3c_dma_prepare	s3c-dma-ops.c
 s3c_dma_release	s3c-dma-ops.c
 s3c_dma_started	s3c-dma-ops.c
 s3c_dma_stop	s3c-dma-ops.c
 s3c_dma_trigger	s3c-dma-ops.c
 s3c_fb_set_platdata	devs.c
 s3c_getrate_clksrc	clock-clksrc.c
 s3c_hsotg_set_platdata	devs.c
 s3c_hwmon_set_platdata	devs.c
 s3c_i2c0_cfg_gpio	setup-i2c.c
 s3c_i2c0_set_platdata	devs.c
 s3c_i2c1_set_platdata	devs.c
 s3c_i2c2_set_platdata	devs.c
 s3c_i2c3_set_platdata	devs.c
 s3c_i2c4_set_platdata	devs.c
 s3c_i2c5_set_platdata	devs.c
 s3c_i2c6_set_platdata	devs.c
 s3c_i2c7_set_platdata	devs.c
 s3c_ide_set_platdata	devs.c
 s3c_init_vic_timer_irq	irq-vic-timer.c
 s3c_irq_demux_vic_timer	irq-vic-timer.c
 s3c_irq_timer_ack	irq-vic-timer.c
 s3c_irq_wake	irq-pm.c
 s3c_irq_wake	s5p-irq-pm.c
 s3c_nand_copy_set	devs.c
 s3c_nand_set_platdata	devs.c
 s3c_ohci_set_platdata	devs.c
 s3c_pm_arch_prepare_irqs	pm-core.h
 s3c_pm_arch_show_resume_irqs	pm-core.h
 s3c_pm_arch_stop_clocks	pm-core.h
 s3c_pm_check_cleanup	pm-check.c
 s3c_pm_check_prepare	pm-check.c
 s3c_pm_check_restore	pm-check.c
 s3c_pm_check_restore	pm-check.c
 s3c_pm_check_resume_pin	pm.c
 s3c_pm_check_resume_pin	pm.c
 s3c_pm_check_resume_pin	pm.c
 s3c_pm_check_resume_pin	pm.c
 s3c_pm_check_store	pm-check.c
 s3c_pm_configure_extint	pm.c
 s3c_pm_configure_extint	pm.c
 s3c_pm_configure_extint	pm.c
 s3c_pm_configure_extint	pm.c
 s3c_pm_configure_extint	s5p-pm.c
 s3c_pm_debug_init_uart	pm-core.h
 s3c_pm_init	simtec-pm.c
 s3c_pm_restore_core	pm.c
 s3c_pm_restore_core	pm.c
 s3c_pm_restore_core	pm.c
 s3c_pm_restore_core	pm.c
 s3c_pm_restore_core	s5p-pm.c
 s3c_pm_restored_gpios	pm-core.h
 s3c_pm_run_res	pm-check.c
 s3c_pm_run_sysram	pm-check.c
 s3c_pm_save_core	pm.c
 s3c_pm_save_core	pm.c
 s3c_pm_save_core	pm.c
 s3c_pm_save_core	pm.c
 s3c_pm_save_core	s5p-pm.c
 s3c_pwmclk_init	pwm-clock.c
 s3c_register_clksrc	clock-clksrc.c
 s3c_sdhci0_set_platdata	devs.c
 s3c_sdhci1_set_platdata	devs.c
 s3c_sdhci2_set_platdata	devs.c
 s3c_sdhci3_set_platdata	devs.c
 s3c_set_clksrc	clock-clksrc.c
 s3c_setparent_clksrc	clock-clksrc.c
 s3c_setrate_clksrc	clock-clksrc.c
 s5p_clock_event_isr	s5p-time.c
 s5p_clockevent_init	s5p-time.c
 s5p_clocksource_init	s5p-time.c
 s5p_ehci_set_platdata	devs.c
 s5p_epll_enable	s5p-clock.c
 s5p_epll_get_rate	s5p-clock.c
 s5p_fimd0_set_platdata	devs.c
 s5p_gatectrl	s5p-clock.c
 s5p_gpioint_add	s5p-irq-gpioint.c
 s5p_gpioint_handler	s5p-irq-gpioint.c
 s5p_gpioint_set_type	s5p-irq-gpioint.c
 s5p_i2c_hdmiphy_set_platdata	devs.c
 s5p_init_irq	s5p-irq.c
 s5p_init_irq_eint	s5p-irq-eint.c
 s5p_irq_demux_eint	s5p-irq-eint.c
 s5p_irq_demux_eint16_31	s5p-irq-eint.c
 s5p_irq_eint_ack	s5p-irq-eint.c
 s5p_irq_eint_mask	s5p-irq-eint.c
 s5p_irq_eint_maskack	s5p-irq-eint.c
 s5p_irq_eint_set_type	s5p-irq-eint.c
 s5p_irq_eint_unmask	s5p-irq-eint.c
 s5p_irq_vic_eint_ack	s5p-irq-eint.c
 s5p_irq_vic_eint_mask	s5p-irq-eint.c
 s5p_irq_vic_eint_maskack	s5p-irq-eint.c
 s5p_irq_vic_eint_unmask	s5p-irq-eint.c
 s5p_mfc_memory_init	s5p-dev-mfc.c
 s5p_pmu_init	devs.c
 s5p_read_sched_clock	s5p-time.c
 s5p_register_clocks	s5p-clock.c
 s5p_register_gpio_interrupt	s5p-irq-gpioint.c
 s5p_register_gpioint_bank	s5p-irq-gpioint.c
 s5p_spdif_get_rate	s5p-clock.c
 s5p_spdif_set_rate	s5p-clock.c
 s5p_time_setup	s5p-time.c
 s5p_time_start	s5p-time.c
 s5p_time_stop	s5p-time.c
 s5p_timer_init	s5p-time.c
 s5p_timer_resources	s5p-time.c
 s5p_timer_resume	s5p-time.c
 s5p_timer_resume	s5p-time.c
 samsung_bl_exit	dev-backlight.c
 samsung_bl_init	dev-backlight.c
 samsung_dma_has_circular	dma.h
 samsung_dma_has_circular	dma.h
 samsung_dma_has_circular	dma.h
 samsung_dma_is_dmadev	dma.h
 samsung_dma_is_dmadev	dma.h
 samsung_dma_is_dmadev	dma.h
 samsung_dmadev_flush	dma-ops.c
 samsung_dmadev_release	dma-ops.c
 samsung_dmadev_trigger	dma-ops.c
 samsung_gpio_pm_1bit_resume	pm-gpio.c
 samsung_gpio_pm_1bit_save	pm-gpio.c
 samsung_gpio_pm_2bit_resume	pm-gpio.c
 samsung_gpio_pm_2bit_save	pm-gpio.c
 samsung_gpio_pm_4bit_con	pm-gpio.c
 samsung_gpio_pm_4bit_mask	pm-gpio.c
 samsung_gpio_pm_4bit_resume	pm-gpio.c
 samsung_gpio_pm_4bit_save	pm-gpio.c
 samsung_keypad_set_platdata	devs.c
 samsung_pm_restore_gpios	pm-gpio.c
 samsung_pm_resume_gpio	pm-gpio.c
 samsung_pm_save_gpio	pm-gpio.c
 samsung_pm_save_gpios	pm-gpio.c
 samsung_pm_saved_gpios	pm-core.h
 sapphire_init	board-sapphire.c
 sapphire_init_irq	board-sapphire.c
 sapphire_init_late	board-sapphire.c
 sapphire_map_io	board-sapphire.c
 sata_miphy_exit	spear1340.c
 sata_miphy_init	spear1340.c
 sata_miphy_init	spear1340.c
 sata_resume	spear1340.c
 sata_suspend	spear1340.c
 save_cpu_arch_register	pm.h
 save_cpu_arch_register	pm.h
 saved_regs	bpf_jit_32.c
 scm_get_command_buffer	scm.c
 scm_get_version	scm.c
 scm_get_version	scm.h
 scm_remap_error	scm.c
 scm_set_boot_addr	scm-boot.c
 scm_set_boot_addr	scm-boot.h
 shark_ack_8259A_irq	irq.c
 shark_ack_8259A_irq	irq.c
 shark_ack_8259A_irq	irq.c
 shark_ack_8259A_irq	irq.c
 shark_disable_8259A_irq	irq.c
 shark_disable_8259A_irq	irq.c
 shark_disable_8259A_irq	irq.c
 shark_disable_8259A_irq	irq.c
 shark_dma_init	dma.c
 shark_dma_init	dma.c
 shark_dma_init	dma.c
 shark_enable_8259A_irq	irq.c
 shark_enable_8259A_irq	irq.c
 shark_enable_8259A_irq	irq.c
 shark_enable_8259A_irq	irq.c
 shark_init	core.c
 shark_init_early	core.c
 shark_init_irq	core.c
 shark_init_irq	irq.c
 shark_init_irq	irq.c
 shark_init_irq	irq.c
 shark_init_irq	irq.c
 shark_led_get	leds.c
 shark_leds_init	leds.c
 shark_map_irq	pci.c
 shark_pci_init	pci.c
 shark_restart	core.c
 shark_timer_init	core.c
 simple_read_from_buffer	smd_debug.c
 simtec_audio_startup_lrroute	simtec-audio.c
 simtec_nor_vpp	simtec-nor.c
 single_open	powergate.c
 sirc_irq_ack	sirc.c
 sirc_irq_handler	sirc.c
 sirc_irq_mask	sirc.c
 sirc_irq_set_type	sirc.c
 sirc_irq_set_wake	sirc.c
 sirc_irq_unmask	sirc.c
 smc	scm.c
 smd_alloc_channel	smd.c
 smd_channel_probe_worker	smd.c
 smd_close	msm_smd.h
 smd_close	smd.c
 smd_core_init	smd.c
 smd_cur_packet_size	msm_smd.h
 smd_cur_packet_size	smd.c
 smd_debugfs_init	smd_debug.c
 smd_diag	smd.c
 smd_dsp_irq_handler	smd.c
 smd_fake_irq_handler	smd.c
 smd_init	smd.c
 smd_is_packet	smd.c
 smd_kick	msm_smd.h
 smd_kick	smd.c
 smd_modem_irq_handler	smd.c
 smd_need_int	smd.c
 smd_packet_read	smd.c
 smd_packet_read_avail	smd.c
 smd_packet_write	smd.c
 smd_packet_write_avail	smd.c
 smd_read	msm_smd.h
 smd_read	smd.c
 smd_read_avail	msm_smd.h
 smd_read_avail	smd.c
 smd_sleep_exit	smd.c
 smd_stream_read	smd.c
 smd_stream_read_avail	smd.c
 smd_stream_write	smd.c
 smd_stream_write_avail	smd.c
 smd_wait_until_readable	msm_smd.h
 smd_wait_until_readable	smd.c
 smd_wait_until_writable	msm_smd.h
 smd_wait_until_writable	smd.c
 smd_write	msm_smd.h
 smd_write	smd.c
 smd_write_atomic	msm_smd.h
 smd_write_atomic	smd.c
 smd_write_avail	msm_smd.h
 smd_write_avail	smd.c
 smdk2410_init	mach-smdk2410.c
 smdk2410_map_io	mach-smdk2410.c
 smdk2413_machine_init	mach-smdk2413.c
 smdk2413_map_io	mach-smdk2413.c
 smdk2416_hsudc_gpio_init	mach-smdk2416.c
 smdk2416_hsudc_gpio_uninit	mach-smdk2416.c
 smdk2416_machine_init	mach-smdk2416.c
 smdk2416_map_io	mach-smdk2416.c
 smdk2440_machine_init	mach-smdk2440.c
 smdk2440_map_io	mach-smdk2440.c
 smdk2443_machine_init	mach-smdk2443.c
 smdk2443_map_io	mach-smdk2443.c
 smdk_machine_init	common-smdk.c
 smem_find	smd.c
 smsm_change_state	smd_private.h
 smsm_get_state	smd.c
 smsm_get_state	smd_private.h
 smsm_irq_handler	smd.c
 smsm_print_sleep_info	smd_debug.c
 smsm_print_sleep_info	smd_private.h
 smsm_set_sleep_duration	smd.c
 smsm_set_sleep_duration	smd.c
 smsm_set_sleep_duration	smd_private.h
 spear1310_clk_init	generic.h
 spear1310_clk_init	generic.h
 spear1310_dt_init	spear1310.c
 spear1310_map_io	spear1310.c
 spear1340_clk_init	generic.h
 spear1340_clk_init	generic.h
 spear1340_dt_init	spear1340.c
 spear13xx_boot_secondary	platsmp.c
 spear13xx_boot_secondary	platsmp.c
 spear13xx_boot_secondary	platsmp.c
 spear13xx_boot_secondary	platsmp.c
 spear13xx_clk_init	spear13xx.c
 spear13xx_cpu_die	generic.h
 spear13xx_cpu_die	hotplug.c
 spear13xx_cpu_die	hotplug.c
 spear13xx_cpu_die	hotplug.c
 spear13xx_cpu_die	hotplug.c
 spear13xx_do_lowpower	hotplug.c
 spear13xx_do_lowpower	hotplug.c
 spear13xx_do_lowpower	hotplug.c
 spear13xx_do_lowpower	hotplug.c
 spear13xx_dt_init_irq	generic.h
 spear13xx_dt_init_irq	spear13xx.c
 spear13xx_l2x0_init	generic.h
 spear13xx_l2x0_init	spear13xx.c
 spear13xx_map_io	generic.h
 spear13xx_map_io	spear13xx.c
 spear13xx_secondary_init	platsmp.c
 spear13xx_secondary_init	platsmp.c
 spear13xx_secondary_init	platsmp.c
 spear13xx_secondary_init	platsmp.c
 spear13xx_secondary_startup	generic.h
 spear13xx_smp_init_cpus	platsmp.c
 spear13xx_smp_init_cpus	platsmp.c
 spear13xx_smp_init_cpus	platsmp.c
 spear13xx_smp_init_cpus	platsmp.c
 spear13xx_smp_prepare_cpus	platsmp.c
 spear13xx_smp_prepare_cpus	platsmp.c
 spear13xx_smp_prepare_cpus	platsmp.c
 spear13xx_smp_prepare_cpus	platsmp.c
 spear13xx_timer_init	spear13xx.c
 spear_restart	generic.h
 spear_setup_of_timer	generic.h
 sprintf	smd_debug.c
 subsys_interface_register	clock-s3c2440.c
 subsys_interface_register	clock-s3c244x.c
 subsys_interface_register	clock-s3c244x.c
 subsys_interface_register	dma-s3c2410.c
 subsys_interface_register	dma-s3c2410.c
 subsys_interface_register	dma-s3c2410.c
 subsys_interface_register	dma-s3c2412.c
 subsys_interface_register	dma-s3c2440.c
 subsys_interface_register	dma-s3c2443.c
 subsys_interface_register	dma-s3c2443.c
 subsys_interface_register	irq-s3c2412.c
 subsys_interface_register	irq-s3c2416.c
 subsys_interface_register	irq-s3c2440.c
 subsys_interface_register	irq-s3c2443.c
 subsys_interface_register	irq-s3c244x.c
 subsys_interface_register	irq-s3c244x.c
 subsys_interface_register	pm-s3c2410.c
 subsys_interface_register	pm-s3c2410.c
 subsys_interface_register	pm-s3c2410.c
 subsys_interface_register	pm-s3c2410.c
 subsys_interface_register	pm-s3c2412.c
 subsys_interface_register	pm-s3c2416.c
 subsys_interface_register	s3c2442.c
 subsys_system_register	s3c2410.c
 subsys_system_register	s3c2410.c
 subsys_system_register	s3c2412.c
 subsys_system_register	s3c2416.c
 subsys_system_register	s3c2443.c
 subsys_system_register	s3c244x.c
 subsys_system_register	s3c244x.c
 tct_hammer_init	mach-tct_hammer.c
 tct_hammer_map_io	mach-tct_hammer.c
 tegra20_audio_sync_clk_disable	tegra20_clocks.c
 tegra20_audio_sync_clk_enable	tegra20_clocks.c
 tegra20_audio_sync_clk_get_parent	tegra20_clocks.c
 tegra20_audio_sync_clk_is_enabled	tegra20_clocks.c
 tegra20_audio_sync_clk_set_parent	tegra20_clocks.c
 tegra20_blink_clk_disable	tegra20_clocks.c
 tegra20_blink_clk_enable	tegra20_clocks.c
 tegra20_blink_clk_is_enabled	tegra20_clocks.c
 tegra20_bus_clk_disable	tegra20_clocks.c
 tegra20_bus_clk_enable	tegra20_clocks.c
 tegra20_bus_clk_is_enabled	tegra20_clocks.c
 tegra20_cdev_clk_disable	tegra20_clocks.c
 tegra20_cdev_clk_enable	tegra20_clocks.c
 tegra20_cdev_clk_is_enabled	tegra20_clocks.c
 tegra20_clk_double_is_enabled	tegra20_clocks.c
 tegra20_clk_m_init	tegra20_clocks.c
 tegra20_cop_clk_get_parent	tegra20_clocks.c
 tegra20_cpu_car_ops_init	tegra20_clocks.c
 tegra20_cpu_car_ops_init	tegra_cpu_car.h
 tegra20_cpu_out_of_reset	tegra20_clocks.c
 tegra20_cpuidle_init	cpuidle-tegra20.c
 tegra20_cpuidle_init	cpuidle.h
 tegra20_cpuidle_init	cpuidle.h
 tegra20_disable_cpu_clock	tegra20_clocks.c
 tegra20_emc_clk_init	tegra20_clocks.c
 tegra20_enable_cpu_clock	tegra20_clocks.c
 tegra20_hotplug_init	sleep.h
 tegra20_hotplug_init	sleep.h
 tegra20_init_early	board.h
 tegra20_init_early	board.h
 tegra20_init_speedo_data	fuse.h
 tegra20_init_speedo_data	fuse.h
 tegra20_init_speedo_data	tegra20_speedo.c
 tegra20_periph_clk_disable	tegra20_clocks.c
 tegra20_periph_clk_enable	tegra20_clocks.c
 tegra20_periph_clk_get_parent	tegra20_clocks.c
 tegra20_periph_clk_is_enabled	tegra20_clocks.c
 tegra20_periph_clk_set_parent	tegra20_clocks.c
 tegra20_pll_clk_disable	tegra20_clocks.c
 tegra20_pll_clk_enable	tegra20_clocks.c
 tegra20_pll_clk_is_enabled	tegra20_clocks.c
 tegra20_pll_clk_wait_for_lock	tegra20_clocks.c
 tegra20_pll_div_clk_disable	tegra20_clocks.c
 tegra20_pll_div_clk_enable	tegra20_clocks.c
 tegra20_pll_div_clk_is_enabled	tegra20_clocks.c
 tegra20_plle_clk_enable	tegra20_clocks.c
 tegra20_pllx_clk_init	tegra20_clocks.c
 tegra20_put_cpu_in_reset	tegra20_clocks.c
 tegra20_super_clk_disable	tegra20_clocks.c
 tegra20_super_clk_enable	tegra20_clocks.c
 tegra20_super_clk_get_parent	tegra20_clocks.c
 tegra20_super_clk_is_enabled	tegra20_clocks.c
 tegra20_super_clk_set_parent	tegra20_clocks.c
 tegra20_wait_cpu_in_reset	tegra20_clocks.c
 tegra2_cop_clk_reset	tegra20_clocks.c
 tegra2_cop_clk_reset	tegra20_clocks.h
 tegra2_init_clocks	clock.h
 tegra2_init_clocks	clock.h
 tegra2_init_clocks	tegra20_clocks_data.c
 tegra2_init_one_clock	tegra20_clocks_data.c
 tegra2_periph_clk_reset	tegra20_clocks.c
 tegra2_periph_clk_reset	tegra20_clocks.h
 tegra2_sdmmc_tap_delay	clk.h
 tegra2_sdmmc_tap_delay	clk.h
 tegra30_audio_sync_clk_disable	tegra30_clocks.c
 tegra30_audio_sync_clk_enable	tegra30_clocks.c
 tegra30_audio_sync_clk_get_parent	tegra30_clocks.c
 tegra30_audio_sync_clk_is_enabled	tegra30_clocks.c
 tegra30_audio_sync_clk_set_parent	tegra30_clocks.c
 tegra30_blink_clk_disable	tegra30_clocks.c
 tegra30_blink_clk_enable	tegra30_clocks.c
 tegra30_blink_clk_is_enabled	tegra30_clocks.c
 tegra30_bus_clk_disable	tegra30_clocks.c
 tegra30_bus_clk_enable	tegra30_clocks.c
 tegra30_bus_clk_is_enabled	tegra30_clocks.c
 tegra30_clk_double_is_enabled	tegra30_clocks.c
 tegra30_clk_m_init	tegra30_clocks.c
 tegra30_clk_out_disable	tegra30_clocks.c
 tegra30_clk_out_enable	tegra30_clocks.c
 tegra30_clk_out_get_parent	tegra30_clocks.c
 tegra30_clk_out_is_enabled	tegra30_clocks.c
 tegra30_clk_out_set_parent	tegra30_clocks.c
 tegra30_cml_clk_disable	tegra30_clocks.c
 tegra30_cml_clk_enable	tegra30_clocks.c
 tegra30_cml_clk_is_enabled	tegra30_clocks.c
 tegra30_cpu_car_ops_init	tegra30_clocks.c
 tegra30_cpu_car_ops_init	tegra_cpu_car.h
 tegra30_cpu_clock_resume	tegra30_clocks.c
 tegra30_cpu_clock_suspend	tegra30_clocks.c
 tegra30_cpu_out_of_reset	tegra30_clocks.c
 tegra30_cpu_rail_off_ready	tegra30_clocks.c
 tegra30_cpuidle_init	cpuidle-tegra30.c
 tegra30_cpuidle_init	cpuidle.h
 tegra30_cpuidle_init	cpuidle.h
 tegra30_disable_cpu_clock	tegra30_clocks.c
 tegra30_dsib_clk_set_parent	tegra30_clocks.c
 tegra30_dt_init	board-dt-tegra30.c
 tegra30_enable_cpu_clock	tegra30_clocks.c
 tegra30_hotplug_init	sleep.h
 tegra30_hotplug_init	sleep.h
 tegra30_init_clocks	clock.h
 tegra30_init_clocks	clock.h
 tegra30_init_clocks	tegra30_clocks_data.c
 tegra30_init_early	board.h
 tegra30_init_early	board.h
 tegra30_init_one_clock	tegra30_clocks_data.c
 tegra30_init_speedo_data	fuse.h
 tegra30_init_speedo_data	fuse.h
 tegra30_init_speedo_data	tegra30_speedo.c
 tegra30_periph_clk_disable	tegra30_clocks.c
 tegra30_periph_clk_enable	tegra30_clocks.c
 tegra30_periph_clk_get_parent	tegra30_clocks.c
 tegra30_periph_clk_is_enabled	tegra30_clocks.c
 tegra30_periph_clk_reset	tegra30_clocks.c
 tegra30_periph_clk_reset	tegra30_clocks.h
 tegra30_periph_clk_set_parent	tegra30_clocks.c
 tegra30_pll_clk_disable	tegra30_clocks.c
 tegra30_pll_clk_enable	tegra30_clocks.c
 tegra30_pll_clk_init	tegra30_clocks.c
 tegra30_pll_clk_is_enabled	tegra30_clocks.c
 tegra30_pll_div_clk_disable	tegra30_clocks.c
 tegra30_pll_div_clk_enable	tegra30_clocks.c
 tegra30_pll_div_clk_is_enabled	tegra30_clocks.c
 tegra30_plle_clk_disable	tegra30_clocks.c
 tegra30_plle_clk_enable	tegra30_clocks.c
 tegra30_plle_clk_is_enabled	tegra30_clocks.c
 tegra30_plle_configure	tegra30_clocks.c
 tegra30_plle_configure	tegra30_clocks.c
 tegra30_plle_training	tegra30_clocks.c
 tegra30_put_cpu_in_reset	tegra30_clocks.c
 tegra30_sleep_cpu_secondary_finish	sleep.h
 tegra30_super_clk_get_parent	tegra30_clocks.c
 tegra30_super_clk_init	tegra30_clocks.c
 tegra30_super_clk_set_parent	tegra30_clocks.c
 tegra30_tear_down_cpu	sleep.h
 tegra30_utmi_param_configure	tegra30_clocks.c
 tegra30_wait_cpu_in_reset	tegra30_clocks.c
 tegra_apb_dma_init	apbio.c
 tegra_apb_io_init	apbio.c
 tegra_apb_io_init	apbio.h
 tegra_apb_readl	apbio.c
 tegra_apb_readl	apbio.h
 tegra_apb_readl	fuse.c
 tegra_apb_readl_direct	apbio.c
 tegra_apb_readl_direct	apbio.c
 tegra_apb_readl_direct	apbio.c
 tegra_apb_readl_using_dma	apbio.c
 tegra_apb_writel	apbio.c
 tegra_apb_writel	apbio.h
 tegra_apb_writel_direct	apbio.c
 tegra_apb_writel_direct	apbio.c
 tegra_apb_writel_using_dma	apbio.c
 tegra_assert_system_reset	board.h
 tegra_assert_system_reset	board.h
 tegra_chip_uid	fuse.c
 tegra_chip_uid	fuse.h
 tegra_clear_cpu_in_lp2	pm.h
 tegra_clear_cpu_in_lp2	pm.h
 tegra_clk_add	clock.c
 tegra_clk_add	clock.c
 tegra_clk_add	clock.h
 tegra_clk_add	clock.h
 tegra_clk_cfg_ex	clk.h
 tegra_clk_cfg_ex	clk.h
 tegra_clk_cfg_ex	clock.c
 tegra_clk_cfg_ex	clock.c
 tegra_clk_debugfs_init	board.h
 tegra_clk_debugfs_init	board.h
 tegra_clk_debugfs_init	board.h
 tegra_clk_debugfs_init	board.h
 tegra_clk_init_from_table	clock.c
 tegra_clk_init_from_table	clock.c
 tegra_clk_init_from_table	clock.h
 tegra_clk_init_from_table	clock.h
 tegra_clk_init_one_from_table	clock.c
 tegra_clk_init_one_from_table	clock.c
 tegra_cpu_clk_set_rate	cpu-tegra.c
 tegra_cpu_clock_resume	tegra_cpu_car.h
 tegra_cpu_clock_suspend	tegra_cpu_car.h
 tegra_cpu_exit	cpu-tegra.c
 tegra_cpu_highest_speed	cpu-tegra.c
 tegra_cpu_init	cpu-tegra.c
 tegra_cpu_out_of_reset	tegra_cpu_car.h
 tegra_cpu_powergate_id	powergate.c
 tegra_cpu_powergate_id	powergate.h
 tegra_cpu_rail_off_ready	tegra_cpu_car.h
 tegra_cpu_reset_handler_enable	reset.c
 tegra_cpu_reset_handler_init	reset.c
 tegra_cpu_reset_handler_init	reset.h
 tegra_cpufreq_exit	cpu-tegra.c
 tegra_cpufreq_init	cpu-tegra.c
 tegra_cpuidle_init	cpuidle.c
 tegra_disable_cpu_clock	tegra_cpu_car.h
 tegra_dt_init	board-dt-tegra20.c
 tegra_dt_init_irq	board.h
 tegra_dt_init_irq	board.h
 tegra_dt_init_late	board-dt-tegra20.c
 tegra_emc_init	tegra2_emc.c
 tegra_emc_probe	tegra2_emc.c
 tegra_emc_round_rate	tegra2_emc.c
 tegra_emc_round_rate	tegra2_emc.h
 tegra_emc_set_rate	tegra2_emc.c
 tegra_emc_set_rate	tegra2_emc.h
 tegra_enable_cpu_clock	tegra_cpu_car.h
 tegra_fuse_readl	fuse.c
 tegra_fuse_readl	fuse.c
 tegra_fuse_readl	fuse.h
 tegra_get_process_id	fuse.c
 tegra_get_revision	fuse.c
 tegra_getspeed	cpu-tegra.c
 tegra_idle_lp2_last	pm.h
 tegra_idle_lp2_last	pm.h
 tegra_init_fuse	fuse.c
 tegra_init_fuse	fuse.h
 tegra_init_irq	board.h
 tegra_init_irq	board.h
 tegra_init_late	board.h
 tegra_init_late	board.h
 tegra_init_timer	timer.c
 tegra_init_timer	timer.c
 tegra_map_common_io	board.h
 tegra_map_common_io	board.h
 tegra_map_common_io	io.c
 tegra_map_common_io	io.c
 tegra_paz00_wifikill_init	board-paz00.c
 tegra_paz00_wifikill_init	board.h
 tegra_paz00_wifikill_init	board.h
 tegra_pcie_add_port	pcie.c
 tegra_pcie_clocks_get	pcie.c
 tegra_pcie_clocks_put	pcie.c
 tegra_pcie_enable_controller	pcie.c
 tegra_pcie_fixup_bridge	pcie.c
 tegra_pcie_fixup_class	pcie.c
 tegra_pcie_get_resources	pcie.c
 tegra_pcie_init	board.h
 tegra_pcie_init	board.h
 tegra_pcie_init	pcie.c
 tegra_pcie_isr	pcie.c
 tegra_pcie_map_irq	pcie.c
 tegra_pcie_power_off	pcie.c
 tegra_pcie_power_regate	pcie.c
 tegra_pcie_relax_enable	pcie.c
 tegra_pcie_setup	pcie.c
 tegra_pcie_setup_translations	pcie.c
 tegra_pcie_xclk_clamp	pcie.c
 tegra_periph_reset_assert	clk.h
 tegra_periph_reset_assert	clk.h
 tegra_periph_reset_assert	clock.c
 tegra_periph_reset_assert	clock.c
 tegra_periph_reset_deassert	clk.h
 tegra_periph_reset_deassert	clk.h
 tegra_periph_reset_deassert	clock.c
 tegra_periph_reset_deassert	clock.c
 tegra_pmc_init	pmc.c
 tegra_pmc_init	pmc.h
 tegra_pmc_readl	pmc.c
 tegra_pmc_writel	pmc.c
 tegra_powergate_debugfs_init	board.h
 tegra_powergate_debugfs_init	board.h
 tegra_powergate_debugfs_init	board.h
 tegra_powergate_debugfs_init	board.h
 tegra_powergate_debugfs_init	powergate.c
 tegra_powergate_init	powergate.c
 tegra_powergate_init	powergate.h
 tegra_powergate_is_powered	powergate.c
 tegra_powergate_is_powered	powergate.h
 tegra_powergate_power_off	powergate.c
 tegra_powergate_power_off	powergate.h
 tegra_powergate_power_on	powergate.c
 tegra_powergate_power_on	powergate.h
 tegra_powergate_remove_clamping	powergate.c
 tegra_powergate_remove_clamping	powergate.h
 tegra_powergate_sequence_power_up	powergate.c
 tegra_powergate_sequence_power_up	powergate.h
 tegra_powergate_set	powergate.c
 tegra_powergate_set	powergate.c
 tegra_powergate_set	powergate.c
 tegra_put_cpu_in_reset	tegra_cpu_car.h
 tegra_read_persistent_clock	timer.c
 tegra_read_persistent_clock	timer.c
 tegra_read_sched_clock	timer.c
 tegra_read_sched_clock	timer.c
 tegra_resume	sleep.h
 tegra_rtc_read_ms	timer.c
 tegra_rtc_read_ms	timer.c
 tegra_secondary_startup	reset.h
 tegra_set_cpu_in_lp2	pm.h
 tegra_set_cpu_in_lp2	pm.h
 tegra_sleep_cpu_finish	sleep.h
 tegra_spare_fuse	fuse.c
 tegra_spare_fuse	fuse.h
 tegra_timer_interrupt	timer.c
 tegra_timer_interrupt	timer.c
 tegra_timer_resume	timer.c
 tegra_timer_resume	timer.c
 tegra_timer_suspend	timer.c
 tegra_timer_suspend	timer.c
 tegra_update_cpu_speed	cpu-tegra.c
 tegra_verify_speed	cpu-tegra.c
 tegra_wait_cpu_in_reset	tegra_cpu_car.h
 timer_readl	timer.c
 timer_readl	timer.c
 timer_readl	timer.c
 timer_readl	timer.c
 timer_writel	timer.c
 timer_writel	timer.c
 to_clk_tegra	clock.h
 to_clk_tegra	clock.h
 to_clk_tegra	tegra20_clocks.c
 to_clk_tegra	tegra20_clocks.c
 to_clk_tegra	tegra20_clocks.c
 to_clk_tegra	tegra30_clocks.c
 to_clk_tegra	tegra30_clocks.c
 to_msm_gpio_chip	board-trout-gpio.c
 trimslice_init	board-dt-tegra20.c
 trout_disablesdcard_setup	board-trout-mmc.c
 trout_gpio_irq_ack	board-trout-gpio.c
 trout_gpio_irq_handler	board-trout-gpio.c
 trout_gpio_irq_mask	board-trout-gpio.c
 trout_gpio_irq_set_wake	board-trout-gpio.c
 trout_gpio_irq_unmask	board-trout-gpio.c
 trout_gpio_to_irq	board-trout-gpio.c
 trout_init	board-trout.c
 trout_init_early	board-trout.c
 trout_init_gpio	board-trout-gpio.c
 trout_init_irq	board-trout.c
 trout_init_late	board-trout.c
 trout_init_mmc	board-trout-mmc.c
 trout_init_mmc	board-trout.c
 trout_init_panel	board-trout-panel.c
 trout_map_io	board-trout.c
 trout_sdslot_status	board-trout-mmc.c
 trout_sdslot_switchvdd	board-trout-mmc.c
 update_on_xread	bpf_jit_32.c
 update_packet_state	smd.c
 update_packet_state	smd.c
 update_stream_state	smd.c
 usb_simtec_enableoc	simtec-usb.c
 usb_simtec_init	simtec-usb.c
 usb_simtec_init	simtec.h
 via82c505_preinit	pci.c
 vr1000_init	mach-vr1000.c
 vr1000_map_io	mach-vr1000.c
 vr1000_power_off	mach-vr1000.c
 vreg_debug_count_get	vreg.c
 vreg_debug_count_set	vreg.c
 vreg_debug_get	vreg.c
 vreg_debug_init	vreg.c
 vreg_debug_set	vreg.c
 vreg_disable	vreg.c
 vreg_disable	vreg.h
 vreg_enable	vreg.c
 vreg_enable	vreg.h
 vreg_put	vreg.c
 vreg_put	vreg.h
 vreg_set_level	vreg.c
 vreg_set_level	vreg.h
 vstms_init	mach-vstms.c
 vstms_map_io	mach-vstms.c
 wbd111_init	board-wbd111.c
 wbd222_init	board-wbd222.c
