 ASSABET_BCR_clear	assabet.h
 ASSABET_BCR_frob	assabet.c
 ASSABET_BCR_frob	assabet.h
 ASSABET_BCR_frob	assabet.h
 ASSABET_BCR_set	assabet.h
 ATTR_PCIE_IO	addr-map.c
 ATTR_PCIE_IO	addr-map.c
 ATTR_PCIE_MEM	addr-map.c
 ATTR_PCIE_MEM	addr-map.c
 BADGE4_5V_PCMCIA_SOCK	badge4.h
 BCR_clear	assabet.c
 BCR_set	assabet.c
 CONFIG_CMD	via82c505.c
 CPU_32_PORT	pfc-r8a7779.c
 CPU_32_PORT6	pfc-r8a7779.c
 CPU_32_PORT_REV	pfc-r8a7779.c
 CPU_ALL_PORT	pfc-r8a7779.c
 CPU_ALL_PORT	pfc-sh7372.c
 DECLARE_WAIT_QUEUE_HEAD	ecard.c
 DEFINE_MUTEX	ecard.c
 DEFINE_PER_CPU	cpuidle.c
 DEFINE_RAW_SPINLOCK	gic.c
 DEFINE_SPINLOCK	core.c
 DEFINE_SPINLOCK	jornada720_ssp.c
 DEFINE_SPINLOCK	pci-nanoengine.c
 DEFINE_SPINLOCK	pci.c
 DEFINE_SPINLOCK	pci.c
 DEFINE_SPINLOCK	pci.c
 DEFINE_SPINLOCK	pci.c
 DEFINE_SPINLOCK	pci.c
 DEFINE_SPINLOCK	pci.c
 DEFINE_SPINLOCK	platsmp.c
 DEFINE_SPINLOCK	platsmp.c
 DEFINE_SPINLOCK	smp-emev2.c
 DEVICE_ATTR	dmabounce.c
 DIV4	clock-sh7372.c
 DIV4	clock-sh73a0.c
 DIV_ROUND_UP	s3c2410-iotiming.c
 DMAE_CHANNEL	setup-sh73a0.c
 DMA_CHANNEL	setup-r8a7740.c
 DO_STATS	dmabounce.c
 DO_STATS	dmabounce.c
 EP93XX_AHB_IOMEM	ep93xx-regs.h
 EP93XX_AHB_PHYS	ep93xx-regs.h
 EP93XX_APB_IOMEM	ep93xx-regs.h
 EP93XX_APB_PHYS	ep93xx-regs.h
 EP93XX_GPIO_LINE_A	gpio-ep93xx.h
 EP93XX_GPIO_LINE_B	gpio-ep93xx.h
 EP93XX_GPIO_LINE_C	gpio-ep93xx.h
 EP93XX_GPIO_LINE_D	gpio-ep93xx.h
 EP93XX_GPIO_LINE_E	gpio-ep93xx.h
 EP93XX_GPIO_LINE_F	gpio-ep93xx.h
 EP93XX_GPIO_LINE_G	gpio-ep93xx.h
 EP93XX_GPIO_LINE_H	gpio-ep93xx.h
 EP93XX_GPIO_REG	gpio-ep93xx.h
 EP93XX_SYSCON_REG	soc.h
 EP93XX_TIMER_REG	core.c
 EXT_IRQ16H	pfc-sh7372.c
 EXT_IRQ16L	pfc-sh7372.c
 F1stBit	bitfield.h
 FAlnMsk	bitfield.h
 FExtr	bitfield.h
 FInsrt	bitfield.h
 FMsk	bitfield.h
 FPGAID	ts78xx-fpga.h
 FShft	bitfield.h
 FSize	bitfield.h
 Fld	SA-1101.h
 Fld	SA-1101.h
 Fld	bitfield.h
 GPIO_GPIO	SA-1100.h
 GPIO_KEY	board-armadillo800eva.c
 GPIO_KEY	board-kzm9g.c
 GPIO_LDD	SA-1100.h
 GP_ALL	pfc-r8a7779.c
 GP_INDT	pfc-r8a7779.c
 GP_INOUTSEL	pfc-r8a7779.c
 IC_DMA	SA-1100.h
 IC_GPIO	SA-1100.h
 IC_OST	SA-1100.h
 INTCS_VECT_RELOC	intc-sh73a0.c
 IOMEM	board-armadillo800eva.c
 IOMEM	board-kzm9g.c
 IOMEM	intc-r8a7779.c
 IOMEM	intc-r8a7779.c
 IOMEM	intc-r8a7779.c
 IOMEM	intc-r8a7779.c
 IOMEM	intc-r8a7779.c
 IOMEM	intc-r8a7779.c
 IOMEM	intc-r8a7779.c
 IOMEM	intc-sh73a0.c
 IOMEM	intc-sh73a0.c
 IOMEM	intc-sh73a0.c
 IOMEM	intc-sh73a0.c
 IOPC_IOEINT0_MODE	regs-gpio.h
 IOPC_IOEINT0_MODE	regs-gpio.h
 IOPC_IOEINT1_MODE	regs-gpio.h
 IOPC_IOEINT1_MODE	regs-gpio.h
 IOPC_IOEINT2_MODE	regs-gpio.h
 IOPC_IOEINT2_MODE	regs-gpio.h
 IOPC_IOEINT3_MODE	regs-gpio.h
 IOPC_IOEINT3_MODE	regs-gpio.h
 IOPD	regs-gpio.h
 IOPD	regs-gpio.h
 IOPM	regs-gpio.h
 IOPM	regs-gpio.h
 KS8695_LMAAH	regs-lan.h
 KS8695_LMAAL	regs-lan.h
 KS8695_SEPXCZ	regs-switch.h
 KS8695_WMAAH	regs-wan.h
 KS8695_WMAAL	regs-wan.h
 LCCR0_DMADel	SA-1100.h
 LCCR1_BegLnDel	SA-1100.h
 LCCR1_DisWdth	SA-1100.h
 LCCR1_EndLnDel	SA-1100.h
 LCCR1_HorSnchWdth	SA-1100.h
 LCCR2_BegFrmDel	SA-1100.h
 LCCR2_DisHght	SA-1100.h
 LCCR2_EndFrmDel	SA-1100.h
 LCCR2_VrtSnchWdth	SA-1100.h
 LCCR3_ACBsCnt	SA-1100.h
 LCCR3_ACBsDiv	SA-1100.h
 LCCR3_CeilACBsDiv	SA-1100.h
 LCCR3_CeilPixClkDiv	SA-1100.h
 LCCR3_PixClkDiv	SA-1100.h
 LED	board-armadillo800eva.c
 LED	board-armadillo800eva.c
 LED	board-armadillo800eva.c
 LED	board-armadillo800eva.c
 LPC32XX_CLKPWR_ADCCTRL1_RTDIV	platform.h
 LPC32XX_CLKPWR_ADCCTRL1_RTDIV	platform.h
 LPC32XX_CLKPWR_DEVID	platform.h
 LPC32XX_CLKPWR_DEVID	platform.h
 LPC32XX_CLKPWR_HCLKDIV_DIV_2POW	platform.h
 LPC32XX_CLKPWR_HCLKDIV_DIV_2POW	platform.h
 LPC32XX_CLKPWR_HCLKDIV_PCLK_DIV	platform.h
 LPC32XX_CLKPWR_HCLKDIV_PCLK_DIV	platform.h
 LPC32XX_CLKPWR_HCLKPLL_PLLM	platform.h
 LPC32XX_CLKPWR_HCLKPLL_PLLM	platform.h
 LPC32XX_CLKPWR_HCLKPLL_POSTDIV_2POW	platform.h
 LPC32XX_CLKPWR_HCLKPLL_POSTDIV_2POW	platform.h
 LPC32XX_CLKPWR_HCLKPLL_PREDIV_PLUS1	platform.h
 LPC32XX_CLKPWR_HCLKPLL_PREDIV_PLUS1	platform.h
 LPC32XX_CLKPWR_IRDA_X_DIV	platform.h
 LPC32XX_CLKPWR_IRDA_X_DIV	platform.h
 LPC32XX_CLKPWR_IRDA_Y_DIV	platform.h
 LPC32XX_CLKPWR_IRDA_Y_DIV	platform.h
 LPC32XX_CLKPWR_LCDCTRL_SET_PSCALE	platform.h
 LPC32XX_CLKPWR_LCDCTRL_SET_PSCALE	platform.h
 LPC32XX_CLKPWR_MOSC_ADD_CAP	platform.h
 LPC32XX_CLKPWR_MOSC_ADD_CAP	platform.h
 LPC32XX_CLKPWR_MSCARD_SDCARD_DIV	platform.h
 LPC32XX_CLKPWR_MSCARD_SDCARD_DIV	platform.h
 LPC32XX_CLKPWR_PWMCLK_PWM1_DIV	platform.h
 LPC32XX_CLKPWR_PWMCLK_PWM1_DIV	platform.h
 LPC32XX_CLKPWR_PWMCLK_PWM2_DIV	platform.h
 LPC32XX_CLKPWR_PWMCLK_PWM2_DIV	platform.h
 LPC32XX_CLKPWR_SDRCLK_DQS_DLY	platform.h
 LPC32XX_CLKPWR_SDRCLK_DQS_DLY	platform.h
 LPC32XX_CLKPWR_SDRCLK_HCLK_DLY	platform.h
 LPC32XX_CLKPWR_SDRCLK_HCLK_DLY	platform.h
 LPC32XX_CLKPWR_SDRCLK_SENS_FACT	platform.h
 LPC32XX_CLKPWR_SDRCLK_SENS_FACT	platform.h
 LPC32XX_CLKPWR_SW_GET_ARG	platform.h
 LPC32XX_CLKPWR_SW_GET_ARG	platform.h
 LPC32XX_CLKPWR_SW_INT	platform.h
 LPC32XX_CLKPWR_SW_INT	platform.h
 LPC32XX_CLKPWR_SYSCTRL_BP_TRIG	platform.h
 LPC32XX_CLKPWR_SYSCTRL_BP_TRIG	platform.h
 LPC32XX_CLKPWR_UART_X_DIV	platform.h
 LPC32XX_CLKPWR_UART_X_DIV	platform.h
 LPC32XX_CLKPWR_UART_Y_DIV	platform.h
 LPC32XX_CLKPWR_UART_Y_DIV	platform.h
 LPC32XX_CLKPWR_USBCTRL_FDBK_PLUS1	platform.h
 LPC32XX_CLKPWR_USBCTRL_FDBK_PLUS1	platform.h
 LPC32XX_CLKPWR_USBCTRL_POSTDIV_2POW	platform.h
 LPC32XX_CLKPWR_USBCTRL_POSTDIV_2POW	platform.h
 LPC32XX_CLKPWR_USBCTRL_PREDIV_PLUS1	platform.h
 LPC32XX_CLKPWR_USBCTRL_PREDIV_PLUS1	platform.h
 LPC32XX_GPIO	gpio-lpc32xx.h
 LPC32XX_GPIO	gpio-lpc32xx.h
 LPC32XX_INTC_ACT_TYPE	platform.h
 LPC32XX_INTC_ACT_TYPE	platform.h
 LPC32XX_INTC_MASK	platform.h
 LPC32XX_INTC_MASK	platform.h
 LPC32XX_INTC_POLAR	platform.h
 LPC32XX_INTC_POLAR	platform.h
 LPC32XX_INTC_RAW_STAT	platform.h
 LPC32XX_INTC_RAW_STAT	platform.h
 LPC32XX_INTC_STAT	platform.h
 LPC32XX_INTC_STAT	platform.h
 LPC32XX_INTC_TYPE	platform.h
 LPC32XX_INTC_TYPE	platform.h
 LPC32XX_TIMER_CCR	platform.h
 LPC32XX_TIMER_CCR	platform.h
 LPC32XX_TIMER_CNTR_CAPT_BIT	platform.h
 LPC32XX_TIMER_CNTR_CAPT_BIT	platform.h
 LPC32XX_TIMER_CNTR_MCR_MTCH	platform.h
 LPC32XX_TIMER_CNTR_MCR_MTCH	platform.h
 LPC32XX_TIMER_CNTR_MCR_RESET	platform.h
 LPC32XX_TIMER_CNTR_MCR_RESET	platform.h
 LPC32XX_TIMER_CNTR_MCR_STOP	platform.h
 LPC32XX_TIMER_CNTR_MCR_STOP	platform.h
 LPC32XX_TIMER_CNTR_MTCH_BIT	platform.h
 LPC32XX_TIMER_CNTR_MTCH_BIT	platform.h
 LPC32XX_TIMER_CR0	platform.h
 LPC32XX_TIMER_CR0	platform.h
 LPC32XX_TIMER_CR1	platform.h
 LPC32XX_TIMER_CR1	platform.h
 LPC32XX_TIMER_CR2	platform.h
 LPC32XX_TIMER_CR2	platform.h
 LPC32XX_TIMER_CR3	platform.h
 LPC32XX_TIMER_CR3	platform.h
 LPC32XX_TIMER_CTCR	platform.h
 LPC32XX_TIMER_CTCR	platform.h
 LPC32XX_TIMER_EMR	platform.h
 LPC32XX_TIMER_EMR	platform.h
 LPC32XX_TIMER_IR	platform.h
 LPC32XX_TIMER_IR	platform.h
 LPC32XX_TIMER_MCR	platform.h
 LPC32XX_TIMER_MCR	platform.h
 LPC32XX_TIMER_MR0	platform.h
 LPC32XX_TIMER_MR0	platform.h
 LPC32XX_TIMER_MR1	platform.h
 LPC32XX_TIMER_MR1	platform.h
 LPC32XX_TIMER_MR2	platform.h
 LPC32XX_TIMER_MR2	platform.h
 LPC32XX_TIMER_MR3	platform.h
 LPC32XX_TIMER_MR3	platform.h
 LPC32XX_TIMER_PC	platform.h
 LPC32XX_TIMER_PC	platform.h
 LPC32XX_TIMER_PR	platform.h
 LPC32XX_TIMER_PR	platform.h
 LPC32XX_TIMER_TC	platform.h
 LPC32XX_TIMER_TC	platform.h
 LPC32XX_TIMER_TCR	platform.h
 LPC32XX_TIMER_TCR	platform.h
 LPC32XX_UART_CLKMODE_LOAD	platform.h
 LPC32XX_UART_CLKMODE_LOAD	platform.h
 LPC32XX_UART_CLKMODE_MASK	platform.h
 LPC32XX_UART_CLKMODE_MASK	platform.h
 LPC32XX_UART_DLL_FIFO	platform.h
 LPC32XX_UART_DLL_FIFO	platform.h
 LPC32XX_UART_DLM_IER	platform.h
 LPC32XX_UART_DLM_IER	platform.h
 LPC32XX_UART_ENABLED_CLOCK	platform.h
 LPC32XX_UART_ENABLED_CLOCK	platform.h
 LPC32XX_UART_ENABLED_CLOCKS	platform.h
 LPC32XX_UART_ENABLED_CLOCKS	platform.h
 LPC32XX_UART_IIR_FCR	platform.h
 LPC32XX_UART_IIR_FCR	platform.h
 LPC32XX_UART_LCR	platform.h
 LPC32XX_UART_LCR	platform.h
 LPC32XX_UART_LSR	platform.h
 LPC32XX_UART_LSR	platform.h
 LPC32XX_UART_MODEM_CTRL	platform.h
 LPC32XX_UART_MODEM_CTRL	platform.h
 LPC32XX_UART_MODEM_STATUS	platform.h
 LPC32XX_UART_MODEM_STATUS	platform.h
 LPC32XX_UART_RXLEV	platform.h
 LPC32XX_UART_RXLEV	platform.h
 MAGIC_CHG	sharpsl_param.c
 MCCR0_AudSmpDiv	SA-1100.h
 MCCR0_CeilAudSmpDiv	SA-1100.h
 MCCR0_CeilTcmSmpDiv	SA-1100.h
 MCCR0_ExtClkDiv	SA-1100.h
 MCCR0_TcmSmpDiv	SA-1100.h
 MDCNFG_CeilPrChrg	SA-1100.h
 MDCNFG_CeilRef	SA-1100.h
 MDCNFG_DE	SA-1100.h
 MDCNFG_DataLtch	SA-1100.h
 MDCNFG_PrChrg	SA-1100.h
 MDCNFG_Ref	SA-1100.h
 MDCNFG_RefInt	SA-1100.h
 MDCNFG_RowAdd	SA-1100.h
 MECR_AttrClk	SA-1100.h
 MECR_CeilAttrClk	SA-1100.h
 MECR_CeilIOClk	SA-1100.h
 MECR_CeilMemClk	SA-1100.h
 MECR_IOClk	SA-1100.h
 MECR_MemClk	SA-1100.h
 MECR_PCMCIA	SA-1100.h
 MODIFY_BITS	sa1111.c
 MPDMA_CHANNEL	setup-sh73a0.c
 MPP	mpp.h
 MPP	mpp.h
 MSC_1stRdAcc	SA-1100.h
 MSC_Bnk	SA-1100.h
 MSC_Ceil1stRdAcc	SA-1100.h
 MSC_CeilNxtRdAcc	SA-1100.h
 MSC_CeilRdAcc	SA-1100.h
 MSC_CeilRec	SA-1100.h
 MSC_CeilWrAcc	SA-1100.h
 MSC_NxtRdAcc	SA-1100.h
 MSC_RdAcc	SA-1100.h
 MSC_Rec	SA-1100.h
 MSC_WrAcc	SA-1100.h
 MSTP	clock-sh7372.c
 MSTP	clock-sh73a0.c
 MV78XX0_PCIE_IO_PHYS_BASE	mv78xx0.h
 NAND_CTRL_ADDR	snappercl15.c
 OIER_E	SA-1100.h
 ORION5X_DEV_BUS_REG	orion5x.h
 ORION5X_PCI_REG	pci.c
 ORION5X_PCI_REG	pci.c
 ORION5X_PCI_REG	pci.c
 OSSR_M	SA-1100.h
 Output	board-armadillo800eva.c
 Output	board-armadillo800eva.c
 PCI_BAR_REMAP_DDR_CS	pci.c
 PCI_BAR_REMAP_DDR_CS	pci.c
 PCI_BAR_REMAP_DDR_CS	pci.c
 PCI_BAR_SIZE_DDR_CS	pci.c
 PCI_BAR_SIZE_DDR_CS	pci.c
 PCI_BAR_SIZE_DDR_CS	pci.c
 PCI_CONF_BUS	pci.c
 PCI_CONF_BUS	pci.c
 PCI_CONF_BUS	pci.c
 PCI_CONF_DEV	pci.c
 PCI_CONF_DEV	pci.c
 PCI_CONF_DEV	pci.c
 PCI_CONF_FUNC	pci.c
 PCI_CONF_FUNC	pci.c
 PCI_CONF_FUNC	pci.c
 PCI_CONF_FUNC_BAR_CS	pci.c
 PCI_CONF_FUNC_BAR_CS	pci.c
 PCI_CONF_FUNC_BAR_CS	pci.c
 PCI_CONF_REG	pci.c
 PCI_CONF_REG	pci.c
 PCI_CONF_REG	pci.c
 PCI_CONF_REG_BAR_HI_CS	pci.c
 PCI_CONF_REG_BAR_HI_CS	pci.c
 PCI_CONF_REG_BAR_HI_CS	pci.c
 PCI_CONF_REG_BAR_LO_CS	pci.c
 PCI_CONF_REG_BAR_LO_CS	pci.c
 PCI_CONF_REG_BAR_LO_CS	pci.c
 PINMUX_DATA_GP_ALL	pfc-r8a7779.c
 PINMUX_GPIO_GP_ALL	pfc-r8a7779.c
 PINMUX_IPSR_DATA	pfc-r8a7779.c
 PINMUX_IPSR_MODSEL_DATA	pfc-r8a7779.c
 PINT0A_IRQ	intc-sh73a0.c
 PINT0B_IRQ	intc-sh73a0.c
 PINT0C_IRQ	intc-sh73a0.c
 PINT0D_IRQ	intc-sh73a0.c
 PINT1E_IRQ	intc-sh73a0.c
 PME	pci-nanoengine.c
 PORT_10_REV	pfc-r8a7779.c
 PPC_LDD	SA-1100.h
 PTR_ERR	cpu-freq-debugfs.c
 PTR_ERR	ecard.c
 PTR_ERR	s3c2440-pll-12000000.c
 PTR_ERR	s3c2440-pll-16934400.c
 PTR_ERR	timer-sp.c
 PWER_GPIO	SA-1100.h
 RESTORE	pm.c
 RESTORE	pm.c
 RESTORE	pm.c
 RTC_PORT	isa-rtc.c
 Register	jornada720.c
 S3C_VA_UARTx	map.h
 S5P6440_PA_UART	map.h
 S5P6450_PA_UART	map.h
 S5P64X0_PA_HSMMC	map.h
 S5P_CLKREG	regs-clock.h
 SA1101_p2v	SA-1101.h
 SA1101_p2v	SA-1101.h
 SA1101_v2p	SA-1101.h
 SA1111_IRQMASK_HI	sa1111.c
 SA1111_IRQMASK_LO	sa1111.c
 SAVE	pm.c
 SAVE	pm.c
 SAVE	pm.c
 SDCR3_BdRtDiv	SA-1100.h
 SDCR3_CeilBdRtDiv	SA-1100.h
 SDCR4_BdRtDiv	SA-1100.h
 SDCR4_CeilBdRtDiv	SA-1100.h
 SET_BANK	generic.h
 SET_BANK	generic.h
 SMCR_ColAdrBits	SA-1101.h
 SMCR_RowAdrBits	SA-1101.h
 SNPR_Select_Bank	SA-1101.h
 SNPR_Set_VFBsize	SA-1101.h
 SSCR0_CeilSerClkDiv	SA-1100.h
 SSCR0_DataSize	SA-1100.h
 SSCR0_SerClkDiv	SA-1100.h
 TARGET_PCIE	addr-map.c
 TARGET_PCIE	addr-map.c
 UART1_REG	kurobox_pro-setup.c
 UART1_REG	terastation_pro2-setup.c
 UART1_REG	tsx09-common.c
 UDCIMP_InMaxPkt	SA-1100.h
 UDCOMP_OutMaxPkt	SA-1100.h
 UData	bitfield.h
 UData	bitfield.h
 UTCR1_BdRtDiv	SA-1100.h
 UTCR1_CeilBdRtDiv	SA-1100.h
 UTCR2_BdRtDiv	SA-1100.h
 UTCR2_CeilBdRtDiv	SA-1100.h
 WIN0_OFF	addr-map.c
 WIN0_OFF	addr-map.c
 WIN8_OFF	addr-map.c
 WIN8_OFF	addr-map.c
 WRITE_RWA	netwinder-hw.c
 _BIT	platform.h
 _BIT	platform.h
 _CARD	SA-1101.h
 _GPREG	platform.h
 _GPREG	platform.h
 _GP_DATA	pfc-r8a7779.c
 _GP_GPIO	pfc-r8a7779.c
 _GP_INDT	pfc-r8a7779.c
 _GP_INOUTSEL	pfc-r8a7779.c
 _IEEE	SA-1101.h
 _INT	SA-1101.h
 _KBD	SA-1101.h
 _KEYPAD	SA-1101.h
 _MSE	SA-1101.h
 _OTGREG	platform.h
 _OTGREG	platform.h
 _PCMCIA	SA-1100.h
 _PCMCIAAttr	SA-1100.h
 _PCMCIAIO	SA-1100.h
 _PCMCIAMem	SA-1100.h
 _PIO	SA-1101.h
 _PMREG	platform.h
 _PMREG	platform.h
 _SA1101	SA-1101.h
 _SBF	platform.h
 _SBF	platform.h
 _UCREG	platform.h
 _UCREG	platform.h
 _USB	SA-1101.h
 _UTCR0	SA-1100.h
 _UTCR1	SA-1100.h
 _UTCR2	SA-1100.h
 _UTCR3	SA-1100.h
 _UTCR4	SA-1100.h
 _UTDR	SA-1100.h
 _UTSR0	SA-1100.h
 _UTSR1	SA-1100.h
 _VGA	SA-1101.h
 __gpio_modify_io	netwinder-hw.c
 __io	io.h
 __io	io.h
 __locomo_probe	locomo.c
 __locomo_remove	locomo.c
 __mask_timerx_irq	cpu-h7202.c
 __raw_readb	ts72xx.c
 __raw_readb	ts72xx.h
 __sa1111_pll_clock	sa1111.c
 __sa1111_pll_clock	sa1111.c
 __sa1111_pll_clock	sa1111.c
 __sa1111_probe	sa1111.c
 __sa1111_probe	sa1111.c
 __sa1111_remove	sa1111.c
 __simpad_write_cs3	simpad.c
 acornfb_bandwidth	acornfb.h
 acornfb_bandwidth	acornfb.h
 acornfb_default_control	acornfb.h
 acornfb_default_econtrol	acornfb.h
 acs5k_i2c_init	board-acs5k.c
 acs5k_init	board-acs5k.c
 acs5k_init_gpio	board-acs5k.c
 acs5k_protection_setup	board-acs5k.c
 acs5k_register_nor	board-acs5k.c
 add_pcie_port	pcie.c
 adssphere_init_machine	adssphere.c
 ag5evm_init	board-ag5evm.c
 ag5evm_sdhi1_set_pwr	board-ag5evm.c
 arch_decomp_setup	uncompress.h
 arch_decomp_setup	uncompress.h
 arch_decomp_setup	uncompress.h
 arch_decomp_setup	uncompress.h
 arch_decomp_setup	uncompress.h
 arch_decomp_setup	uncompress.h
 arch_decomp_setup	uncompress.h
 arch_decomp_setup	uncompress.h
 arch_decomp_setup	uncompress.h
 arch_decomp_setup	uncompress.h
 arch_decomp_setup	uncompress.h
 arch_decomp_wdog	uncompress.h
 arch_decomp_wdog	uncompress.h
 arch_decomp_wdog	uncompress.h
 arch_decomp_wdog	uncompress.h
 arch_decomp_wdog	uncompress.h
 arch_decomp_wdog	uncompress.h
 arch_decomp_wdog	uncompress.h
 arch_decomp_wdog	uncompress.h
 arch_decomp_wdog	uncompress.h
 arch_decomp_wdog	uncompress.h
 arch_decomp_wdog	uncompress.h
 arch_gnttab_unmap	grant-table.c
 as3711_enable_lcdc_backlight	board-kzm9g.c
 assabet_get_mctrl	assabet.c
 assabet_init	assabet.c
 assabet_irda_set_power	assabet.c
 assabet_irda_set_speed	assabet.c
 assabet_lcd_backlight_power	assabet.c
 assabet_lcd_power	assabet.c
 assabet_lcd_set_visual	assabet.c
 assabet_led_get	assabet.c
 assabet_leds_init	assabet.c
 assabet_map_io	assabet.c
 assabet_pal_backlight_power	assabet.c
 assabet_pal_power	assabet.c
 assabet_set_mctrl	assabet.c
 assabet_uart_pm	assabet.c
 assabet_ucb1x00_reset	assabet.c
 badge4_init	badge4.c
 badge4_map_io	badge4.c
 badge4_sa1111_disable	badge4.c
 badge4_sa1111_enable	badge4.c
 badge4_sa1111_init	badge4.c
 badge4_set_5V	badge4.c
 badge4_set_5V	badge4.h
 bank_is_io	s3c2410-iotiming.c
 bank_is_io	s3c2412-iotiming.c
 board_is_ts7200	ts72xx.h
 board_is_ts7250	ts72xx.h
 board_is_ts7260	ts72xx.h
 board_is_ts7300	ts72xx.h
 board_is_ts7400	ts72xx.h
 board_show	cpu-freq-debugfs.c
 bus_register	ecard.c
 c_id	ecard.h
 c_len	ecard.h
 c_start	ecard.h
 calc_tacp	s3c2410-iotiming.c
 cats_hw_init	cats-hw.c
 cats_map_irq	cats-pci.c
 cats_no_swizzle	cats-pci.c
 cats_pci_init	cats-pci.c
 cerf_init	cerf.c
 cerf_init_irq	cerf.c
 cerf_map_io	cerf.c
 check_scoop_reg	scoop.c
 cksrc_dc21285_disable	dc21285-timer.c
 cksrc_dc21285_enable	dc21285-timer.c
 cksrc_dc21285_read	dc21285-timer.c
 clcd_disable	phy3250.c
 clcd_enable	phy3250.c
 clear_reset_status	reset.h
 clk_disable	clock.c
 clk_disable	clock.c
 clk_disable	clock.c
 clk_disable	clock.c
 clk_disable	clock.c
 clk_enable	clock.c
 clk_enable	clock.c
 clk_enable	clock.c
 clk_enable	clock.c
 clk_enable	clock.c
 clk_get_rate	clock-dclk.c
 clk_get_rate	clock.c
 clk_get_rate	clock.c
 clk_get_rate	clock.c
 clk_get_rate	clock.c
 clk_get_rate	clock.c
 clk_init	common.c
 clk_init	common.c
 clk_init	common.c
 clk_init	common.c
 clk_init	common.c
 clk_init	common.c
 clk_rate_mult_range_round	clock-sh73a0.c
 clk_rate_table_round	clock-sh7372.c
 clk_round_rate	clock.c
 clk_round_rate	clock.c
 clk_round_rate	clock.c
 clk_round_rate	clock.c
 clk_round_rate	clock.c
 clk_set_rate	clock-r8a7740.c
 clk_set_rate	clock-r8a7740.c
 clk_set_rate	clock-r8a7740.c
 clk_set_rate	clock-sh7372.c
 clk_set_rate	clock-sh7372.c
 clk_set_rate	clock-sh73a0.c
 clk_set_rate	clock-sh73a0.c
 clk_set_rate	clock.c
 clk_set_rate	clock.c
 clk_set_rate	clock.c
 clk_set_rate	clock.c
 clk_set_rate	clock.c
 collie_flash_exit	collie.c
 collie_flash_init	collie.c
 collie_init	collie.c
 collie_map_io	collie.c
 collie_power_ac_online	collie.c
 collie_power_exit	collie.c
 collie_power_init	collie.c
 collie_set_vpp	collie.c
 collie_uart_get_mctrl	collie.c
 collie_uart_init	collie.c
 collie_uart_probe	collie.c
 collie_uart_remove	collie.c
 collie_uart_set_mctrl	collie.c
 cp6_trap	cp6.c
 cpld_init	netwinder-hw.c
 cpufreq_register_driver	cpu-sa1100.c
 cpufreq_register_driver	cpu-sa1110.c
 cpufreq_register_driver	cpu-sa1110.c
 crunch_do	crunch.c
 crunch_enabled	crunch.c
 crunch_init	crunch.c
 crunch_task_release	crunch.c
 cs3_gpio_direction_input	simpad.c
 cs3_gpio_get	simpad.c
 cs3_gpio_set	simpad.c
 d2net_gpio_leds_init	d2net-setup.c
 d2net_init	d2net-setup.c
 d2net_sata_power_init	d2net-setup.c
 db78x00_init	db78x00-bp-setup.c
 db78x00_pci_init	db78x00-bp-setup.c
 db88f5281_7seg_event	db88f5281-setup.c
 db88f5281_7seg_init	db88f5281-setup.c
 db88f5281_init	db88f5281-setup.c
 db88f5281_pci_init	db88f5281-setup.c
 db88f5281_pci_preinit	db88f5281-setup.c
 dc21285_abort_irq	dc21285.c
 dc21285_discard_irq	dc21285.c
 dc21285_dparity_irq	dc21285.c
 dc21285_enable_error	dc21285.c
 dc21285_parity_irq	dc21285.c
 dc21285_postinit	dc21285.c
 dc21285_preinit	dc21285.c
 dc21285_request_irq	dc21285.c
 dc21285_serr_irq	dc21285.c
 dc21285_setup	dc21285.c
 defined	assabet.c
 defined	ebsa285.c
 defined	mach-smdk6440.c
 defined	mach-smdk6450.c
 defined	netwinder-hw.c
 defined	vic.c
 defined	vt8500.c
 device	setup-sdhci-gpio.c
 devm_ioremap	ecard.c
 div13_recalc	clock-sh73a0.c
 div2_recalc	clock-sh7372.c
 div2_recalc	clock-sh73a0.c
 div4_kick	clock-r8a7740.c
 div4_kick	clock-sh7372.c
 div4_kick	clock-sh73a0.c
 div7_recalc	clock-sh73a0.c
 div_recalc	clock-r8a7740.c
 dma_set_coherent_mask	it8152.c
 dmabounce_set_mask	dmabounce.c
 dmabounce_unregister_dev	dmabounce.c
 dns323_identify_rev	dns323-setup.c
 dns323_init	dns323-setup.c
 dns323_parse_hex_byte	dns323-setup.c
 dns323_parse_hex_nibble	dns323-setup.c
 dns323_pci_init	dns323-setup.c
 dns323_pci_map_irq	dns323-setup.c
 dns323_read_mac_addr	dns323-setup.c
 dns323a_power_off	dns323-setup.c
 dns323b_power_off	dns323-setup.c
 dns323c_phy_fixup	dns323-setup.c
 dns323c_power_off	dns323-setup.c
 dockstar_init	dockstar-setup.c
 dprintk	netwinder-hw.c
 dprintk	netwinder-hw.c
 driver_register	ecard.c
 driver_register	locomo.c
 driver_register	sa1111.c
 dsiphy_disable	clock-sh73a0.c
 dsiphy_enable	clock-sh73a0.c
 dsiphy_recalc	clock-sh73a0.c
 dsiphy_round_rate	clock-sh73a0.c
 dsiphy_set_rate	clock-sh73a0.c
 dsm320_init	board-dsm320.c
 dsm320_pci_map_irq	board-dsm320.c
 dsm320_register_nor	board-dsm320.c
 dsm320_register_pci	board-dsm320.c
 dsm320_register_pci	board-dsm320.c
 ebsa285_init_pci	ebsa285-pci.c
 ebsa285_led_get	ebsa285.c
 ebsa285_leds_init	ebsa285.c
 ebsa285_map_irq	ebsa285-pci.c
 ec_set_resource	ecard.c
 ecard_alloc_card	ecard.c
 ecard_bus_init	ecard.c
 ecard_call	ecard.c
 ecard_check_lockup	ecard.c
 ecard_def_fiq_disable	ecard.c
 ecard_def_fiq_enable	ecard.c
 ecard_def_fiq_pending	ecard.c
 ecard_def_irq_disable	ecard.c
 ecard_def_irq_enable	ecard.c
 ecard_def_irq_pending	ecard.c
 ecard_devices_proc_open	ecard.c
 ecard_devices_proc_show	ecard.c
 ecard_disablefiq	ecard.c
 ecard_drv_probe	ecard.c
 ecard_drv_remove	ecard.c
 ecard_drv_shutdown	ecard.c
 ecard_dump_irq_state	ecard.c
 ecard_enablefiq	ecard.c
 ecard_free_card	ecard.c
 ecard_gets24	ecard.c
 ecard_getu16	ecard.c
 ecard_init	ecard.c
 ecard_init_mm	ecard.c
 ecard_init_pgtables	ecard.c
 ecard_irq_mask	ecard.c
 ecard_irq_unmask	ecard.c
 ecard_match	ecard.c
 ecard_prints	ecard.c
 ecard_probe	ecard.c
 ecard_proc_init	ecard.c
 ecard_readchunk	ecard.c
 ecard_register_driver	ecard.c
 ecard_release_resources	ecard.c
 ecard_remove_driver	ecard.c
 ecard_request_resources	ecard.c
 ecard_setirq	ecard.c
 ecard_show_device	ecard.c
 ecard_show_dma	ecard.c
 ecard_show_irq	ecard.c
 ecard_show_resources	ecard.c
 ecard_show_type	ecard.c
 ecard_show_vendor	ecard.c
 ecard_task_readbytes	ecard.c
 ecard_task_reset	ecard.c
 edb93xx_cs4271_hw_cleanup	edb93xx.c
 edb93xx_cs4271_hw_cs_control	edb93xx.c
 edb93xx_cs4271_hw_setup	edb93xx.c
 edb93xx_has_audio	edb93xx.c
 edb93xx_has_fb	edb93xx.c
 edb93xx_has_ide	edb93xx.c
 edb93xx_init_machine	edb93xx.c
 edb93xx_register_fb	edb93xx.c
 edb93xx_register_flash	edb93xx.c
 edb93xx_register_i2c	edb93xx.c
 edb93xx_register_i2s	edb93xx.c
 edb93xx_register_ide	edb93xx.c
 edb93xx_register_pwm	edb93xx.c
 edb93xx_register_spi	edb93xx.c
 edmini_v2_init	edmini_v2-setup.c
 emev2_add_early_devices	setup-emev2.c
 emev2_add_standard_devices	setup-emev2.c
 emev2_add_standard_devices_dt	setup-emev2.c
 emev2_boot_secondary	smp-emev2.c
 emev2_cpu_kill	smp-emev2.c
 emev2_get_core_count	smp-emev2.c
 emev2_init_delay	setup-emev2.c
 emev2_init_irq	setup-emev2.c
 emev2_init_irq_dt	setup-emev2.c
 emev2_map_io	setup-emev2.c
 emev2_platform_cpu_kill	smp-emev2.c
 emev2_platform_cpu_kill	smp-emev2.c
 emev2_secondary_init	smp-emev2.c
 emev2_smp_init_cpus	smp-emev2.c
 emev2_smp_prepare_cpus	smp-emev2.c
 ep93xx_chip_revision	core.c
 ep93xx_devcfg_clear_bits	soc.h
 ep93xx_devcfg_set_bits	soc.h
 ep93xx_devcfg_set_clear	core.c
 ep93xx_devcfg_set_clear	soc.h
 ep93xx_gettimeoffset	core.c
 ep93xx_i2s_acquire	core.c
 ep93xx_i2s_release	core.c
 ep93xx_ide_acquire_gpio	core.c
 ep93xx_ide_release_gpio	core.c
 ep93xx_init_devices	core.c
 ep93xx_init_irq	core.c
 ep93xx_init_late	core.c
 ep93xx_keypad_acquire_gpio	core.c
 ep93xx_keypad_release_gpio	core.c
 ep93xx_map_io	core.c
 ep93xx_pwm_acquire_gpio	core.c
 ep93xx_pwm_release_gpio	core.c
 ep93xx_register_ac97	core.c
 ep93xx_register_eth	core.c
 ep93xx_register_fb	core.c
 ep93xx_register_i2s	core.c
 ep93xx_register_ide	core.c
 ep93xx_register_keypad	core.c
 ep93xx_register_pwm	core.c
 ep93xx_restart	core.c
 ep93xx_syscon_swlocked_write	core.c
 ep93xx_syscon_swlocked_write	crunch.c
 ep93xx_syscon_swlocked_write	soc.h
 ep93xx_timer_init	core.c
 ep93xx_timer_interrupt	core.c
 eva_add_early_devices	board-armadillo800eva.c
 eva_clock_init	board-armadillo800eva.c
 eva_earlytimer_init	board-armadillo800eva.c
 eva_init	board-armadillo800eva.c
 eva_restart	board-armadillo800eva.c
 find_safe_buffer	dmabounce.c
 five_v_on_setup	badge4.c
 floppy_disable_dma	dma.c
 floppy_disable_dma	dma.c
 floppy_disable_dma	dma.c
 floppy_disable_dma	dma.c
 floppy_disable_dma	dma.c
 floppy_enable_dma	dma.c
 floppy_enable_dma	dma.c
 floppy_enable_dma	dma.c
 floppy_enable_dma	dma.c
 floppy_enable_dma	dma.c
 floppy_get_residue	dma.c
 floppy_get_residue	dma.c
 floppy_get_residue	dma.c
 floppy_get_residue	dma.c
 floppy_get_residue	dma.c
 flush	uncompress.h
 flush	uncompress.h
 flush	uncompress.h
 flush	uncompress.h
 flush	uncompress.h
 flush	uncompress.h
 flush	uncompress.h
 flush	uncompress.h
 flush	uncompress.h
 flush	uncompress.h
 flush	uncompress.h
 footbridge_isa_init	isa.c
 footbridge_timer_init	dc21285-timer.c
 fops_board_open	cpu-freq-debugfs.c
 fops_info_open	cpu-freq-debugfs.c
 fops_io_open	cpu-freq-debugfs.c
 gesbc9312_init_machine	gesbc9312.c
 get_assabet_scr	assabet.c
 get_hclk	common.c
 get_hclk	common.c
 get_hclk	common.c
 get_hclk	common.c
 get_hclk	common.c
 get_hclk	common.c
 get_pclk_l2clk	common.c
 get_pclk_l2clk	common.c
 get_pclk_l2clk	common.c
 get_pclk_l2clk	common.c
 get_pclk_l2clk	common.c
 get_pclk_l2clk	common.c
 get_tclk	common.c
 get_tclk	common.c
 get_tclk	common.c
 get_tclk	common.c
 get_tclk	common.c
 get_tclk	common.c
 get_tclk	common.c
 get_tclk	common.c
 get_tclk	common.c
 get_tclk	common.c
 get_tclk	common.c
 get_tclk	common.c
 gettimeoffset	core.c
 gic_cascade_irq	gic.c
 gic_cpu_init	gic.c
 gic_cpu_restore	gic.c
 gic_cpu_save	gic.c
 gic_data_cpu_base	gic.c
 gic_data_cpu_base	gic.c
 gic_data_dist_base	gic.c
 gic_data_dist_base	gic.c
 gic_dist_init	gic.c
 gic_dist_restore	gic.c
 gic_dist_save	gic.c
 gic_eoi_irq	gic.c
 gic_get_cpumask	gic.c
 gic_handle_cascade_irq	gic.c
 gic_handle_irq	gic.c
 gic_irq	gic.c
 gic_mask_irq	gic.c
 gic_notifier	gic.c
 gic_of_init	gic.c
 gic_pm_init	gic.c
 gic_pm_init	gic.c
 gic_raise_softirq	gic.c
 gic_retrigger	gic.c
 gic_secondary_init	gic.c
 gic_set_base_accessor	gic.c
 gic_set_type	gic.c
 gic_set_wake	gic.c
 gic_spi	intc-sh73a0.c
 gic_unmask_irq	gic.c
 gpio_get_value	board-armadillo800eva.c
 gpio_get_value	collie.c
 gpio_to_irq	db88f5281-setup.c
 gpio_to_irq	db88f5281-setup.c
 gpio_to_irq	rd88f5181l-fxo-setup.c
 gpio_to_irq	rd88f5181l-ge-setup.c
 gpio_to_irq	rd88f5181l-ge-setup.c
 gpio_to_irq	rd88f5182-setup.c
 gpio_to_irq	rd88f5182-setup.c
 gpio_to_irq	terastation_pro2-setup.c
 gpio_to_irq	ts209-setup.c
 gpio_to_irq	ts209-setup.c
 gpio_to_irq	wnr854t-setup.c
 gpio_to_irq	wrt350n-v2-setup.c
 h3100_irda_set_power	h3100.c
 h3100_irda_set_speed	h3100.c
 h3100_lcd_power	h3100.c
 h3100_mach_init	h3100.c
 h3100_map_io	h3100.c
 h3600_irda_set_power	h3600.c
 h3600_irda_set_speed	h3600.c
 h3600_irda_shutdown	h3600.c
 h3600_irda_startup	h3600.c
 h3600_lcd_power	h3600.c
 h3600_mach_init	h3600.c
 h3600_map_io	h3600.c
 h3xxx_flash_exit	h3xxx.c
 h3xxx_flash_init	h3xxx.c
 h3xxx_init_gpio	h3xxx.c
 h3xxx_init_gpio	h3xxx.h
 h3xxx_mach_init	h3xxx.c
 h3xxx_mach_init	h3xxx.h
 h3xxx_map_io	h3xxx.c
 h3xxx_map_io	h3xxx.h
 h3xxx_set_vpp	h3xxx.c
 h3xxx_uart_get_mctrl	h3xxx.c
 h3xxx_uart_pm	h3xxx.c
 h3xxx_uart_set_mctrl	h3xxx.c
 h3xxx_uart_set_wake	h3xxx.c
 h7201_init_time	cpu-h7201.c
 h7202_init_time	cpu-h7202.c
 hackkit_get_mctrl	hackkit.c
 hackkit_get_mctrl	hackkit.c
 hackkit_init	hackkit.c
 hackkit_map_io	hackkit.c
 hackkit_map_io	hackkit.c
 hackkit_set_mctrl	hackkit.c
 hackkit_set_mctrl	hackkit.c
 hackkit_uart_pm	hackkit.c
 hackkit_uart_pm	hackkit.c
 handle_one_vic	vic.c
 hdmi12_recalc	clock-r8a7740.c
 hdmi12_set_rate	clock-r8a7740.c
 hp_t5325_init	t5325-setup.c
 hp_t5325_pci_init	t5325-setup.c
 hp_t5325_power_off	t5325-setup.c
 i2c_read	setup-r8a7740.c
 i2c_write	setup-r8a7740.c
 ib62x0_init	board-ib62x0.c
 icst_clk_round	clock.c
 icst_clk_round	clock.c
 icst_clk_round	clock.c
 icst_clk_round	clock.c
 icst_clk_round	clock.c
 icst_clk_round	clock.h
 icst_clk_round	clock.h
 icst_clk_set	clock.c
 icst_clk_set	clock.c
 icst_clk_set	clock.c
 icst_clk_set	clock.c
 icst_clk_set	clock.c
 icst_clk_set	clock.h
 icst_clk_set	clock.h
 icst_hz	clock.c
 icst_hz	clock.c
 icst_hz	clock.c
 icst_hz	clock.c
 icst_hz	clock.c
 icst_hz	icst.c
 inb	netwinder-hw.c
 info_show	cpu-freq-debugfs.c
 init_eval_h7202	h7202-eval.c
 init_hw_h7202	cpu-h7202.c
 intca_gic_disable	intc-sh73a0.c
 intca_gic_enable	intc-sh73a0.c
 intca_gic_eoi	intc-sh73a0.c
 intca_gic_mask_ack	intc-sh73a0.c
 intca_gic_set_type	intc-sh73a0.c
 intca_gic_set_wake	intc-sh73a0.c
 interrupt	locomo.c
 io_show	cpu-freq-debugfs.c
 ioc_timer_gettimeoffset	time.c
 ioc_timer_gettimeoffset	time.c
 ioc_timer_gettimeoffset	time.c
 ioc_timer_gettimeoffset	time.c
 ioc_timer_init	time.c
 ioc_timer_init	time.c
 ioc_timer_init	time.c
 ioc_timer_init	time.c
 ioctime_init	time.c
 ioctime_init	time.c
 ioctime_init	time.c
 ioctime_init	time.c
 iomd_disable_dma	dma.c
 iomd_disable_dma	dma.c
 iomd_disable_dma	dma.c
 iomd_disable_dma	dma.c
 iomd_disable_dma	dma.c
 iomd_dma_handle	dma.c
 iomd_dma_handle	dma.c
 iomd_dma_handle	dma.c
 iomd_dma_handle	dma.c
 iomd_dma_handle	dma.c
 iomd_enable_dma	dma.c
 iomd_enable_dma	dma.c
 iomd_enable_dma	dma.c
 iomd_enable_dma	dma.c
 iomd_enable_dma	dma.c
 iomd_free_dma	dma.c
 iomd_free_dma	dma.c
 iomd_free_dma	dma.c
 iomd_free_dma	dma.c
 iomd_free_dma	dma.c
 iomd_get_next_sg	dma.c
 iomd_get_next_sg	dma.c
 iomd_get_next_sg	dma.c
 iomd_get_next_sg	dma.c
 iomd_get_next_sg	dma.c
 iomd_request_dma	dma.c
 iomd_request_dma	dma.c
 iomd_request_dma	dma.c
 iomd_request_dma	dma.c
 iomd_request_dma	dma.c
 iomd_set_dma_speed	dma.c
 iomd_set_dma_speed	dma.c
 iomd_set_dma_speed	dma.c
 iomd_set_dma_speed	dma.c
 iomd_set_dma_speed	dma.c
 iomega_ix2_200_init	board-iomega_ix2_200.c
 iop3xx_adma_cap_init	adma.c
 iop3xx_map_io	setup.c
 iop3xx_pmu_init	pmu.c
 iop3xx_restart	restart.c
 iop_init_cp6_handler	cp6.c
 ioread16	scoop.c
 ioread16	scoop.c
 irq_cb	intc-sh73a0.c
 irq_cbp	intc-sh73a0.c
 irq_cbp	intc-sh73a0.c
 irq_cbp	intc-sh73a0.c
 irq_cbp	intc-sh73a0.c
 is_l2_writethrough	common.c
 is_l2_writethrough	common.c
 is_l2_writethrough	common.c
 is_l2_writethrough	common.c
 is_l2_writethrough	common.c
 is_l2_writethrough	common.c
 is_max197_installed	ts72xx.h
 is_ts9420_installed	ts72xx.h
 isa_ack_pic_hi_irq	isa-irq.c
 isa_ack_pic_lo_irq	isa-irq.c
 isa_init_irq	isa-irq.c
 isa_mask_pic_hi_irq	isa-irq.c
 isa_mask_pic_lo_irq	isa-irq.c
 isa_rtc_init	isa-rtc.c
 isa_timer_init	isa-timer.c
 isa_unmask_pic_hi_irq	isa-irq.c
 isa_unmask_pic_lo_irq	isa-irq.c
 it8152_init_irq	it8152.c
 it8152_irq_demux	it8152.c
 it8152_mask_irq	it8152.c
 it8152_needs_bounce	it8152.c
 it8152_pci_map_irq	it8152.c
 it8152_pci_platform_notify	it8152.c
 it8152_pci_platform_notify_remove	it8152.c
 it8152_pci_setup	it8152.c
 it8152_unmask_irq	it8152.c
 jornada720_init	jornada720.c
 jornada720_mach_init	jornada720.c
 jornada720_map_io	jornada720.c
 jornada720_set_vpp	jornada720.c
 jornada_ssp_byte	jornada720.h
 jornada_ssp_byte	jornada720_ssp.c
 jornada_ssp_end	jornada720.h
 jornada_ssp_end	jornada720_ssp.c
 jornada_ssp_init	jornada720_ssp.c
 jornada_ssp_inout	jornada720.h
 jornada_ssp_inout	jornada720_ssp.c
 jornada_ssp_probe	jornada720_ssp.c
 jornada_ssp_remove	jornada720_ssp.c
 jornada_ssp_reverse	jornada720_ssp.c
 jornada_ssp_reverse	jornada720_ssp.c
 jornada_ssp_start	jornada720.h
 jornada_ssp_start	jornada720_ssp.c
 kirkwood_init_cpuidle	cpuidle.c
 ks8695_add_device_hpna	devices.h
 ks8695_add_device_lan	devices.c
 ks8695_add_device_lan	devices.h
 ks8695_add_device_wan	devices.c
 ks8695_add_device_wan	devices.h
 ks8695_add_device_watchdog	devices.c
 ks8695_add_standard_devices	devices.c
 ks8695_clock_info	cpu.c
 ks8695_gpio_interrupt	gpio-ks8695.h
 ks8695_init_pci	devices.h
 ks8695_map_io	cpu.c
 ks8695_processor_info	cpu.c
 ks8695_register_gpios	gpio-ks8695.h
 ks8696_add_device_hpna	devices.c
 kurobox_pro_init	kurobox_pro-setup.c
 kurobox_pro_miconread	kurobox_pro-setup.c
 kurobox_pro_miconsend	kurobox_pro-setup.c
 kurobox_pro_miconwrite	kurobox_pro-setup.c
 kurobox_pro_pci_init	kurobox_pro-setup.c
 kurobox_pro_power_off	kurobox_pro-setup.c
 kzm9g_restart	board-kzm9g.c
 kzm_init	board-kzm9g.c
 l2x0_init	setup-r8a7740.c
 lart_init	lart.c
 lart_map_io	lart.c
 late_initcall	vic.c
 lcd_backlight_set_brightness	board-ag5evm.c
 locomo_ack_irq	locomo.c
 locomo_bus_probe	locomo.c
 locomo_bus_remove	locomo.c
 locomo_bus_resume	locomo.c
 locomo_bus_suspend	locomo.c
 locomo_dev_release	locomo.c
 locomo_driver_register	collie.c
 locomo_driver_register	locomo.c
 locomo_driver_unregister	locomo.c
 locomo_exit	locomo.c
 locomo_frontlight_set	locomo.c
 locomo_gpio_read_level	locomo.c
 locomo_gpio_read_output	locomo.c
 locomo_gpio_set_dir	locomo.c
 locomo_gpio_write	locomo.c
 locomo_handler	locomo.c
 locomo_init	locomo.c
 locomo_m62332_sendbit	locomo.c
 locomo_m62332_senddata	locomo.c
 locomo_mask_irq	locomo.c
 locomo_match	locomo.c
 locomo_probe	locomo.c
 locomo_remove	locomo.c
 locomo_remove_child	locomo.c
 locomo_resume	locomo.c
 locomo_setup_irq	locomo.c
 locomo_suspend	locomo.c
 locomo_unmask_irq	locomo.c
 locomolcd_power	collie.h
 lpc3250_machine_init	phy3250.c
 lpc32xx_clcd_mmap	phy3250.c
 lpc32xx_clcd_remove	phy3250.c
 lpc32xx_clcd_setup	phy3250.c
 lpc32xx_return_iram_size	board.h
 lpc32xx_serial_init	serial.c
 lpc32xx_timer_init	timer.c
 lpc32xx_timer_init	timer.c
 lpc32xx_timer_init	timer.c
 lpc32xx_timer_interrupt	timer.c
 lpc32xx_timer_interrupt	timer.c
 lpc32xx_timer_interrupt	timer.c
 ls_hgl_init	ls_hgl-setup.c
 ls_hgl_power_off	ls_hgl-setup.c
 lschl_init	ls-chl-setup.c
 lschl_power_off	ls-chl-setup.c
 lsmini_init	lsmini-setup.c
 lsmini_power_off	lsmini-setup.c
 machine_has_neponset	assabet.c
 machine_has_neponset	assabet.h
 machine_has_neponset	assabet.h
 machine_is_edb9307	edb93xx.c
 machine_is_edb9312	edb93xx.c
 map_sa1100_gpio_regs	assabet.c
 map_single	dmabounce.c
 marzen_init	board-marzen.c
 marzen_init_late	board-marzen.c
 mask_timerx_irq	cpu-h7202.c
 micrel_init	board-micrel.c
 micrel_pci_map_irq	board-micrel.c
 micro9_detect_bootwidth	micro9.c
 micro9_init_machine	micro9.c
 micro9_register_flash	micro9.c
 mmc_handle_ios	phy3250.c
 modify_scu_cpu_psr	smp-emev2.c
 mss2_init	mss2-setup.c
 mss2_pci_init	mss2-setup.c
 mss2_pci_map_irq	mss2-setup.c
 mss2_power_off	mss2-setup.c
 mt9t111_power	board-armadillo800eva.c
 mt9t111_power	board-armadillo800eva.c
 mv2120_init	mv2120-setup.c
 mv2120_power_off	mv2120-setup.c
 mv78xx0_core_index	common.c
 mv78xx0_core_index	common.c
 mv78xx0_core_index	common.c
 mv78xx0_core_index	common.c
 mv78xx0_core_index	common.c
 mv78xx0_core_index	common.c
 mv78xx0_core_index	common.h
 mv78xx0_core_index	common.h
 mv78xx0_core_index	common.h
 mv78xx0_core_index	common.h
 mv78xx0_core_index	common.h
 mv78xx0_core_index	common.h
 mv78xx0_core_index	common.h
 mv78xx0_ehci0_init	common.c
 mv78xx0_ehci0_init	common.c
 mv78xx0_ehci0_init	common.c
 mv78xx0_ehci0_init	common.c
 mv78xx0_ehci0_init	common.c
 mv78xx0_ehci0_init	common.c
 mv78xx0_ehci0_init	common.h
 mv78xx0_ehci0_init	common.h
 mv78xx0_ehci0_init	common.h
 mv78xx0_ehci0_init	common.h
 mv78xx0_ehci0_init	common.h
 mv78xx0_ehci0_init	common.h
 mv78xx0_ehci0_init	common.h
 mv78xx0_ehci1_init	common.c
 mv78xx0_ehci1_init	common.c
 mv78xx0_ehci1_init	common.c
 mv78xx0_ehci1_init	common.c
 mv78xx0_ehci1_init	common.c
 mv78xx0_ehci1_init	common.c
 mv78xx0_ehci1_init	common.h
 mv78xx0_ehci1_init	common.h
 mv78xx0_ehci1_init	common.h
 mv78xx0_ehci1_init	common.h
 mv78xx0_ehci1_init	common.h
 mv78xx0_ehci1_init	common.h
 mv78xx0_ehci1_init	common.h
 mv78xx0_ehci2_init	common.c
 mv78xx0_ehci2_init	common.c
 mv78xx0_ehci2_init	common.c
 mv78xx0_ehci2_init	common.c
 mv78xx0_ehci2_init	common.c
 mv78xx0_ehci2_init	common.c
 mv78xx0_ehci2_init	common.h
 mv78xx0_ehci2_init	common.h
 mv78xx0_ehci2_init	common.h
 mv78xx0_ehci2_init	common.h
 mv78xx0_ehci2_init	common.h
 mv78xx0_ehci2_init	common.h
 mv78xx0_ehci2_init	common.h
 mv78xx0_ge00_init	common.c
 mv78xx0_ge00_init	common.c
 mv78xx0_ge00_init	common.c
 mv78xx0_ge00_init	common.c
 mv78xx0_ge00_init	common.c
 mv78xx0_ge00_init	common.c
 mv78xx0_ge00_init	common.h
 mv78xx0_ge00_init	common.h
 mv78xx0_ge00_init	common.h
 mv78xx0_ge00_init	common.h
 mv78xx0_ge00_init	common.h
 mv78xx0_ge00_init	common.h
 mv78xx0_ge00_init	common.h
 mv78xx0_ge01_init	common.c
 mv78xx0_ge01_init	common.c
 mv78xx0_ge01_init	common.c
 mv78xx0_ge01_init	common.c
 mv78xx0_ge01_init	common.c
 mv78xx0_ge01_init	common.c
 mv78xx0_ge01_init	common.h
 mv78xx0_ge01_init	common.h
 mv78xx0_ge01_init	common.h
 mv78xx0_ge01_init	common.h
 mv78xx0_ge01_init	common.h
 mv78xx0_ge01_init	common.h
 mv78xx0_ge01_init	common.h
 mv78xx0_ge10_init	common.c
 mv78xx0_ge10_init	common.c
 mv78xx0_ge10_init	common.c
 mv78xx0_ge10_init	common.c
 mv78xx0_ge10_init	common.c
 mv78xx0_ge10_init	common.c
 mv78xx0_ge10_init	common.h
 mv78xx0_ge10_init	common.h
 mv78xx0_ge10_init	common.h
 mv78xx0_ge10_init	common.h
 mv78xx0_ge10_init	common.h
 mv78xx0_ge10_init	common.h
 mv78xx0_ge10_init	common.h
 mv78xx0_ge11_init	common.c
 mv78xx0_ge11_init	common.c
 mv78xx0_ge11_init	common.c
 mv78xx0_ge11_init	common.c
 mv78xx0_ge11_init	common.c
 mv78xx0_ge11_init	common.c
 mv78xx0_ge11_init	common.h
 mv78xx0_ge11_init	common.h
 mv78xx0_ge11_init	common.h
 mv78xx0_ge11_init	common.h
 mv78xx0_ge11_init	common.h
 mv78xx0_ge11_init	common.h
 mv78xx0_ge11_init	common.h
 mv78xx0_i2c_init	common.c
 mv78xx0_i2c_init	common.c
 mv78xx0_i2c_init	common.c
 mv78xx0_i2c_init	common.c
 mv78xx0_i2c_init	common.c
 mv78xx0_i2c_init	common.c
 mv78xx0_i2c_init	common.h
 mv78xx0_i2c_init	common.h
 mv78xx0_i2c_init	common.h
 mv78xx0_i2c_init	common.h
 mv78xx0_i2c_init	common.h
 mv78xx0_i2c_init	common.h
 mv78xx0_i2c_init	common.h
 mv78xx0_id	common.c
 mv78xx0_id	common.c
 mv78xx0_id	common.c
 mv78xx0_id	common.c
 mv78xx0_id	common.c
 mv78xx0_id	common.c
 mv78xx0_init	common.c
 mv78xx0_init	common.c
 mv78xx0_init	common.c
 mv78xx0_init	common.c
 mv78xx0_init	common.c
 mv78xx0_init	common.c
 mv78xx0_init	common.h
 mv78xx0_init	common.h
 mv78xx0_init	common.h
 mv78xx0_init	common.h
 mv78xx0_init	common.h
 mv78xx0_init	common.h
 mv78xx0_init	common.h
 mv78xx0_init_early	common.c
 mv78xx0_init_early	common.c
 mv78xx0_init_early	common.c
 mv78xx0_init_early	common.c
 mv78xx0_init_early	common.c
 mv78xx0_init_early	common.c
 mv78xx0_init_early	common.h
 mv78xx0_init_early	common.h
 mv78xx0_init_early	common.h
 mv78xx0_init_early	common.h
 mv78xx0_init_early	common.h
 mv78xx0_init_early	common.h
 mv78xx0_init_early	common.h
 mv78xx0_init_irq	common.h
 mv78xx0_init_irq	common.h
 mv78xx0_init_irq	common.h
 mv78xx0_init_irq	common.h
 mv78xx0_init_irq	common.h
 mv78xx0_init_irq	common.h
 mv78xx0_init_irq	common.h
 mv78xx0_init_irq	irq.c
 mv78xx0_init_irq	irq.c
 mv78xx0_init_irq	irq.c
 mv78xx0_init_irq	irq.c
 mv78xx0_init_irq	irq.c
 mv78xx0_init_irq	irq.c
 mv78xx0_init_irq	irq.c
 mv78xx0_init_irq	irq.c
 mv78xx0_map_io	common.c
 mv78xx0_map_io	common.c
 mv78xx0_map_io	common.c
 mv78xx0_map_io	common.c
 mv78xx0_map_io	common.c
 mv78xx0_map_io	common.c
 mv78xx0_map_io	common.h
 mv78xx0_map_io	common.h
 mv78xx0_map_io	common.h
 mv78xx0_map_io	common.h
 mv78xx0_map_io	common.h
 mv78xx0_map_io	common.h
 mv78xx0_map_io	common.h
 mv78xx0_mpp_conf	mpp.c
 mv78xx0_mpp_conf	mpp.c
 mv78xx0_mpp_conf	mpp.h
 mv78xx0_mpp_conf	mpp.h
 mv78xx0_pcie_id	common.h
 mv78xx0_pcie_id	common.h
 mv78xx0_pcie_id	common.h
 mv78xx0_pcie_id	common.h
 mv78xx0_pcie_id	common.h
 mv78xx0_pcie_id	common.h
 mv78xx0_pcie_id	common.h
 mv78xx0_pcie_id	pcie.c
 mv78xx0_pcie_init	common.h
 mv78xx0_pcie_init	common.h
 mv78xx0_pcie_init	common.h
 mv78xx0_pcie_init	common.h
 mv78xx0_pcie_init	common.h
 mv78xx0_pcie_init	common.h
 mv78xx0_pcie_init	common.h
 mv78xx0_pcie_init	pcie.c
 mv78xx0_pcie_preinit	pcie.c
 mv78xx0_pcie_setup	pcie.c
 mv78xx0_restart	common.c
 mv78xx0_restart	common.c
 mv78xx0_restart	common.c
 mv78xx0_restart	common.c
 mv78xx0_restart	common.c
 mv78xx0_restart	common.c
 mv78xx0_restart	common.h
 mv78xx0_restart	common.h
 mv78xx0_restart	common.h
 mv78xx0_restart	common.h
 mv78xx0_restart	common.h
 mv78xx0_restart	common.h
 mv78xx0_restart	common.h
 mv78xx0_sata_init	common.c
 mv78xx0_sata_init	common.c
 mv78xx0_sata_init	common.c
 mv78xx0_sata_init	common.c
 mv78xx0_sata_init	common.c
 mv78xx0_sata_init	common.c
 mv78xx0_sata_init	common.h
 mv78xx0_sata_init	common.h
 mv78xx0_sata_init	common.h
 mv78xx0_sata_init	common.h
 mv78xx0_sata_init	common.h
 mv78xx0_sata_init	common.h
 mv78xx0_sata_init	common.h
 mv78xx0_setup_cpu_mbus	addr-map.c
 mv78xx0_setup_cpu_mbus	addr-map.c
 mv78xx0_setup_cpu_mbus	common.h
 mv78xx0_setup_cpu_mbus	common.h
 mv78xx0_setup_cpu_mbus	common.h
 mv78xx0_setup_cpu_mbus	common.h
 mv78xx0_setup_cpu_mbus	common.h
 mv78xx0_setup_cpu_mbus	common.h
 mv78xx0_setup_cpu_mbus	common.h
 mv78xx0_timer_init	common.c
 mv78xx0_timer_init	common.c
 mv78xx0_timer_init	common.c
 mv78xx0_timer_init	common.c
 mv78xx0_timer_init	common.c
 mv78xx0_timer_init	common.c
 mv78xx0_uart0_init	common.c
 mv78xx0_uart0_init	common.c
 mv78xx0_uart0_init	common.c
 mv78xx0_uart0_init	common.c
 mv78xx0_uart0_init	common.c
 mv78xx0_uart0_init	common.c
 mv78xx0_uart0_init	common.h
 mv78xx0_uart0_init	common.h
 mv78xx0_uart0_init	common.h
 mv78xx0_uart0_init	common.h
 mv78xx0_uart0_init	common.h
 mv78xx0_uart0_init	common.h
 mv78xx0_uart0_init	common.h
 mv78xx0_uart1_init	common.c
 mv78xx0_uart1_init	common.c
 mv78xx0_uart1_init	common.c
 mv78xx0_uart1_init	common.c
 mv78xx0_uart1_init	common.c
 mv78xx0_uart1_init	common.c
 mv78xx0_uart1_init	common.h
 mv78xx0_uart1_init	common.h
 mv78xx0_uart1_init	common.h
 mv78xx0_uart1_init	common.h
 mv78xx0_uart1_init	common.h
 mv78xx0_uart1_init	common.h
 mv78xx0_uart1_init	common.h
 mv78xx0_uart2_init	common.c
 mv78xx0_uart2_init	common.c
 mv78xx0_uart2_init	common.c
 mv78xx0_uart2_init	common.c
 mv78xx0_uart2_init	common.c
 mv78xx0_uart2_init	common.c
 mv78xx0_uart2_init	common.h
 mv78xx0_uart2_init	common.h
 mv78xx0_uart2_init	common.h
 mv78xx0_uart2_init	common.h
 mv78xx0_uart2_init	common.h
 mv78xx0_uart2_init	common.h
 mv78xx0_uart2_init	common.h
 mv78xx0_uart3_init	common.c
 mv78xx0_uart3_init	common.c
 mv78xx0_uart3_init	common.c
 mv78xx0_uart3_init	common.c
 mv78xx0_uart3_init	common.c
 mv78xx0_uart3_init	common.c
 mv78xx0_uart3_init	common.h
 mv78xx0_uart3_init	common.h
 mv78xx0_uart3_init	common.h
 mv78xx0_uart3_init	common.h
 mv78xx0_uart3_init	common.h
 mv78xx0_uart3_init	common.h
 mv78xx0_uart3_init	common.h
 mv78xx0_variant	mpp.c
 mv78xx0_variant	mpp.c
 nanoengine_init	nanoengine.c
 nanoengine_map_io	nanoengine.c
 nanoengine_pci_init	pci-nanoengine.c
 needs_bounce	dmabounce.c
 neponset_get_mctrl	neponset.c
 neponset_init	neponset.c
 neponset_irq_handler	neponset.c
 neponset_ncr_clear	neponset.h
 neponset_ncr_frob	neponset.c
 neponset_ncr_frob	neponset.h
 neponset_ncr_set	neponset.h
 neponset_probe	neponset.c
 neponset_remove	neponset.c
 neponset_resume	neponset.c
 neponset_set_mctrl	neponset.c
 neponset_suspend	neponset.c
 net2big_gpio_leds_init	net2big-setup.c
 net2big_init	net2big-setup.c
 net2big_power_off	net2big-setup.c
 net2big_sata_power_init	net2big-setup.c
 netwinder_led_get	netwinder-hw.c
 netwinder_leds_init	netwinder-hw.c
 netwinder_map_irq	netwinder-pci.c
 netwinder_pci_init	netwinder-pci.c
 netwinder_restart	netwinder-hw.c
 nochip_noop	neponset.c
 ns_to_cycles	cpu-sa1110.c
 nw_cpld_modify	netwinder-hw.c
 nw_gpio_modify_io	netwinder-hw.c
 nw_gpio_modify_op	netwinder-hw.c
 nw_gpio_read	netwinder-hw.c
 nw_hw_init	netwinder-hw.c
 og_init	board-og.c
 og_pci_bus_reset	board-og.c
 og_pci_map_irq	board-og.c
 og_register_pci	board-og.c
 orion5x_dt_init	board-dt.c
 orion5x_pci_disable	pci.c
 orion5x_pci_disable	pci.c
 orion5x_pci_disable	pci.c
 orion5x_pci_hw_rd_conf	pci.c
 orion5x_pci_hw_rd_conf	pci.c
 orion5x_pci_hw_rd_conf	pci.c
 orion5x_pci_hw_wr_conf	pci.c
 orion5x_pci_hw_wr_conf	pci.c
 orion5x_pci_hw_wr_conf	pci.c
 orion5x_pci_local_bus_nr	pci.c
 orion5x_pci_local_bus_nr	pci.c
 orion5x_pci_local_bus_nr	pci.c
 orion5x_pci_map_irq	pci.c
 orion5x_pci_map_irq	pci.c
 orion5x_pci_map_irq	pci.c
 orion5x_pci_master_slave_enable	pci.c
 orion5x_pci_master_slave_enable	pci.c
 orion5x_pci_master_slave_enable	pci.c
 orion5x_pci_set_bus_nr	pci.c
 orion5x_pci_set_bus_nr	pci.c
 orion5x_pci_set_bus_nr	pci.c
 orion5x_pci_set_cardbus_mode	pci.c
 orion5x_pci_set_cardbus_mode	pci.c
 orion5x_pci_set_cardbus_mode	pci.c
 orion5x_pci_sys_setup	pci.c
 orion5x_pci_sys_setup	pci.c
 orion5x_pci_sys_setup	pci.c
 orion5x_pci_valid_config	pci.c
 orion5x_pci_valid_config	pci.c
 orion5x_pci_valid_config	pci.c
 orion5x_pcie_id	pci.c
 orion5x_pcie_id	pci.c
 orion5x_pcie_id	pci.c
 orion5x_setup_pci_wins	pci.c
 orion5x_setup_pci_wins	pci.c
 orion5x_setup_pci_wins	pci.c
 parse_tag_acorn	riscpc.c
 pci_nanoengine_setup	pci-nanoengine.c
 pci_nanoengine_setup_resources	pci-nanoengine.c
 pci_setup	pci.c
 pci_setup	pci.c
 pci_setup	pci.c
 pcibios_report_status	dc21285.c
 pcibios_set_master	it8152.c
 pcie_setup	pci.c
 pcie_setup	pci.c
 pcie_setup	pci.c
 pcie_valid_config	pci.c
 pcie_valid_config	pci.c
 pcie_valid_config	pci.c
 pcie_valid_config	pcie.c
 personal_pci_init	personal-pci.c
 pint_demux	intc-sh73a0.c
 pit_timer_interrupt	isa-timer.c
 pl08x_get_signal	phy3250.c
 pl08x_put_signal	phy3250.c
 platform_add_devices	badge4.c
 platform_add_devices	generic.c
 platform_add_devices	riscpc.c
 platform_cpu_die	smp-emev2.c
 platform_driver_register	jornada720_ssp.c
 platform_driver_register	neponset.c
 platform_driver_register	scoop.c
 pleb_init	pleb.c
 pleb_map_io	pleb.c
 pll_recalc	clock-sh73a0.c
 pllc01_recalc	clock-r8a7740.c
 pllc01_recalc	clock-sh7372.c
 pllc2_disable	clock-sh7372.c
 pllc2_enable	clock-sh7372.c
 pllc2_recalc	clock-sh7372.c
 pllc2_round_rate	clock-sh7372.c
 pllc2_set_parent	clock-sh7372.c
 pllc2_set_rate	clock-sh7372.c
 pllc2_table_rebuild	clock-sh7372.c
 pr_fmt	core.c
 pr_fmt	ts72xx.c
 pr_fmt	ts78xx-setup.c
 pr_fmt	vision_ep9307.c
 print_ns	cpu-freq-debugfs.c
 print_ns	s3c2410-iotiming.c
 print_ns	s3c2412-iotiming.c
 putc	uncompress.h
 putc	uncompress.h
 putc	uncompress.h
 putc	uncompress.h
 putc	uncompress.h
 putc	uncompress.h
 putc	uncompress.h
 putc	uncompress.h
 putc	uncompress.h
 putc	uncompress.h
 putc	uncompress.h
 qnap_ts209_init	ts209-setup.c
 qnap_ts209_pci_init	ts209-setup.c
 qnap_ts209_pci_preinit	ts209-setup.c
 qnap_ts409_init	ts409-setup.c
 qnap_ts409_pci_init	ts409-setup.c
 qnap_tsx09_check_mac_addr	tsx09-common.c
 qnap_tsx09_find_mac_addr	tsx09-common.c
 qnap_tsx09_find_mac_addr	tsx09-common.h
 qnap_tsx09_parse_hex_byte	tsx09-common.c
 qnap_tsx09_parse_hex_nibble	tsx09-common.c
 qnap_tsx09_power_off	tsx09-common.c
 qnap_tsx09_power_off	tsx09-common.h
 r8a7740_add_early_devices	setup-r8a7740.c
 r8a7740_add_early_devices_dt	setup-r8a7740.c
 r8a7740_add_standard_devices	setup-r8a7740.c
 r8a7740_add_standard_devices_dt	setup-r8a7740.c
 r8a7740_clock_init	clock-r8a7740.c
 r8a7740_earlytimer_init	setup-r8a7740.c
 r8a7740_i2c_workaround	setup-r8a7740.c
 r8a7740_init_pm_domains	pm-r8a7740.c
 r8a7740_map_io	setup-r8a7740.c
 r8a7740_meram_workaround	setup-r8a7740.c
 r8a7740_pd_a3sp_suspend	pm-r8a7740.c
 r8a7740_pd_a4s_suspend	pm-r8a7740.c
 r8a7779_init_irq	intc-r8a7779.c
 r8a7779_pinmux_init	pfc-r8a7779.c
 r8a7779_set_wake	intc-r8a7779.c
 rc_pci_fixup	pci.c
 rc_pci_fixup	pci.c
 rc_pci_fixup	pci.c
 rc_pci_fixup	pcie.c
 rd78x00_masa_init	rd78x00-masa-setup.c
 rd78x00_pci_init	rd78x00-masa-setup.c
 rd88f5181l_fxo_init	rd88f5181l-fxo-setup.c
 rd88f5181l_fxo_pci_init	rd88f5181l-fxo-setup.c
 rd88f5181l_ge_init	rd88f5181l-ge-setup.c
 rd88f5181l_ge_pci_init	rd88f5181l-ge-setup.c
 rd88f5182_init	rd88f5182-setup.c
 rd88f5182_pci_init	rd88f5182-setup.c
 rd88f5182_pci_preinit	rd88f5182-setup.c
 rd88f6183ap_ge_init	rd88f6183ap-ge-setup.c
 rd88f6183ap_ge_pci_init	rd88f6183ap-ge-setup.c
 read_scoop_reg	scoop.c
 readb	ts78xx-setup.c
 readb	ts78xx-setup.c
 readl	sched-clock.c
 readl	simpad.c
 reset_scoop	scoop.c
 resume_one_vic	vic.c
 rpc_dma_init	dma.c
 rpc_dma_init	dma.c
 rpc_dma_init	dma.c
 rpc_dma_init	dma.c
 rpc_dma_init	dma.c
 rpc_init	riscpc.c
 rpc_init_irq	riscpc.c
 rpc_map_io	riscpc.c
 rpc_restart	riscpc.c
 rwa010_game_port_init	netwinder-hw.c
 rwa010_global_init	netwinder-hw.c
 rwa010_init	netwinder-hw.c
 rwa010_read_ident	netwinder-hw.c
 rwa010_soundblaster_init	netwinder-hw.c
 rwa010_soundblaster_reset	netwinder-hw.c
 rwa010_unlock	netwinder-hw.c
 rwa010_waveartist_init	netwinder-hw.c
 s3c2410_baseclk_add	s3c2410-clock.c
 s3c2410_clkcon_enable	s3c2410-clock.c
 s3c2410_cpufreq_setrefresh	s3c2410-cpufreq-utils.c
 s3c2410_iotiming_calc	s3c2410-iotiming.c
 s3c2410_iotiming_set	s3c2410-iotiming.c
 s3c2410_pll_init	pll.c
 s3c2410_plls_add	pll.c
 s3c2410_set_fvco	s3c2410-cpufreq-utils.c
 s3c2410_upll_enable	s3c2410-clock.c
 s3c2410a_pll_init	pll.c
 s3c2412_calc_bank	s3c2412-iotiming.c
 s3c2412_cpufreq_calcdivs	cpu-freq.c
 s3c2412_cpufreq_calcdivs	cpu-freq.c
 s3c2412_cpufreq_calcdivs	cpu-freq.c
 s3c2412_cpufreq_init	cpu-freq.c
 s3c2412_cpufreq_init	cpu-freq.c
 s3c2412_cpufreq_init	cpu-freq.c
 s3c2412_cpufreq_setdivs	cpu-freq.c
 s3c2412_cpufreq_setdivs	cpu-freq.c
 s3c2412_cpufreq_setdivs	cpu-freq.c
 s3c2412_cpufreq_setrefresh	cpu-freq.c
 s3c2412_cpufreq_setrefresh	cpu-freq.c
 s3c2412_cpufreq_setrefresh	cpu-freq.c
 s3c2412_cpufreq_setrefresh	s3c2412-iotiming.c
 s3c2412_decode_timing	s3c2412-iotiming.c
 s3c2412_gpio_set_sleepcfg	gpio.c
 s3c2412_gpio_set_sleepcfg	gpio.c
 s3c2412_iotiming_calc	s3c2412-iotiming.c
 s3c2412_print_timing	s3c2412-iotiming.c
 s3c2440_cpufreq_calcdivs	s3c2440-cpufreq.c
 s3c2440_cpufreq_calcdivs	s3c2440-cpufreq.c
 s3c2440_cpufreq_init	s3c2440-cpufreq.c
 s3c2440_cpufreq_setdivs	s3c2440-cpufreq.c
 s3c2440_pll_12mhz	s3c2440-pll-12000000.c
 s3c2440_pll_16934400	s3c2440-pll-16934400.c
 s3c2440_plls12_add	s3c2440-pll-12000000.c
 s3c2440_set_dsc	dsc.c
 s3c2442_cpufreq_init	s3c2440-cpufreq.c
 s3c2442_pll_12mhz	s3c2440-pll-12000000.c
 s3c2442_pll_16934400	s3c2440-pll-16934400.c
 s3c24xx_calc_div	clock-dclk.c
 s3c24xx_clkout_setparent	clock-dclk.c
 s3c24xx_dclk_enable	clock-dclk.c
 s3c24xx_dclk_setparent	clock-dclk.c
 s3c24xx_ostimer_pending	tick.h
 s3c24xx_set_dclk_rate	clock-dclk.c
 s3c64xx_spi0_cfg_gpio	setup-spi.c
 s3c64xx_spi1_cfg_gpio	setup-spi.c
 s3c_cpufreq_register	cpu-freq.c
 s3c_cpufreq_register	cpu-freq.c
 s3c_cpufreq_register	cpu-freq.c
 s3c_cpufreq_register	s3c2440-cpufreq.c
 s3c_freq_debugfs_init	cpu-freq-debugfs.c
 s3c_i2c0_cfg_gpio	setup-i2c0.c
 s3c_i2c1_cfg_gpio	setup-i2c1.c
 s3c_plltab_register	pll.c
 s3c_pm_arch_prepare_irqs	pm-core.h
 s3c_pm_arch_show_resume_irqs	pm-core.h
 s3c_pm_arch_stop_clocks	pm-core.h
 s3c_pm_debug_init_uart	pm-core.h
 s3c_pm_restored_gpios	pm-core.h
 s5p6440_cfg_i2s	dev-audio.c
 s5p6440_epll_set_rate	clock-s5p6440.c
 s5p6440_i2c0_cfg_gpio	i2c.h
 s5p6440_i2c0_cfg_gpio	setup-i2c0.c
 s5p6440_i2c1_cfg_gpio	i2c.h
 s5p6440_i2c1_cfg_gpio	setup-i2c1.c
 s5p6440_pcm_cfg_gpio	dev-audio.c
 s5p6440_register_clocks	clock-s5p6440.c
 s5p6440_set_lcd_interface	mach-smdk6440.c
 s5p6440_setup_clocks	clock-s5p6440.c
 s5p6440_setup_sdhci2_cfg_gpio	setup-sdhci-gpio.c
 s5p6450_cfg_i2s	dev-audio.c
 s5p6450_epll_set_rate	clock-s5p6450.c
 s5p6450_i2c0_cfg_gpio	i2c.h
 s5p6450_i2c0_cfg_gpio	setup-i2c0.c
 s5p6450_i2c1_cfg_gpio	i2c.h
 s5p6450_i2c1_cfg_gpio	setup-i2c1.c
 s5p6450_register_clocks	clock-s5p6450.c
 s5p6450_set_lcd_interface	mach-smdk6450.c
 s5p6450_setup_clocks	clock-s5p6450.c
 s5p6450_setup_sdhci2_cfg_gpio	setup-sdhci-gpio.c
 s5p64x0_clk48m_ctrl	s5p64x0-clock.h
 s5p64x0_epll_enable	s5p64x0-clock.h
 s5p64x0_epll_get_rate	s5p64x0-clock.h
 s5p64x0_fb_gpio_setup_24bpp	setup-fb-24bpp.c
 s5p64x0_gpiolib_init	gpiolib.c
 s5p64x0_gpiolib_set_cfg	gpiolib.c
 s5p64x0_hclk0_ctrl	s5p64x0-clock.h
 s5p64x0_hclk1_ctrl	s5p64x0-clock.h
 s5p64x0_irq_pm_resume	irq-pm.c
 s5p64x0_irq_pm_suspend	irq-pm.c
 s5p64x0_mem_ctrl	s5p64x0-clock.h
 s5p64x0_pclk_ctrl	s5p64x0-clock.h
 s5p64x0_sclk1_ctrl	s5p64x0-clock.h
 s5p64x0_sclk_ctrl	s5p64x0-clock.h
 s5p64x0_setup_sdhci0_cfg_gpio	setup-sdhci-gpio.c
 s5p64x0_setup_sdhci1_cfg_gpio	setup-sdhci-gpio.c
 s5p64x0_syscore_init	irq-pm.c
 sa1100_cpu_init	cpu-sa1100.c
 sa1100_dram_init	cpu-sa1100.c
 sa1100_finish_suspend	pm.c
 sa1100_finish_suspend	pm.c
 sa1100_finish_suspend	pm.c
 sa1100_init	generic.c
 sa1100_init_gpio	generic.h
 sa1100_init_gpio	generic.h
 sa1100_init_irq	generic.h
 sa1100_init_irq	generic.h
 sa1100_map_io	generic.c
 sa1100_map_io	generic.h
 sa1100_map_io	generic.h
 sa1100_power_off	generic.c
 sa1100_update_dram_timings	cpu-sa1100.c
 sa1110_clk_init	cpu-sa1110.c
 sa1110_cpu_init	cpu-sa1110.c
 sa1110_mb_disable	generic.c
 sa1110_mb_disable	generic.h
 sa1110_mb_disable	generic.h
 sa1110_mb_disable	neponset.c
 sa1110_mb_disable	sa1111.c
 sa1110_mb_disable	sa1111.c
 sa1110_mb_enable	generic.c
 sa1110_mb_enable	generic.h
 sa1110_mb_enable	generic.h
 sa1110_mb_enable	sa1111.c
 sa1111_ack_irq	sa1111.c
 sa1111_bus_probe	sa1111.c
 sa1111_bus_remove	sa1111.c
 sa1111_bus_resume	sa1111.c
 sa1111_bus_shutdown	sa1111.c
 sa1111_bus_suspend	sa1111.c
 sa1111_dev_release	sa1111.c
 sa1111_disable_device	sa1111.c
 sa1111_driver_register	sa1111.c
 sa1111_driver_unregister	sa1111.c
 sa1111_enable_device	sa1111.c
 sa1111_exit	sa1111.c
 sa1111_get_audio_rate	sa1111.c
 sa1111_init	sa1111.c
 sa1111_mask_highirq	sa1111.c
 sa1111_mask_lowirq	sa1111.c
 sa1111_match	sa1111.c
 sa1111_needs_bounce	sa1111.c
 sa1111_pll_clock	sa1111.c
 sa1111_probe	sa1111.c
 sa1111_remove	sa1111.c
 sa1111_remove_one	sa1111.c
 sa1111_resume	sa1111.c
 sa1111_retrigger_highirq	sa1111.c
 sa1111_retrigger_lowirq	sa1111.c
 sa1111_select_audio_mode	sa1111.c
 sa1111_set_audio_rate	sa1111.c
 sa1111_set_io	sa1111.c
 sa1111_set_sleep_io	sa1111.c
 sa1111_setup_irq	sa1111.c
 sa1111_suspend	sa1111.c
 sa1111_type_highirq	sa1111.c
 sa1111_type_lowirq	sa1111.c
 sa1111_unmask_highirq	sa1111.c
 sa1111_unmask_lowirq	sa1111.c
 sa1111_wake	sa1111.c
 sa1111_wake_highirq	sa1111.c
 sa1111_wake_lowirq	sa1111.c
 sa11x0_freq_to_ppcr	generic.c
 sa11x0_freq_to_ppcr	generic.h
 sa11x0_freq_to_ppcr	generic.h
 sa11x0_getspeed	generic.c
 sa11x0_getspeed	generic.h
 sa11x0_getspeed	generic.h
 sa11x0_init_late	generic.c
 sa11x0_init_late	generic.h
 sa11x0_init_late	generic.h
 sa11x0_pm_enter	pm.c
 sa11x0_pm_enter	pm.c
 sa11x0_pm_enter	pm.c
 sa11x0_pm_init	generic.h
 sa11x0_pm_init	generic.h
 sa11x0_pm_init	generic.h
 sa11x0_pm_init	generic.h
 sa11x0_pm_init	pm.c
 sa11x0_pm_init	pm.c
 sa11x0_pm_init	pm.c
 sa11x0_ppc_configure_mcp	generic.c
 sa11x0_ppc_configure_mcp	generic.h
 sa11x0_ppc_configure_mcp	generic.h
 sa11x0_ppcr_to_freq	generic.c
 sa11x0_ppcr_to_freq	generic.h
 sa11x0_ppcr_to_freq	generic.h
 sa11x0_register_device	generic.c
 sa11x0_register_irda	generic.c
 sa11x0_register_irda	generic.h
 sa11x0_register_irda	generic.h
 sa11x0_register_lcd	generic.c
 sa11x0_register_lcd	generic.h
 sa11x0_register_lcd	generic.h
 sa11x0_register_mcp	generic.c
 sa11x0_register_mcp	generic.h
 sa11x0_register_mcp	generic.h
 sa11x0_restart	generic.c
 sa11x0_restart	generic.h
 sa11x0_restart	generic.h
 sa11x0_verify_speed	generic.c
 sa11x0_verify_speed	generic.h
 sa11x0_verify_speed	generic.h
 samsung_pm_saved_gpios	pm-core.h
 scoop_gpio_get	scoop.c
 scoop_gpio_set	scoop.c
 scoop_init	scoop.c
 scoop_probe	scoop.c
 scoop_remove	scoop.c
 scoop_resume	scoop.c
 scoop_suspend	scoop.c
 sdram_set_refresh	cpu-sa1110.c
 seq_printf	s3c2410-iotiming.c
 seq_printf	s3c2412-iotiming.c
 set_mdcas	cpu-sa1110.c
 setup_arm_irq	dc21285.c
 sg_init	board-sg.c
 sh7372_clock_init	clock-sh7372.c
 sh7372_pinmux_init	pfc-sh7372.c
 sh73a0_add_early_devices	setup-sh73a0.c
 sh73a0_add_standard_devices	setup-sh73a0.c
 sh73a0_clock_init	clock-sh73a0.c
 sh73a0_earlytimer_init	setup-sh73a0.c
 sh73a0_init_irq	intc-sh73a0.c
 sh73a0_intcs_demux	intc-sh73a0.c
 sh73a0_irq_pin_demux	intc-sh73a0.c
 sh73a0_map_io	setup-sh73a0.c
 sh73a0_pint0_demux	intc-sh73a0.c
 sh73a0_pint1_demux	intc-sh73a0.c
 sh73a0_register_twd	setup-sh73a0.c
 sh73a0_set_wake	intc-sh73a0.c
 shannon_init	shannon.c
 shannon_map_io	shannon.c
 sharpsl_save_param	sharpsl_param.c
 show_max	cpu-freq-debugfs.c
 simone_init_machine	simone.c
 simone_register_audio	simone.c
 simpad_clear_cs3_bit	simpad.c
 simpad_clear_cs3_bit	simpad.h
 simpad_get_battery	simpad.h
 simpad_get_cs3_ro	simpad.c
 simpad_get_cs3_ro	simpad.c
 simpad_get_cs3_ro	simpad.h
 simpad_get_cs3_shadow	simpad.c
 simpad_get_cs3_shadow	simpad.c
 simpad_get_cs3_shadow	simpad.h
 simpad_init	simpad.c
 simpad_map_io	simpad.c
 simpad_power_off	simpad.c
 simpad_set_cs3_bit	simpad.c
 simpad_set_cs3_bit	simpad.h
 simpad_uart_pm	simpad.c
 single_open	cpu-freq-debugfs.c
 single_open	cpu-freq-debugfs.c
 single_open	cpu-freq-debugfs.c
 single_open	ecard.c
 smdk6440_machine_init	mach-smdk6440.c
 smdk6440_map_io	mach-smdk6440.c
 smdk6450_machine_init	mach-smdk6450.c
 smdk6450_map_io	mach-smdk6450.c
 snappercl15_init_machine	snappercl15.c
 snappercl15_nand_dev_ready	snappercl15.c
 snappercl15_register_audio	snappercl15.c
 sound_enable_disable_dma	dma.c
 sound_enable_disable_dma	dma.c
 sound_enable_disable_dma	dma.c
 sound_enable_disable_dma	dma.c
 sound_enable_disable_dma	dma.c
 sp804_get_clock_rate	timer-sp.c
 sp804_read	timer-sp.c
 sp804_timer_interrupt	timer-sp.c
 sprintf	ecard.c
 sprintf	ecard.c
 sprintf	ecard.c
 sprintf	ecard.c
 sprintf	ecard.c
 sprintf	ts78xx-setup.c
 sprintf	ts78xx-setup.c
 ssp_disable	ssp.c
 ssp_enable	ssp.c
 ssp_exit	ssp.c
 ssp_flush	ssp.c
 ssp_init	ssp.c
 ssp_interrupt	ssp.c
 ssp_read_word	ssp.c
 ssp_restore_state	ssp.c
 ssp_save_state	ssp.c
 ssp_write_word	ssp.c
 subsys_interface_register	cpu-freq.c
 subsys_interface_register	cpu-freq.c
 subsys_interface_register	cpu-freq.c
 subsys_interface_register	pll.c
 subsys_interface_register	pll.c
 subsys_interface_register	s3c2440-cpufreq.c
 subsys_interface_register	s3c2440-cpufreq.c
 subsys_interface_register	s3c2440-pll-12000000.c
 subsys_interface_register	s3c2440-pll-12000000.c
 subsys_interface_register	s3c2440-pll-16934400.c
 subsys_interface_register	s3c2440-pll-16934400.c
 suspend_one_vic	vic.c
 timer1_interrupt	dc21285-timer.c
 to_div	s3c2410-iotiming.c
 to_div	s3c2412-iotiming.c
 to_gic_irq	intc-sh73a0.c
 to_intc_vect	intc-sh73a0.c
 to_intca_reloc_irq	intc-sh73a0.c
 ts72xx_init_machine	ts72xx.c
 ts72xx_map_io	ts72xx.c
 ts72xx_model	ts72xx.h
 ts72xx_model	ts72xx.h
 ts72xx_model	ts72xx.h
 ts72xx_model	ts72xx.h
 ts72xx_model	ts72xx.h
 ts72xx_model	ts72xx.h
 ts72xx_nand_device_ready	ts72xx.c
 ts72xx_register_flash	ts72xx.c
 ts72xx_rtc_readbyte	ts72xx.c
 ts72xx_rtc_writebyte	ts72xx.c
 ts78xx_fpga_devices_zero_init	ts78xx-setup.c
 ts78xx_fpga_load	ts78xx-setup.c
 ts78xx_fpga_load_devices	ts78xx-setup.c
 ts78xx_fpga_supports	ts78xx-setup.c
 ts78xx_fpga_supports	ts78xx-setup.c
 ts78xx_fpga_unload	ts78xx-setup.c
 ts78xx_fpga_unload_devices	ts78xx-setup.c
 ts78xx_init	ts78xx-setup.c
 ts78xx_map_io	ts78xx-setup.c
 ts78xx_ts_nand_dev_ready	ts78xx-setup.c
 ts78xx_ts_nand_load	ts78xx-setup.c
 ts78xx_ts_nand_unload	ts78xx-setup.c
 ts78xx_ts_rng_load	ts78xx-setup.c
 ts78xx_ts_rng_unload	ts78xx-setup.c
 ts78xx_ts_rtc_load	ts78xx-setup.c
 ts78xx_ts_rtc_readbyte	ts78xx-setup.c
 ts78xx_ts_rtc_unload	ts78xx-setup.c
 ts78xx_ts_rtc_writebyte	ts78xx-setup.c
 tsp2_init	terastation_pro2-setup.c
 tsp2_miconread	terastation_pro2-setup.c
 tsp2_miconsend	terastation_pro2-setup.c
 tsp2_miconwrite	terastation_pro2-setup.c
 tsp2_pci_init	terastation_pro2-setup.c
 tsp2_pci_map_irq	terastation_pro2-setup.c
 tsp2_pci_preinit	terastation_pro2-setup.c
 tsp2_power_off	terastation_pro2-setup.c
 uninitialized_var	assabet.c
 unmask_timerx_irq	cpu-h7202.c
 up	generic.c
 usb24_recalc	clock-r8a7740.c
 usb24_set_rate	clock-r8a7740.c
 usb24s_disable	clock-r8a7740.c
 usb24s_enable	clock-r8a7740.c
 usb24s_set_parent	clock-r8a7740.c
 usb_power_off	board-marzen.c
 usb_power_on	board-marzen.c
 usbhs_get_id	board-kzm9g.c
 usbhs_get_priv	board-kzm9g.c
 usbhs_get_vbus	board-kzm9g.c
 usbhs_hardware_exit	board-kzm9g.c
 usbhs_hardware_init	board-kzm9g.c
 usbhs_interrupt	board-kzm9g.c
 usbhs_phy_reset	board-kzm9g.c
 usbhsf_get_id	board-armadillo800eva.c
 usbhsf_get_priv	board-armadillo800eva.c
 usbhsf_get_vbus	board-armadillo800eva.c
 usbhsf_hardware_exit	board-armadillo800eva.c
 usbhsf_hardware_init	board-armadillo800eva.c
 usbhsf_interrupt	board-armadillo800eva.c
 versatile_boot_secondary	platsmp.c
 versatile_boot_secondary	platsmp.c
 versatile_clcd_mmap_dma	clcd.c
 versatile_clcd_mmap_dma	clcd.h
 versatile_clcd_remove_dma	clcd.c
 versatile_clcd_remove_dma	clcd.h
 versatile_clcd_setup_dma	clcd.c
 versatile_clcd_setup_dma	clcd.h
 versatile_led_get	leds.c
 versatile_leds_init	leds.c
 versatile_read_sched_clock	sched-clock.c
 versatile_sched_clock_init	sched-clock.c
 versatile_sched_clock_init	sched_clock.h
 versatile_secondary_init	platsmp.c
 versatile_secondary_init	platsmp.c
 versatile_secondary_init	platsmp.h
 versatile_secondary_startup	platsmp.h
 via82c505_preinit	via82c505.c
 via82c505_setup	via82c505.c
 vic_ack_irq	vic.c
 vic_clear_interrupts	vic.c
 vic_disable	vic.c
 vic_handle_irq	vic.c
 vic_init2	vic.c
 vic_mask_irq	vic.c
 vic_of_init	vic.c
 vic_pm_init	vic.c
 vic_resume	vic.c
 vic_set_wake	vic.c
 vic_suspend	vic.c
 vic_unmask_irq	vic.c
 vision_init_machine	vision_ep9307.c
 vision_lcd_blank	vision_ep9307.c
 vision_lcd_setup	vision_ep9307.c
 vision_lcd_teardown	vision_ep9307.c
 vision_map_io	vision_ep9307.c
 vision_spi_flash_hw_cleanup	vision_ep9307.c
 vision_spi_flash_hw_cs_control	vision_ep9307.c
 vision_spi_flash_hw_setup	vision_ep9307.c
 vision_spi_mmc_exit	vision_ep9307.c
 vision_spi_mmc_get_cd	vision_ep9307.c
 vision_spi_mmc_get_ro	vision_ep9307.c
 vision_spi_mmc_hw_cleanup	vision_ep9307.c
 vision_spi_mmc_hw_cs_control	vision_ep9307.c
 vision_spi_mmc_hw_setup	vision_ep9307.c
 vt8500_init	vt8500.c
 vt8500_init_irq	vt8500.c
 vt8500_map_io	vt8500.c
 vt8500_power_off	vt8500.c
 vt8500_restart	vt8500.c
 wb977_close	netwinder-hw.c
 wb977_device_disable	netwinder-hw.c
 wb977_device_enable	netwinder-hw.c
 wb977_device_select	netwinder-hw.c
 wb977_init	netwinder-hw.c
 wb977_init_global	netwinder-hw.c
 wb977_init_gpio	netwinder-hw.c
 wb977_init_irda	netwinder-hw.c
 wb977_init_keyboard	netwinder-hw.c
 wb977_init_printer	netwinder-hw.c
 wb977_open	netwinder-hw.c
 wb977_wb	netwinder-hw.c
 wb977_ww	netwinder-hw.c
 within_khz	s3c2440-cpufreq.c
 wnr854t_init	wnr854t-setup.c
 wnr854t_pci_init	wnr854t-setup.c
 write_pen_release	platsmp.c
 write_pen_release	platsmp.c
 write_scoop_reg	scoop.c
 wrt350n_v2_init	wrt350n-v2-setup.c
 wrt350n_v2_pci_init	wrt350n-v2-setup.c
 wxl_init	buffalo-wxl-setup.c
 wxl_pci_init	buffalo-wxl-setup.c
 xen_arm_callback	enlighten.c
 xen_guest_init	enlighten.c
 xen_init_events	enlighten.c
 xip_currtime	mtd-xip.h
 xip_elapsed_since	mtd-xip.h
 xip_irqpending	mtd-xip.h
