(http://fourcc.org/yuv.php#NV12)	drm_mode.h
<http://www.fsf.org/copyleft/gpl.html>,	if_infiniband.h
<http://www.openfabrics.org/software_license.htm>.	if_infiniband.h
http://docs.sun.com/app/docs/doc/817-1984	elf.h
http://en.wikipedia.org/wiki/Methods_of_computing_square_roots#Iterative_methods_for_reciprocal_square_roots	codel.h
http://en.wikipedia.org/wiki/Seven_segment_display	map_to_7segment.h
http://icawww1.epfl.ch/linux-atm/magic.html	atmioc.h
http://queue.acm.org/detail.cfm?id=2209336	codel.h
http://www.autosar.org/download/R4.0/AUTOSAR_SWS_E2ELibrary.pdf	gw.h
http://www.intel.com	mei.h
http://www.semiconductors.bosch.de/pdf/can2spec.pdf.	netlink.h
http://www.semiconductors.bosch.de/pdf/can2spec.pdf.	netlink.h
http://www.x86-64.org/	elf.h
