(http://www.netchip.com)	net2280.h
http://en.wikipedia.org/wiki/DDR_SDRAM	edac.h
http://en.wikipedia.org/wiki/DRAM	edac.h
http://en.wikipedia.org/wiki/Synchronous_dynamic_random-access_memory	edac.h
http://www.pcisig.com/	pci-aspm.h
http://www.ross.net/crc/download/crc_v3.txt).	crc8.h
http://www.samsung.com/	f2fs_fs.h
http://www.ti.com	omap_usb.h
http://www.ti.com	phy_companion.h
http://www.ti.com/	twl4030-madc.h
http://www.usb.org/developers/devclass_docs/Audio2.0_final.zip	audio-v2.h
http://www.usb.org/developers/devclass_docs/NCM10.zip	cdc_ncm.h
http://www.usb.org/developers/devclass_docs/audio10.pdf	audio.h
