"http://www.chrontel.com/pdf/7006.pdf"	ch7006.h
"http://www.siliconimage.com/docs/SiI-DS-0021-E-164.pdf".	sil164.h
<http://www.gnu.org/licenses/>.	compress.h
<http://www.gnu.org/licenses/>.	compress.h
http://csrc.nist.gov/groups/ST/toolkit/BCM/documents/proposedmodes/gcm/gcm-revised-spec.pdf	gf128mul.h
http://flac.sourceforge.net/documentation_tools_flac.html	compress_params.h
http://fp.gladman.plus.com/cryptography_technology/index.htm	b128ops.h
http://fp.gladman.plus.com/cryptography_technology/index.htm	gf128mul.h
http://kernelnewbies.org/KernelHeaders"	types.h
http://www.advansee.com/	adv7393.h
http://www.ti.com/	adv7343.h
http://www.ti.com/	adv7393.h
http://www.ti.com/	vpbe_display.h
