<http://www.gnu.org/licenses/>.	mq_open_tests.c
<http://www.gnu.org/licenses/>.	mq_perf_tests.c
http://creativecommons.org/publicdomain/zero/1.0/legalcode	parse_vdso.c
http://docs.blackfin.uclinux.org/doku.php?id=linux-kernel:drivers:gptimers	gptimers-example.c
http://en.wikipedia.org/wiki/Algorithms_for_calculating_variance	stat.c
http://en.wikipedia.org/wiki/Stddev	stat.c
http://pubs.opengroup.org/onlinepubs/9699919799/basedefs/errno.h.html	target.h
http://www.intel.com	mei-amt-version.c
xmlns=\"http://www.w3.org/2000/svg\">\n",	svghelper.c
