(http://www.astaro.com/)	nf_nat_pptp.c
(http://www.astaro.com/)	nf_nat_proto_gre.c
<http://public.lanl.gov/radiant/pubs.html#DRS>	tcp_input.c
<http://staff.psc.edu/jheffner/>,	tcp_input.c
<http://www.linux-ipv6.org>	nf_conntrack_expect.c
<http://www.linux-ipv6.org>	nf_conntrack_extend.c
<http://www.linux-ipv6.org>	nf_conntrack_sane.c
<http://www.marasystems.com>	xt_connmark.c
http://article.gmane.org/gmane.linux.kernel.wireless.general/30089	tx.c
http://c3lab.poliba.it/index.php/Westwood	tcp_westwood.c
http://mid.gmane.org/1308590980.4322.19.camel@jlt3.sipsolutions.net	key.c
http://nath323.sourceforge.net/	nf_conntrack_h323_main.c
http://netsrv.csc.ncsu.edu/export/bitcp.pdf	tcp_bic.c
http://netsrv.csc.ncsu.edu/export/cubic_a_new_tcp_2008.pdf	tcp_cubic.c
http://netsrv.csc.ncsu.edu/export/hystart_techreport_2008.pdf	tcp_cubic.c
http://netsrv.csc.ncsu.edu/twiki/bin/view/Main/BIC	tcp_bic.c
http://netsrv.csc.ncsu.edu/twiki/bin/view/Main/BIC	tcp_cubic.c
http://netsrv.csc.ncsu.edu/wiki/index.php/TCP_Testing	tcp_cubic.c
http://tcp-lp-mod.sourceforge.net/	tcp_lp.c
http://tools.ietf.org/id/draft-ietf-cipso-ipsecurity-01.txt	cipso_ipv4.c
http://wil.cs.caltech.edu/pfldnet2007/paper/YeAH_TCP.pdf	tcp_yeah.c
http://wireless.kernel.org/en/developers/Documentation/ieee80211/802.11n	rx.c
http://www-ece.rice.edu/networks/TCP-LP/	tcp_lp.c
http://www.astaro.com/	xt_hashlimit.c
http://www.candelatech.com/~greear/vlan.html	vlan.c
http://www.candelatech.com/~greear/vlan.html	vlan_dev.c
http://www.cs.arizona.edu/xkernel/	tcp_vegas.c
http://www.csc.kth.se/~snilsson/software/dyntrie2/	fib_trie.c
http://www.darkart.com/mirrors/www.obfuscation.org/ipf/	nf_conntrack_proto_tcp.c
http://www.deneholme.net/tom/scalable/	tcp_scalable.c
http://www.ece.rice.edu/~akuzma/Doc/akuzma/TCP-LP.pdf	tcp_lp.c
http://www.ews.uiuc.edu/~shaoliu/tcpillinois/index.html	tcp_illinois.c
http://www.hamilton.ie/net/htcp3.pdf	tcp_htcp.c
http://www.icir.org/floyd/hstcp.html	tcp_highspeed.c
http://www.ie.cuhk.edu.hk/fileadmin/staff_upload/soung/Journal/J3.pdf	tcp_veno.c
http://www.ifp.illinois.edu/~srikant/Papers/liubassri06perf.pdf	tcp_illinois.c
http://www.itl.nist.gov/fipspubs/fip188.htm	cipso_ipv4.c
http://www.sane-project.org/html/doc015.html	nf_conntrack_sane.c
http://www.sane.nl/events/sane2000/papers.html	nf_conntrack_proto_tcp.c
http://www.suse.com/	ipt_CLUSTERIP.c
