`http://HTTP.CS.Berkeley.EDU/~jhauser/	softfloat.c
http://193.23.168.87/mikro_laborversuche/via_iobaustein/via6522_1.html	via.c
http://nerini.drf.com/vectrex/other/text/chips/6522/	via.c
http://support.apple.com/kb/TA32601	macboing.c
http://www.6502.org/documents/datasheets/synertek/synertek_sy6522.pdf	via.c
http://www.6502.org/documents/datasheets/synertek/synertek_sy6522_programming_reference.pdf	via.c
http://www.dwarfstd.org.	dwarf.c
http://www.zymurgy.net/classic/vic20/vicdet1.htm	via.c
