<http://www.gnu.org/licenses/>.	pcompress.c
http://citeseer.ist.psu.edu/656989.html	testmgr.h
http://citeseer.ist.psu.edu/656989.html	testmgr.h
http://cr.yp.to/snuffle.html	salsa20_generic.c
http://csrc.nist.gov/groups/ST/toolkit/BCM/documents/proposedmodes/	testmgr.h
http://csrc.nist.gov/groups/STM/cavp/documents/rng/931rngext.pdf	ansi_cprng.c
http://csrc.nist.gov/groups/STM/cavp/documents/rng/RNGVS.pdf	testmgr.h
http://csrc.nist.gov/groups/STM/cavp/documents/shs/sha256-384-512.pdf	sha256_generic.c
http://gladman.plushost.co.uk/oldsite/cryptography_technology/index.php	gf128mul.c
http://grouper.ieee.org/groups/1619/email/pdf00017.pdf	lrw.c
http://grouper.ieee.org/groups/1619/email/pdf00017.pdf	testmgr.h
http://grouper.ieee.org/groups/1619/email/pdf00017.pdf	testmgr.h
http://grouper.ieee.org/groups/1619/email/pdf00086.pdf	testmgr.h
http://grouper.ieee.org/groups/1619/email/pdf00086.pdf	testmgr.h
http://grouper.ieee.org/groups/1619/email/pdf00086.pdf	xts.c
http://info.isl.ntt.co.jp/crypt/eng/camellia/specifications.html	camellia_generic.c
http://linux-iscsi.sourceforge.net.	crc32c.c
http://lse.sourceforge.net/locking/rclock_OLS.2001.05.01c.sc.pdf	rcupdate.c
http://lse.sourceforge.net/locking/rcupdate.html	rcupdate.c
http://people.redhat.com/sgrubb/audit/	audit.c
http://thread.gmane.org/gmane.linux.kernel/1420814	module.c
http://www.counterpane.com/blowfish.html	blowfish_common.c
http://www.counterpane.com/blowfish.html	blowfish_generic.c
http://www.counterpane.com/twofish.html	twofish_common.c
http://www.counterpane.com/twofish.html	twofish_generic.c
http://www.cryptonessie.org/	wp512.c
http://www.ecrypt.eu.org/stream/	salsa20_generic.c
http://www.kernel.org/pub/linux/libs/security/linux-privs/	capability.c
http://www.kernel.org/pub/linux/libs/security/linux-privs/	capability.c
http://www.mail-archive.com/stds-p1619@listserv.ieee.org/msg00173.html	lrw.c
http://www.mail-archive.com/stds-p1619@listserv.ieee.org/msg00173.html	testmgr.h
http://www.mail-archive.com/stds-p1619@listserv.ieee.org/msg00173.html	testmgr.h
http://www.openafs.org/pipermail/openafs-devel/2000-December/005320.html	testmgr.h
http://www.openafs.org/pipermail/openafs-devel/2000-December/005320.html	testmgr.h
http://www.rdrop.com/users/paulmck/RCU	rcutree_trace.c
http://www.rdrop.com/users/paulmck/paper/rclockpdcsproof.pdf	rcupdate.c
