http://aranym.org/\n";	nfeth.c
http://developer.apple.com/technotes/hw/hw_09.html	mac_via.h
http://developer.apple.com/technotes/ov/ov_04.html	mac_via.h
http://www.rs6000.ibm.com/resource/technology/chrpio/via5.mak.html	mac_via.h
