(http://www.parisc-linux.org/)	decode_exc.c
(http://www.parisc-linux.org/)	dfcmp.c
(http://www.parisc-linux.org/)	dfsqrt.c
(http://www.parisc-linux.org/)	dfsub.c
(http://www.parisc-linux.org/)	driver.c
(http://www.parisc-linux.org/)	fcnvff.c
(http://www.parisc-linux.org/)	fcnvfu.c
(http://www.parisc-linux.org/)	fcnvfx.c
(http://www.parisc-linux.org/)	float.h
(http://www.parisc-linux.org/)	fpudispatch.c
(http://www.parisc-linux.org/)	sfcmp.c
(http://www.parisc-linux.org/)	sfsqrt.c
http://gcc.gnu.org/bugzilla/show_bug.cgi?id=34777.	unaligned-sh4a.h
