<http://www.gnu.org/licenses/>.	arm64ksyms.c
<http://www.gnu.org/licenses/>.	arm_generic.h
<http://www.gnu.org/licenses/>.	asm-offsets.c
<http://www.gnu.org/licenses/>.	assembler.h
<http://www.gnu.org/licenses/>.	barrier.h
<http://www.gnu.org/licenses/>.	bitops.c
<http://www.gnu.org/licenses/>.	cache.h
<http://www.gnu.org/licenses/>.	cacheflush.h
<http://www.gnu.org/licenses/>.	cachetype.h
<http://www.gnu.org/licenses/>.	cmpxchg.h
<http://www.gnu.org/licenses/>.	compat.h
<http://www.gnu.org/licenses/>.	compiler.h
<http://www.gnu.org/licenses/>.	context.c
<http://www.gnu.org/licenses/>.	copypage.c
<http://www.gnu.org/licenses/>.	cputable.c
<http://www.gnu.org/licenses/>.	cputable.h
<http://www.gnu.org/licenses/>.	cputype.h
<http://www.gnu.org/licenses/>.	debug-monitors.c
<http://www.gnu.org/licenses/>.	debug-monitors.h
<http://www.gnu.org/licenses/>.	delay.c
<http://www.gnu.org/licenses/>.	device.h
<http://www.gnu.org/licenses/>.	dma-mapping.c
<http://www.gnu.org/licenses/>.	dma-mapping.h
<http://www.gnu.org/licenses/>.	elf.h
<http://www.gnu.org/licenses/>.	exception.h
<http://www.gnu.org/licenses/>.	exec.h
<http://www.gnu.org/licenses/>.	fault.c
<http://www.gnu.org/licenses/>.	fb.h
<http://www.gnu.org/licenses/>.	flush.c
<http://www.gnu.org/licenses/>.	fpsimd.c
<http://www.gnu.org/licenses/>.	fpsimd.h
<http://www.gnu.org/licenses/>.	fpsimdmacros.h
<http://www.gnu.org/licenses/>.	futex.h
<http://www.gnu.org/licenses/>.	hardirq.h
<http://www.gnu.org/licenses/>.	hw_breakpoint.c
<http://www.gnu.org/licenses/>.	hw_breakpoint.h
<http://www.gnu.org/licenses/>.	hwcap.h
<http://www.gnu.org/licenses/>.	hwcap.h
<http://www.gnu.org/licenses/>.	io.c
<http://www.gnu.org/licenses/>.	io.h
<http://www.gnu.org/licenses/>.	ioremap.c
<http://www.gnu.org/licenses/>.	irqflags.h
<http://www.gnu.org/licenses/>.	memblock.h
<http://www.gnu.org/licenses/>.	memory.h
<http://www.gnu.org/licenses/>.	mmap.c
<http://www.gnu.org/licenses/>.	mmu.c
<http://www.gnu.org/licenses/>.	mmu.h
<http://www.gnu.org/licenses/>.	mmu_context.h
<http://www.gnu.org/licenses/>.	module.c
<http://www.gnu.org/licenses/>.	module.h
<http://www.gnu.org/licenses/>.	page.h
<http://www.gnu.org/licenses/>.	perf_event.c
<http://www.gnu.org/licenses/>.	perf_event.h
<http://www.gnu.org/licenses/>.	pgalloc.h
<http://www.gnu.org/licenses/>.	pgd.c
<http://www.gnu.org/licenses/>.	pgtable-2level-hwdef.h
<http://www.gnu.org/licenses/>.	pgtable-2level-types.h
<http://www.gnu.org/licenses/>.	pgtable-3level-hwdef.h
<http://www.gnu.org/licenses/>.	pgtable-3level-types.h
<http://www.gnu.org/licenses/>.	pgtable-hwdef.h
<http://www.gnu.org/licenses/>.	pgtable.h
<http://www.gnu.org/licenses/>.	pmu.h
<http://www.gnu.org/licenses/>.	proc-fns.h
<http://www.gnu.org/licenses/>.	process.c
<http://www.gnu.org/licenses/>.	processor.h
<http://www.gnu.org/licenses/>.	ptrace.c
<http://www.gnu.org/licenses/>.	shmparam.h
<http://www.gnu.org/licenses/>.	signal.c
<http://www.gnu.org/licenses/>.	signal32.c
<http://www.gnu.org/licenses/>.	signal32.h
<http://www.gnu.org/licenses/>.	smp.c
<http://www.gnu.org/licenses/>.	smp.h
<http://www.gnu.org/licenses/>.	sparsemem.h
<http://www.gnu.org/licenses/>.	spinlock.h
<http://www.gnu.org/licenses/>.	spinlock_types.h
<http://www.gnu.org/licenses/>.	stacktrace.c
<http://www.gnu.org/licenses/>.	stacktrace.h
<http://www.gnu.org/licenses/>.	sys.c
<http://www.gnu.org/licenses/>.	sys_compat.c
<http://www.gnu.org/licenses/>.	syscall.h
<http://www.gnu.org/licenses/>.	syscalls.h
<http://www.gnu.org/licenses/>.	system_misc.h
<http://www.gnu.org/licenses/>.	thread_info.h
<http://www.gnu.org/licenses/>.	timex.h
<http://www.gnu.org/licenses/>.	tlb.h
<http://www.gnu.org/licenses/>.	tlbflush.h
<http://www.gnu.org/licenses/>.	traps.c
<http://www.gnu.org/licenses/>.	traps.h
<http://www.gnu.org/licenses/>.	uaccess.h
<http://www.gnu.org/licenses/>.	ucontext.h
<http://www.gnu.org/licenses/>.	unistd32.h
<http://www.gnu.org/licenses/>.	vdso.c
<http://www.gnu.org/licenses/>.	vdso.h
<http://www.gnu.org/licenses/>.	vdso_datapage.h
<http://www.gnu.org/licenses/>.	virt.h
