<http://bec-systems.com>	idp.c
<http://bec-systems.com>	idp.h
<http://www.gnu.org/licenses/>.	edac.h
<http://www.gnu.org/licenses/>.	percpu.h
<http://www.vibren.com>	idp.c
<http://www.vibren.com>	idp.h
`http://HTTP.CS.Berkeley.EDU/~jhauser/	vfpsingle.c
http://armlinux.simtec.co.uk/	pl080.h
http://support.eink.com/community	am200epd.c
http://support.eink.com/community	am300epd.c
http://www.idt.com/	icst.h
http://www.phytec.com/products/rdk/ARM-XScale/phyCORE-XScale-PXA270.html	pcm990-baseboard.c
http://www.phytec.com/products/sbc/ARM-XScale/phyCORE-XScale-PXA270.html	pcm027.c
http://www.raumfeld.com	raumfeld.c
