<http://cr.yp.to/snuffle/salsa20/amd64-3/salsa20.s>	salsa20_glue.c
<http://cr.yp.to/snuffle/salsa20/x86-pm/salsa20.s>	salsa20_glue.c
<http://dev.laptop.org/ticket/1835>.	olpc.c
<http://wiki.laptop.org/go/Ec_specification>.	olpc.c
<http://wiki.laptop.org/go/Embedded_controller>,	olpc.c
http://dev.laptop.org/ticket/5703	olpc-xo1-sci.c
http://developer.intel.com/Assets/PDF/manual/253668.pdf	microcode_core.c
http://www.counterpane.com/twofish.html	twofish_glue.c
http://www.intel.com/products/processor/manuals/	crc32c-intel_glue.c
http://www.unisys.com	es7000_32.c
http://www.urbanmyth.org/microcode	microcode_core.c
