(http://gcc.gnu.org/PR8896)	asm-offsets.c
(http://gcc.gnu.org/PR8896)	asm-offsets.c
http://bugzilla.kernel.org/show_bug.cgi?id=14183	acpi.c
http://members.datafast.net.au/dft0802/specs/bios21.pdf,	pcbios.c
http://www.nslu2-linux.org/	dsmg600-pci.c
http://www.nslu2-linux.org/	dsmg600-setup.c
http://www.nslu2-linux.org/	fsg-pci.c
http://www.nslu2-linux.org/	fsg-setup.c
http://www.nslu2-linux.org/	nas100d-pci.c
http://www.nslu2-linux.org/	nas100d-setup.c
http://www.nslu2-linux.org/	nslu2-pci.c
http://www.nslu2-linux.org/	nslu2-setup.c
http://www.pcisig.com/	i386.c
