http://bugzilla.kernel.org/show_bug.cgi?id=7180	pci-calgary_64.c
http://developer.intel.com/Assets/PDF/manual/253668.pdf	microcode_intel.c
http://www.embedded.com/showArticle.jhtml?articleID=19205567	memcpy.c
http://www.embedded.com/showArticle.jhtml?articleID=19205567	memmove.c
http://www.embedded.com/showArticle.jhtml?articleID=19205567	memset.c
http://www.gnu.org/licenses/gpl.html	mce_amd.c
http://www.gnu.org/licenses/gpl.html	vsmp_64.c
http://www.heise.de/newsticker/data/jow-18.10.01-000	amd.c
http://www.intel.com/products/processor/manuals/	nmi_int.c
http://www.microsoft.com/whdc/archive/amp_12.mspx	apm_32.c
http://www.microsoft.com/whdc/archive/amp_12.mspx]	apm_32.c
http://www.multimania.com/poulot/k6bug.html	amd.c
http://www.urbanmyth.org/microcode	microcode_intel.c
