<http://www.gnu.org/licenses/>.	cpuidle-calxeda.c
<http://www.gnu.org/licenses/>.	hid-picolcd.h
<http://www.gnu.org/licenses/>.	hid-picolcd_backlight.c
<http://www.gnu.org/licenses/>.	hid-picolcd_cir.c
<http://www.gnu.org/licenses/>.	hid-picolcd_core.c
<http://www.gnu.org/licenses/>.	hid-picolcd_debugfs.c
<http://www.gnu.org/licenses/>.	hid-picolcd_fb.c
<http://www.gnu.org/licenses/>.	hid-picolcd_lcd.c
<http://www.gnu.org/licenses/>.	hid-picolcd_leds.c
http://armlinux.simtec.co.uk/	samsung.h
http://blackfin.uclinux.org/	bfin_jtag_comm.c
http://blackfin.uclinux.org/	hvc_bfin_jtag.c
http://en.wikipedia.org/wiki/Read-copy-update.	lguest_user.c
http://linux.derkeiler.com/Mailing-Lists/Kernel/2004-11/4812.html	8250.c
http://lists.ozlabs.org/pipermail/lguest/2009-July/001560.html	lguest_user.c
http://oss.sgi.com/projects/GenInfo/NoticeExplan	sn_console.c
http://sf.net/apps/mediawiki/digimend/?title=KYE_EasyPen_M610X	hid-kye.c
http://sf.net/apps/mediawiki/digimend/?title=KYE_EasyPen_i405X	hid-kye.c
http://sf.net/apps/mediawiki/digimend/?title=KYE_MousePen_i608X	hid-kye.c
http://sf.net/apps/mediawiki/digimend/?title=UC-Logic_Tablet_PF1209	hid-uclogic.c
http://sf.net/apps/mediawiki/digimend/?title=UC-Logic_Tablet_TWHA60	hid-uclogic.c
http://sf.net/apps/mediawiki/digimend/?title=UC-Logic_Tablet_WP1062	hid-uclogic.c
http://sf.net/apps/mediawiki/digimend/?title=UC-Logic_Tablet_WP4030U	hid-uclogic.c
http://sf.net/apps/mediawiki/digimend/?title=UC-Logic_Tablet_WP5540U	hid-uclogic.c
http://sf.net/apps/mediawiki/digimend/?title=UC-Logic_Tablet_WP8060U	hid-uclogic.c
http://sf.net/apps/mediawiki/digimend/?title=UC-Logic_Wireless_Tablet_TWHL850	hid-uclogic.c
http://sf.net/apps/mediawiki/digimend/?title=Waltop_Media_Tablet_10.6%22	hid-waltop.c
http://sf.net/apps/mediawiki/digimend/?title=Waltop_Media_Tablet_14.1%22	hid-waltop.c
http://sf.net/apps/mediawiki/digimend/?title=Waltop_PID_0038	hid-waltop.c
http://sf.net/apps/mediawiki/digimend/?title=Waltop_Q_Pad	hid-waltop.c
http://sf.net/apps/mediawiki/digimend/?title=Waltop_Sirius_Battery_Free_Tablet	hid-waltop.c
http://sf.net/apps/mediawiki/digimend/?title=Waltop_Slim_Tablet_12.1%22	hid-waltop.c
http://sf.net/apps/mediawiki/digimend/?title=Waltop_Slim_Tablet_5.8%22	hid-waltop.c
http://sourceforge.net/projects/roccat	hid-roccat-pyra.c
http://www.altera.com/literature/ds/ds_nios_uart.pdf	altera_uart.c
http://www.cl.cam.ac.uk/~mgk25/ucs/wcwidth.c	vt.c
http://www.kernel.org/pub/linux/utils/pci/aer-inject/	aer_inject.c
http://www.lanana.org/docs/device-list/devices-2.6+.txt.	ucc_uart.c
http://www.maxim-ic.com/quick_view2.cfm/qv_pk/4382	ds2482.c
http://www.mozilla.org/MPL/	serial_cs.c
http://www.samsung.com/	exynos4_bus.c
http://www.sgi.com	sn_console.c
http://www.ti.com	hwspinlock_core.c
http://www.ti.com	hwspinlock_internal.h
http://www.ti.com	omap_hwspinlock.c
