(http://www.develer.com/)	serial.h
<http://www.gnu.org/licenses/>.	tegra20-apb-dma.c
http://linux.dell.com/wiki/index.php/Oss/libnetdevname	pci-label.c
http://powertweak.sourceforge.net).	quirks.c
http://www.au-ja.org/review-kt133a-1-en.phtml	quirks.c
http://www.georgebreese.com/net/software/#PCI	quirks.c
http://www.gnu.org/copyleft/gpl.html	imx-dma.c
http://www.gnu.org/copyleft/gpl.html	imx-sdma.c
http://www.intel.com/content/dam/doc/datasheet/82599-10-gbe-controller-datasheet.pdf	quirks.c
http://www.national.com/analog	quirks.c
http://www.opensource.org/licenses/gpl-license.html	imx-dma.c
http://www.opensource.org/licenses/gpl-license.html	imx-sdma.c
http://www.samsung.com	pl330.c
http://www.viahardware.com/download/viatweak.shtm	quirks.c
http://www.x86-secret.com/articles/tweak/pat/patsecrets-2.htm	quirks.c
