(http://www.lartmaker.nl/),	cpu-sa1100.c
(http://www.mobimedia.org/)	cpu-sa1100.c
(http://www.ubicom.tudelft.nl/)	cpu-sa1100.c
http://armlinux.simtec.co.uk/	clock-dclk.c
http://armlinux.simtec.co.uk/	cpu-freq-debugfs.c
http://armlinux.simtec.co.uk/	cpu-freq.c
http://armlinux.simtec.co.uk/	cpu-freq.c
http://armlinux.simtec.co.uk/	cpu-freq.c
http://armlinux.simtec.co.uk/	pll.c
http://armlinux.simtec.co.uk/	s3c2410-cpufreq-utils.c
http://armlinux.simtec.co.uk/	s3c2410-iotiming.c
http://armlinux.simtec.co.uk/	s3c2412-iotiming.c
http://armlinux.simtec.co.uk/	s3c2440-cpufreq.c
http://armlinux.simtec.co.uk/	s3c2440-pll-12000000.c
http://armlinux.simtec.co.uk/	s3c2440-pll-16934400.c
http://armlinux.simtec.co.uk/	tick.h
http://armlinux.simtec.co.uk/.	gpio.c
http://armlinux.simtec.co.uk/.	gpio.c
http://ts78xx.digriz.org.uk/	ts78xx-fpga.h
http://www.cirrus.com/en/pubs/appNote/AN273REV4.pdf	soc.h
http://www.idt.com/	icst.c
http://www.jlime.com/downloads/development/docs/jornada7xx/jornada720.txt	jornada720.c
http://www.samsung.com	clock-s5p6440.c
http://www.samsung.com	clock-s5p6450.c
http://www.samsung.com	gpiolib.c
http://www.samsung.com	i2c.h
http://www.samsung.com	irq-pm.c
http://www.samsung.com	mach-smdk6440.c
http://www.samsung.com	mach-smdk6450.c
http://www.samsung.com	map.h
http://www.samsung.com	pm-core.h
http://www.samsung.com	regs-clock.h
http://www.samsung.com	s5p64x0-clock.h
http://www.samsung.com	setup-i2c0.c
http://www.samsung.com	setup-i2c1.c
http://www.samsung.com	tick.h
http://www.samsung.com/	setup-fb-24bpp.c
http://www.samsung.com/	setup-sdhci-gpio.c
http://www.samsung.com/	setup-spi.c
