(http://gcc.gnu.org/PR8896)	asm-offsets.c
http://armlinux.simtec.co.uk/	pm-core.h
http://infocenter.arm.com/help/topic/com.arm.doc.subset.swdev.abi/index.html	unwind.c
http://www.gnu.org/copyleft/gpl.html	cpuidle.c
http://www.gnu.org/copyleft/gpl.html	cpuidle.c
http://www.gnu.org/copyleft/gpl.html	lluart.c
http://www.insignal.co.kr/	mach-origen.c
http://www.mistralsolutions.com/products/craneboard.php	board-am3517crane.c
http://www.opensource.org/licenses/gpl-license.html	cpuidle.c
http://www.opensource.org/licenses/gpl-license.html	cpuidle.c
http://www.opensource.org/licenses/gpl-license.html	lluart.c
http://www.samsung.com	clock-exynos4.c
http://www.samsung.com	clock-exynos4.h
http://www.samsung.com	clock-exynos4210.c
http://www.samsung.com	clock-exynos4212.c
http://www.samsung.com	clock-exynos5.c
http://www.samsung.com	common.c
http://www.samsung.com	common.h
http://www.samsung.com	common.h
http://www.samsung.com	cpufreq.h
http://www.samsung.com	dev-ahci.c
http://www.samsung.com	dev-audio.c
http://www.samsung.com	dev-ohci.c
http://www.samsung.com	dev-sysmmu.c
http://www.samsung.com	dev-uart.c
http://www.samsung.com	gpio.h
http://www.samsung.com	hardware.h
http://www.samsung.com	hardware.h
http://www.samsung.com	hardware.h
http://www.samsung.com	hardware.h
http://www.samsung.com	hardware.h
http://www.samsung.com	hardware.h
http://www.samsung.com	irqs.h
http://www.samsung.com	irqs.h
http://www.samsung.com	irqs.h
http://www.samsung.com	irqs.h
http://www.samsung.com	irqs.h
http://www.samsung.com	irqs.h
http://www.samsung.com	mach-armlex4210.c
http://www.samsung.com	mach-exynos4-dt.c
http://www.samsung.com	mach-exynos5-dt.c
http://www.samsung.com	mach-smdk4x12.c
http://www.samsung.com	mach-smdkv310.c
http://www.samsung.com	mct.c
http://www.samsung.com	memory.h
http://www.samsung.com	memory.h
http://www.samsung.com	memory.h
http://www.samsung.com	memory.h
http://www.samsung.com	platsmp.c
http://www.samsung.com	platsmp.c
http://www.samsung.com	platsmp.c
http://www.samsung.com	pm-core.h
http://www.samsung.com	pm.c
http://www.samsung.com	pm_domains.c
http://www.samsung.com	regs-audss.h
http://www.samsung.com	regs-clock.h
http://www.samsung.com	regs-gpio.h
http://www.samsung.com	regs-irq.h
http://www.samsung.com	regs-mct.h
http://www.samsung.com	regs-pmu.h
http://www.samsung.com	setup-fimd0.c
http://www.samsung.com	setup-keypad.c
http://www.samsung.com	setup-sdhci-gpio.c
http://www.samsung.com	sysmmu.h
http://www.samsung.com	timex.h
http://www.samsung.com	timex.h
http://www.samsung.com	timex.h
http://www.samsung.com	timex.h
http://www.samsung.com	timex.h
http://www.samsung.com	uncompress.h
http://www.samsung.com	uncompress.h
http://www.samsung.com	uncompress.h
http://www.samsung.com	uncompress.h
http://www.samsung.com	uncompress.h
http://www.samsung.com/	map.h
http://www.samsung.com/	pmu.c
http://www.samsung.com/	pmu.h
http://www.samsung.com/	setup-i2c0.c
http://www.samsung.com/	setup-spi.c
http://www.ti.com	omap_phy_internal.c
http://www.ti.com/	omap_hwmod_33xx_data.c
http://www.ti.com/	omap_opp_data.h
http://www.ti.com/	powerdomains33xx_data.c
http://www.ti.com/	prm-regbits-33xx.h
