(http://www.dibcom.fr/)	dib0070.c
(http://www.dibcom.fr/)	dib0070.h
(http://www.dibcom.fr/)	dib0090.c
(http://www.dibcom.fr/)	dib0090.h
(http://www.dibcom.fr/)	dib3000.h
(http://www.dibcom.fr/)	dib3000mb.c
(http://www.dibcom.fr/)	dib3000mc.c
(http://www.dibcom.fr/)	dib3000mc.h
(http://www.dibcom.fr/)	dib7000m.c
(http://www.dibcom.fr/)	dib7000p.c
(http://www.dibcom.fr/)	dib8000.c
(http://www.dibcom.fr/)	dib9000.c
<http://www.gnu.org/licenses/>.	smscoreapi.h
<http://www.gnu.org/licenses/>.	smsdvb.c
<http://www.gnu.org/licenses/>.	smsendian.c
<http://www.gnu.org/licenses/>.	smsendian.h
<http://www.gnu.org/licenses/>.	smsir.c
<http://www.gnu.org/licenses/>.	smsir.h
http://products.zarlink.com/product_profiles/MT312.htm	mt312.c
http://products.zarlink.com/product_profiles/MT312.htm	mt312.h
http://products.zarlink.com/product_profiles/SL1935.htm	mt312.c
http://products.zarlink.com/product_profiles/SL1935.htm	mt312.h
http://www.gnu.org/copyleft/gpl.html	bsbe1-d01a.h
http://www.gnu.org/copyleft/gpl.html	bsbe1.h
http://www.gnu.org/copyleft/gpl.html	bsru6.h
http://www.gnu.org/copyleft/gpl.html	drxd.h
http://www.gnu.org/copyleft/gpl.html	drxd_firm.c
http://www.gnu.org/copyleft/gpl.html	drxd_firm.h
http://www.gnu.org/copyleft/gpl.html	drxd_hard.c
http://www.gnu.org/copyleft/gpl.html	drxd_map_firm.h
http://www.gnu.org/copyleft/gpl.html	drxk_hard.c
http://www.gnu.org/copyleft/gpl.html	dvb_ca_en50221.c
http://www.gnu.org/copyleft/gpl.html	dvb_frontend.c
http://www.gnu.org/copyleft/gpl.html	dvb_net.c
http://www.gnu.org/copyleft/gpl.html	isl6405.c
http://www.gnu.org/copyleft/gpl.html	isl6405.h
http://www.gnu.org/copyleft/gpl.html	isl6421.c
http://www.gnu.org/copyleft/gpl.html	isl6421.h
http://www.gnu.org/copyleft/gpl.html	lnbp21.c
http://www.gnu.org/copyleft/gpl.html	lnbp21.h
http://www.gnu.org/copyleft/gpl.html	lnbp22.c
http://www.gnu.org/copyleft/gpl.html	lnbp22.h
http://www.gnu.org/copyleft/gpl.html	tda18271c2dd.c
http://www.gnu.org/copyleft/gpl.html	tdhd1.h
http://www.iana.org/assignments/ethernet-numbers	dvb_net.c
http://www.linuxtv.org	bsbe1-d01a.h
http://www.linuxtv.org	bsbe1.h
http://www.linuxtv.org	bsru6.h
http://www.linuxtv.org	isl6405.c
http://www.linuxtv.org	isl6405.h
http://www.linuxtv.org	isl6421.c
http://www.linuxtv.org	isl6421.h
http://www.linuxtv.org	lnbp21.c
http://www.linuxtv.org	lnbp21.h
http://www.linuxtv.org	lnbp22.c
http://www.linuxtv.org	lnbp22.h
http://www.linuxtv.org	tdhd1.h
http://www.mcmilk.de/projects/dvb-card/datasheets/ZL10036.pdf	zl10036.c
