<http://sourceforge.net/projects/ivtv/>	cx23885-417.c
http://v4l.videotechnology.com/	vivi.c
http://v4l2spec.bytesex.org/spec/x1904.htm#AEN1954	sh_vou.c
http://www.advansee.com/	adv7393.c
http://www.advansee.com/	adv7393_regs.h
http://www.mail-archive.com/linux-omap@vger.kernel.org/msg08149.html	isp.c
http://www.marvell.com/products/pc_connectivity/88alp01/	cafe-driver.c
http://www.samsung.com	gsc-core.c
http://www.samsung.com	gsc-core.h
http://www.samsung.com	gsc-m2m.c
http://www.samsung.com	gsc-regs.c
http://www.samsung.com	gsc-regs.h
http://www.samsung.com	jpeg-core.c
http://www.samsung.com	jpeg-core.h
http://www.samsung.com	jpeg-hw.h
http://www.samsung.com	jpeg-regs.h
http://www.samsung.com/	regs-hdmi.h
http://www.samsung.com/	regs-mfc-v6.h
http://www.samsung.com/	regs-mfc.h
http://www.samsung.com/	regs-mixer.h
http://www.samsung.com/	regs-sdo.h
http://www.samsung.com/	regs-vp.h
http://www.samsung.com/	s5p_mfc_cmd.c
http://www.samsung.com/	s5p_mfc_cmd.h
http://www.samsung.com/	s5p_mfc_cmd_v5.c
http://www.samsung.com/	s5p_mfc_cmd_v5.h
http://www.samsung.com/	s5p_mfc_cmd_v6.c
http://www.samsung.com/	s5p_mfc_cmd_v6.h
http://www.samsung.com/	s5p_mfc_ctrl.c
http://www.samsung.com/	s5p_mfc_ctrl.h
http://www.samsung.com/	s5p_mfc_debug.h
http://www.samsung.com/	s5p_mfc_dec.c
http://www.samsung.com/	s5p_mfc_dec.h
http://www.samsung.com/	s5p_mfc_enc.c
http://www.samsung.com/	s5p_mfc_enc.h
http://www.samsung.com/	s5p_mfc_intr.c
http://www.samsung.com/	s5p_mfc_intr.h
http://www.samsung.com/	s5p_mfc_opr.c
http://www.samsung.com/	s5p_mfc_opr.h
http://www.samsung.com/	s5p_mfc_opr_v5.c
http://www.samsung.com/	s5p_mfc_opr_v5.h
http://www.samsung.com/	s5p_mfc_opr_v6.c
http://www.samsung.com/	s5p_mfc_opr_v6.h
http://www.samsung.com/	s5p_mfc_pm.c
http://www.samsung.com/	s5p_mfc_pm.h
http://www.st.com	tda9840.c
http://www.st.com	tea6415c.c
http://www.ti.com/	adv7343.c
http://www.ti.com/	adv7343_regs.h
http://www.ti.com/	adv7393.c
http://www.ti.com/	adv7393_regs.h
http://www.ti.com/	ths7303.c
http://www.ti.com/	vpbe_display.c
http://www.ti.com/	vpif.c
http://www.ti.com/	vpif.h
http://www.ti.com/	vpif_display.c
http://www.ti.com/	vpif_display.h
