<http://www.mylex.com>	lne390.c
http://blackfin.uclinux.org/	bfin_mac.c
http://blackfin.uclinux.org/	bfin_mac.h
http://bugzilla.kernel.org/	21142.c
http://bugzilla.kernel.org/	interrupt.c
http://bugzilla.kernel.org/	media.c
http://bugzilla.kernel.org/	pnic.c
http://bugzilla.kernel.org/	pnic2.c
http://bugzilla.kernel.org/	timer.c
http://bugzilla.kernel.org/	tulip.h
http://bugzilla.kernel.org/	tulip_core.c
http://bugzilla.kernel.org/.	eeprom.c
http://developer.intel.com/design/network/manuals/278074.htm	21142.c
http://marc.theaimsgroup.com/?l=linux-netdev&m=116398508500553&w=2	atl1.c
http://sourceforge.net/projects/e1000	e100.c
http://www.amd.com/files/connectivitysolutions/networking/archivednetworking/22235.pdf	natsemi.c
http://www.beowulf.org/pipermail/netdrivers/	sundance.c
http://www.emlix.com	s6gmac.c
http://www.gnu.org/licenses/old-licenses/gpl-2.0.html	bnx2x_dcb.c
http://www.gnu.org/licenses/old-licenses/gpl-2.0.html	bnx2x_dcb.h
http://www.gnu.org/licenses/old-licenses/gpl-2.0.html	bnx2x_dump.h
http://www.gnu.org/licenses/old-licenses/gpl-2.0.html	bnx2x_link.c
http://www.gnu.org/licenses/old-licenses/gpl-2.0.html	bnx2x_link.h
http://www.gnu.org/licenses/old-licenses/gpl-2.0.html	bnx2x_sp.c
http://www.gnu.org/licenses/old-licenses/gpl-2.0.html	bnx2x_sp.h
http://www.icplus.com.tw	ipg.c
http://www.icplus.com.tw	ipg.c
http://www.interlan.com	es3210.c
http://www.jmicron.com/	jme.h
http://www.murphy.nl	lp486e.c
http://www.myri.com/scs/download-Myri10GE.html	myri10ge.c
http://www.national.com/analog	ibmlana.c
http://www.national.com/pf/DP/DP83815.html	natsemi.c
http://www.scyld.com/expert/100mbps.html	natsemi.c
http://www.scyld.com/expert/100mbps.html	sundance.c
http://www.scyld.com/expert/100mbps.html	via-rhine.c
http://www.scyld.com/expert/100mbps.html	winbond-840.c
http://www.scyld.com/expert/NWay.html	natsemi.c
http://www.scyld.com/expert/NWay.html	sundance.c
http://www.scyld.com/expert/NWay.html	via-rhine.c
http://www.scyld.com/expert/NWay.html	winbond-840.c
http://www.scyld.com/network/drivers.html	winbond-840.c
http://www.scyld.com/network/drivers.html	winbond-840.c
http://www.scyld.com/network/drivers.html\n";	winbond-840.c
http://www.scyld.com/network/netsemi.html	natsemi.c
http://www.scyld.com/network/pci-skeleton.html	fealnx.c
http://www.scyld.com/network/sundance.html	sundance.c
http://www.scyld.com/network/via-rhine.html	via-rhine.c
http://www.silan.com.cn/english/product/pdf/SC92031AY.pdf	sc92031.c
http://www.sis.com.tw/support/databook.htm	sis900.h
http://www.via.com.tw/	via-rhine.c
http://www.winbond.com.tw/	winbond-840.c
