<http://sourceforge.net/projects/ivtv/>	cx88-blackbird.c
<http://tuner.beholder.ru>,	saa7134-cards.c
http://article.gmane.org/gmane.linux.kernel.device-mapper.dm-crypt/454	dm-crypt.c
http://instinct-wp8.no-ip.org/pluto/	pluto2.c
http://linuxmedialabs.com	bttv-cards.c
http://loop-aes.sourceforge.net/	dm-crypt.c
http://pci-ids.ucw.cz/	cx18-cards.c
http://pci-ids.ucw.cz/	ivtv-cards.c
http://pt1dvr.sourceforge.jp/	pt1.c
http://pt1dvr.sourceforge.jp/	va1j5jf8007s.c
http://pt1dvr.sourceforge.jp/	va1j5jf8007s.h
http://pt1dvr.sourceforge.jp/	va1j5jf8007t.c
http://pt1dvr.sourceforge.jp/	va1j5jf8007t.h
http://spiritmodems.com.au	bttv-cards.c
http://www.gnu.org/copyleft/gpl.html	av7110.c
http://www.gnu.org/copyleft/gpl.html	av7110_av.c
http://www.gnu.org/copyleft/gpl.html	av7110_ca.c
http://www.gnu.org/copyleft/gpl.html	av7110_hw.c
http://www.gnu.org/copyleft/gpl.html	av7110_ir.c
http://www.gnu.org/copyleft/gpl.html	av7110_v4l.c
http://www.gnu.org/copyleft/gpl.html	bt878.c
http://www.gnu.org/copyleft/gpl.html	budget-av.c
http://www.gnu.org/copyleft/gpl.html	budget-ci.c
http://www.gnu.org/copyleft/gpl.html	budget-core.c
http://www.gnu.org/copyleft/gpl.html	budget-patch.c
http://www.gnu.org/copyleft/gpl.html	budget.c
http://www.gnu.org/copyleft/gpl.html	ddbridge-core.c
http://www.gnu.org/copyleft/gpl.html	ddbridge-regs.h
http://www.gnu.org/copyleft/gpl.html	ddbridge.h
http://www.gnu.org/copyleft/gpl.html	ngene-cards.c
http://www.gnu.org/copyleft/gpl.html	ngene-core.c
http://www.gnu.org/copyleft/gpl.html	ngene-dvb.c
http://www.gnu.org/copyleft/gpl.html	ngene-i2c.c
http://www.gnu.org/copyleft/gpl.html	ngene.h
http://www.ivtvdriver.org	ivtv-driver.c
http://www.ivtvdriver.org	ivtv-driver.h
http://www.linuxtv.org/	av7110.c
http://www.linuxtv.org/	av7110.c
http://www.linuxtv.org/	av7110_av.c
http://www.linuxtv.org/	av7110_ca.c
http://www.linuxtv.org/	av7110_hw.c
http://www.linuxtv.org/	av7110_v4l.c
http://www.linuxtv.org/	budget-av.c
http://www.linuxtv.org/	budget-ci.c
http://www.linuxtv.org/	budget-core.c
http://www.linuxtv.org/	budget-patch.c
http://www.linuxtv.org/	budget.c
http://www.linuxtv.org/download/dvb/firmware/\n");	av7110.c
http://www.mihu.de/linux/saa7146/	hexium_gemini.c
http://www.mihu.de/linux/saa7146/	hexium_orion.c
http://www.themm.net/~mihu/linux/saa7146/mxb.html	mxb.c
