<http://www.hoerstreich.de>	hpt366.c
http://android.git.kernel.org/?p=platform/system/wlan/broadcom.git	sdio.c
http://bcm-v4.sipsolutions.net/802.11/ClkctlFastPwrupDelay	driver_chipcommon.c
http://bcm-v4.sipsolutions.net/802.11/IsSpromAvailable	sprom.c
http://bcm-v4.sipsolutions.net/802.11/PmuFastPwrupDelay	driver_chipcommon.c
http://bcm-v4.sipsolutions.net/802.11/SSB/PmuInit	driver_chipcommon_pmu.c
http://gkernel.sourceforge.net/specs/sii/3112A_SiI-DS-0095-B2.pdf.bz2	siimage.c
http://gkernel.sourceforge.net/specs/sii/sii-0680a-v1.31.pdf.bz2	siimage.c
http://oss.sgi.com/projects/GenInfo/NoticeExplan	sgiioc4.c
http://www.highpoint-tech.com/USA_new/service_support.htm	hpt366.c
http://www.jschoenfeld.com	buddha.c
http://www.ryston.cz/petr/vlb	qd65xx.c
