<http://www.gnu.org/licenses/>.	isl29028.c
http://compcache.googlecode.com	zram_drv.c
http://compcache.googlecode.com	zram_drv.h
http://compcache.googlecode.com/	zram_sysfs.c
http://marc.info/?l=linux-mm&m=127811271605009	zcache-main.c
http://www.agere.com	debug.h
http://www.agere.com	dhfcfg.h
http://www.agere.com	wl_cs.c
http://www.agere.com	wl_cs.h
http://www.agere.com	wl_enc.c
http://www.agere.com	wl_enc.h
http://www.agere.com	wl_if.h
http://www.agere.com	wl_internal.h
http://www.agere.com	wl_main.c
http://www.agere.com	wl_main.h
http://www.agere.com	wl_netdev.c
http://www.agere.com	wl_netdev.h
http://www.agere.com	wl_pci.c
http://www.agere.com	wl_pci.h
http://www.agere.com	wl_priv.c
http://www.agere.com	wl_priv.h
http://www.agere.com	wl_profile.c
http://www.agere.com	wl_profile.h
http://www.agere.com	wl_util.c
http://www.agere.com	wl_util.h
http://www.agere.com	wl_version.h
http://www.agere.com	wl_wext.c
http://www.agere.com	wl_wext.h
http://www.agere.com"	wl_version.h
http://www.ti.com/	omap-bandgap.c
http://www.ti.com/	omap-bandgap.h
http://www.ti.com/	omap-thermal-common.c
http://www.ti.com/	omap-thermal.h
http://www.triplepoint.com	debug.h
http://www.triplepoint.com	dhfcfg.h
http://www.triplepoint.com	wl_cs.c
http://www.triplepoint.com	wl_cs.h
http://www.triplepoint.com	wl_enc.c
http://www.triplepoint.com	wl_enc.h
http://www.triplepoint.com	wl_if.h
http://www.triplepoint.com	wl_internal.h
http://www.triplepoint.com	wl_main.c
http://www.triplepoint.com	wl_main.h
http://www.triplepoint.com	wl_netdev.c
http://www.triplepoint.com	wl_netdev.h
http://www.triplepoint.com	wl_pci.c
http://www.triplepoint.com	wl_pci.h
http://www.triplepoint.com	wl_priv.c
http://www.triplepoint.com	wl_priv.h
http://www.triplepoint.com	wl_profile.c
http://www.triplepoint.com	wl_profile.h
http://www.triplepoint.com	wl_util.c
http://www.triplepoint.com	wl_util.h
http://www.triplepoint.com	wl_version.h
http://www.triplepoint.com	wl_wext.c
http://www.triplepoint.com	wl_wext.h
