(http://robot0.ge.uiuc.edu/~spong/mecha/)	c6xdigio.c
(http://www.cir.com/)	pcl726.c
<http://www.gnu.org/licenses/>.	omap_connector.c
<http://www.gnu.org/licenses/>.	omap_crtc.c
<http://www.gnu.org/licenses/>.	omap_debugfs.c
<http://www.gnu.org/licenses/>.	omap_drm.h
<http://www.gnu.org/licenses/>.	omap_drv.c
<http://www.gnu.org/licenses/>.	omap_drv.h
<http://www.gnu.org/licenses/>.	omap_encoder.c
<http://www.gnu.org/licenses/>.	omap_fb.c
<http://www.gnu.org/licenses/>.	omap_fbdev.c
<http://www.gnu.org/licenses/>.	omap_gem.c
<http://www.gnu.org/licenses/>.	omap_gem_dmabuf.c
<http://www.gnu.org/licenses/>.	omap_gem_helpers.c
<http://www.gnu.org/licenses/>.	omap_irq.c
<http://www.gnu.org/licenses/>.	omap_plane.c
<http://www.mev.co.uk/>	amplc_dio200.c
<http://www.mev.co.uk/>	amplc_pc236.c
<http://www.mev.co.uk/>	amplc_pc263.c
<http://www.mev.co.uk/>	amplc_pci224.c
<http://www.mev.co.uk/>	comedi_compat32.c
<http://www.mev.co.uk/>	comedi_compat32.h
<http://www.mev.co.uk/>	plx9052.h
<http://www.microsoft.com/whdc/system/platform/firmware/DirAppLaunch.mspx>	quickstart.c
<http://www.t10.org/ftp/t10/drafts/s2/s2-r10l.pdf>.	f_mass_storage.c
<http://www.usb.org/developers/devclass_docs/usbmass-ufi10.pdf>.	f_mass_storage.c
MODULE_AUTHOR("http://www.comedi.org");	comedi_fops.c
http://berndlux.de	et131x.c
http://comedi.org/	ni_labpc.c
http://en.wikipedia.org/wiki/Least_mean_squares_filter	echo.c
http://lkml.org/lkml/2011/7/11/238	omap_gem_helpers.c
http://robot0.ge.uiuc.edu/~spong/mecha/	c6xdigio.c
http://svn.rowetel.com/software/oslec/	echo.c
http://svn.rowetel.com/software/oslec/tags/before_16bit.	echo.c
http://svn.rowetel.com/software/oslec/tags/before_16bit.	echo.c
http://tech.buffalostate.edu/~dave/driver/	pcl711.c
http://www.addi-data.com	APCI1710_82x54.c
http://www.addi-data.com	APCI1710_Chrono.c
http://www.addi-data.com	APCI1710_Chrono.c
http://www.addi-data.com	APCI1710_Dig_io.c
http://www.addi-data.com	APCI1710_Dig_io.c
http://www.addi-data.com	APCI1710_INCCPT.c
http://www.addi-data.com	APCI1710_INCCPT.c
http://www.addi-data.com	APCI1710_Inp_cpt.c
http://www.addi-data.com	APCI1710_Inp_cpt.c
http://www.addi-data.com	APCI1710_Pwm.c
http://www.addi-data.com	APCI1710_Pwm.c
http://www.addi-data.com	APCI1710_Ssi.c
http://www.addi-data.com	APCI1710_Ssi.c
http://www.addi-data.com	APCI1710_Tor.c
http://www.addi-data.com	APCI1710_Tor.c
http://www.addi-data.com	APCI1710_Ttl.c
http://www.addi-data.com	APCI1710_Ttl.c
http://www.addi-data.com	addi_apci_1032.c
http://www.addi-data.com	addi_apci_1516.c
http://www.addi-data.com	addi_apci_2032.c
http://www.addi-data.com	addi_common.c
http://www.addi-data.com	addi_common.c
http://www.addi-data.com	addi_common.h
http://www.addi-data.com	addi_eeprom.c
http://www.addi-data.com	hwdrv_APCI1710.c
http://www.addi-data.com	hwdrv_APCI1710.c
http://www.addi-data.com	hwdrv_apci035.c
http://www.addi-data.com	hwdrv_apci035.c
http://www.addi-data.com	hwdrv_apci1500.c
http://www.addi-data.com	hwdrv_apci1500.c
http://www.addi-data.com	hwdrv_apci1564.c
http://www.addi-data.com	hwdrv_apci1564.c
http://www.addi-data.com	hwdrv_apci16xx.c
http://www.addi-data.com	hwdrv_apci16xx.c
http://www.addi-data.com	hwdrv_apci2200.c
http://www.addi-data.com	hwdrv_apci2200.c
http://www.addi-data.com	hwdrv_apci3120.c
http://www.addi-data.com	hwdrv_apci3120.c
http://www.addi-data.com	hwdrv_apci3200.c
http://www.addi-data.com	hwdrv_apci3200.c
http://www.addi-data.com	hwdrv_apci3501.c
http://www.addi-data.com	hwdrv_apci3501.c
http://www.addi-data.com	hwdrv_apci3xxx.c
http://www.addi-data.com	hwdrv_apci3xxx.c
http://www.agere.com	et131x.c
http://www.agere.com	et131x.h
http://www.beyondlogic.org/	comedi_parport.c
http://www.comedi.org	daqboard2000.c
http://www.comedi.org	jr3_pci.c
http://www.comedi.org	ni_pcidio.c
http://www.comedi.org");	8255.c
http://www.comedi.org");	8255_pci.c
http://www.comedi.org");	acl7225b.c
http://www.comedi.org");	addi_apci_035.c
http://www.comedi.org");	addi_apci_1032.c
http://www.comedi.org");	addi_apci_1500.c
http://www.comedi.org");	addi_apci_1516.c
http://www.comedi.org");	addi_apci_1564.c
http://www.comedi.org");	addi_apci_16xx.c
http://www.comedi.org");	addi_apci_1710.c
http://www.comedi.org");	addi_apci_2032.c
http://www.comedi.org");	addi_apci_2200.c
http://www.comedi.org");	addi_apci_3120.c
http://www.comedi.org");	addi_apci_3501.c
http://www.comedi.org");	addi_apci_3xxx.c
http://www.comedi.org");	adl_pci6208.c
http://www.comedi.org");	adl_pci8164.c
http://www.comedi.org");	adl_pci9111.c
http://www.comedi.org");	adl_pci9118.c
http://www.comedi.org");	adq12b.c
http://www.comedi.org");	adv_pci1710.c
http://www.comedi.org");	adv_pci1723.c
http://www.comedi.org");	adv_pci_dio.c
http://www.comedi.org");	aio_aio12_8.c
http://www.comedi.org");	aio_iiro_16.c
http://www.comedi.org");	amplc_dio200.c
http://www.comedi.org");	amplc_pc236.c
http://www.comedi.org");	amplc_pc263.c
http://www.comedi.org");	amplc_pci224.c
http://www.comedi.org");	amplc_pci230.c
http://www.comedi.org");	c6xdigio.c
http://www.comedi.org");	cb_pcidas.c
http://www.comedi.org");	cb_pcidas64.c
http://www.comedi.org");	cb_pcidda.c
http://www.comedi.org");	cb_pcimdas.c
http://www.comedi.org");	comedi_parport.c
http://www.comedi.org");	comedi_test.c
http://www.comedi.org");	contec_pci_dio.c
http://www.comedi.org");	daqboard2000.c
http://www.comedi.org");	das08.c
http://www.comedi.org");	das16.c
http://www.comedi.org");	das16m1.c
http://www.comedi.org");	das1800.c
http://www.comedi.org");	das6402.c
http://www.comedi.org");	das800.c
http://www.comedi.org");	dmm32at.c
http://www.comedi.org");	dt2801.c
http://www.comedi.org");	dt2811.c
http://www.comedi.org");	dt2814.c
http://www.comedi.org");	dt2815.c
http://www.comedi.org");	dt2817.c
http://www.comedi.org");	dt282x.c
http://www.comedi.org");	dt3000.c
http://www.comedi.org");	fl512.c
http://www.comedi.org");	gsc_hpdi.c
http://www.comedi.org");	icp_multi.c
http://www.comedi.org");	ii_pci20kc.c
http://www.comedi.org");	jr3_pci.c
http://www.comedi.org");	ke_counter.c
http://www.comedi.org");	me4000.c
http://www.comedi.org");	me_daq.c
http://www.comedi.org");	mite.c
http://www.comedi.org");	mpc624.c
http://www.comedi.org");	multiq3.c
http://www.comedi.org");	ni_6527.c
http://www.comedi.org");	ni_65xx.c
http://www.comedi.org");	ni_660x.c
http://www.comedi.org");	ni_670x.c
http://www.comedi.org");	ni_at_a2150.c
http://www.comedi.org");	ni_at_ao.c
http://www.comedi.org");	ni_atmio16d.c
http://www.comedi.org");	ni_labpc.c
http://www.comedi.org");	ni_pcidio.c
http://www.comedi.org");	ni_pcimio.c
http://www.comedi.org");	pcl711.c
http://www.comedi.org");	pcl724.c
http://www.comedi.org");	pcl725.c
http://www.comedi.org");	pcl726.c
http://www.comedi.org");	pcl730.c
http://www.comedi.org");	pcl812.c
http://www.comedi.org");	pcl816.c
http://www.comedi.org");	pcl818.c
http://www.comedi.org");	pcm3724.c
http://www.comedi.org");	pcm3730.c
http://www.comedi.org");	pcm_common.c
http://www.comedi.org");	pcmad.c
http://www.comedi.org");	pcmda12.c
http://www.comedi.org");	pcmmio.c
http://www.comedi.org");	pcmuio.c
http://www.comedi.org");	poc.c
http://www.comedi.org");	rtd520.c
http://www.comedi.org");	rti800.c
http://www.comedi.org");	rti802.c
http://www.comedi.org");	s526.c
http://www.comedi.org");	serial2002.c
http://www.comedi.org");	skel.c
http://www.comedi.org");	ssv_dnp.c
http://www.comedi.org");	unioxx5.c
http://www.comedi.org.	me4000.c
http://www.comedi.org/	quatech_daqp_cs.c
http://www.comedi.org\n");	comedi_fops.c
http://www.diamondsystems.com/products/diamondmm32at	dmm32at.c
http://www.dynalogindia.com/	dyna_pci10xx.c
http://www.iitb.ac.in	dyna_pci10xx.c
http://www.linux-magazin.de/ausgabe/1999/10/IO/io.html	comedi_parport.c
http://www.mccdaq.com/PDFs/Manuals/pcim-das1602-16.pdf	cb_pcimdas.c
http://www.mozilla.org/MPL/	quatech_daqp_cs.c
http://www.ni.com/pdf/manuals/320676d.pdf	ni_daq_700.c
http://www.ni.com/pdf/manuals/340698.pdf	ni_daq_700.c
http://www.plxtech.com/products/io/pci9080	daqboard2000.c
http://www.plxtech.com/products/io/pci9080	rtd520.c
http://www.rowetel.com/blog/?p=18	echo.c
http://www.rowetel.com/images/echo/dual_path_paper.pdf	echo.c
http://www.rowetel.com/images/echo/spra129.pdf	echo.c
http://www.rtdusa.com/PC104/DM/analog%20IO/dm7520.htm	rtd520.c
http://www.rtdusa.com/examples/dm/dm7520.zip	rtd520.c
http://www.rtdusa.com/pdf/dm7520.pdf	rtd520.c
http://www.ti.com/	omap_dmm_priv.h
http://www.ti.com/	omap_dmm_tiler.c
http://www.ti.com/	omap_dmm_tiler.h
