(http://developer.intel.com)	ac97_patch.c
(http://developer.intel.com)	ac97_pcm.c
(http://developer.intel.com).	ac97_codec.c
(http://developer.intel.com).	ac97_id.h
(http://developer.intel.com).	ac97_local.h
(http://developer.intel.com).	ac97_patch.h
(http://developer.intel.com).	ac97_proc.c
(http://www.semiconductors.philips.com/acrobat_download/datasheets/UCB1400-02.pdf)	ac97_patch.c
<http://www.gnu.org/licenses/>.	xonar_cs43xx.c
<http://www.gnu.org/licenses/>.	xonar_dg.c
<http://www.gnu.org/licenses/>.	xonar_hdmi.c
<http://www.gnu.org/licenses/>.	xonar_lib.c
<http://www.gnu.org/licenses/>.	xonar_pcm179x.c
<http://www.gnu.org/licenses/>.	xonar_wm87x6.c
http://download.intel.com/design/chipsets/specupdt/24505108.pdf	intel8x0.c
http://launchpad.net/bugs/38546	via82xx.c
http://linuxdc.cvs.sourceforge.net/linuxdc/linux-sh-dc/sound/oss/aica/firmware/	aica.c
http://usb-midi-fw.sourceforge.net/tascam-firmware.tar.gz	usbusx2y.c
http://www.alsa-project.org/~tiwai/writing-an-alsa-driver/	ens1370.c
http://www.freesoft.org/Linux/DBRI/	dbri.c
http://www.microsoft.com/whdc/archive/pcguides.mspx)	azt3328.c
