(http://www.vesa.org).	fbmon.c
<http://www.gnu.org/licenses/>.	sata_highbank.c
http://article.gmane.org/gmane.linux.ide/46352	sata_via.c
http://ata.wiki.kernel.org\n");	libata-core.c
http://blackfin.uclinux.org/	bfin-t350mcqb-fb.c
http://blackfin.uclinux.org/	bfin_wdt.c
http://blackfin.uclinux.org/	pata_bf54x.c
http://bugzilla.kernel.org/show_bug.cgi?id=12276	ahci.c
http://bugzilla.kernel.org/show_bug.cgi?id=15104	ahci.c
http://bugzilla.kernel.org/show_bug.cgi?id=15462	ahci.c
http://developer.intel.com.)	i6300esb.c
http://developer.intel.com.)	iTCO_wdt.c
http://developer.intel.com/	ata_piix.c
http://developer.intel.com/	sata_vsc.c
http://download.intel.com/design/chipsets/embedded/datashts/319537.pdf	pata_sch.c
http://git.plugable.com	smscufx.c
http://gkernel.sourceforge.net/specs/sii/3112A_SiI-DS-0095-B2.pdf.bz2	sata_sil.c
http://thread.gmane.org/gmane.linux.ide/14907	libata-core.c
http://thread.gmane.org/gmane.linux.ide/34098	sata_nv.c
http://thread.gmane.org/gmane.linux.ide/46764	libata-core.c
http://thread.gmane.org/gmane.linux.kernel/1062139	sata_via.c
http://www.4g-systems.biz	mtx-1_wdt.c
http://www.berkprod.com/	pcwd.c
http://www.berkprod.com/	pcwd_pci.c
http://www.berkprod.com/	pcwd_usb.c
http://www.ce-ata.org	libata-core.c
http://www.compactflash.org	libata-core.c
http://www.cymru.net	wd501p.h
http://www.gnu.org/licenses/old-licenses/gpl-2.0.txt.	btmrvl_debugfs.c
http://www.gnu.org/licenses/old-licenses/gpl-2.0.txt.	btmrvl_drv.h
http://www.gnu.org/licenses/old-licenses/gpl-2.0.txt.	btmrvl_main.c
http://www.gnu.org/licenses/old-licenses/gpl-2.0.txt.	btmrvl_sdio.c
http://www.gnu.org/licenses/old-licenses/gpl-2.0.txt.	btmrvl_sdio.h
http://www.hilscher.com	uio_netx.c
http://www.icpamerica.com/wafer_5823.php	wafer5823wdt.c
http://www.intel.com/technology/serialata/pdf/rev1_0.pdf	acard-ahci.c
http://www.intel.com/technology/serialata/pdf/rev1_0.pdf	ahci.c
http://www.intel.com/technology/serialata/pdf/rev1_0.pdf	ahci.h
http://www.intel.com/technology/serialata/pdf/rev1_0.pdf	libahci.c
http://www.intel.com/technology/serialata/pdf/rev1_1.pdf	acard-ahci.c
http://www.intel.com/technology/serialata/pdf/rev1_1.pdf	ahci.c
http://www.intel.com/technology/serialata/pdf/rev1_1.pdf	ahci.h
http://www.intel.com/technology/serialata/pdf/rev1_1.pdf	libahci.c
http://www.ite.com.tw/	it87_wdt.c
http://www.ite.com.tw/EN/products_more.aspx?CategoryID=3&ID=5,91	pata_it821x.c
http://www.kernel.org/pub/linux/kernel/people/wim/pcwd/pcwd_pci/	pcwd_pci.c
http://www.kernelconcepts.de	nv_tco.c
http://www.kernelconcepts.de	nv_tco.h
http://www.kernelconcepts.de	sp5100_tco.c
http://www.pcwatchdog.com/	pcwd.c
http://www.pcwatchdog.com/	pcwd_pci.c
http://www.pcwatchdog.com/	pcwd_usb.c
http://www.pcwd.de/	pcwd.c
http://www.picochip.com	dw_wdt.c
http://www.qic.org	libata-core.c
http://www.redhat.com	w83697ug_wdt.c
http://www.ryston.cz/petr/vlb/pdc20230b.html	pata_legacy.c
http://www.ryston.cz/petr/vlb/pdc20230c.html	pata_legacy.c
http://www.ryston.cz/petr/vlb/pdc20630.html	pata_legacy.c
http://www.ryston.cz/petr/vlb/qd6500.html	pata_legacy.c
http://www.ryston.cz/petr/vlb/qd6580.html	pata_legacy.c
http://www.samsung.com	pata_samsung_cf.c
http://www.sata-io.org	libata-core.c
http://www.sata-io.org/	libata-core.c
http://www.sata-io.org/	libata-eh.c
http://www.sata-io.org/	libata-sff.c
http://www.t10.org	libata-core.c
http://www.t10.org/	libata-scsi.c
http://www.t13.org	libata-core.c
http://www.t13.org/	libata-core.c
http://www.t13.org/	libata-eh.c
http://www.t13.org/	libata-scsi.c
http://www.t13.org/	libata-sff.c
http://www.ti.com/	uio_pruss.c
http://www.traverse.com.au/	solos-pci.c
http://www.vesa.org	fbmon.c
http://www.xrio.com/	solos-pci.c
