"http://www.abit.com.tw/"),	sleep.c
<http://www.dig64.org/specifications/>	pcdp.h
<http://www.gnu.org/licenses/>.	gpio-rc5t583.c
<http://www.gnu.org/licenses/>.	gpio-tps6586x.c
http://bugzilla.kernel.org/show_bug.cgi?id=10138	pci_irq.c
http://bugzilla.kernel.org/show_bug.cgi?id=12233	video.c
http://bugzilla.kernel.org/show_bug.cgi?id=13121	video.c
http://bugzilla.kernel.org/show_bug.cgi?id=4773	pci_irq.c
http://bugzilla.kernel.org/show_bug.cgi?id=5044	pci_irq.c
http://bugzilla.kernel.org/show_bug.cgi?id=8842	thermal.c
http://linux.dell.com/edd/results.html	edd.c
http://lkml.org/lkml/2006/10/31/28	aoecmd.c
http://oss.sgi.com/archives/xfs/2007-01/msg00594.html	aoecmd.c
http://wiki.embeddedarm.com/wiki/TS-5500	gpio-ts5500.c
http://wiki.embeddedarm.com/wiki/TS-5600	gpio-ts5500.c
http://www.dmtf.org/standards	dmi_scan.c
