act_api.h	pkt_sched.h
act_api.h	sch_generic.h
addrconf.h	if_inet6.h
addrconf.h	in.h
addrconf.h	in6.h
addrconf.h	ipv6.h
addrconf.h	netdevice.h
af_ieee802154.h	socket.h
af_irda.h	discovery.h
af_irda.h	irda.h
af_irda.h	irda.h
af_irda.h	iriap.h
af_irda.h	irias_object.h
af_irda.h	irlmp.h
af_irda.h	irttp.h
af_irda.h	sock.h
af_unix.h	mutex.h
af_unix.h	sock.h
af_unix.h	socket.h
af_unix.h	un.h
ah.h	skbuff.h
arp.h	hash.h
arp.h	if_arp.h
arp.h	neighbour.h
asoc.h	define_trace.h
asoc.h	ktime.h
asoc.h	tracepoint.h
assigned-dev.c	errno.h
assigned-dev.c	fs.h
assigned-dev.c	interrupt.h
assigned-dev.c	irq.h
assigned-dev.c	kvm.h
assigned-dev.c	kvm_host.h
assigned-dev.c	namei.h
assigned-dev.c	pci.h
assigned-dev.c	slab.h
assigned-dev.c	spinlock.h
assigned-dev.c	uaccess.h
assigned-dev.c	vmalloc.h
asymmetric-subtype.h	asymmetric-type.h
asymmetric-subtype.h	seq_file.h
asymmetric-type.h	key-type.h
async_pf.c	async_pf.h
async_pf.c	kvm.h
async_pf.c	kvm_host.h
async_pf.c	mmu_context.h
async_pf.c	module.h
async_pf.c	slab.h
auth.h	crypto.h
auth.h	list.h
ax25.h	atomic.h
ax25.h	ax25.h
ax25.h	list.h
ax25.h	netdevice.h
ax25.h	slab.h
ax25.h	spinlock.h
ax25.h	timer.h
block.h	blkdev.h
block.h	blktrace_api.h
block.h	define_trace.h
block.h	tracepoint.h
btrfs.h	define_trace.h
btrfs.h	gfpflags.h
btrfs.h	tracepoint.h
btrfs.h	writeback.h
caif_dev.h	caif_device.h
caif_dev.h	caif_layer.h
caif_dev.h	caif_socket.h
caif_dev.h	cfcnfg.h
caif_dev.h	if.h
caif_dev.h	net.h
caif_device.h	caif_device.h
caif_device.h	caif_socket.h
caif_device.h	kernel.h
caif_device.h	net.h
caif_device.h	netdevice.h
caif_hsi.h	atomic.h
caif_hsi.h	caif_device.h
caif_hsi.h	caif_layer.h
caif_layer.h	list.h
caif_spi.h	caif_device.h
ceph-type.h	key.h
cfcnfg.h	caif_layer.h
cfcnfg.h	cfctrl.h
cfcnfg.h	netdevice.h
cfcnfg.h	spinlock.h
cfctrl.h	caif_layer.h
cfctrl.h	cfsrvl.h
cffrml.h	caif_layer.h
cffrml.h	netdevice.h
cfg80211-wext.h	iw_handler.h
cfg80211-wext.h	netdevice.h
cfg80211-wext.h	wireless.h
cfmuxl.h	caif_layer.h
cfpkt.h	caif_layer.h
cfpkt.h	types.h
cfserl.h	caif_layer.h
cfsrvl.h	kref.h
cfsrvl.h	list.h
cfsrvl.h	rculist.h
cfsrvl.h	stddef.h
cfsrvl.h	types.h
checksum.h	crc32c.h
checksum.h	crc32c.h
checksum.h	sctp.h
checksum.h	sctp.h
checksum.h	types.h
checksum.h	types.h
coalesced_mmio.c	coalesced_mmio.h
coalesced_mmio.c	iodev.h
coalesced_mmio.c	kvm.h
coalesced_mmio.c	kvm_host.h
coalesced_mmio.c	slab.h
coalesced_mmio.h	list.h
command.h	constants.h
command.h	structs.h
compaction.h	define_trace.h
compaction.h	gfpflags.h
compaction.h	tracepoint.h
compaction.h	types.h
conntrack.h	atomic.h
conntrack.h	list.h
conntrack.h	list_nulls.h
conntrack.h	nf_conntrack_tcp.h
constants.h	ipv6.h
constants.h	sctp.h
constants.h	tcp_states.h
constants.h	user.h
crc.h	crc-ccitt.h
crc.h	types.h
dcbnl.h	dcbnl.h
define_trace.h	ftrace.h
define_trace.h	stringify.h
discovery.h	irda.h
discovery.h	irlap_event.h
discovery.h	irqueue.h
discovery.h	param.h
dn.h	byteorder.h
dn.h	dn.h
dn.h	flow.h
dn.h	sock.h
dn.h	unaligned.h
dns_resolver-type.h	key-type.h
ds.h	atomic.h
ds.h	device.h
ds.h	device_id.h
ds.h	interrupt.h
ds.h	mod_devicetable.h
ds.h	ss.h
dsa.h	if_ether.h
dsa.h	list.h
dsa.h	timer.h
dsa.h	workqueue.h
dsfield.h	byteorder.h
dsfield.h	ip.h
dsfield.h	ipv6.h
dsfield.h	types.h
dst_ops.h	cache.h
dst_ops.h	percpu_counter.h
dst_ops.h	types.h
encrypted-type.h	key.h
encrypted-type.h	rcupdate.h
esp.h	skbuff.h
eventfd.c	eventfd.h
eventfd.c	file.h
eventfd.c	iodev.h
eventfd.c	kernel.h
eventfd.c	kvm.h
eventfd.c	kvm_host.h
eventfd.c	list.h
eventfd.c	poll.h
eventfd.c	slab.h
eventfd.c	syscalls.h
eventfd.c	wait.h
eventfd.c	workqueue.h
ext3.h	define_trace.h
ext3.h	tracepoint.h
ext4.h	define_trace.h
ext4.h	tracepoint.h
ext4.h	writeback.h
fc_els.h	types.h
fc_encode.h	unaligned.h
fc_encode.h	utsname.h
fc_fcp.h	scsi.h
fc_fip.h	fc_ns.h
fc_frame.h	fc_encaps.h
fc_frame.h	fc_fcp.h
fc_frame.h	fc_fs.h
fc_frame.h	if_ether.h
fc_frame.h	scatterlist.h
fc_frame.h	scsi_cmnd.h
fc_frame.h	skbuff.h
fc_fs.h	types.h
fc_gs.h	types.h
fc_ms.h	types.h
fc_ns.h	types.h
fcoe_sysfs.h	device.h
fcoe_sysfs.h	fc_fcoe.h
fcoe_sysfs.h	if_ether.h
fib_rules.h	fib_rules.h
fib_rules.h	flow.h
fib_rules.h	netdevice.h
fib_rules.h	rtnetlink.h
fib_rules.h	slab.h
fib_rules.h	types.h
flow.h	atomic.h
flow.h	in6.h
flow.h	socket.h
ftrace.h	ftrace_event.h
garp.h	stp.h
gen_stats.h	gen_stats.h
gen_stats.h	pkt_sched.h
gen_stats.h	rtnetlink.h
gen_stats.h	socket.h
generic.h	bug.h
generic.h	rcupdate.h
gpio.h	define_trace.h
gpio.h	tracepoint.h
gre.h	skbuff.h
gro_cells.h	netdevice.h
gro_cells.h	skbuff.h
gro_cells.h	slab.h
hash.h	cache.h
hci.h	nfc.h
hci.h	skbuff.h
ib_addr.h	ib_pack.h
ib_addr.h	ib_verbs.h
ib_addr.h	if_arp.h
ib_addr.h	if_vlan.h
ib_addr.h	in.h
ib_addr.h	in6.h
ib_addr.h	netdevice.h
ib_addr.h	socket.h
ib_cache.h	ib_verbs.h
ib_cm.h	ib_mad.h
ib_cm.h	ib_sa.h
ib_fmr_pool.h	ib_verbs.h
ib_mad.h	ib_verbs.h
ib_mad.h	list.h
ib_marshall.h	ib_sa.h
ib_marshall.h	ib_user_sa.h
ib_marshall.h	ib_user_verbs.h
ib_marshall.h	ib_verbs.h
ib_pack.h	ib_verbs.h
ib_pma.h	ib_mad.h
ib_sa.h	atomic.h
ib_sa.h	compiler.h
ib_sa.h	completion.h
ib_sa.h	ib_mad.h
ib_sa.h	ib_verbs.h
ib_smi.h	ib_mad.h
ib_umem.h	err.h
ib_umem.h	list.h
ib_umem.h	scatterlist.h
ib_umem.h	workqueue.h
ib_verbs.h	atomic.h
ib_verbs.h	device.h
ib_verbs.h	dma-mapping.h
ib_verbs.h	kref.h
ib_verbs.h	list.h
ib_verbs.h	mm.h
ib_verbs.h	rwsem.h
ib_verbs.h	scatterlist.h
ib_verbs.h	types.h
ib_verbs.h	uaccess.h
ib_verbs.h	workqueue.h
icmp.h	icmp.h
icmp.h	inet_sock.h
icmp.h	snmp.h
if_inet6.h	ipv6.h
if_inet6.h	snmp.h
inet6_connection_sock.h	types.h
inet6_hashtables.h	hash.h
inet6_hashtables.h	in6.h
inet6_hashtables.h	inet_sock.h
inet6_hashtables.h	ipv6.h
inet6_hashtables.h	ipv6.h
inet6_hashtables.h	jhash.h
inet6_hashtables.h	types.h
inet_connection_sock.h	compiler.h
inet_connection_sock.h	inet_sock.h
inet_connection_sock.h	poll.h
inet_connection_sock.h	request_sock.h
inet_connection_sock.h	string.h
inet_connection_sock.h	timer.h
inet_hashtables.h	atomic.h
inet_hashtables.h	byteorder.h
inet_hashtables.h	hash.h
inet_hashtables.h	inet_connection_sock.h
inet_hashtables.h	inet_sock.h
inet_hashtables.h	interrupt.h
inet_hashtables.h	ip.h
inet_hashtables.h	ipv6.h
inet_hashtables.h	list.h
inet_hashtables.h	route.h
inet_hashtables.h	slab.h
inet_hashtables.h	sock.h
inet_hashtables.h	socket.h
inet_hashtables.h	spinlock.h
inet_hashtables.h	tcp_states.h
inet_hashtables.h	types.h
inet_hashtables.h	vmalloc.h
inet_hashtables.h	wait.h
inet_sock.h	flow.h
inet_sock.h	hash.h
inet_sock.h	jhash.h
inet_sock.h	kmemcheck.h
inet_sock.h	netdevice.h
inet_sock.h	request_sock.h
inet_sock.h	sock.h
inet_sock.h	string.h
inet_sock.h	types.h
inet_timewait_sock.h	atomic.h
inet_timewait_sock.h	inet_sock.h
inet_timewait_sock.h	kmemcheck.h
inet_timewait_sock.h	list.h
inet_timewait_sock.h	sock.h
inet_timewait_sock.h	tcp_states.h
inet_timewait_sock.h	timer.h
inet_timewait_sock.h	timewait_sock.h
inet_timewait_sock.h	types.h
inet_timewait_sock.h	workqueue.h
inetpeer.h	atomic.h
inetpeer.h	init.h
inetpeer.h	ipv6.h
inetpeer.h	jiffies.h
inetpeer.h	rtnetlink.h
inetpeer.h	spinlock.h
inetpeer.h	types.h
ioapic.c	current.h
ioapic.c	highmem.h
ioapic.c	hrtimer.h
ioapic.c	io.h
ioapic.c	ioapic.h
ioapic.c	irq.h
ioapic.c	kvm.h
ioapic.c	kvm.h
ioapic.c	kvm_host.h
ioapic.c	lapic.h
ioapic.c	mm.h
ioapic.c	page.h
ioapic.c	processor.h
ioapic.c	slab.h
ioapic.c	smp.h
ioapic.h	iodev.h
ioapic.h	kvm_host.h
iodev.h	errno.h
iodev.h	kvm_types.h
iommu.c	dmar.h
iommu.c	intel-iommu.h
iommu.c	iommu.h
iommu.c	kvm_host.h
iommu.c	list.h
iommu.c	module.h
iommu.c	pci.h
iommu.c	stat.h
ip.h	dst.h
ip.h	flow.h
ip.h	in.h
ip.h	inet_sock.h
ip.h	ip.h
ip.h	ipv6.h
ip.h	skbuff.h
ip.h	snmp.h
ip.h	types.h
ip6_checksum.h	byteorder.h
ip6_checksum.h	checksum.h
ip6_checksum.h	in6.h
ip6_checksum.h	ip.h
ip6_checksum.h	ipv6.h
ip6_checksum.h	tcp.h
ip6_checksum.h	types.h
ip6_fib.h	dst.h
ip6_fib.h	flow.h
ip6_fib.h	inetpeer.h
ip6_fib.h	ipv6_route.h
ip6_fib.h	netlink.h
ip6_fib.h	rtnetlink.h
ip6_fib.h	spinlock.h
ip6_route.h	flow.h
ip6_route.h	ip.h
ip6_route.h	ip6_fib.h
ip6_route.h	ipv6.h
ip6_route.h	sock.h
ip6_tunnel.h	ip6_tunnel.h
ip6_tunnel.h	ipv6.h
ip6_tunnel.h	netdevice.h
ip_fib.h	fib_rules.h
ip_fib.h	flow.h
ip_fib.h	inetpeer.h
ip_fib.h	percpu.h
ip_fib.h	rcupdate.h
ip_fib.h	seq_file.h
ipcomp.h	types.h
ipip.h	gro_cells.h
ipip.h	if_tunnel.h
ipip.h	ip.h
ipv4.h	inet_frag.h
ipv4.h	uidgid.h
ipv6.h	flow.h
ipv6.h	flow.h
ipv6.h	hardirq.h
ipv6.h	hardirq.h
ipv6.h	if_inet6.h
ipv6.h	if_inet6.h
ipv6.h	ipv6.h
ipv6.h	ipv6.h
ipv6.h	ndisc.h
ipv6.h	ndisc.h
ipv6.h	snmp.h
ipv6.h	snmp.h
ipv6.h	sock.h
ipv6.h	sock.h
ipx.h	datalink.h
ipx.h	ipx.h
ipx.h	list.h
ipx.h	netdevice.h
ipx.h	slab.h
ipx.h	sock.h
ircomm_core.h	ircomm_event.h
ircomm_core.h	irda.h
ircomm_core.h	irqueue.h
ircomm_event.h	irmod.h
ircomm_lmp.h	ircomm_core.h
ircomm_param.h	parameters.h
ircomm_ttp.h	ircomm_core.h
ircomm_tty.h	ircomm_core.h
ircomm_tty.h	ircomm_param.h
ircomm_tty.h	irias_object.h
ircomm_tty.h	serial.h
ircomm_tty.h	termios.h
ircomm_tty.h	timer.h
ircomm_tty.h	tty.h
ircomm_tty_attach.h	ircomm_tty.h
irda.h	irda.h
irda.h	irda.h
irda.h	kernel.h
irda.h	skbuff.h
irda_device.h	irda.h
irda_device.h	irda.h
irda_device.h	irqueue.h
irda_device.h	netdevice.h
irda_device.h	pkt_sched.h
irda_device.h	qos.h
irda_device.h	skbuff.h
irda_device.h	spinlock.h
irda_device.h	tty.h
irda_device.h	types.h
iriap.h	iriap_event.h
iriap.h	irias_object.h
iriap.h	irqueue.h
iriap.h	skbuff.h
iriap.h	timer.h
iriap.h	types.h
irias_object.h	irda.h
irias_object.h	irqueue.h
irlan_client.h	irias_object.h
irlan_client.h	irlan_event.h
irlan_client.h	kernel.h
irlan_client.h	netdevice.h
irlan_client.h	skbuff.h
irlan_client.h	types.h
irlan_common.h	irttp.h
irlan_common.h	kernel.h
irlan_common.h	netdevice.h
irlan_common.h	param.h
irlan_common.h	skbuff.h
irlan_common.h	types.h
irlan_event.h	irlan_common.h
irlan_event.h	kernel.h
irlan_event.h	skbuff.h
irlan_provider.h	irlan_common.h
irlan_provider.h	kernel.h
irlan_provider.h	netdevice.h
irlan_provider.h	skbuff.h
irlan_provider.h	types.h
irlap.h	discovery.h
irlap.h	irlap_event.h
irlap.h	irmod.h
irlap.h	irqueue.h
irlap.h	netdevice.h
irlap.h	qos.h
irlap.h	skbuff.h
irlap.h	timer.h
irlap.h	types.h
irlap_event.h	irda.h
irlap_frame.h	irda.h
irlap_frame.h	skbuff.h
irlmp.h	discovery.h
irlmp.h	irda.h
irlmp.h	irlap.h
irlmp.h	irlmp_event.h
irlmp.h	irqueue.h
irlmp.h	param.h
irlmp.h	qos.h
irlmp.h	types.h
irlmp_frame.h	discovery.h
irlmp_frame.h	skbuff.h
irq.h	define_trace.h
irq.h	tracepoint.h
irq_comm.c	ioapic.h
irq_comm.c	iosapic.h
irq_comm.c	irq.h
irq_comm.c	kvm.h
irq_comm.c	kvm_host.h
irq_comm.c	msidef.h
irq_comm.c	slab.h
irqueue.h	spinlock.h
irqueue.h	types.h
irttp.h	irda.h
irttp.h	irlmp.h
irttp.h	irqueue.h
irttp.h	qos.h
irttp.h	skbuff.h
irttp.h	spinlock.h
irttp.h	types.h
iscsi_if.h	in.h
iscsi_if.h	in6.h
iscsi_if.h	iscsi_proto.h
iscsi_proto.h	scsi.h
iscsi_proto.h	types.h
iw_cm.h	ib_cm.h
iw_cm.h	in.h
iw_handler.h	if_ether.h
iw_handler.h	wireless.h
jbd.h	define_trace.h
jbd.h	jbd.h
jbd.h	tracepoint.h
jbd2.h	define_trace.h
jbd2.h	jbd2.h
jbd2.h	tracepoint.h
keyring-type.h	key.h
keyring-type.h	rcupdate.h
kmem.h	define_trace.h
kmem.h	gfpflags.h
kmem.h	tracepoint.h
kmem.h	types.h
kvm.h	define_trace.h
kvm.h	tracepoint.h
kvm_main.c	anon_inodes.h
kvm_main.c	async_pf.h
kvm_main.c	bitops.h
kvm_main.c	bsearch.h
kvm_main.c	coalesced_mmio.h
kvm_main.c	compat.h
kvm_main.c	cpu.h
kvm_main.c	cpumask.h
kvm_main.c	debugfs.h
kvm_main.c	errno.h
kvm_main.c	file.h
kvm_main.c	highmem.h
kvm_main.c	hugetlb.h
kvm_main.c	io.h
kvm_main.c	iodev.h
kvm_main.c	kvm.h
kvm_main.c	kvm.h
kvm_main.c	kvm_host.h
kvm_main.c	kvm_para.h
kvm_main.c	miscdevice.h
kvm_main.c	mm.h
kvm_main.c	mman.h
kvm_main.c	module.h
kvm_main.c	pagemap.h
kvm_main.c	percpu.h
kvm_main.c	pgtable.h
kvm_main.c	processor.h
kvm_main.c	profile.h
kvm_main.c	reboot.h
kvm_main.c	sched.h
kvm_main.c	slab.h
kvm_main.c	smp.h
kvm_main.c	sort.h
kvm_main.c	spinlock.h
kvm_main.c	srcu.h
kvm_main.c	swap.h
kvm_main.c	syscore_ops.h
kvm_main.c	uaccess.h
kvm_main.c	vmalloc.h
lapb.h	lapb.h
libfc.h	fc_els.h
libfc.h	fc_fcp.h
libfc.h	fc_frame.h
libfc.h	fc_gs.h
libfc.h	fc_ms.h
libfc.h	fc_ns.h
libfc.h	if.h
libfc.h	percpu.h
libfc.h	scsi_bsg_fc.h
libfc.h	scsi_transport.h
libfc.h	scsi_transport_fc.h
libfc.h	timer.h
libfcoe.h	etherdevice.h
libfcoe.h	fc_fcoe.h
libfcoe.h	fcoe_sysfs.h
libfcoe.h	if_ether.h
libfcoe.h	libfc.h
libfcoe.h	netdevice.h
libfcoe.h	random.h
libfcoe.h	skbuff.h
libfcoe.h	workqueue.h
libiscsi.h	iscsi_if.h
libiscsi.h	iscsi_proto.h
libiscsi.h	kfifo.h
libiscsi.h	mutex.h
libiscsi.h	scsi_transport_iscsi.h
libiscsi.h	timer.h
libiscsi.h	types.h
libiscsi.h	wait.h
libiscsi.h	workqueue.h
libiscsi_tcp.h	libiscsi.h
libsas.h	libata.h
libsas.h	list.h
libsas.h	pci.h
libsas.h	sas.h
libsas.h	scatterlist.h
libsas.h	scsi_cmnd.h
libsas.h	scsi_device.h
libsas.h	scsi_transport_sas.h
libsas.h	slab.h
libsas.h	timer.h
libsrp.h	kfifo.h
libsrp.h	list.h
libsrp.h	scsi_cmnd.h
libsrp.h	scsi_host.h
libsrp.h	srp.h
llc.h	atomic.h
llc.h	atomic.h
llc.h	hash.h
llc.h	hash.h
llc.h	if.h
llc.h	if.h
llc.h	if_ether.h
llc.h	if_ether.h
llc.h	jhash.h
llc.h	jhash.h
llc.h	list.h
llc.h	list.h
llc.h	rculist_nulls.h
llc.h	rculist_nulls.h
llc.h	spinlock.h
llc.h	spinlock.h
llc_c_ev.h	sock.h
llc_conn.h	llc.h
llc_conn.h	llc_if.h
llc_conn.h	sock.h
llc_conn.h	timer.h
llc_if.h	etherdevice.h
llc_if.h	if.h
llc_if.h	if_arp.h
llc_if.h	llc.h
llc_if.h	llc.h
llc_pdu.h	if_ether.h
llc_sap.h	types.h
lock.h	define_trace.h
lock.h	lockdep.h
lock.h	tracepoint.h
mac802154.h	af_ieee802154.h
mce.h	define_trace.h
mce.h	ktime.h
mce.h	mce.h
mce.h	tracepoint.h
mib.h	snmp.h
migrate.h	define_trace.h
mip6.h	skbuff.h
mip6.h	sock.h
module.h	define_trace.h
module.h	tracepoint.h
napi.h	define_trace.h
napi.h	ftrace.h
napi.h	netdevice.h
napi.h	tracepoint.h
nci_core.h	interrupt.h
nci_core.h	nci.h
nci_core.h	nfc.h
nci_core.h	skbuff.h
neighbour.h	atomic.h
neighbour.h	err.h
neighbour.h	neighbour.h
neighbour.h	netdevice.h
neighbour.h	rcupdate.h
neighbour.h	rtnetlink.h
neighbour.h	seq_file.h
neighbour.h	skbuff.h
neighbour.h	sysctl.h
neighbour.h	workqueue.h
net.h	define_trace.h
net.h	ip.h
net.h	netdevice.h
net.h	skbuff.h
net.h	tracepoint.h
net_ratelimit.h	ratelimit.h
netlabel.h	atomic.h
netlabel.h	in.h
netlabel.h	in6.h
netlabel.h	net.h
netlabel.h	netlink.h
netlabel.h	request_sock.h
netlabel.h	skbuff.h
netlabel.h	slab.h
netlabel.h	types.h
netlink.h	jiffies.h
netlink.h	netlink.h
netlink.h	types.h
nexthop.h	netlink.h
nexthop.h	rtnetlink.h
nfc.h	device.h
nfc.h	nfc.h
nfc.h	skbuff.h
oom.h	define_trace.h
oom.h	tracepoint.h
osd_attributes.h	osd_protocol.h
osd_initiator.h	blkdev.h
osd_initiator.h	osd_protocol.h
osd_initiator.h	osd_types.h
osd_initiator.h	scsi_device.h
osd_ore.h	bug.h
osd_ore.h	osd_attributes.h
osd_ore.h	osd_initiator.h
osd_ore.h	osd_sec.h
osd_ore.h	pnfs_osd_xdr.h
osd_protocol.h	kernel.h
osd_protocol.h	scsi.h
osd_protocol.h	types.h
osd_protocol.h	unaligned.h
osd_sec.h	osd_protocol.h
osd_sec.h	osd_types.h
osd_sense.h	osd_protocol.h
packet.h	mutex.h
packet.h	mutex.h
packet.h	rculist.h
packet.h	rculist.h
ping.h	hash.h
pkt_cls.h	act_api.h
pkt_cls.h	net_namespace.h
pkt_cls.h	pkt_cls.h
pkt_cls.h	sch_generic.h
pkt_sched.h	jiffies.h
pkt_sched.h	ktime.h
pkt_sched.h	sch_generic.h
power.h	define_trace.h
power.h	ktime.h
power.h	tracepoint.h
printk.h	define_trace.h
printk.h	tracepoint.h
protocol.h	in6.h
protocol.h	ipv6.h
protocol.h	netdevice.h
protocol.h	skbuff.h
qos.h	parameters.h
qos.h	skbuff.h
random.h	define_trace.h
random.h	tracepoint.h
random.h	writeback.h
ras_event.h	define_trace.h
ras_event.h	edac.h
ras_event.h	ktime.h
ras_event.h	tracepoint.h
raw.h	icmp.h
raw.h	protocol.h
rcu.h	define_trace.h
rcu.h	tracepoint.h
rdma_cm.h	ib_addr.h
rdma_cm.h	ib_sa.h
rdma_cm.h	in6.h
rdma_cm.h	socket.h
rdma_cm_ib.h	rdma_cm.h
rdma_netlink.h	netlink.h
rdma_netlink.h	rdma_netlink.h
red.h	bug.h
red.h	dsfield.h
red.h	inet_ecn.h
red.h	pkt_sched.h
red.h	reciprocal_div.h
red.h	types.h
regmap.h	define_trace.h
regmap.h	ktime.h
regmap.h	tracepoint.h
regulator.h	define_trace.h
regulator.h	ktime.h
regulator.h	tracepoint.h
request_sock.h	bug.h
request_sock.h	slab.h
request_sock.h	sock.h
request_sock.h	spinlock.h
request_sock.h	types.h
rose.h	rose.h
rose.h	sock.h
rpm.h	define_trace.h
rpm.h	ktime.h
rpm.h	tracepoint.h
rxrpc-type.h	key.h
sas.h	byteorder.h
sas.h	types.h
sas_ata.h	libata.h
sas_ata.h	libsas.h
sched.h	binfmts.h
sched.h	define_trace.h
sched.h	sched.h
sched.h	tracepoint.h
scm.h	limits.h
scm.h	net.h
scm.h	nsproxy.h
scm.h	pid.h
scm.h	security.h
scsi.h	scatterlist.h
scsi.h	scatterlist.h
scsi.h	types.h
scsi.h	types.h
scsi_bsg_iscsi.h	scsi.h
scsi_cmnd.h	blkdev.h
scsi_cmnd.h	dma-mapping.h
scsi_cmnd.h	list.h
scsi_cmnd.h	scatterlist.h
scsi_cmnd.h	timer.h
scsi_cmnd.h	types.h
scsi_device.h	atomic.h
scsi_device.h	blkdev.h
scsi_device.h	list.h
scsi_device.h	scsi.h
scsi_device.h	spinlock.h
scsi_device.h	workqueue.h
scsi_dh.h	scsi_device.h
scsi_driver.h	device.h
scsi_eh.h	scatterlist.h
scsi_eh.h	scsi_cmnd.h
scsi_host.h	device.h
scsi_host.h	list.h
scsi_host.h	mutex.h
scsi_host.h	scsi.h
scsi_host.h	types.h
scsi_host.h	workqueue.h
scsi_netlink.h	netlink.h
scsi_netlink.h	types.h
scsi_netlink_fc.h	scsi_netlink.h
scsi_tcq.h	blkdev.h
scsi_tcq.h	scsi_cmnd.h
scsi_tcq.h	scsi_device.h
scsi_tcq.h	scsi_host.h
scsi_tgt.h	dma-mapping.h
scsi_transport.h	blkdev.h
scsi_transport.h	bug.h
scsi_transport.h	scsi_device.h
scsi_transport.h	scsi_host.h
scsi_transport.h	transport_class.h
scsi_transport_fc.h	sched.h
scsi_transport_fc.h	scsi.h
scsi_transport_fc.h	scsi_netlink.h
scsi_transport_iscsi.h	device.h
scsi_transport_iscsi.h	iscsi_if.h
scsi_transport_iscsi.h	list.h
scsi_transport_iscsi.h	mutex.h
scsi_transport_sas.h	mutex.h
scsi_transport_sas.h	sas.h
scsi_transport_sas.h	transport_class.h
scsi_transport_sas.h	types.h
scsi_transport_spi.h	mutex.h
scsi_transport_spi.h	transport_class.h
scsi_transport_srp.h	mutex.h
scsi_transport_srp.h	transport_class.h
scsi_transport_srp.h	types.h
sctp.h	constants.h
sctp.h	constants.h
sctp.h	idr.h
sctp.h	idr.h
sctp.h	in.h
sctp.h	in.h
sctp.h	ip6_route.h
sctp.h	ip6_route.h
sctp.h	ipv6.h
sctp.h	ipv6.h
sctp.h	jiffies.h
sctp.h	jiffies.h
sctp.h	page.h
sctp.h	page.h
sctp.h	proc_fs.h
sctp.h	proc_fs.h
sctp.h	slab.h
sctp.h	slab.h
sctp.h	snmp.h
sctp.h	snmp.h
sctp.h	sock.h
sctp.h	sock.h
sctp.h	spinlock.h
sctp.h	spinlock.h
sctp.h	structs.h
sctp.h	structs.h
sctp.h	test_frame.h
sctp.h	test_frame.h
sctp.h	tty.h
sctp.h	tty.h
sctp.h	types.h
sctp.h	types.h
sctp.h	uaccess.h
sctp.h	uaccess.h
sg.h	compiler.h
signal.h	define_trace.h
signal.h	sched.h
signal.h	signal.h
signal.h	tracepoint.h
skb.h	define_trace.h
skb.h	netdevice.h
skb.h	skbuff.h
skb.h	tracepoint.h
slhc_vj.h	ip.h
slhc_vj.h	tcp.h
sm.h	command.h
sm.h	compiler.h
sm.h	in.h
sm.h	sctp.h
sm.h	slab.h
sm.h	types.h
snmp.h	cache.h
snmp.h	smp.h
snmp.h	snmp.h
snmp.h	u64_stats_sync.h
sock.h	aio.h
sock.h	aio.h
sock.h	atomic.h
sock.h	atomic.h
sock.h	bitops.h
sock.h	bitops.h
sock.h	cache.h
sock.h	cache.h
sock.h	checksum.h
sock.h	checksum.h
sock.h	dst.h
sock.h	dst.h
sock.h	filter.h
sock.h	filter.h
sock.h	hardirq.h
sock.h	hardirq.h
sock.h	kernel.h
sock.h	kernel.h
sock.h	list.h
sock.h	list.h
sock.h	list_nulls.h
sock.h	list_nulls.h
sock.h	lockdep.h
sock.h	lockdep.h
sock.h	memcontrol.h
sock.h	memcontrol.h
sock.h	mm.h
sock.h	mm.h
sock.h	netdevice.h
sock.h	netdevice.h
sock.h	poll.h
sock.h	poll.h
sock.h	rculist_nulls.h
sock.h	rculist_nulls.h
sock.h	res_counter.h
sock.h	res_counter.h
sock.h	sched.h
sock.h	sched.h
sock.h	security.h
sock.h	security.h
sock.h	skbuff.h
sock.h	skbuff.h
sock.h	slab.h
sock.h	slab.h
sock.h	static_key.h
sock.h	static_key.h
sock.h	timer.h
sock.h	timer.h
sock.h	uaccess.h
sock.h	uaccess.h
srp.h	types.h
ss.h	device.h
ss.h	mutex.h
ss.h	pci.h
ss.h	sched.h
structs.h	atomic.h
structs.h	auth.h
structs.h	in.h
structs.h	in6.h
structs.h	ipv6.h
structs.h	param.h
structs.h	sctp.h
structs.h	skbuff.h
structs.h	socket.h
structs.h	time.h
structs.h	tsnmap.h
structs.h	ulpevent.h
structs.h	ulpqueue.h
structs.h	workqueue.h
sunrpc.h	clnt.h
sunrpc.h	define_trace.h
sunrpc.h	sched.h
sunrpc.h	tracepoint.h
syscall.h	ftrace_event.h
syscall.h	ptrace.h
syscall.h	tracepoint.h
syscall.h	unistd.h
syscalls.h	define_trace.h
syscalls.h	ptrace.h
syscalls.h	syscall.h
syscalls.h	tracepoint.h
task.h	define_trace.h
task.h	tracepoint.h
tc_csum.h	act_api.h
tc_csum.h	types.h
tc_defact.h	act_api.h
tc_gact.h	act_api.h
tc_ipt.h	act_api.h
tc_mirred.h	act_api.h
tc_nat.h	act_api.h
tc_nat.h	types.h
tc_pedit.h	act_api.h
tc_skbedit.h	act_api.h
timer.h	irda.h
timer.h	irda.h
timer.h	jiffies.h
timer.h	jiffies.h
timer.h	param.h
timer.h	param.h
timer.h	timer.h
timer.h	timer.h
transp_v6.h	checksum.h
trusted-type.h	key.h
trusted-type.h	rcupdate.h
tsnmap.h	constants.h
types.h	atomic.h
types.h	in.h
types.h	list.h
types.h	socket.h
types.h	spinlock.h
types.h	types.h
udp.h	bug.h
udp.h	bug.h
udp.h	inet_sock.h
udp.h	inet_sock.h
udp.h	ip.h
udp.h	ip.h
udp.h	ipv6.h
udp.h	ipv6.h
udp.h	list.h
udp.h	list.h
udp.h	poll.h
udp.h	poll.h
udp.h	seq_file.h
udp.h	seq_file.h
udp.h	snmp.h
udp.h	snmp.h
udp.h	sock.h
udp.h	sock.h
udplite.h	ip6_checksum.h
user-type.h	key.h
user-type.h	rcupdate.h
user.h	socket.h
user.h	types.h
vmscan.h	define_trace.h
vmscan.h	gfpflags.h
vmscan.h	memcontrol.h
vmscan.h	mm.h
vmscan.h	tracepoint.h
vmscan.h	types.h
wext.h	iw_handler.h
wimax.h	genetlink.h
wimax.h	netdevice.h
wimax.h	wimax.h
workqueue.h	define_trace.h
workqueue.h	tracepoint.h
workqueue.h	workqueue.h
wpan-phy.h	bug.h
wpan-phy.h	mutex.h
wpan-phy.h	netdevice.h
wrapper.h	irda_device.h
wrapper.h	netdevice.h
wrapper.h	skbuff.h
wrapper.h	types.h
writeback.h	backing-dev.h
writeback.h	define_trace.h
writeback.h	writeback.h
x25device.h	if_ether.h
x25device.h	if_packet.h
x25device.h	if_x25.h
x25device.h	skbuff.h
x_tables.h	list.h
x_tables.h	netfilter.h
xen.h	define_trace.h
xen.h	paravirt_types.h
xen.h	trace_types.h
xen.h	tracepoint.h
xfrm.h	dst_ops.h
xfrm.h	list.h
xfrm.h	wait.h
xfrm.h	workqueue.h
xfrm.h	xfrm.h
