ac97_codec.h	bitops.h
ac97_codec.h	control.h
ac97_codec.h	device.h
ac97_codec.h	info.h
ac97_codec.h	pcm.h
ac97_codec.h	workqueue.h
acenv.h	acdos16.h
acenv.h	acefi.h
acenv.h	acfreebsd.h
acenv.h	aclinux.h
acenv.h	acmodesto.h
acenv.h	acnetbsd.h
acenv.h	acnetware.h
acenv.h	acsolaris.h
acenv.h	acwin.h
acenv.h	acwin64.h
acenv.h	ctype.h
acenv.h	stdarg.h
acenv.h	stdlib.h
acenv.h	string.h
aclinux.h	acgcc.h
aclinux.h	acpi.h
aclinux.h	actypes.h
aclinux.h	atomic.h
aclinux.h	ctype.h
aclinux.h	ctype.h
aclinux.h	current.h
aclinux.h	div64.h
aclinux.h	kernel.h
aclinux.h	sched.h
aclinux.h	slab.h
aclinux.h	spinlock_types.h
aclinux.h	stdarg.h
aclinux.h	stdlib.h
aclinux.h	string.h
aclinux.h	string.h
aclinux.h	unistd.h
acpi.h	acenv.h
acpi.h	acenv.h
acpi.h	acexcep.h
acpi.h	acexcep.h
acpi.h	acnames.h
acpi.h	acnames.h
acpi.h	acoutput.h
acpi.h	acoutput.h
acpi.h	acpiosxf.h
acpi.h	acpiosxf.h
acpi.h	acpixf.h
acpi.h	acpixf.h
acpi.h	acrestyp.h
acpi.h	acrestyp.h
acpi.h	actbl.h
acpi.h	actbl.h
acpi.h	actypes.h
acpi.h	actypes.h
acpi_bus.h	acpi.h
acpi_bus.h	device.h
acpi_bus.h	proc_fs.h
acpi_drivers.h	acpi.h
acpi_drivers.h	acpi_bus.h
acpi_numa.h	kernel.h
acpiosxf.h	acenv.h
acpiosxf.h	actypes.h
acpixf.h	acbuffer.h
acpixf.h	acconfig.h
acpixf.h	actbl.h
acpixf.h	actypes.h
actbl.h	actbl1.h
actbl.h	actbl2.h
actbl.h	actbl3.h
ad1816a.h	control.h
ad1816a.h	pcm.h
ad1816a.h	timer.h
ak4531_codec.h	control.h
ak4531_codec.h	info.h
amd-iommu.h	types.h
apei.h	acpi.h
apei.h	cper.h
apei.h	ioctls.h
arp_tables.h	arp_tables.h
arp_tables.h	compat.h
arp_tables.h	if.h
arp_tables.h	if_arp.h
arp_tables.h	in.h
arp_tables.h	skbuff.h
asound.h	asound.h
asound.h	byteorder.h
asound.h	ioctl.h
asound.h	time.h
atm.h	atm.h
atm.h	compat.h
atmel-abdac.h	dw_dmac.h
atmel_lcdc.h	workqueue.h
bitmap.h	bitops.h
bitmap.h	kernel.h
bitmap.h	string.h
bitmap.h	types.h
blkif.h	grant_table.h
blkif.h	ring.h
buffer_head.h	atomic.h
buffer_head.h	fs.h
buffer_head.h	linkage.h
buffer_head.h	pagemap.h
buffer_head.h	types.h
buffer_head.h	wait.h
bus.h	clk.h
bus.h	consumer.h
bus.h	device.h
bus.h	err.h
bus.h	mod_devicetable.h
bus.h	resource.h
button.h	notifier.h
callback.h	xen.h
cn_proc.h	cn_proc.h
compat.h	aio_abi.h
compat.h	compat.h
compat.h	fs.h
compat.h	if.h
compat.h	param.h
compat.h	sem.h
compat.h	siginfo.h
compat.h	signal.h
compat.h	socket.h
compat.h	stat.h
completion.h	wait.h
compress_driver.h	asound.h
compress_driver.h	compress_offload.h
compress_driver.h	pcm.h
compress_driver.h	sched.h
compress_driver.h	types.h
configfs.h	atomic.h
configfs.h	err.h
configfs.h	kernel.h
configfs.h	kref.h
configfs.h	list.h
configfs.h	mutex.h
configfs.h	types.h
consumer.h	err.h
consumer.h	list.h
consumer.h	pinctrl-state.h
consumer.h	seq_file.h
container.h	kernel.h
control.h	asound.h
core.h	mutex.h
core.h	pm.h
core.h	rwsem.h
core.h	sched.h
core.h	stringify.h
cpumask.h	bitmap.h
cpumask.h	bug.h
cpumask.h	kernel.h
cpumask.h	threads.h
cs8427.h	i2c.h
cvisionppc.h	pm2fb.h
debug.h	debug-levels.h
debug.h	debug.h
debug.h	slab.h
debug.h	types.h
debugobjects.h	list.h
debugobjects.h	spinlock.h
delay.h	delay.h
delay.h	kernel.h
devpts_fs.h	errno.h
dma-debug.h	types.h
dmaengine_pcm.h	dmaengine.h
dmaengine_pcm.h	pcm.h
dqblk_qtree.h	types.h
dw_dmac.h	dmaengine.h
dynamic_debug.h	errno.h
dynamic_debug.h	string.h
elfcore-compat.h	compat.h
elfcore-compat.h	elf.h
elfcore-compat.h	elfcore.h
elfcore.h	bug.h
elfcore.h	elf.h
elfcore.h	elfcore.h
elfcore.h	user.h
emu10k1_synth.h	emu10k1.h
emu10k1_synth.h	emux_synth.h
emux_legacy.h	seq_oss_legacy.h
emux_synth.h	emux_legacy.h
emux_synth.h	seq_device.h
emux_synth.h	seq_kernel.h
emux_synth.h	seq_midi_emul.h
emux_synth.h	seq_oss.h
emux_synth.h	seq_virmidi.h
emux_synth.h	soundfont.h
event_channel.h	xen.h
events.h	event_channel.h
events.h	events.h
events.h	hypercall.h
events.h	interrupt.h
exynos_mipi_dsim.h	device.h
exynos_mipi_dsim.h	fb.h
features.h	features.h
features.h	features.h
fec.h	phy.h
flat.h	byteorder.h
flat.h	flat.h
flat.h	flat.h
flex_array.h	page.h
flex_array.h	types.h
fsl_hypervisor.h	fsl_hypervisor.h
fsnotify.h	audit.h
fsnotify.h	bug.h
fsnotify.h	fsnotify_backend.h
fsnotify.h	slab.h
ftrace_event.h	hardirq.h
ftrace_event.h	percpu.h
ftrace_event.h	perf_event.h
ftrace_event.h	ring_buffer.h
ftrace_event.h	trace_seq.h
genl_magic_func.h	genl_magic_struct.h
genl_magic_func.h	stringify.h
grant_table.h	features.h
grant_table.h	features.h
grant_table.h	grant_table.h
grant_table.h	grant_table.h
grant_table.h	hypervisor.h
grant_table.h	hypervisor.h
grant_table.h	page.h
grant_table.h	page.h
grant_table.h	xen.h
grant_table.h	xen.h
gus.h	io.h
gus.h	pcm.h
gus.h	rawmidi.h
gus.h	seq_device.h
gus.h	seq_midi_emul.h
gus.h	timer.h
hed.h	notifier.h
highuid.h	types.h
hpet.h	hpet.h
hsi.h	device.h
hsi.h	list.h
hsi.h	module.h
hsi.h	mutex.h
hsi.h	notifier.h
hsi.h	scatterlist.h
hugetlb_cgroup.h	res_counter.h
hvm.h	hypercall.h
hvm.h	params.h
hwdep.h	asound.h
hwdep.h	poll.h
i2c-dev.h	i2c-dev.h
if_arp.h	if_arp.h
if_arp.h	skbuff.h
initval.h	interrupt.h
inotify.h	inotify.h
inotify.h	sysctl.h
intel_mid_dma.h	dmaengine.h
interval_tree.h	rbtree.h
ipc.h	ipc.h
ipc.h	spinlock.h
ipc.h	uidgid.h
ipv6_route.h	ipv6_route.h
jack.h	core.h
khugepaged.h	sched.h
kthread.h	err.h
kthread.h	sched.h
l2tp.h	in.h
l2tp.h	in6.h
l2tp.h	l2tp.h
lcm.h	compiler.h
leds-pca9532.h	leds.h
leds-pca9532.h	workqueue.h
lguest_launcher.h	types.h
lockdep.h	debug_locks.h
lockdep.h	linkage.h
lockdep.h	list.h
lockdep.h	stacktrace.h
machine.h	bug.h
machine.h	pinctrl-state.h
math64.h	div64.h
math64.h	types.h
maxinefb.h	addrspace.h
mbxfb.h	ioctl.h
mbxfb.h	types.h
mdio-bitbang.h	phy.h
mdio-mux.h	device.h
memory.h	spinlock.h
memory_hotplug.h	bug.h
memory_hotplug.h	mmzone.h
memory_hotplug.h	notifier.h
memory_hotplug.h	spinlock.h
mempolicy.h	mempolicy.h
mempolicy.h	mmzone.h
mempolicy.h	nodemask.h
mempolicy.h	pagemap.h
mempolicy.h	rbtree.h
mempolicy.h	slab.h
mempolicy.h	spinlock.h
mempool.h	wait.h
mm.h	fs.h
mm.h	init.h
mm.h	kernel.h
mm.h	slab.h
mm.h	string.h
mm.h	vmalloc.h
mmci.h	host.h
mmiotrace.h	list.h
mmiotrace.h	types.h
mpu401.h	interrupt.h
mpu401.h	rawmidi.h
mroute.h	in.h
mroute.h	mroute.h
mroute.h	pim.h
mroute.h	sock.h
netif.h	grant_table.h
netif.h	ring.h
nfs4.h	list.h
nfs4.h	nfs4.h
nfs_idmap.h	nfs_idmap.h
nmi.h	irq.h
nmi.h	nmi.h
nmi.h	sched.h
nubus.h	nubus.h
nubus.h	nubus.h
of_device.h	mod_devicetable.h
of_device.h	of.h
of_device.h	of_platform.h
of_device.h	platform_device.h
omapdss.h	device.h
omapdss.h	interrupt.h
omapdss.h	kobject.h
omapdss.h	list.h
opl3.h	asound_fm.h
opl3.h	core.h
opl3.h	hwdep.h
opl3.h	seq_device.h
opl3.h	seq_midi_emul.h
opl3.h	seq_oss.h
opl3.h	seq_oss_legacy.h
opl3.h	timer.h
page.h	page.h
pageblock-flags.h	types.h
params.h	hvm_op.h
pata_arasan_cf_data.h	platform_device.h
pci.h	atomic.h
pci.h	compiler.h
pci.h	device.h
pci.h	dmapool.h
pci.h	errno.h
pci.h	init.h
pci.h	io.h
pci.h	ioport.h
pci.h	irqreturn.h
pci.h	kobject.h
pci.h	list.h
pci.h	mod_devicetable.h
pci.h	pci-dma.h
pci.h	pci.h
pci.h	pci.h
pci.h	pci_ids.h
pci.h	types.h
pcm-indirect.h	pcm.h
pcm_params.h	pcm.h
pinctrl.h	list.h
pinctrl.h	pinctrl-state.h
pinctrl.h	radix-tree.h
pinctrl.h	seq_file.h
pinmux.h	list.h
pinmux.h	pinctrl.h
pinmux.h	seq_file.h
pl022.h	types.h
pl061.h	types.h
pl330.h	dmaengine.h
platform.h	xen.h
platform_device.h	device.h
platform_device.h	mod_devicetable.h
pm.h	completion.h
pm.h	list.h
pm.h	spinlock.h
pm.h	timer.h
pm.h	wait.h
pm.h	workqueue.h
posix-clock.h	cdev.h
posix-clock.h	fs.h
posix-clock.h	poll.h
posix-clock.h	posix-timers.h
posix-clock.h	rwsem.h
prefetch.h	cache.h
prefetch.h	processor.h
prefetch.h	types.h
printk.h	init.h
printk.h	kern_levels.h
prio_heap.h	gfp.h
processor.h	acpi.h
processor.h	cpu.h
processor.h	kernel.h
processor.h	thermal.h
ptp_classify.h	filter.h
ptp_classify.h	if_ether.h
ptp_classify.h	if_vlan.h
ptp_classify.h	in.h
ptp_classify.h	in.h
ptp_classify.h	ip.h
pwm_backlight.h	backlight.h
pxa168fb.h	fb.h
pxa168fb.h	interrupt.h
pxa2xx-lib.h	ac97_codec.h
pxa2xx-lib.h	platform_device.h
rawmidi.h	asound.h
rawmidi.h	interrupt.h
rawmidi.h	mutex.h
rawmidi.h	seq_device.h
rawmidi.h	spinlock.h
rawmidi.h	wait.h
rawmidi.h	workqueue.h
rculist_nulls.h	list_nulls.h
rculist_nulls.h	rcupdate.h
relay.h	bug.h
relay.h	fs.h
relay.h	kref.h
relay.h	list.h
relay.h	poll.h
relay.h	sched.h
relay.h	timer.h
relay.h	types.h
relay.h	wait.h
resume-trace.h	resume-trace.h
resume-trace.h	types.h
sa1100fb.h	fb.h
sa1100fb.h	types.h
sched.h	event_channel.h
sched.h	event_channel.h
semaphore.h	list.h
semaphore.h	spinlock.h
seq_midi_emul.h	seq_kernel.h
seq_oss.h	asequencer.h
seq_oss.h	seq_kernel.h
seq_oss_legacy.h	soundcard.h
serial_pnx8xxx.h	serial_core.h
sh_clk.h	clk.h
sh_clk.h	cpufreq.h
sh_clk.h	err.h
sh_clk.h	kref.h
sh_clk.h	list.h
sh_clk.h	seq_file.h
sh_clk.h	types.h
sh_mobile_lcdc.h	fb.h
sh_mobile_lcdc.h	sh_mobile_meram.h
shm.h	page.h
shm.h	shm.h
shm.h	shmparam.h
simple_card.h	soc.h
sisfb.h	ioctl.h
sisfb.h	pci.h
sisfb.h	types.h
soft-fp.h	endian.h
soft-fp.h	longlong.h
soft-fp.h	op-1.h
soft-fp.h	op-2.h
soft-fp.h	op-4.h
soft-fp.h	op-8.h
soft-fp.h	op-common.h
soft-fp.h	sfp-machine.h
sonet.h	atomic.h
sonet.h	sonet.h
sort.h	types.h
soundfont.h	sfnt_info.h
soundfont.h	util_mem.h
spear_dma.h	dmaengine.h
statfs.h	statfs.h
statfs.h	types.h
stddef.h	stddef.h
ste_modem_shm.h	platform_device.h
ste_modem_shm.h	types.h
swab.h	swab.h
swap.h	atomic.h
swap.h	linkage.h
swap.h	list.h
swap.h	memcontrol.h
swap.h	mmzone.h
swap.h	node.h
swap.h	page.h
swap.h	sched.h
swap.h	spinlock.h
swiotlb-xen.h	swiotlb.h
tcp.h	dmaengine.h
tcp.h	inet_connection_sock.h
tcp.h	inet_timewait_sock.h
tcp.h	skbuff.h
tcp.h	sock.h
tcp.h	tcp.h
tdfx.h	i2c-algo-bit.h
tdfx.h	i2c.h
tea575x-tuner.h	v4l2-ctrls.h
tea575x-tuner.h	v4l2-dev.h
tea575x-tuner.h	v4l2-device.h
tea575x-tuner.h	videodev2.h
tea6330t.h	i2c.h
time.h	time.h
timer.h	asound.h
timer.h	interrupt.h
timex.h	compiler.h
timex.h	param.h
timex.h	timex.h
timex.h	timex.h
timex.h	types.h
tmem.h	types.h
tty.h	fs.h
tty.h	major.h
tty.h	mutex.h
tty.h	termios.h
tty.h	tty.h
tty.h	tty_driver.h
tty.h	tty_flags.h
tty.h	tty_ldisc.h
tty.h	workqueue.h
types.h	types.h
uaccess.h	preempt.h
uaccess.h	uaccess.h
uvesafb.h	types.h
version.h	features.h
vga.h	byteorder.h
vga.h	io.h
vga.h	types.h
vga.h	vga.h
video.h	errno.h
vmalloc.h	init.h
vmalloc.h	page.h
vmalloc.h	spinlock.h
vt_buffer.h	vga.h
vx_core.h	hwdep.h
vx_core.h	interrupt.h
vx_core.h	pcm.h
wm97xx.h	ac97_codec.h
wm97xx.h	core.h
wm97xx.h	initval.h
wm97xx.h	input.h
wm97xx.h	list.h
wm97xx.h	pcm.h
wm97xx.h	platform_device.h
wm97xx.h	types.h
wss.h	control.h
wss.h	cs4231-regs.h
wss.h	pcm.h
wss.h	timer.h
xen-ops.h	interface.h
xen-ops.h	percpu.h
xen.h	interface.h
xen.h	interface.h
xenbus_dev.h	ioctl.h
xencomm.h	xencomm.h
xencomm.h	xencomm.h
