a.out.h	a.out.h
a.out.h	unistd.h
a2mp.h	l2cap.h
adfs_fs.h	magic.h
adfs_fs.h	types.h
af_iucv.h	byteorder.h
af_iucv.h	iucv.h
af_iucv.h	list.h
af_iucv.h	poll.h
af_iucv.h	socket.h
af_iucv.h	types.h
af_rxrpc.h	rxrpc.h
affs_hardblocks.h	types.h
agpgart.h	types.h
atalk.h	byteorder.h
atalk.h	socket.h
atalk.h	types.h
atm_tcp.h	atm.h
atm_tcp.h	atmapi.h
atm_tcp.h	atmioc.h
atm_tcp.h	types.h
atm_zatm.h	atmapi.h
atm_zatm.h	atmioc.h
atmarp.h	atmapi.h
atmarp.h	atmioc.h
atmarp.h	types.h
atmclip.h	atm.h
atmclip.h	atmarp.h
atmclip.h	atmdev.h
atmclip.h	neighbour.h
atmclip.h	netdevice.h
atmclip.h	spinlock.h
atmdev.h	atm.h
atmdev.h	atmapi.h
atmdev.h	atmioc.h
atmioc.h	ioctl.h
atmppp.h	atm.h
atmsap.h	atmapi.h
atmsvc.h	atm.h
atmsvc.h	atmapi.h
atmsvc.h	atmioc.h
audit.h	elf-em.h
audit.h	types.h
auto_fs4.h	auto_fs.h
auto_fs4.h	types.h
auxvec.h	auxvec.h
auxvec.h	auxvec.h
ax25.h	socket.h
bcm.h	can.h
bcm.h	types.h
big_endian.h	swab.h
big_endian.h	types.h
bluetooth.h	poll.h
bluetooth.h	seq_file.h
bluetooth.h	sock.h
bpqether.h	if_ether.h
bsg.h	types.h
caif_socket.h	socket.h
caif_socket.h	types.h
capability.h	types.h
cciss_ioctl.h	cciss_defs.h
cciss_ioctl.h	ioctl.h
cciss_ioctl.h	types.h
cfg80211.h	bug.h
cfg80211.h	debugfs.h
cfg80211.h	ieee80211.h
cfg80211.h	if_ether.h
cfg80211.h	list.h
cfg80211.h	netdevice.h
cfg80211.h	netlink.h
cfg80211.h	nl80211.h
cfg80211.h	regulatory.h
cfg80211.h	skbuff.h
cipso_ipv4.h	atomic.h
cipso_ipv4.h	list.h
cipso_ipv4.h	net.h
cipso_ipv4.h	netlabel.h
cipso_ipv4.h	rcupdate.h
cipso_ipv4.h	request_sock.h
cipso_ipv4.h	skbuff.h
cipso_ipv4.h	types.h
cipso_ipv4.h	unaligned.h
cls_cgroup.h	cgroup.h
cls_cgroup.h	hardirq.h
cls_cgroup.h	rcupdate.h
codel.h	inet_ecn.h
codel.h	ktime.h
codel.h	pkt_sched.h
codel.h	reciprocal_div.h
codel.h	skbuff.h
codel.h	types.h
compat.h	compat.h
connector.h	types.h
cyclades.h	types.h
cyclades.h	zfwint.h
dcbnl.h	types.h
dlm_plock.h	types.h
dm-ioctl.h	types.h
dn.h	types.h
dn_route.h	if_arp.h
dn_route.h	sock.h
drm.h	drm_mode.h
drm.h	ioccom.h
drm.h	ioctl.h
drm.h	types.h
drm.h	types.h
drm_fourcc.h	types.h
drm_mode.h	types.h
drm_sarea.h	drm.h
dst.h	bug.h
dst.h	dst_ops.h
dst.h	jiffies.h
dst.h	neighbour.h
dst.h	netdevice.h
dst.h	processor.h
dst.h	rcupdate.h
dst.h	rtnetlink.h
elf-fdpic.h	elf.h
elf.h	elf-em.h
elf.h	types.h
errno.h	errno-base.h
errqueue.h	types.h
ethtool.h	if_ether.h
ethtool.h	types.h
exynos_drm.h	drm.h
fanotify.h	types.h
fcntl.h	fcntl.h
fcntl.h	fcntl.h
fd.h	compiler.h
fd.h	ioctl.h
fib_rules.h	rtnetlink.h
fib_rules.h	types.h
filter.h	compiler.h
filter.h	types.h
fs.h	ioctl.h
fs.h	limits.h
fs.h	types.h
fuse.h	types.h
futex.h	compiler.h
futex.h	types.h
gen_stats.h	types.h
genetlink.h	genetlink.h
genetlink.h	net_namespace.h
genetlink.h	netlink.h
gigaset_dev.h	ioctl.h
gw.h	can.h
gw.h	types.h
hci_core.h	hci.h
hdreg.h	types.h
hidraw.h	hid.h
hidraw.h	types.h
i2c.h	types.h
i2o-dev.h	ioctl.h
i2o-dev.h	types.h
i915_drm.h	drm.h
ib_user_cm.h	ib_user_sa.h
ib_user_cm.h	types.h
ib_user_mad.h	ioctl.h
ib_user_mad.h	types.h
ib_user_sa.h	types.h
ib_user_verbs.h	types.h
icmp.h	types.h
icmpv6.h	byteorder.h
icmpv6.h	types.h
ieee80211_radiotap.h	if_ether.h
ieee80211_radiotap.h	kernel.h
ieee80211_radiotap.h	unaligned.h
ieee802154_netdev.h	af_ieee802154.h
if_addr.h	netlink.h
if_addr.h	types.h
if_alg.h	types.h
if_bonding.h	if.h
if_bonding.h	if_ether.h
if_bonding.h	types.h
if_bridge.h	types.h
if_caif.h	socket.h
if_caif.h	sockios.h
if_caif.h	types.h
if_ether.h	types.h
if_frad.h	if.h
if_hippi.h	byteorder.h
if_hippi.h	types.h
if_pppox.h	byteorder.h
if_pppox.h	if_ether.h
if_pppox.h	if_pppol2tp.h
if_pppox.h	socket.h
if_pppox.h	types.h
igmp.h	byteorder.h
igmp.h	types.h
inet_diag.h	types.h
inet_ecn.h	dsfield.h
inet_ecn.h	inet_sock.h
inet_ecn.h	ip.h
inet_ecn.h	skbuff.h
int-l64.h	bitsperlong.h
int-ll64.h	bitsperlong.h
ioctl.h	types.h
ioctl.h	types.h
ioctls.h	ioctl.h
ip6_tables.h	compiler.h
ip6_tables.h	netfilter_ipv6.h
ip6_tables.h	types.h
ip6_tables.h	x_tables.h
ip6_tables.h	xt_tcpudp.h
ip6_tunnel.h	types.h
ip6t_HL.h	types.h
ip6t_NPT.h	netfilter.h
ip6t_NPT.h	types.h
ip6t_REJECT.h	types.h
ip6t_ah.h	types.h
ip6t_frag.h	types.h
ip6t_hl.h	types.h
ip6t_ipv6header.h	types.h
ip6t_mh.h	types.h
ip6t_opts.h	types.h
ip6t_rt.h	in6.h
ip6t_rt.h	types.h
ip_vs.h	atomic.h
ip_vs.h	bug.h
ip_vs.h	checksum.h
ip_vs.h	compiler.h
ip_vs.h	ip.h
ip_vs.h	ip6_tables.h
ip_vs.h	ip_vs.h
ip_vs.h	ipv6.h
ip_vs.h	ipv6.h
ip_vs.h	list.h
ip_vs.h	net.h
ip_vs.h	net_namespace.h
ip_vs.h	netfilter.h
ip_vs.h	nf_conntrack.h
ip_vs.h	spinlock.h
ip_vs.h	timer.h
ip_vs.h	types.h
ipv6.h	byteorder.h
ipv6.h	in6.h
ipv6.h	types.h
ipx.h	socket.h
ipx.h	sockios.h
ipx.h	types.h
irda.h	socket.h
irda.h	types.h
isdn.h	ioctl.h
isdn.h	tty.h
iucv.h	debug.h
iucv.h	slab.h
iucv.h	types.h
jedec_ddr.h	types.h
jffs2.h	magic.h
jffs2.h	types.h
kernel.h	sysinfo.h
kexec.h	types.h
keyboard.h	wait.h
kvm_para.h	kvm_para.h
kvm_para.h	kvm_para.h
l2cap.h	unaligned.h
lib80211.h	atomic.h
lib80211.h	ieee80211.h
lib80211.h	if.h
lib80211.h	list.h
lib80211.h	skbuff.h
lib80211.h	timer.h
lib80211.h	types.h
little_endian.h	swab.h
little_endian.h	types.h
llc_s_ev.h	skbuff.h
loop.h	posix_types.h
loop.h	types.h
mac80211.h	bug.h
mac80211.h	cfg80211.h
mac80211.h	ieee80211.h
mac80211.h	if_ether.h
mac80211.h	kernel.h
mac80211.h	skbuff.h
mac80211.h	unaligned.h
map_to_7segment.h	errno.h
matroxfb.h	fb.h
matroxfb.h	ioctl.h
matroxfb.h	types.h
matroxfb.h	videodev2.h
mdio.h	mii.h
mdio.h	types.h
media.h	ioctl.h
media.h	types.h
media.h	version.h
mei.h	uuid.h
mga_drm.h	drm.h
mii.h	ethtool.h
mii.h	types.h
minix_fs.h	magic.h
minix_fs.h	types.h
mld.h	icmpv6.h
mld.h	in6.h
mman.h	mman-common.h
mroute6.h	sockios.h
mroute6.h	types.h
msdos_fs.h	byteorder.h
msdos_fs.h	magic.h
msdos_fs.h	types.h
msg.h	ipc.h
msg.h	msgbuf.h
msgbuf.h	bitsperlong.h
nbd.h	types.h
ncp.h	types.h
ndisc.h	compiler.h
ndisc.h	hash.h
ndisc.h	icmpv6.h
ndisc.h	if_arp.h
ndisc.h	in6.h
ndisc.h	neighbour.h
ndisc.h	netdevice.h
ndisc.h	types.h
net_dropmon.h	netlink.h
net_dropmon.h	types.h
net_namespace.h	atomic.h
net_namespace.h	conntrack.h
net_namespace.h	core.h
net_namespace.h	dccp.h
net_namespace.h	ipv4.h
net_namespace.h	ipv6.h
net_namespace.h	list.h
net_namespace.h	mib.h
net_namespace.h	nsproxy.h
net_namespace.h	packet.h
net_namespace.h	sched.h
net_namespace.h	sctp.h
net_namespace.h	seq_file_net.h
net_namespace.h	sysctl.h
net_namespace.h	unix.h
net_namespace.h	workqueue.h
net_namespace.h	x_tables.h
net_namespace.h	xfrm.h
netdevice.h	if.h
netdevice.h	if_ether.h
netdevice.h	if_link.h
netdevice.h	if_packet.h
netdma.h	dmaengine.h
netdma.h	skbuff.h
netfilter.h	compiler.h
netfilter.h	sysctl.h
netfilter.h	types.h
netfilter_arp.h	netfilter.h
netfilter_decnet.h	limits.h
netfilter_decnet.h	netfilter.h
netlink.h	types.h
netlink.h	types.h
netprio_cgroup.h	cgroup.h
netprio_cgroup.h	hardirq.h
netprio_cgroup.h	rcupdate.h
netrom.h	list.h
netrom.h	netrom.h
netrom.h	slab.h
netrom.h	sock.h
nf_conntrack.h	atomic.h
nf_conntrack.h	bitops.h
nf_conntrack.h	compiler.h
nf_conntrack.h	nf_conntrack_common.h
nf_conntrack.h	nf_conntrack_dccp.h
nf_conntrack.h	nf_conntrack_icmpv6.h
nf_conntrack.h	nf_conntrack_ipv4.h
nf_conntrack.h	nf_conntrack_ipv6.h
nf_conntrack.h	nf_conntrack_proto_gre.h
nf_conntrack.h	nf_conntrack_sctp.h
nf_conntrack.h	nf_conntrack_tcp.h
nf_conntrack.h	nf_conntrack_tuple.h
nf_conntrack.h	skbuff.h
nf_conntrack.h	timer.h
nf_conntrack.h	types.h
nf_conntrack_acct.h	net_namespace.h
nf_conntrack_acct.h	nf_conntrack.h
nf_conntrack_acct.h	nf_conntrack_common.h
nf_conntrack_acct.h	nf_conntrack_extend.h
nf_conntrack_acct.h	nf_conntrack_tuple_common.h
nf_conntrack_core.h	netfilter.h
nf_conntrack_core.h	nf_conntrack_ecache.h
nf_conntrack_core.h	nf_conntrack_l3proto.h
nf_conntrack_core.h	nf_conntrack_l4proto.h
nf_conntrack_ecache.h	net_namespace.h
nf_conntrack_ecache.h	nf_conntrack.h
nf_conntrack_ecache.h	nf_conntrack_common.h
nf_conntrack_ecache.h	nf_conntrack_expect.h
nf_conntrack_ecache.h	nf_conntrack_extend.h
nf_conntrack_ecache.h	nf_conntrack_tuple_common.h
nf_conntrack_expect.h	nf_conntrack.h
nf_conntrack_extend.h	nf_conntrack.h
nf_conntrack_extend.h	slab.h
nf_conntrack_helper.h	nf_conntrack.h
nf_conntrack_helper.h	nf_conntrack_expect.h
nf_conntrack_helper.h	nf_conntrack_extend.h
nf_conntrack_ipv6.h	sysctl.h
nf_conntrack_l3proto.h	netlink.h
nf_conntrack_l3proto.h	netlink.h
nf_conntrack_l3proto.h	nf_conntrack.h
nf_conntrack_l3proto.h	seq_file.h
nf_conntrack_l4proto.h	generic.h
nf_conntrack_l4proto.h	netlink.h
nf_conntrack_l4proto.h	netlink.h
nf_conntrack_l4proto.h	nf_conntrack.h
nf_conntrack_timeout.h	net_namespace.h
nf_conntrack_timeout.h	nf_conntrack.h
nf_conntrack_timeout.h	nf_conntrack_common.h
nf_conntrack_timeout.h	nf_conntrack_extend.h
nf_conntrack_timeout.h	nf_conntrack_tuple_common.h
nf_conntrack_timestamp.h	net_namespace.h
nf_conntrack_timestamp.h	nf_conntrack.h
nf_conntrack_timestamp.h	nf_conntrack_common.h
nf_conntrack_timestamp.h	nf_conntrack_extend.h
nf_conntrack_timestamp.h	nf_conntrack_tuple_common.h
nf_conntrack_tuple.h	list_nulls.h
nf_conntrack_tuple.h	nf_conntrack_tuple_common.h
nf_conntrack_tuple.h	x_tables.h
nf_conntrack_zones.h	nf_conntrack_extend.h
nf_log.h	netfilter.h
nf_nat.h	list.h
nf_nat.h	netfilter_ipv4.h
nf_nat.h	nf_conntrack_extend.h
nf_nat.h	nf_conntrack_pptp.h
nf_nat.h	nf_conntrack_tuple.h
nf_nat.h	nf_nat.h
nf_nat_core.h	list.h
nf_nat_core.h	nf_conntrack.h
nf_nat_core.h	nf_nat.h
nf_nat_helper.h	nf_conntrack.h
nf_nat_l4proto.h	nf_nat.h
nf_nat_l4proto.h	nfnetlink_conntrack.h
nf_tproxy_core.h	in.h
nf_tproxy_core.h	inet6_hashtables.h
nf_tproxy_core.h	inet_hashtables.h
nf_tproxy_core.h	skbuff.h
nf_tproxy_core.h	sock.h
nf_tproxy_core.h	tcp.h
nf_tproxy_core.h	types.h
nfc.h	socket.h
nfc.h	types.h
nfnetlink_queue.h	nf_conntrack_common.h
nfs_fs.h	magic.h
nfs_mount.h	in.h
nfs_mount.h	nfs.h
nfs_mount.h	nfs2.h
nfs_mount.h	nfs3.h
nvram.h	ioctl.h
omapfb.h	fb.h
omapfb.h	ioctl.h
omapfb.h	types.h
packet_diag.h	types.h
param.h	param.h
param.h	param.h
poll.h	poll.h
poll.h	poll.h
posix_types.h	bitsperlong.h
ptp_clock.h	ioctl.h
ptp_clock.h	types.h
quota.h	errno.h
quota.h	types.h
radeon_drm.h	drm.h
random.h	ioctl.h
random.h	irqnr.h
random.h	types.h
raw.h	can.h
raw.h	can.h
rawv6.h	protocol.h
rdma_netlink.h	types.h
rdma_user_cm.h	ib_user_sa.h
rdma_user_cm.h	ib_user_verbs.h
rdma_user_cm.h	in6.h
rdma_user_cm.h	types.h
resource.h	resource.h
resource.h	resource.h
resource.h	time.h
resource.h	time.h
resource.h	types.h
resource.h	types.h
rfkill.h	types.h
rose.h	ax25.h
rose.h	socket.h
route.h	cache.h
route.h	dst.h
route.h	flow.h
route.h	in_route.h
route.h	inet_sock.h
route.h	inetpeer.h
route.h	ip.h
route.h	rcupdate.h
route.h	route.h
route.h	rtnetlink.h
route.h	security.h
rtnetlink.h	netlink.h
rtnetlink.h	rtnetlink.h
sch_generic.h	gen_stats.h
sch_generic.h	netdevice.h
sch_generic.h	pkt_cls.h
sch_generic.h	pkt_sched.h
sch_generic.h	rcupdate.h
sch_generic.h	rtnetlink.h
sch_generic.h	types.h
screen_info.h	types.h
secure_seq.h	types.h
sembuf.h	bitsperlong.h
serial.h	tty_flags.h
serial.h	types.h
shmbuf.h	bitsperlong.h
siginfo.h	compiler.h
siginfo.h	types.h
signal-defs.h	compiler.h
signal.h	signal-defs.h
signal.h	types.h
signalfd.h	fcntl.h
signalfd.h	types.h
socket.h	sockios.h
sockios.h	sockios.h
sockios.h	sockios.h
som.h	time.h
sound.h	fs.h
soundcard.h	ioctl.h
soundcard.h	patchkey.h
spidev.h	types.h
stat.h	bitsperlong.h
statfs.h	types.h
string.h	string.h
swab.h	bitsperlong.h
taskstats.h	types.h
tc_csum.h	pkt_cls.h
tc_csum.h	types.h
tc_gact.h	pkt_cls.h
tc_gact.h	types.h
tc_ipt.h	pkt_cls.h
tc_mirred.h	pkt_cls.h
tc_mirred.h	types.h
tc_nat.h	pkt_cls.h
tc_nat.h	types.h
tc_pedit.h	pkt_cls.h
tc_pedit.h	types.h
tc_skbedit.h	pkt_cls.h
tcp.h	bug.h
tcp.h	cache.h
tcp.h	checksum.h
tcp.h	crypto.h
tcp.h	cryptohash.h
tcp.h	dmaengine.h
tcp.h	dst.h
tcp.h	inet_connection_sock.h
tcp.h	inet_ecn.h
tcp.h	inet_hashtables.h
tcp.h	inet_timewait_sock.h
tcp.h	ip.h
tcp.h	kref.h
tcp.h	list.h
tcp.h	memcontrol.h
tcp.h	percpu.h
tcp.h	request_sock.h
tcp.h	seq_file.h
tcp.h	skbuff.h
tcp.h	slab.h
tcp.h	snmp.h
tcp.h	sock.h
tcp.h	tcp.h
tcp.h	tcp_states.h
termbits.h	posix_types.h
termios.h	ioctls.h
termios.h	termbits.h
timewait_sock.h	bug.h
timewait_sock.h	slab.h
timewait_sock.h	sock.h
tipc.h	types.h
types.h	int-ll64.h
udp.h	types.h
uhid.h	input.h
uhid.h	types.h
unistd.h	bitsperlong.h
unix_diag.h	types.h
usbdevice_fs.h	magic.h
usbdevice_fs.h	types.h
v4l2-mediabus.h	types.h
v4l2-mediabus.h	videodev2.h
vhost.h	compiler.h
vhost.h	ioctl.h
vhost.h	types.h
vhost.h	virtio_config.h
vhost.h	virtio_ring.h
via_drm.h	drm.h
via_drm.h	via_drmclient.h
virtio_balloon.h	virtio_config.h
virtio_balloon.h	virtio_ids.h
virtio_blk.h	types.h
virtio_blk.h	virtio_config.h
virtio_blk.h	virtio_ids.h
virtio_console.h	types.h
virtio_console.h	virtio_config.h
virtio_console.h	virtio_ids.h
virtio_pci.h	virtio_config.h
virtio_ring.h	types.h
watchdog.h	ioctl.h
watchdog.h	types.h
x25.h	slab.h
x25.h	sock.h
x25.h	x25.h
xfrm.h	audit.h
xfrm.h	compiler.h
xfrm.h	dst.h
xfrm.h	flow.h
xfrm.h	in6.h
xfrm.h	interrupt.h
xfrm.h	ip.h
xfrm.h	ip6_fib.h
xfrm.h	ipsec.h
xfrm.h	ipv6.h
xfrm.h	list.h
xfrm.h	mutex.h
xfrm.h	pfkeyv2.h
xfrm.h	route.h
xfrm.h	skbuff.h
xfrm.h	slab.h
xfrm.h	snmp.h
xfrm.h	sock.h
xfrm.h	socket.h
xfrm.h	spinlock.h
xfrm.h	xfrm.h
