afs.h	in.h
aio.c	aio.h
aio.c	aio_abi.h
aio.c	backing-dev.h
aio.c	blkdev.h
aio.c	compat.h
aio.c	errno.h
aio.c	eventfd.h
aio.c	export.h
aio.c	file.h
aio.c	fs.h
aio.c	highmem.h
aio.c	init.h
aio.c	kernel.h
aio.c	kmap_types.h
aio.c	mm.h
aio.c	mman.h
aio.c	mmu_context.h
aio.c	sched.h
aio.c	security.h
aio.c	slab.h
aio.c	syscalls.h
aio.c	time.h
aio.c	timer.h
aio.c	uaccess.h
aio.c	uio.h
aio.c	workqueue.h
alloc.c	alloc.h
alloc.c	bitops.h
alloc.c	buffer_head.h
alloc.c	fs.h
alloc.c	mdt.h
alloc.c	slab.h
alloc.c	types.h
alloc.h	buffer_head.h
alloc.h	fs.h
alloc.h	types.h
autofs_i.h	auto_dev-ioctl.h
autofs_i.h	auto_fs4.h
autofs_i.h	current.h
autofs_i.h	kernel.h
autofs_i.h	list.h
autofs_i.h	mount.h
autofs_i.h	mutex.h
autofs_i.h	namei.h
autofs_i.h	sched.h
autofs_i.h	slab.h
autofs_i.h	spinlock.h
autofs_i.h	string.h
autofs_i.h	time.h
autofs_i.h	uaccess.h
autofs_i.h	wait.h
balloc.c	bitops.h
balloc.c	buffer_head.h
balloc.c	udf_i.h
balloc.c	udf_sb.h
balloc.c	udfdecl.h
befs.h	befs_fs_types.h
befs.h	endian.h
befs_fs_types.h	types.h
bfs.h	bfs_fs.h
binfmt_misc.c	binfmts.h
binfmt_misc.c	ctype.h
binfmt_misc.c	file.h
binfmt_misc.c	fs.h
binfmt_misc.c	init.h
binfmt_misc.c	magic.h
binfmt_misc.c	module.h
binfmt_misc.c	mount.h
binfmt_misc.c	namei.h
binfmt_misc.c	pagemap.h
binfmt_misc.c	sched.h
binfmt_misc.c	slab.h
binfmt_misc.c	syscalls.h
binfmt_misc.c	uaccess.h
bitmap.c	bitops.h
bitmap.c	buffer_head.h
bitmap.c	minix.h
bitmap.c	sched.h
block.c	buffer_head.h
block.c	decompressor.h
block.c	fs.h
block.c	slab.h
block.c	squashfs.h
block.c	squashfs_fs.h
block.c	squashfs_fs_sb.h
block.c	string.h
block.c	vfs.h
blocklayout.c	bio.h
blocklayout.c	blocklayout.h
blocklayout.c	buffer_head.h
blocklayout.c	init.h
blocklayout.c	internal.h
blocklayout.c	module.h
blocklayout.c	mount.h
blocklayout.c	namei.h
blocklayout.c	nfs4session.h
blocklayout.c	pagevec.h
blocklayout.c	pnfs.h
blocklayout.c	prefetch.h
blocklayout.h	device-mapper.h
blocklayout.h	netns.h
blocklayout.h	nfs_fs.h
blocklayout.h	pnfs.h
blocklayout.h	rpc_pipe_fs.h
blocklayoutdev.c	blkdev.h
blocklayoutdev.c	blocklayout.h
blocklayoutdev.c	buffer_head.h
blocklayoutdev.c	genhd.h
blocklayoutdev.c	hash.h
blocklayoutdev.c	module.h
blocklayoutdm.c	blocklayout.h
blocklayoutdm.c	genhd.h
blocklayoutdm.c	hash.h
blocklayoutdm.c	sched.h
bmap.c	alloc.h
bmap.c	bmap.h
bmap.c	btnode.h
bmap.c	btree.h
bmap.c	dat.h
bmap.c	direct.h
bmap.c	errno.h
bmap.c	fs.h
bmap.c	mdt.h
bmap.c	nilfs.h
bmap.c	string.h
bmap.h	alloc.h
bmap.h	buffer_head.h
bmap.h	dat.h
bmap.h	fs.h
bmap.h	nilfs2_fs.h
bmap.h	types.h
btnode.c	backing-dev.h
btnode.c	btnode.h
btnode.c	buffer_head.h
btnode.c	dat.h
btnode.c	gfp.h
btnode.c	mdt.h
btnode.c	mm.h
btnode.c	nilfs.h
btnode.c	page.h
btnode.c	types.h
btnode.h	backing-dev.h
btnode.h	buffer_head.h
btnode.h	fs.h
btnode.h	types.h
btree.c	befs.h
btree.c	befs.h
btree.c	btree.h
btree.c	btree.h
btree.c	buffer_head.h
btree.c	buffer_head.h
btree.c	datastream.h
btree.c	datastream.h
btree.c	kernel.h
btree.c	kernel.h
btree.c	mm.h
btree.c	mm.h
btree.c	slab.h
btree.c	slab.h
btree.c	string.h
btree.c	string.h
buffer_head_io.c	alloc.h
buffer_head_io.c	buffer_head_io.h
buffer_head_io.c	fs.h
buffer_head_io.c	highmem.h
buffer_head_io.c	inode.h
buffer_head_io.c	journal.h
buffer_head_io.c	masklog.h
buffer_head_io.c	ocfs2.h
buffer_head_io.c	ocfs2_trace.h
buffer_head_io.c	types.h
buffer_head_io.c	uptodate.h
cache.c	buffer_head.h
cache.c	buffer_head.h
cache.c	buffer_head.h
cache.c	buffer_head.h
cache.c	fat.h
cache.c	fat.h
cache.c	fat.h
cache.c	fat.h
cache.c	fs.h
cache.c	fs.h
cache.c	fs.h
cache.c	fs.h
cache.c	slab.h
cache.c	slab.h
cache.c	slab.h
cache.c	slab.h
cache_lib.c	cache.h
cache_lib.c	cache_lib.h
cache_lib.c	kmod.h
cache_lib.c	module.h
cache_lib.c	moduleparam.h
cache_lib.c	mount.h
cache_lib.c	namei.h
cache_lib.c	net_namespace.h
cache_lib.c	rpc_pipe_fs.h
cache_lib.c	slab.h
cache_lib.h	atomic.h
cache_lib.h	cache.h
cache_lib.h	completion.h
callback.c	bc_xprt.h
callback.c	bc_xprt.h
callback.c	callback.h
callback.c	callback.h
callback.c	completion.h
callback.c	completion.h
callback.c	errno.h
callback.c	errno.h
callback.c	freezer.h
callback.c	freezer.h
callback.c	inet_sock.h
callback.c	inet_sock.h
callback.c	internal.h
callback.c	internal.h
callback.c	ip.h
callback.c	ip.h
callback.c	kthread.h
callback.c	kthread.h
callback.c	module.h
callback.c	module.h
callback.c	mutex.h
callback.c	mutex.h
callback.c	netns.h
callback.c	netns.h
callback.c	nfs4_fs.h
callback.c	nfs4_fs.h
callback.c	nfs_fs.h
callback.c	nfs_fs.h
callback.c	svc.h
callback.c	svc.h
callback.c	svcauth_gss.h
callback.c	svcauth_gss.h
callback.c	svcsock.h
callback.c	svcsock.h
callback.h	svc.h
callback_proc.c	callback.h
callback_proc.c	delegation.h
callback_proc.c	internal.h
callback_proc.c	nfs4.h
callback_proc.c	nfs4_fs.h
callback_proc.c	nfs4session.h
callback_proc.c	nfs_fs.h
callback_proc.c	pnfs.h
callback_proc.c	rcupdate.h
callback_proc.c	slab.h
callback_xdr.c	bc_xprt.h
callback_xdr.c	callback.h
callback_xdr.c	internal.h
callback_xdr.c	kernel.h
callback_xdr.c	nfs4.h
callback_xdr.c	nfs4_fs.h
callback_xdr.c	nfs4session.h
callback_xdr.c	nfs_fs.h
callback_xdr.c	printk.h
callback_xdr.c	ratelimit.h
callback_xdr.c	slab.h
callback_xdr.c	svc.h
cell.c	ctype.h
cell.c	dns_resolver.h
cell.c	internal.h
cell.c	key.h
cell.c	module.h
cell.c	rxrpc-type.h
cell.c	sched.h
cell.c	slab.h
checkpoint.c	blkdev.h
checkpoint.c	errno.h
checkpoint.c	fs.h
checkpoint.c	jbd2.h
checkpoint.c	jbd2.h
checkpoint.c	slab.h
checkpoint.c	time.h
client.c	bc_xprt.h
client.c	bind.h
client.c	callback.h
client.c	clnt.h
client.c	delegation.h
client.c	errno.h
client.c	fscache.h
client.c	idr.h
client.c	in6.h
client.c	inet.h
client.c	init.h
client.c	internal.h
client.c	iostat.h
client.c	ipv6.h
client.c	kernel.h
client.c	metrics.h
client.c	mm.h
client.c	module.h
client.c	mount.h
client.c	netns.h
client.c	nfs.h
client.c	nfs4_fs.h
client.c	nfs4_mount.h
client.c	nfs_fs.h
client.c	nfs_idmap.h
client.c	nfs_mount.h
client.c	nfs_xdr.h
client.c	nsproxy.h
client.c	pid_namespace.h
client.c	pnfs.h
client.c	sched.h
client.c	seq_file.h
client.c	slab.h
client.c	stat.h
client.c	stats.h
client.c	string.h
client.c	time.h
client.c	unistd.h
client.c	vfs.h
client.c	xprtrdma.h
client.c	xprtsock.h
clnt4xdr.c	clnt.h
clnt4xdr.c	lockd.h
clnt4xdr.c	stats.h
clnt4xdr.c	types.h
clnt4xdr.c	xdr.h
clntlock.c	clnt.h
clntlock.c	kthread.h
clntlock.c	lockd.h
clntlock.c	module.h
clntlock.c	nfs_fs.h
clntlock.c	slab.h
clntlock.c	svc.h
clntlock.c	time.h
clntlock.c	types.h
clntproc.c	clnt.h
clntproc.c	errno.h
clntproc.c	freezer.h
clntproc.c	fs.h
clntproc.c	lockd.h
clntproc.c	module.h
clntproc.c	nfs_fs.h
clntproc.c	slab.h
clntproc.c	svc.h
clntproc.c	types.h
clntproc.c	utsname.h
clntxdr.c	clnt.h
clntxdr.c	lockd.h
clntxdr.c	stats.h
clntxdr.c	types.h
clntxdr.c	xdr.h
cmservice.c	afs_cm.h
cmservice.c	init.h
cmservice.c	internal.h
cmservice.c	ip.h
cmservice.c	module.h
cmservice.c	sched.h
cmservice.c	slab.h
cnode.c	coda.h
cnode.c	coda_linux.h
cnode.c	coda_psdev.h
cnode.c	string.h
cnode.c	time.h
cnode.c	types.h
coda_fs_i.h	coda.h
coda_fs_i.h	list.h
coda_fs_i.h	spinlock.h
coda_fs_i.h	types.h
coda_linux.c	coda.h
coda_linux.c	coda_linux.h
coda_linux.c	coda_psdev.h
coda_linux.c	errno.h
coda_linux.c	fs.h
coda_linux.c	kernel.h
coda_linux.c	stat.h
coda_linux.c	string.h
coda_linux.c	time.h
coda_linux.c	types.h
coda_linux.c	uaccess.h
coda_linux.h	coda_fs_i.h
coda_linux.h	fs.h
coda_linux.h	kernel.h
coda_linux.h	mm.h
coda_linux.h	param.h
coda_linux.h	slab.h
coda_linux.h	types.h
coda_linux.h	vmalloc.h
coda_linux.h	wait.h
commit.c	backing-dev.h
commit.c	bio.h
commit.c	bitops.h
commit.c	blkdev.h
commit.c	crc32.h
commit.c	errno.h
commit.c	fs.h
commit.c	jbd2.h
commit.c	jbd2.h
commit.c	jiffies.h
commit.c	mm.h
commit.c	pagemap.h
commit.c	slab.h
commit.c	time.h
commit.c	writeback.h
compr.c	logfs.h
compr.c	vmalloc.h
compr.c	zlib.h
configfs_internal.h	list.h
configfs_internal.h	slab.h
configfs_internal.h	spinlock.h
control.c	fuse_i.h
control.c	init.h
control.c	module.h
cpfile.c	buffer_head.h
cpfile.c	cpfile.h
cpfile.c	errno.h
cpfile.c	fs.h
cpfile.c	kernel.h
cpfile.c	mdt.h
cpfile.c	nilfs2_fs.h
cpfile.c	string.h
cpfile.h	buffer_head.h
cpfile.h	fs.h
cpfile.h	nilfs2_fs.h
cuse.c	cdev.h
cuse.c	device.h
cuse.c	file.h
cuse.c	fs.h
cuse.c	fuse.h
cuse.c	fuse_i.h
cuse.c	kdev_t.h
cuse.c	kthread.h
cuse.c	list.h
cuse.c	magic.h
cuse.c	miscdevice.h
cuse.c	module.h
cuse.c	mutex.h
cuse.c	slab.h
cuse.c	stat.h
dat.c	alloc.h
dat.c	buffer_head.h
dat.c	dat.h
dat.c	errno.h
dat.c	mdt.h
dat.c	nilfs.h
dat.c	string.h
dat.c	types.h
dat.h	buffer_head.h
dat.h	fs.h
dat.h	types.h
datastream.c	befs.h
datastream.c	buffer_head.h
datastream.c	datastream.h
datastream.c	io.h
datastream.c	kernel.h
datastream.c	string.h
dcache.c	alloc.h
dcache.c	dcache.h
dcache.c	dlmglue.h
dcache.c	file.h
dcache.c	fs.h
dcache.c	inode.h
dcache.c	masklog.h
dcache.c	namei.h
dcache.c	ocfs2.h
dcache.c	ocfs2_trace.h
dcache.c	slab.h
dcache.c	super.h
dcache.c	types.h
debug.c	befs.h
debug.c	fs.h
debug.c	kernel.h
debug.c	slab.h
debug.c	spinlock.h
debug.c	stdarg.h
debug.c	string.h
decompressor.c	buffer_head.h
decompressor.c	decompressor.h
decompressor.c	mutex.h
decompressor.c	slab.h
decompressor.c	squashfs.h
decompressor.c	squashfs_fs.h
decompressor.c	squashfs_fs_sb.h
decompressor.c	types.h
delegation.c	completion.h
delegation.c	delegation.h
delegation.c	internal.h
delegation.c	kthread.h
delegation.c	module.h
delegation.c	nfs4.h
delegation.c	nfs4_fs.h
delegation.c	nfs_fs.h
delegation.c	nfs_xdr.h
delegation.c	sched.h
delegation.c	slab.h
delegation.c	spinlock.h
dev-ioctl.c	autofs_i.h
dev-ioctl.c	compat.h
dev-ioctl.c	dcache.h
dev-ioctl.c	fcntl.h
dev-ioctl.c	fdtable.h
dev-ioctl.c	file.h
dev-ioctl.c	init.h
dev-ioctl.c	magic.h
dev-ioctl.c	miscdevice.h
dev-ioctl.c	module.h
dev-ioctl.c	namei.h
dev-ioctl.c	sched.h
dev-ioctl.c	slab.h
dev-ioctl.c	syscalls.h
dev-ioctl.c	uaccess.h
dev-ioctl.c	vmalloc.h
dev-ioctl.c	wait.h
dev.c	file.h
dev.c	fuse_i.h
dev.c	init.h
dev.c	miscdevice.h
dev.c	module.h
dev.c	pagemap.h
dev.c	pipe_fs_i.h
dev.c	poll.h
dev.c	slab.h
dev.c	splice.h
dev.c	swap.h
dev.c	uio.h
dev_bdev.c	bio.h
dev_bdev.c	blkdev.h
dev_bdev.c	buffer_head.h
dev_bdev.c	gfp.h
dev_bdev.c	logfs.h
dev_bdev.c	prefetch.h
dev_mtd.c	completion.h
dev_mtd.c	logfs.h
dev_mtd.c	mount.h
dev_mtd.c	sched.h
dev_mtd.c	slab.h
dir.c	configfs.h
dir.c	configfs.h
dir.c	configfs.h
dir.c	configfs.h
dir.c	configfs.h
dir.c	configfs.h
dir.c	configfs.h
dir.c	configfs.h
dir.c	configfs.h
dir.c	configfs.h
dir.c	configfs.h
dir.c	configfs_internal.h
dir.c	configfs_internal.h
dir.c	configfs_internal.h
dir.c	configfs_internal.h
dir.c	configfs_internal.h
dir.c	configfs_internal.h
dir.c	configfs_internal.h
dir.c	configfs_internal.h
dir.c	configfs_internal.h
dir.c	configfs_internal.h
dir.c	configfs_internal.h
dir.c	err.h
dir.c	err.h
dir.c	err.h
dir.c	err.h
dir.c	err.h
dir.c	err.h
dir.c	err.h
dir.c	err.h
dir.c	err.h
dir.c	err.h
dir.c	err.h
dir.c	fs.h
dir.c	fs.h
dir.c	fs.h
dir.c	fs.h
dir.c	fs.h
dir.c	fs.h
dir.c	fs.h
dir.c	fs.h
dir.c	fs.h
dir.c	fs.h
dir.c	fs.h
dir.c	module.h
dir.c	module.h
dir.c	module.h
dir.c	module.h
dir.c	module.h
dir.c	module.h
dir.c	module.h
dir.c	module.h
dir.c	module.h
dir.c	module.h
dir.c	module.h
dir.c	mount.h
dir.c	mount.h
dir.c	mount.h
dir.c	mount.h
dir.c	mount.h
dir.c	mount.h
dir.c	mount.h
dir.c	mount.h
dir.c	mount.h
dir.c	mount.h
dir.c	mount.h
dir.c	slab.h
dir.c	slab.h
dir.c	slab.h
dir.c	slab.h
dir.c	slab.h
dir.c	slab.h
dir.c	slab.h
dir.c	slab.h
dir.c	slab.h
dir.c	slab.h
dir.c	slab.h
direct.c	atomic.h
direct.c	atomic.h
direct.c	clnt.h
direct.c	clnt.h
direct.c	errno.h
direct.c	errno.h
direct.c	file.h
direct.c	file.h
direct.c	internal.h
direct.c	internal.h
direct.c	iostat.h
direct.c	iostat.h
direct.c	kernel.h
direct.c	kernel.h
direct.c	kref.h
direct.c	kref.h
direct.c	module.h
direct.c	module.h
direct.c	nfs_fs.h
direct.c	nfs_fs.h
direct.c	nfs_page.h
direct.c	nfs_page.h
direct.c	pagemap.h
direct.c	pagemap.h
direct.c	pnfs.h
direct.c	pnfs.h
direct.c	sched.h
direct.c	sched.h
direct.c	slab.h
direct.c	slab.h
direct.c	task_io_accounting_ops.h
direct.c	task_io_accounting_ops.h
direct.c	uaccess.h
direct.c	uaccess.h
direct.h	bmap.h
direct.h	buffer_head.h
direct.h	types.h
directory.c	buffer_head.h
directory.c	fs.h
directory.c	string.h
directory.c	udf_i.h
directory.c	udfdecl.h
dlmast.c	blkdev.h
dlmast.c	dlmapi.h
dlmast.c	dlmcommon.h
dlmast.c	fs.h
dlmast.c	heartbeat.h
dlmast.c	highmem.h
dlmast.c	inet.h
dlmast.c	init.h
dlmast.c	masklog.h
dlmast.c	module.h
dlmast.c	nodemanager.h
dlmast.c	random.h
dlmast.c	socket.h
dlmast.c	spinlock.h
dlmast.c	sysctl.h
dlmast.c	tcp.h
dlmast.c	types.h
dlmcommon.h	kref.h
dlmconvert.c	blkdev.h
dlmconvert.c	dlmapi.h
dlmconvert.c	dlmcommon.h
dlmconvert.c	dlmconvert.h
dlmconvert.c	fs.h
dlmconvert.c	heartbeat.h
dlmconvert.c	highmem.h
dlmconvert.c	inet.h
dlmconvert.c	init.h
dlmconvert.c	masklog.h
dlmconvert.c	module.h
dlmconvert.c	nodemanager.h
dlmconvert.c	random.h
dlmconvert.c	socket.h
dlmconvert.c	spinlock.h
dlmconvert.c	sysctl.h
dlmconvert.c	tcp.h
dlmconvert.c	types.h
dlmdebug.c	debugfs.h
dlmdebug.c	dlmapi.h
dlmdebug.c	dlmcommon.h
dlmdebug.c	dlmdebug.h
dlmdebug.c	dlmdomain.h
dlmdebug.c	export.h
dlmdebug.c	heartbeat.h
dlmdebug.c	highmem.h
dlmdebug.c	masklog.h
dlmdebug.c	nodemanager.h
dlmdebug.c	slab.h
dlmdebug.c	spinlock.h
dlmdebug.c	sysctl.h
dlmdebug.c	tcp.h
dlmdebug.c	types.h
dlmdomain.c	debugfs.h
dlmdomain.c	delay.h
dlmdomain.c	dlmapi.h
dlmdomain.c	dlmcommon.h
dlmdomain.c	dlmdebug.h
dlmdomain.c	dlmdomain.h
dlmdomain.c	dlmver.h
dlmdomain.c	err.h
dlmdomain.c	heartbeat.h
dlmdomain.c	highmem.h
dlmdomain.c	init.h
dlmdomain.c	masklog.h
dlmdomain.c	module.h
dlmdomain.c	nodemanager.h
dlmdomain.c	slab.h
dlmdomain.c	spinlock.h
dlmdomain.c	tcp.h
dlmdomain.c	types.h
dlmglue.c	alloc.h
dlmglue.c	buffer_head_io.h
dlmglue.c	dcache.h
dlmglue.c	debugfs.h
dlmglue.c	dlmglue.h
dlmglue.c	extent_map.h
dlmglue.c	file.h
dlmglue.c	heartbeat.h
dlmglue.c	highmem.h
dlmglue.c	inode.h
dlmglue.c	journal.h
dlmglue.c	kthread.h
dlmglue.c	masklog.h
dlmglue.c	mm.h
dlmglue.c	ocfs2.h
dlmglue.c	ocfs2_lockingver.h
dlmglue.c	pagemap.h
dlmglue.c	quota.h
dlmglue.c	quotaops.h
dlmglue.c	refcounttree.h
dlmglue.c	seq_file.h
dlmglue.c	slab.h
dlmglue.c	slot_map.h
dlmglue.c	stackglue.h
dlmglue.c	super.h
dlmglue.c	time.h
dlmglue.c	types.h
dlmglue.c	uptodate.h
dlmlock.c	blkdev.h
dlmlock.c	delay.h
dlmlock.c	dlmapi.h
dlmlock.c	dlmcommon.h
dlmlock.c	dlmconvert.h
dlmlock.c	fs.h
dlmlock.c	heartbeat.h
dlmlock.c	highmem.h
dlmlock.c	inet.h
dlmlock.c	init.h
dlmlock.c	masklog.h
dlmlock.c	module.h
dlmlock.c	nodemanager.h
dlmlock.c	random.h
dlmlock.c	slab.h
dlmlock.c	socket.h
dlmlock.c	spinlock.h
dlmlock.c	sysctl.h
dlmlock.c	tcp.h
dlmlock.c	types.h
dlmmaster.c	blkdev.h
dlmmaster.c	delay.h
dlmmaster.c	dlmapi.h
dlmmaster.c	dlmcommon.h
dlmmaster.c	dlmdebug.h
dlmmaster.c	dlmdomain.h
dlmmaster.c	fs.h
dlmmaster.c	heartbeat.h
dlmmaster.c	highmem.h
dlmmaster.c	inet.h
dlmmaster.c	init.h
dlmmaster.c	masklog.h
dlmmaster.c	module.h
dlmmaster.c	nodemanager.h
dlmmaster.c	random.h
dlmmaster.c	slab.h
dlmmaster.c	socket.h
dlmmaster.c	spinlock.h
dlmmaster.c	sysctl.h
dlmmaster.c	tcp.h
dlmmaster.c	types.h
dlmrecovery.c	blkdev.h
dlmrecovery.c	delay.h
dlmrecovery.c	dlmapi.h
dlmrecovery.c	dlmcommon.h
dlmrecovery.c	dlmdomain.h
dlmrecovery.c	fs.h
dlmrecovery.c	heartbeat.h
dlmrecovery.c	highmem.h
dlmrecovery.c	inet.h
dlmrecovery.c	init.h
dlmrecovery.c	kthread.h
dlmrecovery.c	masklog.h
dlmrecovery.c	module.h
dlmrecovery.c	nodemanager.h
dlmrecovery.c	random.h
dlmrecovery.c	slab.h
dlmrecovery.c	socket.h
dlmrecovery.c	sysctl.h
dlmrecovery.c	tcp.h
dlmrecovery.c	timer.h
dlmrecovery.c	types.h
dlmthread.c	blkdev.h
dlmthread.c	delay.h
dlmthread.c	dlmapi.h
dlmthread.c	dlmcommon.h
dlmthread.c	dlmdomain.h
dlmthread.c	fs.h
dlmthread.c	heartbeat.h
dlmthread.c	highmem.h
dlmthread.c	inet.h
dlmthread.c	init.h
dlmthread.c	kthread.h
dlmthread.c	masklog.h
dlmthread.c	module.h
dlmthread.c	nodemanager.h
dlmthread.c	random.h
dlmthread.c	socket.h
dlmthread.c	sysctl.h
dlmthread.c	tcp.h
dlmthread.c	timer.h
dlmthread.c	types.h
dlmunlock.c	blkdev.h
dlmunlock.c	delay.h
dlmunlock.c	dlmapi.h
dlmunlock.c	dlmcommon.h
dlmunlock.c	fs.h
dlmunlock.c	heartbeat.h
dlmunlock.c	highmem.h
dlmunlock.c	inet.h
dlmunlock.c	init.h
dlmunlock.c	masklog.h
dlmunlock.c	module.h
dlmunlock.c	nodemanager.h
dlmunlock.c	random.h
dlmunlock.c	socket.h
dlmunlock.c	spinlock.h
dlmunlock.c	sysctl.h
dlmunlock.c	tcp.h
dlmunlock.c	types.h
dlmver.c	dlmver.h
dlmver.c	kernel.h
dlmver.c	module.h
dns_resolve.c	cache.h
dns_resolve.c	cache_lib.h
dns_resolve.c	clnt.h
dns_resolve.c	clnt.h
dns_resolve.c	dns_resolve.h
dns_resolve.c	dns_resolve.h
dns_resolve.c	dns_resolver.h
dns_resolve.c	hash.h
dns_resolve.c	inet.h
dns_resolve.c	kmod.h
dns_resolve.c	module.h
dns_resolve.c	module.h
dns_resolve.c	module.h
dns_resolve.c	netns.h
dns_resolve.c	rpc_pipe_fs.h
dns_resolve.c	seq_file.h
dns_resolve.c	slab.h
dns_resolve.c	socket.h
dns_resolve.c	string.h
dns_resolve.c	svcauth.h
ecma_167.h	types.h
endian.h	byteorder.h
eventfd.c	anon_inodes.h
eventfd.c	eventfd.h
eventfd.c	export.h
eventfd.c	file.h
eventfd.c	fs.h
eventfd.c	init.h
eventfd.c	kernel.h
eventfd.c	kref.h
eventfd.c	list.h
eventfd.c	poll.h
eventfd.c	proc_fs.h
eventfd.c	sched.h
eventfd.c	seq_file.h
eventfd.c	slab.h
eventfd.c	spinlock.h
eventfd.c	syscalls.h
eventpoll.c	anon_inodes.h
eventpoll.c	atomic.h
eventpoll.c	bitops.h
eventpoll.c	device.h
eventpoll.c	errno.h
eventpoll.c	eventpoll.h
eventpoll.c	file.h
eventpoll.c	fs.h
eventpoll.c	hash.h
eventpoll.c	init.h
eventpoll.c	io.h
eventpoll.c	kernel.h
eventpoll.c	list.h
eventpoll.c	mm.h
eventpoll.c	mman.h
eventpoll.c	mount.h
eventpoll.c	mutex.h
eventpoll.c	poll.h
eventpoll.c	proc_fs.h
eventpoll.c	rbtree.h
eventpoll.c	sched.h
eventpoll.c	seq_file.h
eventpoll.c	signal.h
eventpoll.c	slab.h
eventpoll.c	spinlock.h
eventpoll.c	string.h
eventpoll.c	syscalls.h
eventpoll.c	sysctl.h
eventpoll.c	uaccess.h
eventpoll.c	wait.h
expire.c	autofs_i.h
export.c	dcache.h
export.c	exportfs.h
export.c	fs.h
export.c	slab.h
export.c	squashfs.h
export.c	squashfs_fs.h
export.c	squashfs_fs_i.h
export.c	squashfs_fs_sb.h
export.c	vfs.h
export.h	exportfs.h
extents.c	blocklayout.h
fat.h	buffer_head.h
fat.h	fs.h
fat.h	hash.h
fat.h	msdos_fs.h
fat.h	mutex.h
fat.h	nls.h
fat.h	ratelimit.h
fat.h	string.h
fatent.c	blkdev.h
fatent.c	fat.h
fatent.c	fs.h
fatent.c	module.h
fatent.c	msdos_fs.h
file.c	configfs.h
file.c	configfs.h
file.c	configfs.h
file.c	configfs.h
file.c	configfs.h
file.c	configfs.h
file.c	configfs.h
file.c	configfs.h
file.c	configfs.h
file.c	configfs.h
file.c	configfs.h
file.c	configfs.h
file.c	configfs.h
file.c	configfs_internal.h
file.c	configfs_internal.h
file.c	configfs_internal.h
file.c	configfs_internal.h
file.c	configfs_internal.h
file.c	configfs_internal.h
file.c	configfs_internal.h
file.c	configfs_internal.h
file.c	configfs_internal.h
file.c	configfs_internal.h
file.c	configfs_internal.h
file.c	configfs_internal.h
file.c	configfs_internal.h
file.c	fs.h
file.c	fs.h
file.c	fs.h
file.c	fs.h
file.c	fs.h
file.c	fs.h
file.c	fs.h
file.c	fs.h
file.c	fs.h
file.c	fs.h
file.c	fs.h
file.c	fs.h
file.c	fs.h
file.c	module.h
file.c	module.h
file.c	module.h
file.c	module.h
file.c	module.h
file.c	module.h
file.c	module.h
file.c	module.h
file.c	module.h
file.c	module.h
file.c	module.h
file.c	module.h
file.c	module.h
file.c	mutex.h
file.c	mutex.h
file.c	mutex.h
file.c	mutex.h
file.c	mutex.h
file.c	mutex.h
file.c	mutex.h
file.c	mutex.h
file.c	mutex.h
file.c	mutex.h
file.c	mutex.h
file.c	mutex.h
file.c	mutex.h
file.c	slab.h
file.c	slab.h
file.c	slab.h
file.c	slab.h
file.c	slab.h
file.c	slab.h
file.c	slab.h
file.c	slab.h
file.c	slab.h
file.c	slab.h
file.c	slab.h
file.c	slab.h
file.c	slab.h
file.c	uaccess.h
file.c	uaccess.h
file.c	uaccess.h
file.c	uaccess.h
file.c	uaccess.h
file.c	uaccess.h
file.c	uaccess.h
file.c	uaccess.h
file.c	uaccess.h
file.c	uaccess.h
file.c	uaccess.h
file.c	uaccess.h
file.c	uaccess.h
fragment.c	fs.h
fragment.c	slab.h
fragment.c	squashfs.h
fragment.c	squashfs_fs.h
fragment.c	squashfs_fs_sb.h
fragment.c	vfs.h
fs_struct.c	export.h
fs_struct.c	fs.h
fs_struct.c	fs_struct.h
fs_struct.c	internal.h
fs_struct.c	path.h
fs_struct.c	sched.h
fs_struct.c	slab.h
fscache-index.c	fscache.h
fscache-index.c	in6.h
fscache-index.c	init.h
fscache-index.c	internal.h
fscache-index.c	kernel.h
fscache-index.c	mm.h
fscache-index.c	nfs_fs.h
fscache-index.c	nfs_fs_sb.h
fscache-index.c	sched.h
fscache.c	fscache.h
fscache.c	in6.h
fscache.c	init.h
fscache.c	internal.h
fscache.c	iostat.h
fscache.c	kernel.h
fscache.c	mm.h
fscache.c	nfs_fs.h
fscache.c	nfs_fs_sb.h
fscache.c	sched.h
fscache.c	seq_file.h
fscache.c	slab.h
fscache.h	fscache.h
fscache.h	nfs4_mount.h
fscache.h	nfs_fs.h
fscache.h	nfs_mount.h
fsclient.c	afs_fs.h
fsclient.c	circ_buf.h
fsclient.c	init.h
fsclient.c	internal.h
fsclient.c	sched.h
fsclient.c	slab.h
fuse_i.h	backing-dev.h
fuse_i.h	fs.h
fuse_i.h	fuse.h
fuse_i.h	list.h
fuse_i.h	mm.h
fuse_i.h	mount.h
fuse_i.h	mutex.h
fuse_i.h	poll.h
fuse_i.h	rbtree.h
fuse_i.h	rwsem.h
fuse_i.h	spinlock.h
fuse_i.h	wait.h
fuse_i.h	workqueue.h
gc.c	logfs.h
gc.c	sched.h
gc.c	slab.h
gcinode.c	btnode.h
gcinode.c	btree.h
gcinode.c	buffer_head.h
gcinode.c	dat.h
gcinode.c	hash.h
gcinode.c	ifile.h
gcinode.c	mdt.h
gcinode.c	mpage.h
gcinode.c	nilfs.h
gcinode.c	page.h
gcinode.c	slab.h
gcinode.c	swap.h
getroot.c	bind.h
getroot.c	clnt.h
getroot.c	errno.h
getroot.c	init.h
getroot.c	internal.h
getroot.c	kernel.h
getroot.c	mm.h
getroot.c	module.h
getroot.c	mount.h
getroot.c	namei.h
getroot.c	nfs_fs.h
getroot.c	nfs_mount.h
getroot.c	security.h
getroot.c	seq_file.h
getroot.c	stat.h
getroot.c	stats.h
getroot.c	string.h
getroot.c	time.h
getroot.c	uaccess.h
getroot.c	unistd.h
getroot.c	vfs.h
grace.c	bind.h
grace.c	module.h
grace.c	net_namespace.h
grace.c	netns.h
host.c	clnt.h
host.c	in.h
host.c	in6.h
host.c	ipv6.h
host.c	lockd.h
host.c	mutex.h
host.c	netns.h
host.c	slab.h
host.c	svc.h
host.c	svc_xprt.h
host.c	types.h
hppfs.c	ctype.h
hppfs.c	dcache.h
hppfs.c	file.h
hppfs.c	fs.h
hppfs.c	init.h
hppfs.c	kernel.h
hppfs.c	list.h
hppfs.c	module.h
hppfs.c	mount.h
hppfs.c	namei.h
hppfs.c	os.h
hppfs.c	pid_namespace.h
hppfs.c	slab.h
hppfs.c	statfs.h
hppfs.c	types.h
hppfs.c	uaccess.h
ialloc.c	fs.h
ialloc.c	sched.h
ialloc.c	slab.h
ialloc.c	udf_i.h
ialloc.c	udf_sb.h
ialloc.c	udfdecl.h
id.c	fs.h
id.c	slab.h
id.c	squashfs.h
id.c	squashfs_fs.h
id.c	squashfs_fs_sb.h
id.c	vfs.h
idmap.c	fs.h
idmap.c	internal.h
idmap.c	key-type.h
idmap.c	key.h
idmap.c	keyctl.h
idmap.c	module.h
idmap.c	net_namespace.h
idmap.c	netns.h
idmap.c	nfs_fs.h
idmap.c	nfs_fs_sb.h
idmap.c	nfs_idmap.h
idmap.c	parser.h
idmap.c	rpc_pipe_fs.h
idmap.c	types.h
idmap.c	user-type.h
ifile.c	alloc.h
ifile.c	buffer_head.h
ifile.c	ifile.h
ifile.c	mdt.h
ifile.c	nilfs.h
ifile.c	types.h
ifile.h	alloc.h
ifile.h	buffer_head.h
ifile.h	fs.h
ifile.h	mdt.h
ifile.h	nilfs2_fs.h
init.c	autofs_i.h
init.c	init.h
init.c	module.h
inode.c	backing-dev.h
inode.c	backing-dev.h
inode.c	backing-dev.h
inode.c	backing-dev.h
inode.c	backing-dev.h
inode.c	backing-dev.h
inode.c	backing-dev.h
inode.c	backing-dev.h
inode.c	backing-dev.h
inode.c	backing-dev.h
inode.c	backing-dev.h
inode.c	backing-dev.h
inode.c	backing-dev.h
inode.c	backing-dev.h
inode.c	backing-dev.h
inode.c	backing-dev.h
inode.c	backing-dev.h
inode.c	capability.h
inode.c	capability.h
inode.c	capability.h
inode.c	capability.h
inode.c	capability.h
inode.c	capability.h
inode.c	capability.h
inode.c	capability.h
inode.c	capability.h
inode.c	capability.h
inode.c	capability.h
inode.c	capability.h
inode.c	capability.h
inode.c	capability.h
inode.c	capability.h
inode.c	capability.h
inode.c	capability.h
inode.c	configfs.h
inode.c	configfs.h
inode.c	configfs.h
inode.c	configfs.h
inode.c	configfs.h
inode.c	configfs.h
inode.c	configfs.h
inode.c	configfs.h
inode.c	configfs.h
inode.c	configfs.h
inode.c	configfs.h
inode.c	configfs.h
inode.c	configfs.h
inode.c	configfs.h
inode.c	configfs.h
inode.c	configfs.h
inode.c	configfs.h
inode.c	configfs_internal.h
inode.c	configfs_internal.h
inode.c	configfs_internal.h
inode.c	configfs_internal.h
inode.c	configfs_internal.h
inode.c	configfs_internal.h
inode.c	configfs_internal.h
inode.c	configfs_internal.h
inode.c	configfs_internal.h
inode.c	configfs_internal.h
inode.c	configfs_internal.h
inode.c	configfs_internal.h
inode.c	configfs_internal.h
inode.c	configfs_internal.h
inode.c	configfs_internal.h
inode.c	configfs_internal.h
inode.c	configfs_internal.h
inode.c	lockdep.h
inode.c	lockdep.h
inode.c	lockdep.h
inode.c	lockdep.h
inode.c	lockdep.h
inode.c	lockdep.h
inode.c	lockdep.h
inode.c	lockdep.h
inode.c	lockdep.h
inode.c	lockdep.h
inode.c	lockdep.h
inode.c	lockdep.h
inode.c	lockdep.h
inode.c	lockdep.h
inode.c	lockdep.h
inode.c	lockdep.h
inode.c	lockdep.h
inode.c	namei.h
inode.c	namei.h
inode.c	namei.h
inode.c	namei.h
inode.c	namei.h
inode.c	namei.h
inode.c	namei.h
inode.c	namei.h
inode.c	namei.h
inode.c	namei.h
inode.c	namei.h
inode.c	namei.h
inode.c	namei.h
inode.c	namei.h
inode.c	namei.h
inode.c	namei.h
inode.c	namei.h
inode.c	pagemap.h
inode.c	pagemap.h
inode.c	pagemap.h
inode.c	pagemap.h
inode.c	pagemap.h
inode.c	pagemap.h
inode.c	pagemap.h
inode.c	pagemap.h
inode.c	pagemap.h
inode.c	pagemap.h
inode.c	pagemap.h
inode.c	pagemap.h
inode.c	pagemap.h
inode.c	pagemap.h
inode.c	pagemap.h
inode.c	pagemap.h
inode.c	pagemap.h
inode.c	sched.h
inode.c	sched.h
inode.c	sched.h
inode.c	sched.h
inode.c	sched.h
inode.c	sched.h
inode.c	sched.h
inode.c	sched.h
inode.c	sched.h
inode.c	sched.h
inode.c	sched.h
inode.c	sched.h
inode.c	sched.h
inode.c	sched.h
inode.c	sched.h
inode.c	sched.h
inode.c	sched.h
inode.c	slab.h
inode.c	slab.h
inode.c	slab.h
inode.c	slab.h
inode.c	slab.h
inode.c	slab.h
inode.c	slab.h
inode.c	slab.h
inode.c	slab.h
inode.c	slab.h
inode.c	slab.h
inode.c	slab.h
inode.c	slab.h
inode.c	slab.h
inode.c	slab.h
inode.c	slab.h
inode.c	slab.h
internal.h	lglock.h
internal.h	lglock.h
internal.h	lglock.h
io.c	befs.h
io.c	buffer_head.h
io.c	io.h
ioctl.c	buffer_head.h
ioctl.c	buffer_head.h
ioctl.c	capability.h
ioctl.c	capability.h
ioctl.c	export.h
ioctl.c	export.h
ioctl.c	falloc.h
ioctl.c	falloc.h
ioctl.c	file.h
ioctl.c	file.h
ioctl.c	fs.h
ioctl.c	fs.h
ioctl.c	ioctls.h
ioctl.c	ioctls.h
ioctl.c	mm.h
ioctl.c	mm.h
ioctl.c	security.h
ioctl.c	security.h
ioctl.c	syscalls.h
ioctl.c	syscalls.h
ioctl.c	uaccess.h
ioctl.c	uaccess.h
ioctl.c	writeback.h
ioctl.c	writeback.h
iostat.h	cache.h
iostat.h	nfs_iostat.h
iostat.h	percpu.h
item.c	configfs.h
item.c	module.h
item.c	slab.h
item.c	stat.h
item.c	string.h
itree_v1.c	buffer_head.h
itree_v1.c	itree_common.c
itree_v1.c	minix.h
itree_v1.c	slab.h
itree_v2.c	buffer_head.h
itree_v2.c	itree_common.c
itree_v2.c	minix.h
journal.c	logfs.h
journal.c	logfs.h
journal.c	slab.h
journal.c	slab.h
linuxvfs.c	befs.h
linuxvfs.c	btree.h
linuxvfs.c	buffer_head.h
linuxvfs.c	datastream.h
linuxvfs.c	errno.h
linuxvfs.c	fs.h
linuxvfs.c	inode.h
linuxvfs.c	io.h
linuxvfs.c	module.h
linuxvfs.c	namei.h
linuxvfs.c	nls.h
linuxvfs.c	parser.h
linuxvfs.c	sched.h
linuxvfs.c	slab.h
linuxvfs.c	stat.h
linuxvfs.c	super.h
linuxvfs.c	vfs.h
locks.c	capability.h
locks.c	fdtable.h
locks.c	file.h
locks.c	fs.h
locks.c	init.h
locks.c	module.h
locks.c	pid_namespace.h
locks.c	proc_fs.h
locks.c	rcupdate.h
locks.c	security.h
locks.c	seq_file.h
locks.c	slab.h
locks.c	syscalls.h
locks.c	time.h
locks.c	uaccess.h
logfs.h	btree.h
logfs.h	crc32.h
logfs.h	fs.h
logfs.h	kernel.h
logfs.h	logfs_abi.h
logfs.h	mempool.h
logfs.h	mtd.h
logfs.h	pagemap.h
lowlevel.c	blkdev.h
lowlevel.c	cdrom.h
lowlevel.c	uaccess.h
lowlevel.c	udf_sb.h
lowlevel.c	udfdecl.h
lzo_wrapper.c	buffer_head.h
lzo_wrapper.c	decompressor.h
lzo_wrapper.c	lzo.h
lzo_wrapper.c	mutex.h
lzo_wrapper.c	slab.h
lzo_wrapper.c	squashfs.h
lzo_wrapper.c	squashfs_fs.h
lzo_wrapper.c	squashfs_fs_sb.h
lzo_wrapper.c	vmalloc.h
mbcache.c	fs.h
mbcache.c	hash.h
mbcache.c	init.h
mbcache.c	kernel.h
mbcache.c	mbcache.h
mbcache.c	mm.h
mbcache.c	module.h
mbcache.c	sched.h
mbcache.c	slab.h
mdt.c	backing-dev.h
mdt.c	btnode.h
mdt.c	buffer_head.h
mdt.c	mdt.h
mdt.c	mm.h
mdt.c	mpage.h
mdt.c	nilfs.h
mdt.c	page.h
mdt.c	segment.h
mdt.c	slab.h
mdt.c	swap.h
mdt.c	writeback.h
mdt.h	blockgroup_lock.h
mdt.h	buffer_head.h
mdt.h	nilfs.h
mdt.h	page.h
minix.h	fs.h
minix.h	minix_fs.h
minix.h	pagemap.h
misc.c	buffer_head.h
misc.c	buffer_head.h
misc.c	buffer_head.h
misc.c	crc-itu-t.h
misc.c	crc-itu-t.h
misc.c	crc-itu-t.h
misc.c	fs.h
misc.c	fs.h
misc.c	fs.h
misc.c	string.h
misc.c	string.h
misc.c	string.h
misc.c	udf_i.h
misc.c	udf_i.h
misc.c	udf_i.h
misc.c	udf_sb.h
misc.c	udf_sb.h
misc.c	udf_sb.h
misc.c	udfdecl.h
misc.c	udfdecl.h
misc.c	udfdecl.h
mmap-nommu.c	internal.h
mmap-nommu.c	mm.h
mmap-nommu.c	super.h
mmap.c	aops.h
mmap.c	dlmglue.h
mmap.c	file.h
mmap.c	fs.h
mmap.c	highmem.h
mmap.c	inode.h
mmap.c	masklog.h
mmap.c	mmap.h
mmap.c	ocfs2.h
mmap.c	ocfs2_trace.h
mmap.c	pagemap.h
mmap.c	rbtree.h
mmap.c	signal.h
mmap.c	super.h
mmap.c	types.h
mmap.c	uio.h
mntpt.c	fs.h
mntpt.c	gfp.h
mntpt.c	init.h
mntpt.c	internal.h
mntpt.c	kernel.h
mntpt.c	module.h
mntpt.c	mount.h
mntpt.c	namei.h
mntpt.c	pagemap.h
mon.c	clnt.h
mon.c	kernel.h
mon.c	ktime.h
mon.c	lockd.h
mon.c	netns.h
mon.c	slab.h
mon.c	svc.h
mon.c	types.h
mon.c	unaligned.h
mon.c	xprtsock.h
mount.c	configfs.h
mount.c	configfs_internal.h
mount.c	fs.h
mount.c	init.h
mount.c	module.h
mount.c	mount.h
mount.c	pagemap.h
mount.c	slab.h
mount_clnt.c	clnt.h
mount_clnt.c	errno.h
mount_clnt.c	in.h
mount_clnt.c	internal.h
mount_clnt.c	kernel.h
mount_clnt.c	net.h
mount_clnt.c	nfs_fs.h
mount_clnt.c	sched.h
mount_clnt.c	socket.h
mount_clnt.c	types.h
mount_clnt.c	uio.h
mpage.c	backing-dev.h
mpage.c	bio.h
mpage.c	blkdev.h
mpage.c	buffer_head.h
mpage.c	cleancache.h
mpage.c	export.h
mpage.c	fs.h
mpage.c	gfp.h
mpage.c	highmem.h
mpage.c	kdev_t.h
mpage.c	kernel.h
mpage.c	mm.h
mpage.c	mpage.h
mpage.c	pagevec.h
mpage.c	prefetch.h
mpage.c	writeback.h
namei.c	buffer_head.h
namei.c	buffer_head.h
namei.c	buffer_head.h
namei.c	buffer_head.h
namei.c	crc-itu-t.h
namei.c	crc-itu-t.h
namei.c	crc-itu-t.h
namei.c	crc-itu-t.h
namei.c	errno.h
namei.c	errno.h
namei.c	errno.h
namei.c	errno.h
namei.c	exportfs.h
namei.c	exportfs.h
namei.c	exportfs.h
namei.c	exportfs.h
namei.c	mm.h
namei.c	mm.h
namei.c	mm.h
namei.c	mm.h
namei.c	sched.h
namei.c	sched.h
namei.c	sched.h
namei.c	sched.h
namei.c	slab.h
namei.c	slab.h
namei.c	slab.h
namei.c	slab.h
namei.c	string.h
namei.c	string.h
namei.c	string.h
namei.c	string.h
namei.c	udf_i.h
namei.c	udf_i.h
namei.c	udf_i.h
namei.c	udf_i.h
namei.c	udf_sb.h
namei.c	udf_sb.h
namei.c	udf_sb.h
namei.c	udf_sb.h
namei.c	udfdecl.h
namei.c	udfdecl.h
namei.c	udfdecl.h
namei.c	udfdecl.h
namei_msdos.c	buffer_head.h
namei_msdos.c	fat.h
namei_msdos.c	module.h
namei_msdos.c	time.h
namei_vfat.c	buffer_head.h
namei_vfat.c	ctype.h
namei_vfat.c	fat.h
namei_vfat.c	jiffies.h
namei_vfat.c	module.h
namei_vfat.c	namei.h
namei_vfat.c	slab.h
namespace.c	clnt.h
namespace.c	clnt.h
namespace.c	dcache.h
namespace.c	dcache.h
namespace.c	gfp.h
namespace.c	gfp.h
namespace.c	gss_api.h
namespace.c	gss_api.h
namespace.c	internal.h
namespace.c	internal.h
namespace.c	module.h
namespace.c	module.h
namespace.c	mount.h
namespace.c	mount.h
namespace.c	namei.h
namespace.c	namei.h
namespace.c	nfs_fs.h
namespace.c	nfs_fs.h
namespace.c	string.h
namespace.c	string.h
namespace.c	vfs.h
namespace.c	vfs.h
netdevices.c	if_arp.h
netdevices.c	inetdevice.h
netdevices.c	internal.h
netdevices.c	net_namespace.h
netdevices.c	netdevice.h
netdevices.c	rtnetlink.h
netdevices.c	string.h
netns.h	fs.h
netns.h	fs.h
netns.h	generic.h
netns.h	generic.h
nfs.c	exportfs.h
nfs.c	fat.h
nfs.h	fs.h
nfs.h	nfs_xdr.h
nfs.h	sched.h
nfs2super.c	internal.h
nfs2super.c	module.h
nfs2super.c	nfs.h
nfs2super.c	nfs_fs.h
nfs2xdr.c	clnt.h
nfs2xdr.c	errno.h
nfs2xdr.c	in.h
nfs2xdr.c	internal.h
nfs2xdr.c	mm.h
nfs2xdr.c	nfs.h
nfs2xdr.c	nfs2.h
nfs2xdr.c	nfs_fs.h
nfs2xdr.c	pagemap.h
nfs2xdr.c	param.h
nfs2xdr.c	proc_fs.h
nfs2xdr.c	string.h
nfs2xdr.c	time.h
nfs3acl.c	fs.h
nfs3acl.c	gfp.h
nfs3acl.c	internal.h
nfs3acl.c	nfs.h
nfs3acl.c	nfs3.h
nfs3acl.c	nfs_fs.h
nfs3acl.c	nfsacl.h
nfs3acl.c	posix_acl_xattr.h
nfs3client.c	internal.h
nfs3client.c	nfs_fs.h
nfs3client.c	nfs_mount.h
nfs3proc.c	bind.h
nfs3proc.c	clnt.h
nfs3proc.c	errno.h
nfs3proc.c	freezer.h
nfs3proc.c	internal.h
nfs3proc.c	iostat.h
nfs3proc.c	mm.h
nfs3proc.c	nfs.h
nfs3proc.c	nfs3.h
nfs3proc.c	nfs_fs.h
nfs3proc.c	nfs_mount.h
nfs3proc.c	nfs_page.h
nfs3proc.c	slab.h
nfs3proc.c	string.h
nfs3super.c	internal.h
nfs3super.c	module.h
nfs3super.c	nfs.h
nfs3super.c	nfs_fs.h
nfs3xdr.c	clnt.h
nfs3xdr.c	errno.h
nfs3xdr.c	in.h
nfs3xdr.c	internal.h
nfs3xdr.c	kdev_t.h
nfs3xdr.c	mm.h
nfs3xdr.c	nfs.h
nfs3xdr.c	nfs3.h
nfs3xdr.c	nfs_fs.h
nfs3xdr.c	nfsacl.h
nfs3xdr.c	pagemap.h
nfs3xdr.c	param.h
nfs3xdr.c	proc_fs.h
nfs3xdr.c	string.h
nfs3xdr.c	time.h
nfs4client.c	auth.h
nfs4client.c	bc_xprt.h
nfs4client.c	callback.h
nfs4client.c	delegation.h
nfs4client.c	internal.h
nfs4client.c	module.h
nfs4client.c	netns.h
nfs4client.c	nfs4session.h
nfs4client.c	nfs_fs.h
nfs4client.c	nfs_idmap.h
nfs4client.c	nfs_mount.h
nfs4client.c	pnfs.h
nfs4client.c	xprt.h
nfs4file.c	fscache.h
nfs4file.c	internal.h
nfs4file.c	nfs_fs.h
nfs4file.c	pnfs.h
nfs4filelayout.c	delegation.h
nfs4filelayout.c	internal.h
nfs4filelayout.c	metrics.h
nfs4filelayout.c	module.h
nfs4filelayout.c	nfs4filelayout.h
nfs4filelayout.c	nfs4session.h
nfs4filelayout.c	nfs_fs.h
nfs4filelayout.c	nfs_page.h
nfs4filelayout.h	pnfs.h
nfs4filelayoutdev.c	internal.h
nfs4filelayoutdev.c	module.h
nfs4filelayoutdev.c	nfs4filelayout.h
nfs4filelayoutdev.c	nfs4session.h
nfs4filelayoutdev.c	nfs_fs.h
nfs4filelayoutdev.c	vmalloc.h
nfs4getroot.c	internal.h
nfs4getroot.c	nfs4_fs.h
nfs4getroot.c	nfs_fs.h
nfs4namespace.c	clnt.h
nfs4namespace.c	dcache.h
nfs4namespace.c	dns_resolve.h
nfs4namespace.c	inet.h
nfs4namespace.c	internal.h
nfs4namespace.c	mount.h
nfs4namespace.c	namei.h
nfs4namespace.c	nfs4_fs.h
nfs4namespace.c	nfs_fs.h
nfs4namespace.c	slab.h
nfs4namespace.c	string.h
nfs4namespace.c	vfs.h
nfs4proc.c	callback.h
nfs4proc.c	clnt.h
nfs4proc.c	delay.h
nfs4proc.c	delegation.h
nfs4proc.c	errno.h
nfs4proc.c	freezer.h
nfs4proc.c	fscache.h
nfs4proc.c	internal.h
nfs4proc.c	iostat.h
nfs4proc.c	mm.h
nfs4proc.c	module.h
nfs4proc.c	mount.h
nfs4proc.c	namei.h
nfs4proc.c	netns.h
nfs4proc.c	nfs.h
nfs4proc.c	nfs4.h
nfs4proc.c	nfs4_fs.h
nfs4proc.c	nfs4session.h
nfs4proc.c	nfs_fs.h
nfs4proc.c	nfs_idmap.h
nfs4proc.c	nfs_mount.h
nfs4proc.c	nfs_page.h
nfs4proc.c	pnfs.h
nfs4proc.c	printk.h
nfs4proc.c	ratelimit.h
nfs4proc.c	slab.h
nfs4proc.c	string.h
nfs4proc.c	utsname.h
nfs4proc.c	xattr.h
nfs4renewd.c	clnt.h
nfs4renewd.c	delegation.h
nfs4renewd.c	mm.h
nfs4renewd.c	nfs.h
nfs4renewd.c	nfs4.h
nfs4renewd.c	nfs4_fs.h
nfs4renewd.c	nfs_fs.h
nfs4renewd.c	pagemap.h
nfs4renewd.c	sched.h
nfs4session.c	bc_xprt.h
nfs4session.c	callback.h
nfs4session.c	errno.h
nfs4session.c	internal.h
nfs4session.c	kernel.h
nfs4session.c	module.h
nfs4session.c	nfs.h
nfs4session.c	nfs4.h
nfs4session.c	nfs4_fs.h
nfs4session.c	nfs4session.h
nfs4session.c	nfs_fs.h
nfs4session.c	printk.h
nfs4session.c	sched.h
nfs4session.c	slab.h
nfs4session.c	string.h
nfs4state.c	bitops.h
nfs4state.c	callback.h
nfs4state.c	clnt.h
nfs4state.c	delegation.h
nfs4state.c	fs.h
nfs4state.c	internal.h
nfs4state.c	jiffies.h
nfs4state.c	kernel.h
nfs4state.c	kthread.h
nfs4state.c	module.h
nfs4state.c	netns.h
nfs4state.c	nfs4_fs.h
nfs4state.c	nfs4session.h
nfs4state.c	nfs_fs.h
nfs4state.c	nfs_idmap.h
nfs4state.c	pnfs.h
nfs4state.c	random.h
nfs4state.c	ratelimit.h
nfs4state.c	slab.h
nfs4state.c	workqueue.h
nfs4super.c	delegation.h
nfs4super.c	init.h
nfs4super.c	internal.h
nfs4super.c	module.h
nfs4super.c	nfs.h
nfs4super.c	nfs4_fs.h
nfs4super.c	nfs4_mount.h
nfs4super.c	nfs_fs.h
nfs4super.c	nfs_idmap.h
nfs4super.c	pnfs.h
nfs4sysctl.c	callback.h
nfs4sysctl.c	nfs4_fs.h
nfs4sysctl.c	nfs_fs.h
nfs4sysctl.c	nfs_idmap.h
nfs4sysctl.c	sysctl.h
nfs4xdr.c	clnt.h
nfs4xdr.c	errno.h
nfs4xdr.c	gss_api.h
nfs4xdr.c	in.h
nfs4xdr.c	internal.h
nfs4xdr.c	kdev_t.h
nfs4xdr.c	mm.h
nfs4xdr.c	module.h
nfs4xdr.c	msg_prot.h
nfs4xdr.c	netns.h
nfs4xdr.c	nfs.h
nfs4xdr.c	nfs4.h
nfs4xdr.c	nfs4_fs.h
nfs4xdr.c	nfs4session.h
nfs4xdr.c	nfs_fs.h
nfs4xdr.c	nfs_idmap.h
nfs4xdr.c	pagemap.h
nfs4xdr.c	param.h
nfs4xdr.c	pnfs.h
nfs4xdr.c	proc_fs.h
nfs4xdr.c	string.h
nfs4xdr.c	time.h
nfs4xdr.c	utsname.h
nfsroot.c	init.h
nfsroot.c	internal.h
nfsroot.c	ipconfig.h
nfsroot.c	nfs.h
nfsroot.c	nfs_fs.h
nfsroot.c	root_dev.h
nfsroot.c	string.h
nfsroot.c	types.h
nfsroot.c	utsname.h
nilfs.h	blkdev.h
nilfs.h	bmap.h
nilfs.h	buffer_head.h
nilfs.h	kernel.h
nilfs.h	nilfs2_fs.h
nilfs.h	spinlock.h
nilfs.h	the_nilfs.h
objio_osd.c	internal.h
objio_osd.c	module.h
objio_osd.c	objlayout.h
objio_osd.c	osd_ore.h
objlayout.c	kmod.h
objlayout.c	moduleparam.h
objlayout.c	objlayout.h
objlayout.c	osd_initiator.h
objlayout.c	ratelimit.h
objlayout.h	nfs_fs.h
objlayout.h	pnfs.h
objlayout.h	pnfs_osd_xdr.h
osta_udf.h	ecma_167.h
page.c	bitops.h
page.c	gfp.h
page.c	highmem.h
page.c	list.h
page.c	mdt.h
page.c	nilfs.h
page.c	page-flags.h
page.c	page.h
page.c	pagemap.h
page.c	pagevec.h
page.c	swap.h
page.c	writeback.h
page.h	buffer_head.h
page.h	nilfs.h
pagelist.c	clnt.h
pagelist.c	export.h
pagelist.c	file.h
pagelist.c	internal.h
pagelist.c	nfs.h
pagelist.c	nfs3.h
pagelist.c	nfs4.h
pagelist.c	nfs_fs.h
pagelist.c	nfs_mount.h
pagelist.c	nfs_page.h
pagelist.c	pnfs.h
pagelist.c	sched.h
pagelist.c	slab.h
partition.c	buffer_head.h
partition.c	fs.h
partition.c	mutex.h
partition.c	string.h
partition.c	udf_i.h
partition.c	udf_sb.h
partition.c	udfdecl.h
pioctl.c	coda.h
pioctl.c	coda_linux.h
pioctl.c	coda_psdev.h
pioctl.c	errno.h
pioctl.c	fs.h
pioctl.c	kernel.h
pioctl.c	module.h
pioctl.c	namei.h
pioctl.c	stat.h
pioctl.c	string.h
pioctl.c	time.h
pioctl.c	types.h
pioctl.c	uaccess.h
pipe.c	audit.h
pipe.c	fcntl.h
pipe.c	file.h
pipe.c	fs.h
pipe.c	highmem.h
pipe.c	init.h
pipe.c	ioctls.h
pipe.c	log2.h
pipe.c	magic.h
pipe.c	mm.h
pipe.c	module.h
pipe.c	mount.h
pipe.c	pagemap.h
pipe.c	pipe_fs_i.h
pipe.c	poll.h
pipe.c	slab.h
pipe.c	syscalls.h
pipe.c	uaccess.h
pipe.c	uio.h
pnfs.c	internal.h
pnfs.c	iostat.h
pnfs.c	module.h
pnfs.c	nfs_fs.h
pnfs.c	nfs_page.h
pnfs.c	pnfs.h
pnfs.h	nfs_fs.h
pnfs.h	nfs_page.h
pnfs_dev.c	export.h
pnfs_dev.c	pnfs.h
pnfs_osd_xdr_cli.c	pnfs_osd_xdr.h
proc.c	bind.h
proc.c	bind.h
proc.c	clnt.h
proc.c	clnt.h
proc.c	errno.h
proc.c	errno.h
proc.c	freezer.h
proc.c	freezer.h
proc.c	in.h
proc.c	in.h
proc.c	internal.h
proc.c	internal.h
proc.c	mm.h
proc.c	mm.h
proc.c	nfs.h
proc.c	nfs.h
proc.c	nfs2.h
proc.c	nfs2.h
proc.c	nfs_fs.h
proc.c	nfs_fs.h
proc.c	nfs_page.h
proc.c	nfs_page.h
proc.c	pagemap.h
proc.c	pagemap.h
proc.c	param.h
proc.c	param.h
proc.c	string.h
proc.c	string.h
proc.c	time.h
proc.c	time.h
proc.c	types.h
proc.c	types.h
psdev.c	coda.h
psdev.c	coda_int.h
psdev.c	coda_linux.h
psdev.c	coda_psdev.h
psdev.c	delay.h
psdev.c	device.h
psdev.c	errno.h
psdev.c	fcntl.h
psdev.c	file.h
psdev.c	fs.h
psdev.c	init.h
psdev.c	io.h
psdev.c	ioport.h
psdev.c	kernel.h
psdev.c	list.h
psdev.c	major.h
psdev.c	module.h
psdev.c	mutex.h
psdev.c	poll.h
psdev.c	poll.h
psdev.c	proc_fs.h
psdev.c	sched.h
psdev.c	skbuff.h
psdev.c	slab.h
psdev.c	time.h
psdev.c	uaccess.h
psdev.c	vmalloc.h
read.c	clnt.h
read.c	errno.h
read.c	fcntl.h
read.c	fscache.h
read.c	internal.h
read.c	iostat.h
read.c	kernel.h
read.c	mm.h
read.c	module.h
read.c	nfs4_fs.h
read.c	nfs_fs.h
read.c	nfs_page.h
read.c	pagemap.h
read.c	slab.h
read.c	stat.h
read.c	time.h
readwrite.c	logfs.h
readwrite.c	sched.h
readwrite.c	slab.h
recovery.c	blkdev.h
recovery.c	blkdev.h
recovery.c	buffer_head.h
recovery.c	buffer_head.h
recovery.c	crc32.h
recovery.c	crc32.h
recovery.c	nilfs.h
recovery.c	nilfs.h
recovery.c	page.h
recovery.c	page.h
recovery.c	segbuf.h
recovery.c	segbuf.h
recovery.c	segment.h
recovery.c	segment.h
recovery.c	slab.h
recovery.c	slab.h
recovery.c	sufile.h
recovery.c	sufile.h
recovery.c	swap.h
recovery.c	swap.h
reservations.c	bitops.h
reservations.c	fs.h
reservations.c	highmem.h
reservations.c	list.h
reservations.c	masklog.h
reservations.c	ocfs2.h
reservations.c	ocfs2_trace.h
reservations.c	types.h
revoke.c	bio.h
revoke.c	errno.h
revoke.c	fs.h
revoke.c	init.h
revoke.c	jbd2.h
revoke.c	jfs_user.h
revoke.c	list.h
revoke.c	log2.h
revoke.c	slab.h
revoke.c	time.h
root.c	autofs_i.h
root.c	capability.h
root.c	compat.h
root.c	errno.h
root.c	mutex.h
root.c	param.h
root.c	slab.h
root.c	stat.h
root.c	time.h
rxrpc.c	af_rxrpc.h
rxrpc.c	afs_cm.h
rxrpc.c	internal.h
rxrpc.c	packet.h
rxrpc.c	slab.h
rxrpc.c	sock.h
security.c	ctype.h
security.c	fs.h
security.c	init.h
security.c	internal.h
security.c	rxrpc-type.h
security.c	sched.h
security.c	slab.h
segbuf.c	backing-dev.h
segbuf.c	buffer_head.h
segbuf.c	crc32.h
segbuf.c	page.h
segbuf.c	segbuf.h
segbuf.c	slab.h
segbuf.c	writeback.h
segbuf.h	bio.h
segbuf.h	buffer_head.h
segbuf.h	completion.h
segbuf.h	fs.h
segment.c	backing-dev.h
segment.c	backing-dev.h
segment.c	bio.h
segment.c	bio.h
segment.c	blkdev.h
segment.c	blkdev.h
segment.c	btnode.h
segment.c	btnode.h
segment.c	buffer_head.h
segment.c	buffer_head.h
segment.c	completion.h
segment.c	completion.h
segment.c	cpfile.h
segment.c	cpfile.h
segment.c	crc32.h
segment.c	crc32.h
segment.c	freezer.h
segment.c	freezer.h
segment.c	ifile.h
segment.c	ifile.h
segment.c	kthread.h
segment.c	kthread.h
segment.c	nilfs.h
segment.c	nilfs.h
segment.c	page.h
segment.c	page.h
segment.c	pagemap.h
segment.c	pagemap.h
segment.c	pagevec.h
segment.c	pagevec.h
segment.c	segbuf.h
segment.c	segbuf.h
segment.c	segment.h
segment.c	segment.h
segment.c	slab.h
segment.c	slab.h
segment.c	sufile.h
segment.c	sufile.h
segment.c	writeback.h
segment.c	writeback.h
segment.h	buffer_head.h
segment.h	fs.h
segment.h	nilfs.h
segment.h	nilfs2_fs.h
segment.h	types.h
seq_file.c	cred.h
seq_file.c	export.h
seq_file.c	fs.h
seq_file.c	page.h
seq_file.c	seq_file.h
seq_file.c	slab.h
seq_file.c	uaccess.h
server.c	internal.h
server.c	sched.h
server.c	slab.h
slot_map.c	buffer_head_io.h
slot_map.c	dlmglue.h
slot_map.c	extent_map.h
slot_map.c	heartbeat.h
slot_map.c	highmem.h
slot_map.c	inode.h
slot_map.c	masklog.h
slot_map.c	ocfs2.h
slot_map.c	ocfs2_trace.h
slot_map.c	slab.h
slot_map.c	slot_map.h
slot_map.c	super.h
slot_map.c	sysfile.h
slot_map.c	types.h
squashfs_fs_sb.h	squashfs_fs.h
stack.c	export.h
stack.c	fs.h
stack.c	fs_stack.h
stat.c	errno.h
stat.c	export.h
stat.c	file.h
stat.c	fs.h
stat.c	highuid.h
stat.c	mm.h
stat.c	namei.h
stat.c	pagemap.h
stat.c	security.h
stat.c	syscalls.h
stat.c	uaccess.h
stat.c	unistd.h
storage.c	buffer_head.h
storage.c	fs.h
storage.c	internal.h
storage.c	super.h
sufile.c	buffer_head.h
sufile.c	errno.h
sufile.c	fs.h
sufile.c	kernel.h
sufile.c	mdt.h
sufile.c	nilfs2_fs.h
sufile.c	string.h
sufile.c	sufile.h
sufile.h	buffer_head.h
sufile.h	fs.h
sufile.h	mdt.h
sufile.h	nilfs2_fs.h
super.c	acct.h
super.c	acct.h
super.c	acct.h
super.c	acct.h
super.c	acct.h
super.c	acct.h
super.c	acct.h
super.c	acct.h
super.c	backing-dev.h
super.c	backing-dev.h
super.c	backing-dev.h
super.c	backing-dev.h
super.c	backing-dev.h
super.c	backing-dev.h
super.c	backing-dev.h
super.c	backing-dev.h
super.c	blkdev.h
super.c	blkdev.h
super.c	blkdev.h
super.c	blkdev.h
super.c	blkdev.h
super.c	blkdev.h
super.c	blkdev.h
super.c	blkdev.h
super.c	cleancache.h
super.c	cleancache.h
super.c	cleancache.h
super.c	cleancache.h
super.c	cleancache.h
super.c	cleancache.h
super.c	cleancache.h
super.c	cleancache.h
super.c	export.h
super.c	export.h
super.c	export.h
super.c	export.h
super.c	export.h
super.c	export.h
super.c	export.h
super.c	export.h
super.c	fsnotify.h
super.c	fsnotify.h
super.c	fsnotify.h
super.c	fsnotify.h
super.c	fsnotify.h
super.c	fsnotify.h
super.c	fsnotify.h
super.c	fsnotify.h
super.c	idr.h
super.c	idr.h
super.c	idr.h
super.c	idr.h
super.c	idr.h
super.c	idr.h
super.c	idr.h
super.c	idr.h
super.c	internal.h
super.c	internal.h
super.c	internal.h
super.c	internal.h
super.c	internal.h
super.c	internal.h
super.c	internal.h
super.c	internal.h
super.c	lockdep.h
super.c	lockdep.h
super.c	lockdep.h
super.c	lockdep.h
super.c	lockdep.h
super.c	lockdep.h
super.c	lockdep.h
super.c	lockdep.h
super.c	mount.h
super.c	mount.h
super.c	mount.h
super.c	mount.h
super.c	mount.h
super.c	mount.h
super.c	mount.h
super.c	mount.h
super.c	mutex.h
super.c	mutex.h
super.c	mutex.h
super.c	mutex.h
super.c	mutex.h
super.c	mutex.h
super.c	mutex.h
super.c	mutex.h
super.c	rculist_bl.h
super.c	rculist_bl.h
super.c	rculist_bl.h
super.c	rculist_bl.h
super.c	rculist_bl.h
super.c	rculist_bl.h
super.c	rculist_bl.h
super.c	rculist_bl.h
super.c	security.h
super.c	security.h
super.c	security.h
super.c	security.h
super.c	security.h
super.c	security.h
super.c	security.h
super.c	security.h
super.c	slab.h
super.c	slab.h
super.c	slab.h
super.c	slab.h
super.c	slab.h
super.c	slab.h
super.c	slab.h
super.c	slab.h
super.c	writeback.h
super.c	writeback.h
super.c	writeback.h
super.c	writeback.h
super.c	writeback.h
super.c	writeback.h
super.c	writeback.h
super.c	writeback.h
svc.c	clnt.h
svc.c	errno.h
svc.c	freezer.h
svc.c	in.h
svc.c	init.h
svc.c	ip.h
svc.c	kthread.h
svc.c	lockd.h
svc.c	module.h
svc.c	moduleparam.h
svc.c	mutex.h
svc.c	netns.h
svc.c	nfs.h
svc.c	sched.h
svc.c	smp.h
svc.c	stats.h
svc.c	svc.h
svc.c	svcsock.h
svc.c	sysctl.h
svc.c	types.h
svc.c	uio.h
svc4proc.c	lockd.h
svc4proc.c	share.h
svc4proc.c	svc_xprt.h
svc4proc.c	time.h
svc4proc.c	types.h
svclock.c	clnt.h
svclock.c	errno.h
svclock.c	kernel.h
svclock.c	kthread.h
svclock.c	lockd.h
svclock.c	nlm.h
svclock.c	sched.h
svclock.c	slab.h
svclock.c	svc_xprt.h
svclock.c	types.h
svcproc.c	lockd.h
svcproc.c	share.h
svcproc.c	svc_xprt.h
svcproc.c	time.h
svcproc.c	types.h
svcshare.c	clnt.h
svcshare.c	lockd.h
svcshare.c	share.h
svcshare.c	slab.h
svcshare.c	string.h
svcshare.c	svc.h
svcshare.c	time.h
svcshare.c	unistd.h
svcsubs.c	clnt.h
svcsubs.c	export.h
svcsubs.c	in.h
svcsubs.c	lockd.h
svcsubs.c	module.h
svcsubs.c	mount.h
svcsubs.c	mutex.h
svcsubs.c	nfsfh.h
svcsubs.c	share.h
svcsubs.c	slab.h
svcsubs.c	string.h
svcsubs.c	svc.h
svcsubs.c	time.h
svcsubs.c	types.h
symlink.c	configfs.h
symlink.c	configfs.h
symlink.c	configfs.h
symlink.c	configfs.h
symlink.c	configfs.h
symlink.c	configfs.h
symlink.c	configfs_internal.h
symlink.c	configfs_internal.h
symlink.c	configfs_internal.h
symlink.c	configfs_internal.h
symlink.c	configfs_internal.h
symlink.c	configfs_internal.h
symlink.c	fs.h
symlink.c	fs.h
symlink.c	fs.h
symlink.c	fs.h
symlink.c	fs.h
symlink.c	fs.h
symlink.c	module.h
symlink.c	module.h
symlink.c	module.h
symlink.c	module.h
symlink.c	module.h
symlink.c	module.h
symlink.c	namei.h
symlink.c	namei.h
symlink.c	namei.h
symlink.c	namei.h
symlink.c	namei.h
symlink.c	namei.h
symlink.c	slab.h
symlink.c	slab.h
symlink.c	slab.h
symlink.c	slab.h
symlink.c	slab.h
symlink.c	slab.h
sysctl.c	ctype.h
sysctl.c	ctype.h
sysctl.c	fs.h
sysctl.c	fs.h
sysctl.c	linkage.h
sysctl.c	linkage.h
sysctl.c	module.h
sysctl.c	module.h
sysctl.c	nfs_fs.h
sysctl.c	nfs_fs.h
sysctl.c	sysctl.h
sysctl.c	sysctl.h
sysctl.c	types.h
sysctl.c	types.h
the_nilfs.c	alloc.h
the_nilfs.c	backing-dev.h
the_nilfs.c	blkdev.h
the_nilfs.c	buffer_head.h
the_nilfs.c	cpfile.h
the_nilfs.c	crc32.h
the_nilfs.c	dat.h
the_nilfs.c	nilfs.h
the_nilfs.c	random.h
the_nilfs.c	segbuf.h
the_nilfs.c	segment.h
the_nilfs.c	slab.h
the_nilfs.c	sufile.h
the_nilfs.h	backing-dev.h
the_nilfs.h	blkdev.h
the_nilfs.h	buffer_head.h
the_nilfs.h	fs.h
the_nilfs.h	rbtree.h
the_nilfs.h	slab.h
the_nilfs.h	types.h
transaction.c	backing-dev.h
transaction.c	bug.h
transaction.c	errno.h
transaction.c	fs.h
transaction.c	highmem.h
transaction.c	hrtimer.h
transaction.c	jbd2.h
transaction.c	mm.h
transaction.c	module.h
transaction.c	slab.h
transaction.c	time.h
transaction.c	timer.h
truncate.c	buffer_head.h
truncate.c	fs.h
truncate.c	mm.h
truncate.c	udf_i.h
truncate.c	udf_sb.h
truncate.c	udfdecl.h
udf_sb.h	bitops.h
udf_sb.h	mutex.h
udfdecl.h	buffer_head.h
udfdecl.h	ecma_167.h
udfdecl.h	fs.h
udfdecl.h	osta_udf.h
udfdecl.h	types.h
udfdecl.h	udf_fs_i.h
udfdecl.h	udf_i.h
udfdecl.h	udf_sb.h
udfdecl.h	udfend.h
udfend.h	byteorder.h
udfend.h	string.h
udftime.c	kernel.h
udftime.c	types.h
udftime.c	udfdecl.h
uncompress.c	cramfs_fs.h
uncompress.c	errno.h
uncompress.c	kernel.h
uncompress.c	vmalloc.h
uncompress.c	zlib.h
unicode.c	crc-itu-t.h
unicode.c	kernel.h
unicode.c	nls.h
unicode.c	slab.h
unicode.c	string.h
unicode.c	udf_sb.h
unicode.c	udfdecl.h
unlink.c	clnt.h
unlink.c	dcache.h
unlink.c	delegation.h
unlink.c	internal.h
unlink.c	iostat.h
unlink.c	namei.h
unlink.c	nfs4_fs.h
unlink.c	nfs_fs.h
unlink.c	sched.h
unlink.c	sched.h
unlink.c	slab.h
unlink.c	string.h
unlink.c	wait.h
upcall.c	coda.h
upcall.c	coda_cache.h
upcall.c	coda_int.h
upcall.c	coda_linux.h
upcall.c	coda_psdev.h
upcall.c	errno.h
upcall.c	file.h
upcall.c	fs.h
upcall.c	kernel.h
upcall.c	mm.h
upcall.c	mutex.h
upcall.c	sched.h
upcall.c	signal.h
upcall.c	slab.h
upcall.c	stat.h
upcall.c	string.h
upcall.c	time.h
upcall.c	types.h
upcall.c	uaccess.h
upcall.c	vfs.h
upcall.c	vmalloc.h
vlocation.c	init.h
vlocation.c	internal.h
vlocation.c	kernel.h
vlocation.c	module.h
vlocation.c	sched.h
vlocation.c	slab.h
vnode.c	fs.h
vnode.c	init.h
vnode.c	internal.h
vnode.c	kernel.h
vnode.c	module.h
vnode.c	sched.h
volume.c	fs.h
volume.c	init.h
volume.c	internal.h
volume.c	kernel.h
volume.c	module.h
volume.c	pagemap.h
volume.c	sched.h
volume.c	slab.h
waitq.c	autofs_i.h
waitq.c	file.h
waitq.c	signal.h
waitq.c	slab.h
waitq.c	time.h
write.c	backing-dev.h
write.c	backing-dev.h
write.c	clnt.h
write.c	clnt.h
write.c	delegation.h
write.c	delegation.h
write.c	export.h
write.c	export.h
write.c	file.h
write.c	file.h
write.c	fscache.h
write.c	fscache.h
write.c	internal.h
write.c	internal.h
write.c	iostat.h
write.c	iostat.h
write.c	migrate.h
write.c	migrate.h
write.c	mm.h
write.c	mm.h
write.c	nfs4_fs.h
write.c	nfs4_fs.h
write.c	nfs_fs.h
write.c	nfs_fs.h
write.c	nfs_mount.h
write.c	nfs_mount.h
write.c	nfs_page.h
write.c	nfs_page.h
write.c	pagemap.h
write.c	pagemap.h
write.c	pnfs.h
write.c	pnfs.h
write.c	slab.h
write.c	slab.h
write.c	swap.h
write.c	swap.h
write.c	types.h
write.c	types.h
write.c	uaccess.h
write.c	uaccess.h
write.c	writeback.h
write.c	writeback.h
xattr.c	fs.h
xattr.c	init.h
xattr.c	module.h
xattr.c	slab.h
xattr.c	squashfs.h
xattr.c	squashfs_fs.h
xattr.c	squashfs_fs_i.h
xattr.c	squashfs_fs_sb.h
xattr.c	string.h
xattr.c	vfs.h
xattr.c	xattr.h
xattr_id.c	fs.h
xattr_id.c	slab.h
xattr_id.c	squashfs.h
xattr_id.c	squashfs_fs.h
xattr_id.c	squashfs_fs_sb.h
xattr_id.c	vfs.h
xattr_id.c	xattr.h
xdr.c	clnt.h
xdr.c	lockd.h
xdr.c	nfs.h
xdr.c	sched.h
xdr.c	stats.h
xdr.c	svc.h
xdr.c	types.h
xdr.c	xdr.h
xdr4.c	clnt.h
xdr4.c	lockd.h
xdr4.c	nfs.h
xdr4.c	sched.h
xdr4.c	stats.h
xdr4.c	svc.h
xdr4.c	types.h
xdr4.c	xdr.h
xz_wrapper.c	bitops.h
xz_wrapper.c	buffer_head.h
xz_wrapper.c	decompressor.h
xz_wrapper.c	mutex.h
xz_wrapper.c	slab.h
xz_wrapper.c	squashfs.h
xz_wrapper.c	squashfs_fs.h
xz_wrapper.c	squashfs_fs_sb.h
xz_wrapper.c	xz.h
zlib_wrapper.c	buffer_head.h
zlib_wrapper.c	decompressor.h
zlib_wrapper.c	mutex.h
zlib_wrapper.c	slab.h
zlib_wrapper.c	squashfs.h
zlib_wrapper.c	squashfs_fs.h
zlib_wrapper.c	squashfs_fs_sb.h
zlib_wrapper.c	vmalloc.h
zlib_wrapper.c	zlib.h
