acl.c	crc32.h
acl.c	crc32.h
acl.c	crc32.h
acl.c	fs.h
acl.c	fs.h
acl.c	fs.h
acl.c	jffs2.h
acl.c	jffs2.h
acl.c	jffs2.h
acl.c	kernel.h
acl.c	kernel.h
acl.c	kernel.h
acl.c	mtd.h
acl.c	mtd.h
acl.c	mtd.h
acl.c	nodelist.h
acl.c	nodelist.h
acl.c	nodelist.h
acl.c	posix_acl_xattr.h
acl.c	posix_acl_xattr.h
acl.c	posix_acl_xattr.h
acl.c	sched.h
acl.c	sched.h
acl.c	sched.h
acl.c	slab.h
acl.c	slab.h
acl.c	slab.h
acl.c	time.h
acl.c	time.h
acl.c	time.h
acl.c	xattr.h
acl.c	xattr.h
acl.c	xattr.h
affs.h	amigaffs.h
affs.h	buffer_head.h
affs.h	fs.h
affs.h	mutex.h
affs.h	types.h
affs.h	workqueue.h
amigaffs.c	affs.h
attr.c	capability.h
attr.c	evm.h
attr.c	export.h
attr.c	fcntl.h
attr.c	fsnotify.h
attr.c	ima.h
attr.c	mm.h
attr.c	security.h
attr.c	string.h
attr.c	time.h
background.c	completion.h
background.c	freezer.h
background.c	jffs2.h
background.c	kernel.h
background.c	kthread.h
background.c	mtd.h
background.c	nodelist.h
background.c	sched.h
bad_inode.c	export.h
bad_inode.c	fs.h
bad_inode.c	namei.h
bad_inode.c	poll.h
bad_inode.c	stat.h
bad_inode.c	time.h
bitmap.c	affs.h
bitmap.c	affs.h
bitmap.c	slab.h
bitmap.c	slab.h
block_validity.c	blkdev.h
block_validity.c	buffer_head.h
block_validity.c	ext4.h
block_validity.c	fs.h
block_validity.c	mutex.h
block_validity.c	namei.h
block_validity.c	pagemap.h
block_validity.c	quotaops.h
block_validity.c	slab.h
block_validity.c	swap.h
block_validity.c	time.h
budget.c	math64.h
budget.c	ubifs.h
budget.c	writeback.h
build.c	kernel.h
build.c	mtd.h
build.c	nodelist.h
build.c	sched.h
build.c	slab.h
build.c	vmalloc.h
cache.c	9p.h
cache.c	9p.h
cache.c	cache.h
cache.c	cache.h
cache.c	file.h
cache.c	file.h
cache.c	fs.h
cache.c	fs.h
cache.c	jiffies.h
cache.c	jiffies.h
cache.c	sched.h
cache.c	sched.h
cache.c	slab.h
cache.c	slab.h
cache.c	stat.h
cache.c	stat.h
cache.c	v9fs.h
cache.c	v9fs.h
cache.h	fscache.h
cache.h	spinlock.h
char_dev.c	backing-dev.h
char_dev.c	cdev.h
char_dev.c	errno.h
char_dev.c	fs.h
char_dev.c	init.h
char_dev.c	internal.h
char_dev.c	kdev_t.h
char_dev.c	kobj_map.h
char_dev.c	kobject.h
char_dev.c	major.h
char_dev.c	module.h
char_dev.c	mutex.h
char_dev.c	seq_file.h
char_dev.c	slab.h
char_dev.c	string.h
char_dev.c	tty.h
commit.c	freezer.h
commit.c	kthread.h
commit.c	slab.h
commit.c	ubifs.h
compat.c	compat.h
compat.c	ctype.h
compat.c	dirent.h
compat.c	errno.h
compat.c	eventpoll.h
compat.c	fcntl.h
compat.c	fdtable.h
compat.c	file.h
compat.c	fs.h
compat.c	fs_struct.h
compat.c	fsnotify.h
compat.c	highmem.h
compat.c	highuid.h
compat.c	init.h
compat.c	internal.h
compat.c	ioctl.h
compat.c	ioctls.h
compat.c	kernel.h
compat.c	linkage.h
compat.c	mm.h
compat.c	mmu_context.h
compat.c	namei.h
compat.c	ncp_mount.h
compat.c	nfs4_mount.h
compat.c	pagemap.h
compat.c	personality.h
compat.c	poll.h
compat.c	read_write.h
compat.c	rwsem.h
compat.c	security.h
compat.c	signal.h
compat.c	slab.h
compat.c	stddef.h
compat.c	syscalls.h
compat.c	time.h
compat.c	tsacct_kern.h
compat.c	uaccess.h
compat.c	vfs.h
compat_binfmt_elf.c	binfmt_elf.c
compat_binfmt_elf.c	elfcore-compat.h
compat_binfmt_elf.c	time.h
compr.c	compr.h
compr_lzo.c	compr.h
compr_lzo.c	init.h
compr_lzo.c	kernel.h
compr_lzo.c	lzo.h
compr_lzo.c	sched.h
compr_lzo.c	vmalloc.h
compr_rtime.c	compr.h
compr_rtime.c	errno.h
compr_rtime.c	jffs2.h
compr_rtime.c	kernel.h
compr_rtime.c	string.h
compr_rtime.c	types.h
compr_rubin.c	compr.h
compr_rubin.c	errno.h
compr_rubin.c	jffs2.h
compr_rubin.c	string.h
compr_rubin.c	types.h
compr_zlib.c	compr.h
compr_zlib.c	init.h
compr_zlib.c	kernel.h
compr_zlib.c	mutex.h
compr_zlib.c	nodelist.h
compr_zlib.c	vmalloc.h
compr_zlib.c	zlib.h
compr_zlib.c	zutil.h
compress.c	init.h
compress.c	init.h
compress.c	isofs.h
compress.c	isofs.h
compress.c	module.h
compress.c	module.h
compress.c	vmalloc.h
compress.c	vmalloc.h
compress.c	zisofs.h
compress.c	zisofs.h
compress.c	zlib.h
compress.c	zlib.h
cookie.c	internal.h
cookie.c	module.h
cookie.c	slab.h
debug.c	debugfs.h
debug.c	math64.h
debug.c	module.h
debug.c	random.h
debug.c	uaccess.h
debug.c	ubifs.h
debug.h	sched.h
debug.h	sched.h
dir.c	crc32.h
dir.c	crc32.h
dir.c	crc32.h
dir.c	crc32.h
dir.c	crc32.h
dir.c	crc32.h
dir.c	crc32.h
dir.c	fs.h
dir.c	fs.h
dir.c	fs.h
dir.c	fs.h
dir.c	fs.h
dir.c	fs.h
dir.c	fs.h
dir.c	jffs2.h
dir.c	jffs2.h
dir.c	jffs2.h
dir.c	jffs2.h
dir.c	jffs2.h
dir.c	jffs2.h
dir.c	jffs2.h
dir.c	jffs2_fs_i.h
dir.c	jffs2_fs_i.h
dir.c	jffs2_fs_i.h
dir.c	jffs2_fs_i.h
dir.c	jffs2_fs_i.h
dir.c	jffs2_fs_i.h
dir.c	jffs2_fs_i.h
dir.c	jffs2_fs_sb.h
dir.c	jffs2_fs_sb.h
dir.c	jffs2_fs_sb.h
dir.c	jffs2_fs_sb.h
dir.c	jffs2_fs_sb.h
dir.c	jffs2_fs_sb.h
dir.c	jffs2_fs_sb.h
dir.c	kernel.h
dir.c	kernel.h
dir.c	kernel.h
dir.c	kernel.h
dir.c	kernel.h
dir.c	kernel.h
dir.c	kernel.h
dir.c	nodelist.h
dir.c	nodelist.h
dir.c	nodelist.h
dir.c	nodelist.h
dir.c	nodelist.h
dir.c	nodelist.h
dir.c	nodelist.h
dir.c	slab.h
dir.c	slab.h
dir.c	slab.h
dir.c	slab.h
dir.c	slab.h
dir.c	slab.h
dir.c	slab.h
dir.c	time.h
dir.c	time.h
dir.c	time.h
dir.c	time.h
dir.c	time.h
dir.c	time.h
dir.c	time.h
dnotify.c	dnotify.h
dnotify.c	fdtable.h
dnotify.c	fs.h
dnotify.c	fsnotify_backend.h
dnotify.c	init.h
dnotify.c	module.h
dnotify.c	sched.h
dnotify.c	slab.h
dnotify.c	spinlock.h
efs.h	efs_fs_sb.h
efs.h	fs.h
efs.h	uaccess.h
exec.c	audit.h
exec.c	binfmts.h
exec.c	cn_proc.h
exec.c	compat.h
exec.c	coredump.h
exec.c	fcntl.h
exec.c	fdtable.h
exec.c	file.h
exec.c	fs_struct.h
exec.c	fsnotify.h
exec.c	highmem.h
exec.c	init.h
exec.c	internal.h
exec.c	key.h
exec.c	kmod.h
exec.c	mm.h
exec.c	mmu_context.h
exec.c	module.h
exec.c	mount.h
exec.c	namei.h
exec.c	oom.h
exec.c	pagemap.h
exec.c	perf_event.h
exec.c	personality.h
exec.c	pid_namespace.h
exec.c	pipe_fs_i.h
exec.c	sched.h
exec.c	security.h
exec.c	slab.h
exec.c	spinlock.h
exec.c	stat.h
exec.c	string.h
exec.c	swap.h
exec.c	syscalls.h
exec.c	task.h
exec.c	tlb.h
exec.c	tracehook.h
exec.c	tsacct_kern.h
exec.c	uaccess.h
exec.c	utsname.h
export.c	isofs.h
ext4.h	blkdev.h
ext4.h	blockgroup_lock.h
ext4.h	compat.h
ext4.h	extents_status.h
ext4.h	hash.h
ext4.h	jbd2.h
ext4.h	magic.h
ext4.h	mutex.h
ext4.h	percpu_counter.h
ext4.h	quota.h
ext4.h	rbtree.h
ext4.h	rwsem.h
ext4.h	seqlock.h
ext4.h	timer.h
ext4.h	types.h
ext4.h	wait.h
ext4_extents.h	ext4.h
ext4_jbd2.c	ext4.h
ext4_jbd2.c	ext4_jbd2.h
ext4_jbd2.h	ext4.h
ext4_jbd2.h	fs.h
ext4_jbd2.h	jbd2.h
extents.c	ext4.h
extents.c	ext4_extents.h
extents.c	ext4_jbd2.h
extents.c	falloc.h
extents.c	fiemap.h
extents.c	fs.h
extents.c	highuid.h
extents.c	jbd2.h
extents.c	pagemap.h
extents.c	quotaops.h
extents.c	slab.h
extents.c	string.h
extents.c	time.h
extents.c	uaccess.h
extents.c	xattr.h
extents_status.c	ext4.h
extents_status.c	ext4.h
extents_status.c	ext4_extents.h
extents_status.c	extents_status.h
extents_status.c	rbtree.h
fanotify.c	fanotify.h
fanotify.c	fdtable.h
fanotify.c	fsnotify_backend.h
fanotify.c	init.h
fanotify.c	jiffies.h
fanotify.c	kernel.h
fanotify.c	mount.h
fanotify.c	sched.h
fanotify.c	types.h
fanotify.c	wait.h
fanotify_user.c	anon_inodes.h
fanotify_user.c	fanotify.h
fanotify_user.c	fcntl.h
fanotify_user.c	fdinfo.h
fanotify_user.c	file.h
fanotify_user.c	fs.h
fanotify_user.c	fsnotify_backend.h
fanotify_user.c	init.h
fanotify_user.c	ioctls.h
fanotify_user.c	mount.h
fanotify_user.c	mount.h
fanotify_user.c	namei.h
fanotify_user.c	poll.h
fanotify_user.c	security.h
fanotify_user.c	slab.h
fanotify_user.c	syscalls.h
fanotify_user.c	types.h
fanotify_user.c	uaccess.h
fcntl.c	capability.h
fcntl.c	dnotify.h
fcntl.c	fdtable.h
fcntl.c	file.h
fcntl.c	fs.h
fcntl.c	init.h
fcntl.c	mm.h
fcntl.c	module.h
fcntl.c	pid_namespace.h
fcntl.c	pipe_fs_i.h
fcntl.c	poll.h
fcntl.c	ptrace.h
fcntl.c	rcupdate.h
fcntl.c	security.h
fcntl.c	siginfo.h
fcntl.c	signal.h
fcntl.c	slab.h
fcntl.c	syscalls.h
fcntl.c	uaccess.h
fcntl.c	user_namespace.h
fdinfo.c	exportfs.h
fdinfo.c	fanotify.h
fdinfo.c	file.h
fdinfo.c	fs.h
fdinfo.c	fsnotify_backend.h
fdinfo.c	idr.h
fdinfo.c	init.h
fdinfo.c	inotify.h
fdinfo.c	inotify.h
fdinfo.c	kernel.h
fdinfo.c	mount.h
fdinfo.c	namei.h
fdinfo.c	proc_fs.h
fdinfo.c	sched.h
fdinfo.c	seq_file.h
fdinfo.c	types.h
fdinfo.h	errno.h
fdinfo.h	proc_fs.h
fid.c	9p.h
fid.c	client.h
fid.c	errno.h
fid.c	fid.h
fid.c	fs.h
fid.c	idr.h
fid.c	module.h
fid.c	sched.h
fid.c	slab.h
fid.c	v9fs.h
fid.c	v9fs_vfs.h
fid.h	list.h
fifo.c	fs.h
fifo.c	mm.h
fifo.c	pipe_fs_i.h
fifo.c	sched.h
file-mmu.c	fs.h
file-mmu.c	internal.h
file-mmu.c	mm.h
file-mmu.c	ramfs.h
file-nommu.c	backing-dev.h
file-nommu.c	fs.h
file-nommu.c	highmem.h
file-nommu.c	init.h
file-nommu.c	internal.h
file-nommu.c	mm.h
file-nommu.c	mman.h
file-nommu.c	module.h
file-nommu.c	pagemap.h
file-nommu.c	pagevec.h
file-nommu.c	ramfs.h
file-nommu.c	sched.h
file-nommu.c	slab.h
file-nommu.c	string.h
file-nommu.c	uaccess.h
file.c	crc32.h
file.c	crc32.h
file.c	crc32.h
file.c	crc32.h
file.c	crc32.h
file.c	fs.h
file.c	fs.h
file.c	fs.h
file.c	fs.h
file.c	fs.h
file.c	highmem.h
file.c	highmem.h
file.c	highmem.h
file.c	highmem.h
file.c	highmem.h
file.c	jffs2.h
file.c	jffs2.h
file.c	jffs2.h
file.c	jffs2.h
file.c	jffs2.h
file.c	kernel.h
file.c	kernel.h
file.c	kernel.h
file.c	kernel.h
file.c	kernel.h
file.c	nodelist.h
file.c	nodelist.h
file.c	nodelist.h
file.c	nodelist.h
file.c	nodelist.h
file.c	pagemap.h
file.c	pagemap.h
file.c	pagemap.h
file.c	pagemap.h
file.c	pagemap.h
file.c	time.h
file.c	time.h
file.c	time.h
file.c	time.h
file.c	time.h
find.c	sort.h
find.c	ubifs.h
fs.c	capability.h
fs.c	crc32.h
fs.c	fs.h
fs.c	kernel.h
fs.c	list.h
fs.c	mtd.h
fs.c	nodelist.h
fs.c	pagemap.h
fs.c	sched.h
fs.c	slab.h
fs.c	vfs.h
fs.c	vmalloc.h
fsdef.c	internal.h
fsdef.c	module.h
fsnotify.c	dcache.h
fsnotify.c	fs.h
fsnotify.c	fsnotify.h
fsnotify.c	fsnotify_backend.h
fsnotify.c	gfp.h
fsnotify.c	init.h
fsnotify.c	module.h
fsnotify.c	mount.h
fsnotify.c	mount.h
fsnotify.c	srcu.h
fsnotify.h	fsnotify.h
fsnotify.h	list.h
fsnotify.h	srcu.h
fsnotify.h	types.h
fsync.c	blkdev.h
fsync.c	ext4.h
fsync.c	ext4.h
fsync.c	ext4_jbd2.h
fsync.c	fs.h
fsync.c	jbd2.h
fsync.c	sched.h
fsync.c	time.h
fsync.c	writeback.h
gc.c	list_sort.h
gc.c	pagemap.h
gc.c	slab.h
gc.c	ubifs.h
generic_acl.c	fs.h
generic_acl.c	generic_acl.h
generic_acl.c	gfp.h
generic_acl.c	posix_acl.h
generic_acl.c	posix_acl_xattr.h
generic_acl.c	sched.h
group.c	atomic.h
group.c	fsnotify.h
group.c	fsnotify_backend.h
group.c	list.h
group.c	mutex.h
group.c	rculist.h
group.c	slab.h
group.c	srcu.h
group.c	wait.h
histogram.c	internal.h
histogram.c	module.h
histogram.c	proc_fs.h
histogram.c	seq_file.h
ialloc.c	acl.h
ialloc.c	bitops.h
ialloc.c	blkdev.h
ialloc.c	buffer_head.h
ialloc.c	byteorder.h
ialloc.c	ext4.h
ialloc.c	ext4.h
ialloc.c	ext4_jbd2.h
ialloc.c	fs.h
ialloc.c	jbd2.h
ialloc.c	quotaops.h
ialloc.c	random.h
ialloc.c	stat.h
ialloc.c	string.h
ialloc.c	time.h
ialloc.c	xattr.h
indirect.c	ext4.h
indirect.c	ext4_extents.h
indirect.c	ext4_jbd2.h
indirect.c	truncate.h
inline.c	ext4.h
inline.c	ext4_jbd2.h
inline.c	fiemap.h
inline.c	truncate.h
inline.c	xattr.h
inode.c	buffer_head.h
inode.c	buffer_head.h
inode.c	buffer_head.h
inode.c	buffer_head.h
inode.c	buffer_head.h
inode.c	buffer_head.h
inode.c	efs.h
inode.c	efs.h
inode.c	efs.h
inode.c	efs.h
inode.c	efs.h
inode.c	efs.h
inode.c	efs_fs_sb.h
inode.c	efs_fs_sb.h
inode.c	efs_fs_sb.h
inode.c	efs_fs_sb.h
inode.c	efs_fs_sb.h
inode.c	efs_fs_sb.h
inode.c	fs.h
inode.c	fs.h
inode.c	fs.h
inode.c	fs.h
inode.c	fs.h
inode.c	fs.h
inode.c	module.h
inode.c	module.h
inode.c	module.h
inode.c	module.h
inode.c	module.h
inode.c	module.h
inode_mark.c	atomic.h
inode_mark.c	fs.h
inode_mark.c	fsnotify.h
inode_mark.c	fsnotify_backend.h
inode_mark.c	init.h
inode_mark.c	internal.h
inode_mark.c	kernel.h
inode_mark.c	module.h
inode_mark.c	mutex.h
inode_mark.c	spinlock.h
inotify.h	fsnotify_backend.h
inotify.h	inotify.h
inotify.h	slab.h
inotify_fsnotify.c	dcache.h
inotify_fsnotify.c	fs.h
inotify_fsnotify.c	fsnotify_backend.h
inotify_fsnotify.c	inotify.h
inotify_fsnotify.c	inotify.h
inotify_fsnotify.c	path.h
inotify_fsnotify.c	sched.h
inotify_fsnotify.c	slab.h
inotify_fsnotify.c	types.h
inotify_user.c	anon_inodes.h
inotify_user.c	fdinfo.h
inotify_user.c	file.h
inotify_user.c	fs.h
inotify_user.c	fsnotify_backend.h
inotify_user.c	idr.h
inotify_user.c	init.h
inotify_user.c	inotify.h
inotify_user.c	inotify.h
inotify_user.c	ioctls.h
inotify_user.c	kernel.h
inotify_user.c	namei.h
inotify_user.c	poll.h
inotify_user.c	sched.h
inotify_user.c	slab.h
inotify_user.c	syscalls.h
inotify_user.c	sysctl.h
inotify_user.c	types.h
inotify_user.c	uaccess.h
inotify_user.c	wait.h
io.c	crc32.h
io.c	slab.h
io.c	ubifs.h
ioctl.c	fs.h
ioctl.c	fs.h
ioctl.c	fs.h
ioctl.c	nodelist.h
ioctl.c	nodelist.h
ioctl.c	nodelist.h
isofs.h	buffer_head.h
isofs.h	exportfs.h
isofs.h	fs.h
isofs.h	iso_fs.h
isofs.h	unaligned.h
jffs2_fs_i.h	mutex.h
jffs2_fs_i.h	posix_acl.h
jffs2_fs_i.h	rbtree.h
joliet.c	isofs.h
joliet.c	nls.h
joliet.c	types.h
journal.c	ubifs.h
kmem.c	backing-dev.h
kmem.c	blkdev.h
kmem.c	highmem.h
kmem.c	kmem.h
kmem.c	mm.h
kmem.c	slab.h
kmem.c	swap.h
kmem.c	time.h
kmem.c	xfs_message.h
kmem.h	mm.h
kmem.h	sched.h
kmem.h	slab.h
kmem.h	vmalloc.h
log.c	ubifs.h
lprops.c	ubifs.h
lpt.c	crc16.h
lpt.c	math64.h
lpt.c	slab.h
lpt.c	ubifs.h
lpt_commit.c	crc16.h
lpt_commit.c	random.h
lpt_commit.c	slab.h
lpt_commit.c	ubifs.h
main.c	completion.h
main.c	init.h
main.c	internal.h
main.c	module.h
main.c	sched.h
main.c	seq_file.h
main.c	slab.h
malloc.c	init.h
malloc.c	jffs2.h
malloc.c	kernel.h
malloc.c	nodelist.h
malloc.c	slab.h
mark.c	atomic.h
mark.c	fs.h
mark.c	fsnotify.h
mark.c	fsnotify_backend.h
mark.c	init.h
mark.c	kernel.h
mark.c	kthread.h
mark.c	module.h
mark.c	mutex.h
mark.c	slab.h
mark.c	spinlock.h
mark.c	srcu.h
master.c	ubifs.h
mballoc.h	blkdev.h
mballoc.h	buffer_head.h
mballoc.h	ext4.h
mballoc.h	ext4_jbd2.h
mballoc.h	fs.h
mballoc.h	module.h
mballoc.h	mutex.h
mballoc.h	namei.h
mballoc.h	pagemap.h
mballoc.h	proc_fs.h
mballoc.h	quotaops.h
mballoc.h	seq_file.h
mballoc.h	swap.h
mballoc.h	time.h
mount.h	mount.h
mount.h	poll.h
mount.h	seq_file.h
move_extent.c	ext4.h
move_extent.c	ext4_extents.h
move_extent.c	ext4_jbd2.h
move_extent.c	fs.h
move_extent.c	quotaops.h
move_extent.c	slab.h
mrlock.h	rwsem.h
namei.c	buffer_head.h
namei.c	buffer_head.h
namei.c	buffer_head.h
namei.c	buffer_head.h
namei.c	buffer_head.h
namei.c	efs.h
namei.c	efs.h
namei.c	efs.h
namei.c	efs.h
namei.c	efs.h
namei.c	exportfs.h
namei.c	exportfs.h
namei.c	exportfs.h
namei.c	exportfs.h
namei.c	exportfs.h
namei.c	string.h
namei.c	string.h
namei.c	string.h
namei.c	string.h
namei.c	string.h
netfs.c	internal.h
netfs.c	module.h
netfs.c	slab.h
nfsacl.c	fs.h
nfsacl.c	gfp.h
nfsacl.c	module.h
nfsacl.c	nfs3.h
nfsacl.c	nfsacl.h
nfsacl.c	sort.h
nfsacl.c	xdr.h
nodelist.c	crc32.h
nodelist.c	fs.h
nodelist.c	kernel.h
nodelist.c	mtd.h
nodelist.c	nodelist.h
nodelist.c	pagemap.h
nodelist.c	rbtree.h
nodelist.c	sched.h
notification.c	atomic.h
notification.c	fs.h
notification.c	fsnotify.h
notification.c	fsnotify_backend.h
notification.c	init.h
notification.c	kernel.h
notification.c	list.h
notification.c	module.h
notification.c	mount.h
notification.c	mutex.h
notification.c	namei.h
notification.c	path.h
notification.c	slab.h
notification.c	spinlock.h
object-list.c	internal.h
object-list.c	key.h
object-list.c	module.h
object-list.c	seq_file.h
object-list.c	slab.h
object-list.c	user-type.h
object.c	internal.h
object.c	module.h
object.c	slab.h
open.c	audit.h
open.c	backing-dev.h
open.c	capability.h
open.c	dnotify.h
open.c	falloc.h
open.c	fcntl.h
open.c	fdtable.h
open.c	file.h
open.c	fs.h
open.c	fs_struct.h
open.c	fsnotify.h
open.c	ima.h
open.c	internal.h
open.c	mm.h
open.c	module.h
open.c	mount.h
open.c	namei.h
open.c	pagemap.h
open.c	personality.h
open.c	rcupdate.h
open.c	securebits.h
open.c	security.h
open.c	slab.h
open.c	string.h
open.c	syscalls.h
open.c	tty.h
open.c	uaccess.h
operation.c	internal.h
operation.c	module.h
operation.c	seq_file.h
operation.c	slab.h
orphan.c	ubifs.h
page-io.c	acl.h
page-io.c	bio.h
page-io.c	buffer_head.h
page-io.c	ext4_jbd2.h
page-io.c	fs.h
page-io.c	highuid.h
page-io.c	jbd2.h
page-io.c	kernel.h
page-io.c	mpage.h
page-io.c	namei.h
page-io.c	pagemap.h
page-io.c	pagevec.h
page-io.c	quotaops.h
page-io.c	slab.h
page-io.c	string.h
page-io.c	time.h
page-io.c	uio.h
page-io.c	workqueue.h
page-io.c	writeback.h
page-io.c	xattr.h
page.c	buffer_head.h
page.c	fscache-cache.h
page.c	internal.h
page.c	module.h
page.c	pagevec.h
page.c	slab.h
proc.c	internal.h
proc.c	module.h
proc.c	proc_fs.h
proc.c	seq_file.h
qnx6.h	fs.h
qnx6.h	pagemap.h
qnx6.h	qnx6_fs.h
read.c	compiler.h
read.c	compr.h
read.c	crc32.h
read.c	kernel.h
read.c	mtd.h
read.c	nodelist.h
read.c	pagemap.h
read.c	slab.h
readinode.c	compiler.h
readinode.c	crc32.h
readinode.c	fs.h
readinode.c	kernel.h
readinode.c	mtd.h
readinode.c	nodelist.h
readinode.c	pagemap.h
readinode.c	sched.h
readinode.c	slab.h
recovery.c	crc32.h
recovery.c	slab.h
recovery.c	ubifs.h
replay.c	list_sort.h
replay.c	ubifs.h
resize.c	errno.h
resize.c	ext4_jbd2.h
resize.c	slab.h
rock.c	isofs.h
rock.c	pagemap.h
rock.c	rock.h
rock.c	slab.h
sb.c	math64.h
sb.c	random.h
sb.c	slab.h
sb.c	ubifs.h
scan.c	compiler.h
scan.c	compiler.h
scan.c	crc32.h
scan.c	crc32.h
scan.c	debug.h
scan.c	debug.h
scan.c	kernel.h
scan.c	kernel.h
scan.c	mtd.h
scan.c	mtd.h
scan.c	nodelist.h
scan.c	nodelist.h
scan.c	pagemap.h
scan.c	pagemap.h
scan.c	sched.h
scan.c	sched.h
scan.c	slab.h
scan.c	slab.h
scan.c	summary.h
scan.c	summary.h
security.c	crc32.h
security.c	fs.h
security.c	highmem.h
security.c	jffs2.h
security.c	kernel.h
security.c	mtd.h
security.c	nodelist.h
security.c	pagemap.h
security.c	security.h
security.c	slab.h
security.c	time.h
security.c	xattr.h
select.c	export.h
select.c	fdtable.h
select.c	file.h
select.c	fs.h
select.c	hrtimer.h
select.c	kernel.h
select.c	personality.h
select.c	poll.h
select.c	rcupdate.h
select.c	sched.h
select.c	slab.h
select.c	syscalls.h
select.c	uaccess.h
shrinker.c	ubifs.h
statfs.c	export.h
statfs.c	file.h
statfs.c	fs.h
statfs.c	internal.h
statfs.c	mount.h
statfs.c	namei.h
statfs.c	security.h
statfs.c	statfs.h
statfs.c	syscalls.h
statfs.c	uaccess.h
stats.c	internal.h
stats.c	module.h
stats.c	proc_fs.h
stats.c	seq_file.h
summary.c	compiler.h
summary.c	crc32.h
summary.c	debug.h
summary.c	kernel.h
summary.c	mtd.h
summary.c	nodelist.h
summary.c	pagemap.h
summary.c	slab.h
summary.c	vmalloc.h
super.c	compr.h
super.c	compr.h
super.c	compr.h
super.c	compr.h
super.c	compr.h
super.c	ctype.h
super.c	ctype.h
super.c	ctype.h
super.c	ctype.h
super.c	ctype.h
super.c	err.h
super.c	err.h
super.c	err.h
super.c	err.h
super.c	err.h
super.c	exportfs.h
super.c	exportfs.h
super.c	exportfs.h
super.c	exportfs.h
super.c	exportfs.h
super.c	fs.h
super.c	fs.h
super.c	fs.h
super.c	fs.h
super.c	fs.h
super.c	init.h
super.c	init.h
super.c	init.h
super.c	init.h
super.c	init.h
super.c	jffs2.h
super.c	jffs2.h
super.c	jffs2.h
super.c	jffs2.h
super.c	jffs2.h
super.c	kernel.h
super.c	kernel.h
super.c	kernel.h
super.c	kernel.h
super.c	kernel.h
super.c	list.h
super.c	list.h
super.c	list.h
super.c	list.h
super.c	list.h
super.c	module.h
super.c	module.h
super.c	module.h
super.c	module.h
super.c	module.h
super.c	mount.h
super.c	mount.h
super.c	mount.h
super.c	mount.h
super.c	mount.h
super.c	namei.h
super.c	namei.h
super.c	namei.h
super.c	namei.h
super.c	namei.h
super.c	nodelist.h
super.c	nodelist.h
super.c	nodelist.h
super.c	nodelist.h
super.c	nodelist.h
super.c	pagemap.h
super.c	pagemap.h
super.c	pagemap.h
super.c	pagemap.h
super.c	pagemap.h
super.c	parser.h
super.c	parser.h
super.c	parser.h
super.c	parser.h
super.c	parser.h
super.c	seq_file.h
super.c	seq_file.h
super.c	seq_file.h
super.c	seq_file.h
super.c	seq_file.h
super.c	slab.h
super.c	slab.h
super.c	slab.h
super.c	slab.h
super.c	slab.h
super.c	super.h
super.c	super.h
super.c	super.h
super.c	super.h
super.c	super.h
super_mmi.c	buffer_head.h
super_mmi.c	crc32.h
super_mmi.c	qnx6.h
super_mmi.c	slab.h
symlink.c	fs.h
symlink.c	fs.h
symlink.c	fs.h
symlink.c	fs.h
symlink.c	kernel.h
symlink.c	kernel.h
symlink.c	kernel.h
symlink.c	kernel.h
symlink.c	namei.h
symlink.c	namei.h
symlink.c	namei.h
symlink.c	namei.h
symlink.c	nodelist.h
symlink.c	nodelist.h
symlink.c	nodelist.h
symlink.c	nodelist.h
sync.c	backing-dev.h
sync.c	export.h
sync.c	file.h
sync.c	fs.h
sync.c	internal.h
sync.c	kernel.h
sync.c	linkage.h
sync.c	namei.h
sync.c	pagemap.h
sync.c	quotaops.h
sync.c	sched.h
sync.c	slab.h
sync.c	syscalls.h
sync.c	writeback.h
time.h	sched.h
time.h	time.h
tnc.c	crc32.h
tnc.c	slab.h
tnc.c	ubifs.h
tnc_commit.c	random.h
tnc_commit.c	ubifs.h
tnc_misc.c	ubifs.h
ubifs.h	backing-dev.h
ubifs.h	debug.h
ubifs.h	div64.h
ubifs.h	err.h
ubifs.h	fs.h
ubifs.h	key.h
ubifs.h	misc.h
ubifs.h	mutex.h
ubifs.h	pagemap.h
ubifs.h	rwsem.h
ubifs.h	sched.h
ubifs.h	slab.h
ubifs.h	spinlock.h
ubifs.h	statfs.h
ubifs.h	ubi.h
ubifs.h	ubifs-media.h
ubifs.h	vmalloc.h
util.c	isofs.h
utimes.c	compiler.h
utimes.c	file.h
utimes.c	fs.h
utimes.c	linkage.h
utimes.c	mount.h
utimes.c	namei.h
utimes.c	sched.h
utimes.c	stat.h
utimes.c	syscalls.h
utimes.c	uaccess.h
utimes.c	unistd.h
utimes.c	utime.h
uuid.c	xfs.h
v9fs.c	9p.h
v9fs.c	cache.h
v9fs.c	client.h
v9fs.c	errno.h
v9fs.c	fs.h
v9fs.c	idr.h
v9fs.c	module.h
v9fs.c	parser.h
v9fs.c	sched.h
v9fs.c	slab.h
v9fs.c	transport.h
v9fs.c	v9fs.h
v9fs.c	v9fs_vfs.h
v9fs.h	backing-dev.h
vfs_addr.c	9p.h
vfs_addr.c	cache.h
vfs_addr.c	client.h
vfs_addr.c	errno.h
vfs_addr.c	fid.h
vfs_addr.c	file.h
vfs_addr.c	fs.h
vfs_addr.c	idr.h
vfs_addr.c	inet.h
vfs_addr.c	module.h
vfs_addr.c	pagemap.h
vfs_addr.c	sched.h
vfs_addr.c	stat.h
vfs_addr.c	string.h
vfs_addr.c	v9fs.h
vfs_addr.c	v9fs_vfs.h
vfs_dentry.c	9p.h
vfs_dentry.c	client.h
vfs_dentry.c	errno.h
vfs_dentry.c	fid.h
vfs_dentry.c	file.h
vfs_dentry.c	fs.h
vfs_dentry.c	idr.h
vfs_dentry.c	inet.h
vfs_dentry.c	module.h
vfs_dentry.c	namei.h
vfs_dentry.c	pagemap.h
vfs_dentry.c	sched.h
vfs_dentry.c	slab.h
vfs_dentry.c	stat.h
vfs_dentry.c	string.h
vfs_dentry.c	v9fs.h
vfs_dentry.c	v9fs_vfs.h
vfs_dir.c	9p.h
vfs_dir.c	client.h
vfs_dir.c	errno.h
vfs_dir.c	fid.h
vfs_dir.c	file.h
vfs_dir.c	fs.h
vfs_dir.c	idr.h
vfs_dir.c	inet.h
vfs_dir.c	module.h
vfs_dir.c	sched.h
vfs_dir.c	slab.h
vfs_dir.c	stat.h
vfs_dir.c	string.h
vfs_dir.c	v9fs.h
vfs_dir.c	v9fs_vfs.h
vfs_file.c	9p.h
vfs_file.c	cache.h
vfs_file.c	client.h
vfs_file.c	errno.h
vfs_file.c	fid.h
vfs_file.c	file.h
vfs_file.c	fs.h
vfs_file.c	idr.h
vfs_file.c	inet.h
vfs_file.c	list.h
vfs_file.c	module.h
vfs_file.c	pagemap.h
vfs_file.c	sched.h
vfs_file.c	stat.h
vfs_file.c	string.h
vfs_file.c	uaccess.h
vfs_file.c	utsname.h
vfs_file.c	v9fs.h
vfs_file.c	v9fs_vfs.h
vfs_inode.c	9p.h
vfs_inode.c	acl.h
vfs_inode.c	cache.h
vfs_inode.c	client.h
vfs_inode.c	errno.h
vfs_inode.c	fid.h
vfs_inode.c	file.h
vfs_inode.c	fs.h
vfs_inode.c	idr.h
vfs_inode.c	inet.h
vfs_inode.c	module.h
vfs_inode.c	namei.h
vfs_inode.c	pagemap.h
vfs_inode.c	posix_acl.h
vfs_inode.c	sched.h
vfs_inode.c	slab.h
vfs_inode.c	stat.h
vfs_inode.c	string.h
vfs_inode.c	v9fs.h
vfs_inode.c	v9fs_vfs.h
vfs_inode.c	xattr.h
vfs_inode.c	xattr.h
vfs_inode_dotl.c	9p.h
vfs_inode_dotl.c	acl.h
vfs_inode_dotl.c	cache.h
vfs_inode_dotl.c	client.h
vfs_inode_dotl.c	errno.h
vfs_inode_dotl.c	fid.h
vfs_inode_dotl.c	file.h
vfs_inode_dotl.c	fs.h
vfs_inode_dotl.c	idr.h
vfs_inode_dotl.c	inet.h
vfs_inode_dotl.c	module.h
vfs_inode_dotl.c	namei.h
vfs_inode_dotl.c	pagemap.h
vfs_inode_dotl.c	posix_acl.h
vfs_inode_dotl.c	sched.h
vfs_inode_dotl.c	slab.h
vfs_inode_dotl.c	stat.h
vfs_inode_dotl.c	string.h
vfs_inode_dotl.c	v9fs.h
vfs_inode_dotl.c	v9fs_vfs.h
vfs_inode_dotl.c	xattr.h
vfs_inode_dotl.c	xattr.h
vfs_super.c	9p.h
vfs_super.c	acl.h
vfs_super.c	client.h
vfs_super.c	errno.h
vfs_super.c	fid.h
vfs_super.c	file.h
vfs_super.c	fs.h
vfs_super.c	idr.h
vfs_super.c	inet.h
vfs_super.c	kernel.h
vfs_super.c	magic.h
vfs_super.c	module.h
vfs_super.c	mount.h
vfs_super.c	pagemap.h
vfs_super.c	sched.h
vfs_super.c	seq_file.h
vfs_super.c	slab.h
vfs_super.c	stat.h
vfs_super.c	statfs.h
vfs_super.c	string.h
vfs_super.c	v9fs.h
vfs_super.c	v9fs_vfs.h
vfs_super.c	xattr.h
vfsmount_mark.c	atomic.h
vfsmount_mark.c	fs.h
vfsmount_mark.c	fsnotify.h
vfsmount_mark.c	fsnotify_backend.h
vfsmount_mark.c	init.h
vfsmount_mark.c	kernel.h
vfsmount_mark.c	module.h
vfsmount_mark.c	mount.h
vfsmount_mark.c	mount.h
vfsmount_mark.c	mutex.h
vfsmount_mark.c	spinlock.h
wbuf.c	crc32.h
wbuf.c	jiffies.h
wbuf.c	kernel.h
wbuf.c	mtd.h
wbuf.c	nand.h
wbuf.c	nodelist.h
wbuf.c	sched.h
wbuf.c	slab.h
wbuf.c	writeback.h
write.c	compr.h
write.c	crc32.h
write.c	fs.h
write.c	kernel.h
write.c	mtd.h
write.c	nodelist.h
write.c	pagemap.h
writev.c	kernel.h
writev.c	mtd.h
writev.c	nodelist.h
xattr.c	crc32.h
xattr.c	crc32.h
xattr.c	crc32.h
xattr.c	crc32.h
xattr.c	fs.h
xattr.c	fs.h
xattr.c	fs.h
xattr.c	fs.h
xattr.c	highmem.h
xattr.c	highmem.h
xattr.c	highmem.h
xattr.c	highmem.h
xattr.c	jffs2.h
xattr.c	jffs2.h
xattr.c	jffs2.h
xattr.c	jffs2.h
xattr.c	kernel.h
xattr.c	kernel.h
xattr.c	kernel.h
xattr.c	kernel.h
xattr.c	mtd.h
xattr.c	mtd.h
xattr.c	mtd.h
xattr.c	mtd.h
xattr.c	nodelist.h
xattr.c	nodelist.h
xattr.c	nodelist.h
xattr.c	nodelist.h
xattr.c	pagemap.h
xattr.c	pagemap.h
xattr.c	pagemap.h
xattr.c	pagemap.h
xattr.c	slab.h
xattr.c	slab.h
xattr.c	slab.h
xattr.c	slab.h
xattr.c	time.h
xattr.c	time.h
xattr.c	time.h
xattr.c	time.h
xattr.c	xattr.h
xattr.c	xattr.h
xattr.c	xattr.h
xattr.c	xattr.h
xattr.h	9p.h
xattr.h	9p.h
xattr.h	client.h
xattr.h	client.h
xattr.h	xattr.h
xattr.h	xattr.h
xattr_acl.c	export.h
xattr_acl.c	fs.h
xattr_acl.c	gfp.h
xattr_acl.c	posix_acl_xattr.h
xattr_acl.c	user_namespace.h
xattr_trusted.c	capability.h
xattr_trusted.c	ext4.h
xattr_trusted.c	ext4_jbd2.h
xattr_trusted.c	fs.h
xattr_trusted.c	string.h
xattr_trusted.c	xattr.h
xattr_user.c	fs.h
xattr_user.c	fs.h
xattr_user.c	fs.h
xattr_user.c	jffs2.h
xattr_user.c	jffs2.h
xattr_user.c	jffs2.h
xattr_user.c	kernel.h
xattr_user.c	kernel.h
xattr_user.c	kernel.h
xattr_user.c	mtd.h
xattr_user.c	mtd.h
xattr_user.c	mtd.h
xattr_user.c	nodelist.h
xattr_user.c	nodelist.h
xattr_user.c	nodelist.h
xattr_user.c	xattr.h
xattr_user.c	xattr.h
xattr_user.c	xattr.h
xfs.h	xfs_linux.h
xfs_acl.c	posix_acl_xattr.h
xfs_acl.c	slab.h
xfs_acl.c	xattr.h
xfs_acl.c	xfs.h
xfs_acl.c	xfs_acl.h
xfs_acl.c	xfs_attr.h
xfs_acl.c	xfs_bmap_btree.h
xfs_acl.c	xfs_inode.h
xfs_acl.c	xfs_trace.h
xfs_acl.c	xfs_vnodeops.h
xfs_alloc.c	xfs.h
xfs_alloc.c	xfs_ag.h
xfs_alloc.c	xfs_alloc.h
xfs_alloc.c	xfs_alloc_btree.h
xfs_alloc.c	xfs_bit.h
xfs_alloc.c	xfs_bmap_btree.h
xfs_alloc.c	xfs_btree.h
xfs_alloc.c	xfs_dinode.h
xfs_alloc.c	xfs_error.h
xfs_alloc.c	xfs_extent_busy.h
xfs_alloc.c	xfs_fs.h
xfs_alloc.c	xfs_ialloc_btree.h
xfs_alloc.c	xfs_inode.h
xfs_alloc.c	xfs_log.h
xfs_alloc.c	xfs_mount.h
xfs_alloc.c	xfs_sb.h
xfs_alloc.c	xfs_trace.h
xfs_alloc.c	xfs_trans.h
xfs_alloc.c	xfs_types.h
xfs_alloc_btree.c	xfs.h
xfs_alloc_btree.c	xfs_ag.h
xfs_alloc_btree.c	xfs_alloc.h
xfs_alloc_btree.c	xfs_alloc_btree.h
xfs_alloc_btree.c	xfs_bmap_btree.h
xfs_alloc_btree.c	xfs_btree.h
xfs_alloc_btree.c	xfs_dinode.h
xfs_alloc_btree.c	xfs_error.h
xfs_alloc_btree.c	xfs_extent_busy.h
xfs_alloc_btree.c	xfs_fs.h
xfs_alloc_btree.c	xfs_ialloc_btree.h
xfs_alloc_btree.c	xfs_inode.h
xfs_alloc_btree.c	xfs_log.h
xfs_alloc_btree.c	xfs_mount.h
xfs_alloc_btree.c	xfs_sb.h
xfs_alloc_btree.c	xfs_trace.h
xfs_alloc_btree.c	xfs_trans.h
xfs_alloc_btree.c	xfs_types.h
xfs_aops.c	gfp.h
xfs_aops.c	mpage.h
xfs_aops.c	pagevec.h
xfs_aops.c	writeback.h
xfs_aops.c	xfs.h
xfs_aops.c	xfs_ag.h
xfs_aops.c	xfs_alloc.h
xfs_aops.c	xfs_bmap.h
xfs_aops.c	xfs_bmap_btree.h
xfs_aops.c	xfs_dinode.h
xfs_aops.c	xfs_error.h
xfs_aops.c	xfs_inode.h
xfs_aops.c	xfs_inode_item.h
xfs_aops.c	xfs_iomap.h
xfs_aops.c	xfs_log.h
xfs_aops.c	xfs_mount.h
xfs_aops.c	xfs_sb.h
xfs_aops.c	xfs_trace.h
xfs_aops.c	xfs_trans.h
xfs_aops.c	xfs_vnodeops.h
xfs_attr.c	xfs.h
xfs_attr.c	xfs_ag.h
xfs_attr.c	xfs_alloc.h
xfs_attr.c	xfs_attr.h
xfs_attr.c	xfs_attr_leaf.h
xfs_attr.c	xfs_attr_sf.h
xfs_attr.c	xfs_bit.h
xfs_attr.c	xfs_bmap.h
xfs_attr.c	xfs_bmap_btree.h
xfs_attr.c	xfs_da_btree.h
xfs_attr.c	xfs_dinode.h
xfs_attr.c	xfs_error.h
xfs_attr.c	xfs_fs.h
xfs_attr.c	xfs_inode.h
xfs_attr.c	xfs_inode_item.h
xfs_attr.c	xfs_log.h
xfs_attr.c	xfs_mount.h
xfs_attr.c	xfs_quota.h
xfs_attr.c	xfs_sb.h
xfs_attr.c	xfs_trace.h
xfs_attr.c	xfs_trans.h
xfs_attr.c	xfs_trans_space.h
xfs_attr.c	xfs_types.h
xfs_attr.c	xfs_vnodeops.h
xfs_attr_leaf.c	xfs.h
xfs_attr_leaf.c	xfs_ag.h
xfs_attr_leaf.c	xfs_alloc.h
xfs_attr_leaf.c	xfs_alloc_btree.h
xfs_attr_leaf.c	xfs_attr.h
xfs_attr_leaf.c	xfs_attr_leaf.h
xfs_attr_leaf.c	xfs_attr_sf.h
xfs_attr_leaf.c	xfs_bit.h
xfs_attr_leaf.c	xfs_bmap.h
xfs_attr_leaf.c	xfs_bmap_btree.h
xfs_attr_leaf.c	xfs_btree.h
xfs_attr_leaf.c	xfs_da_btree.h
xfs_attr_leaf.c	xfs_dinode.h
xfs_attr_leaf.c	xfs_error.h
xfs_attr_leaf.c	xfs_fs.h
xfs_attr_leaf.c	xfs_ialloc_btree.h
xfs_attr_leaf.c	xfs_inode.h
xfs_attr_leaf.c	xfs_inode_item.h
xfs_attr_leaf.c	xfs_log.h
xfs_attr_leaf.c	xfs_mount.h
xfs_attr_leaf.c	xfs_sb.h
xfs_attr_leaf.c	xfs_trace.h
xfs_attr_leaf.c	xfs_trans.h
xfs_attr_leaf.c	xfs_types.h
xfs_bit.c	xfs.h
xfs_bit.c	xfs_bit.h
xfs_bit.c	xfs_buf_item.h
xfs_bit.c	xfs_log.h
xfs_bit.c	xfs_trans.h
xfs_bmap.c	xfs.h
xfs_bmap.c	xfs_ag.h
xfs_bmap.c	xfs_alloc.h
xfs_bmap.c	xfs_alloc_btree.h
xfs_bmap.c	xfs_attr_leaf.h
xfs_bmap.c	xfs_bit.h
xfs_bmap.c	xfs_bmap.h
xfs_bmap.c	xfs_bmap_btree.h
xfs_bmap.c	xfs_btree.h
xfs_bmap.c	xfs_buf_item.h
xfs_bmap.c	xfs_da_btree.h
xfs_bmap.c	xfs_dinode.h
xfs_bmap.c	xfs_dir2.h
xfs_bmap.c	xfs_error.h
xfs_bmap.c	xfs_extfree_item.h
xfs_bmap.c	xfs_filestream.h
xfs_bmap.c	xfs_fs.h
xfs_bmap.c	xfs_ialloc_btree.h
xfs_bmap.c	xfs_inode.h
xfs_bmap.c	xfs_inode_item.h
xfs_bmap.c	xfs_inum.h
xfs_bmap.c	xfs_itable.h
xfs_bmap.c	xfs_log.h
xfs_bmap.c	xfs_mount.h
xfs_bmap.c	xfs_quota.h
xfs_bmap.c	xfs_rtalloc.h
xfs_bmap.c	xfs_sb.h
xfs_bmap.c	xfs_trace.h
xfs_bmap.c	xfs_trans.h
xfs_bmap.c	xfs_trans_space.h
xfs_bmap.c	xfs_types.h
xfs_bmap.c	xfs_vnodeops.h
xfs_bmap_btree.c	xfs.h
xfs_bmap_btree.c	xfs_ag.h
xfs_bmap_btree.c	xfs_alloc.h
xfs_bmap_btree.c	xfs_alloc_btree.h
xfs_bmap_btree.c	xfs_bit.h
xfs_bmap_btree.c	xfs_bmap.h
xfs_bmap_btree.c	xfs_bmap_btree.h
xfs_bmap_btree.c	xfs_btree.h
xfs_bmap_btree.c	xfs_dinode.h
xfs_bmap_btree.c	xfs_error.h
xfs_bmap_btree.c	xfs_fs.h
xfs_bmap_btree.c	xfs_ialloc_btree.h
xfs_bmap_btree.c	xfs_inode.h
xfs_bmap_btree.c	xfs_inode_item.h
xfs_bmap_btree.c	xfs_itable.h
xfs_bmap_btree.c	xfs_log.h
xfs_bmap_btree.c	xfs_mount.h
xfs_bmap_btree.c	xfs_quota.h
xfs_bmap_btree.c	xfs_sb.h
xfs_bmap_btree.c	xfs_trace.h
xfs_bmap_btree.c	xfs_trans.h
xfs_bmap_btree.c	xfs_types.h
xfs_btree.c	xfs.h
xfs_btree.c	xfs_ag.h
xfs_btree.c	xfs_alloc_btree.h
xfs_btree.c	xfs_bit.h
xfs_btree.c	xfs_bmap_btree.h
xfs_btree.c	xfs_btree.h
xfs_btree.c	xfs_dinode.h
xfs_btree.c	xfs_error.h
xfs_btree.c	xfs_fs.h
xfs_btree.c	xfs_ialloc_btree.h
xfs_btree.c	xfs_inode.h
xfs_btree.c	xfs_inode_item.h
xfs_btree.c	xfs_log.h
xfs_btree.c	xfs_mount.h
xfs_btree.c	xfs_sb.h
xfs_btree.c	xfs_trace.h
xfs_btree.c	xfs_trans.h
xfs_btree.c	xfs_types.h
xfs_buf.c	backing-dev.h
xfs_buf.c	bio.h
xfs_buf.c	blkdev.h
xfs_buf.c	errno.h
xfs_buf.c	freezer.h
xfs_buf.c	gfp.h
xfs_buf.c	hash.h
xfs_buf.c	init.h
xfs_buf.c	kthread.h
xfs_buf.c	migrate.h
xfs_buf.c	pagemap.h
xfs_buf.c	percpu.h
xfs_buf.c	proc_fs.h
xfs_buf.c	stddef.h
xfs_buf.c	sysctl.h
xfs_buf.c	vmalloc.h
xfs_buf.c	workqueue.h
xfs_buf.c	xfs.h
xfs_buf.c	xfs_ag.h
xfs_buf.c	xfs_log.h
xfs_buf.c	xfs_mount.h
xfs_buf.c	xfs_sb.h
xfs_buf.c	xfs_trace.h
xfs_buf.h	buffer_head.h
xfs_buf.h	fs.h
xfs_buf.h	list.h
xfs_buf.h	mm.h
xfs_buf.h	spinlock.h
xfs_buf.h	types.h
xfs_buf.h	uio.h
xfs_buf_item.c	xfs.h
xfs_buf_item.c	xfs_ag.h
xfs_buf_item.c	xfs_bit.h
xfs_buf_item.c	xfs_buf_item.h
xfs_buf_item.c	xfs_error.h
xfs_buf_item.c	xfs_fs.h
xfs_buf_item.c	xfs_log.h
xfs_buf_item.c	xfs_mount.h
xfs_buf_item.c	xfs_sb.h
xfs_buf_item.c	xfs_trace.h
xfs_buf_item.c	xfs_trans.h
xfs_buf_item.c	xfs_trans_priv.h
xfs_buf_item.c	xfs_types.h
xfs_da_btree.c	xfs.h
xfs_da_btree.c	xfs_ag.h
xfs_da_btree.c	xfs_alloc.h
xfs_da_btree.c	xfs_attr.h
xfs_da_btree.c	xfs_attr_leaf.h
xfs_da_btree.c	xfs_bit.h
xfs_da_btree.c	xfs_bmap.h
xfs_da_btree.c	xfs_bmap_btree.h
xfs_da_btree.c	xfs_da_btree.h
xfs_da_btree.c	xfs_dinode.h
xfs_da_btree.c	xfs_dir2.h
xfs_da_btree.c	xfs_dir2_format.h
xfs_da_btree.c	xfs_dir2_priv.h
xfs_da_btree.c	xfs_error.h
xfs_da_btree.c	xfs_fs.h
xfs_da_btree.c	xfs_inode.h
xfs_da_btree.c	xfs_inode_item.h
xfs_da_btree.c	xfs_log.h
xfs_da_btree.c	xfs_mount.h
xfs_da_btree.c	xfs_sb.h
xfs_da_btree.c	xfs_trace.h
xfs_da_btree.c	xfs_trans.h
xfs_da_btree.c	xfs_types.h
xfs_dfrag.c	xfs.h
xfs_dfrag.c	xfs_ag.h
xfs_dfrag.c	xfs_bmap.h
xfs_dfrag.c	xfs_bmap_btree.h
xfs_dfrag.c	xfs_dfrag.h
xfs_dfrag.c	xfs_dinode.h
xfs_dfrag.c	xfs_error.h
xfs_dfrag.c	xfs_fs.h
xfs_dfrag.c	xfs_inode.h
xfs_dfrag.c	xfs_inode_item.h
xfs_dfrag.c	xfs_itable.h
xfs_dfrag.c	xfs_log.h
xfs_dfrag.c	xfs_mount.h
xfs_dfrag.c	xfs_sb.h
xfs_dfrag.c	xfs_trace.h
xfs_dfrag.c	xfs_trans.h
xfs_dfrag.c	xfs_types.h
xfs_dfrag.c	xfs_vnodeops.h
xfs_dir2.c	xfs.h
xfs_dir2.c	xfs_ag.h
xfs_dir2.c	xfs_alloc_btree.h
xfs_dir2.c	xfs_bmap.h
xfs_dir2.c	xfs_bmap_btree.h
xfs_dir2.c	xfs_da_btree.h
xfs_dir2.c	xfs_dinode.h
xfs_dir2.c	xfs_dir2.h
xfs_dir2.c	xfs_dir2_format.h
xfs_dir2.c	xfs_dir2_priv.h
xfs_dir2.c	xfs_error.h
xfs_dir2.c	xfs_fs.h
xfs_dir2.c	xfs_inode.h
xfs_dir2.c	xfs_inode_item.h
xfs_dir2.c	xfs_inum.h
xfs_dir2.c	xfs_log.h
xfs_dir2.c	xfs_mount.h
xfs_dir2.c	xfs_sb.h
xfs_dir2.c	xfs_trace.h
xfs_dir2.c	xfs_trans.h
xfs_dir2.c	xfs_types.h
xfs_dir2.c	xfs_vnodeops.h
xfs_dir2_block.c	xfs.h
xfs_dir2_block.c	xfs_ag.h
xfs_dir2_block.c	xfs_bmap_btree.h
xfs_dir2_block.c	xfs_da_btree.h
xfs_dir2_block.c	xfs_dinode.h
xfs_dir2_block.c	xfs_dir2.h
xfs_dir2_block.c	xfs_dir2_format.h
xfs_dir2_block.c	xfs_dir2_priv.h
xfs_dir2_block.c	xfs_error.h
xfs_dir2_block.c	xfs_fs.h
xfs_dir2_block.c	xfs_inode.h
xfs_dir2_block.c	xfs_inode_item.h
xfs_dir2_block.c	xfs_log.h
xfs_dir2_block.c	xfs_mount.h
xfs_dir2_block.c	xfs_sb.h
xfs_dir2_block.c	xfs_trace.h
xfs_dir2_block.c	xfs_trans.h
xfs_dir2_block.c	xfs_types.h
xfs_dir2_data.c	xfs.h
xfs_dir2_data.c	xfs_ag.h
xfs_dir2_data.c	xfs_bmap_btree.h
xfs_dir2_data.c	xfs_da_btree.h
xfs_dir2_data.c	xfs_dinode.h
xfs_dir2_data.c	xfs_dir2_format.h
xfs_dir2_data.c	xfs_dir2_priv.h
xfs_dir2_data.c	xfs_error.h
xfs_dir2_data.c	xfs_fs.h
xfs_dir2_data.c	xfs_inode.h
xfs_dir2_data.c	xfs_log.h
xfs_dir2_data.c	xfs_mount.h
xfs_dir2_data.c	xfs_sb.h
xfs_dir2_data.c	xfs_trans.h
xfs_dir2_data.c	xfs_types.h
xfs_dir2_leaf.c	xfs.h
xfs_dir2_leaf.c	xfs_ag.h
xfs_dir2_leaf.c	xfs_bit.h
xfs_dir2_leaf.c	xfs_bmap.h
xfs_dir2_leaf.c	xfs_bmap_btree.h
xfs_dir2_leaf.c	xfs_da_btree.h
xfs_dir2_leaf.c	xfs_dinode.h
xfs_dir2_leaf.c	xfs_dir2_format.h
xfs_dir2_leaf.c	xfs_dir2_priv.h
xfs_dir2_leaf.c	xfs_error.h
xfs_dir2_leaf.c	xfs_fs.h
xfs_dir2_leaf.c	xfs_inode.h
xfs_dir2_leaf.c	xfs_log.h
xfs_dir2_leaf.c	xfs_mount.h
xfs_dir2_leaf.c	xfs_sb.h
xfs_dir2_leaf.c	xfs_trace.h
xfs_dir2_leaf.c	xfs_trans.h
xfs_dir2_leaf.c	xfs_types.h
xfs_dir2_node.c	xfs.h
xfs_dir2_node.c	xfs_ag.h
xfs_dir2_node.c	xfs_bmap.h
xfs_dir2_node.c	xfs_bmap_btree.h
xfs_dir2_node.c	xfs_da_btree.h
xfs_dir2_node.c	xfs_dinode.h
xfs_dir2_node.c	xfs_dir2_format.h
xfs_dir2_node.c	xfs_dir2_priv.h
xfs_dir2_node.c	xfs_error.h
xfs_dir2_node.c	xfs_fs.h
xfs_dir2_node.c	xfs_inode.h
xfs_dir2_node.c	xfs_log.h
xfs_dir2_node.c	xfs_mount.h
xfs_dir2_node.c	xfs_sb.h
xfs_dir2_node.c	xfs_trace.h
xfs_dir2_node.c	xfs_trans.h
xfs_dir2_node.c	xfs_types.h
xfs_dir2_sf.c	xfs.h
xfs_dir2_sf.c	xfs_ag.h
xfs_dir2_sf.c	xfs_bmap_btree.h
xfs_dir2_sf.c	xfs_da_btree.h
xfs_dir2_sf.c	xfs_dinode.h
xfs_dir2_sf.c	xfs_dir2.h
xfs_dir2_sf.c	xfs_dir2_format.h
xfs_dir2_sf.c	xfs_dir2_priv.h
xfs_dir2_sf.c	xfs_error.h
xfs_dir2_sf.c	xfs_fs.h
xfs_dir2_sf.c	xfs_inode.h
xfs_dir2_sf.c	xfs_inode_item.h
xfs_dir2_sf.c	xfs_log.h
xfs_dir2_sf.c	xfs_mount.h
xfs_dir2_sf.c	xfs_sb.h
xfs_dir2_sf.c	xfs_trace.h
xfs_dir2_sf.c	xfs_trans.h
xfs_dir2_sf.c	xfs_types.h
xfs_discard.c	xfs.h
xfs_discard.c	xfs_ag.h
xfs_discard.c	xfs_alloc.h
xfs_discard.c	xfs_alloc_btree.h
xfs_discard.c	xfs_bmap_btree.h
xfs_discard.c	xfs_btree.h
xfs_discard.c	xfs_discard.h
xfs_discard.c	xfs_error.h
xfs_discard.c	xfs_extent_busy.h
xfs_discard.c	xfs_ialloc_btree.h
xfs_discard.c	xfs_inode.h
xfs_discard.c	xfs_log.h
xfs_discard.c	xfs_mount.h
xfs_discard.c	xfs_quota.h
xfs_discard.c	xfs_sb.h
xfs_discard.c	xfs_trace.h
xfs_discard.c	xfs_trans.h
xfs_dquot.c	xfs.h
xfs_dquot.c	xfs_ag.h
xfs_dquot.c	xfs_alloc.h
xfs_dquot.c	xfs_attr.h
xfs_dquot.c	xfs_bit.h
xfs_dquot.c	xfs_bmap.h
xfs_dquot.c	xfs_bmap_btree.h
xfs_dquot.c	xfs_buf_item.h
xfs_dquot.c	xfs_error.h
xfs_dquot.c	xfs_fs.h
xfs_dquot.c	xfs_inode.h
xfs_dquot.c	xfs_itable.h
xfs_dquot.c	xfs_log.h
xfs_dquot.c	xfs_mount.h
xfs_dquot.c	xfs_qm.h
xfs_dquot.c	xfs_quota.h
xfs_dquot.c	xfs_rtalloc.h
xfs_dquot.c	xfs_sb.h
xfs_dquot.c	xfs_trace.h
xfs_dquot.c	xfs_trans.h
xfs_dquot.c	xfs_trans_priv.h
xfs_dquot.c	xfs_trans_space.h
xfs_dquot_item.c	xfs.h
xfs_dquot_item.c	xfs_ag.h
xfs_dquot_item.c	xfs_alloc.h
xfs_dquot_item.c	xfs_attr.h
xfs_dquot_item.c	xfs_bmap.h
xfs_dquot_item.c	xfs_bmap_btree.h
xfs_dquot_item.c	xfs_buf_item.h
xfs_dquot_item.c	xfs_error.h
xfs_dquot_item.c	xfs_fs.h
xfs_dquot_item.c	xfs_inode.h
xfs_dquot_item.c	xfs_itable.h
xfs_dquot_item.c	xfs_log.h
xfs_dquot_item.c	xfs_mount.h
xfs_dquot_item.c	xfs_qm.h
xfs_dquot_item.c	xfs_quota.h
xfs_dquot_item.c	xfs_rtalloc.h
xfs_dquot_item.c	xfs_sb.h
xfs_dquot_item.c	xfs_trans.h
xfs_dquot_item.c	xfs_trans_priv.h
xfs_error.c	xfs.h
xfs_error.c	xfs_ag.h
xfs_error.c	xfs_bmap_btree.h
xfs_error.c	xfs_dinode.h
xfs_error.c	xfs_error.h
xfs_error.c	xfs_fs.h
xfs_error.c	xfs_inode.h
xfs_error.c	xfs_log.h
xfs_error.c	xfs_mount.h
xfs_error.c	xfs_sb.h
xfs_error.c	xfs_trans.h
xfs_error.c	xfs_types.h
xfs_error.c	xfs_utils.h
xfs_export.c	xfs.h
xfs_export.c	xfs_ag.h
xfs_export.c	xfs_bmap_btree.h
xfs_export.c	xfs_dir2.h
xfs_export.c	xfs_export.h
xfs_export.c	xfs_icache.h
xfs_export.c	xfs_inode.h
xfs_export.c	xfs_inode_item.h
xfs_export.c	xfs_log.h
xfs_export.c	xfs_mount.h
xfs_export.c	xfs_sb.h
xfs_export.c	xfs_trace.h
xfs_export.c	xfs_trans.h
xfs_export.c	xfs_types.h
xfs_export.c	xfs_vnodeops.h
xfs_extent_busy.c	xfs.h
xfs_extent_busy.c	xfs_ag.h
xfs_extent_busy.c	xfs_alloc.h
xfs_extent_busy.c	xfs_bmap_btree.h
xfs_extent_busy.c	xfs_extent_busy.h
xfs_extent_busy.c	xfs_fs.h
xfs_extent_busy.c	xfs_inode.h
xfs_extent_busy.c	xfs_log.h
xfs_extent_busy.c	xfs_mount.h
xfs_extent_busy.c	xfs_sb.h
xfs_extent_busy.c	xfs_trace.h
xfs_extent_busy.c	xfs_trans.h
xfs_extent_busy.c	xfs_types.h
xfs_extfree_item.c	xfs.h
xfs_extfree_item.c	xfs_ag.h
xfs_extfree_item.c	xfs_buf_item.h
xfs_extfree_item.c	xfs_extfree_item.h
xfs_extfree_item.c	xfs_fs.h
xfs_extfree_item.c	xfs_log.h
xfs_extfree_item.c	xfs_mount.h
xfs_extfree_item.c	xfs_sb.h
xfs_extfree_item.c	xfs_trans.h
xfs_extfree_item.c	xfs_trans_priv.h
xfs_extfree_item.c	xfs_types.h
xfs_file.c	dcache.h
xfs_file.c	falloc.h
xfs_file.c	pagevec.h
xfs_file.c	xfs.h
xfs_file.c	xfs_ag.h
xfs_file.c	xfs_alloc.h
xfs_file.c	xfs_bmap.h
xfs_file.c	xfs_bmap_btree.h
xfs_file.c	xfs_da_btree.h
xfs_file.c	xfs_dinode.h
xfs_file.c	xfs_dir2_format.h
xfs_file.c	xfs_dir2_priv.h
xfs_file.c	xfs_error.h
xfs_file.c	xfs_fs.h
xfs_file.c	xfs_inode.h
xfs_file.c	xfs_inode_item.h
xfs_file.c	xfs_ioctl.h
xfs_file.c	xfs_log.h
xfs_file.c	xfs_mount.h
xfs_file.c	xfs_sb.h
xfs_file.c	xfs_trace.h
xfs_file.c	xfs_trans.h
xfs_file.c	xfs_vnodeops.h
xfs_filestream.c	xfs.h
xfs_filestream.c	xfs_ag.h
xfs_filestream.c	xfs_alloc.h
xfs_filestream.c	xfs_bmap.h
xfs_filestream.c	xfs_bmap_btree.h
xfs_filestream.c	xfs_dinode.h
xfs_filestream.c	xfs_filestream.h
xfs_filestream.c	xfs_inode.h
xfs_filestream.c	xfs_inum.h
xfs_filestream.c	xfs_log.h
xfs_filestream.c	xfs_mount.h
xfs_filestream.c	xfs_mru_cache.h
xfs_filestream.c	xfs_sb.h
xfs_filestream.c	xfs_trace.h
xfs_filestream.c	xfs_trans.h
xfs_filestream.c	xfs_utils.h
xfs_fsops.c	xfs.h
xfs_fsops.c	xfs_ag.h
xfs_fsops.c	xfs_alloc.h
xfs_fsops.c	xfs_alloc_btree.h
xfs_fsops.c	xfs_bmap_btree.h
xfs_fsops.c	xfs_btree.h
xfs_fsops.c	xfs_dinode.h
xfs_fsops.c	xfs_error.h
xfs_fsops.c	xfs_filestream.h
xfs_fsops.c	xfs_fs.h
xfs_fsops.c	xfs_fsops.h
xfs_fsops.c	xfs_ialloc.h
xfs_fsops.c	xfs_ialloc_btree.h
xfs_fsops.c	xfs_inode.h
xfs_fsops.c	xfs_inode_item.h
xfs_fsops.c	xfs_itable.h
xfs_fsops.c	xfs_log.h
xfs_fsops.c	xfs_mount.h
xfs_fsops.c	xfs_rtalloc.h
xfs_fsops.c	xfs_sb.h
xfs_fsops.c	xfs_trace.h
xfs_fsops.c	xfs_trans.h
xfs_fsops.c	xfs_trans_space.h
xfs_fsops.c	xfs_types.h
xfs_globals.c	xfs.h
xfs_globals.c	xfs_sysctl.h
xfs_ialloc.c	xfs.h
xfs_ialloc.c	xfs_ag.h
xfs_ialloc.c	xfs_alloc.h
xfs_ialloc.c	xfs_alloc_btree.h
xfs_ialloc.c	xfs_bit.h
xfs_ialloc.c	xfs_bmap.h
xfs_ialloc.c	xfs_bmap_btree.h
xfs_ialloc.c	xfs_btree.h
xfs_ialloc.c	xfs_dinode.h
xfs_ialloc.c	xfs_error.h
xfs_ialloc.c	xfs_fs.h
xfs_ialloc.c	xfs_ialloc.h
xfs_ialloc.c	xfs_ialloc_btree.h
xfs_ialloc.c	xfs_inode.h
xfs_ialloc.c	xfs_inum.h
xfs_ialloc.c	xfs_log.h
xfs_ialloc.c	xfs_mount.h
xfs_ialloc.c	xfs_rtalloc.h
xfs_ialloc.c	xfs_sb.h
xfs_ialloc.c	xfs_trans.h
xfs_ialloc.c	xfs_types.h
xfs_ialloc_btree.c	xfs.h
xfs_ialloc_btree.c	xfs_ag.h
xfs_ialloc_btree.c	xfs_alloc.h
xfs_ialloc_btree.c	xfs_alloc_btree.h
xfs_ialloc_btree.c	xfs_bit.h
xfs_ialloc_btree.c	xfs_bmap_btree.h
xfs_ialloc_btree.c	xfs_btree.h
xfs_ialloc_btree.c	xfs_dinode.h
xfs_ialloc_btree.c	xfs_error.h
xfs_ialloc_btree.c	xfs_fs.h
xfs_ialloc_btree.c	xfs_ialloc.h
xfs_ialloc_btree.c	xfs_ialloc_btree.h
xfs_ialloc_btree.c	xfs_inode.h
xfs_ialloc_btree.c	xfs_log.h
xfs_ialloc_btree.c	xfs_mount.h
xfs_ialloc_btree.c	xfs_sb.h
xfs_ialloc_btree.c	xfs_trace.h
xfs_ialloc_btree.c	xfs_trans.h
xfs_ialloc_btree.c	xfs_types.h
xfs_icache.c	freezer.h
xfs_icache.c	kthread.h
xfs_icache.c	xfs.h
xfs_icache.c	xfs_ag.h
xfs_icache.c	xfs_bmap_btree.h
xfs_icache.c	xfs_dinode.h
xfs_icache.c	xfs_error.h
xfs_icache.c	xfs_filestream.h
xfs_icache.c	xfs_fs.h
xfs_icache.c	xfs_fsops.h
xfs_icache.c	xfs_icache.h
xfs_icache.c	xfs_inode.h
xfs_icache.c	xfs_inode_item.h
xfs_icache.c	xfs_inum.h
xfs_icache.c	xfs_log.h
xfs_icache.c	xfs_log_priv.h
xfs_icache.c	xfs_mount.h
xfs_icache.c	xfs_quota.h
xfs_icache.c	xfs_sb.h
xfs_icache.c	xfs_trace.h
xfs_icache.c	xfs_trans.h
xfs_icache.c	xfs_trans_priv.h
xfs_icache.c	xfs_types.h
xfs_icache.c	xfs_vnodeops.h
xfs_inode.c	log2.h
xfs_inode.c	xfs.h
xfs_inode.c	xfs_ag.h
xfs_inode.c	xfs_alloc.h
xfs_inode.c	xfs_alloc_btree.h
xfs_inode.c	xfs_attr_sf.h
xfs_inode.c	xfs_bmap.h
xfs_inode.c	xfs_bmap_btree.h
xfs_inode.c	xfs_btree.h
xfs_inode.c	xfs_buf_item.h
xfs_inode.c	xfs_dinode.h
xfs_inode.c	xfs_error.h
xfs_inode.c	xfs_filestream.h
xfs_inode.c	xfs_fs.h
xfs_inode.c	xfs_ialloc.h
xfs_inode.c	xfs_ialloc_btree.h
xfs_inode.c	xfs_icache.h
xfs_inode.c	xfs_inode.h
xfs_inode.c	xfs_inode_item.h
xfs_inode.c	xfs_inum.h
xfs_inode.c	xfs_log.h
xfs_inode.c	xfs_mount.h
xfs_inode.c	xfs_quota.h
xfs_inode.c	xfs_sb.h
xfs_inode.c	xfs_trace.h
xfs_inode.c	xfs_trans.h
xfs_inode.c	xfs_trans_priv.h
xfs_inode.c	xfs_types.h
xfs_inode.c	xfs_utils.h
xfs_inode.c	xfs_vnodeops.h
xfs_inode_item.c	xfs.h
xfs_inode_item.c	xfs_ag.h
xfs_inode_item.c	xfs_bmap_btree.h
xfs_inode_item.c	xfs_dinode.h
xfs_inode_item.c	xfs_error.h
xfs_inode_item.c	xfs_fs.h
xfs_inode_item.c	xfs_inode.h
xfs_inode_item.c	xfs_inode_item.h
xfs_inode_item.c	xfs_log.h
xfs_inode_item.c	xfs_mount.h
xfs_inode_item.c	xfs_sb.h
xfs_inode_item.c	xfs_trace.h
xfs_inode_item.c	xfs_trans.h
xfs_inode_item.c	xfs_trans_priv.h
xfs_inode_item.c	xfs_types.h
xfs_ioctl.c	capability.h
xfs_ioctl.c	dcache.h
xfs_ioctl.c	exportfs.h
xfs_ioctl.c	mount.h
xfs_ioctl.c	namei.h
xfs_ioctl.c	pagemap.h
xfs_ioctl.c	slab.h
xfs_ioctl.c	xfs.h
xfs_ioctl.c	xfs_ag.h
xfs_ioctl.c	xfs_alloc.h
xfs_ioctl.c	xfs_attr.h
xfs_ioctl.c	xfs_bmap.h
xfs_ioctl.c	xfs_bmap_btree.h
xfs_ioctl.c	xfs_buf_item.h
xfs_ioctl.c	xfs_dfrag.h
xfs_ioctl.c	xfs_dinode.h
xfs_ioctl.c	xfs_discard.h
xfs_ioctl.c	xfs_error.h
xfs_ioctl.c	xfs_export.h
xfs_ioctl.c	xfs_fs.h
xfs_ioctl.c	xfs_fsops.h
xfs_ioctl.c	xfs_icache.h
xfs_ioctl.c	xfs_inode.h
xfs_ioctl.c	xfs_inode_item.h
xfs_ioctl.c	xfs_ioctl.h
xfs_ioctl.c	xfs_itable.h
xfs_ioctl.c	xfs_log.h
xfs_ioctl.c	xfs_mount.h
xfs_ioctl.c	xfs_quota.h
xfs_ioctl.c	xfs_rtalloc.h
xfs_ioctl.c	xfs_sb.h
xfs_ioctl.c	xfs_trace.h
xfs_ioctl.c	xfs_trans.h
xfs_ioctl.c	xfs_utils.h
xfs_ioctl.c	xfs_vnodeops.h
xfs_ioctl32.c	compat.h
xfs_ioctl32.c	ioctl.h
xfs_ioctl32.c	mount.h
xfs_ioctl32.c	slab.h
xfs_ioctl32.c	uaccess.h
xfs_ioctl32.c	xfs.h
xfs_ioctl32.c	xfs_ag.h
xfs_ioctl32.c	xfs_alloc.h
xfs_ioctl32.c	xfs_attr.h
xfs_ioctl32.c	xfs_bmap_btree.h
xfs_ioctl32.c	xfs_dfrag.h
xfs_ioctl32.c	xfs_dinode.h
xfs_ioctl32.c	xfs_error.h
xfs_ioctl32.c	xfs_fs.h
xfs_ioctl32.c	xfs_fsops.h
xfs_ioctl32.c	xfs_inode.h
xfs_ioctl32.c	xfs_ioctl.h
xfs_ioctl32.c	xfs_ioctl32.h
xfs_ioctl32.c	xfs_itable.h
xfs_ioctl32.c	xfs_log.h
xfs_ioctl32.c	xfs_mount.h
xfs_ioctl32.c	xfs_rtalloc.h
xfs_ioctl32.c	xfs_sb.h
xfs_ioctl32.c	xfs_trace.h
xfs_ioctl32.c	xfs_trans.h
xfs_ioctl32.c	xfs_vnode.h
xfs_ioctl32.c	xfs_vnodeops.h
xfs_ioctl32.h	compat.h
xfs_iomap.c	xfs.h
xfs_iomap.c	xfs_ag.h
xfs_iomap.c	xfs_alloc.h
xfs_iomap.c	xfs_alloc_btree.h
xfs_iomap.c	xfs_attr.h
xfs_iomap.c	xfs_bmap.h
xfs_iomap.c	xfs_bmap_btree.h
xfs_iomap.c	xfs_btree.h
xfs_iomap.c	xfs_buf_item.h
xfs_iomap.c	xfs_dinode.h
xfs_iomap.c	xfs_error.h
xfs_iomap.c	xfs_fs.h
xfs_iomap.c	xfs_ialloc_btree.h
xfs_iomap.c	xfs_icache.h
xfs_iomap.c	xfs_inode.h
xfs_iomap.c	xfs_inode_item.h
xfs_iomap.c	xfs_iomap.h
xfs_iomap.c	xfs_itable.h
xfs_iomap.c	xfs_log.h
xfs_iomap.c	xfs_mount.h
xfs_iomap.c	xfs_quota.h
xfs_iomap.c	xfs_rtalloc.h
xfs_iomap.c	xfs_sb.h
xfs_iomap.c	xfs_trace.h
xfs_iomap.c	xfs_trans.h
xfs_iomap.c	xfs_trans_space.h
xfs_iomap.c	xfs_utils.h
xfs_iops.c	capability.h
xfs_iops.c	fiemap.h
xfs_iops.c	namei.h
xfs_iops.c	posix_acl.h
xfs_iops.c	security.h
xfs_iops.c	slab.h
xfs_iops.c	xattr.h
xfs_iops.c	xfs.h
xfs_iops.c	xfs_acl.h
xfs_iops.c	xfs_ag.h
xfs_iops.c	xfs_alloc.h
xfs_iops.c	xfs_attr.h
xfs_iops.c	xfs_bmap.h
xfs_iops.c	xfs_bmap_btree.h
xfs_iops.c	xfs_buf_item.h
xfs_iops.c	xfs_dinode.h
xfs_iops.c	xfs_error.h
xfs_iops.c	xfs_fs.h
xfs_iops.c	xfs_icache.h
xfs_iops.c	xfs_inode.h
xfs_iops.c	xfs_inode_item.h
xfs_iops.c	xfs_itable.h
xfs_iops.c	xfs_log.h
xfs_iops.c	xfs_mount.h
xfs_iops.c	xfs_quota.h
xfs_iops.c	xfs_rtalloc.h
xfs_iops.c	xfs_sb.h
xfs_iops.c	xfs_trace.h
xfs_iops.c	xfs_trans.h
xfs_iops.c	xfs_utils.h
xfs_iops.c	xfs_vnodeops.h
xfs_itable.c	xfs.h
xfs_itable.c	xfs_ag.h
xfs_itable.c	xfs_alloc_btree.h
xfs_itable.c	xfs_bmap_btree.h
xfs_itable.c	xfs_btree.h
xfs_itable.c	xfs_dinode.h
xfs_itable.c	xfs_error.h
xfs_itable.c	xfs_fs.h
xfs_itable.c	xfs_ialloc.h
xfs_itable.c	xfs_ialloc_btree.h
xfs_itable.c	xfs_icache.h
xfs_itable.c	xfs_inode.h
xfs_itable.c	xfs_inum.h
xfs_itable.c	xfs_itable.h
xfs_itable.c	xfs_log.h
xfs_itable.c	xfs_mount.h
xfs_itable.c	xfs_sb.h
xfs_itable.c	xfs_trace.h
xfs_itable.c	xfs_trans.h
xfs_itable.c	xfs_types.h
xfs_linux.h	bitops.h
xfs_linux.h	blkdev.h
xfs_linux.h	byteorder.h
xfs_linux.h	capability.h
xfs_linux.h	cpu.h
xfs_linux.h	crc32c.h
xfs_linux.h	ctype.h
xfs_linux.h	delay.h
xfs_linux.h	div64.h
xfs_linux.h	errno.h
xfs_linux.h	file.h
xfs_linux.h	freezer.h
xfs_linux.h	init.h
xfs_linux.h	kernel.h
xfs_linux.h	kmem.h
xfs_linux.h	kthread.h
xfs_linux.h	list.h
xfs_linux.h	list_sort.h
xfs_linux.h	log2.h
xfs_linux.h	major.h
xfs_linux.h	mm.h
xfs_linux.h	module.h
xfs_linux.h	mrlock.h
xfs_linux.h	mutex.h
xfs_linux.h	notifier.h
xfs_linux.h	page.h
xfs_linux.h	pagemap.h
xfs_linux.h	param.h
xfs_linux.h	proc_fs.h
xfs_linux.h	random.h
xfs_linux.h	sched.h
xfs_linux.h	semaphore.h
xfs_linux.h	seq_file.h
xfs_linux.h	slab.h
xfs_linux.h	sort.h
xfs_linux.h	spinlock.h
xfs_linux.h	swap.h
xfs_linux.h	time.h
xfs_linux.h	types.h
xfs_linux.h	uaccess.h
xfs_linux.h	unaligned.h
xfs_linux.h	uuid.h
xfs_linux.h	vfs.h
xfs_linux.h	writeback.h
xfs_linux.h	xfs_aops.h
xfs_linux.h	xfs_buf.h
xfs_linux.h	xfs_iops.h
xfs_linux.h	xfs_message.h
xfs_linux.h	xfs_stats.h
xfs_linux.h	xfs_super.h
xfs_linux.h	xfs_sysctl.h
xfs_linux.h	xfs_types.h
xfs_linux.h	xfs_vnode.h
xfs_log.c	xfs.h
xfs_log.c	xfs_ag.h
xfs_log.c	xfs_alloc_btree.h
xfs_log.c	xfs_bmap_btree.h
xfs_log.c	xfs_buf_item.h
xfs_log.c	xfs_cksum.h
xfs_log.c	xfs_dinode.h
xfs_log.c	xfs_error.h
xfs_log.c	xfs_fs.h
xfs_log.c	xfs_fsops.h
xfs_log.c	xfs_ialloc_btree.h
xfs_log.c	xfs_inode.h
xfs_log.c	xfs_log.h
xfs_log.c	xfs_log_priv.h
xfs_log.c	xfs_log_recover.h
xfs_log.c	xfs_mount.h
xfs_log.c	xfs_sb.h
xfs_log.c	xfs_trace.h
xfs_log.c	xfs_trans.h
xfs_log.c	xfs_trans_priv.h
xfs_log.c	xfs_types.h
xfs_log_cil.c	xfs.h
xfs_log_cil.c	xfs_ag.h
xfs_log_cil.c	xfs_alloc.h
xfs_log_cil.c	xfs_discard.h
xfs_log_cil.c	xfs_error.h
xfs_log_cil.c	xfs_extent_busy.h
xfs_log_cil.c	xfs_fs.h
xfs_log_cil.c	xfs_log.h
xfs_log_cil.c	xfs_log_priv.h
xfs_log_cil.c	xfs_mount.h
xfs_log_cil.c	xfs_sb.h
xfs_log_cil.c	xfs_trans.h
xfs_log_cil.c	xfs_trans_priv.h
xfs_log_cil.c	xfs_types.h
xfs_log_recover.c	xfs.h
xfs_log_recover.c	xfs_ag.h
xfs_log_recover.c	xfs_alloc.h
xfs_log_recover.c	xfs_alloc_btree.h
xfs_log_recover.c	xfs_bit.h
xfs_log_recover.c	xfs_bmap_btree.h
xfs_log_recover.c	xfs_buf_item.h
xfs_log_recover.c	xfs_cksum.h
xfs_log_recover.c	xfs_dinode.h
xfs_log_recover.c	xfs_error.h
xfs_log_recover.c	xfs_extfree_item.h
xfs_log_recover.c	xfs_fs.h
xfs_log_recover.c	xfs_ialloc.h
xfs_log_recover.c	xfs_ialloc_btree.h
xfs_log_recover.c	xfs_icache.h
xfs_log_recover.c	xfs_inode.h
xfs_log_recover.c	xfs_inode_item.h
xfs_log_recover.c	xfs_inum.h
xfs_log_recover.c	xfs_log.h
xfs_log_recover.c	xfs_log_priv.h
xfs_log_recover.c	xfs_log_recover.h
xfs_log_recover.c	xfs_mount.h
xfs_log_recover.c	xfs_quota.h
xfs_log_recover.c	xfs_sb.h
xfs_log_recover.c	xfs_trace.h
xfs_log_recover.c	xfs_trans.h
xfs_log_recover.c	xfs_trans_priv.h
xfs_log_recover.c	xfs_types.h
xfs_log_recover.c	xfs_utils.h
xfs_message.c	xfs.h
xfs_message.c	xfs_ag.h
xfs_message.c	xfs_fs.h
xfs_message.c	xfs_log.h
xfs_message.c	xfs_mount.h
xfs_message.c	xfs_sb.h
xfs_message.c	xfs_trans.h
xfs_message.c	xfs_types.h
xfs_mount.c	xfs.h
xfs_mount.c	xfs_ag.h
xfs_mount.c	xfs_alloc.h
xfs_mount.c	xfs_alloc_btree.h
xfs_mount.c	xfs_bit.h
xfs_mount.c	xfs_bmap.h
xfs_mount.c	xfs_bmap_btree.h
xfs_mount.c	xfs_btree.h
xfs_mount.c	xfs_dinode.h
xfs_mount.c	xfs_dir2.h
xfs_mount.c	xfs_error.h
xfs_mount.c	xfs_fs.h
xfs_mount.c	xfs_fsops.h
xfs_mount.c	xfs_ialloc.h
xfs_mount.c	xfs_ialloc_btree.h
xfs_mount.c	xfs_icache.h
xfs_mount.c	xfs_inode.h
xfs_mount.c	xfs_inum.h
xfs_mount.c	xfs_log.h
xfs_mount.c	xfs_mount.h
xfs_mount.c	xfs_quota.h
xfs_mount.c	xfs_rtalloc.h
xfs_mount.c	xfs_sb.h
xfs_mount.c	xfs_trace.h
xfs_mount.c	xfs_trans.h
xfs_mount.c	xfs_trans_priv.h
xfs_mount.c	xfs_types.h
xfs_mount.c	xfs_utils.h
xfs_mru_cache.c	xfs.h
xfs_mru_cache.c	xfs_mru_cache.h
xfs_qm.c	xfs.h
xfs_qm.c	xfs_ag.h
xfs_qm.c	xfs_alloc.h
xfs_qm.c	xfs_attr.h
xfs_qm.c	xfs_bit.h
xfs_qm.c	xfs_bmap.h
xfs_qm.c	xfs_bmap_btree.h
xfs_qm.c	xfs_buf_item.h
xfs_qm.c	xfs_dinode.h
xfs_qm.c	xfs_error.h
xfs_qm.c	xfs_fs.h
xfs_qm.c	xfs_ialloc.h
xfs_qm.c	xfs_ialloc_btree.h
xfs_qm.c	xfs_icache.h
xfs_qm.c	xfs_inode.h
xfs_qm.c	xfs_itable.h
xfs_qm.c	xfs_log.h
xfs_qm.c	xfs_mount.h
xfs_qm.c	xfs_qm.h
xfs_qm.c	xfs_quota.h
xfs_qm.c	xfs_rtalloc.h
xfs_qm.c	xfs_sb.h
xfs_qm.c	xfs_trace.h
xfs_qm.c	xfs_trans.h
xfs_qm.c	xfs_trans_space.h
xfs_qm.c	xfs_utils.h
xfs_qm.h	xfs_dquot.h
xfs_qm.h	xfs_dquot_item.h
xfs_qm.h	xfs_quota_priv.h
xfs_qm_bhv.c	xfs.h
xfs_qm_bhv.c	xfs_ag.h
xfs_qm_bhv.c	xfs_alloc.h
xfs_qm_bhv.c	xfs_attr.h
xfs_qm_bhv.c	xfs_bmap.h
xfs_qm_bhv.c	xfs_bmap_btree.h
xfs_qm_bhv.c	xfs_buf_item.h
xfs_qm_bhv.c	xfs_error.h
xfs_qm_bhv.c	xfs_fs.h
xfs_qm_bhv.c	xfs_inode.h
xfs_qm_bhv.c	xfs_itable.h
xfs_qm_bhv.c	xfs_log.h
xfs_qm_bhv.c	xfs_mount.h
xfs_qm_bhv.c	xfs_qm.h
xfs_qm_bhv.c	xfs_quota.h
xfs_qm_bhv.c	xfs_rtalloc.h
xfs_qm_bhv.c	xfs_sb.h
xfs_qm_bhv.c	xfs_trans.h
xfs_qm_syscalls.c	capability.h
xfs_qm_syscalls.c	xfs.h
xfs_qm_syscalls.c	xfs_ag.h
xfs_qm_syscalls.c	xfs_alloc.h
xfs_qm_syscalls.c	xfs_attr.h
xfs_qm_syscalls.c	xfs_bit.h
xfs_qm_syscalls.c	xfs_bmap.h
xfs_qm_syscalls.c	xfs_bmap_btree.h
xfs_qm_syscalls.c	xfs_buf_item.h
xfs_qm_syscalls.c	xfs_error.h
xfs_qm_syscalls.c	xfs_fs.h
xfs_qm_syscalls.c	xfs_icache.h
xfs_qm_syscalls.c	xfs_inode.h
xfs_qm_syscalls.c	xfs_inode_item.h
xfs_qm_syscalls.c	xfs_itable.h
xfs_qm_syscalls.c	xfs_log.h
xfs_qm_syscalls.c	xfs_mount.h
xfs_qm_syscalls.c	xfs_qm.h
xfs_qm_syscalls.c	xfs_quota.h
xfs_qm_syscalls.c	xfs_rtalloc.h
xfs_qm_syscalls.c	xfs_sb.h
xfs_qm_syscalls.c	xfs_trace.h
xfs_qm_syscalls.c	xfs_trans.h
xfs_qm_syscalls.c	xfs_utils.h
xfs_quotaops.c	quota.h
xfs_quotaops.c	xfs.h
xfs_quotaops.c	xfs_ag.h
xfs_quotaops.c	xfs_bmap_btree.h
xfs_quotaops.c	xfs_inode.h
xfs_quotaops.c	xfs_log.h
xfs_quotaops.c	xfs_mount.h
xfs_quotaops.c	xfs_qm.h
xfs_quotaops.c	xfs_quota.h
xfs_quotaops.c	xfs_sb.h
xfs_quotaops.c	xfs_trans.h
xfs_rename.c	xfs.h
xfs_rename.c	xfs_ag.h
xfs_rename.c	xfs_bmap.h
xfs_rename.c	xfs_bmap_btree.h
xfs_rename.c	xfs_da_btree.h
xfs_rename.c	xfs_dinode.h
xfs_rename.c	xfs_dir2.h
xfs_rename.c	xfs_error.h
xfs_rename.c	xfs_fs.h
xfs_rename.c	xfs_inode.h
xfs_rename.c	xfs_inode_item.h
xfs_rename.c	xfs_log.h
xfs_rename.c	xfs_mount.h
xfs_rename.c	xfs_quota.h
xfs_rename.c	xfs_sb.h
xfs_rename.c	xfs_trace.h
xfs_rename.c	xfs_trans.h
xfs_rename.c	xfs_trans_space.h
xfs_rename.c	xfs_types.h
xfs_rename.c	xfs_utils.h
xfs_rename.c	xfs_vnodeops.h
xfs_rtalloc.c	xfs.h
xfs_rtalloc.c	xfs_ag.h
xfs_rtalloc.c	xfs_alloc.h
xfs_rtalloc.c	xfs_bit.h
xfs_rtalloc.c	xfs_bmap.h
xfs_rtalloc.c	xfs_bmap_btree.h
xfs_rtalloc.c	xfs_buf.h
xfs_rtalloc.c	xfs_dinode.h
xfs_rtalloc.c	xfs_dir2.h
xfs_rtalloc.c	xfs_error.h
xfs_rtalloc.c	xfs_fs.h
xfs_rtalloc.c	xfs_fsops.h
xfs_rtalloc.c	xfs_icache.h
xfs_rtalloc.c	xfs_inode.h
xfs_rtalloc.c	xfs_inode_item.h
xfs_rtalloc.c	xfs_log.h
xfs_rtalloc.c	xfs_mount.h
xfs_rtalloc.c	xfs_rtalloc.h
xfs_rtalloc.c	xfs_sb.h
xfs_rtalloc.c	xfs_trace.h
xfs_rtalloc.c	xfs_trans.h
xfs_rtalloc.c	xfs_trans_space.h
xfs_rtalloc.c	xfs_types.h
xfs_rtalloc.c	xfs_utils.h
xfs_stats.c	proc_fs.h
xfs_stats.c	xfs.h
xfs_stats.h	percpu.h
xfs_super.c	freezer.h
xfs_super.c	init.h
xfs_super.c	kthread.h
xfs_super.c	mempool.h
xfs_super.c	mount.h
xfs_super.c	namei.h
xfs_super.c	parser.h
xfs_super.c	slab.h
xfs_super.c	writeback.h
xfs_super.c	xfs.h
xfs_super.c	xfs_ag.h
xfs_super.c	xfs_alloc.h
xfs_super.c	xfs_alloc_btree.h
xfs_super.c	xfs_attr.h
xfs_super.c	xfs_bmap.h
xfs_super.c	xfs_bmap_btree.h
xfs_super.c	xfs_btree.h
xfs_super.c	xfs_buf_item.h
xfs_super.c	xfs_da_btree.h
xfs_super.c	xfs_dinode.h
xfs_super.c	xfs_dir2.h
xfs_super.c	xfs_error.h
xfs_super.c	xfs_extfree_item.h
xfs_super.c	xfs_filestream.h
xfs_super.c	xfs_fsops.h
xfs_super.c	xfs_ialloc.h
xfs_super.c	xfs_ialloc_btree.h
xfs_super.c	xfs_icache.h
xfs_super.c	xfs_inode.h
xfs_super.c	xfs_inode_item.h
xfs_super.c	xfs_inum.h
xfs_super.c	xfs_itable.h
xfs_super.c	xfs_log.h
xfs_super.c	xfs_log_priv.h
xfs_super.c	xfs_mount.h
xfs_super.c	xfs_mru_cache.h
xfs_super.c	xfs_quota.h
xfs_super.c	xfs_rtalloc.h
xfs_super.c	xfs_sb.h
xfs_super.c	xfs_trace.h
xfs_super.c	xfs_trans.h
xfs_super.c	xfs_trans_priv.h
xfs_super.c	xfs_utils.h
xfs_super.c	xfs_vnodeops.h
xfs_super.h	exportfs.h
xfs_sysctl.c	proc_fs.h
xfs_sysctl.c	sysctl.h
xfs_sysctl.c	xfs.h
xfs_sysctl.c	xfs_error.h
xfs_sysctl.h	sysctl.h
xfs_trace.c	xfs.h
xfs_trace.c	xfs_ag.h
xfs_trace.c	xfs_alloc.h
xfs_trace.c	xfs_alloc_btree.h
xfs_trace.c	xfs_aops.h
xfs_trace.c	xfs_attr.h
xfs_trace.c	xfs_attr_leaf.h
xfs_trace.c	xfs_bmap.h
xfs_trace.c	xfs_bmap_btree.h
xfs_trace.c	xfs_btree.h
xfs_trace.c	xfs_buf_item.h
xfs_trace.c	xfs_da_btree.h
xfs_trace.c	xfs_dinode.h
xfs_trace.c	xfs_dquot.h
xfs_trace.c	xfs_dquot_item.h
xfs_trace.c	xfs_fs.h
xfs_trace.c	xfs_ialloc.h
xfs_trace.c	xfs_ialloc_btree.h
xfs_trace.c	xfs_inode.h
xfs_trace.c	xfs_inode_item.h
xfs_trace.c	xfs_iomap.h
xfs_trace.c	xfs_itable.h
xfs_trace.c	xfs_log.h
xfs_trace.c	xfs_log_priv.h
xfs_trace.c	xfs_log_recover.h
xfs_trace.c	xfs_mount.h
xfs_trace.c	xfs_quota.h
xfs_trace.c	xfs_sb.h
xfs_trace.c	xfs_trace.h
xfs_trace.c	xfs_trans.h
xfs_trace.c	xfs_types.h
xfs_trace.h	define_trace.h
xfs_trace.h	tracepoint.h
xfs_trans.c	xfs.h
xfs_trans.c	xfs_ag.h
xfs_trans.c	xfs_alloc.h
xfs_trans.c	xfs_alloc_btree.h
xfs_trans.c	xfs_bmap.h
xfs_trans.c	xfs_bmap_btree.h
xfs_trans.c	xfs_btree.h
xfs_trans.c	xfs_da_btree.h
xfs_trans.c	xfs_dinode.h
xfs_trans.c	xfs_error.h
xfs_trans.c	xfs_extent_busy.h
xfs_trans.c	xfs_fs.h
xfs_trans.c	xfs_ialloc.h
xfs_trans.c	xfs_ialloc_btree.h
xfs_trans.c	xfs_inode.h
xfs_trans.c	xfs_inode_item.h
xfs_trans.c	xfs_log.h
xfs_trans.c	xfs_mount.h
xfs_trans.c	xfs_quota.h
xfs_trans.c	xfs_sb.h
xfs_trans.c	xfs_trace.h
xfs_trans.c	xfs_trans.h
xfs_trans.c	xfs_trans_priv.h
xfs_trans.c	xfs_trans_space.h
xfs_trans.c	xfs_types.h
xfs_trans_ail.c	xfs.h
xfs_trans_ail.c	xfs_ag.h
xfs_trans_ail.c	xfs_error.h
xfs_trans_ail.c	xfs_fs.h
xfs_trans_ail.c	xfs_log.h
xfs_trans_ail.c	xfs_mount.h
xfs_trans_ail.c	xfs_sb.h
xfs_trans_ail.c	xfs_trace.h
xfs_trans_ail.c	xfs_trans.h
xfs_trans_ail.c	xfs_trans_priv.h
xfs_trans_ail.c	xfs_types.h
xfs_trans_buf.c	xfs.h
xfs_trans_buf.c	xfs_ag.h
xfs_trans_buf.c	xfs_alloc_btree.h
xfs_trans_buf.c	xfs_bmap_btree.h
xfs_trans_buf.c	xfs_buf_item.h
xfs_trans_buf.c	xfs_dinode.h
xfs_trans_buf.c	xfs_error.h
xfs_trans_buf.c	xfs_fs.h
xfs_trans_buf.c	xfs_ialloc_btree.h
xfs_trans_buf.c	xfs_inode.h
xfs_trans_buf.c	xfs_log.h
xfs_trans_buf.c	xfs_mount.h
xfs_trans_buf.c	xfs_sb.h
xfs_trans_buf.c	xfs_trace.h
xfs_trans_buf.c	xfs_trans.h
xfs_trans_buf.c	xfs_trans_priv.h
xfs_trans_buf.c	xfs_types.h
xfs_trans_dquot.c	xfs.h
xfs_trans_dquot.c	xfs_ag.h
xfs_trans_dquot.c	xfs_alloc.h
xfs_trans_dquot.c	xfs_attr.h
xfs_trans_dquot.c	xfs_bmap.h
xfs_trans_dquot.c	xfs_bmap_btree.h
xfs_trans_dquot.c	xfs_buf_item.h
xfs_trans_dquot.c	xfs_error.h
xfs_trans_dquot.c	xfs_fs.h
xfs_trans_dquot.c	xfs_inode.h
xfs_trans_dquot.c	xfs_itable.h
xfs_trans_dquot.c	xfs_log.h
xfs_trans_dquot.c	xfs_mount.h
xfs_trans_dquot.c	xfs_qm.h
xfs_trans_dquot.c	xfs_quota.h
xfs_trans_dquot.c	xfs_rtalloc.h
xfs_trans_dquot.c	xfs_sb.h
xfs_trans_dquot.c	xfs_trans.h
xfs_trans_dquot.c	xfs_trans_priv.h
xfs_trans_extfree.c	xfs.h
xfs_trans_extfree.c	xfs_ag.h
xfs_trans_extfree.c	xfs_extfree_item.h
xfs_trans_extfree.c	xfs_fs.h
xfs_trans_extfree.c	xfs_log.h
xfs_trans_extfree.c	xfs_mount.h
xfs_trans_extfree.c	xfs_sb.h
xfs_trans_extfree.c	xfs_trans.h
xfs_trans_extfree.c	xfs_trans_priv.h
xfs_trans_extfree.c	xfs_types.h
xfs_trans_inode.c	xfs.h
xfs_trans_inode.c	xfs_ag.h
xfs_trans_inode.c	xfs_alloc_btree.h
xfs_trans_inode.c	xfs_bmap_btree.h
xfs_trans_inode.c	xfs_btree.h
xfs_trans_inode.c	xfs_dinode.h
xfs_trans_inode.c	xfs_fs.h
xfs_trans_inode.c	xfs_ialloc_btree.h
xfs_trans_inode.c	xfs_inode.h
xfs_trans_inode.c	xfs_inode_item.h
xfs_trans_inode.c	xfs_log.h
xfs_trans_inode.c	xfs_mount.h
xfs_trans_inode.c	xfs_sb.h
xfs_trans_inode.c	xfs_trace.h
xfs_trans_inode.c	xfs_trans.h
xfs_trans_inode.c	xfs_trans_priv.h
xfs_trans_inode.c	xfs_types.h
xfs_utils.c	xfs.h
xfs_utils.c	xfs_ag.h
xfs_utils.c	xfs_bmap.h
xfs_utils.c	xfs_bmap_btree.h
xfs_utils.c	xfs_dinode.h
xfs_utils.c	xfs_dir2.h
xfs_utils.c	xfs_error.h
xfs_utils.c	xfs_fs.h
xfs_utils.c	xfs_inode.h
xfs_utils.c	xfs_inode_item.h
xfs_utils.c	xfs_itable.h
xfs_utils.c	xfs_log.h
xfs_utils.c	xfs_mount.h
xfs_utils.c	xfs_quota.h
xfs_utils.c	xfs_sb.h
xfs_utils.c	xfs_trans.h
xfs_utils.c	xfs_types.h
xfs_utils.c	xfs_utils.h
xfs_vnode.h	xfs_fs.h
xfs_vnodeops.c	xfs.h
xfs_vnodeops.c	xfs_acl.h
xfs_vnodeops.c	xfs_ag.h
xfs_vnodeops.c	xfs_alloc.h
xfs_vnodeops.c	xfs_attr.h
xfs_vnodeops.c	xfs_bit.h
xfs_vnodeops.c	xfs_bmap.h
xfs_vnodeops.c	xfs_bmap_btree.h
xfs_vnodeops.c	xfs_da_btree.h
xfs_vnodeops.c	xfs_dinode.h
xfs_vnodeops.c	xfs_dir2.h
xfs_vnodeops.c	xfs_error.h
xfs_vnodeops.c	xfs_filestream.h
xfs_vnodeops.c	xfs_fs.h
xfs_vnodeops.c	xfs_ialloc.h
xfs_vnodeops.c	xfs_ialloc_btree.h
xfs_vnodeops.c	xfs_icache.h
xfs_vnodeops.c	xfs_inode.h
xfs_vnodeops.c	xfs_inode_item.h
xfs_vnodeops.c	xfs_itable.h
xfs_vnodeops.c	xfs_log.h
xfs_vnodeops.c	xfs_log_priv.h
xfs_vnodeops.c	xfs_mount.h
xfs_vnodeops.c	xfs_quota.h
xfs_vnodeops.c	xfs_rtalloc.h
xfs_vnodeops.c	xfs_sb.h
xfs_vnodeops.c	xfs_trace.h
xfs_vnodeops.c	xfs_trans.h
xfs_vnodeops.c	xfs_trans_space.h
xfs_vnodeops.c	xfs_types.h
xfs_vnodeops.c	xfs_utils.h
xfs_vnodeops.c	xfs_vnodeops.h
xfs_xattr.c	posix_acl_xattr.h
xfs_xattr.c	xattr.h
xfs_xattr.c	xfs.h
xfs_xattr.c	xfs_acl.h
xfs_xattr.c	xfs_attr.h
xfs_xattr.c	xfs_attr_leaf.h
xfs_xattr.c	xfs_bmap_btree.h
xfs_xattr.c	xfs_da_btree.h
xfs_xattr.c	xfs_inode.h
xfs_xattr.c	xfs_vnodeops.h
