ackvec.c	dccp.h
ackvec.c	export.h
ackvec.c	kernel.h
ackvec.c	slab.h
ackvec.h	compiler.h
ackvec.h	dccp.h
ackvec.h	list.h
ackvec.h	types.h
actions.c	checksum.h
actions.c	datapath.h
actions.c	dsfield.h
actions.c	if_arp.h
actions.c	if_vlan.h
actions.c	in.h
actions.c	in6.h
actions.c	ip.h
actions.c	ip.h
actions.c	ipv6.h
actions.c	openvswitch.h
actions.c	skbuff.h
actions.c	tcp.h
actions.c	udp.h
actions.c	vport.h
addr.c	clnt.h
addr.c	clnt.h
addr.c	export.h
addr.c	export.h
addr.c	ipv6.h
addr.c	ipv6.h
addr.c	slab.h
addr.c	slab.h
af_can.c	af_can.h
af_can.c	can.h
af_can.c	core.h
af_can.c	if_arp.h
af_can.c	if_ether.h
af_can.c	init.h
af_can.c	kmod.h
af_can.c	list.h
af_can.c	module.h
af_can.c	net.h
af_can.c	net_namespace.h
af_can.c	netdevice.h
af_can.c	ratelimit.h
af_can.c	rcupdate.h
af_can.c	skbuff.h
af_can.c	slab.h
af_can.c	sock.h
af_can.c	socket.h
af_can.c	spinlock.h
af_can.c	stddef.h
af_can.c	uaccess.h
af_can.h	can.h
af_can.h	list.h
af_can.h	netdevice.h
af_can.h	rcupdate.h
af_can.h	skbuff.h
af_decnet.c	capability.h
af_decnet.c	dn.h
af_decnet.c	dn_dev.h
af_decnet.c	dn_fib.h
af_decnet.c	dn_neigh.h
af_decnet.c	dn_nsp.h
af_decnet.c	dn_route.h
af_decnet.c	dst.h
af_decnet.c	errno.h
af_decnet.c	fib_rules.h
af_decnet.c	flow.h
af_decnet.c	in.h
af_decnet.c	inet.h
af_decnet.c	init.h
af_decnet.c	interrupt.h
af_decnet.c	ioctls.h
af_decnet.c	kernel.h
af_decnet.c	mm.h
af_decnet.c	module.h
af_decnet.c	neighbour.h
af_decnet.c	net.h
af_decnet.c	net_namespace.h
af_decnet.c	netdevice.h
af_decnet.c	netfilter.h
af_decnet.c	poll.h
af_decnet.c	proc_fs.h
af_decnet.c	route.h
af_decnet.c	sched.h
af_decnet.c	seq_file.h
af_decnet.c	slab.h
af_decnet.c	sock.h
af_decnet.c	socket.h
af_decnet.c	sockios.h
af_decnet.c	stat.h
af_decnet.c	string.h
af_decnet.c	tcp_states.h
af_decnet.c	timer.h
af_decnet.c	types.h
af_key.c	capability.h
af_key.c	generic.h
af_key.c	in.h
af_key.c	in6.h
af_key.c	init.h
af_key.c	ipsec.h
af_key.c	kernel.h
af_key.c	module.h
af_key.c	net_namespace.h
af_key.c	pfkeyv2.h
af_key.c	proc_fs.h
af_key.c	rtnetlink.h
af_key.c	skbuff.h
af_key.c	slab.h
af_key.c	sock.h
af_key.c	socket.h
af_key.c	xfrm.h
ap.c	cfg80211.h
ap.c	core.h
ap.c	export.h
ap.c	ieee80211.h
ap.c	nl80211.h
ap.c	rdev-ops.h
armor.c	errno.h
associola.c	fcntl.h
associola.c	in.h
associola.c	init.h
associola.c	ipv6.h
associola.c	poll.h
associola.c	sctp.h
associola.c	slab.h
associola.c	sm.h
associola.c	types.h
auth.c	auth_none.h
auth.c	auth_none.h
auth.c	auth_none.h
auth.c	auth_x.h
auth.c	auth_x.h
auth.c	auth_x.h
auth.c	ceph_debug.h
auth.c	ceph_debug.h
auth.c	ceph_debug.h
auth.c	decode.h
auth.c	decode.h
auth.c	decode.h
auth.c	err.h
auth.c	err.h
auth.c	err.h
auth.c	libceph.h
auth.c	libceph.h
auth.c	libceph.h
auth.c	messenger.h
auth.c	messenger.h
auth.c	messenger.h
auth.c	module.h
auth.c	module.h
auth.c	module.h
auth.c	slab.h
auth.c	slab.h
auth.c	slab.h
auth.c	types.h
auth.c	types.h
auth.c	types.h
auth_generic.c	auth.h
auth_generic.c	clnt.h
auth_generic.c	debug.h
auth_generic.c	err.h
auth_generic.c	module.h
auth_generic.c	sched.h
auth_generic.c	sched.h
auth_generic.c	slab.h
auth_generic.c	types.h
auth_gss.c	auth.h
auth_gss.c	auth_gss.h
auth_gss.c	clnt.h
auth_gss.c	gss_api.h
auth_gss.c	gss_err.h
auth_gss.c	init.h
auth_gss.c	module.h
auth_gss.c	pagemap.h
auth_gss.c	rpc_pipe_fs.h
auth_gss.c	sched.h
auth_gss.c	slab.h
auth_gss.c	svcauth_gss.h
auth_gss.c	types.h
auth_gss.c	uaccess.h
auth_gss.c	workqueue.h
auth_none.c	auth.h
auth_none.c	auth_none.h
auth_none.c	ceph_debug.h
auth_none.c	decode.h
auth_none.c	err.h
auth_none.c	module.h
auth_none.c	random.h
auth_none.c	slab.h
auth_none.h	auth.h
auth_none.h	slab.h
auth_null.c	clnt.h
auth_null.c	module.h
auth_null.c	types.h
auth_unix.c	auth.h
auth_unix.c	clnt.h
auth_unix.c	module.h
auth_unix.c	sched.h
auth_unix.c	slab.h
auth_unix.c	types.h
auth_unix.c	user_namespace.h
auth_x.c	auth.h
auth_x.c	auth_x.h
auth_x.c	auth_x_protocol.h
auth_x.c	ceph_debug.h
auth_x.c	crypto.h
auth_x.c	decode.h
auth_x.c	err.h
auth_x.c	module.h
auth_x.c	random.h
auth_x.c	slab.h
auth_x.h	auth.h
auth_x.h	auth_x_protocol.h
auth_x.h	crypto.h
auth_x.h	rbtree.h
backchannel_rqst.c	bc_xprt.h
backchannel_rqst.c	export.h
backchannel_rqst.c	slab.h
backchannel_rqst.c	tcp.h
backchannel_rqst.c	xprt.h
bat_iv_ogm.c	bat_algo.h
bat_iv_ogm.c	gateway_client.h
bat_iv_ogm.c	gateway_common.h
bat_iv_ogm.c	hard-interface.h
bat_iv_ogm.c	main.h
bat_iv_ogm.c	originator.h
bat_iv_ogm.c	ring_buffer.h
bat_iv_ogm.c	routing.h
bat_iv_ogm.c	send.h
bat_iv_ogm.c	translation-table.h
bc_svc.c	bc_xprt.h
bc_svc.c	module.h
bc_svc.c	sched.h
bc_svc.c	xprt.h
bcast.c	bcast.h
bcast.c	core.h
bcast.c	link.h
bcast.c	name_distr.h
bcast.c	port.h
bcm.c	bcm.h
bcm.c	can.h
bcm.c	core.h
bcm.c	hrtimer.h
bcm.c	if_arp.h
bcm.c	init.h
bcm.c	interrupt.h
bcm.c	list.h
bcm.c	module.h
bcm.c	net.h
bcm.c	net_namespace.h
bcm.c	netdevice.h
bcm.c	proc_fs.h
bcm.c	seq_file.h
bcm.c	skbuff.h
bcm.c	slab.h
bcm.c	sock.h
bcm.c	socket.h
bcm.c	uio.h
bearer.c	bearer.h
bearer.c	config.h
bearer.c	core.h
bearer.c	discover.h
bearer.h	bcast.h
bitarray.c	bitarray.h
bitarray.c	bitops.h
bitarray.c	main.h
bridge_loop_avoidance.c	arp.h
bridge_loop_avoidance.c	bridge_loop_avoidance.h
bridge_loop_avoidance.c	crc16.h
bridge_loop_avoidance.c	etherdevice.h
bridge_loop_avoidance.c	hard-interface.h
bridge_loop_avoidance.c	hash.h
bridge_loop_avoidance.c	if_arp.h
bridge_loop_avoidance.c	if_vlan.h
bridge_loop_avoidance.c	main.h
bridge_loop_avoidance.c	originator.h
bridge_loop_avoidance.c	send.h
bridge_loop_avoidance.c	translation-table.h
buffer.c	buffer.h
buffer.c	ceph_debug.h
buffer.c	decode.h
buffer.c	module.h
buffer.c	slab.h
cache.c	cache.h
cache.c	ctype.h
cache.c	file.h
cache.c	fs.h
cache.c	ioctls.h
cache.c	kmod.h
cache.c	list.h
cache.c	module.h
cache.c	mutex.h
cache.c	net.h
cache.c	netns.h
cache.c	pagemap.h
cache.c	poll.h
cache.c	proc_fs.h
cache.c	rpc_pipe_fs.h
cache.c	sched.h
cache.c	seq_file.h
cache.c	signal.h
cache.c	slab.h
cache.c	stats.h
cache.c	types.h
cache.c	types.h
cache.c	uaccess.h
cache.c	workqueue.h
caif_dev.c	caif_device.h
caif_dev.c	caif_layer.h
caif_dev.c	cfcnfg.h
caif_dev.c	cfpkt.h
caif_dev.c	cfserl.h
caif_dev.c	generic.h
caif_dev.c	if_arp.h
caif_dev.c	kernel.h
caif_dev.c	module.h
caif_dev.c	mutex.h
caif_dev.c	net.h
caif_dev.c	net_namespace.h
caif_dev.c	netdevice.h
caif_dev.c	pkt_sched.h
caif_dev.c	spinlock.h
caif_socket.c	caif_dev.h
caif_socket.c	caif_layer.h
caif_socket.c	caif_socket.h
caif_socket.c	cfpkt.h
caif_socket.c	debugfs.h
caif_socket.c	fs.h
caif_socket.c	init.h
caif_socket.c	list.h
caif_socket.c	module.h
caif_socket.c	mutex.h
caif_socket.c	pkt_sched.h
caif_socket.c	poll.h
caif_socket.c	sched.h
caif_socket.c	sock.h
caif_socket.c	spinlock.h
caif_socket.c	tcp.h
caif_socket.c	tcp_states.h
caif_socket.c	uaccess.h
caif_socket.c	wait.h
caif_usb.c	caif_dev.h
caif_usb.c	caif_layer.h
caif_usb.c	cfcnfg.h
caif_usb.c	cfpkt.h
caif_usb.c	generic.h
caif_usb.c	mii.h
caif_usb.c	module.h
caif_usb.c	netdevice.h
caif_usb.c	slab.h
caif_usb.c	usb.h
caif_usb.c	usbnet.h
ccid.c	ccid.h
ccid.c	slab.h
ccid.c	tfrc.h
ccid.h	compiler.h
ccid.h	dccp.h
ccid.h	list.h
ccid.h	module.h
ccid.h	sock.h
ccid2.c	ccid2.h
ccid2.c	feat.h
ccid2.c	slab.h
ccid2.h	ccid.h
ccid2.h	dccp.h
ccid2.h	timer.h
ccid2.h	types.h
ccid3.c	ccid3.h
ccid3.c	dccp.h
ccid3.c	unaligned.h
ccid3.h	ccid.h
ccid3.h	ktime.h
ccid3.h	list.h
ccid3.h	tfrc.h
ccid3.h	tfrc.h
ccid3.h	types.h
ceph_common.c	auth.h
ceph_common.c	backing-dev.h
ceph_common.c	ceph-type.h
ceph_common.c	ceph_debug.h
ceph_common.c	ceph_features.h
ceph_common.c	crypto.h
ceph_common.c	ctype.h
ceph_common.c	debugfs.h
ceph_common.c	decode.h
ceph_common.c	fs.h
ceph_common.c	in6.h
ceph_common.c	inet.h
ceph_common.c	key.h
ceph_common.c	libceph.h
ceph_common.c	module.h
ceph_common.c	mon_client.h
ceph_common.c	mount.h
ceph_common.c	parser.h
ceph_common.c	sched.h
ceph_common.c	seq_file.h
ceph_common.c	slab.h
ceph_common.c	statfs.h
ceph_common.c	string.h
ceph_fs.c	module.h
ceph_fs.c	types.h
ceph_hash.c	module.h
ceph_hash.c	types.h
ceph_strings.c	module.h
ceph_strings.c	types.h
cfcnfg.c	caif_dev.h
cfcnfg.c	caif_layer.h
cfcnfg.c	cfcnfg.h
cfcnfg.c	cfctrl.h
cfcnfg.c	cffrml.h
cfcnfg.c	cfmuxl.h
cfcnfg.c	cfpkt.h
cfcnfg.c	cfserl.h
cfcnfg.c	cfsrvl.h
cfcnfg.c	kernel.h
cfcnfg.c	module.h
cfcnfg.c	netdevice.h
cfcnfg.c	slab.h
cfcnfg.c	stddef.h
cfctrl.c	caif_layer.h
cfctrl.c	cfctrl.h
cfctrl.c	cfpkt.h
cfctrl.c	pkt_sched.h
cfctrl.c	slab.h
cfctrl.c	spinlock.h
cfctrl.c	stddef.h
cfdbgl.c	caif_layer.h
cfdbgl.c	cfpkt.h
cfdbgl.c	cfsrvl.h
cfdbgl.c	slab.h
cfdbgl.c	stddef.h
cfdgml.c	caif_layer.h
cfdgml.c	cfpkt.h
cfdgml.c	cfsrvl.h
cfdgml.c	slab.h
cfdgml.c	spinlock.h
cfdgml.c	stddef.h
cffrml.c	caif_layer.h
cffrml.c	cffrml.h
cffrml.c	cfpkt.h
cffrml.c	crc-ccitt.h
cffrml.c	netdevice.h
cffrml.c	slab.h
cffrml.c	spinlock.h
cffrml.c	stddef.h
cfmuxl.c	cffrml.h
cfmuxl.c	cfmuxl.h
cfmuxl.c	cfpkt.h
cfmuxl.c	cfsrvl.h
cfmuxl.c	rculist.h
cfmuxl.c	slab.h
cfmuxl.c	spinlock.h
cfmuxl.c	stddef.h
cfpkt_skbuff.c	cfpkt.h
cfpkt_skbuff.c	export.h
cfpkt_skbuff.c	hardirq.h
cfpkt_skbuff.c	skbuff.h
cfpkt_skbuff.c	string.h
cfrfml.c	caif_layer.h
cfrfml.c	cfpkt.h
cfrfml.c	cfsrvl.h
cfrfml.c	slab.h
cfrfml.c	spinlock.h
cfrfml.c	stddef.h
cfrfml.c	unaligned.h
cfserl.c	caif_layer.h
cfserl.c	cfpkt.h
cfserl.c	cfserl.h
cfserl.c	slab.h
cfserl.c	spinlock.h
cfserl.c	stddef.h
cfsrvl.c	caif_layer.h
cfsrvl.c	cfpkt.h
cfsrvl.c	cfsrvl.h
cfsrvl.c	errno.h
cfsrvl.c	kernel.h
cfsrvl.c	module.h
cfsrvl.c	pkt_sched.h
cfsrvl.c	slab.h
cfsrvl.c	types.h
cfutill.c	caif_layer.h
cfutill.c	cfpkt.h
cfutill.c	cfsrvl.h
cfutill.c	errno.h
cfutill.c	kernel.h
cfutill.c	slab.h
cfutill.c	types.h
cfveil.c	caif_layer.h
cfveil.c	cfpkt.h
cfveil.c	cfsrvl.h
cfveil.c	slab.h
cfveil.c	stddef.h
cfvidl.c	caif_layer.h
cfvidl.c	cfpkt.h
cfvidl.c	cfsrvl.h
cfvidl.c	errno.h
cfvidl.c	kernel.h
cfvidl.c	slab.h
cfvidl.c	types.h
chan.c	cfg80211.h
chan.c	core.h
chan.c	export.h
chan.c	rdev-ops.h
chnl_net.c	caif_dev.h
chnl_net.c	caif_layer.h
chnl_net.c	cfpkt.h
chnl_net.c	fs.h
chnl_net.c	hardirq.h
chnl_net.c	if_caif.h
chnl_net.c	if_ether.h
chnl_net.c	init.h
chnl_net.c	ip.h
chnl_net.c	module.h
chnl_net.c	moduleparam.h
chnl_net.c	netdevice.h
chnl_net.c	rtnetlink.h
chnl_net.c	sched.h
chnl_net.c	sockios.h
chunk.c	inet.h
chunk.c	kernel.h
chunk.c	net.h
chunk.c	sctp.h
chunk.c	skbuff.h
chunk.c	slab.h
chunk.c	sm.h
chunk.c	sock.h
chunk.c	types.h
clnt.c	bc_xprt.h
clnt.c	clnt.h
clnt.c	in.h
clnt.c	in6.h
clnt.c	kallsyms.h
clnt.c	metrics.h
clnt.c	mm.h
clnt.c	module.h
clnt.c	mount.h
clnt.c	namei.h
clnt.c	netns.h
clnt.c	rcupdate.h
clnt.c	rpc_pipe_fs.h
clnt.c	slab.h
clnt.c	sunrpc.h
clnt.c	sunrpc.h
clnt.c	types.h
clnt.c	un.h
clnt.c	utsname.h
clnt.c	workqueue.h
command.c	sctp.h
command.c	sm.h
command.c	types.h
config.c	config.h
config.c	core.h
config.c	name_table.h
config.c	port.h
config.h	link.h
core.c	cfg80211.h
core.c	cfg80211.h
core.c	core.h
core.c	core.h
core.c	debugfs.h
core.c	debugfs.h
core.c	debugfs.h
core.c	debugfs.h
core.c	device.h
core.c	device.h
core.c	err.h
core.c	err.h
core.c	etherdevice.h
core.c	etherdevice.h
core.c	ethtool.h
core.c	ethtool.h
core.c	genetlink.h
core.c	genetlink.h
core.c	if.h
core.c	if.h
core.c	list.h
core.c	list.h
core.c	module.h
core.c	module.h
core.c	nl80211.h
core.c	nl80211.h
core.c	nl80211.h
core.c	nl80211.h
core.c	notifier.h
core.c	notifier.h
core.c	rdev-ops.h
core.c	rdev-ops.h
core.c	rtnetlink.h
core.c	rtnetlink.h
core.c	sched.h
core.c	sched.h
core.c	slab.h
core.c	slab.h
core.c	sysfs.h
core.c	sysfs.h
core.c	wext-compat.h
core.c	wext-compat.h
core.h	cfg80211.h
core.h	cfg80211.h
core.h	debugfs.h
core.h	debugfs.h
core.h	genetlink.h
core.h	genetlink.h
core.h	kref.h
core.h	kref.h
core.h	list.h
core.h	list.h
core.h	mutex.h
core.h	mutex.h
core.h	netdevice.h
core.h	netdevice.h
core.h	rbtree.h
core.h	rbtree.h
core.h	reg.h
core.h	reg.h
core.h	rfkill.h
core.h	rfkill.h
core.h	rtnetlink.h
core.h	rtnetlink.h
core.h	workqueue.h
core.h	workqueue.h
crush.c	crush.h
crypto.c	ceph-type.h
crypto.c	ceph_debug.h
crypto.c	crypto.h
crypto.c	decode.h
crypto.c	err.h
crypto.c	hash.h
crypto.c	key-type.h
crypto.c	scatterlist.h
crypto.c	slab.h
crypto.h	buffer.h
crypto.h	types.h
datapath.c	datapath.h
datapath.c	delay.h
datapath.c	div64.h
datapath.c	dmi.h
datapath.c	etherdevice.h
datapath.c	ethtool.h
datapath.c	flow.h
datapath.c	generic.h
datapath.c	genetlink.h
datapath.c	genetlink.h
datapath.c	highmem.h
datapath.c	if_arp.h
datapath.c	if_vlan.h
datapath.c	in.h
datapath.c	inetdevice.h
datapath.c	init.h
datapath.c	ip.h
datapath.c	jhash.h
datapath.c	kernel.h
datapath.c	kthread.h
datapath.c	list.h
datapath.c	module.h
datapath.c	mutex.h
datapath.c	net_namespace.h
datapath.c	netfilter_bridge.h
datapath.c	netfilter_ipv4.h
datapath.c	openvswitch.h
datapath.c	percpu.h
datapath.c	rculist.h
datapath.c	rcupdate.h
datapath.c	tcp.h
datapath.c	time.h
datapath.c	udp.h
datapath.c	vport-internal_dev.h
datapath.c	wait.h
datapath.c	workqueue.h
datapath.h	flow.h
datapath.h	kernel.h
datapath.h	mutex.h
datapath.h	netdevice.h
datapath.h	page.h
datapath.h	skbuff.h
datapath.h	u64_stats_sync.h
datapath.h	vport.h
dcbevent.c	export.h
dcbevent.c	notifier.h
dcbevent.c	rtnetlink.h
dcbnl.c	dcbevent.h
dcbnl.c	dcbnl.h
dcbnl.c	module.h
dcbnl.c	netdevice.h
dcbnl.c	netlink.h
dcbnl.c	netlink.h
dcbnl.c	rtnetlink.h
dcbnl.c	rtnetlink.h
dcbnl.c	slab.h
dcbnl.c	sock.h
dccp.h	ackvec.h
dccp.h	dccp.h
dccp.h	ktime.h
dccp.h	snmp.h
dccp.h	sock.h
dccp.h	tcp.h
debug.c	sctp.h
debugfs.c	auth.h
debugfs.c	auth.h
debugfs.c	auth.h
debugfs.c	ceph_debug.h
debugfs.c	ceph_debug.h
debugfs.c	ceph_debug.h
debugfs.c	ctype.h
debugfs.c	ctype.h
debugfs.c	ctype.h
debugfs.c	debugfs.h
debugfs.c	debugfs.h
debugfs.c	debugfs.h
debugfs.c	debugfs.h
debugfs.c	debugfs.h
debugfs.c	debugfs.h
debugfs.c	device.h
debugfs.c	device.h
debugfs.c	device.h
debugfs.c	libceph.h
debugfs.c	libceph.h
debugfs.c	libceph.h
debugfs.c	module.h
debugfs.c	module.h
debugfs.c	module.h
debugfs.c	mon_client.h
debugfs.c	mon_client.h
debugfs.c	mon_client.h
debugfs.c	seq_file.h
debugfs.c	seq_file.h
debugfs.c	seq_file.h
debugfs.c	slab.h
debugfs.c	slab.h
debugfs.c	slab.h
dev_addr_lists.c	export.h
dev_addr_lists.c	list.h
dev_addr_lists.c	netdevice.h
dev_addr_lists.c	proc_fs.h
dev_addr_lists.c	rtnetlink.h
dev_addr_lists.c	seq_file.h
diag.c	ccid.h
diag.c	dccp.h
diag.c	inet_diag.h
diag.c	module.h
discover.c	core.h
discover.c	discover.h
discover.c	link.h
distributed-arp-table.c	arp.h
distributed-arp-table.c	distributed-arp-table.h
distributed-arp-table.c	hard-interface.h
distributed-arp-table.c	hash.h
distributed-arp-table.c	if_arp.h
distributed-arp-table.c	if_ether.h
distributed-arp-table.c	main.h
distributed-arp-table.c	originator.h
distributed-arp-table.c	send.h
distributed-arp-table.c	translation-table.h
distributed-arp-table.c	types.h
distributed-arp-table.c	unicast.h
distributed-arp-table.h	if_arp.h
distributed-arp-table.h	originator.h
distributed-arp-table.h	types.h
dn_dev.c	capability.h
dn_dev.c	dn.h
dn_dev.c	dn_dev.h
dn_dev.c	dn_fib.h
dn_dev.c	dn_neigh.h
dn_dev.c	dn_route.h
dn_dev.c	dst.h
dn_dev.c	fib_rules.h
dn_dev.c	flow.h
dn_dev.c	if_addr.h
dn_dev.c	if_arp.h
dn_dev.c	if_ether.h
dn_dev.c	init.h
dn_dev.c	module.h
dn_dev.c	moduleparam.h
dn_dev.c	neighbour.h
dn_dev.c	net.h
dn_dev.c	net_namespace.h
dn_dev.c	netdevice.h
dn_dev.c	netlink.h
dn_dev.c	notifier.h
dn_dev.c	proc_fs.h
dn_dev.c	seq_file.h
dn_dev.c	skbuff.h
dn_dev.c	slab.h
dn_dev.c	string.h
dn_dev.c	sysctl.h
dn_dev.c	timer.h
dn_dev.c	uaccess.h
dn_fib.c	atomic.h
dn_fib.c	dn.h
dn_fib.c	dn_dev.h
dn_fib.c	dn_fib.h
dn_fib.c	dn_neigh.h
dn_fib.c	dn_route.h
dn_fib.c	dst.h
dn_fib.c	fib_rules.h
dn_fib.c	flow.h
dn_fib.c	init.h
dn_fib.c	neighbour.h
dn_fib.c	net.h
dn_fib.c	netdevice.h
dn_fib.c	netlink.h
dn_fib.c	proc_fs.h
dn_fib.c	rtnetlink.h
dn_fib.c	skbuff.h
dn_fib.c	slab.h
dn_fib.c	socket.h
dn_fib.c	sockios.h
dn_fib.c	spinlock.h
dn_fib.c	string.h
dn_fib.c	timer.h
dn_fib.c	uaccess.h
dn_neigh.c	atomic.h
dn_neigh.c	dn.h
dn_neigh.c	dn_dev.h
dn_neigh.c	dn_neigh.h
dn_neigh.c	dn_route.h
dn_neigh.c	dst.h
dn_neigh.c	flow.h
dn_neigh.c	if_arp.h
dn_neigh.c	if_ether.h
dn_neigh.c	init.h
dn_neigh.c	jhash.h
dn_neigh.c	module.h
dn_neigh.c	neighbour.h
dn_neigh.c	net.h
dn_neigh.c	net_namespace.h
dn_neigh.c	netfilter_decnet.h
dn_neigh.c	proc_fs.h
dn_neigh.c	rcupdate.h
dn_neigh.c	seq_file.h
dn_neigh.c	slab.h
dn_neigh.c	socket.h
dn_neigh.c	spinlock.h
dn_neigh.c	string.h
dn_nsp_in.c	dn.h
dn_nsp_in.c	dn_dev.h
dn_nsp_in.c	dn_nsp.h
dn_nsp_in.c	dn_route.h
dn_nsp_in.c	dst.h
dn_nsp_in.c	errno.h
dn_nsp_in.c	fcntl.h
dn_nsp_in.c	in.h
dn_nsp_in.c	inet.h
dn_nsp_in.c	init.h
dn_nsp_in.c	interrupt.h
dn_nsp_in.c	kernel.h
dn_nsp_in.c	mm.h
dn_nsp_in.c	neighbour.h
dn_nsp_in.c	net.h
dn_nsp_in.c	netdevice.h
dn_nsp_in.c	netfilter_decnet.h
dn_nsp_in.c	poll.h
dn_nsp_in.c	proc_fs.h
dn_nsp_in.c	route.h
dn_nsp_in.c	slab.h
dn_nsp_in.c	sock.h
dn_nsp_in.c	socket.h
dn_nsp_in.c	sockios.h
dn_nsp_in.c	stat.h
dn_nsp_in.c	string.h
dn_nsp_in.c	tcp_states.h
dn_nsp_in.c	termios.h
dn_nsp_in.c	timer.h
dn_nsp_in.c	types.h
dn_nsp_out.c	dn.h
dn_nsp_out.c	dn_dev.h
dn_nsp_out.c	dn_nsp.h
dn_nsp_out.c	dn_route.h
dn_nsp_out.c	dst.h
dn_nsp_out.c	errno.h
dn_nsp_out.c	fcntl.h
dn_nsp_out.c	flow.h
dn_nsp_out.c	if_packet.h
dn_nsp_out.c	in.h
dn_nsp_out.c	inet.h
dn_nsp_out.c	init.h
dn_nsp_out.c	interrupt.h
dn_nsp_out.c	kernel.h
dn_nsp_out.c	mm.h
dn_nsp_out.c	neighbour.h
dn_nsp_out.c	net.h
dn_nsp_out.c	netdevice.h
dn_nsp_out.c	poll.h
dn_nsp_out.c	proc_fs.h
dn_nsp_out.c	route.h
dn_nsp_out.c	slab.h
dn_nsp_out.c	sock.h
dn_nsp_out.c	socket.h
dn_nsp_out.c	sockios.h
dn_nsp_out.c	stat.h
dn_nsp_out.c	string.h
dn_nsp_out.c	termios.h
dn_nsp_out.c	timer.h
dn_nsp_out.c	types.h
dn_route.c	dn.h
dn_route.c	dn_dev.h
dn_route.c	dn_fib.h
dn_route.c	dn_neigh.h
dn_route.c	dn_nsp.h
dn_route.c	dn_route.h
dn_route.c	dst.h
dn_route.c	errno.h
dn_route.c	errno.h
dn_route.c	export.h
dn_route.c	fib_rules.h
dn_route.c	flow.h
dn_route.c	in.h
dn_route.c	in_route.h
dn_route.c	inet.h
dn_route.c	init.h
dn_route.c	kernel.h
dn_route.c	mm.h
dn_route.c	neighbour.h
dn_route.c	net.h
dn_route.c	net_namespace.h
dn_route.c	netdevice.h
dn_route.c	netfilter_decnet.h
dn_route.c	netlink.h
dn_route.c	proc_fs.h
dn_route.c	rcupdate.h
dn_route.c	route.h
dn_route.c	rtnetlink.h
dn_route.c	seq_file.h
dn_route.c	slab.h
dn_route.c	sock.h
dn_route.c	socket.h
dn_route.c	sockios.h
dn_route.c	string.h
dn_route.c	times.h
dn_route.c	types.h
dn_rtmsg.c	dn.h
dn_rtmsg.c	dn_route.h
dn_rtmsg.c	flow.h
dn_rtmsg.c	init.h
dn_rtmsg.c	module.h
dn_rtmsg.c	netdevice.h
dn_rtmsg.c	netfilter.h
dn_rtmsg.c	netfilter_decnet.h
dn_rtmsg.c	netlink.h
dn_rtmsg.c	skbuff.h
dn_rtmsg.c	slab.h
dn_rtmsg.c	sock.h
dn_rtmsg.c	spinlock.h
dn_rules.c	dn.h
dn_rules.c	dn_dev.h
dn_rules.c	dn_fib.h
dn_rules.c	dn_neigh.h
dn_rules.c	dn_route.h
dn_rules.c	dst.h
dn_rules.c	export.h
dn_rules.c	fib_rules.h
dn_rules.c	flow.h
dn_rules.c	init.h
dn_rules.c	list.h
dn_rules.c	neighbour.h
dn_rules.c	net.h
dn_rules.c	netdevice.h
dn_rules.c	netlink.h
dn_rules.c	rcupdate.h
dn_rules.c	rtnetlink.h
dn_rules.c	spinlock.h
dn_table.c	atomic.h
dn_table.c	dn.h
dn_table.c	dn_dev.h
dn_table.c	dn_fib.h
dn_table.c	dn_neigh.h
dn_table.c	dn_route.h
dn_table.c	dst.h
dn_table.c	fib_rules.h
dn_table.c	flow.h
dn_table.c	init.h
dn_table.c	neighbour.h
dn_table.c	net.h
dn_table.c	netdevice.h
dn_table.c	netlink.h
dn_table.c	netlink.h
dn_table.c	proc_fs.h
dn_table.c	route.h
dn_table.c	rtnetlink.h
dn_table.c	skbuff.h
dn_table.c	slab.h
dn_table.c	socket.h
dn_table.c	sockios.h
dn_table.c	spinlock.h
dn_table.c	string.h
dn_table.c	timer.h
dn_table.c	uaccess.h
dn_timer.c	atomic.h
dn_timer.c	dn.h
dn_timer.c	flow.h
dn_timer.c	net.h
dn_timer.c	netdevice.h
dn_timer.c	skbuff.h
dn_timer.c	sock.h
dn_timer.c	socket.h
dn_timer.c	spinlock.h
dn_timer.c	timer.h
dp_notify.c	datapath.h
dp_notify.c	genetlink.h
dp_notify.c	netdevice.h
dp_notify.c	vport-internal_dev.h
dp_notify.c	vport-netdev.h
dsa.c	dsa.h
dsa.c	dsa_priv.h
dsa.c	list.h
dsa.c	module.h
dsa.c	netdevice.h
dsa.c	platform_device.h
dsa.c	slab.h
dsa_priv.h	dsa.h
dsa_priv.h	phy.h
dst.c	bitops.h
dst.c	dst.h
dst.c	errno.h
dst.c	init.h
dst.c	kernel.h
dst.c	mm.h
dst.c	module.h
dst.c	net_namespace.h
dst.c	netdevice.h
dst.c	prefetch.h
dst.c	sched.h
dst.c	skbuff.h
dst.c	slab.h
dst.c	string.h
dst.c	types.h
dst.c	workqueue.h
endpointola.c	crypto.h
endpointola.c	in.h
endpointola.c	ipv6.h
endpointola.c	random.h
endpointola.c	sctp.h
endpointola.c	slab.h
endpointola.c	sm.h
endpointola.c	sock.h
endpointola.c	types.h
eth.c	arp.h
eth.c	dsa.h
eth.c	dst.h
eth.c	errno.h
eth.c	etherdevice.h
eth.c	if_ether.h
eth.c	in.h
eth.c	inet.h
eth.c	init.h
eth.c	ip.h
eth.c	ip.h
eth.c	ipv6.h
eth.c	kernel.h
eth.c	mm.h
eth.c	module.h
eth.c	netdevice.h
eth.c	skbuff.h
eth.c	sock.h
eth.c	socket.h
eth.c	string.h
eth.c	types.h
eth.c	uaccess.h
eth_media.c	bearer.h
eth_media.c	core.h
ethtool.c	bitops.h
ethtool.c	bitops.h
ethtool.c	capability.h
ethtool.c	capability.h
ethtool.c	errno.h
ethtool.c	errno.h
ethtool.c	ethtool.h
ethtool.c	ethtool.h
ethtool.c	module.h
ethtool.c	module.h
ethtool.c	net_tstamp.h
ethtool.c	net_tstamp.h
ethtool.c	netdevice.h
ethtool.c	netdevice.h
ethtool.c	phy.h
ethtool.c	phy.h
ethtool.c	rtnetlink.h
ethtool.c	rtnetlink.h
ethtool.c	sched.h
ethtool.c	sched.h
ethtool.c	slab.h
ethtool.c	slab.h
ethtool.c	types.h
ethtool.c	types.h
ethtool.c	uaccess.h
ethtool.c	uaccess.h
ethtool.c	vmalloc.h
ethtool.c	vmalloc.h
feat.c	ccid.h
feat.c	feat.h
feat.c	module.h
feat.c	slab.h
feat.h	dccp.h
feat.h	types.h
filter.c	errno.h
filter.c	fcntl.h
filter.c	filter.h
filter.c	gfp.h
filter.c	if_packet.h
filter.c	if_vlan.h
filter.c	in.h
filter.c	inet.h
filter.c	ip.h
filter.c	mm.h
filter.c	module.h
filter.c	netdevice.h
filter.c	netlink.h
filter.c	protocol.h
filter.c	ratelimit.h
filter.c	reciprocal_div.h
filter.c	seccomp.h
filter.c	skbuff.h
filter.c	sock.h
filter.c	socket.h
filter.c	timer.h
filter.c	types.h
filter.c	uaccess.h
filter.c	unaligned.h
flow.c	atomic.h
flow.c	atomic.h
flow.c	bitops.h
flow.c	bitops.h
flow.c	completion.h
flow.c	completion.h
flow.c	cpu.h
flow.c	cpu.h
flow.c	cpumask.h
flow.c	cpumask.h
flow.c	flow.h
flow.c	flow.h
flow.c	init.h
flow.c	init.h
flow.c	interrupt.h
flow.c	interrupt.h
flow.c	jhash.h
flow.c	jhash.h
flow.c	kernel.h
flow.c	kernel.h
flow.c	list.h
flow.c	list.h
flow.c	mm.h
flow.c	mm.h
flow.c	module.h
flow.c	module.h
flow.c	mutex.h
flow.c	mutex.h
flow.c	notifier.h
flow.c	notifier.h
flow.c	percpu.h
flow.c	percpu.h
flow.c	random.h
flow.c	random.h
flow.c	security.h
flow.c	security.h
flow.c	slab.h
flow.c	slab.h
flow.c	smp.h
flow.c	smp.h
flow.h	flex_array.h
flow.h	if_ether.h
flow.h	in6.h
flow.h	inet_ecn.h
flow.h	jiffies.h
flow.h	kernel.h
flow.h	netlink.h
flow.h	openvswitch.h
flow.h	rcupdate.h
flow.h	spinlock.h
flow.h	time.h
flow.h	types.h
flow_dissector.c	export.h
flow_dissector.c	flow_keys.h
flow_dissector.c	if_pppox.h
flow_dissector.c	if_tunnel.h
flow_dissector.c	if_vlan.h
flow_dissector.c	ip.h
flow_dissector.c	ip.h
flow_dissector.c	ipv6.h
flow_dissector.c	ipv6.h
flow_dissector.c	ppp_defs.h
flow_dissector.c	skbuff.h
gateway_client.c	gateway_client.h
gateway_client.c	gateway_common.h
gateway_client.c	hard-interface.h
gateway_client.c	if_vlan.h
gateway_client.c	ip.h
gateway_client.c	ipv6.h
gateway_client.c	main.h
gateway_client.c	originator.h
gateway_client.c	routing.h
gateway_client.c	sysfs.h
gateway_client.c	translation-table.h
gateway_client.c	udp.h
gateway_common.c	gateway_client.h
gateway_common.c	gateway_common.h
gateway_common.c	main.h
gss_generic_token.c	gss_asn1.h
gss_generic_token.c	module.h
gss_generic_token.c	sched.h
gss_generic_token.c	string.h
gss_generic_token.c	types.h
gss_krb5_crypto.c	crypto.h
gss_krb5_crypto.c	err.h
gss_krb5_crypto.c	gss_krb5.h
gss_krb5_crypto.c	highmem.h
gss_krb5_crypto.c	mm.h
gss_krb5_crypto.c	pagemap.h
gss_krb5_crypto.c	random.h
gss_krb5_crypto.c	scatterlist.h
gss_krb5_crypto.c	types.h
gss_krb5_crypto.c	xdr.h
gss_krb5_keys.c	crypto.h
gss_krb5_keys.c	err.h
gss_krb5_keys.c	gss_krb5.h
gss_krb5_keys.c	types.h
gss_krb5_keys.c	xdr.h
gss_krb5_mech.c	auth.h
gss_krb5_mech.c	crypto.h
gss_krb5_mech.c	err.h
gss_krb5_mech.c	gss_krb5.h
gss_krb5_mech.c	gss_krb5_enctypes.h
gss_krb5_mech.c	init.h
gss_krb5_mech.c	module.h
gss_krb5_mech.c	slab.h
gss_krb5_mech.c	types.h
gss_krb5_mech.c	xdr.h
gss_krb5_seal.c	crypto.h
gss_krb5_seal.c	gss_krb5.h
gss_krb5_seal.c	jiffies.h
gss_krb5_seal.c	random.h
gss_krb5_seal.c	types.h
gss_krb5_seqnum.c	crypto.h
gss_krb5_seqnum.c	gss_krb5.h
gss_krb5_seqnum.c	types.h
gss_krb5_unseal.c	crypto.h
gss_krb5_unseal.c	gss_krb5.h
gss_krb5_unseal.c	jiffies.h
gss_krb5_unseal.c	types.h
gss_krb5_wrap.c	crypto.h
gss_krb5_wrap.c	gss_krb5.h
gss_krb5_wrap.c	jiffies.h
gss_krb5_wrap.c	pagemap.h
gss_krb5_wrap.c	random.h
gss_krb5_wrap.c	types.h
gss_mech_switch.c	auth_gss.h
gss_mech_switch.c	clnt.h
gss_mech_switch.c	gss_api.h
gss_mech_switch.c	gss_asn1.h
gss_mech_switch.c	gss_err.h
gss_mech_switch.c	module.h
gss_mech_switch.c	msg_prot.h
gss_mech_switch.c	sched.h
gss_mech_switch.c	slab.h
gss_mech_switch.c	svcauth_gss.h
gss_mech_switch.c	types.h
gw.c	can.h
gw.c	core.h
gw.c	gw.h
gw.c	if_arp.h
gw.c	init.h
gw.c	list.h
gw.c	module.h
gw.c	net.h
gw.c	net_namespace.h
gw.c	netdevice.h
gw.c	rculist.h
gw.c	rcupdate.h
gw.c	rtnetlink.h
gw.c	skbuff.h
gw.c	sock.h
gw.c	spinlock.h
gw.c	types.h
handler.c	core.h
hard-interface.c	bridge_loop_avoidance.h
hard-interface.c	distributed-arp-table.h
hard-interface.c	hard-interface.h
hard-interface.c	hash.h
hard-interface.c	if_arp.h
hard-interface.c	if_ether.h
hard-interface.c	main.h
hard-interface.c	originator.h
hard-interface.c	routing.h
hard-interface.c	send.h
hard-interface.c	soft-interface.h
hard-interface.c	sysfs.h
hard-interface.c	translation-table.h
hash.c	hash.h
hash.c	hash.h
hash.c	types.h
hash.c	types.h
hash.h	list.h
ibss.c	cfg80211.h
ibss.c	etherdevice.h
ibss.c	export.h
ibss.c	if_arp.h
ibss.c	nl80211.h
ibss.c	rdev-ops.h
ibss.c	slab.h
ibss.c	wext-compat.h
icmp_socket.c	debugfs.h
icmp_socket.c	hard-interface.h
icmp_socket.c	hash.h
icmp_socket.c	icmp_socket.h
icmp_socket.c	main.h
icmp_socket.c	originator.h
icmp_socket.c	send.h
icmp_socket.c	slab.h
input.c	ackvec.h
input.c	ackvec.h
input.c	ccid.h
input.c	ccid.h
input.c	dccp.h
input.c	dccp.h
input.c	dccp.h
input.c	dccp.h
input.c	skbuff.h
input.c	skbuff.h
input.c	slab.h
input.c	slab.h
input.c	sock.h
input.c	sock.h
inqueue.c	interrupt.h
inqueue.c	sctp.h
inqueue.c	slab.h
inqueue.c	sm.h
iovec.c	byteorder.h
iovec.c	checksum.h
iovec.c	errno.h
iovec.c	in6.h
iovec.c	kernel.h
iovec.c	mm.h
iovec.c	module.h
iovec.c	net.h
iovec.c	sock.h
iovec.c	uaccess.h
ipv4.c	ackvec.h
ipv4.c	ccid.h
ipv4.c	dccp.h
ipv4.c	dccp.h
ipv4.c	feat.h
ipv4.c	icmp.h
ipv4.c	icmp.h
ipv4.c	inet_common.h
ipv4.c	inet_hashtables.h
ipv4.c	inet_sock.h
ipv4.c	module.h
ipv4.c	protocol.h
ipv4.c	random.h
ipv4.c	secure_seq.h
ipv4.c	skbuff.h
ipv4.c	slab.h
ipv4.c	sock.h
ipv4.c	tcp_states.h
ipv4.c	timewait_sock.h
ipv4.c	xfrm.h
ipv6.c	addrconf.h
ipv6.c	addrconf.h
ipv6.c	dccp.h
ipv6.c	dccp.h
ipv6.c	feat.h
ipv6.c	feat.h
ipv6.c	inet6_connection_sock.h
ipv6.c	inet6_connection_sock.h
ipv6.c	inet6_hashtables.h
ipv6.c	inet6_hashtables.h
ipv6.c	inet_common.h
ipv6.c	inet_common.h
ipv6.c	inet_hashtables.h
ipv6.c	inet_hashtables.h
ipv6.c	inet_sock.h
ipv6.c	inet_sock.h
ipv6.c	ip6_checksum.h
ipv6.c	ip6_checksum.h
ipv6.c	ip6_route.h
ipv6.c	ip6_route.h
ipv6.c	ipv6.h
ipv6.c	ipv6.h
ipv6.c	ipv6.h
ipv6.c	ipv6.h
ipv6.c	module.h
ipv6.c	module.h
ipv6.c	protocol.h
ipv6.c	protocol.h
ipv6.c	random.h
ipv6.c	random.h
ipv6.c	secure_seq.h
ipv6.c	secure_seq.h
ipv6.c	slab.h
ipv6.c	slab.h
ipv6.c	transp_v6.h
ipv6.c	transp_v6.h
ipv6.c	xfrm.h
ipv6.c	xfrm.h
ipv6.c	xfrm.h
ipv6.c	xfrm.h
ipv6.h	dccp.h
ipv6.h	ipv6.h
lib80211.c	ctype.h
lib80211.c	errno.h
lib80211.c	ieee80211.h
lib80211.c	init.h
lib80211.c	lib80211.h
lib80211.c	module.h
lib80211.c	slab.h
lib80211.c	string.h
lib80211_crypt_ccmp.c	crypto.h
lib80211_crypt_ccmp.c	err.h
lib80211_crypt_ccmp.c	ieee80211.h
lib80211_crypt_ccmp.c	if_arp.h
lib80211_crypt_ccmp.c	if_ether.h
lib80211_crypt_ccmp.c	init.h
lib80211_crypt_ccmp.c	kernel.h
lib80211_crypt_ccmp.c	lib80211.h
lib80211_crypt_ccmp.c	module.h
lib80211_crypt_ccmp.c	netdevice.h
lib80211_crypt_ccmp.c	random.h
lib80211_crypt_ccmp.c	skbuff.h
lib80211_crypt_ccmp.c	slab.h
lib80211_crypt_ccmp.c	string.h
lib80211_crypt_ccmp.c	wireless.h
lib80211_crypt_tkip.c	crc32.h
lib80211_crypt_tkip.c	crypto.h
lib80211_crypt_tkip.c	err.h
lib80211_crypt_tkip.c	ieee80211.h
lib80211_crypt_tkip.c	if_arp.h
lib80211_crypt_tkip.c	if_ether.h
lib80211_crypt_tkip.c	init.h
lib80211_crypt_tkip.c	iw_handler.h
lib80211_crypt_tkip.c	lib80211.h
lib80211_crypt_tkip.c	mm.h
lib80211_crypt_tkip.c	module.h
lib80211_crypt_tkip.c	netdevice.h
lib80211_crypt_tkip.c	random.h
lib80211_crypt_tkip.c	scatterlist.h
lib80211_crypt_tkip.c	skbuff.h
lib80211_crypt_tkip.c	slab.h
lib80211_crypt_tkip.c	string.h
lib80211_crypt_tkip.c	wireless.h
lib80211_crypt_wep.c	crc32.h
lib80211_crypt_wep.c	crypto.h
lib80211_crypt_wep.c	err.h
lib80211_crypt_wep.c	init.h
lib80211_crypt_wep.c	lib80211.h
lib80211_crypt_wep.c	mm.h
lib80211_crypt_wep.c	module.h
lib80211_crypt_wep.c	random.h
lib80211_crypt_wep.c	scatterlist.h
lib80211_crypt_wep.c	skbuff.h
lib80211_crypt_wep.c	slab.h
lib80211_crypt_wep.c	string.h
link.c	config.h
link.c	core.h
link.c	discover.h
link.c	link.h
link.c	name_distr.h
link.c	port.h
link.h	msg.h
link.h	node.h
log.c	config.h
log.c	core.h
loss_interval.c	sock.h
loss_interval.c	tfrc.h
loss_interval.h	ktime.h
loss_interval.h	list.h
loss_interval.h	slab.h
main.c	bat_algo.h
main.c	bridge_loop_avoidance.h
main.c	crc32c.h
main.c	debugfs.h
main.c	distributed-arp-table.h
main.c	gateway_client.h
main.c	hard-interface.h
main.c	hash.h
main.c	highmem.h
main.c	icmp_socket.h
main.c	main.h
main.c	originator.h
main.c	routing.h
main.c	send.h
main.c	soft-interface.h
main.c	sysfs.h
main.c	translation-table.h
main.c	vis.h
main.h	etherdevice.h
main.h	if_ether.h
main.h	jiffies.h
main.h	kthread.h
main.h	module.h
main.h	mutex.h
main.h	netdevice.h
main.h	percpu.h
main.h	pkt_sched.h
main.h	poll.h
main.h	seq_file.h
main.h	slab.h
main.h	sock.h
main.h	types.h
main.h	workqueue.h
mapper.c	crush.h
mapper.c	hash.h
mapper.c	mapper.h
mesh.c	cfg80211.h
mesh.c	core.h
mesh.c	export.h
mesh.c	ieee80211.h
mesh.c	nl80211.h
mesh.c	rdev-ops.h
messenger.c	bio.h
messenger.c	blkdev.h
messenger.c	ceph_debug.h
messenger.c	crc32c.h
messenger.c	ctype.h
messenger.c	decode.h
messenger.c	dns_resolver.h
messenger.c	export.h
messenger.c	highmem.h
messenger.c	inet.h
messenger.c	kthread.h
messenger.c	libceph.h
messenger.c	messenger.h
messenger.c	net.h
messenger.c	pagelist.h
messenger.c	slab.h
messenger.c	socket.h
messenger.c	string.h
messenger.c	tcp.h
minisocks.c	ackvec.h
minisocks.c	ccid.h
minisocks.c	dccp.h
minisocks.c	dccp.h
minisocks.c	feat.h
minisocks.c	gfp.h
minisocks.c	inet_timewait_sock.h
minisocks.c	kernel.h
minisocks.c	skbuff.h
minisocks.c	sock.h
minisocks.c	timer.h
minisocks.c	xfrm.h
mlme.c	cfg80211.h
mlme.c	core.h
mlme.c	etherdevice.h
mlme.c	iw_handler.h
mlme.c	kernel.h
mlme.c	module.h
mlme.c	netdevice.h
mlme.c	nl80211.h
mlme.c	nl80211.h
mlme.c	rdev-ops.h
mlme.c	slab.h
mlme.c	wireless.h
mon_client.c	auth.h
mon_client.c	ceph_debug.h
mon_client.c	debugfs.h
mon_client.c	decode.h
mon_client.c	libceph.h
mon_client.c	module.h
mon_client.c	mon_client.h
mon_client.c	random.h
mon_client.c	sched.h
mon_client.c	slab.h
mon_client.c	types.h
msg.c	core.h
msg.c	msg.h
msg.h	bearer.h
msgpool.c	ceph_debug.h
msgpool.c	err.h
msgpool.c	msgpool.h
msgpool.c	sched.h
msgpool.c	types.h
msgpool.c	vmalloc.h
name_distr.c	core.h
name_distr.c	link.h
name_distr.c	name_distr.h
name_distr.h	name_table.h
name_table.c	config.h
name_table.c	core.h
name_table.c	name_distr.h
name_table.c	name_table.h
name_table.c	port.h
name_table.c	subscr.h
name_table.h	node_subscr.h
neighbour.c	dst.h
neighbour.c	kernel.h
neighbour.c	log2.h
neighbour.c	module.h
neighbour.c	neighbour.h
neighbour.c	net_namespace.h
neighbour.c	netdevice.h
neighbour.c	netevent.h
neighbour.c	netlink.h
neighbour.c	proc_fs.h
neighbour.c	random.h
neighbour.c	rtnetlink.h
neighbour.c	slab.h
neighbour.c	sock.h
neighbour.c	socket.h
neighbour.c	string.h
neighbour.c	sysctl.h
neighbour.c	times.h
neighbour.c	types.h
net.c	config.h
net.c	core.h
net.c	name_distr.h
net.c	net.h
net.c	node.h
net.c	port.h
net.c	subscr.h
netevent.c	export.h
netevent.c	netevent.h
netevent.c	notifier.h
netevent.c	rtnetlink.h
netlink.c	config.h
netlink.c	core.h
netlink.c	genetlink.h
netns.h	generic.h
netns.h	net_namespace.h
nl80211.c	cfg80211.h
nl80211.c	core.h
nl80211.c	err.h
nl80211.c	etherdevice.h
nl80211.c	genetlink.h
nl80211.c	ieee80211.h
nl80211.c	if.h
nl80211.c	if_ether.h
nl80211.c	list.h
nl80211.c	module.h
nl80211.c	net_namespace.h
nl80211.c	netlink.h
nl80211.c	nl80211.h
nl80211.c	nl80211.h
nl80211.c	rdev-ops.h
nl80211.c	reg.h
nl80211.c	rtnetlink.h
nl80211.c	slab.h
nl80211.c	sock.h
nl80211.h	core.h
node.c	config.h
node.c	core.h
node.c	name_distr.h
node.c	node.h
node.h	addr.h
node.h	bearer.h
node.h	net.h
node.h	node_subscr.h
node_subscr.c	core.h
node_subscr.c	node.h
node_subscr.c	node_subscr.h
node_subscr.h	addr.h
objcnt.c	kernel.h
objcnt.c	sctp.h
options.c	ackvec.h
options.c	ccid.h
options.c	dccp.h
options.c	dccp.h
options.c	feat.h
options.c	kernel.h
options.c	module.h
options.c	skbuff.h
options.c	types.h
options.c	unaligned.h
originator.c	bridge_loop_avoidance.h
originator.c	distributed-arp-table.h
originator.c	gateway_client.h
originator.c	hard-interface.h
originator.c	hash.h
originator.c	main.h
originator.c	originator.h
originator.c	routing.h
originator.c	soft-interface.h
originator.c	translation-table.h
originator.c	unicast.h
originator.h	hash.h
osd_client.c	auth.h
osd_client.c	bio.h
osd_client.c	ceph_debug.h
osd_client.c	decode.h
osd_client.c	err.h
osd_client.c	highmem.h
osd_client.c	libceph.h
osd_client.c	messenger.h
osd_client.c	mm.h
osd_client.c	module.h
osd_client.c	osd_client.h
osd_client.c	pagelist.h
osd_client.c	pagemap.h
osd_client.c	slab.h
osd_client.c	uaccess.h
osdmap.c	ceph_debug.h
osdmap.c	decode.h
osdmap.c	div64.h
osdmap.c	hash.h
osdmap.c	libceph.h
osdmap.c	mapper.h
osdmap.c	module.h
osdmap.c	osdmap.h
osdmap.c	slab.h
output.c	ackvec.h
output.c	ackvec.h
output.c	ccid.h
output.c	ccid.h
output.c	dccp.h
output.c	dccp.h
output.c	dccp.h
output.c	dccp.h
output.c	inet_sock.h
output.c	inet_sock.h
output.c	kernel.h
output.c	kernel.h
output.c	skbuff.h
output.c	skbuff.h
output.c	slab.h
output.c	slab.h
output.c	sock.h
output.c	sock.h
outqueue.c	ip.h
outqueue.c	list.h
outqueue.c	sctp.h
outqueue.c	slab.h
outqueue.c	sm.h
outqueue.c	sock.h
outqueue.c	socket.h
outqueue.c	types.h
packet_history.c	dccp.h
packet_history.c	packet_history.h
packet_history.c	slab.h
packet_history.c	string.h
packet_history.h	list.h
packet_history.h	slab.h
packet_history.h	tfrc.h
pagelist.c	gfp.h
pagelist.c	highmem.h
pagelist.c	module.h
pagelist.c	pagelist.h
pagelist.c	pagemap.h
pagevec.c	ceph_debug.h
pagevec.c	file.h
pagevec.c	libceph.h
pagevec.c	module.h
pagevec.c	namei.h
pagevec.c	sched.h
pagevec.c	slab.h
pagevec.c	writeback.h
pktgen.c	addrconf.h
pktgen.c	bitops.h
pktgen.c	byteorder.h
pktgen.c	capability.h
pktgen.c	checksum.h
pktgen.c	delay.h
pktgen.c	div64.h
pktgen.c	dma.h
pktgen.c	errno.h
pktgen.c	etherdevice.h
pktgen.c	freezer.h
pktgen.c	hrtimer.h
pktgen.c	if_arp.h
pktgen.c	if_vlan.h
pktgen.c	in.h
pktgen.c	inet.h
pktgen.c	inetdevice.h
pktgen.c	init.h
pktgen.c	interrupt.h
pktgen.c	io.h
pktgen.c	ioport.h
pktgen.c	ip.h
pktgen.c	ipv6.h
pktgen.c	ipv6.h
pktgen.c	kernel.h
pktgen.c	kthread.h
pktgen.c	list.h
pktgen.c	module.h
pktgen.c	moduleparam.h
pktgen.c	mutex.h
pktgen.c	net_namespace.h
pktgen.c	netdevice.h
pktgen.c	prefetch.h
pktgen.c	proc_fs.h
pktgen.c	ptrace.h
pktgen.c	rcupdate.h
pktgen.c	rtnetlink.h
pktgen.c	sched.h
pktgen.c	seq_file.h
pktgen.c	skbuff.h
pktgen.c	slab.h
pktgen.c	string.h
pktgen.c	sys.h
pktgen.c	timer.h
pktgen.c	timex.h
pktgen.c	types.h
pktgen.c	uaccess.h
pktgen.c	udp.h
pktgen.c	unistd.h
pktgen.c	vmalloc.h
pktgen.c	wait.h
pktgen.c	xfrm.h
port.c	config.h
port.c	core.h
port.c	name_table.h
port.c	port.h
port.h	msg.h
port.h	net.h
port.h	node_subscr.h
port.h	ref.h
primitive.c	gfp.h
primitive.c	ip.h
primitive.c	list.h
primitive.c	sctp.h
primitive.c	sm.h
primitive.c	sock.h
primitive.c	socket.h
primitive.c	time.h
primitive.c	types.h
probe.c	ccid.h
probe.c	ccid.h
probe.c	ccid3.h
probe.c	ccid3.h
probe.c	dccp.h
probe.c	dccp.h
probe.c	dccp.h
probe.c	dccp.h
probe.c	gfp.h
probe.c	gfp.h
probe.c	kernel.h
probe.c	kernel.h
probe.c	kfifo.h
probe.c	kfifo.h
probe.c	kprobes.h
probe.c	kprobes.h
probe.c	module.h
probe.c	module.h
probe.c	net_namespace.h
probe.c	net_namespace.h
probe.c	proc_fs.h
probe.c	proc_fs.h
probe.c	socket.h
probe.c	socket.h
probe.c	vmalloc.h
probe.c	vmalloc.h
proc.c	af_can.h
proc.c	af_can.h
proc.c	core.h
proc.c	core.h
proc.c	if_arp.h
proc.c	if_arp.h
proc.c	list.h
proc.c	list.h
proc.c	module.h
proc.c	module.h
proc.c	proc_fs.h
proc.c	proc_fs.h
proc.c	rcupdate.h
proc.c	rcupdate.h
proto.c	ccid.h
proto.c	checksum.h
proto.c	dccp.h
proto.c	dccp.h
proto.c	delay.h
proto.c	feat.h
proto.c	if_arp.h
proto.c	in.h
proto.c	inet_sock.h
proto.c	init.h
proto.c	ioctls.h
proto.c	kernel.h
proto.c	module.h
proto.c	netdevice.h
proto.c	poll.h
proto.c	random.h
proto.c	sched.h
proto.c	skbuff.h
proto.c	slab.h
proto.c	sock.h
proto.c	spinlock.h
proto.c	timer.h
proto.c	types.h
proto.c	xfrm.h
protocol.c	addrconf.h
protocol.c	bootmem.h
protocol.c	highmem.h
protocol.c	inet_common.h
protocol.c	inet_ecn.h
protocol.c	inetdevice.h
protocol.c	init.h
protocol.c	ip.h
protocol.c	ipv6.h
protocol.c	module.h
protocol.c	net_namespace.h
protocol.c	netdevice.h
protocol.c	protocol.h
protocol.c	route.h
protocol.c	sctp.h
protocol.c	seq_file.h
protocol.c	slab.h
protocol.c	swap.h
qpolicy.c	dccp.h
radiotap.c	cfg80211.h
radiotap.c	export.h
radiotap.c	ieee80211_radiotap.h
radiotap.c	kernel.h
radiotap.c	unaligned.h
raw.c	can.h
raw.c	core.h
raw.c	if_arp.h
raw.c	init.h
raw.c	module.h
raw.c	net.h
raw.c	net_namespace.h
raw.c	netdevice.h
raw.c	raw.h
raw.c	skbuff.h
raw.c	slab.h
raw.c	sock.h
raw.c	socket.h
raw.c	uio.h
rdev-ops.h	cfg80211.h
rdev-ops.h	core.h
rdev-ops.h	rtnetlink.h
rdev-ops.h	trace.h
ref.c	core.h
ref.c	ref.h
reg.c	cfg80211.h
reg.c	core.h
reg.c	ctype.h
reg.c	export.h
reg.c	kernel.h
reg.c	list.h
reg.c	moduleparam.h
reg.c	nl80211.h
reg.c	nl80211.h
reg.c	platform_device.h
reg.c	random.h
reg.c	reg.h
reg.c	regdb.h
reg.c	slab.h
ring_buffer.c	main.h
ring_buffer.c	ring_buffer.h
routing.c	bridge_loop_avoidance.h
routing.c	distributed-arp-table.h
routing.c	hard-interface.h
routing.c	icmp_socket.h
routing.c	main.h
routing.c	originator.h
routing.c	routing.h
routing.c	send.h
routing.c	soft-interface.h
routing.c	translation-table.h
routing.c	unicast.h
routing.c	vis.h
rpc_pipe.c	cache.h
rpc_pipe.c	clnt.h
rpc_pipe.c	fsnotify.h
rpc_pipe.c	ioctls.h
rpc_pipe.c	kernel.h
rpc_pipe.c	module.h
rpc_pipe.c	mount.h
rpc_pipe.c	namei.h
rpc_pipe.c	netns.h
rpc_pipe.c	notifier.h
rpc_pipe.c	nsproxy.h
rpc_pipe.c	pagemap.h
rpc_pipe.c	poll.h
rpc_pipe.c	rcupdate.h
rpc_pipe.c	rpc_pipe_fs.h
rpc_pipe.c	seq_file.h
rpc_pipe.c	slab.h
rpc_pipe.c	string.h
rpc_pipe.c	sunrpc.h
rpc_pipe.c	wait.h
rpc_pipe.c	workqueue.h
rpc_rdma.c	highmem.h
rpc_rdma.c	xprt_rdma.h
rpcb_clnt.c	clnt.h
rpcb_clnt.c	errno.h
rpcb_clnt.c	in.h
rpcb_clnt.c	in6.h
rpcb_clnt.c	ipv6.h
rpcb_clnt.c	kernel.h
rpcb_clnt.c	module.h
rpcb_clnt.c	mutex.h
rpcb_clnt.c	netns.h
rpcb_clnt.c	sched.h
rpcb_clnt.c	slab.h
rpcb_clnt.c	socket.h
rpcb_clnt.c	types.h
rpcb_clnt.c	un.h
rpcb_clnt.c	xprtsock.h
rtnetlink.c	arp.h
rtnetlink.c	capability.h
rtnetlink.c	errno.h
rtnetlink.c	etherdevice.h
rtnetlink.c	fcntl.h
rtnetlink.c	fib_rules.h
rtnetlink.c	if_addr.h
rtnetlink.c	if_bridge.h
rtnetlink.c	inet.h
rtnetlink.c	init.h
rtnetlink.c	interrupt.h
rtnetlink.c	ip.h
rtnetlink.c	kernel.h
rtnetlink.c	mm.h
rtnetlink.c	module.h
rtnetlink.c	mutex.h
rtnetlink.c	net.h
rtnetlink.c	net_namespace.h
rtnetlink.c	netdevice.h
rtnetlink.c	pci.h
rtnetlink.c	pkt_sched.h
rtnetlink.c	protocol.h
rtnetlink.c	route.h
rtnetlink.c	rtnetlink.h
rtnetlink.c	security.h
rtnetlink.c	skbuff.h
rtnetlink.c	slab.h
rtnetlink.c	sock.h
rtnetlink.c	socket.h
rtnetlink.c	sockios.h
rtnetlink.c	string.h
rtnetlink.c	timer.h
rtnetlink.c	types.h
rtnetlink.c	uaccess.h
rtnetlink.c	udp.h
scan.c	arp.h
scan.c	cfg80211-wext.h
scan.c	cfg80211.h
scan.c	core.h
scan.c	etherdevice.h
scan.c	iw_handler.h
scan.c	kernel.h
scan.c	module.h
scan.c	netdevice.h
scan.c	nl80211.h
scan.c	nl80211.h
scan.c	rdev-ops.h
scan.c	slab.h
scan.c	wext-compat.h
scan.c	wireless.h
sched.c	clnt.h
sched.c	freezer.h
sched.c	interrupt.h
sched.c	mempool.h
sched.c	module.h
sched.c	mutex.h
sched.c	sched.h
sched.c	slab.h
sched.c	smp.h
sched.c	spinlock.h
sched.c	sunrpc.h
sched.c	sunrpc.h
send.c	distributed-arp-table.h
send.c	gateway_common.h
send.c	hard-interface.h
send.c	if_ether.h
send.c	main.h
send.c	originator.h
send.c	routing.h
send.c	send.h
send.c	soft-interface.h
send.c	translation-table.h
send.c	vis.h
slave.c	dsa_priv.h
slave.c	etherdevice.h
slave.c	list.h
slave.c	netdevice.h
slave.c	phy.h
sm_make_chunk.c	crypto.h
sm_make_chunk.c	inet.h
sm_make_chunk.c	ip.h
sm_make_chunk.c	ipv6.h
sm_make_chunk.c	kernel.h
sm_make_chunk.c	net.h
sm_make_chunk.c	random.h
sm_make_chunk.c	scatterlist.h
sm_make_chunk.c	sctp.h
sm_make_chunk.c	skbuff.h
sm_make_chunk.c	slab.h
sm_make_chunk.c	sm.h
sm_make_chunk.c	sock.h
sm_make_chunk.c	types.h
sm_sideeffect.c	gfp.h
sm_sideeffect.c	ip.h
sm_sideeffect.c	sctp.h
sm_sideeffect.c	skbuff.h
sm_sideeffect.c	sm.h
sm_sideeffect.c	sock.h
sm_sideeffect.c	socket.h
sm_sideeffect.c	types.h
sm_statefuns.c	inet.h
sm_statefuns.c	inet_ecn.h
sm_statefuns.c	ip.h
sm_statefuns.c	ipv6.h
sm_statefuns.c	kernel.h
sm_statefuns.c	net.h
sm_statefuns.c	sctp.h
sm_statefuns.c	skbuff.h
sm_statefuns.c	slab.h
sm_statefuns.c	sm.h
sm_statefuns.c	sock.h
sm_statefuns.c	structs.h
sm_statefuns.c	types.h
sm_statetable.c	sctp.h
sm_statetable.c	skbuff.h
sm_statetable.c	sm.h
sme.c	cfg80211.h
sme.c	etherdevice.h
sme.c	export.h
sme.c	if_arp.h
sme.c	iw_handler.h
sme.c	nl80211.h
sme.c	rdev-ops.h
sme.c	reg.h
sme.c	rtnetlink.h
sme.c	slab.h
sme.c	wireless.h
sme.c	workqueue.h
sock.c	capability.h
sock.c	cls_cgroup.h
sock.c	errno.h
sock.c	filter.h
sock.c	highmem.h
sock.c	in.h
sock.c	init.h
sock.c	interrupt.h
sock.c	ipsec.h
sock.c	kernel.h
sock.c	memcontrol.h
sock.c	mm.h
sock.c	module.h
sock.c	net.h
sock.c	net_namespace.h
sock.c	net_tstamp.h
sock.c	netdevice.h
sock.c	netprio_cgroup.h
sock.c	poll.h
sock.c	prefetch.h
sock.c	proc_fs.h
sock.c	protocol.h
sock.c	request_sock.h
sock.c	sched.h
sock.c	seq_file.h
sock.c	skbuff.h
sock.c	slab.h
sock.c	sock.h
sock.c	sock.h
sock.c	socket.h
sock.c	sockios.h
sock.c	static_key.h
sock.c	string.h
sock.c	tcp.h
sock.c	tcp.h
sock.c	timer.h
sock.c	types.h
sock.c	uaccess.h
sock.c	user_namespace.h
sock.c	xfrm.h
sock_diag.c	inet_diag.h
sock_diag.c	module.h
sock_diag.c	mutex.h
sock_diag.c	net_namespace.h
sock_diag.c	netlink.h
sock_diag.c	skbuff.h
sock_diag.c	sock.h
sock_diag.c	sock_diag.h
sock_diag.c	socket.h
socket.c	core.h
socket.c	core.h
socket.c	export.h
socket.c	export.h
socket.c	port.h
socket.c	port.h
socket.c	sock.h
socket.c	sock.h
socklib.c	compiler.h
socklib.c	export.h
socklib.c	gfp.h
socklib.c	netdevice.h
socklib.c	pagemap.h
socklib.c	skbuff.h
socklib.c	types.h
socklib.c	udp.h
socklib.c	xdr.h
soft-interface.c	bridge_loop_avoidance.h
soft-interface.c	debugfs.h
soft-interface.c	distributed-arp-table.h
soft-interface.c	etherdevice.h
soft-interface.c	ethtool.h
soft-interface.c	gateway_client.h
soft-interface.c	gateway_common.h
soft-interface.c	hard-interface.h
soft-interface.c	hash.h
soft-interface.c	if_ether.h
soft-interface.c	if_vlan.h
soft-interface.c	main.h
soft-interface.c	originator.h
soft-interface.c	routing.h
soft-interface.c	send.h
soft-interface.c	slab.h
soft-interface.c	soft-interface.h
soft-interface.c	sysfs.h
soft-interface.c	translation-table.h
soft-interface.c	unicast.h
ssnmap.c	sctp.h
ssnmap.c	slab.h
ssnmap.c	sm.h
ssnmap.c	types.h
stats.c	clnt.h
stats.c	init.h
stats.c	kernel.h
stats.c	metrics.h
stats.c	module.h
stats.c	netns.h
stats.c	proc_fs.h
stats.c	rcupdate.h
stats.c	seq_file.h
stats.c	slab.h
stats.c	svcsock.h
stream.c	module.h
stream.c	net.h
stream.c	signal.h
stream.c	sock.h
stream.c	tcp.h
stream.c	wait.h
subscr.c	core.h
subscr.c	name_table.h
subscr.c	port.h
subscr.c	subscr.h
sunrpc.h	net.h
sunrpc_syms.c	auth.h
sunrpc_syms.c	clnt.h
sunrpc_syms.c	init.h
sunrpc_syms.c	module.h
sunrpc_syms.c	netns.h
sunrpc_syms.c	rpc_pipe_fs.h
sunrpc_syms.c	sched.h
sunrpc_syms.c	svc.h
sunrpc_syms.c	svcsock.h
sunrpc_syms.c	types.h
sunrpc_syms.c	uio.h
sunrpc_syms.c	unistd.h
sunrpc_syms.c	workqueue.h
sunrpc_syms.c	xprtsock.h
svc.c	bc_xprt.h
svc.c	clnt.h
svc.c	errno.h
svc.c	in.h
svc.c	interrupt.h
svc.c	kthread.h
svc.c	linkage.h
svc.c	mm.h
svc.c	module.h
svc.c	net.h
svc.c	sched.h
svc.c	slab.h
svc.c	stats.h
svc.c	svcsock.h
svc.c	types.h
svc.c	xdr.h
svc_rdma.c	clnt.h
svc_rdma.c	fs.h
svc_rdma.c	init.h
svc_rdma.c	module.h
svc_rdma.c	sched.h
svc_rdma.c	slab.h
svc_rdma.c	svc_rdma.h
svc_rdma.c	sysctl.h
svc_rdma.c	workqueue.h
svc_rdma.c	xprt_rdma.h
svc_rdma_marshal.c	debug.h
svc_rdma_marshal.c	rpc_rdma.h
svc_rdma_marshal.c	svc_rdma.h
svc_rdma_marshal.c	unaligned.h
svc_rdma_marshal.c	xdr.h
svc_rdma_recvfrom.c	debug.h
svc_rdma_recvfrom.c	ib_verbs.h
svc_rdma_recvfrom.c	rdma_cm.h
svc_rdma_recvfrom.c	rpc_rdma.h
svc_rdma_recvfrom.c	spinlock.h
svc_rdma_recvfrom.c	svc_rdma.h
svc_rdma_recvfrom.c	unaligned.h
svc_rdma_sendto.c	debug.h
svc_rdma_sendto.c	ib_verbs.h
svc_rdma_sendto.c	rdma_cm.h
svc_rdma_sendto.c	rpc_rdma.h
svc_rdma_sendto.c	spinlock.h
svc_rdma_sendto.c	svc_rdma.h
svc_rdma_sendto.c	unaligned.h
svc_rdma_transport.c	debug.h
svc_rdma_transport.c	export.h
svc_rdma_transport.c	ib_verbs.h
svc_rdma_transport.c	interrupt.h
svc_rdma_transport.c	rdma_cm.h
svc_rdma_transport.c	rpc_rdma.h
svc_rdma_transport.c	sched.h
svc_rdma_transport.c	slab.h
svc_rdma_transport.c	spinlock.h
svc_rdma_transport.c	svc_rdma.h
svc_rdma_transport.c	svc_xprt.h
svc_rdma_transport.c	workqueue.h
svc_rdma_transport.c	xprt_rdma.h
svc_xprt.c	errno.h
svc_xprt.c	freezer.h
svc_xprt.c	kthread.h
svc_xprt.c	module.h
svc_xprt.c	sched.h
svc_xprt.c	slab.h
svc_xprt.c	sock.h
svc_xprt.c	stats.h
svc_xprt.c	svc_xprt.h
svc_xprt.c	svcsock.h
svc_xprt.c	xprt.h
svcauth.c	err.h
svcauth.c	hash.h
svcauth.c	module.h
svcauth.c	svcauth.h
svcauth.c	svcsock.h
svcauth.c	types.h
svcauth.c	types.h
svcauth.c	xdr.h
svcauth_gss.c	auth_gss.h
svcauth_gss.c	cache.h
svcauth_gss.c	gss_err.h
svcauth_gss.c	module.h
svcauth_gss.c	netns.h
svcauth_gss.c	pagemap.h
svcauth_gss.c	slab.h
svcauth_gss.c	svcauth.h
svcauth_gss.c	svcauth_gss.h
svcauth_gss.c	types.h
svcauth_gss.c	user_namespace.h
svcauth_unix.c	clnt.h
svcauth_unix.c	err.h
svcauth_unix.c	gss_api.h
svcauth_unix.c	hash.h
svcauth_unix.c	ipv6.h
svcauth_unix.c	kernel.h
svcauth_unix.c	module.h
svcauth_unix.c	netns.h
svcauth_unix.c	sched.h
svcauth_unix.c	seq_file.h
svcauth_unix.c	slab.h
svcauth_unix.c	sock.h
svcauth_unix.c	string.h
svcauth_unix.c	svcauth.h
svcauth_unix.c	svcsock.h
svcauth_unix.c	types.h
svcauth_unix.c	types.h
svcauth_unix.c	user_namespace.h
svcauth_unix.c	xdr.h
svcsock.c	checksum.h
svcsock.c	clnt.h
svcsock.c	errno.h
svcsock.c	fcntl.h
svcsock.c	file.h
svcsock.c	freezer.h
svcsock.c	in.h
svcsock.c	inet.h
svcsock.c	ioctls.h
svcsock.c	ip.h
svcsock.c	ipv6.h
svcsock.c	kernel.h
svcsock.c	module.h
svcsock.c	msg_prot.h
svcsock.c	net.h
svcsock.c	netdevice.h
svcsock.c	sched.h
svcsock.c	skb.h
svcsock.c	skbuff.h
svcsock.c	slab.h
svcsock.c	sock.h
svcsock.c	stats.h
svcsock.c	sunrpc.h
svcsock.c	svcsock.h
svcsock.c	tcp.h
svcsock.c	tcp.h
svcsock.c	tcp_states.h
svcsock.c	types.h
svcsock.c	uaccess.h
svcsock.c	udp.h
svcsock.c	unistd.h
svcsock.c	xdr.h
svcsock.c	xprt.h
sysctl.c	dccp.h
sysctl.c	dccp.h
sysctl.c	dccp.h
sysctl.c	feat.h
sysctl.c	feat.h
sysctl.c	feat.h
sysctl.c	mm.h
sysctl.c	mm.h
sysctl.c	mm.h
sysctl.c	sysctl.h
sysctl.c	sysctl.h
sysctl.c	sysctl.h
sysctl_net_core.c	init.h
sysctl_net_core.c	ip.h
sysctl_net_core.c	kmemleak.h
sysctl_net_core.c	mm.h
sysctl_net_core.c	module.h
sysctl_net_core.c	net_ratelimit.h
sysctl_net_core.c	netdevice.h
sysctl_net_core.c	ratelimit.h
sysctl_net_core.c	slab.h
sysctl_net_core.c	sock.h
sysctl_net_core.c	socket.h
sysctl_net_core.c	sysctl.h
sysctl_net_core.c	vmalloc.h
sysctl_net_decnet.c	dn.h
sysctl_net_decnet.c	dn_dev.h
sysctl_net_decnet.c	dn_route.h
sysctl_net_decnet.c	dst.h
sysctl_net_decnet.c	flow.h
sysctl_net_decnet.c	fs.h
sysctl_net_decnet.c	mm.h
sysctl_net_decnet.c	neighbour.h
sysctl_net_decnet.c	netdevice.h
sysctl_net_decnet.c	string.h
sysctl_net_decnet.c	sysctl.h
sysctl_net_decnet.c	uaccess.h
sysfs.c	distributed-arp-table.h
sysfs.c	distributed-arp-table.h
sysfs.c	gateway_client.h
sysfs.c	gateway_client.h
sysfs.c	gateway_common.h
sysfs.c	gateway_common.h
sysfs.c	hard-interface.h
sysfs.c	hard-interface.h
sysfs.c	main.h
sysfs.c	main.h
sysfs.c	originator.h
sysfs.c	originator.h
sysfs.c	sysfs.h
sysfs.c	sysfs.h
sysfs.c	translation-table.h
sysfs.c	translation-table.h
sysfs.c	vis.h
sysfs.c	vis.h
tag_dsa.c	dsa_priv.h
tag_dsa.c	etherdevice.h
tag_dsa.c	list.h
tag_dsa.c	netdevice.h
tag_dsa.c	slab.h
tag_edsa.c	dsa_priv.h
tag_edsa.c	etherdevice.h
tag_edsa.c	list.h
tag_edsa.c	netdevice.h
tag_edsa.c	slab.h
tag_trailer.c	dsa_priv.h
tag_trailer.c	etherdevice.h
tag_trailer.c	list.h
tag_trailer.c	netdevice.h
tag_trailer.c	slab.h
tfrc.c	moduleparam.h
tfrc.c	tfrc.h
tfrc.h	dccp.h
tfrc.h	loss_interval.h
tfrc.h	math64.h
tfrc.h	packet_history.h
tfrc.h	types.h
tfrc_equation.c	dccp.h
tfrc_equation.c	module.h
tfrc_equation.c	tfrc.h
timer.c	dccp.h
timer.c	dccp.h
timer.c	dccp.h
timer.c	dccp.h
timer.c	export.h
timer.c	export.h
timer.c	skbuff.h
timer.c	skbuff.h
timestamping.c	errqueue.h
timestamping.c	export.h
timestamping.c	phy.h
timestamping.c	ptp_classify.h
timestamping.c	skbuff.h
trace.c	module.h
trace.c	trace.h
trace.h	cfg80211.h
trace.h	core.h
trace.h	define_trace.h
trace.h	rtnetlink.h
trace.h	tracepoint.h
translation-table.c	bridge_loop_avoidance.h
translation-table.c	crc16.h
translation-table.c	hard-interface.h
translation-table.c	hash.h
translation-table.c	main.h
translation-table.c	originator.h
translation-table.c	routing.h
translation-table.c	send.h
translation-table.c	soft-interface.h
translation-table.c	translation-table.h
transport.c	init.h
transport.c	init.h
transport.c	module.h
transport.c	module.h
transport.c	seq_file.h
transport.c	seq_file.h
transport.c	slab.h
transport.c	slab.h
transport.c	xprt_rdma.h
transport.c	xprt_rdma.h
tsnmap.c	bitmap.h
tsnmap.c	sctp.h
tsnmap.c	slab.h
tsnmap.c	sm.h
tsnmap.c	types.h
types.h	bitarray.h
types.h	kernel.h
types.h	packet.h
ulpevent.c	sctp.h
ulpevent.c	skbuff.h
ulpevent.c	slab.h
ulpevent.c	sm.h
ulpevent.c	structs.h
ulpevent.c	types.h
ulpqueue.c	sctp.h
ulpqueue.c	skbuff.h
ulpqueue.c	slab.h
ulpqueue.c	sm.h
ulpqueue.c	sock.h
ulpqueue.c	structs.h
ulpqueue.c	types.h
unicast.c	gateway_client.h
unicast.c	hard-interface.h
unicast.c	hash.h
unicast.c	main.h
unicast.c	originator.h
unicast.c	routing.h
unicast.c	send.h
unicast.c	soft-interface.h
unicast.c	translation-table.h
unicast.c	unicast.h
unicast.h	packet.h
util.c	bitops.h
util.c	cfg80211.h
util.c	core.h
util.c	dsfield.h
util.c	etherdevice.h
util.c	export.h
util.c	ip.h
util.c	rdev-ops.h
util.c	slab.h
verbs.c	interrupt.h
verbs.c	pci.h
verbs.c	slab.h
verbs.c	xprt_rdma.h
vis.c	hard-interface.h
vis.c	hash.h
vis.c	main.h
vis.c	originator.h
vis.c	send.h
vis.c	soft-interface.h
vis.c	translation-table.h
vis.c	vis.h
vport-internal_dev.c	datapath.h
vport-internal_dev.c	dst.h
vport-internal_dev.c	etherdevice.h
vport-internal_dev.c	ethtool.h
vport-internal_dev.c	hardirq.h
vport-internal_dev.c	if_vlan.h
vport-internal_dev.c	kernel.h
vport-internal_dev.c	netdevice.h
vport-internal_dev.c	skbuff.h
vport-internal_dev.c	vport-internal_dev.h
vport-internal_dev.c	vport-netdev.h
vport-internal_dev.c	xfrm.h
vport-internal_dev.h	datapath.h
vport-internal_dev.h	vport.h
vport-netdev.c	datapath.h
vport-netdev.c	if_arp.h
vport-netdev.c	if_bridge.h
vport-netdev.c	if_vlan.h
vport-netdev.c	kernel.h
vport-netdev.c	llc.h
vport-netdev.c	llc.h
vport-netdev.c	rtnetlink.h
vport-netdev.c	skbuff.h
vport-netdev.c	vport-internal_dev.h
vport-netdev.c	vport-netdev.h
vport-netdev.h	netdevice.h
vport-netdev.h	rcupdate.h
vport-netdev.h	vport.h
vport.c	compat.h
vport.c	datapath.h
vport.c	etherdevice.h
vport.c	if.h
vport.c	if_vlan.h
vport.c	jhash.h
vport.c	kernel.h
vport.c	list.h
vport.c	mutex.h
vport.c	net_namespace.h
vport.c	percpu.h
vport.c	rcupdate.h
vport.c	rtnetlink.h
vport.c	vport-internal_dev.h
vport.c	vport.h
vport.h	datapath.h
vport.h	list.h
vport.h	netlink.h
vport.h	openvswitch.h
vport.h	skbuff.h
vport.h	spinlock.h
vport.h	u64_stats_sync.h
wext-compat.c	cfg80211-wext.h
wext-compat.c	cfg80211.h
wext-compat.c	core.h
wext-compat.c	etherdevice.h
wext-compat.c	export.h
wext-compat.c	if_arp.h
wext-compat.c	iw_handler.h
wext-compat.c	nl80211.h
wext-compat.c	rdev-ops.h
wext-compat.c	slab.h
wext-compat.c	wext-compat.h
wext-compat.c	wireless.h
wext-compat.h	iw_handler.h
wext-compat.h	wireless.h
wext-core.c	cfg80211.h
wext-core.c	export.h
wext-core.c	iw_handler.h
wext-core.c	kernel.h
wext-core.c	net_namespace.h
wext-core.c	netdevice.h
wext-core.c	netlink.h
wext-core.c	rtnetlink.h
wext-core.c	slab.h
wext-core.c	uaccess.h
wext-core.c	wext.h
wext-core.c	wireless.h
wext-priv.c	iw_handler.h
wext-priv.c	netdevice.h
wext-priv.c	slab.h
wext-priv.c	wext.h
wext-priv.c	wireless.h
wext-proc.c	iw_handler.h
wext-proc.c	module.h
wext-proc.c	netdevice.h
wext-proc.c	proc_fs.h
wext-proc.c	rtnetlink.h
wext-proc.c	seq_file.h
wext-proc.c	wext.h
wext-proc.c	wireless.h
wext-sme.c	cfg80211-wext.h
wext-sme.c	cfg80211.h
wext-sme.c	etherdevice.h
wext-sme.c	export.h
wext-sme.c	if_arp.h
wext-sme.c	nl80211.h
wext-sme.c	slab.h
wext-sme.c	wext-compat.h
wext-spy.c	arp.h
wext-spy.c	etherdevice.h
wext-spy.c	export.h
wext-spy.c	iw_handler.h
wext-spy.c	netdevice.h
wext-spy.c	wext.h
wext-spy.c	wireless.h
xdr.c	errno.h
xdr.c	kernel.h
xdr.c	module.h
xdr.c	msg_prot.h
xdr.c	pagemap.h
xdr.c	slab.h
xdr.c	string.h
xdr.c	types.h
xdr.c	xdr.h
xfrm_algo.c	crypto.h
xfrm_algo.c	esp.h
xfrm_algo.c	kernel.h
xfrm_algo.c	module.h
xfrm_algo.c	pfkeyv2.h
xfrm_algo.c	scatterlist.h
xfrm_algo.c	xfrm.h
xfrm_hash.c	bootmem.h
xfrm_hash.c	kernel.h
xfrm_hash.c	mm.h
xfrm_hash.c	slab.h
xfrm_hash.c	vmalloc.h
xfrm_hash.c	xfrm.h
xfrm_hash.c	xfrm_hash.h
xfrm_hash.h	socket.h
xfrm_hash.h	xfrm.h
xfrm_input.c	dst.h
xfrm_input.c	ip.h
xfrm_input.c	module.h
xfrm_input.c	netdevice.h
xfrm_input.c	slab.h
xfrm_input.c	xfrm.h
xfrm_ipcomp.c	crypto.h
xfrm_ipcomp.c	err.h
xfrm_ipcomp.c	ip.h
xfrm_ipcomp.c	ipcomp.h
xfrm_ipcomp.c	list.h
xfrm_ipcomp.c	module.h
xfrm_ipcomp.c	mutex.h
xfrm_ipcomp.c	percpu.h
xfrm_ipcomp.c	slab.h
xfrm_ipcomp.c	smp.h
xfrm_ipcomp.c	vmalloc.h
xfrm_ipcomp.c	xfrm.h
xfrm_output.c	dst.h
xfrm_output.c	errno.h
xfrm_output.c	module.h
xfrm_output.c	netdevice.h
xfrm_output.c	netfilter.h
xfrm_output.c	skbuff.h
xfrm_output.c	slab.h
xfrm_output.c	spinlock.h
xfrm_output.c	xfrm.h
xfrm_policy.c	audit.h
xfrm_policy.c	cache.h
xfrm_policy.c	dst.h
xfrm_policy.c	err.h
xfrm_policy.c	flow.h
xfrm_policy.c	ip.h
xfrm_policy.c	kmod.h
xfrm_policy.c	list.h
xfrm_policy.c	module.h
xfrm_policy.c	netdevice.h
xfrm_policy.c	netfilter.h
xfrm_policy.c	notifier.h
xfrm_policy.c	slab.h
xfrm_policy.c	snmp.h
xfrm_policy.c	spinlock.h
xfrm_policy.c	workqueue.h
xfrm_policy.c	xfrm.h
xfrm_policy.c	xfrm_hash.h
xfrm_proc.c	export.h
xfrm_proc.c	proc_fs.h
xfrm_proc.c	seq_file.h
xfrm_proc.c	snmp.h
xfrm_proc.c	xfrm.h
xfrm_replay.c	export.h
xfrm_replay.c	xfrm.h
xfrm_state.c	audit.h
xfrm_state.c	cache.h
xfrm_state.c	interrupt.h
xfrm_state.c	ipsec.h
xfrm_state.c	kernel.h
xfrm_state.c	ktime.h
xfrm_state.c	module.h
xfrm_state.c	pfkeyv2.h
xfrm_state.c	slab.h
xfrm_state.c	uaccess.h
xfrm_state.c	workqueue.h
xfrm_state.c	xfrm.h
xfrm_state.c	xfrm_hash.h
xfrm_sysctl.c	net_namespace.h
xfrm_sysctl.c	slab.h
xfrm_sysctl.c	sysctl.h
xfrm_sysctl.c	xfrm.h
xfrm_user.c	ah.h
xfrm_user.c	crypto.h
xfrm_user.c	in6.h
xfrm_user.c	init.h
xfrm_user.c	ipsec.h
xfrm_user.c	kernel.h
xfrm_user.c	module.h
xfrm_user.c	net.h
xfrm_user.c	netlink.h
xfrm_user.c	pfkeyv2.h
xfrm_user.c	security.h
xfrm_user.c	skbuff.h
xfrm_user.c	slab.h
xfrm_user.c	sock.h
xfrm_user.c	socket.h
xfrm_user.c	string.h
xfrm_user.c	types.h
xfrm_user.c	uaccess.h
xfrm_user.c	xfrm.h
xprt.c	bc_xprt.h
xprt.c	clnt.h
xprt.c	interrupt.h
xprt.c	ktime.h
xprt.c	metrics.h
xprt.c	module.h
xprt.c	net.h
xprt.c	sunrpc.h
xprt.c	types.h
xprt.c	workqueue.h
xprt_rdma.h	atomic.h
xprt_rdma.h	clnt.h
xprt_rdma.h	ib_verbs.h
xprt_rdma.h	rdma_cm.h
xprt_rdma.h	rpc_rdma.h
xprt_rdma.h	spinlock.h
xprt_rdma.h	wait.h
xprt_rdma.h	xprtrdma.h
xprtsock.c	bc_xprt.h
xprtsock.c	capability.h
xprtsock.c	checksum.h
xprtsock.c	clnt.h
xprtsock.c	errno.h
xprtsock.c	file.h
xprtsock.c	in.h
xprtsock.c	mm.h
xprtsock.c	module.h
xprtsock.c	net.h
xprtsock.c	pagemap.h
xprtsock.c	sched.h
xprtsock.c	slab.h
xprtsock.c	sock.h
xprtsock.c	socket.h
xprtsock.c	string.h
xprtsock.c	sunrpc.h
xprtsock.c	svcsock.h
xprtsock.c	tcp.h
xprtsock.c	tcp.h
xprtsock.c	types.h
xprtsock.c	udp.h
xprtsock.c	udp.h
xprtsock.c	un.h
xprtsock.c	xprtsock.h
