a.out-core.h	elfcore.h
a.out-core.h	user.h
amigahw.h	ioport.h
amigaints.h	irq.h
amigayle.h	amigahw.h
amigayle.h	types.h
amiints.c	amigahw.h
amiints.c	amigaints.h
amiints.c	amipcmcia.h
amiints.c	errno.h
amiints.c	init.h
amiints.c	interrupt.h
amiints.c	irq.h
amiints.c	irq.h
amiints.c	traps.h
amipcmcia.h	amigayle.h
amisound.c	amigahw.h
amisound.c	init.h
amisound.c	jiffies.h
amisound.c	module.h
amisound.c	string.h
amisound.c	timer.h
asm-offsets.c	amigahw.h
asm-offsets.c	bootinfo.h
asm-offsets.c	font.h
asm-offsets.c	irq.h
asm-offsets.c	kbuild.h
asm-offsets.c	kernel_stat.h
asm-offsets.c	sched.h
asm-offsets.c	stddef.h
asm-offsets.h	asm-offsets.h
atari_stdma.h	interrupt.h
atarihw.h	bootinfo.h
atarihw.h	cacheflush.h
atarihw.h	mm.h
atarihw.h	raw_io.h
atarihw.h	types.h
atariints.h	atarihw.h
atariints.h	irq.h
atomic.h	cmpxchg.h
atomic.h	cmpxchg.h
atomic.h	kernel.h
atomic.h	kernel.h
atomic.h	types.h
atomic.h	types.h
bitops.h	__fls.h
bitops.h	__fls.h
bitops.h	compiler.h
bitops.h	compiler.h
bitops.h	ext2-atomic.h
bitops.h	ext2-atomic.h
bitops.h	ffs.h
bitops.h	ffs.h
bitops.h	find.h
bitops.h	find.h
bitops.h	fls.h
bitops.h	fls.h
bitops.h	fls64.h
bitops.h	fls64.h
bitops.h	hweight.h
bitops.h	hweight.h
bitops.h	le.h
bitops.h	le.h
bitops.h	lock.h
bitops.h	lock.h
bitops.h	sched.h
bitops.h	sched.h
bitsperlong.h	bitsperlong.h
blinken.h	io.h
blinken.h	setup.h
bootinfo.h	zorro.h
bug.h	bug.h
bug.h	bug.h
bvme6000hw.h	irq.h
byteorder.h	big_endian.h
cache.c	coldfire.h
cache.c	coldfire.h
cache.c	kernel.h
cache.c	kernel.h
cache.c	mcfsim.h
cache.c	mcfsim.h
cacheflush.h	cacheflush_mm.h
cacheflush.h	cacheflush_no.h
cacheflush_mm.h	mcfsim.h
cacheflush_mm.h	mm.h
cacheflush_no.h	mcfsim.h
cacheflush_no.h	mm.h
checksum.c	checksum.h
checksum.c	module.h
checksum.h	checksum.h
checksum.h	in6.h
chipram.c	amigahw.h
chipram.c	atomic.h
chipram.c	init.h
chipram.c	ioport.h
chipram.c	kernel.h
chipram.c	mm.h
chipram.c	module.h
chipram.c	page.h
chipram.c	slab.h
chipram.c	string.h
chipram.c	types.h
cia.c	amigahw.h
cia.c	amigaints.h
cia.c	errno.h
cia.c	init.h
cia.c	interrupt.h
cia.c	irq.h
cia.c	kernel.h
cia.c	kernel_stat.h
cia.c	sched.h
cia.c	seq_file.h
cia.c	types.h
clk.c	clk.h
clk.c	coldfire.h
clk.c	err.h
clk.c	io.h
clk.c	kernel.h
clk.c	mcfclk.h
clk.c	mcfsim.h
clk.c	module.h
clk.c	mutex.h
clk.c	platform_device.h
cmpxchg.h	cmpxchg-local.h
cmpxchg.h	cmpxchg.h
cmpxchg.h	irqflags.h
commproc.c	commproc.h
commproc.c	errno.h
commproc.c	interrupt.h
commproc.c	irq.h
commproc.c	kernel.h
commproc.c	m68360.h
commproc.c	mm.h
commproc.c	page.h
commproc.c	param.h
commproc.c	pgtable.h
commproc.c	sched.h
commproc.c	string.h
config.c	console.h
config.c	console.h
config.c	console.h
config.c	console.h
config.c	console.h
config.c	console.h
config.c	console.h
config.c	init.h
config.c	init.h
config.c	init.h
config.c	init.h
config.c	init.h
config.c	init.h
config.c	init.h
config.c	irq.h
config.c	irq.h
config.c	irq.h
config.c	irq.h
config.c	irq.h
config.c	irq.h
config.c	irq.h
config.c	machdep.h
config.c	machdep.h
config.c	machdep.h
config.c	machdep.h
config.c	machdep.h
config.c	machdep.h
config.c	machdep.h
config.c	mm.h
config.c	mm.h
config.c	mm.h
config.c	mm.h
config.c	mm.h
config.c	mm.h
config.c	mm.h
config.c	oplib.h
config.c	oplib.h
config.c	oplib.h
config.c	oplib.h
config.c	oplib.h
config.c	oplib.h
config.c	oplib.h
config.c	seq_file.h
config.c	seq_file.h
config.c	seq_file.h
config.c	seq_file.h
config.c	seq_file.h
config.c	seq_file.h
config.c	seq_file.h
config.c	setup.h
config.c	setup.h
config.c	setup.h
config.c	setup.h
config.c	setup.h
config.c	setup.h
config.c	setup.h
config.c	sun3ints.h
config.c	sun3ints.h
config.c	sun3ints.h
config.c	sun3ints.h
config.c	sun3ints.h
config.c	sun3ints.h
config.c	sun3ints.h
config.c	sun3xprom.h
config.c	sun3xprom.h
config.c	sun3xprom.h
config.c	sun3xprom.h
config.c	sun3xprom.h
config.c	sun3xprom.h
config.c	sun3xprom.h
config.c	time.h
config.c	time.h
config.c	time.h
config.c	time.h
config.c	time.h
config.c	time.h
config.c	time.h
config.c	types.h
config.c	types.h
config.c	types.h
config.c	types.h
config.c	types.h
config.c	types.h
config.c	types.h
current.h	thread_info.h
delay.h	param.h
device.c	coldfire.h
device.c	fec.h
device.c	gpio.h
device.c	init.h
device.c	io.h
device.c	kernel.h
device.c	mcfqspi.h
device.c	mcfsim.h
device.c	mcfuart.h
device.c	spi.h
device.c	traps.h
div64.h	div64.h
div64.h	types.h
dma-mapping.h	cache.h
dma-mapping.h	dma-mapping-broken.h
dma.c	cacheflush.h
dma.c	cacheflush.h
dma.c	device.h
dma.c	device.h
dma.c	dma-mapping.h
dma.c	dma-mapping.h
dma.c	export.h
dma.c	export.h
dma.c	kernel.h
dma.c	kernel.h
dma.c	pgalloc.h
dma.c	pgalloc.h
dma.c	scatterlist.h
dma.c	scatterlist.h
dma.c	slab.h
dma.c	slab.h
dma.c	vmalloc.h
dma.c	vmalloc.h
dma.h	coldfire.h
dma.h	mcfdma.h
dma.h	mcfsim.h
dma_timer.c	clocksource.h
dma_timer.c	coldfire.h
dma_timer.c	io.h
dma_timer.c	machdep.h
dma_timer.c	mcfpit.h
dma_timer.c	mcfsim.h
dmesg.c	stdio.h
dmesg.c	stdlib.h
dmesg.c	unistd.h
dvma.c	bitops.h
dvma.c	bootmem.h
dvma.c	dvma.h
dvma.c	init.h
dvma.c	io.h
dvma.c	kernel.h
dvma.c	mm.h
dvma.c	page.h
dvma.c	pgalloc.h
dvma.c	pgtable.h
dvma.c	sun3x.h
dvma.c	vmalloc.h
elf.h	ptrace.h
elf.h	user.h
entry.h	page.h
entry.h	setup.h
entry.h	thread_info.h
errno.h	errno.h
fault.c	interrupt.h
fault.c	kernel.h
fault.c	mm.h
fault.c	mman.h
fault.c	module.h
fault.c	pgalloc.h
fault.c	ptrace.h
fault.c	setup.h
fault.c	traps.h
fault.c	uaccess.h
fb.h	fb.h
fb.h	fs.h
fb.h	page.h
fb.h	setup.h
fbio.h	compiler.h
fbio.h	types.h
fcntl.h	fcntl.h
firebee.c	coldfire.h
firebee.c	init.h
firebee.c	io.h
firebee.c	kernel.h
firebee.c	mcfsim.h
firebee.c	mtd.h
firebee.c	partitions.h
firebee.c	physmap.h
firebee.c	platform_device.h
floppy.h	io.h
floppy.h	sun3xflop.h
floppy.h	vmalloc.h
fp_arith.c	fp_arith.h
fp_arith.c	fp_emu.h
fp_arith.c	multi_arith.h
fp_emu.h	asm-offsets.h
fp_emu.h	math-emu.h
fp_log.c	fp_emu.h
fp_trig.c	fp_emu.h
fp_trig.c	fp_trig.h
fp_trig.h	fp_emu.h
gpio.c	coldfire.h
gpio.c	device.h
gpio.c	init.h
gpio.c	io.h
gpio.c	kernel.h
gpio.c	mcfgpio.h
gpio.c	mcfsim.h
gpio.c	module.h
gpio.h	coldfire.h
gpio.h	io.h
gpio.h	mcfgpio.h
gpio.h	mcfsim.h
hardirq.h	cache.h
hardirq.h	hardirq.h
hardirq.h	irq.h
hardirq.h	irq_cpustat.h
hardirq.h	threads.h
hwtest.c	module.h
ide.h	io.h
ide.h	irq.h
ide.h	setup.h
idprom.h	types.h
init.c	atari_stram.h
init.c	bootmem.h
init.c	gfp.h
init.c	init.h
init.c	io.h
init.c	kernel.h
init.c	machdep.h
init.c	mm.h
init.c	module.h
init.c	page.h
init.c	pgalloc.h
init.c	sched.h
init.c	sections.h
init.c	setup.h
init.c	signal.h
init.c	string.h
init.c	swap.h
init.c	tlb.h
init.c	traps.h
init.c	types.h
init.c	uaccess.h
intc-2.c	coldfire.h
intc-2.c	init.h
intc-2.c	interrupt.h
intc-2.c	io.h
intc-2.c	irq.h
intc-2.c	kernel.h
intc-2.c	mcfsim.h
intc-2.c	traps.h
intc-2.c	types.h
intc-5249.c	coldfire.h
intc-5249.c	init.h
intc-5249.c	interrupt.h
intc-5249.c	io.h
intc-5249.c	irq.h
intc-5249.c	kernel.h
intc-5249.c	mcfsim.h
intc-5249.c	types.h
intc-525x.c	coldfire.h
intc-525x.c	init.h
intc-525x.c	interrupt.h
intc-525x.c	io.h
intc-525x.c	irq.h
intc-525x.c	kernel.h
intc-525x.c	mcfsim.h
intc-525x.c	types.h
intc-5272.c	coldfire.h
intc-5272.c	init.h
intc-5272.c	interrupt.h
intc-5272.c	io.h
intc-5272.c	irq.h
intc-5272.c	kernel.h
intc-5272.c	kernel_stat.h
intc-5272.c	mcfsim.h
intc-5272.c	traps.h
intc-5272.c	types.h
intc-simr.c	coldfire.h
intc-simr.c	init.h
intc-simr.c	interrupt.h
intc-simr.c	io.h
intc-simr.c	irq.h
intc-simr.c	kernel.h
intc-simr.c	mcfsim.h
intc-simr.c	traps.h
intc-simr.c	types.h
intc.c	coldfire.h
intc.c	init.h
intc.c	interrupt.h
intc.c	io.h
intc.c	irq.h
intc.c	kernel.h
intc.c	mcfsim.h
intc.c	traps.h
intc.c	types.h
ints.c	cacheflush.h
ints.c	cacheflush.h
ints.c	cacheflush.h
ints.c	errno.h
ints.c	errno.h
ints.c	errno.h
ints.c	init.h
ints.c	init.h
ints.c	init.h
ints.c	interrupt.h
ints.c	interrupt.h
ints.c	interrupt.h
ints.c	irq.h
ints.c	irq.h
ints.c	irq.h
ints.c	irq_regs.h
ints.c	irq_regs.h
ints.c	irq_regs.h
ints.c	kernel_stat.h
ints.c	kernel_stat.h
ints.c	kernel_stat.h
ints.c	machdep.h
ints.c	machdep.h
ints.c	machdep.h
ints.c	module.h
ints.c	module.h
ints.c	module.h
ints.c	page.h
ints.c	page.h
ints.c	page.h
ints.c	q40ints.h
ints.c	q40ints.h
ints.c	q40ints.h
ints.c	sched.h
ints.c	sched.h
ints.c	sched.h
ints.c	setup.h
ints.c	setup.h
ints.c	setup.h
ints.c	traps.h
ints.c	traps.h
ints.c	traps.h
ints.c	types.h
ints.c	types.h
ints.c	types.h
io.h	io_mm.h
io.h	io_no.h
io_mm.h	amigayle.h
io_mm.h	atarihw.h
io_mm.h	compiler.h
io_mm.h	iomap.h
io_mm.h	raw_io.h
io_mm.h	virtconvert.h
io_no.h	virtconvert.h
ioctl.h	ioctl.h
ioctls.h	ioctls.h
ipcbuf.h	ipcbuf.h
irq.c	init.h
irq.c	interrupt.h
irq.c	irq.h
irq.c	kernel.h
irq.c	kernel_stat.h
irq.c	seq_file.h
irq.c	traps.h
irq.c	types.h
irqflags.h	entry.h
irqflags.h	hardirq.h
irqflags.h	preempt.h
irqflags.h	thread_info.h
irqflags.h	types.h
kmap.c	io.h
kmap.c	kernel.h
kmap.c	mm.h
kmap.c	module.h
kmap.c	page.h
kmap.c	pgalloc.h
kmap.c	segment.h
kmap.c	setup.h
kmap.c	slab.h
kmap.c	string.h
kmap.c	types.h
kmap.c	vmalloc.h
kvm_para.h	kvm_para.h
m5206.c	coldfire.h
m5206.c	init.h
m5206.c	io.h
m5206.c	kernel.h
m5206.c	machdep.h
m5206.c	mcfclk.h
m5206.c	mcfsim.h
m5206.c	param.h
m5206sim.h	m52xxacr.h
m520x.c	coldfire.h
m520x.c	init.h
m520x.c	io.h
m520x.c	kernel.h
m520x.c	machdep.h
m520x.c	mcfclk.h
m520x.c	mcfsim.h
m520x.c	mcfuart.h
m520x.c	param.h
m520xsim.h	m52xxacr.h
m523x.c	coldfire.h
m523x.c	init.h
m523x.c	io.h
m523x.c	kernel.h
m523x.c	machdep.h
m523x.c	mcfclk.h
m523x.c	mcfsim.h
m523x.c	param.h
m523xsim.h	m52xxacr.h
m5249.c	coldfire.h
m5249.c	init.h
m5249.c	io.h
m5249.c	kernel.h
m5249.c	machdep.h
m5249.c	mcfclk.h
m5249.c	mcfsim.h
m5249.c	param.h
m5249.c	platform_device.h
m525x.c	coldfire.h
m525x.c	init.h
m525x.c	io.h
m525x.c	kernel.h
m525x.c	machdep.h
m525x.c	mcfclk.h
m525x.c	mcfsim.h
m525x.c	param.h
m525x.c	platform_device.h
m525xsim.h	m52xxacr.h
m5272.c	coldfire.h
m5272.c	init.h
m5272.c	io.h
m5272.c	kernel.h
m5272.c	machdep.h
m5272.c	mcfclk.h
m5272.c	mcfsim.h
m5272.c	mcfuart.h
m5272.c	param.h
m5272.c	phy.h
m5272.c	phy_fixed.h
m5272sim.h	m52xxacr.h
m527x.c	coldfire.h
m527x.c	init.h
m527x.c	io.h
m527x.c	kernel.h
m527x.c	machdep.h
m527x.c	mcfclk.h
m527x.c	mcfsim.h
m527x.c	mcfuart.h
m527x.c	param.h
m527xsim.h	m52xxacr.h
m528x.c	coldfire.h
m528x.c	init.h
m528x.c	io.h
m528x.c	kernel.h
m528x.c	machdep.h
m528x.c	mcfclk.h
m528x.c	mcfsim.h
m528x.c	mcfuart.h
m528x.c	param.h
m528x.c	platform_device.h
m528xsim.h	m52xxacr.h
m5307.c	coldfire.h
m5307.c	init.h
m5307.c	io.h
m5307.c	kernel.h
m5307.c	machdep.h
m5307.c	mcfclk.h
m5307.c	mcfsim.h
m5307.c	mcfwdebug.h
m5307.c	param.h
m5307sim.h	m53xxacr.h
m532x.c	coldfire.h
m532x.c	init.h
m532x.c	io.h
m532x.c	kernel.h
m532x.c	machdep.h
m532x.c	mcfclk.h
m532x.c	mcfdma.h
m532x.c	mcfsim.h
m532x.c	mcfuart.h
m532x.c	mcfwdebug.h
m532x.c	param.h
m532xsim.h	m53xxacr.h
m5407.c	coldfire.h
m5407.c	init.h
m5407.c	io.h
m5407.c	kernel.h
m5407.c	machdep.h
m5407.c	mcfclk.h
m5407.c	mcfsim.h
m5407.c	param.h
m5407sim.h	m54xxacr.h
m5441x.c	clk.h
m5441x.c	coldfire.h
m5441x.c	init.h
m5441x.c	io.h
m5441x.c	kernel.h
m5441x.c	machdep.h
m5441x.c	mcfclk.h
m5441x.c	mcfdma.h
m5441x.c	mcfsim.h
m5441x.c	mcfuart.h
m5441x.c	param.h
m5441xsim.h	m54xxacr.h
m54xx.c	bootmem.h
m54xx.c	clk.h
m54xx.c	coldfire.h
m54xx.c	init.h
m54xx.c	interrupt.h
m54xx.c	io.h
m54xx.c	kernel.h
m54xx.c	m54xxgpt.h
m54xx.c	m54xxsim.h
m54xx.c	machdep.h
m54xx.c	mcfclk.h
m54xx.c	mcfclk.h
m54xx.c	mcfuart.h
m54xx.c	mm.h
m54xx.c	mmu_context.h
m54xx.c	param.h
m54xx.c	pgalloc.h
m54xxsim.h	m54xxacr.h
m68328.c	MC68328.h
m68328.c	bootlogo.h
m68328.c	kernel.h
m68328.c	machdep.h
m68328.c	rtc.h
m68328.c	types.h
m68360.h	m68360_enet.h
m68360.h	m68360_pram.h
m68360.h	m68360_quicc.h
m68360.h	m68360_regs.h
m68360_enet.h	quicc_simple.h
m68360_quicc.h	m68360_pram.h
m68360_quicc.h	m68360_regs.h
m68EZ328.c	MC68EZ328.h
m68EZ328.c	bootstd.h
m68EZ328.c	kernel.h
m68EZ328.c	machdep.h
m68EZ328.c	pgtable.h
m68EZ328.c	rtc.h
m68EZ328.c	types.h
m68VZ328.c	MC68VZ328.h
m68VZ328.c	bootlogo-vz.h
m68VZ328.c	bootstd.h
m68VZ328.c	interrupt.h
m68VZ328.c	irq.h
m68VZ328.c	kd.h
m68VZ328.c	kernel.h
m68VZ328.c	machdep.h
m68VZ328.c	netdevice.h
m68VZ328.c	pgtable.h
m68VZ328.c	rtc.h
m68VZ328.c	types.h
m68k_ksyms.c	module.h
machdep.h	interrupt.h
machdep.h	seq_file.h
macintosh.h	interrupt.h
macintosh.h	seq_file.h
macints.h	irq.h
math-emu.h	kernel.h
math-emu.h	linkage.h
math-emu.h	sched.h
math-emu.h	setup.h
mc146818rtc.h	atarihw.h
mcf8390.c	init.h
mcf8390.c	kernel.h
mcf8390.c	mcf8390.h
mcf8390.c	module.h
mcf8390.c	platform_device.h
mcf8390.c	resource.h
mcf_pgalloc.h	tlb.h
mcf_pgalloc.h	tlbflush.h
mcf_pgtable.h	mcfmmu.h
mcf_pgtable.h	page.h
mcfgpio.h	gpio.h
mcfmmu.c	bootmem.h
mcfmmu.c	init.h
mcfmmu.c	kernel.h
mcfmmu.c	mcf_pgalloc.h
mcfmmu.c	mm.h
mcfmmu.c	mmu_context.h
mcfmmu.c	page.h
mcfmmu.c	pgtable.h
mcfmmu.c	setup.h
mcfmmu.c	string.h
mcfmmu.c	tlbflush.h
mcfmmu.c	types.h
mcfsim.h	m5206sim.h
mcfsim.h	m520xsim.h
mcfsim.h	m523xsim.h
mcfsim.h	m525xsim.h
mcfsim.h	m5272sim.h
mcfsim.h	m527xsim.h
mcfsim.h	m528xsim.h
mcfsim.h	m5307sim.h
mcfsim.h	m532xsim.h
mcfsim.h	m5407sim.h
mcfsim.h	m5441xsim.h
mcfsim.h	m54xxsim.h
mcfsim.h	mcfintc.h
mcfsim.h	mcfintc.h
mcfsim.h	mcfintc.h
mcfsim.h	mcfintc.h
mcfsim.h	mcfintc.h
mcfuart.h	platform_device.h
mcfuart.h	serial_core.h
memcpy.c	module.h
memcpy.c	string.h
memmove.c	module.h
memmove.c	string.h
memory.c	gfp.h
memory.c	init.h
memory.c	kernel.h
memory.c	machdep.h
memory.c	mm.h
memory.c	module.h
memory.c	page.h
memory.c	pagemap.h
memory.c	pgalloc.h
memory.c	segment.h
memory.c	setup.h
memory.c	string.h
memory.c	traps.h
memory.c	types.h
memset.c	module.h
memset.c	string.h
misc.c	inflate.c
misc.c	uaccess.h
mman.h	mman.h
mmu_context.h	atomic.h
mmu_context.h	bitops.h
mmu_context.h	mcfmmu.h
mmu_context.h	mm_hooks.h
mmu_context.h	mmu.h
mmu_context.h	page.h
mmu_context.h	pgalloc.h
mmu_context.h	sched.h
mmu_context.h	setup.h
mmu_context.h	sun3mmu.h
module.c	elf.h
module.c	fs.h
module.c	kernel.h
module.c	moduleloader.h
module.c	string.h
module.c	vmalloc.h
module.h	module.h
motorola.c	atari_stram.h
motorola.c	bootmem.h
motorola.c	dma.h
motorola.c	gfp.h
motorola.c	init.h
motorola.c	io.h
motorola.c	kernel.h
motorola.c	machdep.h
motorola.c	mm.h
motorola.c	module.h
motorola.c	page.h
motorola.c	pgalloc.h
motorola.c	sched.h
motorola.c	sections.h
motorola.c	setup.h
motorola.c	signal.h
motorola.c	string.h
motorola.c	swap.h
motorola.c	types.h
motorola.c	uaccess.h
motorola_pgalloc.h	tlb.h
motorola_pgalloc.h	tlbflush.h
mvme147hw.h	irq.h
mvme16xhw.h	irq.h
natfeat.c	console.h
natfeat.c	io.h
natfeat.c	kernel.h
natfeat.c	machdep.h
natfeat.c	module.h
natfeat.c	natfeat.h
natfeat.c	string.h
natfeat.c	types.h
nettel.c	coldfire.h
nettel.c	init.h
nettel.c	io.h
nettel.c	kernel.h
nettel.c	mcfsim.h
nettel.c	nettel.h
nettel.c	param.h
nettel.c	platform_device.h
nettel.h	coldfire.h
nettel.h	io.h
nettel.h	mcfsim.h
nfblock.c	blkdev.h
nfblock.c	errno.h
nfblock.c	genhd.h
nfblock.c	hdreg.h
nfblock.c	init.h
nfblock.c	kernel.h
nfblock.c	module.h
nfblock.c	moduleparam.h
nfblock.c	natfeat.h
nfblock.c	slab.h
nfblock.c	types.h
nfcon.c	console.h
nfcon.c	err.h
nfcon.c	init.h
nfcon.c	module.h
nfcon.c	natfeat.h
nfcon.c	slab.h
nfcon.c	tty.h
nfcon.c	tty_driver.h
nfcon.c	tty_flip.h
nfcon.c	uaccess.h
nfeth.c	etherdevice.h
nfeth.c	interrupt.h
nfeth.c	module.h
nfeth.c	natfeat.h
nfeth.c	netdevice.h
nfeth.c	virtconvert.h
nubus.h	raw_io.h
oplib.h	openprom.h
page.h	const.h
page.h	getorder.h
page.h	page_mm.h
page.h	page_no.h
page.h	page_offset.h
page.h	setup.h
page_mm.h	compiler.h
page_mm.h	module.h
param.h	param.h
param.h	param.h
pci.c	coldfire.h
pci.c	delay.h
pci.c	init.h
pci.c	interrupt.h
pci.c	io.h
pci.c	irq.h
pci.c	kernel.h
pci.c	m54xxpci.h
pci.c	mcfsim.h
pci.c	module.h
pci.c	pci.h
pci.c	types.h
pci.h	pci-dma-compat.h
pci.h	pci.h
pcibios.c	init.h
pcibios.c	kernel.h
pcibios.c	mm.h
pcibios.c	pci.h
pcibios.c	types.h
pcmcia.c	amigayle.h
pcmcia.c	amipcmcia.h
pcmcia.c	jiffies.h
pcmcia.c	module.h
pcmcia.c	timer.h
pcmcia.c	types.h
pgalloc.h	highmem.h
pgalloc.h	mcf_pgalloc.h
pgalloc.h	mm.h
pgalloc.h	motorola_pgalloc.h
pgalloc.h	setup.h
pgalloc.h	sun3_pgalloc.h
pgalloc.h	virtconvert.h
pgtable.h	pgtable_mm.h
pgtable.h	pgtable_no.h
pgtable_mm.h	4level-fixup.h
pgtable_mm.h	mcf_pgtable.h
pgtable_mm.h	motorola_pgtable.h
pgtable_mm.h	pgtable.h
pgtable_mm.h	processor.h
pgtable_mm.h	sched.h
pgtable_mm.h	setup.h
pgtable_mm.h	sun3_pgtable.h
pgtable_mm.h	threads.h
pgtable_mm.h	virtconvert.h
pgtable_no.h	4level-fixup.h
pgtable_no.h	io.h
pgtable_no.h	page.h
pgtable_no.h	pgtable.h
pgtable_no.h	processor.h
pgtable_no.h	slab.h
pit.c	clockchips.h
pit.c	coldfire.h
pit.c	init.h
pit.c	interrupt.h
pit.c	io.h
pit.c	irq.h
pit.c	kernel.h
pit.c	machdep.h
pit.c	mcfpit.h
pit.c	mcfsim.h
pit.c	param.h
pit.c	sched.h
platform.c	amigahw.h
platform.c	amigayle.h
platform.c	err.h
platform.c	init.h
platform.c	platform_device.h
platform.c	zorro.h
poll.h	poll.h
posix_types.h	posix_types.h
process.c	errno.h
process.c	fs.h
process.c	init_task.h
process.c	kernel.h
process.c	machdep.h
process.c	mm.h
process.c	module.h
process.c	mqueue.h
process.c	pgtable.h
process.c	ptrace.h
process.c	rcupdate.h
process.c	reboot.h
process.c	sched.h
process.c	setup.h
process.c	slab.h
process.c	smp.h
process.c	stddef.h
process.c	traps.h
process.c	uaccess.h
process.c	unistd.h
process.c	user.h
processor.h	fpu.h
processor.h	ptrace.h
processor.h	segment.h
processor.h	thread_info.h
prom.c	bootinfo.h
prom.c	console.h
prom.c	idprom.h
prom.c	init.h
prom.c	kernel.h
prom.c	machines.h
prom.c	mm.h
prom.c	openprom.h
prom.c	page.h
prom.c	pgtable.h
prom.c	segment.h
prom.c	setup.h
prom.c	string.h
prom.c	sun3ints.h
prom.c	sun3xprom.h
prom.c	traps.h
prom.c	tty.h
prom.c	types.h
ptrace.c	errno.h
ptrace.c	kernel.h
ptrace.c	mm.h
ptrace.c	page.h
ptrace.c	pgtable.h
ptrace.c	processor.h
ptrace.c	ptrace.h
ptrace.c	sched.h
ptrace.c	signal.h
ptrace.c	smp.h
ptrace.c	tracehook.h
ptrace.c	uaccess.h
ptrace.c	user.h
q40_master.h	q40ints.h
q40_master.h	raw_io.h
quicc_simple.h	quicc.h
raw_io.h	types.h
reset.c	coldfire.h
reset.c	init.h
reset.c	io.h
reset.c	kernel.h
reset.c	machdep.h
reset.c	mcfsim.h
resource.h	resource.h
rtc.c	bcd.h
rtc.c	bcd.h
rtc.c	capability.h
rtc.c	capability.h
rtc.c	errno.h
rtc.c	errno.h
rtc.c	fcntl.h
rtc.c	fcntl.h
rtc.c	init.h
rtc.c	init.h
rtc.c	io.h
rtc.c	io.h
rtc.c	ioport.h
rtc.c	ioport.h
rtc.c	mc146818rtc.h
rtc.c	mc146818rtc.h
rtc.c	miscdevice.h
rtc.c	miscdevice.h
rtc.c	mvme16xhw.h
rtc.c	mvme16xhw.h
rtc.c	poll.h
rtc.c	poll.h
rtc.c	setup.h
rtc.c	setup.h
rtc.c	types.h
rtc.c	types.h
rtc.c	uaccess.h
rtc.c	uaccess.h
rtc.h	errno.h
rtc.h	machdep.h
rtc.h	rtc.h
setup.c	setup_mm.c
setup.c	setup_no.c
setup_mm.c	amigahw.h
setup_mm.c	atari_stram.h
setup_mm.c	atarihw.h
setup_mm.c	bootinfo.h
setup_mm.c	bootmem.h
setup_mm.c	console.h
setup_mm.c	delay.h
setup_mm.c	dvma.h
setup_mm.c	errno.h
setup_mm.c	fpu.h
setup_mm.c	fs.h
setup_mm.c	genhd.h
setup_mm.c	init.h
setup_mm.c	initrd.h
setup_mm.c	interrupt.h
setup_mm.c	io.h
setup_mm.c	irq.h
setup_mm.c	kernel.h
setup_mm.c	machdep.h
setup_mm.c	mm.h
setup_mm.c	module.h
setup_mm.c	natfeat.h
setup_mm.c	proc_fs.h
setup_mm.c	sched.h
setup_mm.c	sections.h
setup_mm.c	seq_file.h
setup_mm.c	setup.h
setup_mm.c	string.h
setup_no.c	bootmem.h
setup_no.c	console.h
setup_no.c	delay.h
setup_no.c	errno.h
setup_no.c	fb.h
setup_no.c	init.h
setup_no.c	initrd.h
setup_no.c	interrupt.h
setup_no.c	irq.h
setup_no.c	kernel.h
setup_no.c	machdep.h
setup_no.c	mm.h
setup_no.c	module.h
setup_no.c	pgtable.h
setup_no.c	root_dev.h
setup_no.c	rtc.h
setup_no.c	sched.h
setup_no.c	sections.h
setup_no.c	seq_file.h
setup_no.c	setup.h
setup_no.c	string.h
siginfo.h	siginfo.h
signal.c	binfmts.h
signal.c	errno.h
signal.c	highuid.h
signal.c	kernel.h
signal.c	mm.h
signal.c	module.h
signal.c	personality.h
signal.c	pgtable.h
signal.c	ptrace.h
signal.c	sched.h
signal.c	setup.h
signal.c	signal.h
signal.c	stddef.h
signal.c	syscalls.h
signal.c	tracehook.h
signal.c	traps.h
signal.c	tty.h
signal.c	uaccess.h
signal.c	ucontext.h
signal.c	unistd.h
signal.c	wait.h
signal.h	signal-defs.h
signal.h	signal-defs.h
signal.h	types.h
signal.h	types.h
sltimers.c	clocksource.h
sltimers.c	coldfire.h
sltimers.c	init.h
sltimers.c	interrupt.h
sltimers.c	io.h
sltimers.c	irq.h
sltimers.c	kernel.h
sltimers.c	machdep.h
sltimers.c	mcfsim.h
sltimers.c	mcfslt.h
sltimers.c	profile.h
sltimers.c	sched.h
sltimers.c	traps.h
socket.h	sockios.h
statfs.h	statfs.h
string.c	module.h
string.c	string.h
string.h	page.h
string.h	page.h
string.h	setup.h
string.h	setup.h
sun3_pgalloc.h	tlb.h
sun3_pgtable.h	linkage.h
sun3_pgtable.h	sun3mmu.h
sun3_pgtable.h	virtconvert.h
sun3ints.h	interrupt.h
sun3ints.h	intersil.h
sun3ints.h	irq.h
sun3ints.h	oplib.h
sun3ints.h	traps.h
sun3ints.h	types.h
sun3kmap.c	io.h
sun3kmap.c	kernel.h
sun3kmap.c	mm.h
sun3kmap.c	module.h
sun3kmap.c	page.h
sun3kmap.c	pgtable.h
sun3kmap.c	sun3mmu.h
sun3kmap.c	types.h
sun3kmap.c	vmalloc.h
sun3mmu.c	bootmem.h
sun3mmu.c	init.h
sun3mmu.c	io.h
sun3mmu.c	kernel.h
sun3mmu.c	machdep.h
sun3mmu.c	mm.h
sun3mmu.c	page.h
sun3mmu.c	pgtable.h
sun3mmu.c	sched.h
sun3mmu.c	setup.h
sun3mmu.c	signal.h
sun3mmu.c	string.h
sun3mmu.c	swap.h
sun3mmu.c	types.h
sun3mmu.c	uaccess.h
sun3mmu.h	movs.h
sun3mmu.h	sun3-head.h
sun3mmu.h	types.h
sun3xflop.h	irq.h
sun3xflop.h	page.h
sun3xflop.h	pgtable.h
sun3xflop.h	sun3x.h
swab.h	types.h
sys_m68k.c	cachectl.h
sys_m68k.c	cacheflush.h
sys_m68k.c	capability.h
sys_m68k.c	errno.h
sys_m68k.c	file.h
sys_m68k.c	fs.h
sys_m68k.c	ipc.h
sys_m68k.c	mm.h
sys_m68k.c	mman.h
sys_m68k.c	msg.h
sys_m68k.c	page.h
sys_m68k.c	sched.h
sys_m68k.c	sem.h
sys_m68k.c	setup.h
sys_m68k.c	shm.h
sys_m68k.c	smp.h
sys_m68k.c	stat.h
sys_m68k.c	syscalls.h
sys_m68k.c	tlb.h
sys_m68k.c	traps.h
sys_m68k.c	uaccess.h
sys_m68k.c	unistd.h
termbits.h	posix_types.h
termios.h	ioctls.h
termios.h	termbits.h
thread_info.h	page.h
thread_info.h	segment.h
thread_info.h	types.h
time.c	bcd.h
time.c	bcd.h
time.c	bcd.h
time.c	init.h
time.c	init.h
time.c	init.h
time.c	interrupt.h
time.c	interrupt.h
time.c	interrupt.h
time.c	io.h
time.c	io.h
time.c	io.h
time.c	irq.h
time.c	irq.h
time.c	irq.h
time.c	kd.h
time.c	kd.h
time.c	kd.h
time.c	kernel_stat.h
time.c	kernel_stat.h
time.c	kernel_stat.h
time.c	rtc.h
time.c	rtc.h
time.c	rtc.h
time.c	rtc.h
time.c	rtc.h
time.c	rtc.h
time.c	sched.h
time.c	sched.h
time.c	sched.h
time.c	sun3ints.h
time.c	sun3ints.h
time.c	sun3ints.h
time.c	sun3x.h
time.c	sun3x.h
time.c	sun3x.h
time.c	time.h
time.c	time.h
time.c	time.h
time.c	traps.h
time.c	traps.h
time.c	traps.h
time.c	types.h
time.c	types.h
time.c	types.h
timers.c	MC68VZ328.h
timers.c	MC68VZ328.h
timers.c	clocksource.h
timers.c	clocksource.h
timers.c	interrupt.h
timers.c	interrupt.h
timers.c	irq.h
timers.c	irq.h
timers.c	kernel.h
timers.c	kernel.h
timers.c	machdep.h
timers.c	machdep.h
timers.c	mm.h
timers.c	mm.h
timers.c	pgtable.h
timers.c	pgtable.h
timers.c	rtc.h
timers.c	rtc.h
timers.c	setup.h
timers.c	setup.h
timers.c	types.h
timers.c	types.h
timex.h	coldfire.h
tlb.h	tlb.h
tlbflush.h	setup.h
tlbflush.h	setup.h
traps.c	fpu.h
traps.c	init.h
traps.c	kallsyms.h
traps.c	kernel.h
traps.c	linkage.h
traps.c	machdep.h
traps.c	mcfmmu.h
traps.c	mm.h
traps.c	module.h
traps.c	pgalloc.h
traps.c	ptrace.h
traps.c	sched.h
traps.c	setup.h
traps.c	siginfo.h
traps.c	signal.h
traps.c	string.h
traps.c	sun3mmu.h
traps.c	traps.h
traps.c	uaccess.h
traps.c	user.h
traps.h	linkage.h
traps.h	ptrace.h
types.h	int-ll64.h
uaccess.c	module.h
uaccess.c	uaccess.h
uaccess.h	uaccess_mm.h
uaccess.h	uaccess_no.h
uaccess_mm.h	compiler.h
uaccess_mm.h	errno.h
uaccess_mm.h	sched.h
uaccess_mm.h	segment.h
uaccess_mm.h	types.h
uaccess_no.h	mm.h
uaccess_no.h	sched.h
uaccess_no.h	segment.h
uaccess_no.h	string.h
unaligned.h	access_ok.h
unaligned.h	be_struct.h
unaligned.h	generic.h
unaligned.h	generic.h
unaligned.h	le_byteshift.h
vectors.c	fpu.h
vectors.c	fpu.h
vectors.c	init.h
vectors.c	init.h
vectors.c	kallsyms.h
vectors.c	kallsyms.h
vectors.c	kernel.h
vectors.c	kernel.h
vectors.c	linkage.h
vectors.c	linkage.h
vectors.c	sched.h
vectors.c	sched.h
vectors.c	setup.h
vectors.c	setup.h
vectors.c	traps.h
vectors.c	traps.h
virtconvert.h	compiler.h
virtconvert.h	mmzone.h
virtconvert.h	page.h
virtconvert.h	setup.h
zorro.h	raw_io.h
