acorn.c	acorn.h
acorn.c	adfs_fs.h
acorn.c	buffer_head.h
acorn.c	check.h
acpi-ext.h	types.h
addrs.h	arch.h
addrs.h	pda.h
addrs.h	percpu.h
addrs.h	types.h
amiga.c	affs_hardblocks.h
amiga.c	amiga.h
amiga.c	check.h
amiga.c	types.h
arch.h	numa.h
arch.h	percpu.h
arch.h	sn_cpuid.h
arch.h	types.h
arch.h	types.h
asm-offsets.h	asm-offsets.h
atari.c	atari.h
atari.c	check.h
atari.c	ctype.h
atomic.h	intrinsics.h
atomic.h	types.h
auto_group.c	export.h
auto_group.c	kallsyms.h
auto_group.c	proc_fs.h
auto_group.c	sched.h
auto_group.c	security.h
auto_group.c	seq_file.h
auto_group.c	utsname.h
auto_group.h	kref.h
auto_group.h	rwsem.h
autoprobe.c	async.h
autoprobe.c	delay.h
autoprobe.c	internals.h
autoprobe.c	interrupt.h
autoprobe.c	irq.h
autoprobe.c	module.h
barrier.h	compiler.h
base.c	gcov.h
base.c	init.h
base.c	module.h
base.c	mutex.h
bitops.h	compiler.h
bitops.h	const_hweight.h
bitops.h	ext2-atomic-setbit.h
bitops.h	find.h
bitops.h	fls64.h
bitops.h	intrinsics.h
bitops.h	le.h
bitops.h	sched.h
bitops.h	types.h
bitsperlong.h	bitsperlong.h
blk-cgroup.c	atomic.h
blk-cgroup.c	blk-cgroup.h
blk-cgroup.c	blk.h
blk-cgroup.c	blkdev.h
blk-cgroup.c	delay.h
blk-cgroup.c	err.h
blk-cgroup.c	genhd.h
blk-cgroup.c	ioprio.h
blk-cgroup.c	kdev_t.h
blk-cgroup.c	module.h
blk-cgroup.c	slab.h
blk-cgroup.h	blkdev.h
blk-cgroup.h	cgroup.h
blk-cgroup.h	radix-tree.h
blk-cgroup.h	seq_file.h
blk-cgroup.h	u64_stats_sync.h
blk-core.c	backing-dev.h
blk-core.c	bio.h
blk-core.c	blk-cgroup.h
blk-core.c	blk.h
blk-core.c	blkdev.h
blk-core.c	block.h
blk-core.c	completion.h
blk-core.c	delay.h
blk-core.c	fault-inject.h
blk-core.c	highmem.h
blk-core.c	init.h
blk-core.c	kernel.h
blk-core.c	kernel_stat.h
blk-core.c	list_sort.h
blk-core.c	mm.h
blk-core.c	module.h
blk-core.c	ratelimit.h
blk-core.c	slab.h
blk-core.c	string.h
blk-core.c	swap.h
blk-core.c	task_io_accounting_ops.h
blk-core.c	writeback.h
blk-exec.c	bio.h
blk-exec.c	blk.h
blk-exec.c	blkdev.h
blk-exec.c	kernel.h
blk-exec.c	module.h
blk-exec.c	scsi_cmnd.h
blk-flush.c	bio.h
blk-flush.c	blk.h
blk-flush.c	blkdev.h
blk-flush.c	gfp.h
blk-flush.c	kernel.h
blk-flush.c	module.h
blk-integrity.c	bio.h
blk-integrity.c	blk.h
blk-integrity.c	blkdev.h
blk-integrity.c	export.h
blk-integrity.c	mempool.h
blk-integrity.c	scatterlist.h
blk-integrity.c	slab.h
blk-ioc.c	bio.h
blk-ioc.c	blk.h
blk-ioc.c	blkdev.h
blk-ioc.c	bootmem.h
blk-ioc.c	init.h
blk-ioc.c	kernel.h
blk-ioc.c	module.h
blk-ioc.c	slab.h
blk-iopoll.c	bio.h
blk-iopoll.c	blk-iopoll.h
blk-iopoll.c	blk.h
blk-iopoll.c	blkdev.h
blk-iopoll.c	cpu.h
blk-iopoll.c	delay.h
blk-iopoll.c	init.h
blk-iopoll.c	interrupt.h
blk-iopoll.c	kernel.h
blk-iopoll.c	module.h
blk-lib.c	bio.h
blk-lib.c	blk.h
blk-lib.c	blkdev.h
blk-lib.c	kernel.h
blk-lib.c	module.h
blk-lib.c	scatterlist.h
blk-map.c	bio.h
blk-map.c	blk.h
blk-map.c	blkdev.h
blk-map.c	kernel.h
blk-map.c	module.h
blk-map.c	sg.h
blk-merge.c	bio.h
blk-merge.c	blk.h
blk-merge.c	blkdev.h
blk-merge.c	kernel.h
blk-merge.c	module.h
blk-merge.c	scatterlist.h
blk-settings.c	bio.h
blk-settings.c	blk.h
blk-settings.c	blkdev.h
blk-settings.c	bootmem.h
blk-settings.c	gcd.h
blk-settings.c	gfp.h
blk-settings.c	init.h
blk-settings.c	jiffies.h
blk-settings.c	kernel.h
blk-settings.c	lcm.h
blk-settings.c	module.h
blk-softirq.c	bio.h
blk-softirq.c	blk.h
blk-softirq.c	blkdev.h
blk-softirq.c	cpu.h
blk-softirq.c	init.h
blk-softirq.c	interrupt.h
blk-softirq.c	kernel.h
blk-softirq.c	module.h
blk-softirq.c	sched.h
blk-sysfs.c	bio.h
blk-sysfs.c	blk-cgroup.h
blk-sysfs.c	blk.h
blk-sysfs.c	blkdev.h
blk-sysfs.c	blktrace_api.h
blk-sysfs.c	kernel.h
blk-sysfs.c	module.h
blk-sysfs.c	slab.h
blk-tag.c	bio.h
blk-tag.c	blk.h
blk-tag.c	blkdev.h
blk-tag.c	kernel.h
blk-tag.c	module.h
blk-tag.c	slab.h
blk-throttle.c	bio.h
blk-throttle.c	blk-cgroup.h
blk-throttle.c	blk.h
blk-throttle.c	blkdev.h
blk-throttle.c	blktrace_api.h
blk-throttle.c	module.h
blk-throttle.c	slab.h
blk-timeout.c	blk.h
blk-timeout.c	blkdev.h
blk-timeout.c	fault-inject.h
blk-timeout.c	kernel.h
blk-timeout.c	module.h
blk.h	idr.h
bsg-lib.c	blkdev.h
bsg-lib.c	bsg-lib.h
bsg-lib.c	delay.h
bsg-lib.c	export.h
bsg-lib.c	scatterlist.h
bsg-lib.c	scsi_cmnd.h
bsg-lib.c	slab.h
bsg.c	blkdev.h
bsg.c	bsg.h
bsg.c	cdev.h
bsg.c	file.h
bsg.c	idr.h
bsg.c	init.h
bsg.c	jiffies.h
bsg.c	module.h
bsg.c	percpu.h
bsg.c	poll.h
bsg.c	scsi.h
bsg.c	scsi_cmnd.h
bsg.c	scsi_device.h
bsg.c	scsi_driver.h
bsg.c	scsi_ioctl.h
bsg.c	sg.h
bsg.c	slab.h
bsg.c	uio.h
bte.h	cache.h
bte.h	pda.h
bte.h	shub_mmr.h
bte.h	spinlock.h
bte.h	timer.h
bte.h	types.h
bug.h	bug.h
bugs.h	processor.h
byteorder.h	little_endian.h
cacheflush.h	bitops.h
cacheflush.h	page-flags.h
cacheflush.h	page.h
calibrate.c	delay.h
calibrate.c	init.h
calibrate.c	jiffies.h
calibrate.c	percpu.h
calibrate.c	smp.h
calibrate.c	timex.h
cfq-iosched.c	blk-cgroup.h
cfq-iosched.c	blk.h
cfq-iosched.c	blkdev.h
cfq-iosched.c	blktrace_api.h
cfq-iosched.c	elevator.h
cfq-iosched.c	ioprio.h
cfq-iosched.c	jiffies.h
cfq-iosched.c	module.h
cfq-iosched.c	rbtree.h
cfq-iosched.c	slab.h
check.c	acorn.h
check.c	amiga.h
check.c	atari.h
check.c	check.h
check.c	ctype.h
check.c	efi.h
check.c	genhd.h
check.c	ibm.h
check.c	karma.h
check.c	ldm.h
check.c	mac.h
check.c	msdos.h
check.c	osf.h
check.c	sgi.h
check.c	slab.h
check.c	sun.h
check.c	sysv68.h
check.c	ultrix.h
check.h	blkdev.h
check.h	genhd.h
check.h	pagemap.h
chip.c	internals.h
chip.c	interrupt.h
chip.c	irq.h
chip.c	irq.h
chip.c	kernel_stat.h
chip.c	module.h
chip.c	msi.h
clock.c	export.h
clock.c	hardirq.h
clock.c	ktime.h
clock.c	percpu.h
clock.c	sched.h
clock.c	spinlock.h
cmpxchg.h	ia64regs.h
cmpxchg.h	types.h
compat_ioctl.c	blkdev.h
compat_ioctl.c	blkpg.h
compat_ioctl.c	blktrace_api.h
compat_ioctl.c	cdrom.h
compat_ioctl.c	compat.h
compat_ioctl.c	elevator.h
compat_ioctl.c	fd.h
compat_ioctl.c	hdreg.h
compat_ioctl.c	slab.h
compat_ioctl.c	syscalls.h
compat_ioctl.c	types.h
compat_ioctl.c	uaccess.h
core.c	binfmts.h
core.c	blkdev.h
core.c	capability.h
core.c	completion.h
core.c	context_tracking.h
core.c	cpu.h
core.c	cpuset.h
core.c	ctype.h
core.c	debug_locks.h
core.c	debugfs.h
core.c	delay.h
core.c	delayacct.h
core.c	features.h
core.c	features.h
core.c	features.h
core.c	freezer.h
core.c	ftrace.h
core.c	highmem.h
core.c	hrtimer.h
core.c	init.h
core.c	init_task.h
core.c	interrupt.h
core.c	irq_regs.h
core.c	kernel_stat.h
core.c	kprobes.h
core.c	mm.h
core.c	mmu_context.h
core.c	module.h
core.c	mutex.h
core.c	nmi.h
core.c	notifier.h
core.c	pagemap.h
core.c	paravirt.h
core.c	percpu.h
core.c	perf_event.h
core.c	pid_namespace.h
core.c	proc_fs.h
core.c	profile.h
core.c	rcupdate.h
core.c	sched.h
core.c	sched.h
core.c	security.h
core.c	seq_file.h
core.c	slab.h
core.c	smp.h
core.c	smpboot.h
core.c	switch_to.h
core.c	syscalls.h
core.c	sysctl.h
core.c	threads.h
core.c	tick.h
core.c	timer.h
core.c	times.h
core.c	tlb.h
core.c	tsacct_kern.h
core.c	uaccess.h
core.c	unistd.h
core.c	vmalloc.h
core.c	workqueue_sched.h
cpu.h	cpu.h
cpu.h	device.h
cpu.h	percpu.h
cpu.h	topology.h
cpupri.c	cpupri.h
cpupri.c	gfp.h
cpupri.h	sched.h
cputime.c	export.h
cputime.c	kernel_stat.h
cputime.c	sched.h
cputime.c	sched.h
cputime.c	static_key.h
cputime.c	tsacct_kern.h
cputime.h	cputime.h
cputime.h	jiffies.h
cputime.h	processor.h
cputime.h	time.h
current.h	intrinsics.h
deadline-iosched.c	bio.h
deadline-iosched.c	blkdev.h
deadline-iosched.c	compiler.h
deadline-iosched.c	elevator.h
deadline-iosched.c	fs.h
deadline-iosched.c	init.h
deadline-iosched.c	kernel.h
deadline-iosched.c	module.h
deadline-iosched.c	rbtree.h
deadline-iosched.c	slab.h
debug.c	kallsyms.h
debug.c	proc_fs.h
debug.c	sched.h
debug.c	sched.h
debug.c	seq_file.h
debug.c	utsname.h
debug.h	kallsyms.h
devres.c	device.h
devres.c	gfp.h
devres.c	interrupt.h
devres.c	module.h
div64.h	div64.h
dma-mapping.h	dma-debug.h
dma-mapping.h	dma-mapping-common.h
dma-mapping.h	machvec.h
dma-mapping.h	scatterlist.h
dma-mapping.h	swiotlb.h
dma.h	io.h
dmi.h	io.h
dmi.h	slab.h
do_mounts.c	async.h
do_mounts.c	ctype.h
do_mounts.c	delay.h
do_mounts.c	device.h
do_mounts.c	do_mounts.h
do_mounts.c	fd.h
do_mounts.c	fs.h
do_mounts.c	fs_struct.h
do_mounts.c	genhd.h
do_mounts.c	init.h
do_mounts.c	initrd.h
do_mounts.c	module.h
do_mounts.c	mount.h
do_mounts.c	nfs_fs.h
do_mounts.c	nfs_fs_sb.h
do_mounts.c	nfs_mount.h
do_mounts.c	root_dev.h
do_mounts.c	sched.h
do_mounts.c	security.h
do_mounts.c	slab.h
do_mounts.c	suspend.h
do_mounts.c	tty.h
do_mounts.h	blkdev.h
do_mounts.h	init.h
do_mounts.h	kernel.h
do_mounts.h	major.h
do_mounts.h	mount.h
do_mounts.h	root_dev.h
do_mounts.h	slab.h
do_mounts.h	syscalls.h
do_mounts.h	unistd.h
do_mounts_initrd.c	do_mounts.h
do_mounts_initrd.c	freezer.h
do_mounts_initrd.c	fs.h
do_mounts_initrd.c	initrd.h
do_mounts_initrd.c	kernel.h
do_mounts_initrd.c	kmod.h
do_mounts_initrd.c	minix_fs.h
do_mounts_initrd.c	romfs_fs.h
do_mounts_initrd.c	sched.h
do_mounts_initrd.c	unistd.h
do_mounts_md.c	delay.h
do_mounts_md.c	do_mounts.h
do_mounts_md.c	md_p.h
do_mounts_md.c	md_u.h
do_mounts_rd.c	cramfs_fs.h
do_mounts_rd.c	do_mounts.h
do_mounts_rd.c	ext2_fs.h
do_mounts_rd.c	fs.h
do_mounts_rd.c	generic.h
do_mounts_rd.c	initrd.h
do_mounts_rd.c	kernel.h
do_mounts_rd.c	minix_fs.h
do_mounts_rd.c	romfs_fs.h
do_mounts_rd.c	slab.h
do_mounts_rd.c	squashfs_fs.h
do_mounts_rd.c	string.h
dummychip.c	export.h
dummychip.c	internals.h
dummychip.c	interrupt.h
dummychip.c	irq.h
efi.c	check.h
efi.c	crc32.h
efi.c	ctype.h
efi.c	efi.h
efi.c	math64.h
efi.c	slab.h
efi.h	efi.h
efi.h	fs.h
efi.h	genhd.h
efi.h	kernel.h
efi.h	major.h
efi.h	string.h
efi.h	types.h
elevator.c	bio.h
elevator.c	blk-cgroup.h
elevator.c	blk.h
elevator.c	blkdev.h
elevator.c	blktrace_api.h
elevator.c	block.h
elevator.c	compiler.h
elevator.c	elevator.h
elevator.c	fs.h
elevator.c	hash.h
elevator.c	init.h
elevator.c	kernel.h
elevator.c	module.h
elevator.c	slab.h
elevator.c	uaccess.h
elf.h	auxvec.h
elf.h	fpu.h
elf.h	page.h
emergency-restart.h	emergency-restart.h
errno.h	errno.h
exit.c	acct.h
exit.c	audit.h
exit.c	binfmts.h
exit.c	blkdev.h
exit.c	capability.h
exit.c	cgroup.h
exit.c	cn_proc.h
exit.c	completion.h
exit.c	cpu.h
exit.c	delayacct.h
exit.c	fdtable.h
exit.c	file.h
exit.c	freezer.h
exit.c	fs_struct.h
exit.c	futex.h
exit.c	hw_breakpoint.h
exit.c	init_task.h
exit.c	interrupt.h
exit.c	iocontext.h
exit.c	key.h
exit.c	kthread.h
exit.c	mempolicy.h
exit.c	mm.h
exit.c	mmu_context.h
exit.c	module.h
exit.c	mount.h
exit.c	mutex.h
exit.c	nsproxy.h
exit.c	oom.h
exit.c	perf_event.h
exit.c	personality.h
exit.c	pgtable.h
exit.c	pid_namespace.h
exit.c	pipe_fs_i.h
exit.c	posix-timers.h
exit.c	proc_fs.h
exit.c	profile.h
exit.c	ptrace.h
exit.c	resource.h
exit.c	sched.h
exit.c	security.h
exit.c	shm.h
exit.c	signal.h
exit.c	slab.h
exit.c	syscalls.h
exit.c	task_io_accounting_ops.h
exit.c	taskstats_kern.h
exit.c	tracehook.h
exit.c	tsacct_kern.h
exit.c	tty.h
exit.c	uaccess.h
exit.c	unistd.h
exit.c	writeback.h
extable.c	ftrace.h
extable.c	init.h
extable.c	memory.h
extable.c	module.h
extable.c	mutex.h
extable.c	sections.h
extable.c	uaccess.h
fair.c	cpumask.h
fair.c	interrupt.h
fair.c	latencytop.h
fair.c	mempolicy.h
fair.c	migrate.h
fair.c	profile.h
fair.c	sched.h
fair.c	sched.h
fair.c	sched.h
fair.c	slab.h
fair.c	task_work.h
fb.h	efi.h
fb.h	fb.h
fb.h	fs.h
fb.h	page.h
fcntl.h	fcntl.h
fixup.c	init.h
fixup.c	machvec.h
fixup.c	pci.h
fpu.h	types.h
freezer.c	export.h
freezer.c	freezer.h
freezer.c	interrupt.h
freezer.c	kthread.h
freezer.c	suspend.h
freezer.c	syscalls.h
fs.c	debugfs.h
fs.c	fs.h
fs.c	gcov.h
fs.c	init.h
fs.c	list.h
fs.c	module.h
fs.c	mutex.h
fs.c	seq_file.h
fs.c	slab.h
fs.c	string.h
futex.h	errno.h
futex.h	futex.h
futex.h	uaccess.h
gcc_3_4.c	errno.h
gcc_3_4.c	gcov.h
gcc_3_4.c	seq_file.h
gcc_3_4.c	slab.h
gcc_3_4.c	string.h
gcc_3_4.c	vmalloc.h
gcc_intrin.h	gcc_intrin.h
gcc_intrin.h	gcc_intrin.h
gcov.h	types.h
generic-chip.c	export.h
generic-chip.c	internals.h
generic-chip.c	interrupt.h
generic-chip.c	io.h
generic-chip.c	irq.h
generic-chip.c	kernel_stat.h
generic-chip.c	slab.h
generic-chip.c	syscore_ops.h
genhd.c	blk.h
genhd.c	blkdev.h
genhd.c	fs.h
genhd.c	genhd.h
genhd.c	idr.h
genhd.c	init.h
genhd.c	kdev_t.h
genhd.c	kernel.h
genhd.c	kmod.h
genhd.c	kobj_map.h
genhd.c	log2.h
genhd.c	module.h
genhd.c	mutex.h
genhd.c	proc_fs.h
genhd.c	seq_file.h
genhd.c	slab.h
genhd.c	spinlock.h
gpio.h	gpio.h
handle.c	internals.h
handle.c	interrupt.h
handle.c	irq.h
handle.c	irq.h
handle.c	kernel_stat.h
handle.c	random.h
handle.c	sched.h
hardirq.h	irq.h
hardirq.h	processor.h
hardirq.h	threads.h
hugetlb.h	page.h
hw_irq.h	interrupt.h
hw_irq.h	machvec.h
hw_irq.h	paravirt.h
hw_irq.h	profile.h
hw_irq.h	ptrace.h
hw_irq.h	sched.h
hw_irq.h	smp.h
hw_irq.h	types.h
hypercall.h	physdev.h
hypercall.h	sched.h
hypercall.h	xcom_hcall.h
hypercall.h	xen.h
hypervisor.h	err.h
hypervisor.h	features.h
hypervisor.h	hypercall.h
hypervisor.h	version.h
hypervisor.h	xen.h
hypervisor.h	xen.h
ibm.c	buffer_head.h
ibm.c	check.h
ibm.c	dasd.h
ibm.c	ebcdic.h
ibm.c	hdreg.h
ibm.c	ibm.h
ibm.c	slab.h
ibm.c	uaccess.h
ibm.c	vtoc.h
idle_task.c	sched.h
ihex2fw.c	errno.h
ihex2fw.c	fcntl.h
ihex2fw.c	getopt.h
ihex2fw.c	inet.h
ihex2fw.c	mman.h
ihex2fw.c	stat.h
ihex2fw.c	stdint.h
ihex2fw.c	stdio.h
ihex2fw.c	stdlib.h
ihex2fw.c	string.h
ihex2fw.c	types.h
ihex2fw.c	unistd.h
init_task.c	export.h
init_task.c	fs.h
init_task.c	init.h
init_task.c	init_task.h
init_task.c	mm.h
init_task.c	mqueue.h
init_task.c	pgtable.h
init_task.c	sched.h
init_task.c	uaccess.h
initramfs.c	delay.h
initramfs.c	dirent.h
initramfs.c	fcntl.h
initramfs.c	fs.h
initramfs.c	generic.h
initramfs.c	init.h
initramfs.c	initrd.h
initramfs.c	kexec.h
initramfs.c	slab.h
initramfs.c	string.h
initramfs.c	syscalls.h
initramfs.c	types.h
initramfs.c	utime.h
inst.h	privop.h
inst.h	privop.h
intel_intrin.h	ia64intrin.h
interface.h	pvclock-abi.h
internals.h	debug.h
internals.h	irqdesc.h
internals.h	settings.h
intr.h	rcupdate.h
intr.h	types.h
intrinsics.h	cmpxchg.h
intrinsics.h	ia64regs.h
intrinsics.h	types.h
io.h	compiler.h
io.h	compiler.h
io.h	intrinsics.h
io.h	intrinsics.h
ioctl.c	backing-dev.h
ioctl.c	blkdev.h
ioctl.c	blkpg.h
ioctl.c	blktrace_api.h
ioctl.c	capability.h
ioctl.c	export.h
ioctl.c	fs.h
ioctl.c	gfp.h
ioctl.c	hdreg.h
ioctl.c	uaccess.h
ioctl.h	ioctl.h
ioctls.h	ioctls.h
iosapic.h	paravirt.h
ipcbuf.h	ipcbuf.h
irqdomain.c	debugfs.h
irqdomain.c	fs.h
irqdomain.c	hardirq.h
irqdomain.c	interrupt.h
irqdomain.c	irq.h
irqdomain.c	irqdesc.h
irqdomain.c	irqdomain.h
irqdomain.c	module.h
irqdomain.c	mutex.h
irqdomain.c	of.h
irqdomain.c	of_address.h
irqdomain.c	seq_file.h
irqdomain.c	slab.h
irqdomain.c	smp.h
irqdomain.c	topology.h
irqflags.h	pal.h
karma.c	check.h
karma.c	karma.h
kexec.h	setup.h
kmap_types.h	kmap_types.h
kprobes.h	break.h
kprobes.h	percpu.h
kprobes.h	ptrace.h
kprobes.h	types.h
ksysfs.c	capability.h
ksysfs.c	export.h
ksysfs.c	init.h
ksysfs.c	kexec.h
ksysfs.c	kobject.h
ksysfs.c	profile.h
ksysfs.c	sched.h
ksysfs.c	stat.h
ksysfs.c	string.h
ksysfs.c	sysfs.h
kvm.h	ioctl.h
kvm.h	types.h
kvm_host.h	kvm.h
kvm_host.h	kvm_para.h
kvm_host.h	kvm_types.h
kvm_host.h	mm.h
kvm_host.h	page.h
kvm_host.h	pal.h
kvm_host.h	sal.h
kvm_host.h	types.h
ldm.c	check.h
ldm.c	kernel.h
ldm.c	ldm.h
ldm.c	msdos.h
ldm.c	pagemap.h
ldm.c	slab.h
ldm.c	stringify.h
ldm.h	byteorder.h
ldm.h	fs.h
ldm.h	genhd.h
ldm.h	list.h
ldm.h	types.h
ldm.h	unaligned.h
leds.h	addrs.h
leds.h	pda.h
leds.h	shub_mmr.h
lglock.c	cpu.h
lglock.c	lglock.h
lglock.c	module.h
lglock.c	string.h
linkage.h	asmmacro.h
local64.h	local64.h
mac.c	check.h
mac.c	ctype.h
mac.c	mac.h
mac.c	machdep.h
machvec.h	types.h
machvec_init.h	iommu.h
machvec_init.h	machvec.h
machvec_sn2.h	io.h
main.c	acpi.h
main.c	async.h
main.c	bootmem.h
main.c	buffer_head.h
main.c	bugs.h
main.c	cacheflush.h
main.c	cgroup.h
main.c	cpu.h
main.c	cpuset.h
main.c	ctype.h
main.c	debug_locks.h
main.c	debugobjects.h
main.c	delay.h
main.c	delayacct.h
main.c	device.h
main.c	efi.h
main.c	file.h
main.c	ftrace.h
main.c	idr.h
main.c	init.h
main.c	initrd.h
main.c	interrupt.h
main.c	io.h
main.c	ioport.h
main.c	kallsyms.h
main.c	kernel.h
main.c	kernel_stat.h
main.c	key.h
main.c	kgdb.h
main.c	kmemcheck.h
main.c	kmemleak.h
main.c	kmod.h
main.c	kthread.h
main.c	lockdep.h
main.c	mempolicy.h
main.c	module.h
main.c	moduleparam.h
main.c	page_cgroup.h
main.c	percpu.h
main.c	perf_event.h
main.c	pid_namespace.h
main.c	proc_fs.h
main.c	profile.h
main.c	ptrace.h
main.c	rcupdate.h
main.c	rmap.h
main.c	sched.h
main.c	sections.h
main.c	security.h
main.c	setup.h
main.c	sfi.h
main.c	shmem_fs.h
main.c	signal.h
main.c	slab.h
main.c	smp.h
main.c	smp.h
main.c	stackprotector.h
main.c	start_kernel.h
main.c	string.h
main.c	syscalls.h
main.c	taskstats_kern.h
main.c	tick.h
main.c	tty.h
main.c	types.h
main.c	unistd.h
main.c	vmalloc.h
main.c	writeback.h
manage.c	internals.h
manage.c	interrupt.h
manage.c	irq.h
manage.c	kthread.h
manage.c	module.h
manage.c	random.h
manage.c	sched.h
manage.c	slab.h
manage.c	task_work.h
mca.h	interrupt.h
mca.h	mca_asm.h
mca.h	param.h
mca.h	processor.h
mca.h	sal.h
mca.h	types.h
mca_asm.h	percpu.h
migration.c	internals.h
migration.c	interrupt.h
migration.c	irq.h
mman.h	mman.h
mman.h	mman.h
mmu_context.h	compiler.h
mmu_context.h	mm_hooks.h
mmu_context.h	percpu.h
mmu_context.h	processor.h
mmu_context.h	sched.h
mmu_context.h	spinlock.h
mmzone.h	meminit.h
mmzone.h	numa.h
mmzone.h	page.h
msdos.c	check.h
msdos.c	efi.h
msdos.c	msdos.h
msdos.c	msdos_fs.h
msdos.c	unaligned.h
mutex-debug.c	debug_locks.h
mutex-debug.c	delay.h
mutex-debug.c	export.h
mutex-debug.c	interrupt.h
mutex-debug.c	kallsyms.h
mutex-debug.c	mutex-debug.h
mutex-debug.c	mutex.h
mutex-debug.c	poison.h
mutex-debug.c	sched.h
mutex-debug.c	spinlock.h
nodedata.h	mmzone.h
nodedata.h	numa.h
nodedata.h	percpu.h
nodepda.h	arch.h
nodepda.h	bte.h
nodepda.h	intr.h
nodepda.h	irq.h
noinitramfs.c	init.h
noinitramfs.c	kdev_t.h
noinitramfs.c	stat.h
noinitramfs.c	syscalls.h
noop-iosched.c	bio.h
noop-iosched.c	blkdev.h
noop-iosched.c	elevator.h
noop-iosched.c	init.h
noop-iosched.c	module.h
noop-iosched.c	slab.h
numa.h	cache.h
numa.h	cpumask.h
numa.h	mmzone.h
numa.h	numa.h
numa.h	smp.h
numa.h	threads.h
osf.c	check.h
osf.c	osf.h
pal.h	fpu.h
pal.h	types.h
param.h	param.h
param.h	param.h
params.c	ctype.h
params.c	device.h
params.c	err.h
params.c	errno.h
params.c	kernel.h
params.c	module.h
params.c	slab.h
params.c	string.h
paravirt.h	hw_irq.h
paravirt.h	meminit.h
paravirt_patch.h	intrinsics.h
paravirt_patch.h	stringify.h
partition-generic.c	blktrace_api.h
partition-generic.c	check.h
partition-generic.c	ctype.h
partition-generic.c	fs.h
partition-generic.c	genhd.h
partition-generic.c	init.h
partition-generic.c	kmod.h
partition-generic.c	module.h
partition-generic.c	slab.h
patch.h	elf.h
patch.h	types.h
pci.c	acpi.h
pci.c	bootmem.h
pci.c	export.h
pci.c	hw_irq.h
pci.c	init.h
pci.c	io.h
pci.c	ioport.h
pci.c	irq.h
pci.c	kernel.h
pci.c	machvec.h
pci.c	page.h
pci.c	pci.h
pci.c	sal.h
pci.c	slab.h
pci.c	smp.h
pci.c	spinlock.h
pci.c	types.h
pcibr_provider.h	intr.h
pcibr_provider.h	pcibus_provider_defs.h
pcidev.h	pci.h
pda.h	cache.h
pda.h	percpu.h
percpu.h	percpu.h
percpu.h	threads.h
perfmon.h	perfmon.h
perfmon.h	perfmon.h
pgalloc.h	compiler.h
pgalloc.h	mm.h
pgalloc.h	mmu_context.h
pgalloc.h	page-flags.h
pgalloc.h	quicklist.h
pgalloc.h	threads.h
pm.c	internals.h
pm.c	interrupt.h
pm.c	irq.h
pm.c	module.h
pm.c	syscore_ops.h
poll.h	poll.h
posix_types.h	posix_types.h
privop.h	interface.h
privop.h	types.h
proc.c	gfp.h
proc.c	internals.h
proc.c	interrupt.h
proc.c	irq.h
proc.c	kernel_stat.h
proc.c	proc_fs.h
proc.c	seq_file.h
processor.h	atomic.h
processor.h	cache.h
processor.h	compiler.h
processor.h	fpu.h
processor.h	intrinsics.h
processor.h	kregs.h
processor.h	nodedata.h
processor.h	page.h
processor.h	percpu.h
processor.h	ptrace.h
processor.h	rse.h
processor.h	threads.h
processor.h	types.h
processor.h	unwind.h
processor.h	ustack.h
ptrace.h	asm-offsets.h
ptrace.h	asm-offsets.h
ptrace.h	current.h
ptrace.h	current.h
ptrace.h	page.h
ptrace.h	page.h
ptrace.h	ptrace.h
ptrace.h	ptrace.h
resend.c	internals.h
resend.c	interrupt.h
resend.c	irq.h
resend.c	module.h
resend.c	random.h
resource.h	resource.h
resource.h	ustack.h
rt.c	sched.h
rt.c	slab.h
rtmutex-debug.c	debug_locks.h
rtmutex-debug.c	delay.h
rtmutex-debug.c	export.h
rtmutex-debug.c	fs.h
rtmutex-debug.c	interrupt.h
rtmutex-debug.c	kallsyms.h
rtmutex-debug.c	plist.h
rtmutex-debug.c	rtmutex_common.h
rtmutex-debug.c	sched.h
rtmutex-debug.c	spinlock.h
rtmutex-debug.c	syscalls.h
rtmutex.c	export.h
rtmutex.c	rtmutex_common.h
rtmutex.c	sched.h
rtmutex.c	spinlock.h
rtmutex.c	timer.h
rwsem.h	intrinsics.h
sal.h	bcd.h
sal.h	efi.h
sal.h	fpu.h
sal.h	pal.h
sal.h	spinlock.h
scatterlist.h	scatterlist.h
sched.h	auto_group.h
sched.h	cgroup.h
sched.h	cgroup.h
sched.h	cpupri.h
sched.h	features.h
sched.h	features.h
sched.h	mutex.h
sched.h	sched.h
sched.h	spinlock.h
sched.h	stats.h
sched.h	stop_machine.h
scsi_ioctl.c	blkdev.h
scsi_ioctl.c	capability.h
scsi_ioctl.c	cdrom.h
scsi_ioctl.c	completion.h
scsi_ioctl.c	errno.h
scsi_ioctl.c	kernel.h
scsi_ioctl.c	module.h
scsi_ioctl.c	ratelimit.h
scsi_ioctl.c	scsi.h
scsi_ioctl.c	scsi_cmnd.h
scsi_ioctl.c	scsi_ioctl.h
scsi_ioctl.c	sg.h
scsi_ioctl.c	slab.h
scsi_ioctl.c	string.h
scsi_ioctl.c	times.h
scsi_ioctl.c	uaccess.h
seccomp.c	atomic.h
seccomp.c	audit.h
seccomp.c	compat.h
seccomp.c	filter.h
seccomp.c	ptrace.h
seccomp.c	sched.h
seccomp.c	seccomp.h
seccomp.c	security.h
seccomp.c	slab.h
seccomp.c	syscall.h
seccomp.c	tracehook.h
seccomp.c	uaccess.h
sections.h	elf.h
sections.h	sections.h
sections.h	uaccess.h
sgi.c	check.h
sgi.c	sgi.h
sigcontext.h	fpu.h
siginfo.h	siginfo.h
siginfo.h	siginfo.h
siginfo.h	string.h
siginfo.h	string.h
signal.h	signal.h
signal.h	signal.h
smp.h	bitops.h
smp.h	cpumask.h
smp.h	init.h
smp.h	io.h
smp.h	irqreturn.h
smp.h	kernel.h
smp.h	param.h
smp.h	processor.h
smp.h	ptrace.h
smp.h	threads.h
sn_cpuid.h	addrs.h
sn_cpuid.h	intrinsics.h
sn_cpuid.h	pda.h
sn_cpuid.h	smp.h
sn_sal.h	arch.h
sn_sal.h	geo.h
sn_sal.h	nodepda.h
sn_sal.h	sal.h
sn_sal.h	shub_mmr.h
sn_sal.h	sn_cpuid.h
socket.h	sockios.h
spinlock.h	atomic.h
spinlock.h	bitops.h
spinlock.h	compiler.h
spinlock.h	intrinsics.h
spinlock.h	kernel.h
spurious.c	internals.h
spurious.c	interrupt.h
spurious.c	irq.h
spurious.c	jiffies.h
spurious.c	kallsyms.h
spurious.c	module.h
spurious.c	moduleparam.h
spurious.c	timer.h
statfs.h	statfs.h
stats.c	fs.h
stats.c	proc_fs.h
stats.c	sched.h
stats.c	seq_file.h
stats.c	slab.h
stop_task.c	sched.h
sun.c	check.h
sun.c	sun.h
swab.h	compiler.h
swab.h	intrinsics.h
swab.h	types.h
swiotlb.h	dma-mapping.h
swiotlb.h	swiotlb.h
switch_to.h	percpu.h
syscall.h	err.h
syscall.h	sched.h
sysv68.c	check.h
sysv68.c	sysv68.h
termbits.h	posix_types.h
termios.h	ioctls.h
termios.h	termbits.h
thread_info.h	asm-offsets.h
thread_info.h	processor.h
thread_info.h	ptrace.h
tioca_provider.h	tioca.h
tioce_provider.h	pcibus_provider_defs.h
tioce_provider.h	tioce.h
tlb.h	machvec.h
tlb.h	mm.h
tlb.h	pagemap.h
tlb.h	pgalloc.h
tlb.h	processor.h
tlb.h	swap.h
tlb.h	tlbflush.h
tlbflush.h	intrinsics.h
tlbflush.h	mm.h
tlbflush.h	mmu_context.h
tlbflush.h	page.h
topology.h	acpi.h
topology.h	numa.h
topology.h	smp.h
topology.h	topology.h
tracepoint.c	err.h
tracepoint.c	jhash.h
tracepoint.c	list.h
tracepoint.c	module.h
tracepoint.c	mutex.h
tracepoint.c	rcupdate.h
tracepoint.c	sched.h
tracepoint.c	slab.h
tracepoint.c	static_key.h
tracepoint.c	tracepoint.h
tracepoint.c	types.h
types.h	types.h
types.h	types.h
ultrix.c	check.h
ultrix.c	ultrix.h
unaligned.h	be_byteshift.h
unaligned.h	generic.h
unaligned.h	le_struct.h
unistd.h	compiler.h
unistd.h	compiler.h
unistd.h	linkage.h
unistd.h	linkage.h
unistd.h	types.h
unistd.h	types.h
unistd.h	unistd.h
unistd.h	unistd.h
user.c	bitops.h
user.c	export.h
user.c	init.h
user.c	interrupt.h
user.c	key.h
user.c	proc_fs.h
user.c	sched.h
user.c	slab.h
user.c	user_namespace.h
user.h	page.h
user.h	ptrace.h
user.h	types.h
ustack.h	page.h
ustack.h	page.h
ustack.h	ustack.h
ustack.h	ustack.h
uv.h	simulator.h
uv_hub.h	numa.h
uv_hub.h	percpu.h
uv_hub.h	percpu.h
uv_hub.h	types.h
version.c	compile.h
version.c	module.h
version.c	proc_fs.h
version.c	uts.h
version.c	utsname.h
version.c	utsrelease.h
version.c	version.h
xencomm.h	pgtable.h
xencomm.h	xencomm.h
