842.c	crypto.h
842.c	init.h
842.c	lzo.h
842.c	module.h
842.c	nx842.h
842.c	timer.h
842.c	vmalloc.h
ablkcipher.c	cpumask.h
ablkcipher.c	cryptouser.h
ablkcipher.c	err.h
ablkcipher.c	init.h
ablkcipher.c	internal.h
ablkcipher.c	kernel.h
ablkcipher.c	module.h
ablkcipher.c	netlink.h
ablkcipher.c	rtnetlink.h
ablkcipher.c	scatterwalk.h
ablkcipher.c	sched.h
ablkcipher.c	seq_file.h
ablkcipher.c	skcipher.h
ablkcipher.c	slab.h
acct.c	acct.h
acct.c	blkdev.h
acct.c	capability.h
acct.c	div64.h
acct.c	file.h
acct.c	jiffies.h
acct.c	mm.h
acct.c	mount.h
acct.c	pid_namespace.h
acct.c	security.h
acct.c	slab.h
acct.c	syscalls.h
acct.c	times.h
acct.c	tty.h
acct.c	uaccess.h
acct.c	vfs.h
aead.c	aead.h
aead.c	cryptouser.h
aead.c	err.h
aead.c	init.h
aead.c	internal.h
aead.c	kernel.h
aead.c	module.h
aead.c	netlink.h
aead.c	rtnetlink.h
aead.c	sched.h
aead.c	seq_file.h
aead.c	slab.h
aes_generic.c	aes.h
aes_generic.c	byteorder.h
aes_generic.c	crypto.h
aes_generic.c	errno.h
aes_generic.c	init.h
aes_generic.c	module.h
aes_generic.c	types.h
af_alg.c	atomic.h
af_alg.c	crypto.h
af_alg.c	if_alg.h
af_alg.c	init.h
af_alg.c	kernel.h
af_alg.c	list.h
af_alg.c	module.h
af_alg.c	net.h
af_alg.c	rwsem.h
ahash.c	cryptouser.h
ahash.c	err.h
ahash.c	hash.h
ahash.c	internal.h
ahash.c	kernel.h
ahash.c	module.h
ahash.c	netlink.h
ahash.c	scatterwalk.h
ahash.c	sched.h
ahash.c	seq_file.h
ahash.c	slab.h
alarmtimer.c	alarmtimer.h
alarmtimer.c	freezer.h
alarmtimer.c	hrtimer.h
alarmtimer.c	mutex.h
alarmtimer.c	platform_device.h
alarmtimer.c	posix-timers.h
alarmtimer.c	rtc.h
alarmtimer.c	time.h
alarmtimer.c	timerqueue.h
alarmtimer.c	workqueue.h
algapi.c	err.h
algapi.c	errno.h
algapi.c	init.h
algapi.c	internal.h
algapi.c	kernel.h
algapi.c	list.h
algapi.c	module.h
algapi.c	rtnetlink.h
algapi.c	slab.h
algapi.c	string.h
algboss.c	aead.h
algboss.c	completion.h
algboss.c	ctype.h
algboss.c	err.h
algboss.c	init.h
algboss.c	internal.h
algboss.c	kthread.h
algboss.c	module.h
algboss.c	notifier.h
algboss.c	rtnetlink.h
algboss.c	sched.h
algboss.c	slab.h
algboss.c	string.h
algif_hash.c	hash.h
algif_hash.c	if_alg.h
algif_hash.c	init.h
algif_hash.c	kernel.h
algif_hash.c	mm.h
algif_hash.c	module.h
algif_hash.c	net.h
algif_hash.c	sock.h
algif_skcipher.c	if_alg.h
algif_skcipher.c	init.h
algif_skcipher.c	kernel.h
algif_skcipher.c	list.h
algif_skcipher.c	mm.h
algif_skcipher.c	module.h
algif_skcipher.c	net.h
algif_skcipher.c	scatterwalk.h
algif_skcipher.c	skcipher.h
algif_skcipher.c	sock.h
ansi_cprng.c	err.h
ansi_cprng.c	init.h
ansi_cprng.c	internal.h
ansi_cprng.c	module.h
ansi_cprng.c	moduleparam.h
ansi_cprng.c	rng.h
ansi_cprng.c	string.h
anubis.c	byteorder.h
anubis.c	crypto.h
anubis.c	init.h
anubis.c	mm.h
anubis.c	module.h
anubis.c	types.h
api.c	err.h
api.c	errno.h
api.c	internal.h
api.c	kernel.h
api.c	kmod.h
api.c	module.h
api.c	param.h
api.c	sched.h
api.c	slab.h
api.c	string.h
arc4.c	algapi.h
arc4.c	crypto.h
arc4.c	init.h
arc4.c	module.h
asymmetric_type.c	asymmetric-parser.h
asymmetric_type.c	asymmetric-subtype.h
asymmetric_type.c	asymmetric_keys.h
asymmetric_type.c	module.h
asymmetric_type.c	seq_file.h
asymmetric_type.c	slab.h
async.c	async.h
async.c	atomic.h
async.c	export.h
async.c	ktime.h
async.c	sched.h
async.c	slab.h
async.c	wait.h
async.c	workqueue.h
async_memcpy.c	async_tx.h
async_memcpy.c	dma-mapping.h
async_memcpy.c	highmem.h
async_memcpy.c	kernel.h
async_memcpy.c	mm.h
async_memcpy.c	module.h
async_memset.c	async_tx.h
async_memset.c	dma-mapping.h
async_memset.c	interrupt.h
async_memset.c	kernel.h
async_memset.c	mm.h
async_pq.c	async_tx.h
async_pq.c	dma-mapping.h
async_pq.c	gfp.h
async_pq.c	interrupt.h
async_pq.c	kernel.h
async_pq.c	module.h
async_pq.c	pq.h
async_raid6_recov.c	async_tx.h
async_raid6_recov.c	dma-mapping.h
async_raid6_recov.c	interrupt.h
async_raid6_recov.c	kernel.h
async_raid6_recov.c	module.h
async_raid6_recov.c	pq.h
async_tx.c	async_tx.h
async_tx.c	kernel.h
async_tx.c	module.h
async_tx.c	rculist.h
async_xor.c	async_tx.h
async_xor.c	dma-mapping.h
async_xor.c	interrupt.h
async_xor.c	kernel.h
async_xor.c	mm.h
async_xor.c	module.h
async_xor.c	xor.h
audit.c	atomic.h
audit.c	audit.h
audit.c	audit.h
audit.c	err.h
audit.c	export.h
audit.c	freezer.h
audit.c	init.h
audit.c	kthread.h
audit.c	mm.h
audit.c	netlink.h
audit.c	netlink.h
audit.c	pid_namespace.h
audit.c	security.h
audit.c	skbuff.h
audit.c	slab.h
audit.c	sock.h
audit.c	tty.h
audit.c	types.h
audit.h	audit.h
audit.h	fs.h
audit.h	skbuff.h
audit_tree.c	audit.h
audit_tree.c	fsnotify_backend.h
audit_tree.c	kthread.h
audit_tree.c	mount.h
audit_tree.c	namei.h
audit_tree.c	slab.h
audit_watch.c	audit.h
audit_watch.c	audit.h
audit_watch.c	fs.h
audit_watch.c	fsnotify_backend.h
audit_watch.c	kernel.h
audit_watch.c	kthread.h
audit_watch.c	mutex.h
audit_watch.c	namei.h
audit_watch.c	netlink.h
audit_watch.c	sched.h
audit_watch.c	security.h
audit_watch.c	slab.h
auditfilter.c	audit.h
auditfilter.c	audit.h
auditfilter.c	fs.h
auditfilter.c	kernel.h
auditfilter.c	kthread.h
auditfilter.c	mutex.h
auditfilter.c	namei.h
auditfilter.c	netlink.h
auditfilter.c	sched.h
auditfilter.c	security.h
auditfilter.c	slab.h
auditsc.c	atomic.h
auditsc.c	audit.h
auditsc.c	audit.h
auditsc.c	binfmts.h
auditsc.c	capability.h
auditsc.c	compat.h
auditsc.c	compiler.h
auditsc.c	export.h
auditsc.c	fs.h
auditsc.c	fs_struct.h
auditsc.c	highmem.h
auditsc.c	init.h
auditsc.c	list.h
auditsc.c	mm.h
auditsc.c	mount.h
auditsc.c	mqueue.h
auditsc.c	namei.h
auditsc.c	netlink.h
auditsc.c	personality.h
auditsc.c	security.h
auditsc.c	slab.h
auditsc.c	socket.h
auditsc.c	syscalls.h
auditsc.c	time.h
auditsc.c	tty.h
auditsc.c	types.h
auditsc.c	unistd.h
authenc.c	aead.h
authenc.c	authenc.h
authenc.c	err.h
authenc.c	hash.h
authenc.c	init.h
authenc.c	kernel.h
authenc.c	module.h
authenc.c	rtnetlink.h
authenc.c	scatterwalk.h
authenc.c	skcipher.h
authenc.c	slab.h
authenc.c	spinlock.h
authencesn.c	aead.h
authencesn.c	authenc.h
authencesn.c	err.h
authencesn.c	hash.h
authencesn.c	init.h
authencesn.c	kernel.h
authencesn.c	module.h
authencesn.c	rtnetlink.h
authencesn.c	scatterwalk.h
authencesn.c	skcipher.h
authencesn.c	slab.h
authencesn.c	spinlock.h
autosleep.c	device.h
autosleep.c	mutex.h
autosleep.c	pm_wakeup.h
autosleep.c	power.h
backtracetest.c	completion.h
backtracetest.c	delay.h
backtracetest.c	interrupt.h
backtracetest.c	module.h
backtracetest.c	sched.h
backtracetest.c	stacktrace.h
blkcipher.c	cryptouser.h
blkcipher.c	errno.h
blkcipher.c	hardirq.h
blkcipher.c	internal.h
blkcipher.c	kernel.h
blkcipher.c	module.h
blkcipher.c	netlink.h
blkcipher.c	scatterlist.h
blkcipher.c	scatterwalk.h
blkcipher.c	seq_file.h
blkcipher.c	skcipher.h
blkcipher.c	slab.h
blkcipher.c	string.h
blktrace.c	blkdev.h
blktrace.c	blktrace_api.h
blktrace.c	block.h
blktrace.c	debugfs.h
blktrace.c	export.h
blktrace.c	init.h
blktrace.c	kernel.h
blktrace.c	mutex.h
blktrace.c	percpu.h
blktrace.c	slab.h
blktrace.c	time.h
blktrace.c	trace_output.h
blktrace.c	uaccess.h
block_io.c	bio.h
block_io.c	kernel.h
block_io.c	pagemap.h
block_io.c	power.h
block_io.c	swap.h
blowfish_common.c	blowfish.h
blowfish_common.c	byteorder.h
blowfish_common.c	crypto.h
blowfish_common.c	init.h
blowfish_common.c	mm.h
blowfish_common.c	module.h
blowfish_common.c	types.h
blowfish_generic.c	blowfish.h
blowfish_generic.c	byteorder.h
blowfish_generic.c	crypto.h
blowfish_generic.c	init.h
blowfish_generic.c	mm.h
blowfish_generic.c	module.h
blowfish_generic.c	types.h
bounds.c	kbuild.h
bounds.c	mmzone.h
bounds.c	page-flags.h
bounds.c	page_cgroup.h
callchain.c	internal.h
callchain.c	perf_event.h
callchain.c	slab.h
camellia_generic.c	bitops.h
camellia_generic.c	crypto.h
camellia_generic.c	errno.h
camellia_generic.c	init.h
camellia_generic.c	kernel.h
camellia_generic.c	module.h
camellia_generic.c	unaligned.h
capability.c	audit.h
capability.c	audit.h
capability.c	capability.h
capability.c	capability.h
capability.c	export.h
capability.c	export.h
capability.c	mm.h
capability.c	mm.h
capability.c	pid_namespace.h
capability.c	pid_namespace.h
capability.c	security.h
capability.c	security.h
capability.c	syscalls.h
capability.c	syscalls.h
capability.c	uaccess.h
capability.c	uaccess.h
capability.c	user_namespace.h
capability.c	user_namespace.h
cast5_generic.c	byteorder.h
cast5_generic.c	cast5.h
cast5_generic.c	crypto.h
cast5_generic.c	errno.h
cast5_generic.c	init.h
cast5_generic.c	module.h
cast5_generic.c	string.h
cast5_generic.c	types.h
cast6_generic.c	byteorder.h
cast6_generic.c	cast6.h
cast6_generic.c	crypto.h
cast6_generic.c	errno.h
cast6_generic.c	init.h
cast6_generic.c	module.h
cast6_generic.c	string.h
cast6_generic.c	types.h
cast_common.c	cast_common.h
cast_common.c	module.h
cbc.c	algapi.h
cbc.c	err.h
cbc.c	init.h
cbc.c	kernel.h
cbc.c	log2.h
cbc.c	module.h
cbc.c	scatterlist.h
cbc.c	slab.h
ccm.c	aead.h
ccm.c	err.h
ccm.c	init.h
ccm.c	internal.h
ccm.c	kernel.h
ccm.c	module.h
ccm.c	scatterwalk.h
ccm.c	skcipher.h
ccm.c	slab.h
cgroup.c	atomic.h
cgroup.c	backing-dev.h
cgroup.c	cgroup.h
cgroup.c	cgroup_subsys.h
cgroup.c	cgroupstats.h
cgroup.c	cred.h
cgroup.c	ctype.h
cgroup.c	delayacct.h
cgroup.c	errno.h
cgroup.c	eventfd.h
cgroup.c	flex_array.h
cgroup.c	fs.h
cgroup.c	hash.h
cgroup.c	idr.h
cgroup.c	init_task.h
cgroup.c	kernel.h
cgroup.c	kmod.h
cgroup.c	kthread.h
cgroup.c	list.h
cgroup.c	magic.h
cgroup.c	mm.h
cgroup.c	module.h
cgroup.c	mount.h
cgroup.c	mutex.h
cgroup.c	namei.h
cgroup.c	pagemap.h
cgroup.c	pid_namespace.h
cgroup.c	poll.h
cgroup.c	proc_fs.h
cgroup.c	rcupdate.h
cgroup.c	sched.h
cgroup.c	seq_file.h
cgroup.c	slab.h
cgroup.c	sort.h
cgroup.c	spinlock.h
cgroup.c	string.h
cgroup.c	vmalloc.h
cgroup_freezer.c	cgroup.h
cgroup_freezer.c	export.h
cgroup_freezer.c	freezer.h
cgroup_freezer.c	fs.h
cgroup_freezer.c	seq_file.h
cgroup_freezer.c	slab.h
cgroup_freezer.c	uaccess.h
chainiv.c	crypto_wq.h
chainiv.c	err.h
chainiv.c	init.h
chainiv.c	kernel.h
chainiv.c	module.h
chainiv.c	rng.h
chainiv.c	skcipher.h
chainiv.c	spinlock.h
chainiv.c	string.h
chainiv.c	workqueue.h
cipher.c	crypto.h
cipher.c	errno.h
cipher.c	internal.h
cipher.c	kernel.h
cipher.c	slab.h
cipher.c	string.h
clockevents.c	clockchips.h
clockevents.c	hrtimer.h
clockevents.c	init.h
clockevents.c	module.h
clockevents.c	notifier.h
clockevents.c	smp.h
clockevents.c	tick-internal.h
clocksource.c	clocksource.h
clocksource.c	device.h
clocksource.c	init.h
clocksource.c	kthread.h
clocksource.c	module.h
clocksource.c	sched.h
clocksource.c	tick.h
commoncap.c	audit.h
commoncap.c	binfmts.h
commoncap.c	capability.h
commoncap.c	file.h
commoncap.c	hugetlb.h
commoncap.c	init.h
commoncap.c	kernel.h
commoncap.c	mm.h
commoncap.c	mman.h
commoncap.c	module.h
commoncap.c	mount.h
commoncap.c	netlink.h
commoncap.c	pagemap.h
commoncap.c	personality.h
commoncap.c	prctl.h
commoncap.c	ptrace.h
commoncap.c	sched.h
commoncap.c	securebits.h
commoncap.c	security.h
commoncap.c	skbuff.h
commoncap.c	swap.h
commoncap.c	user_namespace.h
commoncap.c	xattr.h
compat.c	compat.h
compat.c	errno.h
compat.c	export.h
compat.c	gfp.h
compat.c	linkage.h
compat.c	migrate.h
compat.c	posix-timers.h
compat.c	ptrace.h
compat.c	sched.h
compat.c	security.h
compat.c	signal.h
compat.c	syscalls.h
compat.c	time.h
compat.c	times.h
compat.c	timex.h
compat.c	uaccess.h
compat.c	unistd.h
compress.c	crypto.h
compress.c	errno.h
compress.c	internal.h
compress.c	string.h
compress.c	types.h
configs.c	config_data.h
configs.c	init.h
configs.c	kernel.h
configs.c	module.h
configs.c	proc_fs.h
configs.c	seq_file.h
configs.c	uaccess.h
console.c	kbd_kern.h
console.c	module.h
console.c	power.h
console.c	vt.h
console.c	vt_kern.h
context_tracking.c	context_tracking.h
context_tracking.c	hardirq.h
context_tracking.c	percpu.h
context_tracking.c	rcupdate.h
context_tracking.c	sched.h
core.c	anon_inodes.h
core.c	cpu.h
core.c	dcache.h
core.c	device.h
core.c	export.h
core.c	file.h
core.c	fs.h
core.c	ftrace_event.h
core.c	hardirq.h
core.c	hash.h
core.c	hw_breakpoint.h
core.c	idr.h
core.c	internal.h
core.c	irq_regs.h
core.c	kernel_stat.h
core.c	mm.h
core.c	mm_types.h
core.c	percpu.h
core.c	perf_event.h
core.c	poll.h
core.c	ptrace.h
core.c	rculist.h
core.c	reboot.h
core.c	slab.h
core.c	smp.h
core.c	syscalls.h
core.c	sysfs.h
core.c	uaccess.h
core.c	vmalloc.h
core.c	vmstat.h
cpu.c	bug.h
cpu.c	cpu.h
cpu.c	export.h
cpu.c	gfp.h
cpu.c	init.h
cpu.c	kthread.h
cpu.c	mutex.h
cpu.c	notifier.h
cpu.c	oom.h
cpu.c	proc_fs.h
cpu.c	rcupdate.h
cpu.c	sched.h
cpu.c	smp.h
cpu.c	smpboot.h
cpu.c	stop_machine.h
cpu.c	suspend.h
cpu.c	unistd.h
cpu_pm.c	cpu_pm.h
cpu_pm.c	kernel.h
cpu_pm.c	module.h
cpu_pm.c	notifier.h
cpu_pm.c	spinlock.h
cpu_pm.c	syscore_ops.h
cpuset.c	atomic.h
cpuset.c	backing-dev.h
cpuset.c	cgroup.h
cpuset.c	cpu.h
cpuset.c	cpumask.h
cpuset.c	cpuset.h
cpuset.c	err.h
cpuset.c	errno.h
cpuset.c	export.h
cpuset.c	file.h
cpuset.c	fs.h
cpuset.c	init.h
cpuset.c	interrupt.h
cpuset.c	kernel.h
cpuset.c	kmod.h
cpuset.c	list.h
cpuset.c	memory.h
cpuset.c	mempolicy.h
cpuset.c	mm.h
cpuset.c	mount.h
cpuset.c	mutex.h
cpuset.c	namei.h
cpuset.c	pagemap.h
cpuset.c	proc_fs.h
cpuset.c	rcupdate.h
cpuset.c	sched.h
cpuset.c	security.h
cpuset.c	seq_file.h
cpuset.c	slab.h
cpuset.c	sort.h
cpuset.c	spinlock.h
cpuset.c	stat.h
cpuset.c	string.h
cpuset.c	time.h
cpuset.c	uaccess.h
cpuset.c	workqueue.h
crash_dump.c	crash_dump.h
crash_dump.c	errno.h
crash_dump.c	export.h
crash_dump.c	init.h
crash_dump.c	kernel.h
crc32c.c	crc32.h
crc32c.c	hash.h
crc32c.c	init.h
crc32c.c	kernel.h
crc32c.c	module.h
crc32c.c	string.h
cred.c	binfmts.h
cred.c	cn_proc.h
cred.c	cred.h
cred.c	export.h
cred.c	init_task.h
cred.c	key.h
cred.c	keyctl.h
cred.c	sched.h
cred.c	security.h
cred.c	slab.h
cryptd.c	aead.h
cryptd.c	algapi.h
cryptd.c	cryptd.h
cryptd.c	crypto_wq.h
cryptd.c	err.h
cryptd.c	hash.h
cryptd.c	init.h
cryptd.c	kernel.h
cryptd.c	list.h
cryptd.c	module.h
cryptd.c	scatterlist.h
cryptd.c	sched.h
cryptd.c	slab.h
crypto_null.c	hash.h
crypto_null.c	init.h
crypto_null.c	mm.h
crypto_null.c	module.h
crypto_null.c	skcipher.h
crypto_null.c	string.h
crypto_user.c	aead.h
crypto_user.c	crypto.h
crypto_user.c	cryptouser.h
crypto_user.c	internal.h
crypto_user.c	module.h
crypto_user.c	net_namespace.h
crypto_user.c	netlink.h
crypto_user.c	sched.h
crypto_user.c	security.h
crypto_user.c	skcipher.h
crypto_wq.c	algapi.h
crypto_wq.c	crypto_wq.h
crypto_wq.c	module.h
crypto_wq.c	workqueue.h
ctr.c	algapi.h
ctr.c	ctr.h
ctr.c	err.h
ctr.c	init.h
ctr.c	kernel.h
ctr.c	module.h
ctr.c	random.h
ctr.c	scatterlist.h
ctr.c	slab.h
cts.c	algapi.h
cts.c	err.h
cts.c	init.h
cts.c	kernel.h
cts.c	log2.h
cts.c	module.h
cts.c	scatterlist.h
cts.c	scatterwalk.h
cts.c	slab.h
debug_core.c	atomic.h
debug_core.c	byteorder.h
debug_core.c	cacheflush.h
debug_core.c	clocksource.h
debug_core.c	console.h
debug_core.c	debug_core.h
debug_core.c	delay.h
debug_core.c	init.h
debug_core.c	interrupt.h
debug_core.c	kdb.h
debug_core.c	kernel.h
debug_core.c	kgdb.h
debug_core.c	mm.h
debug_core.c	module.h
debug_core.c	pid.h
debug_core.c	pid_namespace.h
debug_core.c	ptrace.h
debug_core.c	rcupdate.h
debug_core.c	reboot.h
debug_core.c	sched.h
debug_core.c	smp.h
debug_core.c	spinlock.h
debug_core.c	string.h
debug_core.c	sysrq.h
debug_core.c	threads.h
debug_core.c	uaccess.h
deflate.c	crypto.h
deflate.c	init.h
deflate.c	interrupt.h
deflate.c	mm.h
deflate.c	module.h
deflate.c	net.h
deflate.c	vmalloc.h
deflate.c	zlib.h
delayacct.c	delayacct.h
delayacct.c	module.h
delayacct.c	sched.h
delayacct.c	slab.h
delayacct.c	sysctl.h
delayacct.c	taskstats.h
delayacct.c	time.h
des_generic.c	bitops.h
des_generic.c	byteorder.h
des_generic.c	crypto.h
des_generic.c	des.h
des_generic.c	errno.h
des_generic.c	init.h
des_generic.c	module.h
des_generic.c	types.h
digsig.c	digsig.h
digsig.c	err.h
digsig.c	integrity.h
digsig.c	key-type.h
digsig.c	rbtree.h
dma.c	dma.h
dma.c	errno.h
dma.c	export.h
dma.c	init.h
dma.c	kernel.h
dma.c	proc_fs.h
dma.c	seq_file.h
dma.c	spinlock.h
dma.c	string.h
domain.c	binfmts.h
domain.c	common.h
domain.c	slab.h
ecb.c	algapi.h
ecb.c	err.h
ecb.c	init.h
ecb.c	kernel.h
ecb.c	module.h
ecb.c	scatterlist.h
ecb.c	slab.h
elfcore.c	elf.h
elfcore.c	elf.h
elfcore.c	fs.h
elfcore.c	mm.h
eseqiv.c	err.h
eseqiv.c	init.h
eseqiv.c	kernel.h
eseqiv.c	mm.h
eseqiv.c	module.h
eseqiv.c	rng.h
eseqiv.c	scatterlist.h
eseqiv.c	scatterwalk.h
eseqiv.c	skcipher.h
eseqiv.c	spinlock.h
eseqiv.c	string.h
evm.h	integrity.h
evm.h	security.h
evm.h	xattr.h
evm_crypto.c	crypto.h
evm_crypto.c	encrypted-type.h
evm_crypto.c	evm.h
evm_crypto.c	hash.h
evm_crypto.c	module.h
evm_crypto.c	xattr.h
evm_main.c	crypto.h
evm_main.c	evm.h
evm_main.c	evm.h
evm_main.c	hash.h
evm_main.c	integrity.h
evm_main.c	module.h
evm_main.c	xattr.h
evm_posix_acl.c	module.h
evm_posix_acl.c	xattr.h
evm_secfs.c	evm.h
evm_secfs.c	module.h
evm_secfs.c	uaccess.h
exec_domain.c	fs_struct.h
exec_domain.c	init.h
exec_domain.c	kernel.h
exec_domain.c	kmod.h
exec_domain.c	module.h
exec_domain.c	personality.h
exec_domain.c	proc_fs.h
exec_domain.c	sched.h
exec_domain.c	seq_file.h
exec_domain.c	syscalls.h
exec_domain.c	sysctl.h
exec_domain.c	types.h
fcrypt.c	bitops.h
fcrypt.c	byteorder.h
fcrypt.c	crypto.h
fcrypt.c	init.h
fcrypt.c	module.h
fips.c	internal.h
fork.c	acct.h
fork.c	audit.h
fork.c	binfmts.h
fork.c	blkdev.h
fork.c	cacheflush.h
fork.c	capability.h
fork.c	cgroup.h
fork.c	cn_proc.h
fork.c	compat.h
fork.c	completion.h
fork.c	cpu.h
fork.c	delayacct.h
fork.c	fdtable.h
fork.c	file.h
fork.c	freezer.h
fork.c	fs.h
fork.c	fs_struct.h
fork.c	ftrace.h
fork.c	futex.h
fork.c	hugetlb.h
fork.c	init.h
fork.c	init_task.h
fork.c	iocontext.h
fork.c	jiffies.h
fork.c	key.h
fork.c	khugepaged.h
fork.c	ksm.h
fork.c	kthread.h
fork.c	magic.h
fork.c	memcontrol.h
fork.c	mempolicy.h
fork.c	mman.h
fork.c	mmu_context.h
fork.c	mmu_notifier.h
fork.c	module.h
fork.c	mount.h
fork.c	nsproxy.h
fork.c	oom.h
fork.c	perf_event.h
fork.c	personality.h
fork.c	pgalloc.h
fork.c	pgtable.h
fork.c	posix-timers.h
fork.c	proc_fs.h
fork.c	profile.h
fork.c	ptrace.h
fork.c	random.h
fork.c	rcupdate.h
fork.c	rmap.h
fork.c	sched.h
fork.c	seccomp.h
fork.c	security.h
fork.c	sem.h
fork.c	signalfd.h
fork.c	slab.h
fork.c	swap.h
fork.c	syscalls.h
fork.c	task.h
fork.c	task_io_accounting_ops.h
fork.c	taskstats_kern.h
fork.c	tlbflush.h
fork.c	tsacct_kern.h
fork.c	tty.h
fork.c	uaccess.h
fork.c	unistd.h
fork.c	uprobes.h
fork.c	user-return-notifier.h
fork.c	vmalloc.h
ftrace.c	bsearch.h
ftrace.c	clocksource.h
ftrace.c	ctype.h
ftrace.c	debugfs.h
ftrace.c	ftrace.h
ftrace.c	hardirq.h
ftrace.c	hash.h
ftrace.c	kallsyms.h
ftrace.c	kthread.h
ftrace.c	list.h
ftrace.c	module.h
ftrace.c	rcupdate.h
ftrace.c	sched.h
ftrace.c	seq_file.h
ftrace.c	setup.h
ftrace.c	slab.h
ftrace.c	sort.h
ftrace.c	stop_machine.h
ftrace.c	suspend.h
ftrace.c	sysctl.h
ftrace.c	trace_output.h
ftrace.c	trace_stat.h
ftrace.c	uaccess.h
futex.c	export.h
futex.c	file.h
futex.c	fs.h
futex.c	futex.h
futex.c	futex.h
futex.c	init.h
futex.c	jhash.h
futex.c	magic.h
futex.c	mount.h
futex.c	nsproxy.h
futex.c	pagemap.h
futex.c	pid.h
futex.c	poll.h
futex.c	ptrace.h
futex.c	rtmutex_common.h
futex.c	signal.h
futex.c	slab.h
futex.c	syscalls.h
futex_compat.c	compat.h
futex_compat.c	futex.h
futex_compat.c	linkage.h
futex_compat.c	nsproxy.h
futex_compat.c	ptrace.h
futex_compat.c	uaccess.h
gcm.c	aead.h
gcm.c	completion.h
gcm.c	err.h
gcm.c	gf128mul.h
gcm.c	hash.h
gcm.c	hash.h
gcm.c	init.h
gcm.c	internal.h
gcm.c	kernel.h
gcm.c	module.h
gcm.c	scatterwalk.h
gcm.c	skcipher.h
gcm.c	slab.h
gdbstub.c	cacheflush.h
gdbstub.c	debug_core.h
gdbstub.c	kdb.h
gdbstub.c	kernel.h
gdbstub.c	kgdb.h
gdbstub.c	reboot.h
gdbstub.c	uaccess.h
gdbstub.c	unaligned.h
gf128mul.c	gf128mul.h
gf128mul.c	kernel.h
gf128mul.c	module.h
gf128mul.c	slab.h
ghash-generic.c	algapi.h
ghash-generic.c	crypto.h
ghash-generic.c	gf128mul.h
ghash-generic.c	hash.h
ghash-generic.c	init.h
ghash-generic.c	kernel.h
ghash-generic.c	module.h
groups.c	cred.h
groups.c	export.h
groups.c	security.h
groups.c	slab.h
groups.c	syscalls.h
groups.c	uaccess.h
hibernate.c	async.h
hibernate.c	console.h
hibernate.c	cpu.h
hibernate.c	ctype.h
hibernate.c	delay.h
hibernate.c	device.h
hibernate.c	export.h
hibernate.c	freezer.h
hibernate.c	fs.h
hibernate.c	genhd.h
hibernate.c	gfp.h
hibernate.c	mount.h
hibernate.c	pm.h
hibernate.c	power.h
hibernate.c	reboot.h
hibernate.c	string.h
hibernate.c	suspend.h
hibernate.c	syscalls.h
hibernate.c	syscore_ops.h
hmac.c	err.h
hmac.c	hash.h
hmac.c	init.h
hmac.c	kernel.h
hmac.c	module.h
hmac.c	scatterlist.h
hmac.c	scatterwalk.h
hmac.c	string.h
hrtimer.c	cpu.h
hrtimer.c	debugobjects.h
hrtimer.c	err.h
hrtimer.c	export.h
hrtimer.c	hrtimer.h
hrtimer.c	interrupt.h
hrtimer.c	kallsyms.h
hrtimer.c	notifier.h
hrtimer.c	percpu.h
hrtimer.c	sched.h
hrtimer.c	seq_file.h
hrtimer.c	syscalls.h
hrtimer.c	tick.h
hrtimer.c	timer.h
hrtimer.c	timer.h
hrtimer.c	uaccess.h
hung_task.c	cpu.h
hung_task.c	delay.h
hung_task.c	export.h
hung_task.c	freezer.h
hung_task.c	init.h
hung_task.c	kthread.h
hung_task.c	lockdep.h
hung_task.c	mm.h
hung_task.c	nmi.h
hung_task.c	sysctl.h
hw_breakpoint.c	cpu.h
hw_breakpoint.c	hw_breakpoint.h
hw_breakpoint.c	init.h
hw_breakpoint.c	irqflags.h
hw_breakpoint.c	kallsyms.h
hw_breakpoint.c	kdebug.h
hw_breakpoint.c	kernel.h
hw_breakpoint.c	kprobes.h
hw_breakpoint.c	list.h
hw_breakpoint.c	module.h
hw_breakpoint.c	notifier.h
hw_breakpoint.c	percpu.h
hw_breakpoint.c	sched.h
hw_breakpoint.c	slab.h
hw_breakpoint.c	smp.h
iint.c	integrity.h
iint.c	module.h
iint.c	rbtree.h
iint.c	slab.h
iint.c	spinlock.h
ima.h	audit.h
ima.h	crypto.h
ima.h	hash.h
ima.h	integrity.h
ima.h	security.h
ima.h	tpm.h
ima.h	types.h
ima_api.c	evm.h
ima_api.c	file.h
ima_api.c	fs.h
ima_api.c	ima.h
ima_api.c	module.h
ima_api.c	slab.h
ima_api.c	xattr.h
ima_appraise.c	evm.h
ima_appraise.c	file.h
ima_appraise.c	fs.h
ima_appraise.c	ima.h
ima_appraise.c	ima.h
ima_appraise.c	magic.h
ima_appraise.c	module.h
ima_appraise.c	xattr.h
ima_audit.c	audit.h
ima_audit.c	fs.h
ima_audit.c	gfp.h
ima_audit.c	ima.h
ima_crypto.c	crypto.h
ima_crypto.c	err.h
ima_crypto.c	file.h
ima_crypto.c	ima.h
ima_crypto.c	kernel.h
ima_crypto.c	scatterlist.h
ima_crypto.c	slab.h
ima_fs.c	fcntl.h
ima_fs.c	ima.h
ima_fs.c	module.h
ima_fs.c	parser.h
ima_fs.c	rculist.h
ima_fs.c	rcupdate.h
ima_fs.c	seq_file.h
ima_fs.c	slab.h
ima_init.c	err.h
ima_init.c	ima.h
ima_init.c	module.h
ima_init.c	scatterlist.h
ima_init.c	slab.h
ima_main.c	binfmts.h
ima_main.c	file.h
ima_main.c	ima.h
ima_main.c	ima.h
ima_main.c	mman.h
ima_main.c	module.h
ima_main.c	mount.h
ima_main.c	slab.h
ima_main.c	xattr.h
ima_policy.c	ima.h
ima_policy.c	list.h
ima_policy.c	magic.h
ima_policy.c	module.h
ima_policy.c	parser.h
ima_policy.c	security.h
ima_policy.c	slab.h
ima_queue.c	ima.h
ima_queue.c	module.h
ima_queue.c	rculist.h
ima_queue.c	slab.h
inode.c	fs.h
inode.c	init.h
inode.c	magic.h
inode.c	module.h
inode.c	mount.h
inode.c	namei.h
inode.c	pagemap.h
inode.c	security.h
integrity.h	integrity.h
integrity.h	sha.h
integrity.h	types.h
internal.h	hardirq.h
internal.h	hardirq.h
internal.h	uaccess.h
internal.h	uaccess.h
irq_work.c	bug.h
irq_work.c	export.h
irq_work.c	hardirq.h
irq_work.c	irq_work.h
irq_work.c	irqflags.h
irq_work.c	kernel.h
irq_work.c	percpu.h
irq_work.c	processor.h
irqdesc.c	bitmap.h
irqdesc.c	export.h
irqdesc.c	internals.h
irqdesc.c	interrupt.h
irqdesc.c	irq.h
irqdesc.c	kernel_stat.h
irqdesc.c	radix-tree.h
irqdesc.c	slab.h
itimer.c	hrtimer.h
itimer.c	interrupt.h
itimer.c	mm.h
itimer.c	posix-timers.h
itimer.c	syscalls.h
itimer.c	time.h
itimer.c	timer.h
itimer.c	uaccess.h
jiffies.c	clocksource.h
jiffies.c	init.h
jiffies.c	jiffies.h
jiffies.c	module.h
jiffies.c	tick-internal.h
jump_label.c	err.h
jump_label.c	list.h
jump_label.c	memory.h
jump_label.c	module.h
jump_label.c	slab.h
jump_label.c	sort.h
jump_label.c	static_key.h
jump_label.c	uaccess.h
kallsyms.c	ctype.h
kallsyms.c	err.h
kallsyms.c	fs.h
kallsyms.c	init.h
kallsyms.c	kallsyms.h
kallsyms.c	kdb.h
kallsyms.c	mm.h
kallsyms.c	module.h
kallsyms.c	proc_fs.h
kallsyms.c	sched.h
kallsyms.c	sections.h
kallsyms.c	seq_file.h
kallsyms.c	slab.h
kcmp.c	bug.h
kcmp.c	cache.h
kcmp.c	err.h
kcmp.c	errno.h
kcmp.c	fdtable.h
kcmp.c	init.h
kcmp.c	kcmp.h
kcmp.c	kernel.h
kcmp.c	module.h
kcmp.c	ptrace.h
kcmp.c	random.h
kcmp.c	string.h
kcmp.c	syscalls.h
kcmp.c	unistd.h
kdb_bp.c	init.h
kdb_bp.c	interrupt.h
kdb_bp.c	kdb.h
kdb_bp.c	kdb_private.h
kdb_bp.c	kernel.h
kdb_bp.c	kgdb.h
kdb_bp.c	sched.h
kdb_bp.c	smp.h
kdb_bp.c	string.h
kdb_bt.c	ctype.h
kdb_bt.c	kdb.h
kdb_bt.c	kdb_private.h
kdb_bt.c	kernel.h
kdb_bt.c	nmi.h
kdb_bt.c	sched.h
kdb_bt.c	string.h
kdb_debugger.c	debug_core.h
kdb_debugger.c	export.h
kdb_debugger.c	hardirq.h
kdb_debugger.c	kdb.h
kdb_debugger.c	kdb_private.h
kdb_debugger.c	kdebug.h
kdb_debugger.c	kgdb.h
kdb_io.c	console.h
kdb_io.c	ctype.h
kdb_io.c	delay.h
kdb_io.c	init.h
kdb_io.c	kallsyms.h
kdb_io.c	kdb.h
kdb_io.c	kdb_private.h
kdb_io.c	kdev_t.h
kdb_io.c	kernel.h
kdb_io.c	kgdb.h
kdb_io.c	module.h
kdb_io.c	nmi.h
kdb_io.c	sched.h
kdb_io.c	smp.h
kdb_io.c	string.h
kdb_io.c	types.h
kdb_keyboard.c	ctype.h
kdb_keyboard.c	io.h
kdb_keyboard.c	kdb.h
kdb_keyboard.c	keyboard.h
kdb_keyboard.c	module.h
kdb_main.c	atomic.h
kdb_main.c	cpu.h
kdb_main.c	ctype.h
kdb_main.c	delay.h
kdb_main.c	init.h
kdb_main.c	interrupt.h
kdb_main.c	kallsyms.h
kdb_main.c	kdb.h
kdb_main.c	kdb_private.h
kdb_main.c	kdebug.h
kdb_main.c	kernel.h
kdb_main.c	kgdb.h
kdb_main.c	kmsg_dump.h
kdb_main.c	mm.h
kdb_main.c	module.h
kdb_main.c	nmi.h
kdb_main.c	notifier.h
kdb_main.c	proc_fs.h
kdb_main.c	ptrace.h
kdb_main.c	reboot.h
kdb_main.c	sched.h
kdb_main.c	slab.h
kdb_main.c	smp.h
kdb_main.c	string.h
kdb_main.c	sysctl.h
kdb_main.c	sysrq.h
kdb_main.c	time.h
kdb_main.c	uaccess.h
kdb_main.c	utsname.h
kdb_main.c	vmalloc.h
kdb_private.h	debug_core.h
kdb_private.h	kgdb.h
kdb_support.c	delay.h
kdb_support.c	hardirq.h
kdb_support.c	highmem.h
kdb_support.c	kallsyms.h
kdb_support.c	kdb.h
kdb_support.c	kdb_private.h
kdb_support.c	mm.h
kdb_support.c	module.h
kdb_support.c	ptrace.h
kdb_support.c	sched.h
kdb_support.c	slab.h
kdb_support.c	stdarg.h
kdb_support.c	stddef.h
kdb_support.c	types.h
kdb_support.c	uaccess.h
kdb_support.c	vmalloc.h
kexec.c	capability.h
kexec.c	console.h
kexec.c	cpu.h
kexec.c	device.h
kexec.c	elf.h
kexec.c	elfcore.h
kexec.c	file.h
kexec.c	freezer.h
kexec.c	fs.h
kexec.c	hardirq.h
kexec.c	highmem.h
kexec.c	io.h
kexec.c	ioport.h
kexec.c	kexec.h
kexec.c	list.h
kexec.c	mm.h
kexec.c	mutex.h
kexec.c	numa.h
kexec.c	page.h
kexec.c	pm.h
kexec.c	reboot.h
kexec.c	sections.h
kexec.c	slab.h
kexec.c	suspend.h
kexec.c	swap.h
kexec.c	syscalls.h
kexec.c	syscore_ops.h
kexec.c	uaccess.h
kexec.c	utsname.h
kexec.c	vmalloc.h
kfifo.c	err.h
kfifo.c	export.h
kfifo.c	kernel.h
kfifo.c	kfifo.h
kfifo.c	log2.h
kfifo.c	slab.h
kfifo.c	uaccess.h
khazad.c	byteorder.h
khazad.c	crypto.h
khazad.c	init.h
khazad.c	mm.h
khazad.c	module.h
khazad.c	types.h
kmod.c	completion.h
kmod.c	cred.h
kmod.c	fdtable.h
kmod.c	file.h
kmod.c	init.h
kmod.c	kernel.h
kmod.c	kmod.h
kmod.c	module.h
kmod.c	module.h
kmod.c	mount.h
kmod.c	notifier.h
kmod.c	ptrace.h
kmod.c	resource.h
kmod.c	rwsem.h
kmod.c	sched.h
kmod.c	security.h
kmod.c	slab.h
kmod.c	suspend.h
kmod.c	syscalls.h
kmod.c	uaccess.h
kmod.c	unistd.h
kmod.c	workqueue.h
kprobes.c	cacheflush.h
kprobes.c	cpu.h
kprobes.c	debugfs.h
kprobes.c	errno.h
kprobes.c	export.h
kprobes.c	freezer.h
kprobes.c	ftrace.h
kprobes.c	hash.h
kprobes.c	init.h
kprobes.c	jump_label.h
kprobes.c	kallsyms.h
kprobes.c	kdebug.h
kprobes.c	kprobes.h
kprobes.c	memory.h
kprobes.c	moduleloader.h
kprobes.c	sections.h
kprobes.c	seq_file.h
kprobes.c	slab.h
kprobes.c	stddef.h
kprobes.c	sysctl.h
kprobes.c	uaccess.h
krng.c	err.h
krng.c	init.h
krng.c	module.h
krng.c	random.h
krng.c	rng.h
kthread.c	completion.h
kthread.c	cpuset.h
kthread.c	err.h
kthread.c	export.h
kthread.c	file.h
kthread.c	freezer.h
kthread.c	kthread.h
kthread.c	mutex.h
kthread.c	ptrace.h
kthread.c	sched.h
kthread.c	sched.h
kthread.c	slab.h
kthread.c	unistd.h
latencytop.c	export.h
latencytop.c	kallsyms.h
latencytop.c	latencytop.h
latencytop.c	list.h
latencytop.c	notifier.h
latencytop.c	proc_fs.h
latencytop.c	sched.h
latencytop.c	seq_file.h
latencytop.c	spinlock.h
latencytop.c	stacktrace.h
load_policy.c	common.h
lockdep.c	bitops.h
lockdep.c	debug_locks.h
lockdep.c	delay.h
lockdep.c	ftrace.h
lockdep.c	gfp.h
lockdep.c	hash.h
lockdep.c	interrupt.h
lockdep.c	irqflags.h
lockdep.c	kallsyms.h
lockdep.c	kmemcheck.h
lockdep.c	lock.h
lockdep.c	lockdep_internals.h
lockdep.c	lockdep_states.h
lockdep.c	lockdep_states.h
lockdep.c	lockdep_states.h
lockdep.c	lockdep_states.h
lockdep.c	lockdep_states.h
lockdep.c	lockdep_states.h
lockdep.c	lockdep_states.h
lockdep.c	lockdep_states.h
lockdep.c	module.h
lockdep.c	mutex.h
lockdep.c	proc_fs.h
lockdep.c	sched.h
lockdep.c	sections.h
lockdep.c	seq_file.h
lockdep.c	spinlock.h
lockdep.c	stacktrace.h
lockdep.c	stringify.h
lockdep.c	utsname.h
lockdep_internals.h	local.h
lockdep_internals.h	lockdep_states.h
lockdep_internals.h	lockdep_states.h
lockdep_proc.c	debug_locks.h
lockdep_proc.c	div64.h
lockdep_proc.c	export.h
lockdep_proc.c	kallsyms.h
lockdep_proc.c	lockdep_internals.h
lockdep_proc.c	proc_fs.h
lockdep_proc.c	seq_file.h
lockdep_proc.c	sort.h
lockdep_proc.c	uaccess.h
lockdep_proc.c	vmalloc.h
lrw.c	algapi.h
lrw.c	b128ops.h
lrw.c	err.h
lrw.c	gf128mul.h
lrw.c	init.h
lrw.c	kernel.h
lrw.c	lrw.h
lrw.c	module.h
lrw.c	scatterlist.h
lrw.c	slab.h
lzo.c	crypto.h
lzo.c	init.h
lzo.c	lzo.h
lzo.c	module.h
lzo.c	vmalloc.h
main.c	debugfs.h
main.c	export.h
main.c	kobject.h
main.c	power.h
main.c	resume-trace.h
main.c	seq_file.h
main.c	string.h
main.c	workqueue.h
md4.c	byteorder.h
md4.c	hash.h
md4.c	init.h
md4.c	kernel.h
md4.c	module.h
md4.c	string.h
md4.c	types.h
md5.c	byteorder.h
md5.c	cryptohash.h
md5.c	hash.h
md5.c	init.h
md5.c	md5.h
md5.c	module.h
md5.c	string.h
md5.c	types.h
michael_mic.c	byteorder.h
michael_mic.c	hash.h
michael_mic.c	init.h
michael_mic.c	module.h
michael_mic.c	string.h
michael_mic.c	types.h
min_addr.c	init.h
min_addr.c	mm.h
min_addr.c	security.h
min_addr.c	sysctl.h
modsign_pubkey.c	asymmetric-type.h
modsign_pubkey.c	cred.h
modsign_pubkey.c	err.h
modsign_pubkey.c	kernel.h
modsign_pubkey.c	module-internal.h
modsign_pubkey.c	sched.h
module.c	async.h
module.c	bsearch.h
module.c	cacheflush.h
module.c	capability.h
module.c	cpu.h
module.c	device.h
module.c	elf.h
module.c	err.h
module.c	errno.h
module.c	export.h
module.c	fcntl.h
module.c	file.h
module.c	fips.h
module.c	fs.h
module.c	ftrace.h
module.c	ftrace_event.h
module.c	init.h
module.c	jump_label.h
module.c	kallsyms.h
module.c	kernel.h
module.c	kmemleak.h
module.c	license.h
module.c	mmu_context.h
module.c	module-internal.h
module.c	module.h
module.c	module.h
module.c	moduleloader.h
module.c	moduleparam.h
module.c	mutex.h
module.c	notifier.h
module.c	percpu.h
module.c	pfn.h
module.c	proc_fs.h
module.c	rculist.h
module.c	rcupdate.h
module.c	sched.h
module.c	sections.h
module.c	security.h
module.c	seq_file.h
module.c	slab.h
module.c	stop_machine.h
module.c	string.h
module.c	syscalls.h
module.c	sysfs.h
module.c	tracepoint.h
module.c	uaccess.h
module.c	vermagic.h
module.c	vmalloc.h
module_signing.c	asymmetric-type.h
module_signing.c	err.h
module_signing.c	hash.h
module_signing.c	kernel.h
module_signing.c	module-internal.h
module_signing.c	public_key.h
mount.c	common.h
mount.c	slab.h
mutex.c	debug_locks.h
mutex.c	export.h
mutex.c	interrupt.h
mutex.c	mutex.h
mutex.c	sched.h
mutex.c	spinlock.h
notifier.c	export.h
notifier.c	kdebug.h
notifier.c	kprobes.h
notifier.c	notifier.h
notifier.c	rcupdate.h
notifier.c	reboot.h
notifier.c	vmalloc.h
nsproxy.c	export.h
nsproxy.c	file.h
nsproxy.c	init_task.h
nsproxy.c	ipc_namespace.h
nsproxy.c	mnt_namespace.h
nsproxy.c	net_namespace.h
nsproxy.c	nsproxy.h
nsproxy.c	pid_namespace.h
nsproxy.c	proc_fs.h
nsproxy.c	slab.h
nsproxy.c	syscalls.h
nsproxy.c	utsname.h
ntp.c	capability.h
ntp.c	clocksource.h
ntp.c	hrtimer.h
ntp.c	jiffies.h
ntp.c	math64.h
ntp.c	mm.h
ntp.c	module.h
ntp.c	tick-internal.h
ntp.c	time.h
ntp.c	timex.h
ntp.c	workqueue.h
padata.c	cpu.h
padata.c	cpumask.h
padata.c	err.h
padata.c	export.h
padata.c	mutex.h
padata.c	padata.h
padata.c	rcupdate.h
padata.c	sched.h
padata.c	slab.h
padata.c	sysfs.h
panic.c	debug_locks.h
panic.c	delay.h
panic.c	dmi.h
panic.c	init.h
panic.c	interrupt.h
panic.c	kallsyms.h
panic.c	kexec.h
panic.c	kmsg_dump.h
panic.c	module.h
panic.c	nmi.h
panic.c	notifier.h
panic.c	random.h
panic.c	reboot.h
panic.c	sched.h
panic.c	sysrq.h
pcbc.c	algapi.h
pcbc.c	err.h
pcbc.c	init.h
pcbc.c	kernel.h
pcbc.c	module.h
pcbc.c	scatterlist.h
pcbc.c	slab.h
pcompress.c	compress.h
pcompress.c	compress.h
pcompress.c	crypto.h
pcompress.c	cryptouser.h
pcompress.c	errno.h
pcompress.c	internal.h
pcompress.c	module.h
pcompress.c	netlink.h
pcompress.c	seq_file.h
pcompress.c	string.h
pcrypt.c	aead.h
pcrypt.c	algapi.h
pcrypt.c	cpu.h
pcrypt.c	err.h
pcrypt.c	init.h
pcrypt.c	kobject.h
pcrypt.c	module.h
pcrypt.c	notifier.h
pcrypt.c	pcrypt.h
pcrypt.c	slab.h
pid.c	bootmem.h
pid.c	export.h
pid.c	hash.h
pid.c	init.h
pid.c	init_task.h
pid.c	mm.h
pid.c	pid_namespace.h
pid.c	proc_fs.h
pid.c	rculist.h
pid.c	slab.h
pid.c	syscalls.h
pid_namespace.c	acct.h
pid_namespace.c	err.h
pid_namespace.c	export.h
pid_namespace.c	pid.h
pid_namespace.c	pid_namespace.h
pid_namespace.c	proc_fs.h
pid_namespace.c	reboot.h
pid_namespace.c	slab.h
pid_namespace.c	syscalls.h
pid_namespace.c	user_namespace.h
posix-clock.c	device.h
posix-clock.c	export.h
posix-clock.c	file.h
posix-clock.c	posix-clock.h
posix-clock.c	slab.h
posix-clock.c	syscalls.h
posix-clock.c	uaccess.h
posix-cpu-timers.c	errno.h
posix-cpu-timers.c	kernel_stat.h
posix-cpu-timers.c	math64.h
posix-cpu-timers.c	posix-timers.h
posix-cpu-timers.c	random.h
posix-cpu-timers.c	sched.h
posix-cpu-timers.c	timer.h
posix-cpu-timers.c	uaccess.h
posix-timers.c	compiler.h
posix-timers.c	export.h
posix-timers.c	idr.h
posix-timers.c	init.h
posix-timers.c	interrupt.h
posix-timers.c	list.h
posix-timers.c	mm.h
posix-timers.c	mutex.h
posix-timers.c	posix-clock.h
posix-timers.c	posix-timers.h
posix-timers.c	slab.h
posix-timers.c	syscalls.h
posix-timers.c	time.h
posix-timers.c	uaccess.h
posix-timers.c	wait.h
posix-timers.c	workqueue.h
power-traces.c	module.h
power-traces.c	power.h
power-traces.c	sched.h
power-traces.c	string.h
power-traces.c	types.h
power-traces.c	workqueue.h
power.h	freezer.h
power.h	suspend.h
power.h	suspend_ioctls.h
power.h	utsname.h
poweroff.c	cpumask.h
poweroff.c	init.h
poweroff.c	kernel.h
poweroff.c	pm.h
poweroff.c	reboot.h
poweroff.c	sysrq.h
poweroff.c	workqueue.h
printk.c	bootmem.h
printk.c	console.h
printk.c	cpu.h
printk.c	delay.h
printk.c	init.h
printk.c	interrupt.h
printk.c	jiffies.h
printk.c	kdb.h
printk.c	kernel.h
printk.c	kexec.h
printk.c	kmsg_dump.h
printk.c	memblock.h
printk.c	mm.h
printk.c	module.h
printk.c	moduleparam.h
printk.c	nmi.h
printk.c	notifier.h
printk.c	poll.h
printk.c	printk.h
printk.c	ratelimit.h
printk.c	rculist.h
printk.c	security.h
printk.c	smp.h
printk.c	syscalls.h
printk.c	syslog.h
printk.c	tty.h
printk.c	tty_driver.h
printk.c	uaccess.h
proc.c	atomic.h
proc.c	crypto.h
proc.c	init.h
proc.c	internal.h
proc.c	module.h
proc.c	proc_fs.h
proc.c	rwsem.h
proc.c	seq_file.h
proc.c	sysctl.h
process.c	delay.h
process.c	freezer.h
process.c	interrupt.h
process.c	kmod.h
process.c	module.h
process.c	oom.h
process.c	suspend.h
process.c	syscalls.h
process.c	workqueue.h
profile.c	bootmem.h
profile.c	cpu.h
profile.c	cpumask.h
profile.c	export.h
profile.c	highmem.h
profile.c	irq_regs.h
profile.c	mm.h
profile.c	mutex.h
profile.c	notifier.h
profile.c	proc_fs.h
profile.c	profile.h
profile.c	ptrace.h
profile.c	sections.h
profile.c	seq_file.h
profile.c	slab.h
profile.c	uaccess.h
profile.c	vmalloc.h
ptrace.c	audit.h
ptrace.c	capability.h
ptrace.c	cn_proc.h
ptrace.c	compat.h
ptrace.c	errno.h
ptrace.c	export.h
ptrace.c	highmem.h
ptrace.c	hw_breakpoint.h
ptrace.c	mm.h
ptrace.c	pagemap.h
ptrace.c	pid_namespace.h
ptrace.c	ptrace.h
ptrace.c	regset.h
ptrace.c	sched.h
ptrace.c	security.h
ptrace.c	signal.h
ptrace.c	syscalls.h
ptrace.c	uaccess.h
public_key.c	asymmetric-subtype.h
public_key.c	export.h
public_key.c	kernel.h
public_key.c	module.h
public_key.c	public_key.h
public_key.c	seq_file.h
public_key.c	slab.h
public_key.h	public_key.h
qos.c	device.h
qos.c	export.h
qos.c	fs.h
qos.c	init.h
qos.c	kernel.h
qos.c	miscdevice.h
qos.c	platform_device.h
qos.c	pm_qos.h
qos.c	sched.h
qos.c	slab.h
qos.c	spinlock.h
qos.c	string.h
qos.c	time.h
qos.c	uaccess.h
raid6test.c	async_tx.h
raid6test.c	gfp.h
raid6test.c	mm.h
raid6test.c	module.h
raid6test.c	random.h
range.c	init.h
range.c	kernel.h
range.c	range.h
range.c	sort.h
rcupdate.c	atomic.h
rcupdate.c	bitops.h
rcupdate.c	cpu.h
rcupdate.c	delay.h
rcupdate.c	export.h
rcupdate.c	hardirq.h
rcupdate.c	init.h
rcupdate.c	interrupt.h
rcupdate.c	kernel.h
rcupdate.c	module.h
rcupdate.c	mutex.h
rcupdate.c	notifier.h
rcupdate.c	percpu.h
rcupdate.c	rcu.h
rcupdate.c	rcu.h
rcupdate.c	sched.h
rcupdate.c	smp.h
rcupdate.c	spinlock.h
rcupdate.c	types.h
rcutiny.c	completion.h
rcutiny.c	cpu.h
rcutiny.c	export.h
rcutiny.c	init.h
rcutiny.c	interrupt.h
rcutiny.c	kernel.h
rcutiny.c	mutex.h
rcutiny.c	notifier.h
rcutiny.c	prefetch.h
rcutiny.c	rcu.h
rcutiny.c	rcu.h
rcutiny.c	rcupdate.h
rcutiny.c	rcutiny_plugin.h
rcutiny.c	sched.h
rcutiny.c	time.h
rcutiny.c	types.h
rcutiny_plugin.h	debugfs.h
rcutiny_plugin.h	delay.h
rcutiny_plugin.h	kernel_stat.h
rcutiny_plugin.h	kthread.h
rcutiny_plugin.h	module.h
rcutiny_plugin.h	rtmutex_common.h
rcutiny_plugin.h	seq_file.h
rcutorture.c	atomic.h
rcutorture.c	bitops.h
rcutorture.c	byteorder.h
rcutorture.c	completion.h
rcutorture.c	cpu.h
rcutorture.c	delay.h
rcutorture.c	err.h
rcutorture.c	freezer.h
rcutorture.c	init.h
rcutorture.c	interrupt.h
rcutorture.c	kernel.h
rcutorture.c	kthread.h
rcutorture.c	module.h
rcutorture.c	moduleparam.h
rcutorture.c	notifier.h
rcutorture.c	percpu.h
rcutorture.c	rcupdate.h
rcutorture.c	reboot.h
rcutorture.c	sched.h
rcutorture.c	slab.h
rcutorture.c	smp.h
rcutorture.c	spinlock.h
rcutorture.c	srcu.h
rcutorture.c	stat.h
rcutorture.c	types.h
rcutree.c	atomic.h
rcutree.c	bitops.h
rcutree.c	completion.h
rcutree.c	cpu.h
rcutree.c	delay.h
rcutree.c	export.h
rcutree.c	init.h
rcutree.c	interrupt.h
rcutree.c	kernel.h
rcutree.c	kernel_stat.h
rcutree.c	kthread.h
rcutree.c	moduleparam.h
rcutree.c	mutex.h
rcutree.c	nmi.h
rcutree.c	notifier.h
rcutree.c	percpu.h
rcutree.c	prefetch.h
rcutree.c	random.h
rcutree.c	rcu.h
rcutree.c	rcu.h
rcutree.c	rcupdate.h
rcutree.c	rcutree.h
rcutree.c	rcutree_plugin.h
rcutree.c	sched.h
rcutree.c	smp.h
rcutree.c	spinlock.h
rcutree.c	stop_machine.h
rcutree.c	time.h
rcutree.c	types.h
rcutree.c	wait.h
rcutree.h	cache.h
rcutree.h	cpumask.h
rcutree.h	seqlock.h
rcutree.h	spinlock.h
rcutree.h	threads.h
rcutree_plugin.h	delay.h
rcutree_plugin.h	gfp.h
rcutree_plugin.h	oom.h
rcutree_plugin.h	rtmutex_common.h
rcutree_plugin.h	smpboot.h
rcutree_trace.c	atomic.h
rcutree_trace.c	bitops.h
rcutree_trace.c	completion.h
rcutree_trace.c	cpu.h
rcutree_trace.c	debugfs.h
rcutree_trace.c	init.h
rcutree_trace.c	interrupt.h
rcutree_trace.c	kernel.h
rcutree_trace.c	module.h
rcutree_trace.c	moduleparam.h
rcutree_trace.c	mutex.h
rcutree_trace.c	notifier.h
rcutree_trace.c	percpu.h
rcutree_trace.c	rcupdate.h
rcutree_trace.c	rcutree.h
rcutree_trace.c	sched.h
rcutree_trace.c	seq_file.h
rcutree_trace.c	smp.h
rcutree_trace.c	spinlock.h
rcutree_trace.c	types.h
relay.c	cpu.h
relay.c	errno.h
relay.c	export.h
relay.c	mm.h
relay.c	relay.h
relay.c	slab.h
relay.c	splice.h
relay.c	stddef.h
relay.c	string.h
relay.c	vmalloc.h
res_counter.c	fs.h
res_counter.c	mm.h
res_counter.c	parser.h
res_counter.c	res_counter.h
res_counter.c	types.h
res_counter.c	uaccess.h
resource.c	device.h
resource.c	errno.h
resource.c	export.h
resource.c	fs.h
resource.c	init.h
resource.c	io.h
resource.c	ioport.h
resource.c	pfn.h
resource.c	proc_fs.h
resource.c	sched.h
resource.c	seq_file.h
resource.c	slab.h
resource.c	spinlock.h
ring_buffer.c	internal.h
ring_buffer.c	internal.h
ring_buffer.c	perf_event.h
ring_buffer.c	perf_event.h
ring_buffer.c	slab.h
ring_buffer.c	slab.h
ring_buffer.c	vmalloc.h
ring_buffer.c	vmalloc.h
ring_buffer_benchmark.c	completion.h
ring_buffer_benchmark.c	kthread.h
ring_buffer_benchmark.c	local.h
ring_buffer_benchmark.c	module.h
ring_buffer_benchmark.c	ring_buffer.h
ring_buffer_benchmark.c	time.h
rmd128.c	byteorder.h
rmd128.c	hash.h
rmd128.c	init.h
rmd128.c	mm.h
rmd128.c	module.h
rmd128.c	ripemd.h
rmd128.c	types.h
rmd160.c	byteorder.h
rmd160.c	hash.h
rmd160.c	init.h
rmd160.c	mm.h
rmd160.c	module.h
rmd160.c	ripemd.h
rmd160.c	types.h
rmd256.c	byteorder.h
rmd256.c	hash.h
rmd256.c	init.h
rmd256.c	mm.h
rmd256.c	module.h
rmd256.c	ripemd.h
rmd256.c	types.h
rmd320.c	byteorder.h
rmd320.c	hash.h
rmd320.c	init.h
rmd320.c	mm.h
rmd320.c	module.h
rmd320.c	ripemd.h
rmd320.c	types.h
rng.c	atomic.h
rng.c	cryptouser.h
rng.c	err.h
rng.c	module.h
rng.c	mutex.h
rng.c	netlink.h
rng.c	random.h
rng.c	rng.h
rng.c	seq_file.h
rng.c	slab.h
rng.c	string.h
rpm-traces.c	module.h
rpm-traces.c	rpm.h
rpm-traces.c	sched.h
rpm-traces.c	string.h
rpm-traces.c	types.h
rpm-traces.c	usb.h
rpm-traces.c	workqueue.h
rsa.c	kernel.h
rsa.c	module.h
rsa.c	public_key.h
rsa.c	slab.h
rtmutex-tester.c	device.h
rtmutex-tester.c	export.h
rtmutex-tester.c	freezer.h
rtmutex-tester.c	kthread.h
rtmutex-tester.c	rtmutex.h
rtmutex-tester.c	sched.h
rtmutex-tester.c	spinlock.h
rtmutex-tester.c	timer.h
rtmutex_common.h	rtmutex.h
rwsem.c	atomic.h
rwsem.c	export.h
rwsem.c	kernel.h
rwsem.c	rwsem.h
rwsem.c	sched.h
rwsem.c	types.h
salsa20_generic.c	algapi.h
salsa20_generic.c	bitops.h
salsa20_generic.c	byteorder.h
salsa20_generic.c	crypto.h
salsa20_generic.c	errno.h
salsa20_generic.c	init.h
salsa20_generic.c	module.h
salsa20_generic.c	types.h
scatterwalk.c	highmem.h
scatterwalk.c	kernel.h
scatterwalk.c	mm.h
scatterwalk.c	module.h
scatterwalk.c	pagemap.h
scatterwalk.c	scatterlist.h
scatterwalk.c	scatterwalk.h
security.c	backing-dev.h
security.c	capability.h
security.c	evm.h
security.c	flow.h
security.c	fsnotify.h
security.c	ima.h
security.c	init.h
security.c	integrity.h
security.c	kernel.h
security.c	mman.h
security.c	module.h
security.c	mount.h
security.c	personality.h
security.c	security.h
seed.c	byteorder.h
seed.c	crypto.h
seed.c	errno.h
seed.c	init.h
seed.c	module.h
seed.c	types.h
semaphore.c	compiler.h
semaphore.c	export.h
semaphore.c	ftrace.h
semaphore.c	kernel.h
semaphore.c	sched.h
semaphore.c	semaphore.h
semaphore.c	spinlock.h
seqiv.c	aead.h
seqiv.c	err.h
seqiv.c	init.h
seqiv.c	kernel.h
seqiv.c	module.h
seqiv.c	rng.h
seqiv.c	skcipher.h
seqiv.c	slab.h
seqiv.c	spinlock.h
seqiv.c	string.h
serpent_generic.c	byteorder.h
serpent_generic.c	crypto.h
serpent_generic.c	errno.h
serpent_generic.c	init.h
serpent_generic.c	module.h
serpent_generic.c	serpent.h
serpent_generic.c	types.h
sha1_generic.c	byteorder.h
sha1_generic.c	cryptohash.h
sha1_generic.c	hash.h
sha1_generic.c	init.h
sha1_generic.c	mm.h
sha1_generic.c	module.h
sha1_generic.c	sha.h
sha1_generic.c	types.h
sha256_generic.c	byteorder.h
sha256_generic.c	hash.h
sha256_generic.c	init.h
sha256_generic.c	mm.h
sha256_generic.c	module.h
sha256_generic.c	sha.h
sha256_generic.c	types.h
sha512_generic.c	byteorder.h
sha512_generic.c	crypto.h
sha512_generic.c	hash.h
sha512_generic.c	init.h
sha512_generic.c	kernel.h
sha512_generic.c	mm.h
sha512_generic.c	module.h
sha512_generic.c	percpu.h
sha512_generic.c	sha.h
sha512_generic.c	types.h
shash.c	cryptouser.h
shash.c	err.h
shash.c	hash.h
shash.c	internal.h
shash.c	kernel.h
shash.c	module.h
shash.c	netlink.h
shash.c	scatterwalk.h
shash.c	seq_file.h
shash.c	slab.h
signal.c	audit.h
signal.c	binfmts.h
signal.c	cacheflush.h
signal.c	capability.h
signal.c	compat.h
signal.c	coredump.h
signal.c	export.h
signal.c	freezer.h
signal.c	fs.h
signal.c	init.h
signal.c	kdb.h
signal.c	nsproxy.h
signal.c	param.h
signal.c	pid_namespace.h
signal.c	ptrace.h
signal.c	ratelimit.h
signal.c	sched.h
signal.c	security.h
signal.c	siginfo.h
signal.c	signal.h
signal.c	signal.h
signal.c	signalfd.h
signal.c	slab.h
signal.c	syscalls.h
signal.c	tracehook.h
signal.c	tty.h
signal.c	uaccess.h
signal.c	unistd.h
signal.c	uprobes.h
signal.c	user_namespace.h
signature.c	asymmetric-subtype.h
signature.c	asymmetric_keys.h
signature.c	err.h
signature.c	module.h
signature.c	public_key.h
smack.h	capability.h
smack.h	in.h
smack.h	list.h
smack.h	lsm_audit.h
smack.h	netlabel.h
smack.h	rculist.h
smack.h	security.h
smack.h	spinlock.h
smack_access.c	fs.h
smack_access.c	sched.h
smack_access.c	slab.h
smack_access.c	smack.h
smack_access.c	types.h
smack_lsm.c	audit.h
smack_lsm.c	binfmts.h
smack_lsm.c	cipso_ipv4.h
smack_lsm.c	dcache.h
smack_lsm.c	ioctls.h
smack_lsm.c	ip.h
smack_lsm.c	kd.h
smack_lsm.c	magic.h
smack_lsm.c	mount.h
smack_lsm.c	msg.h
smack_lsm.c	mutex.h
smack_lsm.c	pagemap.h
smack_lsm.c	personality.h
smack_lsm.c	pipe_fs_i.h
smack_lsm.c	shm.h
smack_lsm.c	slab.h
smack_lsm.c	smack.h
smack_lsm.c	stat.h
smack_lsm.c	tcp.h
smack_lsm.c	udp.h
smack_lsm.c	xattr.h
smackfs.c	audit.h
smackfs.c	cipso_ipv4.h
smackfs.c	ctype.h
smackfs.c	kernel.h
smackfs.c	mutex.h
smackfs.c	net_namespace.h
smackfs.c	security.h
smackfs.c	seq_file.h
smackfs.c	slab.h
smackfs.c	smack.h
smackfs.c	vmalloc.h
smp.c	cpu.h
smp.c	export.h
smp.c	gfp.h
smp.c	init.h
smp.c	kernel.h
smp.c	percpu.h
smp.c	rculist.h
smp.c	rcupdate.h
smp.c	smp.h
smp.c	smpboot.h
smpboot.c	cpu.h
smpboot.c	err.h
smpboot.c	export.h
smpboot.c	init.h
smpboot.c	kthread.h
smpboot.c	list.h
smpboot.c	percpu.h
smpboot.c	sched.h
smpboot.c	slab.h
smpboot.c	smp.h
smpboot.c	smpboot.h
smpboot.c	smpboot.h
snapshot.c	bitops.h
snapshot.c	bootmem.h
snapshot.c	console.h
snapshot.c	delay.h
snapshot.c	device.h
snapshot.c	highmem.h
snapshot.c	init.h
snapshot.c	io.h
snapshot.c	kernel.h
snapshot.c	list.h
snapshot.c	mm.h
snapshot.c	mmu_context.h
snapshot.c	module.h
snapshot.c	pgtable.h
snapshot.c	pm.h
snapshot.c	power.h
snapshot.c	slab.h
snapshot.c	spinlock.h
snapshot.c	suspend.h
snapshot.c	syscalls.h
snapshot.c	tlbflush.h
snapshot.c	uaccess.h
snapshot.c	version.h
softirq.c	cpu.h
softirq.c	export.h
softirq.c	freezer.h
softirq.c	ftrace.h
softirq.c	init.h
softirq.c	interrupt.h
softirq.c	irq.h
softirq.c	irq.h
softirq.c	kernel_stat.h
softirq.c	kthread.h
softirq.c	mm.h
softirq.c	notifier.h
softirq.c	percpu.h
softirq.c	rcupdate.h
softirq.c	smp.h
softirq.c	smpboot.h
softirq.c	tick.h
spinlock.c	debug_locks.h
spinlock.c	export.h
spinlock.c	interrupt.h
spinlock.c	linkage.h
spinlock.c	preempt.h
spinlock.c	spinlock.h
srcu.c	delay.h
srcu.c	export.h
srcu.c	mutex.h
srcu.c	percpu.h
srcu.c	preempt.h
srcu.c	rcu.h
srcu.c	rcu.h
srcu.c	rcupdate.h
srcu.c	sched.h
srcu.c	smp.h
srcu.c	srcu.h
stacktrace.c	export.h
stacktrace.c	kallsyms.h
stacktrace.c	kernel.h
stacktrace.c	sched.h
stacktrace.c	stacktrace.h
stop_machine.c	atomic.h
stop_machine.c	completion.h
stop_machine.c	cpu.h
stop_machine.c	export.h
stop_machine.c	init.h
stop_machine.c	interrupt.h
stop_machine.c	kallsyms.h
stop_machine.c	kthread.h
stop_machine.c	percpu.h
stop_machine.c	sched.h
stop_machine.c	stop_machine.h
suspend.c	console.h
suspend.c	cpu.h
suspend.c	delay.h
suspend.c	errno.h
suspend.c	export.h
suspend.c	ftrace.h
suspend.c	gfp.h
suspend.c	init.h
suspend.c	io.h
suspend.c	kernel.h
suspend.c	list.h
suspend.c	mm.h
suspend.c	power.h
suspend.c	power.h
suspend.c	slab.h
suspend.c	string.h
suspend.c	suspend.h
suspend.c	syscalls.h
suspend.c	syscore_ops.h
suspend_test.c	init.h
suspend_test.c	power.h
suspend_test.c	rtc.h
swap.c	atomic.h
swap.c	bio.h
swap.c	bitops.h
swap.c	blkdev.h
swap.c	cpumask.h
swap.c	crc32.h
swap.c	delay.h
swap.c	device.h
swap.c	file.h
swap.c	genhd.h
swap.c	kthread.h
swap.c	lzo.h
swap.c	module.h
swap.c	pm.h
swap.c	power.h
swap.c	slab.h
swap.c	swap.h
swap.c	swapops.h
swap.c	vmalloc.h
sys.c	capability.h
sys.c	cn_proc.h
sys.c	compat.h
sys.c	cpu.h
sys.c	ctype.h
sys.c	dcookies.h
sys.c	device.h
sys.c	export.h
sys.c	file.h
sys.c	fs.h
sys.c	fs_struct.h
sys.c	getcpu.h
sys.c	gfp.h
sys.c	highuid.h
sys.c	io.h
sys.c	kernel.h
sys.c	kexec.h
sys.c	key.h
sys.c	kmod.h
sys.c	kmsg_dump.h
sys.c	kprobes.h
sys.c	mm.h
sys.c	mman.h
sys.c	mount.h
sys.c	perf_event.h
sys.c	personality.h
sys.c	posix-timers.h
sys.c	prctl.h
sys.c	ptrace.h
sys.c	reboot.h
sys.c	resource.h
sys.c	seccomp.h
sys.c	security.h
sys.c	signal.h
sys.c	suspend.h
sys.c	syscalls.h
sys.c	syscore_ops.h
sys.c	task_io_accounting_ops.h
sys.c	times.h
sys.c	tty.h
sys.c	uaccess.h
sys.c	unistd.h
sys.c	user_namespace.h
sys.c	utsname.h
sys.c	utsrelease.h
sys.c	version.h
sys.c	workqueue.h
sys_ni.c	errno.h
sys_ni.c	linkage.h
sys_ni.c	syscalls.h
sys_ni.c	unistd.h
sysctl.c	acct.h
sysctl.c	acpi.h
sysctl.c	binfmts.h
sysctl.c	bitmap.h
sysctl.c	capability.h
sysctl.c	compaction.h
sysctl.c	ctype.h
sysctl.c	dcache.h
sysctl.c	dnotify.h
sysctl.c	fs.h
sysctl.c	ftrace.h
sysctl.c	highuid.h
sysctl.c	hugetlb.h
sysctl.c	init.h
sysctl.c	initrd.h
sysctl.c	inotify.h
sysctl.c	io.h
sysctl.c	kernel.h
sysctl.c	key.h
sysctl.c	kmemcheck.h
sysctl.c	kmemleak.h
sysctl.c	kmod.h
sysctl.c	kobject.h
sysctl.c	kprobes.h
sysctl.c	limits.h
sysctl.c	lockdep.h
sysctl.c	mm.h
sysctl.c	module.h
sysctl.c	net.h
sysctl.c	nfs_fs.h
sysctl.c	nmi.h
sysctl.c	nmi.h
sysctl.c	oom.h
sysctl.c	perf_event.h
sysctl.c	pipe_fs_i.h
sysctl.c	printk.h
sysctl.c	proc_fs.h
sysctl.c	processor.h
sysctl.c	ratelimit.h
sysctl.c	reboot.h
sysctl.c	rtmutex.h
sysctl.c	security.h
sysctl.c	setup.h
sysctl.c	sg.h
sysctl.c	signal.h
sysctl.c	slab.h
sysctl.c	stacktrace.h
sysctl.c	swap.h
sysctl.c	syscalls.h
sysctl.c	sysctl.h
sysctl.c	sysrq.h
sysctl.c	times.h
sysctl.c	uaccess.h
sysctl.c	vmstat.h
sysctl.c	writeback.h
sysctl_binary.c	compat.h
sysctl_binary.c	ctype.h
sysctl_binary.c	debug.h
sysctl_binary.c	file.h
sysctl_binary.c	fs.h
sysctl_binary.c	ip_vs.h
sysctl_binary.c	kernel.h
sysctl_binary.c	mount.h
sysctl_binary.c	namei.h
sysctl_binary.c	netdevice.h
sysctl_binary.c	nsproxy.h
sysctl_binary.c	pid_namespace.h
sysctl_binary.c	slab.h
sysctl_binary.c	stat.h
sysctl_binary.c	string.h
sysctl_binary.c	syscalls.h
sysctl_binary.c	sysctl.h
sysctl_binary.c	xfs_sysctl.h
task_work.c	spinlock.h
task_work.c	task_work.h
task_work.c	tracehook.h
taskstats.c	atomic.h
taskstats.c	cgroup.h
taskstats.c	cgroupstats.h
taskstats.c	cpumask.h
taskstats.c	delayacct.h
taskstats.c	file.h
taskstats.c	fs.h
taskstats.c	genetlink.h
taskstats.c	kernel.h
taskstats.c	percpu.h
taskstats.c	pid_namespace.h
taskstats.c	slab.h
taskstats.c	taskstats_kern.h
taskstats.c	tsacct_kern.h
tcrypt.c	err.h
tcrypt.c	gfp.h
tcrypt.c	hash.h
tcrypt.c	init.h
tcrypt.c	internal.h
tcrypt.c	interrupt.h
tcrypt.c	jiffies.h
tcrypt.c	module.h
tcrypt.c	moduleparam.h
tcrypt.c	scatterlist.h
tcrypt.c	string.h
tcrypt.c	tcrypt.h
tcrypt.c	timex.h
tea.c	byteorder.h
tea.c	crypto.h
tea.c	init.h
tea.c	mm.h
tea.c	module.h
tea.c	types.h
test_kprobes.c	kernel.h
test_kprobes.c	kprobes.h
test_kprobes.c	random.h
testmgr.c	err.h
testmgr.c	hash.h
testmgr.c	internal.h
testmgr.c	module.h
testmgr.c	rng.h
testmgr.c	scatterlist.h
testmgr.c	slab.h
testmgr.c	string.h
testmgr.c	testmgr.h
testmgr.h	compress.h
testmgr.h	netlink.h
testmgr.h	zlib.h
tgr192.c	byteorder.h
tgr192.c	hash.h
tgr192.c	init.h
tgr192.c	mm.h
tgr192.c	module.h
tgr192.c	types.h
tick-broadcast.c	cpu.h
tick-broadcast.c	err.h
tick-broadcast.c	hrtimer.h
tick-broadcast.c	interrupt.h
tick-broadcast.c	percpu.h
tick-broadcast.c	profile.h
tick-broadcast.c	sched.h
tick-broadcast.c	tick-internal.h
tick-common.c	cpu.h
tick-common.c	err.h
tick-common.c	hrtimer.h
tick-common.c	interrupt.h
tick-common.c	irq_regs.h
tick-common.c	percpu.h
tick-common.c	profile.h
tick-common.c	sched.h
tick-common.c	tick-internal.h
tick-internal.h	hrtimer.h
tick-internal.h	tick.h
tick-oneshot.c	cpu.h
tick-oneshot.c	err.h
tick-oneshot.c	hrtimer.h
tick-oneshot.c	interrupt.h
tick-oneshot.c	percpu.h
tick-oneshot.c	profile.h
tick-oneshot.c	sched.h
tick-oneshot.c	tick-internal.h
tick-sched.c	cpu.h
tick-sched.c	err.h
tick-sched.c	hrtimer.h
tick-sched.c	interrupt.h
tick-sched.c	irq_regs.h
tick-sched.c	kernel_stat.h
tick-sched.c	module.h
tick-sched.c	percpu.h
tick-sched.c	profile.h
tick-sched.c	sched.h
tick-sched.c	tick-internal.h
time.c	capability.h
time.c	errno.h
time.c	export.h
time.c	fs.h
time.c	math64.h
time.c	ptrace.h
time.c	security.h
time.c	syscalls.h
time.c	timeconst.h
time.c	timekeeper_internal.h
time.c	timex.h
time.c	uaccess.h
time.c	unistd.h
timeconv.c	module.h
timeconv.c	time.h
timekeeping.c	clocksource.h
timekeeping.c	init.h
timekeeping.c	interrupt.h
timekeeping.c	jiffies.h
timekeeping.c	mm.h
timekeeping.c	module.h
timekeeping.c	percpu.h
timekeeping.c	pvclock_gtod.h
timekeeping.c	sched.h
timekeeping.c	stop_machine.h
timekeeping.c	syscore_ops.h
timekeeping.c	tick.h
timekeeping.c	time.h
timekeeping.c	timekeeper_internal.h
timer.c	cpu.h
timer.c	delay.h
timer.c	div64.h
timer.c	export.h
timer.c	init.h
timer.c	interrupt.h
timer.c	io.h
timer.c	irq_work.h
timer.c	jiffies.h
timer.c	kallsyms.h
timer.c	kernel_stat.h
timer.c	mm.h
timer.c	notifier.h
timer.c	percpu.h
timer.c	pid_namespace.h
timer.c	posix-timers.h
timer.c	sched.h
timer.c	slab.h
timer.c	swap.h
timer.c	syscalls.h
timer.c	thread_info.h
timer.c	tick.h
timer.c	time.h
timer.c	timer.h
timer.c	timex.h
timer.c	uaccess.h
timer.c	unistd.h
timer_list.c	kallsyms.h
timer_list.c	module.h
timer_list.c	proc_fs.h
timer_list.c	sched.h
timer_list.c	seq_file.h
timer_list.c	spinlock.h
timer_list.c	tick.h
timer_list.c	uaccess.h
timer_stats.c	kallsyms.h
timer_stats.c	module.h
timer_stats.c	proc_fs.h
timer_stats.c	sched.h
timer_stats.c	seq_file.h
timer_stats.c	spinlock.h
timer_stats.c	uaccess.h
tomoyo.c	common.h
tomoyo.c	security.h
trace.c	ctype.h
trace.c	debugfs.h
trace.c	fs.h
trace.c	ftrace.h
trace.c	hardirq.h
trace.c	init.h
trace.c	irq_work.h
trace.c	irqflags.h
trace.c	kallsyms.h
trace.c	kdebug.h
trace.c	kprobes.h
trace.c	linkage.h
trace.c	module.h
trace.c	nmi.h
trace.c	notifier.h
trace.c	pagemap.h
trace.c	percpu.h
trace.c	poll.h
trace.c	ring_buffer.h
trace.c	rwsem.h
trace.c	seq_file.h
trace.c	slab.h
trace.c	splice.h
trace.c	stacktrace.h
trace.c	string.h
trace.c	trace.h
trace.c	trace_output.h
trace.c	trace_selftest.c
trace.c	uaccess.h
trace.c	utsrelease.h
trace.c	writeback.h
trace.h	atomic.h
trace.h	clocksource.h
trace.h	fs.h
trace.h	ftrace.h
trace.h	ftrace_event.h
trace.h	hw_breakpoint.h
trace.h	mmiotrace.h
trace.h	ring_buffer.h
trace.h	sched.h
trace.h	trace_entries.h
trace.h	trace_entries.h
trace.h	trace_seq.h
trace.h	tracepoint.h
trace_branch.c	debugfs.h
trace_branch.c	fs.h
trace_branch.c	ftrace.h
trace_branch.c	hash.h
trace_branch.c	irqflags.h
trace_branch.c	kallsyms.h
trace_branch.c	local.h
trace_branch.c	module.h
trace_branch.c	seq_file.h
trace_branch.c	spinlock.h
trace_branch.c	trace.h
trace_branch.c	trace_output.h
trace_branch.c	trace_stat.h
trace_branch.c	uaccess.h
trace_clock.c	hardirq.h
trace_clock.c	irqflags.h
trace_clock.c	ktime.h
trace_clock.c	module.h
trace_clock.c	percpu.h
trace_clock.c	sched.h
trace_clock.c	spinlock.h
trace_clock.c	trace.h
trace_clock.c	trace_clock.h
trace_event_perf.c	kprobes.h
trace_event_perf.c	module.h
trace_event_perf.c	trace.h
trace_events.c	ctype.h
trace_events.c	debugfs.h
trace_events.c	delay.h
trace_events.c	kthread.h
trace_events.c	module.h
trace_events.c	setup.h
trace_events.c	slab.h
trace_events.c	spinlock.h
trace_events.c	trace_output.h
trace_events.c	uaccess.h
trace_events.c	workqueue.h
trace_events_filter.c	ctype.h
trace_events_filter.c	module.h
trace_events_filter.c	mutex.h
trace_events_filter.c	perf_event.h
trace_events_filter.c	slab.h
trace_events_filter.c	trace.h
trace_events_filter.c	trace_events_filter_test.h
trace_events_filter.c	trace_output.h
trace_events_filter.c	tracepoint.h
trace_events_filter.c	types.h
trace_events_filter_test.h	define_trace.h
trace_events_filter_test.h	tracepoint.h
trace_export.c	debugfs.h
trace_export.c	fs.h
trace_export.c	ftrace.h
trace_export.c	init.h
trace_export.c	kallsyms.h
trace_export.c	module.h
trace_export.c	seq_file.h
trace_export.c	stringify.h
trace_export.c	trace_entries.h
trace_export.c	trace_entries.h
trace_export.c	trace_entries.h
trace_export.c	trace_output.h
trace_export.c	uaccess.h
trace_functions.c	debugfs.h
trace_functions.c	fs.h
trace_functions.c	ftrace.h
trace_functions.c	ring_buffer.h
trace_functions.c	trace.h
trace_functions.c	uaccess.h
trace_functions_graph.c	debugfs.h
trace_functions_graph.c	fs.h
trace_functions_graph.c	ftrace.h
trace_functions_graph.c	slab.h
trace_functions_graph.c	trace.h
trace_functions_graph.c	trace_output.h
trace_functions_graph.c	uaccess.h
trace_irqsoff.c	debugfs.h
trace_irqsoff.c	fs.h
trace_irqsoff.c	ftrace.h
trace_irqsoff.c	kallsyms.h
trace_irqsoff.c	module.h
trace_irqsoff.c	trace.h
trace_irqsoff.c	uaccess.h
trace_kdb.c	ftrace.h
trace_kdb.c	init.h
trace_kdb.c	kdb.h
trace_kdb.c	kgdb.h
trace_kdb.c	trace.h
trace_kdb.c	trace_output.h
trace_kprobe.c	module.h
trace_kprobe.c	trace_probe.h
trace_kprobe.c	uaccess.h
trace_mmiotrace.c	atomic.h
trace_mmiotrace.c	kernel.h
trace_mmiotrace.c	mmiotrace.h
trace_mmiotrace.c	pci.h
trace_mmiotrace.c	slab.h
trace_mmiotrace.c	time.h
trace_mmiotrace.c	trace.h
trace_mmiotrace.c	trace_output.h
trace_nop.c	debugfs.h
trace_nop.c	fs.h
trace_nop.c	ftrace.h
trace_nop.c	module.h
trace_nop.c	trace.h
trace_output.c	ftrace.h
trace_output.c	module.h
trace_output.c	mutex.h
trace_output.c	trace_output.h
trace_output.h	trace.h
trace_output.h	trace_seq.h
trace_printk.c	ctype.h
trace_printk.c	debugfs.h
trace_printk.c	fs.h
trace_printk.c	ftrace.h
trace_printk.c	kernel.h
trace_printk.c	list.h
trace_printk.c	module.h
trace_printk.c	mutex.h
trace_printk.c	seq_file.h
trace_printk.c	slab.h
trace_printk.c	string.h
trace_printk.c	trace.h
trace_printk.c	uaccess.h
trace_probe.c	trace_probe.h
trace_probe.h	bitsperlong.h
trace_probe.h	ctype.h
trace_probe.h	debugfs.h
trace_probe.h	kprobes.h
trace_probe.h	limits.h
trace_probe.h	perf_event.h
trace_probe.h	ptrace.h
trace_probe.h	seq_file.h
trace_probe.h	slab.h
trace_probe.h	smp.h
trace_probe.h	string.h
trace_probe.h	stringify.h
trace_probe.h	trace.h
trace_probe.h	trace_output.h
trace_probe.h	types.h
trace_probe.h	uaccess.h
trace_sched_switch.c	debugfs.h
trace_sched_switch.c	fs.h
trace_sched_switch.c	ftrace.h
trace_sched_switch.c	kallsyms.h
trace_sched_switch.c	module.h
trace_sched_switch.c	sched.h
trace_sched_switch.c	trace.h
trace_sched_switch.c	uaccess.h
trace_sched_wakeup.c	debugfs.h
trace_sched_wakeup.c	fs.h
trace_sched_wakeup.c	ftrace.h
trace_sched_wakeup.c	kallsyms.h
trace_sched_wakeup.c	module.h
trace_sched_wakeup.c	sched.h
trace_sched_wakeup.c	trace.h
trace_sched_wakeup.c	uaccess.h
trace_selftest.c	delay.h
trace_selftest.c	kthread.h
trace_selftest.c	slab.h
trace_selftest.c	stringify.h
trace_selftest_dynamic.c	trace.h
trace_stack.c	debugfs.h
trace_stack.c	fs.h
trace_stack.c	ftrace.h
trace_stack.c	init.h
trace_stack.c	kallsyms.h
trace_stack.c	module.h
trace_stack.c	seq_file.h
trace_stack.c	setup.h
trace_stack.c	spinlock.h
trace_stack.c	stacktrace.h
trace_stack.c	sysctl.h
trace_stack.c	trace.h
trace_stack.c	uaccess.h
trace_stat.c	debugfs.h
trace_stat.c	list.h
trace_stat.c	rbtree.h
trace_stat.c	slab.h
trace_stat.c	trace.h
trace_stat.c	trace_stat.h
trace_stat.h	seq_file.h
trace_syscalls.c	ftrace.h
trace_syscalls.c	kernel.h
trace_syscalls.c	module.h
trace_syscalls.c	perf_event.h
trace_syscalls.c	slab.h
trace_syscalls.c	syscall.h
trace_syscalls.c	syscall.h
trace_syscalls.c	syscalls.h
trace_syscalls.c	trace.h
trace_syscalls.c	trace_output.h
trace_uprobe.c	module.h
trace_uprobe.c	namei.h
trace_uprobe.c	string.h
trace_uprobe.c	trace_probe.h
trace_uprobe.c	uaccess.h
trace_uprobe.c	uprobes.h
tsacct.c	acct.h
tsacct.c	jiffies.h
tsacct.c	kernel.h
tsacct.c	mm.h
tsacct.c	sched.h
tsacct.c	tsacct_kern.h
twofish_common.c	bitops.h
twofish_common.c	crypto.h
twofish_common.c	errno.h
twofish_common.c	init.h
twofish_common.c	kernel.h
twofish_common.c	module.h
twofish_common.c	twofish.h
twofish_common.c	types.h
twofish_generic.c	bitops.h
twofish_generic.c	byteorder.h
twofish_generic.c	crypto.h
twofish_generic.c	errno.h
twofish_generic.c	init.h
twofish_generic.c	module.h
twofish_generic.c	twofish.h
twofish_generic.c	types.h
uid16.c	capability.h
uid16.c	highuid.h
uid16.c	init.h
uid16.c	mm.h
uid16.c	mman.h
uid16.c	notifier.h
uid16.c	prctl.h
uid16.c	reboot.h
uid16.c	security.h
uid16.c	syscalls.h
uid16.c	uaccess.h
up.c	export.h
up.c	interrupt.h
up.c	kernel.h
up.c	smp.h
uprobes.c	highmem.h
uprobes.c	internal.h
uprobes.c	kdebug.h
uprobes.c	kernel.h
uprobes.c	mmu_notifier.h
uprobes.c	pagemap.h
uprobes.c	percpu-rwsem.h
uprobes.c	ptrace.h
uprobes.c	rmap.h
uprobes.c	sched.h
uprobes.c	slab.h
uprobes.c	swap.h
uprobes.c	uprobes.h
user-return-notifier.c	export.h
user-return-notifier.c	percpu.h
user-return-notifier.c	sched.h
user-return-notifier.c	user-return-notifier.h
user.c	compat.h
user.c	console.h
user.c	cpu.h
user.c	device.h
user.c	freezer.h
user.c	fs.h
user.c	miscdevice.h
user.c	mm.h
user.c	pm.h
user.c	power.h
user.c	reboot.h
user.c	string.h
user.c	suspend.h
user.c	swap.h
user.c	swapops.h
user.c	syscalls.h
user.c	uaccess.h
user_namespace.c	cred.h
user_namespace.c	ctype.h
user_namespace.c	export.h
user_namespace.c	fs.h
user_namespace.c	highuid.h
user_namespace.c	key-type.h
user_namespace.c	keyctl.h
user_namespace.c	nsproxy.h
user_namespace.c	proc_fs.h
user_namespace.c	projid.h
user_namespace.c	securebits.h
user_namespace.c	seq_file.h
user_namespace.c	slab.h
user_namespace.c	uaccess.h
user_namespace.c	user-type.h
user_namespace.c	user_namespace.h
utsname.c	err.h
utsname.c	export.h
utsname.c	proc_fs.h
utsname.c	slab.h
utsname.c	user_namespace.h
utsname.c	uts.h
utsname.c	utsname.h
utsname_sysctl.c	export.h
utsname_sysctl.c	sysctl.h
utsname_sysctl.c	uts.h
utsname_sysctl.c	utsname.h
utsname_sysctl.c	wait.h
vmac.c	byteorder.h
vmac.c	crypto.h
vmac.c	hash.h
vmac.c	init.h
vmac.c	module.h
vmac.c	scatterlist.h
vmac.c	scatterwalk.h
vmac.c	types.h
vmac.c	vmac.h
wait.c	export.h
wait.c	hash.h
wait.c	init.h
wait.c	mm.h
wait.c	sched.h
wait.c	wait.h
wakelock.c	capability.h
wakelock.c	ctype.h
wakelock.c	device.h
wakelock.c	err.h
wakelock.c	hrtimer.h
wakelock.c	list.h
wakelock.c	rbtree.h
wakelock.c	slab.h
watchdog.c	cpu.h
watchdog.c	delay.h
watchdog.c	freezer.h
watchdog.c	init.h
watchdog.c	irq_regs.h
watchdog.c	kthread.h
watchdog.c	kvm_para.h
watchdog.c	lockdep.h
watchdog.c	mm.h
watchdog.c	module.h
watchdog.c	nmi.h
watchdog.c	notifier.h
watchdog.c	perf_event.h
watchdog.c	smpboot.h
watchdog.c	sysctl.h
workqueue.c	completion.h
workqueue.c	cpu.h
workqueue.c	debug_locks.h
workqueue.c	export.h
workqueue.c	freezer.h
workqueue.c	hardirq.h
workqueue.c	idr.h
workqueue.c	init.h
workqueue.c	kallsyms.h
workqueue.c	kernel.h
workqueue.c	kthread.h
workqueue.c	lockdep.h
workqueue.c	mempolicy.h
workqueue.c	notifier.h
workqueue.c	sched.h
workqueue.c	signal.h
workqueue.c	slab.h
workqueue.c	workqueue.h
workqueue.c	workqueue.h
workqueue.c	workqueue_sched.h
wp512.c	byteorder.h
wp512.c	hash.h
wp512.c	init.h
wp512.c	mm.h
wp512.c	module.h
wp512.c	types.h
x509_cert_parser.c	err.h
x509_cert_parser.c	kernel.h
x509_cert_parser.c	oid_registry.h
x509_cert_parser.c	public_key.h
x509_cert_parser.c	slab.h
x509_cert_parser.c	x509-asn1.h
x509_cert_parser.c	x509_parser.h
x509_cert_parser.c	x509_rsakey-asn1.h
x509_parser.h	public_key.h
x509_public_key.c	asn1_decoder.h
x509_public_key.c	asymmetric-parser.h
x509_public_key.c	asymmetric-subtype.h
x509_public_key.c	asymmetric_keys.h
x509_public_key.c	err.h
x509_public_key.c	hash.h
x509_public_key.c	kernel.h
x509_public_key.c	module.h
x509_public_key.c	mpi.h
x509_public_key.c	public_key.h
x509_public_key.c	slab.h
x509_public_key.c	x509_parser.h
xcbc.c	err.h
xcbc.c	hash.h
xcbc.c	kernel.h
xcbc.c	module.h
xor.c	gfp.h
xor.c	jiffies.h
xor.c	module.h
xor.c	preempt.h
xor.c	xor.h
xor.c	xor.h
xts.c	algapi.h
xts.c	b128ops.h
xts.c	err.h
xts.c	gf128mul.h
xts.c	init.h
xts.c	kernel.h
xts.c	module.h
xts.c	scatterlist.h
xts.c	slab.h
xts.c	xts.h
yama_lsm.c	prctl.h
yama_lsm.c	ptrace.h
yama_lsm.c	ratelimit.h
yama_lsm.c	security.h
yama_lsm.c	sysctl.h
yama_lsm.c	workqueue.h
zlib.c	compress.h
zlib.c	init.h
zlib.c	interrupt.h
zlib.c	mm.h
zlib.c	module.h
zlib.c	net.h
zlib.c	netlink.h
zlib.c	vmalloc.h
zlib.c	zlib.h
