ashldi3.c	libgcc.h
ashldi3.c	module.h
asm-offsets.c	kbuild.h
asm-offsets.c	kbuild.h
asm-offsets.c	mn10300-serial.h
asm-offsets.c	mn10300-serial.h
asm-offsets.c	personality.h
asm-offsets.c	personality.h
asm-offsets.c	processor.h
asm-offsets.c	processor.h
asm-offsets.c	ptrace.h
asm-offsets.c	ptrace.h
asm-offsets.c	sched.h
asm-offsets.c	sched.h
asm-offsets.c	sigframe.h
asm-offsets.c	sigframe.h
asm-offsets.c	signal.h
asm-offsets.c	signal.h
asm-offsets.c	thread_info.h
asm-offsets.c	thread_info.h
asm-offsets.c	ucontext.h
asm-offsets.c	ucontext.h
asm-offsets.h	asm-offsets.h
asm-offsets.h	asm-offsets.h
asmmacro.h	core.h
atomic.h	cmpxchg.h
atomic.h	cmpxchg.h
atomic.h	processor.h
atomic.h	processor.h
atomic.h	stringify.h
atomic.h	stringify.h
atomic.h	types.h
atomic.h	types.h
bitops.c	bitops.h
bitops.c	module.h
bitops.h	atomic.h
bitops.h	atomic.h
bitops.h	byteorder.h
bitops.h	byteorder.h
bitops.h	ext2-atomic-setbit.h
bitops.h	ext2-atomic-setbit.h
bitops.h	find.h
bitops.h	find.h
bitops.h	fls64.h
bitops.h	fls64.h
bitops.h	hweight.h
bitops.h	hweight.h
bitops.h	le.h
bitops.h	le.h
bitops.h	lock.h
bitops.h	lock.h
bitops.h	non-atomic.h
bitops.h	non-atomic.h
bitops.h	processor.h
bitops.h	processor.h
bitops.h	sched.h
bitops.h	sched.h
bitsperlong.h	bitsperlong.h
bug.h	bug.h
build.c	boot.h
build.c	fcntl.h
build.c	stat.h
build.c	stdarg.h
build.c	stdio.h
build.c	stdlib.h
build.c	string.h
build.c	sysmacros.h
build.c	types.h
build.c	unistd.h
busctl-regs.h	cpu-regs.h
byteorder.h	big_endian.h
byteorder.h	big_endian.h
byteorder.h	little_endian.h
byteorder.h	little_endian.h
cache-disabled.c	mm.h
cache-flush-icache.c	cache-smp.h
cache-flush-icache.c	cacheflush.h
cache-flush-icache.c	mm.h
cache-flush-icache.c	module.h
cache-flush-icache.c	smp.h
cache-inv-icache.c	cache-smp.h
cache-inv-icache.c	cacheflush.h
cache-inv-icache.c	mm.h
cache-inv-icache.c	module.h
cache-inv-icache.c	smp.h
cache-smp-flush.c	cache-smp.h
cache-smp-flush.c	cacheflush.h
cache-smp-flush.c	mm.h
cache-smp-inv.c	cache-smp.h
cache-smp-inv.c	cacheflush.h
cache-smp-inv.c	mm.h
cache-smp.c	cache-smp.h
cache-smp.c	cacheflush.h
cache-smp.c	interrupt.h
cache-smp.c	io.h
cache-smp.c	mm.h
cache-smp.c	mman.h
cache-smp.c	module.h
cache-smp.c	page.h
cache-smp.c	pgtable.h
cache-smp.c	processor.h
cache-smp.c	smp.h
cache-smp.c	threads.h
cache-smp.c	uaccess.h
cache.c	cache-smp.h
cache.c	cacheflush.h
cache.c	io.h
cache.c	mm.h
cache.c	mman.h
cache.c	module.h
cache.c	page.h
cache.c	pgtable.h
cache.c	processor.h
cache.c	smp.h
cache.c	threads.h
cache.c	uaccess.h
cache.h	core.h
cache.h	core.h
cache.h	core.h
cache.h	core.h
cacheasm.h	asmmacro.h
cacheasm.h	cache.h
cacheasm.h	stringify.h
cacheflush.h	mm.h
cacheflush.h	mm.h
cacheflush.h	page.h
cacheflush.h	page.h
cacheflush.h	processor.h
cacheflush.h	processor.h
cevt-mn10300.c	clockchips.h
cevt-mn10300.c	internal.h
cevt-mn10300.c	interrupt.h
cevt-mn10300.c	percpu.h
cevt-mn10300.c	smp.h
cevt-mn10300.c	timex.h
checksum.c	byteorder.h
checksum.c	checksum.h
checksum.c	errno.h
checksum.c	internal.h
checksum.c	module.h
checksum.c	uaccess.h
checksum.h	core.h
checksum.h	core.h
checksum.h	in6.h
checksum.h	in6.h
checksum_copy.c	checksum.h
checksum_copy.c	uaccess.h
cmpdi2.c	libgcc.h
cmpdi2.c	module.h
cmpxchg.h	irqflags.h
cpu-regs.h	types.h
cputime.h	cputime.h
csrc-mn10300.c	clocksource.h
csrc-mn10300.c	init.h
csrc-mn10300.c	internal.h
csrc-mn10300.c	timex.h
current.h	thread_info.h
current.h	thread_info.h
delay.c	delay.h
delay.c	div64.h
delay.c	module.h
delay.c	sched.h
device.h	device.h
div64.h	types.h
dma-alloc.c	export.h
dma-alloc.c	gfp.h
dma-alloc.c	io.h
dma-alloc.c	mm.h
dma-alloc.c	pci.h
dma-alloc.c	string.h
dma-alloc.c	types.h
dma-mapping.h	cache.h
dma-mapping.h	cache.h
dma-mapping.h	io.h
dma-mapping.h	io.h
dma-mapping.h	mm.h
dma-mapping.h	mm.h
dma-mapping.h	scatterlist.h
dma-mapping.h	scatterlist.h
dma.h	io.h
dma.h	io.h
dmactl-regs.h	cpu-regs.h
dmactl-regs.h	cpu-regs.h
dmactl-regs.h	cpu-regs.h
elf.h	coprocessor.h
elf.h	coprocessor.h
elf.h	ptrace.h
elf.h	ptrace.h
emergency-restart.h	emergency-restart.h
errno.h	errno.h
exceptions.h	linkage.h
extable.c	module.h
extable.c	module.h
extable.c	spinlock.h
extable.c	spinlock.h
extable.c	uaccess.h
extable.c	uaccess.h
fault.c	cpu-regs.h
fault.c	debugger.h
fault.c	errno.h
fault.c	gdb-stub.h
fault.c	hardirq.h
fault.c	init.h
fault.c	interrupt.h
fault.c	kernel.h
fault.c	mm.h
fault.c	mman.h
fault.c	pgalloc.h
fault.c	ptrace.h
fault.c	sched.h
fault.c	signal.h
fault.c	smp.h
fault.c	string.h
fault.c	types.h
fault.c	uaccess.h
fault.c	vt_kern.h
fb.h	fb.h
fb.h	fb.h
fcntl.h	fcntl.h
flash.c	init.h
flash.c	partitions.h
flash.c	physmap.h
flash.c	platform_device.h
fpga-regs.h	cpu-regs.h
fpu-nofpu.c	fpu.h
fpu.c	elf.h
fpu.c	exceptions.h
fpu.c	fpu.h
fpu.c	uaccess.h
fpu.h	exceptions.h
fpu.h	sched.h
fpu.h	sigcontext.h
futex.h	futex.h
gdb-io-serial.c	console.h
gdb-io-serial.c	exceptions.h
gdb-io-serial.c	gdb-stub.h
gdb-io-serial.c	init.h
gdb-io-serial.c	kernel.h
gdb-io-serial.c	mm.h
gdb-io-serial.c	nmi.h
gdb-io-serial.c	pgtable.h
gdb-io-serial.c	sched.h
gdb-io-serial.c	serial-regs.h
gdb-io-serial.c	serial.h
gdb-io-serial.c	signal.h
gdb-io-serial.c	smp.h
gdb-io-serial.c	string.h
gdb-io-ttysm.c	clock.h
gdb-io-ttysm.c	console.h
gdb-io-ttysm.c	exceptions.h
gdb-io-ttysm.c	gdb-stub.h
gdb-io-ttysm.c	init.h
gdb-io-ttysm.c	kernel.h
gdb-io-ttysm.c	mm.h
gdb-io-ttysm.c	mn10300-serial.h
gdb-io-ttysm.c	pgtable.h
gdb-io-ttysm.c	sched.h
gdb-io-ttysm.c	signal.h
gdb-io-ttysm.c	string.h
gdb-io-ttysm.c	tty.h
gdb-stub.c	bug.h
gdb-stub.c	busctl-regs.h
gdb-stub.c	console.h
gdb-stub.c	debugger.h
gdb-stub.c	exceptions.h
gdb-stub.c	gdb-stub.h
gdb-stub.c	init.h
gdb-stub.c	kernel.h
gdb-stub.c	leds.h
gdb-stub.c	mm.h
gdb-stub.c	pgtable.h
gdb-stub.c	sched.h
gdb-stub.c	serial-regs.h
gdb-stub.c	serial.h
gdb-stub.c	signal.h
gdb-stub.c	string.h
gdb-stub.h	exceptions.h
gpio.h	gpio.h
hardirq.h	exceptions.h
hardirq.h	irq.h
hardirq.h	irq_cpustat.h
hardirq.h	threads.h
init.c	bootmem.h
init.c	dma.h
init.c	errno.h
init.c	fs.h
init.c	gfp.h
init.c	highmem.h
init.c	init.h
init.c	initrd.h
init.c	kernel.h
init.c	mm.h
init.c	mman.h
init.c	pagemap.h
init.c	pgalloc.h
init.c	pgtable.h
init.c	processor.h
init.c	ptrace.h
init.c	sched.h
init.c	sections.h
init.c	signal.h
init.c	smp.h
init.c	string.h
init.c	swap.h
init.c	tlb.h
init.c	types.h
init.c	uaccess.h
internal.h	irqreturn.h
internal.h	irqreturn.h
io.c	io.h
io.c	kernel.h
io.c	module.h
io.c	string.h
io.h	bug.h
io.h	bug.h
io.h	byteorder.h
io.h	byteorder.h
io.h	io.h
io.h	io.h
io.h	kernel.h
io.h	kernel.h
io.h	page.h
io.h	page.h
io.h	types.h
io.h	types.h
ioctl.h	ioctl.h
ioctls.h	ioctl.h
ioctls.h	ioctl.h
irq-fpga.c	fpga-regs.h
irq-fpga.c	init.h
irq-fpga.c	interrupt.h
irq-fpga.c	irq.h
irq.c	cpumask.h
irq.c	cpumask.h
irq.c	interrupt.h
irq.c	interrupt.h
irq.c	kernel_stat.h
irq.c	kernel_stat.h
irq.c	module.h
irq.c	module.h
irq.c	seq_file.h
irq.c	seq_file.h
irq.c	serial-regs.h
irq.c	serial-regs.h
irq.c	setup.h
irq.c	setup.h
irq.h	core.h
irq.h	core.h
irq.h	core.h
irq.h	core.h
irq.h	core.h
irq.h	hardware.h
irq.h	hardware.h
irq.h	hardware.h
irq.h	hardware.h
irq.h	hardware.h
irq.h	init.h
irq.h	init.h
irq.h	init.h
irq.h	init.h
irq.h	init.h
irq.h	irq.h
irq.h	irq.h
irq.h	irq.h
irq.h	irq.h
irq.h	irq.h
irqflags.h	types.h
irqflags.h	types.h
kgdb.c	debugger.h
kgdb.c	internal.h
kgdb.c	kgdb.h
kgdb.c	leds.h
kgdb.c	ptrace.h
kgdb.c	serial-regs.h
kgdb.c	serial.h
kgdb.c	slab.h
kgdb.c	uaccess.h
kmap_types.h	kmap_types.h
kprobes.c	cacheflush.h
kprobes.c	kdebug.h
kprobes.c	kprobes.h
kprobes.c	preempt.h
kprobes.c	ptrace.h
kprobes.c	spinlock.h
kprobes.h	ptrace.h
kprobes.h	types.h
kvm_para.h	kvm_para.h
leds.c	init.h
leds.c	init.h
leds.c	init.h
leds.c	intctl-regs.h
leds.c	intctl-regs.h
leds.c	intctl-regs.h
leds.c	io.h
leds.c	io.h
leds.c	io.h
leds.c	kernel.h
leds.c	kernel.h
leds.c	kernel.h
leds.c	leds.h
leds.c	leds.h
leds.c	leds.h
leds.c	param.h
leds.c	param.h
leds.c	param.h
leds.c	processor.h
leds.c	processor.h
leds.c	processor.h
leds.c	rtc-regs.h
leds.c	rtc-regs.h
leds.c	rtc-regs.h
leds.h	cpu-regs.h
leds.h	cpu-regs.h
leds.h	cpu-regs.h
leds.h	exceptions.h
leds.h	exceptions.h
leds.h	exceptions.h
leds.h	pio-regs.h
leds.h	pio-regs.h
leds.h	pio-regs.h
libgcc.h	byteorder.h
local.h	local.h
local64.h	local64.h
mc146818rtc.h	rtc-regs.h
misalignment.c	asm-offsets.h
misalignment.c	atomic.h
misalignment.c	busctl-regs.h
misalignment.c	cpu-regs.h
misalignment.c	delay.h
misalignment.c	errno.h
misalignment.c	fpu.h
misalignment.c	gdb-stub.h
misalignment.c	init.h
misalignment.c	interrupt.h
misalignment.c	io.h
misalignment.c	kernel.h
misalignment.c	mm.h
misalignment.c	module.h
misalignment.c	pci.h
misalignment.c	pgalloc.h
misalignment.c	processor.h
misalignment.c	ptrace.h
misalignment.c	sched.h
misalignment.c	smp.h
misalignment.c	smp.h
misalignment.c	spinlock.h
misalignment.c	string.h
misalignment.c	timer.h
misalignment.c	uaccess.h
misc.c	compiler.h
misc.c	inflate.c
misc.c	misc.h
misc.c	serial-regs.h
mmu-context.c	mm.h
mmu-context.c	mmu_context.h
mmu-context.c	sched.h
mmu-context.c	tlbflush.h
mmu.h	mmu.h
mmu.h	mmu.h
mmu_context.h	cacheflush.h
mmu_context.h	cacheflush.h
mmu_context.h	core.h
mmu_context.h	core.h
mmu_context.h	mm_hooks.h
mmu_context.h	mm_hooks.h
mmu_context.h	nommu_context.h
mmu_context.h	nommu_context.h
mmu_context.h	pgtable.h
mmu_context.h	pgtable.h
mmu_context.h	sched.h
mmu_context.h	sched.h
mmu_context.h	stringify.h
mmu_context.h	stringify.h
mmu_context.h	tlbflush.h
mmu_context.h	tlbflush.h
mn10300-debug.c	sched.h
mn10300-debug.c	serial-regs.h
mn10300-serial.c	bitops.h
mn10300-serial.c	circ_buf.h
mn10300-serial.c	console.h
mn10300-serial.c	errno.h
mn10300-serial.c	init.h
mn10300-serial.c	interrupt.h
mn10300-serial.c	io.h
mn10300-serial.c	ioport.h
mn10300-serial.c	irq.h
mn10300-serial.c	major.h
mn10300-serial.c	mm.h
mn10300-serial.c	mn10300-serial.h
mn10300-serial.c	module.h
mn10300-serial.c	sched.h
mn10300-serial.c	serial-regs.h
mn10300-serial.c	serial.h
mn10300-serial.c	signal.h
mn10300-serial.c	slab.h
mn10300-serial.c	string.h
mn10300-serial.c	sysrq.h
mn10300-serial.c	timer.h
mn10300-serial.c	timex.h
mn10300-serial.c	tty.h
mn10300-serial.c	tty_flip.h
mn10300-serial.h	page.h
mn10300-serial.h	serial-regs.h
mn10300-serial.h	serial_core.h
mn10300-serial.h	termios.h
mn10300-watchdog.c	atomic.h
mn10300-watchdog.c	clock.h
mn10300-watchdog.c	delay.h
mn10300-watchdog.c	div64.h
mn10300-watchdog.c	gdb-stub.h
mn10300-watchdog.c	init.h
mn10300-watchdog.c	intctl-regs.h
mn10300-watchdog.c	interrupt.h
mn10300-watchdog.c	kernel.h
mn10300-watchdog.c	kernel_stat.h
mn10300-watchdog.c	module.h
mn10300-watchdog.c	nmi.h
mn10300-watchdog.c	processor.h
mn10300-watchdog.c	rtc-regs.h
mn10300-watchdog.c	sched.h
mn10300-watchdog.c	smp.h
mn10300_ksyms.c	module.h
mn10300_ksyms.c	pgtable.h
mn10300_ksyms.c	uaccess.h
module.c	bug.h
module.c	bug.h
module.c	elf.h
module.c	elf.h
module.c	fs.h
module.c	fs.h
module.c	kernel.h
module.c	kernel.h
module.c	moduleloader.h
module.c	moduleloader.h
module.c	string.h
module.c	string.h
module.c	vmalloc.h
module.c	vmalloc.h
module.h	module.h
module.h	module.h
mutex.h	mutex-dec.h
mutex.h	mutex-dec.h
negdi2.c	types.h
op_model_null.c	errno.h
op_model_null.c	init.h
op_model_null.c	kernel.h
op_model_null.c	oprofile.h
page.h	cache.h
page.h	cache.h
page.h	hardware.h
page.h	hardware.h
page.h	memory_model.h
page.h	memory_model.h
page.h	processor.h
page.h	processor.h
page.h	types.h
page.h	types.h
param.h	param.h
param.h	param.h
param.h	param.h
pci-asb2305.c	errno.h
pci-asb2305.c	init.h
pci-asb2305.c	ioport.h
pci-asb2305.c	kernel.h
pci-asb2305.c	pci-asb2305.h
pci-asb2305.c	pci.h
pci-asb2305.c	types.h
pci-iomap.c	module.h
pci-iomap.c	pci.h
pci-irq.c	init.h
pci-irq.c	interrupt.h
pci-irq.c	io.h
pci-irq.c	irq.h
pci-irq.c	kernel.h
pci-irq.c	pci-asb2305.h
pci-irq.c	pci.h
pci-irq.c	smp.h
pci-irq.c	types.h
pci.c	delay.h
pci.c	init.h
pci.c	io.h
pci.c	ioport.h
pci.c	irq.h
pci.c	kernel.h
pci.c	pci-asb2305.h
pci.c	pci.h
pci.c	sched.h
pci.c	types.h
pci.h	io.h
pci.h	io.h
pci.h	pci-dma-compat.h
pci.h	pci-dma-compat.h
pci.h	pci.h
pci.h	pci.h
pci.h	scatterlist.h
pci.h	scatterlist.h
pci.h	slab.h
pci.h	slab.h
pci.h	string.h
pci.h	string.h
pci.h	types.h
pci.h	types.h
percpu.h	percpu.h
pgalloc.h	highmem.h
pgalloc.h	highmem.h
pgalloc.h	slab.h
pgalloc.h	slab.h
pgtable.c	errno.h
pgtable.c	gfp.h
pgtable.c	highmem.h
pgtable.c	kernel.h
pgtable.c	mm.h
pgtable.c	pagemap.h
pgtable.c	pgalloc.h
pgtable.c	pgtable.h
pgtable.c	quicklist.h
pgtable.c	sched.h
pgtable.c	smp.h
pgtable.c	spinlock.h
pgtable.c	swap.h
pgtable.c	tlb.h
pgtable.c	tlbflush.h
pgtable.h	page.h
pgtable.h	page.h
pgtable.h	pgtable-nopmd.h
pgtable.h	pgtable-nopmd.h
pgtable.h	pgtable.h
pgtable.h	pgtable.h
pio-regs.h	cpu-regs.h
pio-regs.h	intctl-regs.h
platform.h	bootparam.h
platform.h	pci.h
platform.h	types.h
poll.h	poll.h
poll.h	poll.h
posix_types.h	posix_types.h
posix_types.h	posix_types.h
proc-init.c	atomic.h
proc-init.c	atomic.h
proc-init.c	busctl-regs.h
proc-init.c	busctl-regs.h
proc-init.c	delay.h
proc-init.c	delay.h
proc-init.c	fpu.h
proc-init.c	fpu.h
proc-init.c	init.h
proc-init.c	init.h
proc-init.c	interrupt.h
proc-init.c	interrupt.h
proc-init.c	io.h
proc-init.c	io.h
proc-init.c	kernel.h
proc-init.c	kernel.h
proc-init.c	pgalloc.h
proc-init.c	pgalloc.h
proc-init.c	processor.h
proc-init.c	processor.h
proc-init.c	rtc.h
proc-init.c	rtc.h
proc-init.c	sched.h
proc-init.c	sched.h
proc-init.c	smp.h
proc-init.c	smp.h
proc-init.c	timex.h
proc-init.c	timex.h
proc-init.c	uaccess.h
proc-init.c	uaccess.h
process.c	delay.h
process.c	delay.h
process.c	err.h
process.c	err.h
process.c	errno.h
process.c	errno.h
process.c	fpu.h
process.c	fpu.h
process.c	fs.h
process.c	fs.h
process.c	gdb-stub.h
process.c	gdb-stub.h
process.c	internal.h
process.c	internal.h
process.c	interrupt.h
process.c	interrupt.h
process.c	io.h
process.c	io.h
process.c	kernel.h
process.c	kernel.h
process.c	mm.h
process.c	mm.h
process.c	mmu_context.h
process.c	mmu_context.h
process.c	module.h
process.c	module.h
process.c	percpu.h
process.c	percpu.h
process.c	pgtable.h
process.c	pgtable.h
process.c	processor.h
process.c	processor.h
process.c	ptrace.h
process.c	ptrace.h
process.c	rcupdate.h
process.c	rcupdate.h
process.c	reboot.h
process.c	reboot.h
process.c	reset-regs.h
process.c	reset-regs.h
process.c	sched.h
process.c	sched.h
process.c	slab.h
process.c	slab.h
process.c	smp.h
process.c	smp.h
process.c	stddef.h
process.c	stddef.h
process.c	uaccess.h
process.c	uaccess.h
process.c	unistd.h
process.c	unistd.h
process.c	user.h
process.c	user.h
processor.h	compiler.h
processor.h	compiler.h
processor.h	core.h
processor.h	core.h
processor.h	hardware.h
processor.h	hardware.h
processor.h	ptrace.h
processor.h	ptrace.h
processor.h	regs.h
processor.h	regs.h
processor.h	types.h
processor.h	types.h
ptrace.c	asm-offsets.h
ptrace.c	asm-offsets.h
ptrace.c	cacheflush.h
ptrace.c	cacheflush.h
ptrace.c	elf.h
ptrace.c	elf.h
ptrace.c	errno.h
ptrace.c	errno.h
ptrace.c	fpu.h
ptrace.c	fpu.h
ptrace.c	kernel.h
ptrace.c	kernel.h
ptrace.c	mm.h
ptrace.c	mm.h
ptrace.c	pgtable.h
ptrace.c	pgtable.h
ptrace.c	processor.h
ptrace.c	processor.h
ptrace.c	ptrace.h
ptrace.c	ptrace.h
ptrace.c	regset.h
ptrace.c	regset.h
ptrace.c	sched.h
ptrace.c	sched.h
ptrace.c	smp.h
ptrace.c	smp.h
ptrace.c	tracehook.h
ptrace.c	tracehook.h
ptrace.c	uaccess.h
ptrace.c	uaccess.h
ptrace.c	user.h
ptrace.c	user.h
ptrace.h	coprocessor.h
ptrace.h	coprocessor.h
ptrace.h	coprocessor.h
ptrace.h	coprocessor.h
ptrace.h	core.h
ptrace.h	core.h
ptrace.h	core.h
ptrace.h	core.h
ptrace.h	ptrace.h
ptrace.h	ptrace.h
ptrace.h	ptrace.h
ptrace.h	ptrace.h
reset-regs.h	cpu-regs.h
reset-regs.h	exceptions.h
resource.h	resource.h
rtc-regs.h	intctl-regs.h
rtc.c	bcd.h
rtc.c	init.h
rtc.c	kernel.h
rtc.c	mc146818rtc.h
rtc.c	module.h
rtc.c	rtc-regs.h
rtc.c	rtc.h
rtc.c	timex.h
rtc.h	init.h
rtc.h	rtc.h
scatterlist.h	scatterlist.h
sections.h	sections.h
segment.h	uaccess.h
sembuf.h	byteorder.h
sembuf.h	byteorder.h
serial-regs.h	cpu-regs.h
serial-regs.h	intctl-regs.h
serial.h	serial.h
serial.h	serial.h
serial.h	serial.h
serial.h	serial.h
serial.h	serial.h
setup.c	bootmem.h
setup.c	bootmem.h
setup.c	console.h
setup.c	console.h
setup.c	cpu.h
setup.c	cpu.h
setup.c	delay.h
setup.c	delay.h
setup.c	errno.h
setup.c	errno.h
setup.c	fpu.h
setup.c	fpu.h
setup.c	init.h
setup.c	init.h
setup.c	io.h
setup.c	io.h
setup.c	ioport.h
setup.c	ioport.h
setup.c	kernel.h
setup.c	kernel.h
setup.c	mm.h
setup.c	mm.h
setup.c	proc.h
setup.c	proc.h
setup.c	processor.h
setup.c	processor.h
setup.c	ptrace.h
setup.c	ptrace.h
setup.c	sched.h
setup.c	sched.h
setup.c	sections.h
setup.c	sections.h
setup.c	seq_file.h
setup.c	seq_file.h
setup.c	setup.h
setup.c	setup.h
setup.c	smp.h
setup.c	smp.h
setup.c	stddef.h
setup.c	stddef.h
setup.c	tty.h
setup.c	tty.h
setup.c	uaccess.h
setup.c	uaccess.h
setup.c	unistd.h
setup.c	unistd.h
setup.c	user.h
setup.c	user.h
siginfo.h	siginfo.h
signal.c	cacheflush.h
signal.c	cacheflush.h
signal.c	errno.h
signal.c	errno.h
signal.c	fpu.h
signal.c	fpu.h
signal.c	kernel.h
signal.c	kernel.h
signal.c	mm.h
signal.c	mm.h
signal.c	personality.h
signal.c	personality.h
signal.c	ptrace.h
signal.c	ptrace.h
signal.c	sched.h
signal.c	sched.h
signal.c	sigframe.h
signal.c	sigframe.h
signal.c	signal.h
signal.c	signal.h
signal.c	smp.h
signal.c	smp.h
signal.c	stddef.h
signal.c	stddef.h
signal.c	suspend.h
signal.c	suspend.h
signal.c	tracehook.h
signal.c	tracehook.h
signal.c	tty.h
signal.c	tty.h
signal.c	uaccess.h
signal.c	uaccess.h
signal.c	ucontext.h
signal.c	ucontext.h
signal.c	unistd.h
signal.c	unistd.h
signal.c	wait.h
signal.c	wait.h
signal.h	sigcontext.h
signal.h	sigcontext.h
signal.h	sigcontext.h
signal.h	sigcontext.h
signal.h	signal.h
signal.h	signal.h
signal.h	signal.h
signal.h	signal.h
smc91111.c	init.h
smc91111.c	intctl-regs.h
smc91111.c	io.h
smc91111.c	irq.h
smc91111.c	kernel.h
smc91111.c	param.h
smc91111.c	platform_device.h
smc91111.c	processor.h
smc91111.c	smc91111.h
smc91111.c	timex.h
smc91111.h	intctl-regs.h
smp-regs.h	cpu-regs.h
smp-regs.h	types.h
smp.c	bitops.h
smp.c	bug.h
smp.c	cacheflush.h
smp.c	cpu-regs.h
smp.c	cpu.h
smp.c	cpumask.h
smp.c	delay.h
smp.c	err.h
smp.c	exceptions.h
smp.c	fpu.h
smp.c	hardirq.h
smp.c	init.h
smp.c	intctl-regs.h
smp.c	internal.h
smp.c	interrupt.h
smp.c	jiffies.h
smp.c	kernel.h
smp.c	mmu_context.h
smp.c	processor.h
smp.c	profile.h
smp.c	sched.h
smp.c	smp.h
smp.c	spinlock.h
smp.c	thread_info.h
smp.c	tlbflush.h
smsc911x.c	init.h
smsc911x.c	io.h
smsc911x.c	ioport.h
smsc911x.c	kernel.h
smsc911x.c	platform_device.h
smsc911x.c	smsc911x.h
smsc911x.c	smsc911x.h
smsc911x.h	clock.h
smsc911x.h	clock.h
smsc911x.h	delay.h
smsc911x.h	delay.h
smsc911x.h	fpga-regs.h
smsc911x.h	fpga-regs.h
smsc911x.h	irq.h
smsc911x.h	irq.h
smsc911x.h	netdevice.h
smsc911x.h	netdevice.h
socket.h	sockios.h
socket.h	sockios.h
sockios.h	ioctl.h
sockios.h	ioctl.h
statfs.h	statfs.h
swab.h	compiler.h
swab.h	compiler.h
swab.h	types.h
swab.h	types.h
sys_call_table.c	signal.h
sys_call_table.c	syscalls.h
sys_call_table.c	syscalls.h
sys_call_table.c	unistd.h
sys_call_table.c	unistd.h
sys_mn10300.c	errno.h
sys_mn10300.c	file.h
sys_mn10300.c	mm.h
sys_mn10300.c	mman.h
sys_mn10300.c	msg.h
sys_mn10300.c	sched.h
sys_mn10300.c	sem.h
sys_mn10300.c	shm.h
sys_mn10300.c	smp.h
sys_mn10300.c	stat.h
sys_mn10300.c	syscalls.h
sys_mn10300.c	tty.h
sys_mn10300.c	uaccess.h
sys_score.c	file.h
sys_score.c	fs.h
sys_score.c	mm.h
sys_score.c	mman.h
sys_score.c	module.h
sys_score.c	slab.h
sys_score.c	syscalls.h
sys_score.c	syscalls.h
sys_score.c	unistd.h
termbits.h	posix_types.h
termbits.h	posix_types.h
termios.h	termios.h
termios.h	termios.h
time.c	clockchips.h
time.c	clockchips.h
time.c	clocksource.h
time.c	clocksource.h
time.c	cnt32_to_63.h
time.c	cnt32_to_63.h
time.c	div64.h
time.c	div64.h
time.c	init.h
time.c	init.h
time.c	intctl-regs.h
time.c	intctl-regs.h
time.c	internal.h
time.c	internal.h
time.c	interrupt.h
time.c	interrupt.h
time.c	irq.h
time.c	irq.h
time.c	kernel.h
time.c	kernel.h
time.c	processor.h
time.c	processor.h
time.c	profile.h
time.c	profile.h
time.c	rtc.h
time.c	rtc.h
time.c	sched.h
time.c	sched.h
time.c	smp.h
time.c	smp.h
time.c	time.h
time.c	time.h
timer-regs.h	cpu-regs.h
timer-regs.h	intctl-regs.h
timex.h	clock.h
timex.h	clock.h
timex.h	clock.h
timex.h	clock.h
timex.h	param.h
timex.h	param.h
timex.h	param.h
timex.h	param.h
timex.h	timer-regs.h
timex.h	timer-regs.h
timex.h	timer-regs.h
timex.h	timer-regs.h
tlb-smp.c	bitops.h
tlb-smp.c	bug.h
tlb-smp.c	cpu-regs.h
tlb-smp.c	cpumask.h
tlb-smp.c	delay.h
tlb-smp.c	err.h
tlb-smp.c	exceptions.h
tlb-smp.c	fpu.h
tlb-smp.c	hardirq.h
tlb-smp.c	init.h
tlb-smp.c	intctl-regs.h
tlb-smp.c	interrupt.h
tlb-smp.c	jiffies.h
tlb-smp.c	kernel.h
tlb-smp.c	mmu_context.h
tlb-smp.c	processor.h
tlb-smp.c	profile.h
tlb-smp.c	sched.h
tlb-smp.c	smp.h
tlb-smp.c	spinlock.h
tlb-smp.c	thread_info.h
tlb-smp.c	tlbflush.h
tlb.h	cache.h
tlb.h	cache.h
tlb.h	page.h
tlb.h	page.h
tlb.h	tlb.h
tlb.h	tlb.h
tlbflush.h	processor.h
tlbflush.h	processor.h
tlbflush.h	stringify.h
tlbflush.h	stringify.h
topology.h	topology.h
traps.c	atomic.h
traps.c	atomic.h
traps.c	bug.h
traps.c	bug.h
traps.c	busctl-regs.h
traps.c	busctl-regs.h
traps.c	cacheflush.h
traps.c	cacheflush.h
traps.c	cpu-regs.h
traps.c	cpu-regs.h
traps.c	debugger.h
traps.c	debugger.h
traps.c	delay.h
traps.c	delay.h
traps.c	errno.h
traps.c	errno.h
traps.c	export.h
traps.c	export.h
traps.c	fpu.h
traps.c	fpu.h
traps.c	init.h
traps.c	init.h
traps.c	internal.h
traps.c	internal.h
traps.c	interrupt.h
traps.c	interrupt.h
traps.c	io.h
traps.c	io.h
traps.c	irq.h
traps.c	irq.h
traps.c	kallsyms.h
traps.c	kallsyms.h
traps.c	kdebug.h
traps.c	kdebug.h
traps.c	kernel.h
traps.c	kernel.h
traps.c	leds.h
traps.c	leds.h
traps.c	mm.h
traps.c	mm.h
traps.c	pci.h
traps.c	pci.h
traps.c	pgalloc.h
traps.c	pgalloc.h
traps.c	processor.h
traps.c	processor.h
traps.c	ptrace.h
traps.c	ptrace.h
traps.c	sched.h
traps.c	sched.h
traps.c	sections.h
traps.c	sections.h
traps.c	smp.h
traps.c	smp.h
traps.c	smp.h
traps.c	smp.h
traps.c	spinlock.h
traps.c	spinlock.h
traps.c	string.h
traps.c	string.h
traps.c	timer.h
traps.c	timer.h
traps.c	uaccess.h
traps.c	uaccess.h
traps.h	ptrace.h
types.h	int-ll64.h
types.h	int-ll64.h
types.h	int-ll64.h
uaccess.h	errno.h
uaccess.h	kernel.h
uaccess.h	page.h
uaccess.h	thread_info.h
ucmpdi2.c	libgcc.h
ucmpdi2.c	module.h
unaligned.h	byteorder.h
unaligned.h	byteorder.h
unistd.h	unistd.h
unistd.h	unistd.h
unistd.h	unistd.h
unistd.h	unistd.h
unit-init.c	delay.h
unit-init.c	delay.h
unit-init.c	delay.h
unit-init.c	device.h
unit-init.c	device.h
unit-init.c	device.h
unit-init.c	fpga-regs.h
unit-init.c	fpga-regs.h
unit-init.c	fpga-regs.h
unit-init.c	init.h
unit-init.c	init.h
unit-init.c	init.h
unit-init.c	intctl-regs.h
unit-init.c	intctl-regs.h
unit-init.c	intctl-regs.h
unit-init.c	io.h
unit-init.c	io.h
unit-init.c	io.h
unit-init.c	irq.h
unit-init.c	irq.h
unit-init.c	irq.h
unit-init.c	kernel.h
unit-init.c	kernel.h
unit-init.c	kernel.h
unit-init.c	param.h
unit-init.c	param.h
unit-init.c	param.h
unit-init.c	processor.h
unit-init.c	processor.h
unit-init.c	processor.h
unit-init.c	serial-regs.h
unit-init.c	serial-regs.h
unit-init.c	serial-regs.h
unit-init.c	serial.h
unit-init.c	serial.h
unit-init.c	serial.h
unit-init.c	setup.h
unit-init.c	setup.h
unit-init.c	setup.h
unit-init.c	smsc911x.h
unit-init.c	smsc911x.h
unit-init.c	smsc911x.h
usercopy.c	uaccess.h
xor.h	xor.h
zmem.c	zlib.h
