abi.h	siginfo.h
abi.h	signal.h
agent.h	addrs.h
agent.h	arch.h
agent.h	hub.h
agent.h	hub.h
arch_hweight.h	arch_hweight.h
arch_hweight.h	types.h
au1000.h	delay.h
au1000.h	io.h
au1000.h	irq.h
au1000.h	types.h
au1000_dma.h	delay.h
au1000_dma.h	io.h
au1000_dma.h	spinlock.h
au1100_mmc.h	leds.h
au1550nd.h	partitions.h
c-octeon.c	bcache.h
c-octeon.c	bitops.h
c-octeon.c	bootinfo.h
c-octeon.c	cacheops.h
c-octeon.c	cpu-features.h
c-octeon.c	cpu.h
c-octeon.c	export.h
c-octeon.c	init.h
c-octeon.c	io.h
c-octeon.c	kernel.h
c-octeon.c	mm.h
c-octeon.c	mmu_context.h
c-octeon.c	octeon.h
c-octeon.c	page.h
c-octeon.c	pgtable.h
c-octeon.c	r4kcache.h
c-octeon.c	sched.h
c-octeon.c	smp.h
c-octeon.c	traps.h
c-octeon.c	war.h
c-r3k.c	bootinfo.h
c-r3k.c	cpu.h
c-r3k.c	init.h
c-r3k.c	io.h
c-r3k.c	isadep.h
c-r3k.c	kernel.h
c-r3k.c	mm.h
c-r3k.c	mmu_context.h
c-r3k.c	page.h
c-r3k.c	pgtable.h
c-r3k.c	sched.h
c-r3k.c	smp.h
c-r4k.c	bcache.h
c-r4k.c	bitops.h
c-r4k.c	bootinfo.h
c-r4k.c	cache.h
c-r4k.c	cacheflush.h
c-r4k.c	cacheops.h
c-r4k.c	cpu-features.h
c-r4k.c	cpu.h
c-r4k.c	hardirq.h
c-r4k.c	highmem.h
c-r4k.c	init.h
c-r4k.c	io.h
c-r4k.c	kernel.h
c-r4k.c	linkage.h
c-r4k.c	mm.h
c-r4k.c	mmu_context.h
c-r4k.c	module.h
c-r4k.c	page.h
c-r4k.c	pgtable.h
c-r4k.c	r4kcache.h
c-r4k.c	sched.h
c-r4k.c	sections.h
c-r4k.c	smp.h
c-r4k.c	traps.h
c-r4k.c	war.h
c-tx39.c	bootinfo.h
c-tx39.c	cacheops.h
c-tx39.c	cpu.h
c-tx39.c	init.h
c-tx39.c	io.h
c-tx39.c	isadep.h
c-tx39.c	kernel.h
c-tx39.c	mm.h
c-tx39.c	mmu_context.h
c-tx39.c	page.h
c-tx39.c	pgtable.h
c-tx39.c	r4kcache.h
c-tx39.c	sched.h
c-tx39.c	smp.h
cacheflush.h	cpu-features.h
cacheflush.h	mm.h
cerr-sb1.c	io.h
cerr-sb1.c	mipsregs.h
cerr-sb1.c	sb1250.h
cerr-sb1.c	sb1250_regs.h
cerr-sb1.c	sb1250_scd.h
cerr-sb1.c	sched.h
cevt-r4k.h	clockchips.h
cevt-r4k.h	time.h
clock.h	clk.h
clock.h	kref.h
clock.h	list.h
clock.h	seq_file.h
cmpxchg.h	bug.h
cmpxchg.h	cmpxchg-local.h
cmpxchg.h	irqflags.h
cmpxchg.h	war.h
compat-signal.h	bug.h
compat-signal.h	compat.h
compat-signal.h	compiler.h
compat-signal.h	siginfo.h
compat-signal.h	signal.h
compat-signal.h	uaccess.h
compat.h	page.h
compat.h	ptrace.h
compat.h	thread_info.h
compat.h	types.h
cpu.c	cop2.h
cpu.c	current.h
cpu.c	init.h
cpu.c	irqflags.h
cpu.c	mipsregs.h
cpu.c	notifier.h
cpu.c	octeon.h
cpu.c	page.h
cpu.c	prefetch.h
cpu.c	sched.h
cs5536_pci.h	pci_regs.h
cs5536_pci.h	types.h
cs5536_vsm.h	types.h
csrc-octeon.c	clocksource.h
csrc-octeon.c	cpu-info.h
csrc-octeon.c	cvmx-ipd-defs.h
csrc-octeon.c	cvmx-mio-defs.h
csrc-octeon.c	export.h
csrc-octeon.c	init.h
csrc-octeon.c	octeon.h
csrc-octeon.c	smp.h
csrc-octeon.c	time.h
cvmx-asm.h	octeon-model.h
cvmx-bootmem.c	cvmx-bootmem.h
cvmx-bootmem.c	cvmx-spinlock.h
cvmx-bootmem.c	cvmx.h
cvmx-bootmem.c	kernel.h
cvmx-bootmem.c	module.h
cvmx-cmd-queue.c	cvmx-cmd-queue.h
cvmx-cmd-queue.c	cvmx-config.h
cvmx-cmd-queue.c	cvmx-fpa.h
cvmx-cmd-queue.c	cvmx-npei-defs.h
cvmx-cmd-queue.c	cvmx-pexp-defs.h
cvmx-cmd-queue.c	cvmx-pko-defs.h
cvmx-cmd-queue.c	kernel.h
cvmx-cmd-queue.c	octeon.h
cvmx-cmd-queue.h	cvmx-fpa.h
cvmx-cmd-queue.h	prefetch.h
cvmx-fpa.h	cvmx-address.h
cvmx-fpa.h	cvmx-fpa-defs.h
cvmx-helper-board.c	cvmx-asxx-defs.h
cvmx-helper-board.c	cvmx-bootinfo.h
cvmx-helper-board.c	cvmx-config.h
cvmx-helper-board.c	cvmx-gmxx-defs.h
cvmx-helper-board.c	cvmx-helper-board.h
cvmx-helper-board.c	cvmx-helper-util.h
cvmx-helper-board.c	cvmx-helper.h
cvmx-helper-board.c	cvmx-mdio.h
cvmx-helper-board.c	octeon.h
cvmx-helper-board.h	cvmx-helper.h
cvmx-helper-errata.c	cvmx-helper-jtag.h
cvmx-helper-errata.c	module.h
cvmx-helper-errata.c	octeon.h
cvmx-helper-jtag.c	cvmx-helper-jtag.h
cvmx-helper-jtag.c	octeon.h
cvmx-helper-loop.c	cvmx-config.h
cvmx-helper-loop.c	cvmx-helper.h
cvmx-helper-loop.c	cvmx-pip-defs.h
cvmx-helper-loop.c	octeon.h
cvmx-helper-npi.c	cvmx-config.h
cvmx-helper-npi.c	cvmx-helper.h
cvmx-helper-npi.c	cvmx-pip-defs.h
cvmx-helper-npi.c	octeon.h
cvmx-helper-rgmii.c	cvmx-asxx-defs.h
cvmx-helper-rgmii.c	cvmx-config.h
cvmx-helper-rgmii.c	cvmx-dbg-defs.h
cvmx-helper-rgmii.c	cvmx-gmxx-defs.h
cvmx-helper-rgmii.c	cvmx-helper-board.h
cvmx-helper-rgmii.c	cvmx-helper.h
cvmx-helper-rgmii.c	cvmx-mdio.h
cvmx-helper-rgmii.c	cvmx-npi-defs.h
cvmx-helper-rgmii.c	cvmx-pko.h
cvmx-helper-rgmii.c	octeon.h
cvmx-helper-sgmii.c	cvmx-config.h
cvmx-helper-sgmii.c	cvmx-gmxx-defs.h
cvmx-helper-sgmii.c	cvmx-helper-board.h
cvmx-helper-sgmii.c	cvmx-helper.h
cvmx-helper-sgmii.c	cvmx-mdio.h
cvmx-helper-sgmii.c	cvmx-pcsx-defs.h
cvmx-helper-sgmii.c	octeon.h
cvmx-helper-spi.c	cvmx-config.h
cvmx-helper-spi.c	cvmx-helper.h
cvmx-helper-spi.c	cvmx-pip-defs.h
cvmx-helper-spi.c	cvmx-pko-defs.h
cvmx-helper-spi.c	cvmx-spi.h
cvmx-helper-spi.c	octeon.h
cvmx-helper-util.c	cvmx-config.h
cvmx-helper-util.c	cvmx-fpa.h
cvmx-helper-util.c	cvmx-helper-util.h
cvmx-helper-util.c	cvmx-helper.h
cvmx-helper-util.c	cvmx-ipd-defs.h
cvmx-helper-util.c	cvmx-ipd.h
cvmx-helper-util.c	cvmx-pip.h
cvmx-helper-util.c	cvmx-pko.h
cvmx-helper-util.c	cvmx-spi.h
cvmx-helper-util.c	kernel.h
cvmx-helper-util.c	octeon.h
cvmx-helper-xaui.c	cvmx-config.h
cvmx-helper-xaui.c	cvmx-gmxx-defs.h
cvmx-helper-xaui.c	cvmx-helper.h
cvmx-helper-xaui.c	cvmx-pcsxx-defs.h
cvmx-helper-xaui.c	cvmx-pko-defs.h
cvmx-helper-xaui.c	octeon.h
cvmx-helper.c	cvmx-asxx-defs.h
cvmx-helper.c	cvmx-config.h
cvmx-helper.c	cvmx-fpa.h
cvmx-helper.c	cvmx-helper-board.h
cvmx-helper.c	cvmx-helper.h
cvmx-helper.c	cvmx-ipd.h
cvmx-helper.c	cvmx-pip-defs.h
cvmx-helper.c	cvmx-pip.h
cvmx-helper.c	cvmx-pko.h
cvmx-helper.c	cvmx-smix-defs.h
cvmx-helper.c	cvmx-spi.h
cvmx-helper.c	octeon.h
cvmx-helper.h	cvmx-config.h
cvmx-helper.h	cvmx-fpa.h
cvmx-helper.h	cvmx-helper-errata.h
cvmx-helper.h	cvmx-helper-loop.h
cvmx-helper.h	cvmx-helper-npi.h
cvmx-helper.h	cvmx-helper-rgmii.h
cvmx-helper.h	cvmx-helper-sgmii.h
cvmx-helper.h	cvmx-helper-spi.h
cvmx-helper.h	cvmx-helper-util.h
cvmx-helper.h	cvmx-helper-xaui.h
cvmx-helper.h	cvmx-wqe.h
cvmx-interrupt-decodes.c	cvmx-gmxx-defs.h
cvmx-interrupt-decodes.c	cvmx-pcsx-defs.h
cvmx-interrupt-decodes.c	cvmx-pcsxx-defs.h
cvmx-interrupt-decodes.c	cvmx-spxx-defs.h
cvmx-interrupt-decodes.c	cvmx-stxx-defs.h
cvmx-interrupt-decodes.c	octeon.h
cvmx-interrupt-rsl.c	cvmx-asxx-defs.h
cvmx-interrupt-rsl.c	cvmx-gmxx-defs.h
cvmx-interrupt-rsl.c	octeon.h
cvmx-ipd.h	cvmx-ipd-defs.h
cvmx-ipd.h	octeon-feature.h
cvmx-l2c.c	compiler.h
cvmx-l2c.c	cvmx-l2c.h
cvmx-l2c.c	cvmx-spinlock.h
cvmx-l2c.c	cvmx.h
cvmx-l2c.c	irqflags.h
cvmx-mdio.h	cvmx-smix-defs.h
cvmx-pip.h	cvmx-fpa.h
cvmx-pip.h	cvmx-pip-defs.h
cvmx-pip.h	cvmx-wqe.h
cvmx-pko.c	cvmx-config.h
cvmx-pko.c	cvmx-helper.h
cvmx-pko.c	cvmx-pko.h
cvmx-pko.c	octeon.h
cvmx-pko.h	cvmx-cmd-queue.h
cvmx-pko.h	cvmx-fpa.h
cvmx-pko.h	cvmx-pko-defs.h
cvmx-pko.h	cvmx-pow.h
cvmx-pow.h	cvmx-pow-defs.h
cvmx-pow.h	cvmx-scratch.h
cvmx-pow.h	cvmx-wqe.h
cvmx-spi.c	cvmx-config.h
cvmx-spi.c	cvmx-pko.h
cvmx-spi.c	cvmx-spi.h
cvmx-spi.c	cvmx-spxx-defs.h
cvmx-spi.c	cvmx-srxx-defs.h
cvmx-spi.c	cvmx-stxx-defs.h
cvmx-spi.c	octeon.h
cvmx-spi.h	cvmx-gmxx-defs.h
cvmx-spinlock.h	cvmx-asm.h
cvmx-sysinfo.c	cvmx-spinlock.h
cvmx-sysinfo.c	cvmx-sysinfo.h
cvmx-sysinfo.c	cvmx.h
cvmx-sysinfo.c	module.h
cvmx-wqe.h	cvmx-packet.h
cvmx.h	cvmx-asm.h
cvmx.h	cvmx-bootinfo.h
cvmx.h	cvmx-bootmem.h
cvmx.h	cvmx-ciu-defs.h
cvmx.h	cvmx-gpio-defs.h
cvmx.h	cvmx-iob-defs.h
cvmx.h	cvmx-ipd-defs.h
cvmx.h	cvmx-l2c-defs.h
cvmx.h	cvmx-l2c.h
cvmx.h	cvmx-l2d-defs.h
cvmx.h	cvmx-l2t-defs.h
cvmx.h	cvmx-led-defs.h
cvmx.h	cvmx-mio-defs.h
cvmx.h	cvmx-packet.h
cvmx.h	cvmx-pow-defs.h
cvmx.h	cvmx-sysinfo.h
cvmx.h	kernel.h
cvmx.h	string.h
db1200.h	au1000.h
db1200.h	au1xxx_psc.h
db1200.h	types.h
ddr.h	rb.h
delay.h	param.h
dma-default.c	cache.h
dma-default.c	dma-coherence.h
dma-default.c	dma-mapping.h
dma-default.c	gfp.h
dma-default.c	highmem.h
dma-default.c	io.h
dma-default.c	mm.h
dma-default.c	module.h
dma-default.c	scatterlist.h
dma-default.c	string.h
dma-default.c	types.h
dma-mapping.h	cache.h
dma-mapping.h	dma-coherence.h
dma-mapping.h	dma-coherent.h
dma-mapping.h	dma-mapping-common.h
dma-mapping.h	scatterlist.h
dma-octeon.c	bootinfo.h
dma-octeon.c	bootmem.h
dma-octeon.c	cvmx-npi-defs.h
dma-octeon.c	cvmx-pci-defs.h
dma-octeon.c	dma-mapping.h
dma-octeon.c	export.h
dma-octeon.c	init.h
dma-octeon.c	mm.h
dma-octeon.c	octeon.h
dma-octeon.c	pci-octeon.h
dma-octeon.c	scatterlist.h
dma-octeon.c	swiotlb.h
dma-octeon.c	types.h
dma.h	rb.h
dma.h	rb.h
dmac.h	dmaengine.h
ecc.h	interrupt.h
emergency-restart.h	emergency-restart.h
flash_setup.c	export.h
flash_setup.c	kernel.h
flash_setup.c	map.h
flash_setup.c	mtd.h
flash_setup.c	octeon.h
flash_setup.c	partitions.h
floppy.h	dma-mapping.h
floppy.h	floppy.h
fpu.h	bitops.h
fpu.h	cpu-features.h
fpu.h	cpu.h
fpu.h	current.h
fpu.h	hazards.h
fpu.h	mips_mt.h
fpu.h	mipsregs.h
fpu.h	processor.h
fpu.h	sched.h
fpu.h	thread_info.h
gda.h	addrs.h
generic.h	init.h
generic.h	ioport.h
gio_device.h	device.h
gio_device.h	mod_devicetable.h
gpio-au1000.h	au1000.h
gpio-au1300.h	addrspace.h
gpio-au1300.h	au1000.h
gpio-au1300.h	io.h
gpio.c	gpio.h
gpio.c	init.h
gpio.c	io.h
gpio.c	kernel.h
gpio.c	module.h
gpio.c	spinlock.h
gpio.h	gpio.h
gpio.h	gpio.h
gpio.h	types.h
gpio.h	types.h
gpio_extended.c	gpio.h
gpio_extended.c	init.h
gpio_extended.c	io.h
gpio_extended.c	kernel.h
gpio_extended.c	module.h
gup.c	highmem.h
gup.c	hugetlb.h
gup.c	mm.h
gup.c	pgtable.h
gup.c	sched.h
gup.c	swap.h
gup.c	vmstat.h
highmem.c	compiler.h
highmem.c	fixmap.h
highmem.c	highmem.h
highmem.c	module.h
highmem.c	sched.h
highmem.c	smp.h
highmem.c	tlbflush.h
hpc3.h	page.h
hpc3.h	types.h
hub.h	addrs.h
hub.h	addrs.h
hub.h	hubcore.h
hub.h	hubcore.h
hub.h	hubio.h
hub.h	hubio.h
hub.h	hubmd.h
hub.h	hubmd.h
hub.h	hubni.h
hub.h	hubni.h
hub.h	hubpi.h
hub.h	hubpi.h
hubni.h	types.h
hubpi.h	types.h
hugetlbpage.c	err.h
hugetlbpage.c	fs.h
hugetlbpage.c	hugetlb.h
hugetlbpage.c	init.h
hugetlbpage.c	mm.h
hugetlbpage.c	mman.h
hugetlbpage.c	pagemap.h
hugetlbpage.c	sysctl.h
hugetlbpage.c	tlb.h
hugetlbpage.c	tlbflush.h
init.c	asm-offsets.h
init.c	bootinfo.h
init.c	bootmem.h
init.c	bug.h
init.c	cachectl.h
init.c	cpu.h
init.c	dma.h
init.c	errno.h
init.c	fixmap.h
init.c	gfp.h
init.c	hardirq.h
init.c	highmem.h
init.c	init.h
init.c	kernel.h
init.c	kmap_types.h
init.c	mipsmtregs.h
init.c	mm.h
init.c	mman.h
init.c	mmu_context.h
init.c	module.h
init.c	pagemap.h
init.c	pfn.h
init.c	pgalloc.h
init.c	pgtable.h
init.c	proc_fs.h
init.c	ptrace.h
init.c	sched.h
init.c	sections.h
init.c	signal.h
init.c	smp.h
init.c	string.h
init.c	swap.h
init.c	tlb.h
init.c	types.h
integ.h	rb.h
interrupts.h	irq.h
interrupts.h	mipsregs.h
io.h	hubio.h
ioasic.h	spinlock.h
ioasic.h	types.h
ioc.h	pi1.h
ioc.h	types.h
ioc3.h	types.h
ioremap.c	addrspace.h
ioremap.c	byteorder.h
ioremap.c	cacheflush.h
ioremap.c	io.h
ioremap.c	module.h
ioremap.c	sched.h
ioremap.c	slab.h
ioremap.c	tlbflush.h
ioremap.c	vmalloc.h
ioremap.h	types.h
ioremap.h	types.h
ip22.h	ioc.h
ip22.h	irq.h
ip27.h	addrs.h
ip27.h	mipsregs.h
irq.h	irq.h
irq.h	irq.h
irq.h	irq.h
irq.h	irq.h
irq.h	irq.h
irq.h	irq.h
irq.h	rb.h
irq.h	rb.h
irq.h	rb.h
irq.h	rb.h
irq.h	rb.h
irq.h	rb.h
irq_regs.h	thread_info.h
jmr3927.h	addrspace.h
jmr3927.h	tx3927.h
jmr3927.h	txx9irq.h
jump_label.h	types.h
klconfig.h	addrs.h
klconfig.h	addrs.h
klconfig.h	agent.h
klconfig.h	fru.h
klconfig.h	graph.h
klconfig.h	graph.h
klconfig.h	hack.h
klconfig.h	hinv.h
klconfig.h	router.h
klconfig.h	router.h
klconfig.h	types.h
klconfig.h	types.h
klconfig.h	types.h
klconfig.h	vector.h
klconfig.h	xbow.h
klconfig.h	xbow.h
klconfig.h	xtalk.h
klkernvars.h	types.h
kn01.h	interrupt.h
kn01.h	spinlock.h
kn01.h	types.h
kn02.h	types.h
kn02ba.h	kn02xa.h
kn02ca.h	kn02xa.h
kn02xa.h	interrupt.h
kn02xa.h	ioasic_addrs.h
kn03.h	ecc.h
kn03.h	ioasic_addrs.h
kn05.h	ioasic_addrs.h
launch.h	addrs.h
launch.h	types.h
local.h	atomic.h
local.h	bitops.h
local.h	cmpxchg.h
local.h	percpu.h
local.h	war.h
m48t37.h	spinlock.h
machtype.h	bootinfo.h
mapped_kernel.h	addrspace.h
mapped_kernel.h	mmzone.h
mc146818rtc.h	generic.h
mc146818rtc.h	generic.h
mc146818rtc.h	io.h
mc146818rtc.h	io.h
mc146818rtc.h	malta.h
mc146818rtc.h	malta.h
mmap.c	compiler.h
mmap.c	errno.h
mmap.c	mm.h
mmap.c	mman.h
mmap.c	module.h
mmap.c	personality.h
mmap.c	random.h
mmap.c	sched.h
mmu_context.h	cacheflush.h
mmu_context.h	errno.h
mmu_context.h	hazards.h
mmu_context.h	mipsmtregs.h
mmu_context.h	mm_hooks.h
mmu_context.h	sched.h
mmu_context.h	slab.h
mmu_context.h	smp.h
mmu_context.h	smtc.h
mmu_context.h	tlbflush.h
mmzone.h	mmzone.h
mmzone.h	page.h
msp_elb.c	init.h
msp_elb.c	kernel.h
msp_elb.c	msp_regs.h
msp_eth.c	delay.h
msp_eth.c	init.h
msp_eth.c	ioport.h
msp_eth.c	kernel.h
msp_eth.c	msp_gpio_macros.h
msp_eth.c	msp_int.h
msp_eth.c	msp_regs.h
msp_eth.c	platform_device.h
msp_hwbutton.c	init.h
msp_hwbutton.c	interrupt.h
msp_hwbutton.c	kernel.h
msp_hwbutton.c	msp_int.h
msp_hwbutton.c	msp_regops.h
msp_hwbutton.c	msp_regs.h
msp_irq.c	init.h
msp_irq.c	interrupt.h
msp_irq.c	irq.h
msp_irq.c	irq_cpu.h
msp_irq.c	kernel.h
msp_irq.c	msp_int.h
msp_irq.c	ptrace.h
msp_irq.c	time.h
msp_irq_cic.c	bitops.h
msp_irq_cic.c	init.h
msp_irq_cic.c	interrupt.h
msp_irq_cic.c	irq.h
msp_irq_cic.c	kernel.h
msp_irq_cic.c	mipsregs.h
msp_irq_cic.c	msp_cic_int.h
msp_irq_cic.c	msp_regs.h
msp_irq_per.c	bitops.h
msp_irq_per.c	init.h
msp_irq_per.c	interrupt.h
msp_irq_per.c	kernel.h
msp_irq_per.c	mipsregs.h
msp_irq_per.c	msp_cic_int.h
msp_irq_per.c	msp_regs.h
msp_irq_per.c	spinlock.h
msp_irq_slp.c	bitops.h
msp_irq_slp.c	init.h
msp_irq_slp.c	interrupt.h
msp_irq_slp.c	kernel.h
msp_irq_slp.c	mipsregs.h
msp_irq_slp.c	msp_regs.h
msp_irq_slp.c	msp_slp_int.h
msp_pci.c	init.h
msp_pci.c	msp_prom.h
msp_pci.c	msp_regs.h
msp_prom.c	addrspace.h
msp_prom.c	bootinfo.h
msp_prom.c	init.h
msp_prom.c	interrupt.h
msp_prom.c	kernel.h
msp_prom.c	mm.h
msp_prom.c	module.h
msp_prom.c	msp_prom.h
msp_prom.c	msp_regs.h
msp_prom.c	page.h
msp_prom.c	sections.h
msp_prom.c	slab.h
msp_prom.c	string.h
msp_serial.c	bootinfo.h
msp_serial.c	io.h
msp_serial.c	msp_int.h
msp_serial.c	msp_prom.h
msp_serial.c	msp_regs.h
msp_serial.c	processor.h
msp_serial.c	serial.h
msp_serial.c	serial.h
msp_serial.c	serial_8250.h
msp_serial.c	serial_core.h
msp_serial.c	serial_reg.h
msp_serial.c	slab.h
msp_setup.c	bootinfo.h
msp_setup.c	cacheflush.h
msp_setup.c	msp_prom.h
msp_setup.c	msp_regops.h
msp_setup.c	msp_regs.h
msp_setup.c	r4kcache.h
msp_setup.c	reboot.h
msp_setup.c	smp-ops.h
msp_setup.c	time.h
msp_smp.c	interrupt.h
msp_smp.c	smp.h
msp_smtc.c	init.h
msp_smtc.c	irq.h
msp_smtc.c	mipsmtregs.h
msp_smtc.c	mipsregs.h
msp_smtc.c	smtc.h
msp_smtc.c	smtc_ipi.h
msp_time.c	cevt-r4k.h
msp_time.c	init.h
msp_time.c	kernel_stat.h
msp_time.c	mipsregs.h
msp_time.c	module.h
msp_time.c	msp_int.h
msp_time.c	msp_prom.h
msp_time.c	msp_regs.h
msp_time.c	ptrace.h
msp_time.c	sched.h
msp_time.c	spinlock.h
msp_time.c	time.h
msp_usb.c	init.h
msp_usb.c	ioport.h
msp_usb.c	mipsregs.h
msp_usb.c	msp_int.h
msp_usb.c	msp_prom.h
msp_usb.c	msp_regs.h
msp_usb.c	msp_usb.h
msp_usb.c	platform_device.h
mutex.h	mutex-dec.h
nmi.h	addrs.h
octeon-feature.h	cvmx-mio-defs.h
octeon-feature.h	cvmx-rnm-defs.h
octeon-irq.c	bitops.h
octeon-irq.c	cvmx-ciu2-defs.h
octeon-irq.c	interrupt.h
octeon-irq.c	irq.h
octeon-irq.c	irqdomain.h
octeon-irq.c	octeon.h
octeon-irq.c	of.h
octeon-irq.c	percpu.h
octeon-irq.c	slab.h
octeon-irq.c	smp.h
octeon-model.c	octeon.h
octeon-model.h	octeon-feature.h
octeon-platform.c	cvmx-helper-board.h
octeon-platform.c	cvmx-helper.h
octeon-platform.c	cvmx-rnm-defs.h
octeon-platform.c	dma-mapping.h
octeon-platform.c	i2c.h
octeon-platform.c	init.h
octeon-platform.c	irq.h
octeon-platform.c	libfdt.h
octeon-platform.c	module.h
octeon-platform.c	octeon.h
octeon-platform.c	of_fdt.h
octeon-platform.c	of_platform.h
octeon-platform.c	platform_device.h
octeon-platform.c	slab.h
octeon-platform.c	usb.h
octeon.h	cvmx.h
octeon_boot.h	types.h
paccess.h	errno.h
page.c	bootinfo.h
page.c	bugs.h
page.c	cacheops.h
page.c	cpu.h
page.c	init.h
page.c	inst.h
page.c	io.h
page.c	kernel.h
page.c	mipsregs.h
page.c	mm.h
page.c	mmu_context.h
page.c	module.h
page.c	page.h
page.c	pgtable.h
page.c	prefetch.h
page.c	proc_fs.h
page.c	sb1250.h
page.c	sb1250_dma.h
page.c	sb1250_regs.h
page.c	sched.h
page.c	smp.h
page.c	uasm.h
page.c	war.h
pci-octeon.h	pci.h
pgalloc.h	highmem.h
pgalloc.h	mm.h
pgalloc.h	sched.h
pgtable-32.c	bootmem.h
pgtable-32.c	fixmap.h
pgtable-32.c	highmem.h
pgtable-32.c	init.h
pgtable-32.c	mm.h
pgtable-32.c	pgalloc.h
pgtable-32.c	pgtable.h
pgtable-64.c	fixmap.h
pgtable-64.c	init.h
pgtable-64.c	mm.h
pgtable-64.c	pgalloc.h
pgtable-64.c	pgtable.h
pgtable-64.c	tlbflush.h
pgtable-64.h	addrspace.h
pgtable-64.h	cachectl.h
pgtable-64.h	compiler.h
pgtable-64.h	fixmap.h
pgtable-64.h	linkage.h
pgtable-64.h	page.h
pgtable-64.h	pgtable-nopmd.h
pgtable-64.h	pgtable-nopud.h
pgtable.h	io.h
pgtable.h	mmzone.h
pgtable.h	pgtable-32.h
pgtable.h	pgtable-64.h
pgtable.h	pgtable-bits.h
pgtable.h	pgtable.h
r4kcache.h	asm.h
r4kcache.h	cacheops.h
r4kcache.h	cpu-features.h
r4kcache.h	mipsmtregs.h
rb.h	genhd.h
rbtx4927.h	tx4927.h
rbtx4938.h	addrspace.h
rbtx4938.h	tx4938.h
rbtx4938.h	txx9irq.h
rbtx4939.h	addrspace.h
rbtx4939.h	generic.h
rbtx4939.h	tx4939.h
rbtx4939.h	txx9irq.h
rc32434.h	delay.h
rc32434.h	io.h
sc-ip22.c	bcache.h
sc-ip22.c	bootinfo.h
sc-ip22.c	init.h
sc-ip22.c	ip22.h
sc-ip22.c	kernel.h
sc-ip22.c	mc.h
sc-ip22.c	mm.h
sc-ip22.c	page.h
sc-ip22.c	pgtable.h
sc-ip22.c	sched.h
sc-r5k.c	bcache.h
sc-r5k.c	cacheops.h
sc-r5k.c	init.h
sc-r5k.c	kernel.h
sc-r5k.c	mipsregs.h
sc-r5k.c	mm.h
sc-r5k.c	mmu_context.h
sc-r5k.c	page.h
sc-r5k.c	pgtable.h
sc-r5k.c	r4kcache.h
sc-r5k.c	sched.h
sc-rm7k.c	addrspace.h
sc-rm7k.c	bcache.h
sc-rm7k.c	bitops.h
sc-rm7k.c	cacheflush.h
sc-rm7k.c	cacheops.h
sc-rm7k.c	init.h
sc-rm7k.c	kernel.h
sc-rm7k.c	mipsregs.h
sc-rm7k.c	mm.h
sc-rm7k.c	processor.h
sc-rm7k.c	r4kcache.h
sc-rm7k.c	sections.h
seeq.h	hpc3.h
seeq.h	if_ether.h
serial.c	console.h
serial.c	init.h
serial.c	irq.h
serial.c	module.h
serial.c	octeon.h
serial.c	platform_device.h
serial.c	serial.h
serial.c	serial_8250.h
serial.c	serial_reg.h
serial.c	time.h
serial.c	tty.h
setup.c	bootinfo.h
setup.c	console.h
setup.c	cvmx-mio-defs.h
setup.c	delay.h
setup.c	export.h
setup.c	init.h
setup.c	interrupt.h
setup.c	io.h
setup.c	irq_cpu.h
setup.c	kernel.h
setup.c	kexec.h
setup.c	libfdt.h
setup.c	mipsregs.h
setup.c	octeon.h
setup.c	of_fdt.h
setup.c	pci-octeon.h
setup.c	platform_device.h
setup.c	processor.h
setup.c	reboot.h
setup.c	sections.h
setup.c	serial.h
setup.c	serial_8250.h
setup.c	serial_core.h
setup.c	smp-ops.h
setup.c	smp.h
setup.c	string.h
setup.c	time.h
setup.c	time.h
setup.c	tty.h
setup.c	types.h
signal.h	sigcontext.h
signal.h	siginfo.h
signal.h	signal.h
smp-ops.h	cpumask.h
smp-ops.h	errno.h
smp.c	cpu.h
smp.c	delay.h
smp.c	init.h
smp.c	interrupt.h
smp.c	kernel_stat.h
smp.c	mmu_context.h
smp.c	module.h
smp.c	octeon.h
smp.c	octeon_boot.h
smp.c	sched.h
smp.c	setup.h
smp.c	smp.h
smp.c	time.h
smtc.h	mips_mt.h
smtc.h	smtc_ipi.h
smtc_ipi.h	mipsmtregs.h
smtc_ipi.h	mipsregs.h
smtc_ipi.h	spinlock.h
sn_private.h	types.h
socket.h	socket.h
spaces.h	spaces.h
spaces.h	spaces.h
spi.h	errno.h
spinlock_types.h	byteorder.h
spinlock_types.h	types.h
stackframe.h	asm-offsets.h
stackframe.h	asm.h
stackframe.h	asmmacro.h
stackframe.h	mipsmtregs.h
stackframe.h	mipsregs.h
stackframe.h	threads.h
termios.h	string.h
termios.h	termios.h
termios.h	uaccess.h
thread_info.h	processor.h
time.h	clockchips.h
time.h	clocksource.h
time.h	rtc.h
time.h	spinlock.h
timer.h	rb.h
timex.h	mipsregs.h
tlb-r3k.c	bootinfo.h
tlb-r3k.c	cpu.h
tlb-r3k.c	init.h
tlb-r3k.c	io.h
tlb-r3k.c	isadep.h
tlb-r3k.c	kernel.h
tlb-r3k.c	mm.h
tlb-r3k.c	mmu_context.h
tlb-r3k.c	page.h
tlb-r3k.c	pgtable.h
tlb-r3k.c	sched.h
tlb-r3k.c	smp.h
tlb-r3k.c	tlbmisc.h
tlb-r4k.c	bootinfo.h
tlb-r4k.c	cpu.h
tlb-r4k.c	hugetlb.h
tlb-r4k.c	init.h
tlb-r4k.c	mipsmtregs.h
tlb-r4k.c	mm.h
tlb-r4k.c	mmu_context.h
tlb-r4k.c	pgtable.h
tlb-r4k.c	sched.h
tlb-r4k.c	smp.h
tlb-r4k.c	smtc.h
tlb-r4k.c	tlbmisc.h
tlb-r8k.c	bootinfo.h
tlb-r8k.c	cpu.h
tlb-r8k.c	init.h
tlb-r8k.c	mm.h
tlb-r8k.c	mmu_context.h
tlb-r8k.c	pgtable.h
tlb-r8k.c	sched.h
tlb-r8k.c	smp.h
tlbex.c	asm.h>\n
tlbex.c	bug.h
tlbex.c	cache.h
tlbex.c	cacheflush.h
tlbex.c	init.h
tlbex.c	kernel.h
tlbex.c	pgtable.h
tlbex.c	regdef.h>\n
tlbex.c	setup.h
tlbex.c	smp.h
tlbex.c	string.h
tlbex.c	types.h
tlbex.c	uasm.h
tlbex.c	war.h
tx3927.h	byteorder.h
tx4927.h	io.h
tx4927.h	tx4927pcic.h
tx4927.h	txx9irq.h
tx4927.h	types.h
tx4927pcic.h	irqreturn.h
tx4927pcic.h	pci.h
tx4938.h	tx4927.h
tx4939.h	tx4938.h
types.h	types.h
types.h	types.h
uaccess.h	errno.h
uaccess.h	kernel.h
uaccess.h	thread_info.h
uasm.c	bugs.h
uasm.c	elf.h
uasm.c	init.h
uasm.c	inst.h
uasm.c	kernel.h
uasm.c	octeon.h
uasm.c	types.h
uasm.c	uasm.h
wd.h	hpc3.h
xor.h	xor.h
