agp.h	io.h
asm-compat.h	ppc-opcode.h
asm-compat.h	types.h
asm-offsets.h	asm-offsets.h
atomic.h	cmpxchg.h
atomic.h	types.h
backlight.h	fb.h
backlight.h	mutex.h
bitops.h	asm-compat.h
bitops.h	compiler.h
bitops.h	const_hweight.h
bitops.h	ext2-atomic-setbit.h
bitops.h	find.h
bitops.h	fls64.h
bitops.h	hweight.h
bitops.h	le.h
bitops.h	non-atomic.h
bitops.h	sched.h
bitops.h	synch.h
bitsperlong.h	bitsperlong.h
bootx.h	bootx.h
bootx.h	bootx.h
bug.h	asm-compat.h
bug.h	asm-offsets.h
bug.h	bug.h
byteorder.h	big_endian.h
cacheflush.h	cputable.h
cacheflush.h	mm.h
cell-regs.h	cell-pmu.h
clk_interface.h	clk.h
cmpxchg.h	asm-compat.h
cmpxchg.h	cmpxchg-local.h
cmpxchg.h	compiler.h
cmpxchg.h	synch.h
code-patching.h	ppc-opcode.h
code-patching.h	types.h
compat.h	sched.h
compat.h	types.h
cpm.h	compiler.h
cpm.h	errno.h
cpm.h	of.h
cpm.h	types.h
cpm1.h	8xx_immap.h
cpm1.h	cpm.h
cpm1.h	init.h
cpm1.h	ptrace.h
cpm2.h	cpm.h
cpm2.h	fsl_soc.h
cpm2.h	immap_cpm2.h
cputable.h	asm-compat.h
cputable.h	asm-compat.h
cputable.h	cputable.h
cputable.h	cputable.h
cputable.h	feature-fixups.h
cputable.h	feature-fixups.h
cputhreads.h	cpumask.h
cputime.h	cputime.h
cputime.h	div64.h
cputime.h	param.h
cputime.h	time.h
cputime.h	time.h
cputime.h	types.h
cuboot-pq2.c	cuboot.h
cuboot-pq2.c	fsl-soc.h
cuboot-pq2.c	io.h
cuboot-pq2.c	ops.h
cuboot-pq2.c	ppcboot.h
cuboot-pq2.c	stdio.h
cuboot-yosemite.c	44x.h
cuboot-yosemite.c	4xx.h
cuboot-yosemite.c	cuboot.h
cuboot-yosemite.c	ops.h
cuboot-yosemite.c	ppcboot.h
cuboot-yosemite.c	stdio.h
current.h	paca.h
current.h	stddef.h
dbell.h	ppc-opcode.h
dbell.h	smp.h
dbell.h	threads.h
dcr-mmio.h	io.h
dcr-native.h	cputable.h
dcr-native.h	spinlock.h
dcr.h	dcr-generic.h
dcr.h	dcr-mmio.h
dcr.h	dcr-native.h
delay.h	time.h
disassemble.h	types.h
div64.h	div64.h
dma-mapping.h	cache.h
dma-mapping.h	dma-attrs.h
dma-mapping.h	dma-debug.h
dma-mapping.h	dma-mapping-common.h
dma-mapping.h	io.h
dma-mapping.h	mm.h
dma-mapping.h	scatterlist.h
dma-mapping.h	swiotlb.h
dma-mapping.h	types.h
dma.h	io.h
dma.h	spinlock.h
eeh.h	init.h
eeh.h	list.h
eeh.h	string.h
ehv_pic.h	irq.h
elf.h	elf.h
elf.h	elf.h
elf.h	page.h
elf.h	page.h
elf.h	sched.h
elf.h	sched.h
elf.h	string.h
elf.h	string.h
emergency-restart.h	emergency-restart.h
emulated_ops.h	atomic.h
emulated_ops.h	perf_event.h
epapr_hcalls.h	byteorder.h
epapr_hcalls.h	byteorder.h
epapr_hcalls.h	epapr_hcalls.h
epapr_hcalls.h	epapr_hcalls.h
epapr_hcalls.h	errno.h
epapr_hcalls.h	errno.h
epapr_hcalls.h	types.h
epapr_hcalls.h	types.h
errno.h	errno.h
fb.h	fb.h
fb.h	fs.h
fb.h	page.h
fcntl.h	fcntl.h
firmware.h	asm-compat.h
firmware.h	feature-fixups.h
fixmap.h	kernel.h
fixmap.h	kmap_types.h
fixmap.h	page.h
fixmap.h	threads.h
floppy.h	machdep.h
floppy.h	pci.h
floppy.h	ppc-pci.h
fs_pd.h	8xx_immap.h
fs_pd.h	cpm2.h
fs_pd.h	fsl_soc.h
fs_pd.h	mpc8260.h
fs_pd.h	mpc8xx.h
fs_pd.h	time.h
fsl-soc.c	fsl-soc.h
fsl-soc.c	ops.h
fsl-soc.c	stdio.h
fsl-soc.c	types.h
fsl_85xx_cache_sram.h	rheap.h
fsl_85xx_cache_sram.h	spinlock.h
fsl_gtm.h	types.h
fsl_hcalls.h	byteorder.h
fsl_hcalls.h	epapr_hcalls.h
fsl_hcalls.h	errno.h
fsl_hcalls.h	types.h
fsl_ifc.h	compiler.h
fsl_ifc.h	interrupt.h
fsl_ifc.h	io.h
fsl_ifc.h	of_platform.h
fsl_ifc.h	types.h
fsl_lbc.h	compiler.h
fsl_lbc.h	device.h
fsl_lbc.h	io.h
fsl_lbc.h	spinlock.h
fsl_lbc.h	types.h
futex.h	asm-compat.h
futex.h	errno.h
futex.h	futex.h
futex.h	synch.h
futex.h	uaccess.h
gpio.h	gpio.h
grackle.h	pci-bridge.h
hack-coff.c	fcntl.h
hack-coff.c	rs6000.h
hack-coff.c	stdio.h
hack-coff.c	stdlib.h
hack-coff.c	string.h
hack-coff.c	unistd.h
hardirq.h	irq.h
hardirq.h	threads.h
highmem.h	fixmap.h
highmem.h	interrupt.h
highmem.h	kmap_types.h
highmem.h	page.h
highmem.h	tlbflush.h
hugetlb.h	page.h
hvcserver.h	list.h
hw_breakpoint.h	debug.h
hw_breakpoint.h	kdebug.h
hw_breakpoint.h	reg.h
hw_irq.h	compiler.h
hw_irq.h	errno.h
hw_irq.h	paca.h
hw_irq.h	processor.h
hw_irq.h	ptrace.h
i8259.h	irq.h
ibmebus.h	device.h
ibmebus.h	interrupt.h
ibmebus.h	mod_devicetable.h
ibmebus.h	of_device.h
ibmebus.h	of_platform.h
ide.h	compiler.h
ide.h	io.h
immap_cpm2.h	types.h
immap_qe.h	io.h
immap_qe.h	kernel.h
io-workarounds.h	io.h
io-workarounds.h	pci-bridge.h
io.h	byteorder.h
io.h	compiler.h
io.h	delay.h
io.h	device.h
io.h	eeh.h
io.h	io-defs.h
io.h	io-defs.h
io.h	io.h
io.h	iomap.h
io.h	mmu.h
io.h	paca.h
io.h	page.h
io.h	synch.h
io_event_irq.h	notifier.h
io_event_irq.h	types.h
ioctl.h	ioctl.h
ioctls.h	ioctl.h
iommu.h	bitops.h
iommu.h	compiler.h
iommu.h	device.h
iommu.h	dma-mapping.h
iommu.h	machdep.h
iommu.h	spinlock.h
iommu.h	types.h
ipcbuf.h	types.h
ipic.h	irq.h
irq.h	atomic.h
irq.h	irqdomain.h
irq.h	list.h
irq.h	radix-tree.h
irq.h	threads.h
irq.h	types.h
irq_regs.h	irq_regs.h
irqflags.h	hw_irq.h
jump_label.h	feature-fixups.h
jump_label.h	types.h
kdump.h	page.h
kexec.h	reg.h
kprobes.h	percpu.h
kprobes.h	probes.h
kprobes.h	ptrace.h
kprobes.h	types.h
kvm.h	types.h
kvm_44x.h	kvm_host.h
kvm_book3s.h	kvm_book3s_32.h
kvm_book3s.h	kvm_book3s_64.h
kvm_book3s.h	kvm_book3s_asm.h
kvm_book3s.h	kvm_host.h
kvm_book3s.h	types.h
kvm_book3s_asm.h	kvm_asm.h
kvm_booke.h	kvm_host.h
kvm_booke.h	types.h
kvm_fpu.h	types.h
kvm_host.h	atomic.h
kvm_host.h	cacheflush.h
kvm_host.h	hrtimer.h
kvm_host.h	interrupt.h
kvm_host.h	kvm_asm.h
kvm_host.h	kvm_para.h
kvm_host.h	kvm_types.h
kvm_host.h	list.h
kvm_host.h	mmu_notifier.h
kvm_host.h	mutex.h
kvm_host.h	page.h
kvm_host.h	processor.h
kvm_host.h	spinlock.h
kvm_host.h	threads.h
kvm_host.h	types.h
kvm_para.h	kvm_para.h
kvm_para.h	kvm_para.h
kvm_para.h	of.h
kvm_para.h	of.h
kvm_ppc.h	bug.h
kvm_ppc.h	kvm_book3s.h
kvm_ppc.h	kvm_booke.h
kvm_ppc.h	kvm_host.h
kvm_ppc.h	kvm_types.h
kvm_ppc.h	mutex.h
kvm_ppc.h	paca.h
kvm_ppc.h	timer.h
kvm_ppc.h	types.h
libfdt-wrapper.c	libfdt.h
libfdt-wrapper.c	ops.h
libfdt-wrapper.c	page.h
libfdt-wrapper.c	stddef.h
libfdt-wrapper.c	stdio.h
local.h	atomic.h
local.h	percpu.h
local64.h	local64.h
lppaca.h	cache.h
lppaca.h	mmu.h
lppaca.h	threads.h
lppaca.h	types.h
lv1call.h	export.h
lv1call.h	types.h
machdep.h	dma-mapping.h
machdep.h	export.h
machdep.h	init.h
machdep.h	seq_file.h
machdep.h	setup.h
macio.h	of_device.h
mc146818rtc.h	io.h
mman.h	cputable.h
mman.h	cputable.h
mman.h	mm.h
mman.h	mm.h
mman.h	mman.h
mman.h	mman.h
mmu-44x.h	page.h
mmu-hash64.h	asm-compat.h
mmu-hash64.h	page.h
mmu-hash64.h	pgtable-ppc64.h
mmu.h	asm-compat.h
mmu.h	cputable.h
mmu.h	feature-fixups.h
mmu.h	percpu.h
mmu.h	types.h
mmu_context.h	cputable.h
mmu_context.h	cputhreads.h
mmu_context.h	kernel.h
mmu_context.h	mm.h
mmu_context.h	mm_hooks.h
mmu_context.h	mmu.h
mmu_context.h	sched.h
mmu_context.h	spinlock.h
mmzone.h	cpumask.h
module.h	bug.h
module.h	list.h
module.h	module.h
mpc52xx.h	mpc5xxx.h
mpc52xx.h	prom.h
mpc52xx.h	suspend.h
mpc52xx.h	types.h
mpc52xx_psc.h	types.h
mpc8260.h	m82xx_pci.h
mpc8260.h	pq2ads.h
mpic.h	dcr.h
mpic.h	irq.h
mpic.h	msi_bitmap.h
mpic_msgr.h	io.h
mpic_msgr.h	smp.h
mpic_msgr.h	spinlock.h
mpic_msgr.h	types.h
mpsc.c	io.h
mpsc.c	ops.h
mpsc.c	stdarg.h
mpsc.c	stddef.h
mpsc.c	stdio.h
mpsc.c	string.h
mpsc.c	types.h
msi_bitmap.h	irq.h
msi_bitmap.h	of.h
nvram.h	errno.h
nvram.h	errno.h
nvram.h	list.h
nvram.h	list.h
nvram.h	nvram.h
nvram.h	nvram.h
ops.h	stddef.h
ops.h	string.h
ops.h	types.h
paca.h	exception-64e.h
paca.h	init.h
paca.h	kvm_book3s_asm.h
paca.h	lppaca.h
paca.h	mmu.h
paca.h	page.h
paca.h	types.h
page.h	asm-compat.h
page.h	kdump.h
page.h	memory_model.h
page.h	page_32.h
page.h	page_64.h
page.h	types.h
page.h	types.h
page_32.h	getorder.h
page_64.h	cache.h
page_64.h	getorder.h
param.h	param.h
parport.h	prom.h
pci-bridge.h	ioport.h
pci-bridge.h	list.h
pci-bridge.h	pci-bridge.h
pci-bridge.h	pci.h
pci.h	dma-mapping.h
pci.h	io.h
pci.h	machdep.h
pci.h	pci-bridge.h
pci.h	pci-dma-compat.h
pci.h	prom.h
pci.h	scatterlist.h
pci.h	slab.h
pci.h	string.h
pci.h	types.h
percpu.h	paca.h
percpu.h	percpu.h
perf_event.h	perf_event_fsl_emb.h
perf_event.h	perf_event_server.h
perf_event.h	ptrace.h
perf_event.h	reg.h
perf_event_fsl_emb.h	hw_irq.h
perf_event_fsl_emb.h	types.h
perf_event_server.h	hw_irq.h
perf_event_server.h	types.h
pgalloc-32.h	threads.h
pgalloc-64.h	cpumask.h
pgalloc-64.h	percpu.h
pgalloc-64.h	slab.h
pgalloc.h	mm.h
pgalloc.h	pgalloc-32.h
pgalloc.h	pgalloc-64.h
pgtable-ppc32.h	io.h
pgtable-ppc32.h	pgtable-nopmd.h
pgtable-ppc32.h	pte-40x.h
pgtable-ppc32.h	pte-44x.h
pgtable-ppc32.h	pte-8xx.h
pgtable-ppc32.h	pte-book3e.h
pgtable-ppc32.h	pte-common.h
pgtable-ppc32.h	pte-fsl-booke.h
pgtable-ppc32.h	pte-hash32.h
pgtable-ppc32.h	sched.h
pgtable-ppc32.h	threads.h
pgtable-ppc64-64k.h	pgtable-nopud.h
pgtable-ppc64.h	pgtable-ppc64-4k.h
pgtable-ppc64.h	pgtable-ppc64-64k.h
pgtable-ppc64.h	pte-book3e.h
pgtable-ppc64.h	pte-common.h
pgtable-ppc64.h	pte-hash64.h
pgtable.h	mmu.h
pgtable.h	page.h
pgtable.h	pgtable.h
pgtable.h	processor.h
pgtable.h	tlbflush.h
pmac_feature.h	machdep.h
pmac_feature.h	macio.h
pmac_pfunc.h	list.h
pmac_pfunc.h	types.h
pmc.h	lppaca.h
pmc.h	ptrace.h
poll.h	poll.h
posix_types.h	posix_types.h
ppc-opc.c	bug.h
ppc-opc.c	kernel.h
ppc-opc.c	nonstdio.h
ppc-opc.c	ppc.h
ppc-opc.c	stddef.h
ppc-opcode.h	asm-compat.h
ppc-opcode.h	stringify.h
ppc-pci.h	pci-bridge.h
ppc-pci.h	pci.h
ppc_asm.h	asm-compat.h
ppc_asm.h	firmware.h
ppc_asm.h	init.h
ppc_asm.h	ppc-opcode.h
ppc_asm.h	processor.h
ppc_asm.h	stringify.h
pq2.h	types.h
probes.h	types.h
processor.h	cache.h
processor.h	compiler.h
processor.h	ptrace.h
processor.h	reg.h
processor.h	types.h
prom.h	atomic.h
prom.h	irq.h
prom.h	of.h
prom.h	of_address.h
prom.h	of_fdt.h
prom.h	of_irq.h
prom.h	platform_device.h
prom.h	types.h
ps3.h	cell-pmu.h
ps3.h	device.h
ps3.h	init.h
ps3.h	types.h
ps3fb.h	ioctl.h
ps3fb.h	types.h
ps3gpu.h	lv1call.h
ps3gpu.h	mutex.h
ps3stor.h	interrupt.h
ps3stor.h	ps3.h
pte-hash64.h	pte-hash64-4k.h
pte-hash64.h	pte-hash64-64k.h
ptrace.h	ptrace.h
ptrace.h	ptrace.h
ptrace.h	ptrace.h
ptrace.h	ptrace.h
ptrace.h	stddef.h
ptrace.h	stddef.h
ptrace.h	thread_info.h
ptrace.h	thread_info.h
qe.h	cpm.h
qe.h	err.h
qe.h	errno.h
qe.h	immap_qe.h
qe.h	spinlock.h
qe_ic.h	irq.h
redboot-8xx.c	fsl-soc.h
redboot-8xx.c	io.h
redboot-8xx.c	ops.h
redboot-8xx.c	redboot.h
redboot-8xx.c	stdio.h
reg.h	cputable.h
reg.h	reg_8xx.h
reg.h	reg_booke.h
reg.h	reg_fsl_emb.h
reg.h	stringify.h
resource.h	resource.h
rheap.h	list.h
rtas.h	page.h
rtas.h	spinlock.h
rtc.h	machdep.h
rtc.h	rtc.h
rtc.h	time.h
scatterlist.h	dma.h
scatterlist.h	scatterlist.h
seccomp.h	unistd.h
sections.h	elf.h
sections.h	sections.h
sections.h	uaccess.h
serial.c	io.h
serial.c	ops.h
serial.c	stdarg.h
serial.c	stddef.h
serial.c	stdio.h
serial.c	string.h
serial.c	types.h
setup.h	setup.h
setup.h	setup.h
sfp-machine.h	byteorder.h
sfp-machine.h	kernel.h
sfp-machine.h	sched.h
sfp-machine.h	types.h
sigcontext.h	compiler.h
sigcontext.h	elf.h
sigcontext.h	ptrace.h
siginfo.h	siginfo.h
signal.h	signal.h
signal.h	signal.h
smp.h	cpumask.h
smp.h	irqreturn.h
smp.h	kernel.h
smp.h	paca.h
smp.h	percpu.h
smp.h	threads.h
smu.h	list.h
smu.h	types.h
socket.h	sockios.h
spinlock.h	asm-compat.h
spinlock.h	hvcall.h
spinlock.h	irqflags.h
spinlock.h	paca.h
spinlock.h	ppc-opcode.h
spinlock.h	synch.h
spu.h	spu-insns.h
spu.h	spu-insns.h
spu_info.h	spu.h
spu_info.h	spu.h
spu_info.h	spu_info.h
spu_info.h	spu_info.h
spu_priv1.h	types.h
stat.h	types.h
statfs.h	statfs.h
swab.h	swab.h
swab.h	swab.h
swiotlb.h	swiotlb.h
synch.h	feature-fixups.h
synch.h	stringify.h
syscall.h	sched.h
syscalls.h	compiler.h
syscalls.h	linkage.h
syscalls.h	signal.h
syscalls.h	types.h
tce.h	iommu.h
termios.h	termios-base.h
termios.h	termios-base.h
termios.h	termios.h
termios.h	termios.h
thread_info.h	cache.h
thread_info.h	page.h
thread_info.h	processor.h
thread_info.h	stringify.h
time.h	percpu.h
time.h	processor.h
time.h	types.h
timex.h	cputable.h
timex.h	reg.h
tlb.h	mmu.h
tlb.h	page.h
tlb.h	pagemap.h
tlb.h	pgalloc.h
tlb.h	pgtable.h
tlb.h	tlb.h
tlb.h	tlbflush.h
tlbflush.h	page.h
tlbflush.h	percpu.h
topology.h	cputable.h
topology.h	mmzone.h
topology.h	smp.h
topology.h	topology.h
trace.h	define_trace.h
trace.h	tracepoint.h
treeboot-walnut.c	4xx.h
treeboot-walnut.c	dcr.h
treeboot-walnut.c	io.h
treeboot-walnut.c	ops.h
treeboot-walnut.c	stdio.h
tsi108.h	pci-bridge.h
tsi108_pci.h	tsi108.h
types.h	types.h
types.h	types.h
types.h	types.h
uaccess.h	asm-compat.h
uaccess.h	errno.h
uaccess.h	page.h
uaccess.h	processor.h
uaccess.h	sched.h
ucc.h	immap_qe.h
ucc.h	qe.h
ucc_fast.h	immap_qe.h
ucc_fast.h	kernel.h
ucc_fast.h	qe.h
ucc_fast.h	ucc.h
ucc_slow.h	immap_qe.h
ucc_slow.h	kernel.h
ucc_slow.h	qe.h
ucc_slow.h	ucc.h
ucontext.h	elf.h
ucontext.h	sigcontext.h
ucontext.h	signal.h
udbg.h	compiler.h
udbg.h	init.h
unaligned.h	access_ok.h
unaligned.h	generic.h
unistd.h	compiler.h
unistd.h	compiler.h
unistd.h	linkage.h
unistd.h	linkage.h
unistd.h	types.h
unistd.h	types.h
unistd.h	unistd.h
unistd.h	unistd.h
uprobes.h	notifier.h
uprobes.h	probes.h
user.h	page.h
user.h	ptrace.h
vdso_datapage.h	time.h
vdso_datapage.h	unistd.h
vga.h	io.h
vio.h	device.h
vio.h	dma-mapping.h
vio.h	errno.h
vio.h	hvcall.h
vio.h	init.h
vio.h	mod_devicetable.h
vio.h	scatterlist.h
virtex.c	io.h
virtex.c	ops.h
virtex.c	stdio.h
word-at-a-time.h	asm-compat.h
word-at-a-time.h	kernel.h
xics.h	interrupt.h
xmon.h	irqreturn.h
xor.h	xor.h
