7segled.c	device.h
7segled.c	generic.h
7segled.c	map_to_7segment.h
7segled.c	slab.h
8250-platform.c	init.h
8250-platform.c	serial_8250.h
asm-offsets.h	asm-offsets.h
asm.h	asm-offsets.h
asm.h	sysreg.h
asm.h	thread_info.h
atomic.h	cmpxchg.h
atomic.h	types.h
backtrace.c	inst.h
backtrace.c	kernel.h
backtrace.c	mm.h
backtrace.c	oprofile.h
backtrace.c	ptrace.h
backtrace.c	sched.h
backtrace.c	sections.h
backtrace.c	stacktrace.h
backtrace.c	stacktrace.h
backtrace.c	uaccess.h
bitops.h	byteorder.h
bitops.h	ext2-atomic.h
bitops.h	fls64.h
bitops.h	hweight.h
bitops.h	le.h
bitops.h	lock.h
bitops.h	non-atomic.h
bitops.h	sched.h
bitsperlong.h	bitsperlong.h
board.c	bootinfo.h
board.c	gpio.h
board.c	init.h
board.c	mm.h
board.c	pnx833x.h
board_bcm963xx.c	addrspace.h
board_bcm963xx.c	bcm63xx_board.h
board_bcm963xx.c	bcm63xx_cpu.h
board_bcm963xx.c	bcm63xx_dev_dsp.h
board_bcm963xx.c	bcm63xx_dev_enet.h
board_bcm963xx.c	bcm63xx_dev_flash.h
board_bcm963xx.c	bcm63xx_dev_pci.h
board_bcm963xx.c	bcm63xx_dev_pcmcia.h
board_bcm963xx.c	bcm63xx_dev_spi.h
board_bcm963xx.c	bcm63xx_dev_uart.h
board_bcm963xx.c	bcm63xx_dev_usb_usbd.h
board_bcm963xx.c	bcm63xx_io.h
board_bcm963xx.c	bcm63xx_nvram.h
board_bcm963xx.c	bcm63xx_regs.h
board_bcm963xx.c	board_bcm963xx.h
board_bcm963xx.c	init.h
board_bcm963xx.c	kernel.h
board_bcm963xx.c	platform_device.h
board_bcm963xx.c	ssb.h
board_bcm963xx.c	string.h
bug.h	bug.h
buttons.c	errno.h
buttons.c	init.h
buttons.c	platform_device.h
byteorder.h	big_endian.h
cache.c	cachectl.h
cache.c	cacheflush.h
cache.c	highmem.h
cache.c	processor.h
cache.c	syscalls.h
cache.c	uaccess.h
cache.c	unistd.h
cacheflush.h	mm.h
cevt-r4k.c	cevt-r4k.h
cevt-r4k.c	clockchips.h
cevt-r4k.c	gic.h
cevt-r4k.c	interrupt.h
cevt-r4k.c	irq.h
cevt-r4k.c	percpu.h
cevt-r4k.c	smp.h
cevt-r4k.c	smtc_ipi.h
cevt-r4k.c	time.h
cevt-txx9.c	init.h
cevt-txx9.c	interrupt.h
cevt-txx9.c	irq.h
cevt-txx9.c	time.h
cevt-txx9.c	txx9tmr.h
clk.c	bcm63xx_clk.h
clk.c	bcm63xx_cpu.h
clk.c	bcm63xx_io.h
clk.c	bcm63xx_regs.h
clk.c	bcm63xx_reset.h
clk.c	clk.h
clk.c	delay.h
clk.c	err.h
clk.c	module.h
clk.c	mutex.h
clock.c	addrspace.h
clock.c	addrspace.h
clock.c	ar7.h
clock.c	ar7.h
clock.c	clk.h
clock.c	clk.h
clock.c	delay.h
clock.c	delay.h
clock.c	err.h
clock.c	err.h
clock.c	gcd.h
clock.c	gcd.h
clock.c	init.h
clock.c	init.h
clock.c	io.h
clock.c	io.h
clock.c	kernel.h
clock.c	kernel.h
clock.c	module.h
clock.c	module.h
clock.c	types.h
clock.c	types.h
cmdline.c	bootinfo.h
cmdline.c	init.h
cmdline.c	kernel.h
cmdline.c	prom.h
cmdline.c	string.h
cmdline.c	types.h
cmpxchg.h	cmpxchg-local.h
common.c	ar71xx_regs.h
common.c	ar71xx_regs.h
common.c	ath79.h
common.c	ath79.h
common.c	common.h
common.c	common.h
common.c	kernel.h
common.c	kernel.h
common.c	module.h
common.c	module.h
common.c	spinlock.h
common.c	spinlock.h
common.c	types.h
common.c	types.h
common.h	init.h
common.h	types.h
console.c	cobalt.h
console.c	cobalt.h
console.c	io.h
console.c	io.h
console.c	serial_reg.h
console.c	serial_reg.h
cp1emu.c	bootinfo.h
cp1emu.c	branch.h
cp1emu.c	debugfs.h
cp1emu.c	fpu_emulator.h
cp1emu.c	ieee754.h
cp1emu.c	inst.h
cp1emu.c	mipsregs.h
cp1emu.c	module.h
cp1emu.c	perf_event.h
cp1emu.c	processor.h
cp1emu.c	ptrace.h
cp1emu.c	sched.h
cp1emu.c	signal.h
cp1emu.c	uaccess.h
cpu-probe.c	bugs.h
cpu-probe.c	cpu.h
cpu-probe.c	elf.h
cpu-probe.c	export.h
cpu-probe.c	fpu.h
cpu-probe.c	init.h
cpu-probe.c	kernel.h
cpu-probe.c	mipsregs.h
cpu-probe.c	ptrace.h
cpu-probe.c	smp.h
cpu-probe.c	spram.h
cpu-probe.c	stddef.h
cpu-probe.c	uaccess.h
cpu-probe.c	watch.h
cpu.c	bcm63xx_cpu.h
cpu.c	bcm63xx_io.h
cpu.c	bcm63xx_irq.h
cpu.c	bcm63xx_regs.h
cpu.c	cpu-info.h
cpu.c	cpu.h
cpu.c	cpu.h
cpu.c	kernel.h
cpu.c	mipsregs.h
cpu.c	module.h
cputime.h	cputime.h
cs.c	bcm63xx_cpu.h
cs.c	bcm63xx_cs.h
cs.c	bcm63xx_io.h
cs.c	bcm63xx_regs.h
cs.c	kernel.h
cs.c	log2.h
cs.c	module.h
cs.c	spinlock.h
csrc-powertv.c	asic_regs.h
csrc-powertv.c	clocksource.h
csrc-powertv.c	init.h
csrc-powertv.c	powertv-clock.h
csrc-powertv.c	time.h
csrc-sb1250.c	addrspace.h
csrc-sb1250.c	clocksource.h
csrc-sb1250.c	io.h
csrc-sb1250.c	sb1250.h
csrc-sb1250.c	sb1250_int.h
csrc-sb1250.c	sb1250_regs.h
csrc-sb1250.c	sb1250_scd.h
csrc-sb1250.c	time.h
current.h	thread_info.h
delay.h	delay.h
dev-common.c	ar71xx_regs.h
dev-common.c	ar933x_uart_platform.h
dev-common.c	ath79.h
dev-common.c	clk.h
dev-common.c	common.h
dev-common.c	dev-common.h
dev-common.c	err.h
dev-common.c	init.h
dev-common.c	kernel.h
dev-common.c	platform_device.h
dev-common.c	serial_8250.h
dev-dsp.c	bcm63xx_cpu.h
dev-dsp.c	bcm63xx_dev_dsp.h
dev-dsp.c	bcm63xx_io.h
dev-dsp.c	bcm63xx_regs.h
dev-dsp.c	init.h
dev-dsp.c	kernel.h
dev-dsp.c	platform_device.h
dev-enet.c	bcm63xx_dev_enet.h
dev-enet.c	bcm63xx_io.h
dev-enet.c	bcm63xx_regs.h
dev-enet.c	init.h
dev-enet.c	kernel.h
dev-enet.c	platform_device.h
dev-flash.c	bcm63xx_cpu.h
dev-flash.c	bcm63xx_dev_flash.h
dev-flash.c	bcm63xx_io.h
dev-flash.c	bcm63xx_regs.h
dev-flash.c	init.h
dev-flash.c	kernel.h
dev-flash.c	mtd.h
dev-flash.c	partitions.h
dev-flash.c	physmap.h
dev-flash.c	platform_device.h
dev-gpio-buttons.c	dev-gpio-buttons.h
dev-gpio-buttons.c	init.h
dev-gpio-buttons.c	platform_device.h
dev-gpio-buttons.c	slab.h
dev-gpio-buttons.h	gpio_keys.h
dev-gpio-buttons.h	input.h
dev-leds-gpio.c	dev-leds-gpio.h
dev-leds-gpio.c	init.h
dev-leds-gpio.c	platform_device.h
dev-leds-gpio.c	slab.h
dev-leds-gpio.h	leds.h
dev-pcmcia.c	bcm63xx_cpu.h
dev-pcmcia.c	bcm63xx_cs.h
dev-pcmcia.c	bcm63xx_dev_pcmcia.h
dev-pcmcia.c	bcm63xx_io.h
dev-pcmcia.c	bcm63xx_regs.h
dev-pcmcia.c	bootinfo.h
dev-pcmcia.c	init.h
dev-pcmcia.c	kernel.h
dev-pcmcia.c	platform_device.h
dev-rng.c	bcm63xx_cpu.h
dev-rng.c	init.h
dev-rng.c	kernel.h
dev-rng.c	platform_device.h
dev-spi.c	bcm63xx_cpu.h
dev-spi.c	bcm63xx_cpu.h
dev-spi.c	bcm63xx_dev_spi.h
dev-spi.c	bcm63xx_dev_spi.h
dev-spi.c	bcm63xx_regs.h
dev-spi.c	bcm63xx_regs.h
dev-spi.c	clk.h
dev-spi.c	clk.h
dev-spi.c	err.h
dev-spi.c	err.h
dev-spi.c	export.h
dev-spi.c	export.h
dev-spi.c	init.h
dev-spi.c	init.h
dev-spi.c	kernel.h
dev-spi.c	kernel.h
dev-spi.c	platform_device.h
dev-spi.c	platform_device.h
dev-spi.h	ath79_spi_platform.h
dev-spi.h	spi.h
dev-uart.c	bcm63xx_cpu.h
dev-uart.c	init.h
dev-uart.c	kernel.h
dev-uart.c	platform_device.h
dev-usb-usbd.c	bcm63xx_cpu.h
dev-usb-usbd.c	bcm63xx_dev_usb_usbd.h
dev-usb-usbd.c	dma-mapping.h
dev-usb-usbd.c	init.h
dev-usb-usbd.c	kernel.h
dev-usb-usbd.c	platform_device.h
dev-usb.c	ar71xx_regs.h
dev-usb.c	ath79.h
dev-usb.c	common.h
dev-usb.c	delay.h
dev-usb.c	dev-usb.h
dev-usb.c	dma-mapping.h
dev-usb.c	ehci_pdriver.h
dev-usb.c	init.h
dev-usb.c	irq.h
dev-usb.c	kernel.h
dev-usb.c	ohci_pdriver.h
dev-usb.c	platform_device.h
dev-wdt.c	bcm63xx_cpu.h
dev-wdt.c	init.h
dev-wdt.c	kernel.h
dev-wdt.c	platform_device.h
dev-wmac.c	ar71xx_regs.h
dev-wmac.c	ath79.h
dev-wmac.c	ath9k_platform.h
dev-wmac.c	delay.h
dev-wmac.c	dev-wmac.h
dev-wmac.c	init.h
dev-wmac.c	irq.h
dev-wmac.c	platform_device.h
device.h	device.h
devices.c	bootinfo.h
devices.c	ctype.h
devices.c	dma.h
devices.c	dma_v.h
devices.c	eth.h
devices.c	export.h
devices.c	gpio.h
devices.c	gpio_keys.h
devices.c	init.h
devices.c	input.h
devices.c	integ.h
devices.c	irq.h
devices.c	kernel.h
devices.c	mtd.h
devices.c	nand.h
devices.c	partitions.h
devices.c	platform_device.h
devices.c	rb.h
devices.c	rc32434.h
devices.c	serial_8250.h
devices.c	string.h
div64.h	div64.h
dma-coherent.c	addrspace.h
dma-coherent.c	cacheflush.h
dma-coherent.c	dma-mapping.h
dma-coherent.c	export.h
dma-coherent.c	gfp.h
dma-mapping.h	cacheflush.h
dma-mapping.h	device.h
dma-mapping.h	io.h
dma-mapping.h	mm.h
dma-mapping.h	processor.h
dma-mapping.h	scatterlist.h
dp_add.c	ieee754dp.h
dp_cmp.c	ieee754dp.h
dp_div.c	ieee754dp.h
dp_fint.c	ieee754dp.h
dp_flong.c	ieee754dp.h
dp_frexp.c	ieee754dp.h
dp_fsp.c	ieee754dp.h
dp_logb.c	ieee754dp.h
dp_modf.c	ieee754dp.h
dp_mul.c	ieee754dp.h
dp_scalb.c	ieee754dp.h
dp_simple.c	ieee754dp.h
dp_sqrt.c	ieee754dp.h
dp_sub.c	ieee754dp.h
dp_tint.c	ieee754dp.h
dp_tint.c	kernel.h
dp_tlong.c	ieee754dp.h
dsemul.c	asm.h
dsemul.c	bootinfo.h
dsemul.c	branch.h
dsemul.c	byteorder.h
dsemul.c	cacheflush.h
dsemul.c	compiler.h
dsemul.c	cpu.h
dsemul.c	fpu_emulator.h
dsemul.c	ieee754.h
dsemul.c	inst.h
dsemul.c	mipsregs.h
dsemul.c	mm.h
dsemul.c	processor.h
dsemul.c	signal.h
dsemul.c	smp.h
dsemul.c	uaccess.h
early_printk.c	bcm63xx_io.h
early_printk.c	bcm63xx_io.h
early_printk.c	bcm63xx_io.h
early_printk.c	bcm63xx_regs.h
early_printk.c	bcm63xx_regs.h
early_printk.c	bcm63xx_regs.h
early_printk.c	init.h
early_printk.c	init.h
early_printk.c	init.h
ecc-berr.c	addrspace.h
ecc-berr.c	bootinfo.h
ecc-berr.c	cpu.h
ecc-berr.c	ecc.h
ecc-berr.c	init.h
ecc-berr.c	interrupt.h
ecc-berr.c	irq_regs.h
ecc-berr.c	kernel.h
ecc-berr.c	kn02.h
ecc-berr.c	kn03.h
ecc-berr.c	kn05.h
ecc-berr.c	processor.h
ecc-berr.c	ptrace.h
ecc-berr.c	sched.h
ecc-berr.c	traps.h
ecc-berr.c	types.h
elf.h	ptrace.h
elf.h	user.h
emergency-restart.h	emergency-restart.h
errno.h	errno.h
fault.c	kdebug.h
fault.c	kprobes.h
fault.c	mm.h
fault.c	mmu_context.h
fault.c	module.h
fault.c	pagemap.h
fault.c	sysreg.h
fault.c	tlb.h
fault.c	uaccess.h
fb.h	fb.h
fb.h	fs.h
fb.h	page.h
fcntl.h	fcntl.h
futex.h	futex.h
gpio.c	gpio.h
gpio.c	gpio.h
gpio.c	gpio.h
gpio.c	gpio.h
gpio.c	gpio.h
gpio.c	gpio.h
gpio.c	gpio.h
gpio.c	gpio.h
gpio.c	module.h
gpio.c	module.h
gpio.c	module.h
gpio.c	module.h
gpio.h	gpio.h
hardirq.h	hardirq.h
identify.c	bootinfo.h
identify.c	dectypes.h
identify.c	init.h
identify.c	ioasic.h
identify.c	ioasic_addrs.h
identify.c	kernel.h
identify.c	kn01.h
identify.c	kn02.h
identify.c	kn02ba.h
identify.c	kn02ca.h
identify.c	kn03.h
identify.c	kn230.h
identify.c	mc146818rtc.h
identify.c	module.h
identify.c	prom.h
identify.c	string.h
identify.c	system.h
identify.c	types.h
ieee754.c	ieee754dp.h
ieee754.c	ieee754int.h
ieee754.c	ieee754sp.h
ieee754.h	byteorder.h
ieee754.h	sched.h
ieee754.h	stdarg.h
ieee754.h	types.h
ieee754d.c	ieee754.h
ieee754d.c	kernel.h
ieee754dp.c	ieee754dp.h
ieee754dp.h	ieee754int.h
ieee754int.h	ieee754.h
ieee754m.c	ieee754.h
ieee754sp.c	ieee754sp.h
ieee754sp.h	ieee754int.h
ieee754xcpt.c	ieee754.h
ieee754xcpt.c	kernel.h
init.c	bootmem.h
init.c	bootmem.h
init.c	dma.h
init.c	dma.h
init.c	gfp.h
init.c	gfp.h
init.c	init.h
init.c	init.h
init.c	io.h
init.c	io.h
init.c	kernel.h
init.c	kernel.h
init.c	mm.h
init.c	mm.h
init.c	mmu_context.h
init.c	mmu_context.h
init.c	mmzone.h
init.c	mmzone.h
init.c	module.h
init.c	module.h
init.c	nodemask.h
init.c	nodemask.h
init.c	page.h
init.c	page.h
init.c	pagemap.h
init.c	pagemap.h
init.c	sections.h
init.c	sections.h
init.c	setup.h
init.c	setup.h
init.c	swap.h
init.c	swap.h
init.c	tlb.h
init.c	tlb.h
interrupts.c	gpio.h
interrupts.c	hardirq.h
interrupts.c	interrupt.h
interrupts.c	irq-mapping.h
interrupts.c	irq.h
interrupts.c	irq.h
interrupts.c	irq_cpu.h
interrupts.c	kernel.h
interrupts.c	mipsregs.h
interrupts.c	setup.h
io.h	addrspace.h
io.h	bug.h
io.h	byteorder.h
io.h	io.h
io.h	kernel.h
io.h	string.h
io.h	types.h
ioasic-irq.c	init.h
ioasic-irq.c	ioasic.h
ioasic-irq.c	ioasic_addrs.h
ioasic-irq.c	ioasic_ints.h
ioasic-irq.c	irq.h
ioasic-irq.c	types.h
ioctl.h	ioctl.h
ioctls.h	ioctls.h
ioremap.c	addrspace.h
ioremap.c	io.h
ioremap.c	mm.h
ioremap.c	module.h
ioremap.c	pgtable.h
ioremap.c	slab.h
ioremap.c	vmalloc.h
ip22-berr.c	addrspace.h
ip22-berr.c	branch.h
ip22-berr.c	hpc3.h
ip22-berr.c	init.h
ip22-berr.c	ioc.h
ip22-berr.c	ip22.h
ip22-berr.c	irq_regs.h
ip22-berr.c	kernel.h
ip22-berr.c	mc.h
ip22-berr.c	sched.h
ip22-berr.c	traps.h
ip22-eisa.c	addrspace.h
ip22-eisa.c	delay.h
ip22-eisa.c	eisa.h
ip22-eisa.c	i8259.h
ip22-eisa.c	init.h
ip22-eisa.c	interrupt.h
ip22-eisa.c	io.h
ip22-eisa.c	ioc.h
ip22-eisa.c	ip22.h
ip22-eisa.c	irq.h
ip22-eisa.c	irq.h
ip22-eisa.c	kernel_stat.h
ip22-eisa.c	mc.h
ip22-eisa.c	mipsregs.h
ip22-eisa.c	processor.h
ip22-eisa.c	sched.h
ip22-eisa.c	signal.h
ip22-eisa.c	types.h
ip22-gio.c	addrspace.h
ip22-gio.c	export.h
ip22-gio.c	gio.h
ip22-gio.c	gio_device.h
ip22-gio.c	hpc3.h
ip22-gio.c	init.h
ip22-gio.c	ip22.h
ip22-gio.c	kernel.h
ip22-gio.c	mc.h
ip22-gio.c	paccess.h
ip22-gio.c	slab.h
ip22-hpc.c	hpc3.h
ip22-hpc.c	init.h
ip22-hpc.c	io.h
ip22-hpc.c	ioc.h
ip22-hpc.c	ip22.h
ip22-hpc.c	module.h
ip22-hpc.c	types.h
ip22-int.c	ftrace.h
ip22-int.c	hpc3.h
ip22-int.c	init.h
ip22-int.c	interrupt.h
ip22-int.c	ip22.h
ip22-int.c	irq_cpu.h
ip22-int.c	kernel_stat.h
ip22-int.c	types.h
ip22-mc.c	bootinfo.h
ip22-mc.c	hpc3.h
ip22-mc.c	init.h
ip22-mc.c	io.h
ip22-mc.c	ip22.h
ip22-mc.c	kernel.h
ip22-mc.c	mc.h
ip22-mc.c	module.h
ip22-mc.c	sgialib.h
ip22-nvram.c	hpc3.h
ip22-nvram.c	ip22.h
ip22-nvram.c	module.h
ip22-platform.c	hpc3.h
ip22-platform.c	if_ether.h
ip22-platform.c	init.h
ip22-platform.c	ip22.h
ip22-platform.c	kernel.h
ip22-platform.c	mc.h
ip22-platform.c	paccess.h
ip22-platform.c	platform_device.h
ip22-platform.c	seeq.h
ip22-platform.c	wd.h
ip22-reset.c	ds1286.h
ip22-reset.c	hpc3.h
ip22-reset.c	init.h
ip22-reset.c	interrupt.h
ip22-reset.c	io.h
ip22-reset.c	ioc.h
ip22-reset.c	ip22.h
ip22-reset.c	irq.h
ip22-reset.c	kernel.h
ip22-reset.c	linkage.h
ip22-reset.c	mc.h
ip22-reset.c	module.h
ip22-reset.c	notifier.h
ip22-reset.c	pm.h
ip22-reset.c	reboot.h
ip22-reset.c	sched.h
ip22-reset.c	sgialib.h
ip22-reset.c	timer.h
ip22-setup.c	addrspace.h
ip22-setup.c	bcache.h
ip22-setup.c	bootinfo.h
ip22-setup.c	console.h
ip22-setup.c	hpc3.h
ip22-setup.c	init.h
ip22-setup.c	io.h
ip22-setup.c	ip22.h
ip22-setup.c	irq.h
ip22-setup.c	kdev_t.h
ip22-setup.c	kernel.h
ip22-setup.c	mc.h
ip22-setup.c	module.h
ip22-setup.c	reboot.h
ip22-setup.c	sched.h
ip22-setup.c	sgialib.h
ip22-setup.c	time.h
ip22-setup.c	traps.h
ip22-setup.c	tty.h
ip22-setup.c	types.h
ip22-time.c	bcd.h
ip22-time.c	cpu.h
ip22-time.c	ftrace.h
ip22-time.c	hpc3.h
ip22-time.c	i8253.h
ip22-time.c	init.h
ip22-time.c	interrupt.h
ip22-time.c	io.h
ip22-time.c	ioc.h
ip22-time.c	ip22.h
ip22-time.c	irq.h
ip22-time.c	irq.h
ip22-time.c	kernel.h
ip22-time.c	kernel_stat.h
ip22-time.c	mipsregs.h
ip22-time.c	sgialib.h
ip22-time.c	time.h
ip22-time.c	time.h
ip28-berr.c	addrspace.h
ip28-berr.c	bootinfo.h
ip28-berr.c	branch.h
ip28-berr.c	hpc3.h
ip28-berr.c	init.h
ip28-berr.c	ioc.h
ip28-berr.c	ip22.h
ip28-berr.c	irq_regs.h
ip28-berr.c	kernel.h
ip28-berr.c	mc.h
ip28-berr.c	r4kcache.h
ip28-berr.c	sched.h
ip28-berr.c	seq_file.h
ip28-berr.c	traps.h
ip28-berr.c	uaccess.h
ipcbuf.h	ipcbuf.h
irq.c	ar7.h
irq.c	ar7.h
irq.c	ar7.h
irq.c	ar7.h
irq.c	ar7.h
irq.c	ar7.h
irq.c	ar7.h
irq.c	ar7.h
irq.c	ar7.h
irq.c	ar7.h
irq.c	ar7.h
irq.c	interrupt.h
irq.c	interrupt.h
irq.c	interrupt.h
irq.c	interrupt.h
irq.c	interrupt.h
irq.c	interrupt.h
irq.c	interrupt.h
irq.c	interrupt.h
irq.c	interrupt.h
irq.c	interrupt.h
irq.c	interrupt.h
irq.c	io.h
irq.c	io.h
irq.c	io.h
irq.c	io.h
irq.c	io.h
irq.c	io.h
irq.c	io.h
irq.c	io.h
irq.c	io.h
irq.c	io.h
irq.c	io.h
irq.c	irq.h
irq.c	irq.h
irq.c	irq.h
irq.c	irq.h
irq.c	irq.h
irq.c	irq.h
irq.c	irq.h
irq.c	irq.h
irq.c	irq.h
irq.c	irq.h
irq.c	irq.h
irq.c	irq_cpu.h
irq.c	irq_cpu.h
irq.c	irq_cpu.h
irq.c	irq_cpu.h
irq.c	irq_cpu.h
irq.c	irq_cpu.h
irq.c	irq_cpu.h
irq.c	irq_cpu.h
irq.c	irq_cpu.h
irq.c	irq_cpu.h
irq.c	irq_cpu.h
irq.c	mipsregs.h
irq.c	mipsregs.h
irq.c	mipsregs.h
irq.c	mipsregs.h
irq.c	mipsregs.h
irq.c	mipsregs.h
irq.c	mipsregs.h
irq.c	mipsregs.h
irq.c	mipsregs.h
irq.c	mipsregs.h
irq.c	mipsregs.h
irq.h	irq.h
irq_regs.h	irq_regs.h
irq_tx3927.c	init.h
irq_tx3927.c	tx3927.h
irq_tx3927.c	txx9irq.h
irq_tx4927.c	init.h
irq_tx4927.c	interrupt.h
irq_tx4927.c	irq.h
irq_tx4927.c	irq_cpu.h
irq_tx4927.c	tx4927.h
irq_tx4938.c	init.h
irq_tx4938.c	interrupt.h
irq_tx4938.c	irq.h
irq_tx4938.c	irq_cpu.h
irq_tx4938.c	tx4938.h
irq_tx4939.c	init.h
irq_tx4939.c	interrupt.h
irq_tx4939.c	irq.h
irq_tx4939.c	irq_cpu.h
irq_tx4939.c	tx4939.h
irq_tx4939.c	txx9irq.h
irq_tx4939.c	types.h
irqflags.h	sysreg.h
irqflags.h	types.h
kernel_linkage.c	fpu.h
kernel_linkage.c	fpu_emulator.h
kernel_linkage.c	processor.h
kernel_linkage.c	sched.h
kernel_linkage.c	signal.h
kernel_linkage.c	uaccess.h
kn01-berr.c	init.h
kn01-berr.c	inst.h
kn01-berr.c	interrupt.h
kn01-berr.c	irq_regs.h
kn01-berr.c	kernel.h
kn01-berr.c	kn01.h
kn01-berr.c	mipsregs.h
kn01-berr.c	page.h
kn01-berr.c	ptrace.h
kn01-berr.c	spinlock.h
kn01-berr.c	traps.h
kn01-berr.c	types.h
kn01-berr.c	uaccess.h
kn02-irq.c	init.h
kn02-irq.c	irq.h
kn02-irq.c	kn02.h
kn02-irq.c	types.h
kn02xa-berr.c	addrspace.h
kn02xa-berr.c	init.h
kn02xa-berr.c	interrupt.h
kn02xa-berr.c	irq_regs.h
kn02xa-berr.c	kernel.h
kn02xa-berr.c	kn02ca.h
kn02xa-berr.c	kn02xa.h
kn02xa-berr.c	kn05.h
kn02xa-berr.c	ptrace.h
kn02xa-berr.c	traps.h
kn02xa-berr.c	types.h
kprobes.h	types.h
kvm_para.h	kvm_para.h
lcd.c	errno.h
lcd.c	init.h
lcd.c	ioport.h
lcd.c	platform_device.h
led.c	cobalt.h
led.c	errno.h
led.c	init.h
led.c	ioport.h
led.c	platform_device.h
local.h	local.h
local64.h	local64.h
mach-ap121.c	dev-gpio-buttons.h
mach-ap121.c	dev-leds-gpio.h
mach-ap121.c	dev-spi.h
mach-ap121.c	dev-usb.h
mach-ap121.c	dev-wmac.h
mach-ap121.c	machtypes.h
mach-ap81.c	dev-gpio-buttons.h
mach-ap81.c	dev-leds-gpio.h
mach-ap81.c	dev-spi.h
mach-ap81.c	dev-usb.h
mach-ap81.c	dev-wmac.h
mach-ap81.c	machtypes.h
mach-db120.c	ath9k_platform.h
mach-db120.c	dev-gpio-buttons.h
mach-db120.c	dev-leds-gpio.h
mach-db120.c	dev-spi.h
mach-db120.c	dev-usb.h
mach-db120.c	dev-wmac.h
mach-db120.c	machtypes.h
mach-db120.c	pci.h
mach-db120.c	pci.h
mach-pb44.c	dev-gpio-buttons.h
mach-pb44.c	dev-leds-gpio.h
mach-pb44.c	dev-spi.h
mach-pb44.c	dev-usb.h
mach-pb44.c	i2c-gpio.h
mach-pb44.c	i2c.h
mach-pb44.c	init.h
mach-pb44.c	machtypes.h
mach-pb44.c	pcf857x.h
mach-pb44.c	pci.h
mach-pb44.c	platform_device.h
mach-ubnt-xm.c	ath9k_platform.h
mach-ubnt-xm.c	dev-gpio-buttons.h
mach-ubnt-xm.c	dev-leds-gpio.h
mach-ubnt-xm.c	dev-spi.h
mach-ubnt-xm.c	init.h
mach-ubnt-xm.c	irq.h
mach-ubnt-xm.c	machtypes.h
mach-ubnt-xm.c	pci.h
mach-ubnt-xm.c	pci.h
machine_kexec.c	cacheflush.h
machine_kexec.c	compiler.h
machine_kexec.c	delay.h
machine_kexec.c	kexec.h
machine_kexec.c	mm.h
machine_kexec.c	page.h
machtypes.h	mips_machine.h
mem_tx4927.c	init.h
mem_tx4927.c	io.h
mem_tx4927.c	tx4927.h
mem_tx4927.c	types.h
memory.c	ar7.h
memory.c	ar7.h
memory.c	bootinfo.h
memory.c	bootinfo.h
memory.c	bootmem.h
memory.c	bootmem.h
memory.c	init.h
memory.c	init.h
memory.c	mm.h
memory.c	mm.h
memory.c	module.h
memory.c	module.h
memory.c	page.h
memory.c	page.h
memory.c	pfn.h
memory.c	pfn.h
memory.c	proc_fs.h
memory.c	proc_fs.h
memory.c	prom.h
memory.c	prom.h
memory.c	sections.h
memory.c	sections.h
memory.c	string.h
memory.c	string.h
memory.c	swap.h
memory.c	swap.h
mips-mt-fpaff.c	cpu.h
mips-mt-fpaff.c	cpumask.h
mips-mt-fpaff.c	cpuset.h
mips-mt-fpaff.c	delay.h
mips-mt-fpaff.c	init.h
mips-mt-fpaff.c	kernel.h
mips-mt-fpaff.c	sched.h
mips-mt-fpaff.c	security.h
mips-mt-fpaff.c	types.h
mips-mt-fpaff.c	uaccess.h
mman.h	mman.h
mmu_context.h	mm_hooks.h
mmu_context.h	sysreg.h
mmu_context.h	tlbflush.h
module-rela.c	elf.h
module-rela.c	err.h
module-rela.c	errno.h
module-rela.c	moduleloader.h
module.h	module.h
mtd.c	init.h
mtd.c	partitions.h
mtd.c	physmap.h
mtd.c	platform_device.h
mutex.h	mutex-dec.h
nvram.c	bcm63xx_nvram.h
nvram.c	bcm63xx_nvram.h
nvram.c	crc32.h
nvram.c	crc32.h
nvram.c	export.h
nvram.c	export.h
nvram.c	if_ether.h
nvram.c	if_ether.h
nvram.c	init.h
nvram.c	init.h
nvram.c	kernel.h
nvram.c	kernel.h
op_model_loongson2.c	init.h
op_model_loongson2.c	interrupt.h
op_model_loongson2.c	loongson.h
op_model_loongson2.c	op_impl.h
op_model_loongson2.c	oprofile.h
op_model_mipsxx.c	cpumask.h
op_model_mipsxx.c	interrupt.h
op_model_mipsxx.c	irq_regs.h
op_model_mipsxx.c	op_impl.h
op_model_mipsxx.c	oprofile.h
op_model_mipsxx.c	smp.h
page.h	addrspace.h
page.h	const.h
param.h	param.h
param.h	param.h
pci.c	ar71xx_regs.h
pci.c	ar71xx_regs.h
pci.c	ar71xx_regs.h
pci.c	ar71xx_regs.h
pci.c	ath79.h
pci.c	ath79.h
pci.c	ath79.h
pci.c	ath79.h
pci.c	init.h
pci.c	init.h
pci.c	init.h
pci.c	init.h
pci.c	irq.h
pci.c	irq.h
pci.c	irq.h
pci.c	irq.h
pci.c	pci.h
pci.c	pci.h
pci.c	pci.h
pci.c	pci.h
pci.c	pci.h
pci.c	pci.h
pci.c	pci.h
pci.c	pci.h
pci.c	pci.h
pci.c	pci.h
pci.c	pci.h
pci.c	pci.h
pci.h	pci-dma-compat.h
pci.h	pci-dma-compat.h
percpu.h	percpu.h
pgalloc.h	mm.h
pgalloc.h	page.h
pgalloc.h	pgtable.h
pgalloc.h	quicklist.h
pgtable-2level.h	pgtable-nopmd.h
pgtable.h	addrspace.h
pgtable.h	pgtable-2level.h
pgtable.h	pgtable.h
pgtable.h	sched.h
platform.c	addrspace.h
platform.c	addrspace.h
platform.c	ar7.h
platform.c	ar7.h
platform.c	clk.h
platform.c	clk.h
platform.c	delay.h
platform.c	delay.h
platform.c	dma-mapping.h
platform.c	dma-mapping.h
platform.c	etherdevice.h
platform.c	etherdevice.h
platform.c	gpio.h
platform.c	gpio.h
platform.c	gpio.h
platform.c	gpio.h
platform.c	init.h
platform.c	init.h
platform.c	io.h
platform.c	io.h
platform.c	ioport.h
platform.c	ioport.h
platform.c	leds.h
platform.c	leds.h
platform.c	module.h
platform.c	module.h
platform.c	phy.h
platform.c	phy.h
platform.c	phy_fixed.h
platform.c	phy_fixed.h
platform.c	physmap.h
platform.c	physmap.h
platform.c	platform_device.h
platform.c	platform_device.h
platform.c	prom.h
platform.c	prom.h
platform.c	serial.h
platform.c	serial.h
platform.c	serial_8250.h
platform.c	serial_8250.h
platform.c	string.h
platform.c	string.h
platform.c	types.h
platform.c	types.h
platform.c	vlynq.h
platform.c	vlynq.h
poll.h	poll.h
posix_types.h	posix_types.h
processor.h	cache.h
processor.h	page.h
prom.c	ar7.h
prom.c	ar7.h
prom.c	ar7.h
prom.c	ar7.h
prom.c	ar7.h
prom.c	ar7.h
prom.c	ar7.h
prom.c	ar7.h
prom.c	ar7.h
prom.c	ar7.h
prom.c	ar7.h
prom.c	bootinfo.h
prom.c	bootinfo.h
prom.c	bootinfo.h
prom.c	bootinfo.h
prom.c	bootinfo.h
prom.c	bootinfo.h
prom.c	bootinfo.h
prom.c	bootinfo.h
prom.c	bootinfo.h
prom.c	bootinfo.h
prom.c	bootinfo.h
prom.c	init.h
prom.c	init.h
prom.c	init.h
prom.c	init.h
prom.c	init.h
prom.c	init.h
prom.c	init.h
prom.c	init.h
prom.c	init.h
prom.c	init.h
prom.c	init.h
prom.c	io.h
prom.c	io.h
prom.c	io.h
prom.c	io.h
prom.c	io.h
prom.c	io.h
prom.c	io.h
prom.c	io.h
prom.c	io.h
prom.c	io.h
prom.c	io.h
prom.c	kernel.h
prom.c	kernel.h
prom.c	kernel.h
prom.c	kernel.h
prom.c	kernel.h
prom.c	kernel.h
prom.c	kernel.h
prom.c	kernel.h
prom.c	kernel.h
prom.c	kernel.h
prom.c	kernel.h
prom.c	module.h
prom.c	module.h
prom.c	module.h
prom.c	module.h
prom.c	module.h
prom.c	module.h
prom.c	module.h
prom.c	module.h
prom.c	module.h
prom.c	module.h
prom.c	module.h
prom.c	prom.h
prom.c	prom.h
prom.c	prom.h
prom.c	prom.h
prom.c	prom.h
prom.c	prom.h
prom.c	prom.h
prom.c	prom.h
prom.c	prom.h
prom.c	prom.h
prom.c	prom.h
prom.c	serial_reg.h
prom.c	serial_reg.h
prom.c	serial_reg.h
prom.c	serial_reg.h
prom.c	serial_reg.h
prom.c	serial_reg.h
prom.c	serial_reg.h
prom.c	serial_reg.h
prom.c	serial_reg.h
prom.c	serial_reg.h
prom.c	serial_reg.h
prom.c	spinlock.h
prom.c	spinlock.h
prom.c	spinlock.h
prom.c	spinlock.h
prom.c	spinlock.h
prom.c	spinlock.h
prom.c	spinlock.h
prom.c	spinlock.h
prom.c	spinlock.h
prom.c	spinlock.h
prom.c	spinlock.h
prom.c	string.h
prom.c	string.h
prom.c	string.h
prom.c	string.h
prom.c	string.h
prom.c	string.h
prom.c	string.h
prom.c	string.h
prom.c	string.h
prom.c	string.h
prom.c	string.h
promcon.c	console.h
promcon.c	fs.h
promcon.c	init.h
promcon.c	prom.h
promcon.c	ptrace.h
promcon.c	tty.h
ptrace.h	ocd.h
ptrace.h	ocd.h
ptrace.h	ptrace.h
ptrace.h	ptrace.h
reset.c	bcm63xx_cpu.h
reset.c	bcm63xx_cpu.h
reset.c	bcm63xx_cpu.h
reset.c	bcm63xx_cpu.h
reset.c	bcm63xx_cpu.h
reset.c	bcm63xx_io.h
reset.c	bcm63xx_io.h
reset.c	bcm63xx_io.h
reset.c	bcm63xx_io.h
reset.c	bcm63xx_io.h
reset.c	bcm63xx_regs.h
reset.c	bcm63xx_regs.h
reset.c	bcm63xx_regs.h
reset.c	bcm63xx_regs.h
reset.c	bcm63xx_regs.h
reset.c	bcm63xx_reset.h
reset.c	bcm63xx_reset.h
reset.c	bcm63xx_reset.h
reset.c	bcm63xx_reset.h
reset.c	bcm63xx_reset.h
reset.c	clk.h
reset.c	clk.h
reset.c	clk.h
reset.c	clk.h
reset.c	clk.h
reset.c	delay.h
reset.c	delay.h
reset.c	delay.h
reset.c	delay.h
reset.c	delay.h
reset.c	err.h
reset.c	err.h
reset.c	err.h
reset.c	err.h
reset.c	err.h
reset.c	module.h
reset.c	module.h
reset.c	module.h
reset.c	module.h
reset.c	module.h
reset.c	mutex.h
reset.c	mutex.h
reset.c	mutex.h
reset.c	mutex.h
reset.c	mutex.h
resource.h	resource.h
rtc.c	errno.h
rtc.c	init.h
rtc.c	ioport.h
rtc.c	mc146818rtc.h
rtc.c	platform_device.h
scatterlist.h	scatterlist.h
sections.h	sections.h
serial.c	init.h
serial.c	init.h
serial.c	init.h
serial.c	init.h
serial.c	irq.h
serial.c	irq.h
serial.c	irq.h
serial.c	irq.h
serial.c	rb.h
serial.c	rb.h
serial.c	rb.h
serial.c	rb.h
serial.c	serial.h
serial.c	serial.h
serial.c	serial.h
serial.c	serial.h
serial.c	serial_8250.h
serial.c	serial_8250.h
serial.c	serial_8250.h
serial.c	serial_8250.h
serial.c	serial_core.h
serial.c	serial_core.h
serial.c	serial_core.h
serial.c	serial_core.h
serial.c	tty.h
serial.c	tty.h
serial.c	tty.h
serial.c	tty.h
setup.c	ar7.h
setup.c	ar7.h
setup.c	ar7.h
setup.c	ar7.h
setup.c	ar7.h
setup.c	ar7.h
setup.c	ar7.h
setup.c	ar7.h
setup.c	ar7.h
setup.c	ar7.h
setup.c	ar7.h
setup.c	ar7.h
setup.c	ar7.h
setup.c	ar7.h
setup.c	gpio.h
setup.c	gpio.h
setup.c	gpio.h
setup.c	gpio.h
setup.c	gpio.h
setup.c	gpio.h
setup.c	gpio.h
setup.c	gpio.h
setup.c	gpio.h
setup.c	gpio.h
setup.c	gpio.h
setup.c	gpio.h
setup.c	gpio.h
setup.c	gpio.h
setup.c	init.h
setup.c	init.h
setup.c	init.h
setup.c	init.h
setup.c	init.h
setup.c	init.h
setup.c	init.h
setup.c	init.h
setup.c	init.h
setup.c	init.h
setup.c	init.h
setup.c	init.h
setup.c	init.h
setup.c	init.h
setup.c	ioport.h
setup.c	ioport.h
setup.c	ioport.h
setup.c	ioport.h
setup.c	ioport.h
setup.c	ioport.h
setup.c	ioport.h
setup.c	ioport.h
setup.c	ioport.h
setup.c	ioport.h
setup.c	ioport.h
setup.c	ioport.h
setup.c	ioport.h
setup.c	ioport.h
setup.c	pm.h
setup.c	pm.h
setup.c	pm.h
setup.c	pm.h
setup.c	pm.h
setup.c	pm.h
setup.c	pm.h
setup.c	pm.h
setup.c	pm.h
setup.c	pm.h
setup.c	pm.h
setup.c	pm.h
setup.c	pm.h
setup.c	pm.h
setup.c	prom.h
setup.c	prom.h
setup.c	prom.h
setup.c	prom.h
setup.c	prom.h
setup.c	prom.h
setup.c	prom.h
setup.c	prom.h
setup.c	prom.h
setup.c	prom.h
setup.c	prom.h
setup.c	prom.h
setup.c	prom.h
setup.c	prom.h
setup.c	reboot.h
setup.c	reboot.h
setup.c	reboot.h
setup.c	reboot.h
setup.c	reboot.h
setup.c	reboot.h
setup.c	reboot.h
setup.c	reboot.h
setup.c	reboot.h
setup.c	reboot.h
setup.c	reboot.h
setup.c	reboot.h
setup.c	reboot.h
setup.c	reboot.h
setup.c	time.h
setup.c	time.h
setup.c	time.h
setup.c	time.h
setup.c	time.h
setup.c	time.h
setup.c	time.h
setup.c	time.h
setup.c	time.h
setup.c	time.h
setup.c	time.h
setup.c	time.h
setup.c	time.h
setup.c	time.h
setup.h	setup.h
setup.h	setup.h
setup_tx3927.c	delay.h
setup_tx3927.c	generic.h
setup_tx3927.c	init.h
setup_tx3927.c	io.h
setup_tx3927.c	ioport.h
setup_tx3927.c	mipsregs.h
setup_tx3927.c	param.h
setup_tx3927.c	physmap.h
setup_tx3927.c	tx3927.h
setup_tx3927.c	txx9irq.h
setup_tx3927.c	txx9pio.h
setup_tx3927.c	txx9tmr.h
setup_tx4927.c	delay.h
setup_tx4927.c	dmac.h
setup_tx4927.c	generic.h
setup_tx4927.c	init.h
setup_tx4927.c	ioport.h
setup_tx4927.c	param.h
setup_tx4927.c	physmap.h
setup_tx4927.c	ptrace.h
setup_tx4927.c	reboot.h
setup_tx4927.c	traps.h
setup_tx4927.c	tx4927.h
setup_tx4927.c	txx9irq.h
setup_tx4927.c	txx9pio.h
setup_tx4927.c	txx9tmr.h
setup_tx4938.c	delay.h
setup_tx4938.c	dmac.h
setup_tx4938.c	generic.h
setup_tx4938.c	init.h
setup_tx4938.c	ioport.h
setup_tx4938.c	ndfmc.h
setup_tx4938.c	param.h
setup_tx4938.c	physmap.h
setup_tx4938.c	platform_device.h
setup_tx4938.c	ptrace.h
setup_tx4938.c	reboot.h
setup_tx4938.c	traps.h
setup_tx4938.c	tx4938.h
setup_tx4938.c	txx9irq.h
setup_tx4938.c	txx9pio.h
setup_tx4938.c	txx9tmr.h
setup_tx4939.c	bootinfo.h
setup_tx4939.c	delay.h
setup_tx4939.c	device.h
setup_tx4939.c	dmac.h
setup_tx4939.c	ethtool.h
setup_tx4939.c	generic.h
setup_tx4939.c	init.h
setup_tx4939.c	ioport.h
setup_tx4939.c	ndfmc.h
setup_tx4939.c	netdevice.h
setup_tx4939.c	notifier.h
setup_tx4939.c	param.h
setup_tx4939.c	physmap.h
setup_tx4939.c	platform_device.h
setup_tx4939.c	ptrace.h
setup_tx4939.c	reboot.h
setup_tx4939.c	traps.h
setup_tx4939.c	tx4939.h
setup_tx4939.c	txx9irq.h
setup_tx4939.c	txx9tmr.h
siginfo.h	siginfo.h
signal.h	sigcontext.h
signal.h	sigcontext.h
signal.h	signal.h
signal.h	signal.h
smp-bmips.c	barrier.h
smp-bmips.c	bmips.h
smp-bmips.c	bootinfo.h
smp-bmips.c	bug.h
smp-bmips.c	cacheflush.h
smp-bmips.c	compiler.h
smp-bmips.c	cpu.h
smp-bmips.c	cpumask.h
smp-bmips.c	delay.h
smp-bmips.c	init.h
smp-bmips.c	interrupt.h
smp-bmips.c	io.h
smp-bmips.c	kernel.h
smp-bmips.c	linkage.h
smp-bmips.c	mipsregs.h
smp-bmips.c	mm.h
smp-bmips.c	pgtable.h
smp-bmips.c	pmon.h
smp-bmips.c	processor.h
smp-bmips.c	reboot.h
smp-bmips.c	sched.h
smp-bmips.c	smp.h
smp-bmips.c	spinlock.h
smp-bmips.c	time.h
smp-bmips.c	tlbflush.h
smp-bmips.c	traps.h
smp-up.c	kernel.h
smp-up.c	sched.h
smsc_fdc37m81x.c	init.h
smsc_fdc37m81x.c	io.h
smsc_fdc37m81x.c	smsc_fdc37m81x.h
smsc_fdc37m81x.c	types.h
smtc-proc.c	atomic.h
smtc-proc.c	cacheflush.h
smtc-proc.c	cpu.h
smtc-proc.c	cpumask.h
smtc-proc.c	hardirq.h
smtc-proc.c	interrupt.h
smtc-proc.c	kernel.h
smtc-proc.c	mipsregs.h
smtc-proc.c	mmu_context.h
smtc-proc.c	proc_fs.h
smtc-proc.c	processor.h
smtc-proc.c	sched.h
smtc-proc.c	smtc_proc.h
smtc.c	addrspace.h
smtc.c	atomic.h
smtc.c	cacheflush.h
smtc.c	clockchips.h
smtc.c	cpu.h
smtc.c	cpumask.h
smtc.c	ftrace.h
smtc.c	hardirq.h
smtc.c	hazards.h
smtc.c	interrupt.h
smtc.c	irq.h
smtc.c	kernel.h
smtc.c	kernel_stat.h
smtc.c	mipsregs.h
smtc.c	mmu_context.h
smtc.c	module.h
smtc.c	processor.h
smtc.c	sched.h
smtc.c	slab.h
smtc.c	smp.h
smtc.c	smtc.h
smtc.c	smtc_proc.h
smtc.c	time.h
socket.h	sockios.h
sp_add.c	ieee754sp.h
sp_cmp.c	ieee754sp.h
sp_div.c	ieee754sp.h
sp_fdp.c	ieee754sp.h
sp_fint.c	ieee754sp.h
sp_flong.c	ieee754sp.h
sp_frexp.c	ieee754sp.h
sp_logb.c	ieee754sp.h
sp_modf.c	ieee754sp.h
sp_mul.c	ieee754sp.h
sp_scalb.c	ieee754sp.h
sp_simple.c	ieee754sp.h
sp_sqrt.c	ieee754sp.h
sp_sub.c	ieee754sp.h
sp_tint.c	ieee754sp.h
sp_tint.c	kernel.h
sp_tlong.c	ieee754sp.h
spi_eeprom.c	device.h
spi_eeprom.c	eeprom.h
spi_eeprom.c	export.h
spi_eeprom.c	init.h
spi_eeprom.c	slab.h
spi_eeprom.c	spi.h
spi_eeprom.c	spi.h
sprom.c	bcm47xx.h
sprom.c	nvram.h
statfs.h	statfs.h
swab.h	compiler.h
swab.h	types.h
switch_to.h	ocd.h
syscalls.h	compiler.h
syscalls.h	linkage.h
syscalls.h	signal.h
syscalls.h	types.h
tc.c	addrspace.h
tc.c	bootinfo.h
tc.c	compiler.h
tc.c	errno.h
tc.c	init.h
tc.c	interrupts.h
tc.c	paccess.h
tc.c	prom.h
tc.c	string.h
tc.c	system.h
tc.c	tc.h
tc.c	types.h
termbits.h	posix_types.h
termios.h	termios-base.h
termios.h	termios-base.h
termios.h	termios.h
termios.h	termios.h
thread_info.h	page.h
thread_info.h	types.h
time.c	ar7.h
time.c	ar7.h
time.c	ar7.h
time.c	ar7.h
time.c	ar7.h
time.c	ar7.h
time.c	clk.h
time.c	clk.h
time.c	clk.h
time.c	clk.h
time.c	clk.h
time.c	clk.h
time.c	err.h
time.c	err.h
time.c	err.h
time.c	err.h
time.c	err.h
time.c	err.h
time.c	init.h
time.c	init.h
time.c	init.h
time.c	init.h
time.c	init.h
time.c	init.h
time.c	time.h
time.c	time.h
time.c	time.h
time.c	time.h
time.c	time.h
time.c	time.h
time.c	time.h
time.c	time.h
time.c	time.h
time.c	time.h
time.c	time.h
time.c	time.h
timer.c	bcm63xx_cpu.h
timer.c	bcm63xx_io.h
timer.c	bcm63xx_regs.h
timer.c	bcm63xx_timer.h
timer.c	clk.h
timer.c	err.h
timer.c	interrupt.h
timer.c	kernel.h
timer.c	module.h
timer.c	spinlock.h
tlb.c	init.h
tlb.c	mm.h
tlb.c	mmu_context.h
tlb.c	proc_fs.h
tlb.c	seq_file.h
tlb.h	tlb.h
tlbflush.h	mmu.h
topology.h	topology.h
traps.h	list.h
types.h	types.h
types.h	types.h
uaccess.h	errno.h
uaccess.h	sched.h
unaligned.h	be_struct.h
unaligned.h	generic.h
unaligned.h	le_byteshift.h
unistd.h	unistd.h
unistd.h	unistd.h
user.h	page.h
user.h	ptrace.h
user.h	types.h
wbflush.c	barrier.h
wbflush.c	bootinfo.h
wbflush.c	init.h
wbflush.c	module.h
wbflush.c	wbflush.h
wgt634u.c	bcm47xx.h
wgt634u.c	gpio.h
wgt634u.c	interrupt.h
wgt634u.c	leds.h
wgt634u.c	module.h
wgt634u.c	physmap.h
wgt634u.c	platform_device.h
wgt634u.c	reboot.h
wgt634u.c	ssb.h
wgt634u.c	ssb_embedded.h
xor.h	xor.h
