H8606.c	bfin5xx_spi.h
H8606.c	device.h
H8606.c	dma.h
H8606.c	flash.h
H8606.c	irq.h
H8606.c	isp1362.h
H8606.c	mtd.h
H8606.c	partitions.h
H8606.c	platform_device.h
H8606.c	portmux.h
H8606.c	reboot.h
H8606.c	serial.h
H8606.c	serial_8250.h
H8606.c	smc91x.h
H8606.c	spi.h
a.out-core.h	user.h
a.out.h	a.out.h
a.out.h	a.out.h
agp.h	io.h
alpha_ksyms.c	checksum.h
alpha_ksyms.c	console.h
alpha_ksyms.c	fpu.h
alpha_ksyms.c	machvec.h
alpha_ksyms.c	module.h
alpha_ksyms.c	syscalls.h
alpha_ksyms.c	uaccess.h
asm-offsets.c	io.h
asm-offsets.c	kbuild.h
asm-offsets.c	ptrace.h
asm-offsets.c	sched.h
asm-offsets.c	stddef.h
asm-offsets.c	types.h
asm-offsets.h	asm-offsets.h
atomic.h	barrier.h
atomic.h	cmpxchg.h
atomic.h	types.h
backtrace.c	oprofile.h
backtrace.c	processor.h
barrier.h	compiler.h
binfmt_loader.c	a.out.h
binfmt_loader.c	binfmts.h
binfmt_loader.c	file.h
binfmt_loader.c	fs.h
binfmt_loader.c	init.h
binfmt_loader.c	mm_types.h
bitmap.c	bitops.h
bitmap.c	module.h
bitops.h	arch_hweight.h
bitops.h	barrier.h
bitops.h	compiler.h
bitops.h	const_hweight.h
bitops.h	ext2-atomic-setbit.h
bitops.h	find.h
bitops.h	le.h
bitsperlong.h	bitsperlong.h
blackfin.h	anomaly.h
blackfin.h	bf533.h
blackfin.h	defBF532.h
blackfin.h	def_LPBlackfin.h
blackstamp.c	bfin5xx_spi.h
blackstamp.c	device.h
blackstamp.c	dma.h
blackstamp.c	dpmc.h
blackstamp.c	flash.h
blackstamp.c	gpio_keys.h
blackstamp.c	i2c-gpio.h
blackstamp.c	i2c.h
blackstamp.c	input.h
blackstamp.c	irq.h
blackstamp.c	mtd.h
blackstamp.c	partitions.h
blackstamp.c	physmap.h
blackstamp.c	platform_device.h
blackstamp.c	portmux.h
blackstamp.c	smc91x.h
blackstamp.c	spi.h
bootp.c	console.h
bootp.c	hwrpb.h
bootp.c	io.h
bootp.c	kernel.h
bootp.c	ksize.h
bootp.c	mm.h
bootp.c	pgtable.h
bootp.c	slab.h
bootp.c	stdarg.h
bootp.c	string.h
bootp.c	utsrelease.h
bootpz.c	console.h
bootpz.c	hwrpb.h
bootpz.c	io.h
bootpz.c	kernel.h
bootpz.c	kzsize.h
bootpz.c	mm.h
bootpz.c	pgtable.h
bootpz.c	slab.h
bootpz.c	stdarg.h
bootpz.c	string.h
bootpz.c	utsrelease.h
bug.h	bug.h
bug.h	linkage.h
bug.h	pal.h
byteorder.h	little_endian.h
byteorder.h	little_endian.h
cache.c	cpu.h
cache.c	facility.h
cache.c	init.h
cache.c	list.h
cache.c	notifier.h
cache.c	seq_file.h
cache.c	slab.h
cacheflush.h	mm.h
cacheflush.h	sched.h
checksum.c	byteorder.h
checksum.c	module.h
checksum.c	string.h
checksum.h	in6.h
cm_bf533.c	bfin5xx_spi.h
cm_bf533.c	device.h
cm_bf533.c	dma.h
cm_bf533.c	dpmc.h
cm_bf533.c	flash.h
cm_bf533.c	irq.h
cm_bf533.c	isp1362.h
cm_bf533.c	mmc_spi.h
cm_bf533.c	mtd.h
cm_bf533.c	partitions.h
cm_bf533.c	physmap.h
cm_bf533.c	platform_device.h
cm_bf533.c	portmux.h
cm_bf533.c	smc91x.h
cm_bf533.c	smsc911x.h
cm_bf533.c	spi.h
cmpxchg.h	xchg.h
cmpxchg.h	xchg.h
common.c	errno.h
common.c	init.h
common.c	op_impl.h
common.c	oprofile.h
common.c	ptrace.h
common.c	smp.h
common.c	special_insns.h
compat_linux.c	binfmts.h
compat_linux.c	capability.h
compat_linux.c	compat.h
compat_linux.c	compat_linux.h
compat_linux.c	fadvise.h
compat_linux.c	file.h
compat_linux.c	filter.h
compat_linux.c	fs.h
compat_linux.c	highmem.h
compat_linux.c	highuid.h
compat_linux.c	icmpv6.h
compat_linux.c	in.h
compat_linux.c	ipc.h
compat_linux.c	ipv6.h
compat_linux.c	kernel.h
compat_linux.c	mm.h
compat_linux.c	mman.h
compat_linux.c	module.h
compat_linux.c	msg.h
compat_linux.c	personality.h
compat_linux.c	poll.h
compat_linux.c	ptrace.h
compat_linux.c	quota.h
compat_linux.c	resource.h
compat_linux.c	sched.h
compat_linux.c	scm.h
compat_linux.c	sem.h
compat_linux.c	shm.h
compat_linux.c	signal.h
compat_linux.c	slab.h
compat_linux.c	smp.h
compat_linux.c	sock.h
compat_linux.c	stat.h
compat_linux.c	syscalls.h
compat_linux.c	sysctl.h
compat_linux.c	times.h
compat_linux.c	types.h
compat_linux.c	uaccess.h
compat_linux.c	uio.h
compat_linux.c	vfs.h
compat_linux.h	compat.h
compat_linux.h	socket.h
compat_linux.h	syscalls.h
compat_ptrace.h	compat_linux.h
compat_ptrace.h	ptrace.h
compiler.h	compiler.h
compiler.h	compiler.h
compiler.h	compiler.h
compiler.h	compiler.h
console.c	console.h
console.c	init.h
console.c	machvec.h
console.c	pci.h
console.c	pci_impl.h
console.c	tty.h
console.c	vga.h
console.c	vt.h
console.h	console.h
console.h	console.h
core_apecs.c	core_apecs.h
core_apecs.c	init.h
core_apecs.c	io.h
core_apecs.c	mce.h
core_apecs.c	pci.h
core_apecs.c	pci_impl.h
core_apecs.c	proto.h
core_apecs.c	ptrace.h
core_apecs.c	smp.h
core_apecs.c	types.h
core_apecs.h	compiler.h
core_apecs.h	io_trivial.h
core_apecs.h	types.h
core_cia.c	bootmem.h
core_cia.c	core_cia.h
core_cia.c	init.h
core_cia.c	io.h
core_cia.c	mce.h
core_cia.c	pci.h
core_cia.c	pci_impl.h
core_cia.c	proto.h
core_cia.c	ptrace.h
core_cia.c	sched.h
core_cia.c	types.h
core_cia.h	compiler.h
core_cia.h	io_trivial.h
core_cia.h	io_trivial.h
core_cia.h	types.h
core_irongate.c	agp_backend.h
core_irongate.c	agpgart.h
core_irongate.c	bootmem.h
core_irongate.c	cacheflush.h
core_irongate.c	core_irongate.h
core_irongate.c	export.h
core_irongate.c	init.h
core_irongate.c	initrd.h
core_irongate.c	io.h
core_irongate.c	pci.h
core_irongate.c	pci.h
core_irongate.c	pci_impl.h
core_irongate.c	pgalloc.h
core_irongate.c	proto.h
core_irongate.c	ptrace.h
core_irongate.c	sched.h
core_irongate.c	tlbflush.h
core_irongate.c	types.h
core_irongate.c	vmalloc.h
core_irongate.h	compiler.h
core_irongate.h	io_trivial.h
core_irongate.h	types.h
core_lca.c	core_lca.h
core_lca.c	init.h
core_lca.c	io.h
core_lca.c	irq_regs.h
core_lca.c	pci.h
core_lca.c	pci_impl.h
core_lca.c	proto.h
core_lca.c	ptrace.h
core_lca.c	smp.h
core_lca.c	tty.h
core_lca.c	types.h
core_lca.h	compiler.h
core_lca.h	io_trivial.h
core_lca.h	mce.h
core_marvel.c	agp_backend.h
core_marvel.c	agp_backend.h
core_marvel.c	bootmem.h
core_marvel.c	core_marvel.h
core_marvel.c	delay.h
core_marvel.c	gct.h
core_marvel.c	init.h
core_marvel.c	io.h
core_marvel.c	mc146818rtc.h
core_marvel.c	module.h
core_marvel.c	pci.h
core_marvel.c	pci_impl.h
core_marvel.c	pgalloc.h
core_marvel.c	proto.h
core_marvel.c	ptrace.h
core_marvel.c	rtc.h
core_marvel.c	rtc.h
core_marvel.c	sched.h
core_marvel.c	slab.h
core_marvel.c	smp.h
core_marvel.c	tlbflush.h
core_marvel.c	types.h
core_marvel.c	vga.h
core_marvel.c	vmalloc.h
core_marvel.h	compiler.h
core_marvel.h	io_trivial.h
core_marvel.h	spinlock.h
core_marvel.h	types.h
core_mcpcia.c	core_mcpcia.h
core_mcpcia.c	delay.h
core_mcpcia.c	init.h
core_mcpcia.c	io.h
core_mcpcia.c	pci.h
core_mcpcia.c	pci_impl.h
core_mcpcia.c	proto.h
core_mcpcia.c	ptrace.h
core_mcpcia.c	sched.h
core_mcpcia.c	types.h
core_mcpcia.h	compiler.h
core_mcpcia.h	io_trivial.h
core_mcpcia.h	mce.h
core_mcpcia.h	types.h
core_polaris.c	core_polaris.h
core_polaris.c	init.h
core_polaris.c	io.h
core_polaris.c	pci.h
core_polaris.c	pci_impl.h
core_polaris.c	proto.h
core_polaris.c	ptrace.h
core_polaris.c	sched.h
core_polaris.c	types.h
core_polaris.h	compiler.h
core_polaris.h	io_trivial.h
core_polaris.h	types.h
core_t2.c	core_t2.h
core_t2.c	delay.h
core_t2.c	init.h
core_t2.c	io.h
core_t2.c	mce.h
core_t2.c	pci.h
core_t2.c	pci_impl.h
core_t2.c	proto.h
core_t2.c	ptrace.h
core_t2.c	sched.h
core_t2.c	types.h
core_t2.h	compiler.h
core_t2.h	io_trivial.h
core_t2.h	spinlock.h
core_t2.h	types.h
core_titan.c	agp_backend.h
core_titan.c	agp_backend.h
core_titan.c	bootmem.h
core_titan.c	core_titan.h
core_titan.c	delay.h
core_titan.c	init.h
core_titan.c	io.h
core_titan.c	module.h
core_titan.c	pci.h
core_titan.c	pci_impl.h
core_titan.c	pgalloc.h
core_titan.c	proto.h
core_titan.c	ptrace.h
core_titan.c	sched.h
core_titan.c	slab.h
core_titan.c	smp.h
core_titan.c	tlbflush.h
core_titan.c	types.h
core_titan.c	vga.h
core_titan.c	vmalloc.h
core_titan.h	compiler.h
core_titan.h	io_trivial.h
core_titan.h	types.h
core_tsunami.c	bootmem.h
core_tsunami.c	core_tsunami.h
core_tsunami.c	init.h
core_tsunami.c	io.h
core_tsunami.c	module.h
core_tsunami.c	pci.h
core_tsunami.c	pci_impl.h
core_tsunami.c	proto.h
core_tsunami.c	ptrace.h
core_tsunami.c	sched.h
core_tsunami.c	smp.h
core_tsunami.c	types.h
core_tsunami.c	vga.h
core_tsunami.h	compiler.h
core_tsunami.h	io_trivial.h
core_tsunami.h	types.h
core_wildfire.c	core_wildfire.h
core_wildfire.c	init.h
core_wildfire.c	io.h
core_wildfire.c	pci.h
core_wildfire.c	pci_impl.h
core_wildfire.c	proto.h
core_wildfire.c	ptrace.h
core_wildfire.c	sched.h
core_wildfire.c	smp.h
core_wildfire.c	types.h
core_wildfire.h	compiler.h
core_wildfire.h	io_trivial.h
core_wildfire.h	types.h
cputime.h	cputime.h
csum_partial_copy.c	string.h
csum_partial_copy.c	types.h
csum_partial_copy.c	uaccess.h
current.h	thread_info.h
debug.c	ctype.h
debug.c	debug.h
debug.c	debugfs.h
debug.c	errno.h
debug.c	fs.h
debug.c	init.h
debug.c	kernel.h
debug.c	module.h
debug.c	slab.h
debug.c	stddef.h
debug.c	string.h
debug.c	sysctl.h
debug.c	uaccess.h
dec_and_lock.c	atomic.h
dec_and_lock.c	spinlock.h
device.h	device.h
diag.c	kvm-s390.h
diag.c	kvm.h
diag.c	kvm_host.h
diag.c	trace-s390.h
diag.c	trace.h
dis.c	atomic.h
dis.c	cpcmd.h
dis.c	debug.h
dis.c	delay.h
dis.c	errno.h
dis.c	init.h
dis.c	interrupt.h
dis.c	io.h
dis.c	irq.h
dis.c	kallsyms.h
dis.c	kdebug.h
dis.c	kernel.h
dis.c	kprobes.h
dis.c	lowcore.h
dis.c	mathemu.h
dis.c	mm.h
dis.c	module.h
dis.c	ptrace.h
dis.c	reboot.h
dis.c	sched.h
dis.c	smp.h
dis.c	string.h
dis.c	timer.h
dis.c	uaccess.h
div64.h	div64.h
dma-mapping.h	dma-attrs.h
dma-mapping.h	dma-mapping-common.h
dma.c	blackfin.h
dma.c	dma.h
dma.c	module.h
elf.h	auxvec.h
elf.h	special_insns.h
emergency-restart.h	emergency-restart.h
entry.h	cputime.h
entry.h	ptrace.h
entry.h	signal.h
entry.h	types.h
err_common.c	err_common.h
err_common.c	err_impl.h
err_common.c	hwrpb.h
err_common.c	init.h
err_common.c	io.h
err_common.c	proto.h
err_common.c	sched.h
err_common.c	smp.h
err_ev6.c	err_common.h
err_ev6.c	err_ev6.h
err_ev6.c	err_impl.h
err_ev6.c	hwrpb.h
err_ev6.c	init.h
err_ev6.c	io.h
err_ev6.c	irq_regs.h
err_ev6.c	proto.h
err_ev6.c	sched.h
err_ev6.c	smp.h
err_ev7.c	err_common.h
err_ev7.c	err_ev7.h
err_ev7.c	err_impl.h
err_ev7.c	hwrpb.h
err_ev7.c	init.h
err_ev7.c	io.h
err_ev7.c	proto.h
err_ev7.c	sched.h
err_ev7.c	smp.h
err_impl.h	mce.h
err_marvel.c	console.h
err_marvel.c	core_marvel.h
err_marvel.c	err_common.h
err_marvel.c	err_ev7.h
err_marvel.c	err_impl.h
err_marvel.c	hwrpb.h
err_marvel.c	init.h
err_marvel.c	io.h
err_marvel.c	pci.h
err_marvel.c	proto.h
err_marvel.c	sched.h
err_marvel.c	smp.h
err_titan.c	core_titan.h
err_titan.c	err_common.h
err_titan.c	err_ev6.h
err_titan.c	err_impl.h
err_titan.c	hwrpb.h
err_titan.c	init.h
err_titan.c	io.h
err_titan.c	irq_regs.h
err_titan.c	pci.h
err_titan.c	proto.h
err_titan.c	sched.h
err_titan.c	smp.h
errno.h	errno-base.h
es1888.c	init.h
es1888.c	io.h
es1888.c	proto.h
extable.c	module.h
extable.c	sort.h
extable.c	uaccess.h
ezkit.c	bfin5xx_spi.h
ezkit.c	device.h
ezkit.c	dma.h
ezkit.c	dpmc.h
ezkit.c	flash.h
ezkit.c	gpio_keys.h
ezkit.c	i2c-gpio.h
ezkit.c	i2c.h
ezkit.c	input.h
ezkit.c	irq.h
ezkit.c	isp1362.h
ezkit.c	mtd.h
ezkit.c	partitions.h
ezkit.c	physmap.h
ezkit.c	plat-ram.h
ezkit.c	platform_device.h
ezkit.c	portmux.h
ezkit.c	smc91x.h
ezkit.c	spi.h
fault.c	errno.h
fault.c	interrupt.h
fault.c	io.h
fault.c	kernel.h
fault.c	mm.h
fault.c	mman.h
fault.c	mmu_context.h
fault.c	module.h
fault.c	ptrace.h
fault.c	sched.h
fault.c	signal.h
fault.c	smp.h
fault.c	string.h
fault.c	tlbflush.h
fault.c	types.h
fault.c	uaccess.h
fb.h	device.h
fcntl.h	fcntl.h
fcntl.h	fcntl.h
floppy.h	pci.h
fls.c	bitops.h
fls.c	module.h
fpu.h	fpu.h
fpu.h	fpu.h
fpu.h	special_insns.h
fpu.h	special_insns.h
futex.h	barrier.h
futex.h	errno.h
futex.h	futex.h
futex.h	uaccess.h
gaccess.h	compiler.h
gaccess.h	kvm-s390.h
gaccess.h	kvm_host.h
gaccess.h	uaccess.h
gct.c	errno.h
gct.c	gct.h
gct.c	hwrpb.h
gct.c	kernel.h
gct.c	types.h
gpio.h	ports-f.h
gpio.h	ports-f.h
hardirq.h	hardirq.h
hwsampler.c	cpu.h
hwsampler.c	cpu_mf.h
hwsampler.c	errno.h
hwsampler.c	facility.h
hwsampler.c	hwsampler.h
hwsampler.c	interrupt.h
hwsampler.c	irq.h
hwsampler.c	kernel.h
hwsampler.c	kernel_stat.h
hwsampler.c	module.h
hwsampler.c	notifier.h
hwsampler.c	oom.h
hwsampler.c	op_counter.h
hwsampler.c	oprofile.h
hwsampler.c	semaphore.h
hwsampler.c	smp.h
hwsampler.c	workqueue.h
hwsampler.h	workqueue.h
init.c	bootmem.h
init.c	bootmem.h
init.c	console.h
init.c	console.h
init.c	dma.h
init.c	dma.h
init.c	errno.h
init.c	errno.h
init.c	gfp.h
init.c	gfp.h
init.c	hwrpb.h
init.c	hwrpb.h
init.c	init.h
init.c	init.h
init.c	kernel.h
init.c	kernel.h
init.c	mm.h
init.c	mm.h
init.c	mman.h
init.c	mman.h
init.c	mmu_context.h
init.c	mmu_context.h
init.c	pagemap.h
init.c	pagemap.h
init.c	pgalloc.h
init.c	pgalloc.h
init.c	pgtable.h
init.c	pgtable.h
init.c	ptrace.h
init.c	ptrace.h
init.c	sched.h
init.c	sched.h
init.c	setup.h
init.c	setup.h
init.c	signal.h
init.c	signal.h
init.c	string.h
init.c	string.h
init.c	swap.h
init.c	swap.h
init.c	tlb.h
init.c	tlb.h
init.c	types.h
init.c	types.h
init.c	uaccess.h
init.c	uaccess.h
init.c	vmalloc.h
init.c	vmalloc.h
intercept.c	errno.h
intercept.c	gaccess.h
intercept.c	kvm-s390.h
intercept.c	kvm_host.h
intercept.c	kvm_host.h
intercept.c	pagemap.h
intercept.c	trace-s390.h
intercept.c	trace.h
interrupt.c	asm-offsets.h
interrupt.c	gaccess.h
interrupt.c	hrtimer.h
interrupt.c	interrupt.h
interrupt.c	kvm-s390.h
interrupt.c	kvm_host.h
interrupt.c	signal.h
interrupt.c	slab.h
interrupt.c	trace-s390.h
interrupt.c	uaccess.h
ints-priority.c	blackfin.h
ints-priority.c	irq.h
ints-priority.c	module.h
io.c	io.h
io.c	kernel.h
io.c	module.h
io.c	string.h
io.c	types.h
io.h	compiler.h
io.h	hwrpb.h
io.h	iomap.h
io.h	kernel.h
io.h	machvec.h
io.h	mm.h
io.h	pgtable.h
ioctls.h	ioctls.h
ioctls.h	ioctls.h
ip0x.c	bfin5xx_spi.h
ip0x.c	device.h
ip0x.c	dm9000.h
ip0x.c	dma.h
ip0x.c	flash.h
ip0x.c	irq.h
ip0x.c	isp1362.h
ip0x.c	mtd.h
ip0x.c	partitions.h
ip0x.c	platform_device.h
ip0x.c	portmux.h
ip0x.c	spi.h
ipcbuf.h	ipcbuf.h
ipl.c	checksum.h
ipl.c	cio.h
ipl.c	cpcmd.h
ipl.c	crash_dump.h
ipl.c	ctype.h
ipl.c	debug.h
ipl.c	debug_locks.h
ipl.c	delay.h
ipl.c	device.h
ipl.c	ebcdic.h
ipl.c	entry.h
ipl.c	fs.h
ipl.c	gfp.h
ipl.c	ipl.h
ipl.c	module.h
ipl.c	os_info.h
ipl.c	reboot.h
ipl.c	reset.h
ipl.c	sclp.h
ipl.c	setup.h
ipl.c	smp.h
ipl.c	types.h
irq.c	bitops.h
irq.c	errno.h
irq.c	init.h
irq.c	interrupt.h
irq.c	io.h
irq.c	irq.h
irq.c	kernel.h
irq.c	kernel_stat.h
irq.c	module.h
irq.c	proc_fs.h
irq.c	profile.h
irq.c	ptrace.h
irq.c	random.h
irq.c	sched.h
irq.c	seq_file.h
irq.c	signal.h
irq.c	uaccess.h
irq_alpha.c	dma.h
irq_alpha.c	init.h
irq_alpha.c	irq.h
irq_alpha.c	irq_impl.h
irq_alpha.c	kernel_stat.h
irq_alpha.c	machvec.h
irq_alpha.c	mce.h
irq_alpha.c	module.h
irq_alpha.c	perf_event.h
irq_alpha.c	proto.h
irq_alpha.c	sched.h
irq_i8259.c	cache.h
irq_i8259.c	init.h
irq_i8259.c	interrupt.h
irq_i8259.c	io.h
irq_i8259.c	irq.h
irq_i8259.c	irq_impl.h
irq_i8259.c	proto.h
irq_i8259.c	sched.h
irq_impl.h	interrupt.h
irq_impl.h	irq.h
irq_impl.h	profile.h
irq_pyxis.c	core_cia.h
irq_pyxis.c	init.h
irq_pyxis.c	io.h
irq_pyxis.c	irq.h
irq_pyxis.c	irq_impl.h
irq_pyxis.c	proto.h
irq_pyxis.c	sched.h
irq_regs.h	irq_regs.h
irq_srm.c	init.h
irq_srm.c	irq.h
irq_srm.c	irq_impl.h
irq_srm.c	proto.h
irq_srm.c	sched.h
irqflags.h	pal.h
jensen.h	compiler.h
jensen.h	io_trivial.h
kdebug.h	kdebug.h
kmap_types.h	kmap_types.h
kprobes.c	cacheflush.h
kprobes.c	hardirq.h
kprobes.c	kdebug.h
kprobes.c	kprobes.h
kprobes.c	module.h
kprobes.c	preempt.h
kprobes.c	ptrace.h
kprobes.c	sections.h
kprobes.c	slab.h
kprobes.c	stop_machine.h
kprobes.c	uaccess.h
kvm-s390.c	asm-offsets.h
kvm-s390.c	compiler.h
kvm-s390.c	err.h
kvm-s390.c	fs.h
kvm-s390.c	gaccess.h
kvm-s390.c	hrtimer.h
kvm-s390.c	init.h
kvm-s390.c	kvm-s390.h
kvm-s390.c	kvm.h
kvm-s390.c	kvm_host.h
kvm-s390.c	lowcore.h
kvm-s390.c	module.h
kvm-s390.c	nmi.h
kvm-s390.c	pgtable.h
kvm-s390.c	sclp.h
kvm-s390.c	slab.h
kvm-s390.c	switch_to.h
kvm-s390.c	timer.h
kvm-s390.c	trace-s390.h
kvm-s390.c	trace.h
kvm-s390.h	hrtimer.h
kvm-s390.h	kvm.h
kvm-s390.h	kvm_host.h
kvm_para.h	kvm_para.h
lgr.c	debug.h
lgr.c	ebcdic.h
lgr.c	facility.h
lgr.c	ipl.h
lgr.c	module.h
lgr.c	slab.h
lgr.c	sysinfo.h
lgr.c	timer.h
local.h	atomic.h
local.h	percpu.h
local64.h	local64.h
machine_kexec.c	asm-offsets.h
machine_kexec.c	cio.h
machine_kexec.c	debug_locks.h
machine_kexec.c	delay.h
machine_kexec.c	device.h
machine_kexec.c	diag.h
machine_kexec.c	elf.h
machine_kexec.c	ftrace.h
machine_kexec.c	ipl.h
machine_kexec.c	kexec.h
machine_kexec.c	mm.h
machine_kexec.c	os_info.h
machine_kexec.c	pgalloc.h
machine_kexec.c	pgtable.h
machine_kexec.c	reboot.h
machine_kexec.c	reset.h
machine_kexec.c	setup.h
machine_kexec.c	smp.h
machvec.h	types.h
machvec_impl.h	pgalloc.h
main.c	console.h
main.c	hwrpb.h
main.c	kernel.h
main.c	ksize.h
main.c	mm.h
main.c	pgtable.h
main.c	slab.h
main.c	stdarg.h
main.c	string.h
main.c	utsrelease.h
math.c	double.h
math.c	double.h
math.c	kernel.h
math.c	kernel.h
math.c	module.h
math.c	module.h
math.c	sched.h
math.c	sched.h
math.c	sfp-util.h
math.c	sfp-util.h
math.c	single.h
math.c	single.h
math.c	soft-fp.h
math.c	soft-fp.h
math.c	types.h
math.c	types.h
math.c	uaccess.h
math.c	uaccess.h
mc146818rtc.h	io.h
mem_detect.c	ipl.h
mem_detect.c	kernel.h
mem_detect.c	module.h
mem_detect.c	sclp.h
mem_detect.c	setup.h
memcpy.c	types.h
misc.c	inflate.c
misc.c	kernel.h
misc.c	slab.h
misc.c	uaccess.h
mkbb.c	fcntl.h
mkbb.c	stdio.h
mkbb.c	stdlib.h
mkbb.c	unistd.h
mmu_context.h	compiler.h
mmu_context.h	io.h
mmu_context.h	machvec.h
mmu_context.h	mm_hooks.h
mmu_context.h	smp.h
mmzone.h	smp.h
module.c	elf.h
module.c	fs.h
module.c	kernel.h
module.c	moduleloader.h
module.c	slab.h
module.c	string.h
module.c	vmalloc.h
module.h	module.h
mutex.h	mutex-dec.h
numa.c	bootmem.h
numa.c	hwrpb.h
numa.c	initrd.h
numa.c	kernel.h
numa.c	mm.h
numa.c	module.h
numa.c	pfn.h
numa.c	pgalloc.h
numa.c	swap.h
numa.c	types.h
objstrip.c	a.out.h
objstrip.c	coff.h
objstrip.c	fcntl.h
objstrip.c	param.h
objstrip.c	stat.h
objstrip.c	stdio.h
objstrip.c	stdlib.h
objstrip.c	string.h
objstrip.c	types.h
objstrip.c	unistd.h
op_model_ev4.c	init.h
op_model_ev4.c	op_impl.h
op_model_ev4.c	oprofile.h
op_model_ev4.c	ptrace.h
op_model_ev4.c	smp.h
op_model_ev5.c	init.h
op_model_ev5.c	op_impl.h
op_model_ev5.c	oprofile.h
op_model_ev5.c	ptrace.h
op_model_ev5.c	smp.h
op_model_ev6.c	init.h
op_model_ev6.c	op_impl.h
op_model_ev6.c	oprofile.h
op_model_ev6.c	ptrace.h
op_model_ev6.c	smp.h
op_model_ev67.c	init.h
op_model_ev67.c	op_impl.h
op_model_ev67.c	oprofile.h
op_model_ev67.c	ptrace.h
op_model_ev67.c	smp.h
os_info.c	checksum.h
os_info.c	crash_dump.h
os_info.c	kernel.h
os_info.c	lowcore.h
os_info.c	os_info.h
osf_sys.c	errno.h
osf_sys.c	file.h
osf_sys.c	fpu.h
osf_sys.c	hwrpb.h
osf_sys.c	io.h
osf_sys.c	ipc.h
osf_sys.c	kernel.h
osf_sys.c	major.h
osf_sys.c	mm.h
osf_sys.c	mman.h
osf_sys.c	namei.h
osf_sys.c	poll.h
osf_sys.c	processor.h
osf_sys.c	ptrace.h
osf_sys.c	rcupdate.h
osf_sys.c	sched.h
osf_sys.c	shm.h
osf_sys.c	slab.h
osf_sys.c	smp.h
osf_sys.c	stat.h
osf_sys.c	stddef.h
osf_sys.c	syscalls.h
osf_sys.c	sysinfo.h
osf_sys.c	thread_info.h
osf_sys.c	time.h
osf_sys.c	timex.h
osf_sys.c	types.h
osf_sys.c	uaccess.h
osf_sys.c	uio.h
osf_sys.c	unistd.h
osf_sys.c	user.h
osf_sys.c	utsname.h
osf_sys.c	vfs.h
page.h	const.h
page.h	getorder.h
page.h	memory_model.h
page.h	pal.h
pal.h	pal.h
pal.h	pal.h
param.h	param.h
param.h	param.h
pc873xx.c	io.h
pc873xx.c	ioport.h
pc873xx.c	pc873xx.h
pci-noop.c	bootmem.h
pci-noop.c	capability.h
pci-noop.c	dma-mapping.h
pci-noop.c	errno.h
pci-noop.c	gfp.h
pci-noop.c	init.h
pci-noop.c	mm.h
pci-noop.c	pci.h
pci-noop.c	proto.h
pci-noop.c	scatterlist.h
pci-noop.c	sched.h
pci-sysfs.c	pci.h
pci-sysfs.c	sched.h
pci-sysfs.c	slab.h
pci-sysfs.c	stat.h
pci.c	bootmem.h
pci.c	cache.h
pci.c	init.h
pci.c	ioport.h
pci.c	kernel.h
pci.c	machvec.h
pci.c	module.h
pci.c	pci.h
pci.c	pci_impl.h
pci.c	proto.h
pci.c	slab.h
pci.c	string.h
pci.h	dma-mapping.h
pci.h	machvec.h
pci.h	pci-bridge.h
pci.h	pci-dma-compat.h
pci.h	scatterlist.h
pci.h	spinlock.h
pci_iommu.c	bootmem.h
pci_iommu.c	dma-mapping.h
pci_iommu.c	export.h
pci_iommu.c	gfp.h
pci_iommu.c	hwrpb.h
pci_iommu.c	io.h
pci_iommu.c	iommu-helper.h
pci_iommu.c	kernel.h
pci_iommu.c	log2.h
pci_iommu.c	mm.h
pci_iommu.c	pci.h
pci_iommu.c	pci_impl.h
pci_iommu.c	proto.h
pci_iommu.c	scatterlist.h
percpu.h	percpu.h
perf_event.c	atomic.h
perf_event.c	atomic.h
perf_event.c	hw_irq.h
perf_event.c	hw_irq.h
perf_event.c	hwrpb.h
perf_event.c	hwrpb.h
perf_event.c	init.h
perf_event.c	init.h
perf_event.c	irq.h
perf_event.c	irq.h
perf_event.c	irq_regs.h
perf_event.c	irq_regs.h
perf_event.c	kdebug.h
perf_event.c	kdebug.h
perf_event.c	kernel.h
perf_event.c	kernel.h
perf_event.c	kprobes.h
perf_event.c	kprobes.h
perf_event.c	mutex.h
perf_event.c	mutex.h
perf_event.c	pal.h
perf_event.c	pal.h
perf_event.c	perf_event.h
perf_event.c	perf_event.h
perf_event.c	wrperfmon.h
perf_event.c	wrperfmon.h
pgalloc.h	mm.h
pgalloc.h	mmzone.h
pgtable.h	4level-fixup.h
pgtable.h	machvec.h
pgtable.h	mmzone.h
pgtable.h	page.h
pgtable.h	pgtable.h
pgtable.h	processor.h
pgtable.h	setup.h
pll.h	blackfin.h
pll.h	blackfin.h
pll.h	irqflags.h
pll.h	irqflags.h
poll.h	poll.h
poll.h	poll.h
posix_types.h	posix_types.h
posix_types.h	posix_types.h
priv.c	current.h
priv.c	debug.h
priv.c	ebcdic.h
priv.c	errno.h
priv.c	gaccess.h
priv.c	gfp.h
priv.c	kvm-s390.h
priv.c	kvm.h
priv.c	sysinfo.h
priv.c	trace.h
process.c	console.h
process.c	elfcore.h
process.c	errno.h
process.c	fpu.h
process.c	hwrpb.h
process.c	io.h
process.c	kernel.h
process.c	major.h
process.c	mm.h
process.c	mman.h
process.c	module.h
process.c	pci_impl.h
process.c	pgtable.h
process.c	proto.h
process.c	ptrace.h
process.c	rcupdate.h
process.c	reboot.h
process.c	reg.h
process.c	sched.h
process.c	slab.h
process.c	smp.h
process.c	stat.h
process.c	stddef.h
process.c	time.h
process.c	tty.h
process.c	uaccess.h
process.c	unistd.h
process.c	user.h
process.c	vt.h
processor.h	personality.h
proto.h	interrupt.h
proto.h	io.h
proto.h	pgtable.h
ptrace.c	errno.h
ptrace.c	fpu.h
ptrace.c	kernel.h
ptrace.c	mm.h
ptrace.c	pgtable.h
ptrace.c	proto.h
ptrace.c	ptrace.h
ptrace.c	sched.h
ptrace.c	security.h
ptrace.c	signal.h
ptrace.c	smp.h
ptrace.c	tracehook.h
ptrace.c	uaccess.h
ptrace.c	user.h
resource.h	resource.h
rtc.h	rtc.h
rwsem.h	compiler.h
scatterlist.h	scatterlist.h
sections.h	sections.h
setup.c	bootmem.h
setup.c	console.h
setup.c	console.h
setup.c	cpu.h
setup.c	delay.h
setup.c	dma.h
setup.c	eisa.h
setup.c	errno.h
setup.c	export.h
setup.c	hwrpb.h
setup.c	init.h
setup.c	initrd.h
setup.c	io.h
setup.c	ioport.h
setup.c	kernel.h
setup.c	log2.h
setup.c	mc146818rtc.h
setup.c	mm.h
setup.c	mmu_context.h
setup.c	notifier.h
setup.c	pci.h
setup.c	pci_impl.h
setup.c	pfn.h
setup.c	pgtable.h
setup.c	platform_device.h
setup.c	proto.h
setup.c	ptrace.h
setup.c	reboot.h
setup.c	root_dev.h
setup.c	sched.h
setup.c	screen_info.h
setup.c	seq_file.h
setup.c	setup.h
setup.c	slab.h
setup.c	stddef.h
setup.c	string.h
setup.c	sysrq.h
setup.c	uaccess.h
setup.c	unistd.h
setup.c	user.h
sfp-util.h	byteorder.h
sfp-util.h	fpu.h
sfp-util.h	kernel.h
sfp-util.h	sched.h
sfp-util.h	types.h
siginfo.h	siginfo.h
siginfo.h	siginfo.h
siginfo.h	types.h
siginfo.h	types.h
signal.c	binfmts.h
signal.c	bitops.h
signal.c	errno.h
signal.c	kernel.h
signal.c	mm.h
signal.c	proto.h
signal.c	ptrace.h
signal.c	sched.h
signal.c	sigcontext.h
signal.c	signal.h
signal.c	smp.h
signal.c	stddef.h
signal.c	syscalls.h
signal.c	tracehook.h
signal.c	tty.h
signal.c	uaccess.h
signal.c	ucontext.h
signal.c	unistd.h
signal.c	wait.h
signal.h	signal.h
signal.h	signal.h
signal.h	signal.h
sigp.c	gaccess.h
sigp.c	kvm-s390.h
sigp.c	kvm.h
sigp.c	kvm_host.h
sigp.c	sigp.h
sigp.c	slab.h
sigp.c	trace.h
smc37c669.c	delay.h
smc37c669.c	hwrpb.h
smc37c669.c	init.h
smc37c669.c	io.h
smc37c669.c	kernel.h
smc37c669.c	mm.h
smc37c669.c	segment.h
smc37c669.c	spinlock.h
smc37c93x.c	delay.h
smc37c93x.c	hwrpb.h
smc37c93x.c	init.h
smc37c93x.c	io.h
smc37c93x.c	kernel.h
smc37c93x.c	mm.h
smc37c93x.c	segment.h
smp.c	atomic.h
smp.c	bitops.h
smp.c	cache.h
smp.c	cpu.h
smp.c	delay.h
smp.c	err.h
smp.c	errno.h
smp.c	hwrpb.h
smp.c	init.h
smp.c	interrupt.h
smp.c	io.h
smp.c	irq.h
smp.c	irq.h
smp.c	irq_impl.h
smp.c	kernel.h
smp.c	kernel_stat.h
smp.c	mm.h
smp.c	mmu_context.h
smp.c	module.h
smp.c	pgalloc.h
smp.c	pgtable.h
smp.c	profile.h
smp.c	proto.h
smp.c	ptrace.h
smp.c	sched.h
smp.c	smp.h
smp.c	spinlock.h
smp.c	threads.h
smp.c	tlbflush.h
smp.h	bitops.h
smp.h	cpumask.h
smp.h	irq.h
smp.h	pal.h
smp.h	threads.h
socket.h	socket.h
socket.h	socket.h
spinlock.h	current.h
spinlock.h	kernel.h
srm_env.c	console.h
srm_env.c	gfp.h
srm_env.c	init.h
srm_env.c	kernel.h
srm_env.c	machvec.h
srm_env.c	module.h
srm_env.c	proc_fs.h
srm_env.c	seq_file.h
srm_env.c	uaccess.h
srm_printk.c	console.h
srm_printk.c	kernel.h
srm_puts.c	console.h
srm_puts.c	string.h
srmcons.c	console.h
srmcons.c	console.h
srmcons.c	delay.h
srmcons.c	init.h
srmcons.c	kernel.h
srmcons.c	mm.h
srmcons.c	slab.h
srmcons.c	spinlock.h
srmcons.c	timer.h
srmcons.c	tty.h
srmcons.c	tty_driver.h
srmcons.c	tty_flip.h
srmcons.c	uaccess.h
stacktrace.c	kernel.h
stamp.c	bfin5xx_spi.h
stamp.c	bfin_sport.h
stamp.c	device.h
stamp.c	dma.h
stamp.c	dpmc.h
stamp.c	flash.h
stamp.c	gpio_keys.h
stamp.c	i2c-gpio.h
stamp.c	i2c.h
stamp.c	input.h
stamp.c	irq.h
stamp.c	isp1362.h
stamp.c	mmc_spi.h
stamp.c	mtd.h
stamp.c	partitions.h
stamp.c	physmap.h
stamp.c	platform_device.h
stamp.c	portmux.h
stamp.c	reboot.h
stamp.c	smc91x.h
stamp.c	spi.h
statfs.h	statfs.h
statfs.h	types.h
swab.h	compiler.h
swab.h	compiler.h
swab.h	types.h
sys_alcor.c	bitops.h
sys_alcor.c	core_cia.h
sys_alcor.c	dma.h
sys_alcor.c	init.h
sys_alcor.c	io.h
sys_alcor.c	irq.h
sys_alcor.c	irq_impl.h
sys_alcor.c	kernel.h
sys_alcor.c	machvec_impl.h
sys_alcor.c	mm.h
sys_alcor.c	mmu_context.h
sys_alcor.c	pci.h
sys_alcor.c	pci_impl.h
sys_alcor.c	pgtable.h
sys_alcor.c	proto.h
sys_alcor.c	ptrace.h
sys_alcor.c	reboot.h
sys_alcor.c	sched.h
sys_alcor.c	tlbflush.h
sys_alcor.c	types.h
sys_cabriolet.c	bitops.h
sys_cabriolet.c	core_apecs.h
sys_cabriolet.c	core_cia.h
sys_cabriolet.c	core_lca.h
sys_cabriolet.c	dma.h
sys_cabriolet.c	init.h
sys_cabriolet.c	io.h
sys_cabriolet.c	irq.h
sys_cabriolet.c	irq_impl.h
sys_cabriolet.c	kernel.h
sys_cabriolet.c	machvec_impl.h
sys_cabriolet.c	mm.h
sys_cabriolet.c	mmu_context.h
sys_cabriolet.c	pc873xx.h
sys_cabriolet.c	pci.h
sys_cabriolet.c	pci_impl.h
sys_cabriolet.c	pgtable.h
sys_cabriolet.c	proto.h
sys_cabriolet.c	ptrace.h
sys_cabriolet.c	sched.h
sys_cabriolet.c	tlbflush.h
sys_cabriolet.c	types.h
sys_dp264.c	bitops.h
sys_dp264.c	core_tsunami.h
sys_dp264.c	dma.h
sys_dp264.c	hwrpb.h
sys_dp264.c	init.h
sys_dp264.c	io.h
sys_dp264.c	irq.h
sys_dp264.c	irq_impl.h
sys_dp264.c	kernel.h
sys_dp264.c	machvec_impl.h
sys_dp264.c	mm.h
sys_dp264.c	mmu_context.h
sys_dp264.c	pci.h
sys_dp264.c	pci_impl.h
sys_dp264.c	pgtable.h
sys_dp264.c	proto.h
sys_dp264.c	ptrace.h
sys_dp264.c	sched.h
sys_dp264.c	tlbflush.h
sys_dp264.c	types.h
sys_eb64p.c	bitops.h
sys_eb64p.c	core_apecs.h
sys_eb64p.c	core_lca.h
sys_eb64p.c	dma.h
sys_eb64p.c	hwrpb.h
sys_eb64p.c	init.h
sys_eb64p.c	io.h
sys_eb64p.c	irq.h
sys_eb64p.c	irq_impl.h
sys_eb64p.c	kernel.h
sys_eb64p.c	machvec_impl.h
sys_eb64p.c	mm.h
sys_eb64p.c	mmu_context.h
sys_eb64p.c	pci.h
sys_eb64p.c	pci_impl.h
sys_eb64p.c	pgtable.h
sys_eb64p.c	proto.h
sys_eb64p.c	ptrace.h
sys_eb64p.c	sched.h
sys_eb64p.c	tlbflush.h
sys_eb64p.c	types.h
sys_eiger.c	bitops.h
sys_eiger.c	core_tsunami.h
sys_eiger.c	dma.h
sys_eiger.c	hwrpb.h
sys_eiger.c	init.h
sys_eiger.c	io.h
sys_eiger.c	irq.h
sys_eiger.c	irq_impl.h
sys_eiger.c	kernel.h
sys_eiger.c	machvec_impl.h
sys_eiger.c	mm.h
sys_eiger.c	mmu_context.h
sys_eiger.c	pci.h
sys_eiger.c	pci.h
sys_eiger.c	pci_impl.h
sys_eiger.c	pgtable.h
sys_eiger.c	proto.h
sys_eiger.c	ptrace.h
sys_eiger.c	sched.h
sys_eiger.c	tlbflush.h
sys_eiger.c	types.h
sys_jensen.c	dma.h
sys_jensen.c	init.h
sys_jensen.c	io.h
sys_jensen.c	irq.h
sys_jensen.c	irq_impl.h
sys_jensen.c	jensen.h
sys_jensen.c	kernel.h
sys_jensen.c	machvec_impl.h
sys_jensen.c	mm.h
sys_jensen.c	mmu_context.h
sys_jensen.c	pci.h
sys_jensen.c	pci_impl.h
sys_jensen.c	pgtable.h
sys_jensen.c	proto.h
sys_jensen.c	ptrace.h
sys_jensen.c	sched.h
sys_jensen.c	tlbflush.h
sys_jensen.c	types.h
sys_marvel.c	bitops.h
sys_marvel.c	core_marvel.h
sys_marvel.c	dma.h
sys_marvel.c	err_impl.h
sys_marvel.c	hwrpb.h
sys_marvel.c	init.h
sys_marvel.c	io.h
sys_marvel.c	irq.h
sys_marvel.c	irq_impl.h
sys_marvel.c	kernel.h
sys_marvel.c	machvec_impl.h
sys_marvel.c	mm.h
sys_marvel.c	mmu_context.h
sys_marvel.c	pci.h
sys_marvel.c	pci_impl.h
sys_marvel.c	pgtable.h
sys_marvel.c	proto.h
sys_marvel.c	ptrace.h
sys_marvel.c	rtc.h
sys_marvel.c	sched.h
sys_marvel.c	tlbflush.h
sys_marvel.c	types.h
sys_marvel.c	vga.h
sys_miata.c	core_cia.h
sys_miata.c	dma.h
sys_miata.c	init.h
sys_miata.c	io.h
sys_miata.c	irq.h
sys_miata.c	irq_impl.h
sys_miata.c	kernel.h
sys_miata.c	machvec_impl.h
sys_miata.c	mm.h
sys_miata.c	mmu_context.h
sys_miata.c	pci.h
sys_miata.c	pci_impl.h
sys_miata.c	pgtable.h
sys_miata.c	proto.h
sys_miata.c	ptrace.h
sys_miata.c	reboot.h
sys_miata.c	sched.h
sys_miata.c	tlbflush.h
sys_miata.c	types.h
sys_mikasa.c	bitops.h
sys_mikasa.c	core_apecs.h
sys_mikasa.c	core_cia.h
sys_mikasa.c	dma.h
sys_mikasa.c	init.h
sys_mikasa.c	io.h
sys_mikasa.c	irq.h
sys_mikasa.c	irq_impl.h
sys_mikasa.c	kernel.h
sys_mikasa.c	machvec_impl.h
sys_mikasa.c	mce.h
sys_mikasa.c	mm.h
sys_mikasa.c	mmu_context.h
sys_mikasa.c	pci.h
sys_mikasa.c	pci_impl.h
sys_mikasa.c	pgtable.h
sys_mikasa.c	proto.h
sys_mikasa.c	ptrace.h
sys_mikasa.c	sched.h
sys_mikasa.c	tlbflush.h
sys_mikasa.c	types.h
sys_nautilus.c	bitops.h
sys_nautilus.c	bootmem.h
sys_nautilus.c	core_irongate.h
sys_nautilus.c	dma.h
sys_nautilus.c	err_impl.h
sys_nautilus.c	hwrpb.h
sys_nautilus.c	init.h
sys_nautilus.c	io.h
sys_nautilus.c	irq.h
sys_nautilus.c	irq_impl.h
sys_nautilus.c	kernel.h
sys_nautilus.c	machvec_impl.h
sys_nautilus.c	mm.h
sys_nautilus.c	mmu_context.h
sys_nautilus.c	pci.h
sys_nautilus.c	pci.h
sys_nautilus.c	pci_impl.h
sys_nautilus.c	pgtable.h
sys_nautilus.c	proto.h
sys_nautilus.c	ptrace.h
sys_nautilus.c	reboot.h
sys_nautilus.c	sched.h
sys_nautilus.c	tlbflush.h
sys_nautilus.c	types.h
sys_noritake.c	bitops.h
sys_noritake.c	core_apecs.h
sys_noritake.c	core_cia.h
sys_noritake.c	dma.h
sys_noritake.c	init.h
sys_noritake.c	io.h
sys_noritake.c	irq.h
sys_noritake.c	irq_impl.h
sys_noritake.c	kernel.h
sys_noritake.c	machvec_impl.h
sys_noritake.c	mce.h
sys_noritake.c	mm.h
sys_noritake.c	mmu_context.h
sys_noritake.c	pci.h
sys_noritake.c	pci_impl.h
sys_noritake.c	pgtable.h
sys_noritake.c	proto.h
sys_noritake.c	ptrace.h
sys_noritake.c	sched.h
sys_noritake.c	tlbflush.h
sys_noritake.c	types.h
sys_rawhide.c	core_mcpcia.h
sys_rawhide.c	dma.h
sys_rawhide.c	init.h
sys_rawhide.c	io.h
sys_rawhide.c	irq.h
sys_rawhide.c	irq_impl.h
sys_rawhide.c	kernel.h
sys_rawhide.c	machvec_impl.h
sys_rawhide.c	mm.h
sys_rawhide.c	mmu_context.h
sys_rawhide.c	pci.h
sys_rawhide.c	pci_impl.h
sys_rawhide.c	pgtable.h
sys_rawhide.c	proto.h
sys_rawhide.c	ptrace.h
sys_rawhide.c	sched.h
sys_rawhide.c	tlbflush.h
sys_rawhide.c	types.h
sys_ruffian.c	core_cia.h
sys_ruffian.c	dma.h
sys_ruffian.c	init.h
sys_ruffian.c	io.h
sys_ruffian.c	ioport.h
sys_ruffian.c	irq.h
sys_ruffian.c	irq_impl.h
sys_ruffian.c	kernel.h
sys_ruffian.c	machvec_impl.h
sys_ruffian.c	mm.h
sys_ruffian.c	mmu_context.h
sys_ruffian.c	pci.h
sys_ruffian.c	pci_impl.h
sys_ruffian.c	pgtable.h
sys_ruffian.c	proto.h
sys_ruffian.c	ptrace.h
sys_ruffian.c	sched.h
sys_ruffian.c	timex.h
sys_ruffian.c	tlbflush.h
sys_ruffian.c	types.h
sys_rx164.c	bitops.h
sys_rx164.c	core_polaris.h
sys_rx164.c	dma.h
sys_rx164.c	init.h
sys_rx164.c	io.h
sys_rx164.c	irq.h
sys_rx164.c	irq_impl.h
sys_rx164.c	kernel.h
sys_rx164.c	machvec_impl.h
sys_rx164.c	mm.h
sys_rx164.c	mmu_context.h
sys_rx164.c	pci.h
sys_rx164.c	pci_impl.h
sys_rx164.c	pgtable.h
sys_rx164.c	proto.h
sys_rx164.c	ptrace.h
sys_rx164.c	sched.h
sys_rx164.c	tlbflush.h
sys_rx164.c	types.h
sys_s390.c	entry.h
sys_s390.c	errno.h
sys_s390.c	file.h
sys_s390.c	fs.h
sys_s390.c	ipc.h
sys_s390.c	mm.h
sys_s390.c	mman.h
sys_s390.c	msg.h
sys_s390.c	personality.h
sys_s390.c	sched.h
sys_s390.c	sem.h
sys_s390.c	shm.h
sys_s390.c	smp.h
sys_s390.c	stat.h
sys_s390.c	syscalls.h
sys_s390.c	uaccess.h
sys_s390.c	unistd.h
sys_s390.c	utsname.h
sys_sable.c	core_t2.h
sys_sable.c	dma.h
sys_sable.c	init.h
sys_sable.c	io.h
sys_sable.c	irq.h
sys_sable.c	irq_impl.h
sys_sable.c	kernel.h
sys_sable.c	machvec_impl.h
sys_sable.c	mm.h
sys_sable.c	mmu_context.h
sys_sable.c	pci.h
sys_sable.c	pci_impl.h
sys_sable.c	pgtable.h
sys_sable.c	proto.h
sys_sable.c	ptrace.h
sys_sable.c	sched.h
sys_sable.c	tlbflush.h
sys_sable.c	types.h
sys_sio.c	compiler.h
sys_sio.c	core_apecs.h
sys_sio.c	core_lca.h
sys_sio.c	dma.h
sys_sio.c	init.h
sys_sio.c	io.h
sys_sio.c	irq.h
sys_sio.c	irq_impl.h
sys_sio.c	kernel.h
sys_sio.c	machvec_impl.h
sys_sio.c	mm.h
sys_sio.c	mmu_context.h
sys_sio.c	pc873xx.h
sys_sio.c	pci.h
sys_sio.c	pci_impl.h
sys_sio.c	pgtable.h
sys_sio.c	proto.h
sys_sio.c	ptrace.h
sys_sio.c	sched.h
sys_sio.c	screen_info.h
sys_sio.c	tlbflush.h
sys_sio.c	types.h
sys_sx164.c	bitops.h
sys_sx164.c	core_cia.h
sys_sx164.c	dma.h
sys_sx164.c	hwrpb.h
sys_sx164.c	init.h
sys_sx164.c	io.h
sys_sx164.c	irq.h
sys_sx164.c	irq_impl.h
sys_sx164.c	kernel.h
sys_sx164.c	machvec_impl.h
sys_sx164.c	mm.h
sys_sx164.c	mmu_context.h
sys_sx164.c	pci.h
sys_sx164.c	pci_impl.h
sys_sx164.c	pgtable.h
sys_sx164.c	proto.h
sys_sx164.c	ptrace.h
sys_sx164.c	sched.h
sys_sx164.c	special_insns.h
sys_sx164.c	tlbflush.h
sys_sx164.c	types.h
sys_takara.c	core_cia.h
sys_takara.c	dma.h
sys_takara.c	init.h
sys_takara.c	io.h
sys_takara.c	irq.h
sys_takara.c	irq_impl.h
sys_takara.c	kernel.h
sys_takara.c	machvec_impl.h
sys_takara.c	mm.h
sys_takara.c	mmu_context.h
sys_takara.c	pc873xx.h
sys_takara.c	pci.h
sys_takara.c	pci_impl.h
sys_takara.c	pgtable.h
sys_takara.c	proto.h
sys_takara.c	ptrace.h
sys_takara.c	sched.h
sys_takara.c	tlbflush.h
sys_takara.c	types.h
sys_titan.c	bitops.h
sys_titan.c	core_titan.h
sys_titan.c	dma.h
sys_titan.c	err_impl.h
sys_titan.c	hwrpb.h
sys_titan.c	init.h
sys_titan.c	io.h
sys_titan.c	irq.h
sys_titan.c	irq_impl.h
sys_titan.c	kernel.h
sys_titan.c	machvec_impl.h
sys_titan.c	mm.h
sys_titan.c	mmu_context.h
sys_titan.c	pci.h
sys_titan.c	pci_impl.h
sys_titan.c	pgtable.h
sys_titan.c	proto.h
sys_titan.c	ptrace.h
sys_titan.c	sched.h
sys_titan.c	tlbflush.h
sys_titan.c	types.h
sys_wildfire.c	bitops.h
sys_wildfire.c	core_wildfire.h
sys_wildfire.c	dma.h
sys_wildfire.c	hwrpb.h
sys_wildfire.c	init.h
sys_wildfire.c	io.h
sys_wildfire.c	irq.h
sys_wildfire.c	irq_impl.h
sys_wildfire.c	kernel.h
sys_wildfire.c	machvec_impl.h
sys_wildfire.c	mm.h
sys_wildfire.c	mmu_context.h
sys_wildfire.c	pci.h
sys_wildfire.c	pci_impl.h
sys_wildfire.c	pgtable.h
sys_wildfire.c	proto.h
sys_wildfire.c	ptrace.h
sys_wildfire.c	sched.h
sys_wildfire.c	tlbflush.h
sys_wildfire.c	types.h
termbits.h	posix_types.h
termios.h	termios.h
termios.h	termios.h
thread_info.h	hwrpb.h
thread_info.h	processor.h
thread_info.h	sysinfo.h
thread_info.h	types.h
time.c	bcd.h
time.c	clocksource.h
time.c	delay.h
time.c	errno.h
time.c	hwrpb.h
time.c	init.h
time.c	interrupt.h
time.c	io.h
time.c	ioport.h
time.c	irq.h
time.c	irq_impl.h
time.c	irq_work.h
time.c	kernel.h
time.c	mc146818rtc.h
time.c	mm.h
time.c	module.h
time.c	param.h
time.c	profile.h
time.c	proto.h
time.c	rtc.h
time.c	sched.h
time.c	string.h
time.c	time.h
time.c	timex.h
time.c	uaccess.h
tlb.h	tlb.h
tlbflush.h	compiler.h
tlbflush.h	mm.h
tlbflush.h	pgalloc.h
tlbflush.h	sched.h
topology.h	machvec.h
topology.h	smp.h
topology.h	threads.h
trace-s390.h	define_trace.h
trace-s390.h	tracepoint.h
trace.h	debug.h
trace.h	define_trace.h
trace.h	sigp.h
trace.h	tracepoint.h
traps.c	delay.h
traps.c	gentrap.h
traps.c	hwrpb.h
traps.c	init.h
traps.c	jiffies.h
traps.c	kallsyms.h
traps.c	mm.h
traps.c	mmu_context.h
traps.c	module.h
traps.c	proto.h
traps.c	ratelimit.h
traps.c	sched.h
traps.c	special_insns.h
traps.c	sysinfo.h
traps.c	tty.h
traps.c	uaccess.h
traps.c	unaligned.h
types.h	int-ll64.h
types.h	int-ll64.h
types.h	types.h
types.h	types.h
uaccess.h	errno.h
uaccess.h	sched.h
udelay.c	delay.h
udelay.c	module.h
udelay.c	param.h
udelay.c	sched.h
udelay.c	smp.h
unaligned.h	be_byteshift.h
unaligned.h	generic.h
unaligned.h	le_struct.h
user.h	page.h
user.h	ptrace.h
user.h	reg.h
user.h	sched.h
vga.h	io.h
vga.h	ioport.h
vga.h	pci.h
word-at-a-time.h	compiler.h
xor.h	xor.h
