acvilon.c	bfin5xx_spi.h
acvilon.c	cacheflush.h
acvilon.c	delay.h
acvilon.c	device.h
acvilon.c	dma.h
acvilon.c	dpmc.h
acvilon.c	flash.h
acvilon.c	i2c-pca-platform.h
acvilon.c	i2c.h
acvilon.c	interrupt.h
acvilon.c	io.h
acvilon.c	irq.h
acvilon.c	isp1760.h
acvilon.c	jiffies.h
acvilon.c	mtd.h
acvilon.c	nand.h
acvilon.c	partitions.h
acvilon.c	physmap.h
acvilon.c	plat-ram.h
acvilon.c	platform_device.h
acvilon.c	portmux.h
acvilon.c	smsc911x.h
acvilon.c	spi.h
ad7160eval.c	ad7160.h
ad7160eval.c	bfin5xx_spi.h
ad7160eval.c	bfin_mac.h
ad7160eval.c	bfin_rotary.h
ad7160eval.c	device.h
ad7160eval.c	dma.h
ad7160eval.c	dpmc.h
ad7160eval.c	export.h
ad7160eval.c	flash.h
ad7160eval.c	i2c.h
ad7160eval.c	input.h
ad7160eval.c	interrupt.h
ad7160eval.c	irq.h
ad7160eval.c	leds.h
ad7160eval.c	mtd.h
ad7160eval.c	musb.h
ad7160eval.c	nand.h
ad7160eval.c	partitions.h
ad7160eval.c	physmap.h
ad7160eval.c	platform_device.h
ad7160eval.c	portmux.h
ad7160eval.c	reboot.h
ad7160eval.c	spi.h
arch_checks.c	anomaly.h
arch_checks.c	clocks.h
arch_checks.c	fixed_code.h
ashldi3.c	gcclib.h
ashrdi3.c	gcclib.h
asm-offsets.c	hardirq.h
asm-offsets.c	irq.h
asm-offsets.c	kbuild.h
asm-offsets.c	kernel_stat.h
asm-offsets.c	pda.h
asm-offsets.c	ptrace.h
asm-offsets.c	sched.h
asm-offsets.c	stddef.h
asm-offsets.c	thread_info.h
asm-offsets.h	asm-offsets.h
atomic.h	atomic.h
atomic.h	cmpxchg.h
atomic.h	linkage.h
barrier.h	cache.h
bfin-global.h	linkage.h
bfin-global.h	types.h
bfin6xx_spi.h	types.h
bfin_crc.h	miscdevice.h
bfin_crc.h	spinlock.h
bfin_crc.h	types.h
bfin_dma.c	blackfin.h
bfin_dma.c	cacheflush.h
bfin_dma.c	dma.h
bfin_dma.c	early_printk.h
bfin_dma.c	errno.h
bfin_dma.c	interrupt.h
bfin_dma.c	kernel.h
bfin_dma.c	module.h
bfin_dma.c	param.h
bfin_dma.c	proc_fs.h
bfin_dma.c	sched.h
bfin_dma.c	seq_file.h
bfin_dma.c	spinlock.h
bfin_dma.c	uaccess.h
bfin_dma.h	types.h
bfin_gpio.c	blackfin.h
bfin_gpio.c	delay.h
bfin_gpio.c	err.h
bfin_gpio.c	gpio.h
bfin_gpio.c	irq.h
bfin_gpio.c	irq_handler.h
bfin_gpio.c	module.h
bfin_gpio.c	portmux.h
bfin_gpio.c	proc_fs.h
bfin_gpio.c	seq_file.h
bfin_ksyms.c	cacheflush.h
bfin_ksyms.c	io.h
bfin_ksyms.c	irq_handler.h
bfin_ksyms.c	module.h
bfin_ksyms.c	uaccess.h
bfin_oprofile.c	init.h
bfin_oprofile.c	oprofile.h
bfin_ppi.h	blackfin.h
bfin_ppi.h	types.h
bfin_simple_timer.h	ioctl.h
bfin_sport.h	bfin_sport.h
bfin_sport.h	types.h
bfin_sport3.h	types.h
bfin_twi.h	i2c.h
bfin_twi.h	types.h
bfrom.h	types.h
bitops.h	__ffs.h
bitops.h	__fls.h
bitops.h	atomic.h
bitops.h	byteorder.h
bitops.h	compiler.h
bitops.h	const_hweight.h
bitops.h	ext2-atomic.h
bitops.h	ffs.h
bitops.h	ffz.h
bitops.h	find.h
bitops.h	fls.h
bitops.h	fls64.h
bitops.h	irqflags.h
bitops.h	le.h
bitops.h	linkage.h
bitops.h	lock.h
bitops.h	non-atomic.h
bitops.h	non-atomic.h
bitops.h	sched.h
blackfin.h	anomaly.h
blackfin.h	anomaly.h
blackfin.h	anomaly.h
blackfin.h	anomaly.h
blackfin.h	anomaly.h
blackfin.h	anomaly.h
blackfin.h	anomaly.h
blackfin.h	anomaly.h
blackfin.h	bf518.h
blackfin.h	bf518.h
blackfin.h	bf518.h
blackfin.h	bf518.h
blackfin.h	bf518.h
blackfin.h	bf518.h
blackfin.h	bf518.h
blackfin.h	bf518.h
blackfin.h	def_LPBlackfin.h
blackfin.h	def_LPBlackfin.h
blackfin.h	def_LPBlackfin.h
blackfin.h	def_LPBlackfin.h
blackfin.h	def_LPBlackfin.h
blackfin.h	def_LPBlackfin.h
blackfin.h	def_LPBlackfin.h
blackfin.h	def_LPBlackfin.h
bug.h	bug.h
cache-c.c	blackfin.h
cache-c.c	cplbinit.h
cache-c.c	init.h
cache.h	linkage.h
cacheflush.h	blackfin.h
cacheflush.h	sections.h
cacheflush.h	smp.h
cdefBF514.h	cdefBF512.h
cdefBF516.h	cdefBF514.h
cdefBF518.h	cdefBF516.h
cdefBF525.h	cdefBF522.h
cdefBF527.h	cdefBF525.h
cdefBF537.h	cdefBF534.h
cdefBF539.h	cdefBF538.h
cdefBF542.h	cdefBF54x_base.h
cdefBF544.h	cdefBF54x_base.h
cdefBF547.h	cdefBF54x_base.h
cdefBF548.h	cdefBF547.h
cdefBF548.h	cdefBF54x_base.h
cdefBF549.h	cdefBF547.h
cdefBF549.h	cdefBF54x_base.h
cdefBF609.h	cdefBF60x_base.h
cdef_LPBlackfin.h	def_LPBlackfin.h
checksum.h	checksum.h
clkdev.h	slab.h
clock.c	clk.h
clock.c	clk.h
clock.c	clock-clksrc.h
clock.c	clock-clksrc.h
clock.c	clock.h
clock.c	clock.h
clock.c	common.h
clock.c	common.h
clock.c	cpu-freq.h
clock.c	cpu-freq.h
clock.c	cpu.h
clock.c	cpu.h
clock.c	device.h
clock.c	device.h
clock.c	err.h
clock.c	err.h
clock.c	errno.h
clock.c	errno.h
clock.c	init.h
clock.c	init.h
clock.c	io.h
clock.c	io.h
clock.c	kernel.h
clock.c	kernel.h
clock.c	list.h
clock.c	list.h
clock.c	map.h
clock.c	map.h
clock.c	module.h
clock.c	module.h
clock.c	pll.h
clock.c	pll.h
clock.c	regs-clock.h
clock.c	regs-clock.h
clock.c	s5p-clock.h
clock.c	s5p-clock.h
clock.h	clk.h
clocks-init.c	blackfin.h
clocks-init.c	clocks.h
clocks-init.c	dma.h
clocks-init.c	dpmc.h
clocks-init.c	init.h
clocks-init.c	linkage.h
clocks-init.c	mem_init.h
clocks.h	clk.h
clocks.h	dpmc.h
cm_bf527.c	ad7877.h
cm_bf527.c	bfin5xx_spi.h
cm_bf527.c	bfin_mac.h
cm_bf527.c	device.h
cm_bf527.c	dma.h
cm_bf527.c	dpmc.h
cm_bf527.c	etherdevice.h
cm_bf527.c	export.h
cm_bf527.c	flash.h
cm_bf527.c	gpio_keys.h
cm_bf527.c	i2c.h
cm_bf527.c	input.h
cm_bf527.c	interrupt.h
cm_bf527.c	irq.h
cm_bf527.c	isp1760.h
cm_bf527.c	mtd.h
cm_bf527.c	musb.h
cm_bf527.c	nand.h
cm_bf527.c	partitions.h
cm_bf527.c	physmap.h
cm_bf527.c	platform_device.h
cm_bf527.c	portmux.h
cm_bf527.c	reboot.h
cm_bf527.c	smc91x.h
cm_bf527.c	spi.h
cm_bf537e.c	ata_platform.h
cm_bf537e.c	bfin5xx_spi.h
cm_bf537e.c	bfin_mac.h
cm_bf537e.c	bfin_sport.h
cm_bf537e.c	device.h
cm_bf537e.c	dma.h
cm_bf537e.c	dpmc.h
cm_bf537e.c	etherdevice.h
cm_bf537e.c	export.h
cm_bf537e.c	flash.h
cm_bf537e.c	irq.h
cm_bf537e.c	isp1362.h
cm_bf537e.c	mtd.h
cm_bf537e.c	partitions.h
cm_bf537e.c	physmap.h
cm_bf537e.c	platform_device.h
cm_bf537e.c	portmux.h
cm_bf537e.c	smc91x.h
cm_bf537e.c	spi.h
cm_bf537u.c	ata_platform.h
cm_bf537u.c	bfin5xx_spi.h
cm_bf537u.c	bfin_mac.h
cm_bf537u.c	device.h
cm_bf537u.c	dma.h
cm_bf537u.c	dpmc.h
cm_bf537u.c	etherdevice.h
cm_bf537u.c	export.h
cm_bf537u.c	flash.h
cm_bf537u.c	irq.h
cm_bf537u.c	isp1362.h
cm_bf537u.c	mmc_spi.h
cm_bf537u.c	mtd.h
cm_bf537u.c	partitions.h
cm_bf537u.c	physmap.h
cm_bf537u.c	platform_device.h
cm_bf537u.c	portmux.h
cm_bf537u.c	smc91x.h
cm_bf537u.c	spi.h
cm_bf548.c	ad7877.h
cm_bf548.c	bf54x-lq043.h
cm_bf548.c	bf54x_keys.h
cm_bf548.c	bfin5xx_spi.h
cm_bf548.c	bfin_sdh.h
cm_bf548.c	device.h
cm_bf548.c	dma.h
cm_bf548.c	dpmc.h
cm_bf548.c	flash.h
cm_bf548.c	gpio.h
cm_bf548.c	gpio_keys.h
cm_bf548.c	input.h
cm_bf548.c	interrupt.h
cm_bf548.c	irq.h
cm_bf548.c	mtd.h
cm_bf548.c	musb.h
cm_bf548.c	nand.h
cm_bf548.c	partitions.h
cm_bf548.c	physmap.h
cm_bf548.c	platform_device.h
cm_bf548.c	portmux.h
cm_bf548.c	smsc911x.h
cm_bf548.c	spi.h
cm_bf561.c	ata_platform.h
cm_bf561.c	bfin5xx_spi.h
cm_bf561.c	device.h
cm_bf561.c	dma.h
cm_bf561.c	dpmc.h
cm_bf561.c	flash.h
cm_bf561.c	irq.h
cm_bf561.c	isp1362.h
cm_bf561.c	mtd.h
cm_bf561.c	partitions.h
cm_bf561.c	physmap.h
cm_bf561.c	platform_device.h
cm_bf561.c	portmux.h
cm_bf561.c	smc91x.h
cm_bf561.c	smsc911x.h
cm_bf561.c	spi.h
cmpxchg.h	blackfin.h
cmpxchg.h	cmpxchg-local.h
cmpxchg.h	irqflags.h
cmpxchg.h	linkage.h
coreb.c	device.h
coreb.c	fs.h
coreb.c	kernel.h
coreb.c	miscdevice.h
coreb.c	module.h
cplb.h	anomaly.h
cplbinfo.c	blackfin.h
cplbinfo.c	cplbinit.h
cplbinfo.c	ctype.h
cplbinfo.c	init.h
cplbinfo.c	kernel.h
cplbinfo.c	module.h
cplbinfo.c	proc_fs.h
cplbinfo.c	seq_file.h
cplbinfo.c	uaccess.h
cplbinit.c	blackfin.h
cplbinit.c	blackfin.h
cplbinit.c	cacheflush.h
cplbinit.c	cacheflush.h
cplbinit.c	cplb.h
cplbinit.c	cplb.h
cplbinit.c	cplbinit.h
cplbinit.c	cplbinit.h
cplbinit.c	mem_map.h
cplbinit.c	mem_map.h
cplbinit.c	module.h
cplbinit.c	module.h
cplbinit.h	blackfin.h
cplbinit.h	cplb.h
cplbinit.h	threads.h
cplbmgr.c	blackfin.h
cplbmgr.c	blackfin.h
cplbmgr.c	cplb.h
cplbmgr.c	cplb.h
cplbmgr.c	cplbinit.h
cplbmgr.c	cplbinit.h
cplbmgr.c	kernel.h
cplbmgr.c	kernel.h
cplbmgr.c	mmu_context.h
cplbmgr.c	mmu_context.h
cplbmgr.c	traps.h
cplbmgr.c	traps.h
cpu.h	percpu.h
cpufreq.c	blackfin.h
cpufreq.c	clk.h
cpufreq.c	cpufreq.h
cpufreq.c	delay.h
cpufreq.c	dpmc.h
cpufreq.c	fs.h
cpufreq.c	init.h
cpufreq.c	kernel.h
cpufreq.c	module.h
cpufreq.c	time.h
cpufreq.c	types.h
debug-mmrs.c	bfin5xx_spi.h
debug-mmrs.c	bfin_can.h
debug-mmrs.c	bfin_dma.h
debug-mmrs.c	bfin_ppi.h
debug-mmrs.c	bfin_serial.h
debug-mmrs.c	bfin_twi.h
debug-mmrs.c	blackfin.h
debug-mmrs.c	debugfs.h
debug-mmrs.c	fs.h
debug-mmrs.c	gpio.h
debug-mmrs.c	gptimers.h
debug-mmrs.c	kernel.h
debug-mmrs.c	module.h
defBF514.h	defBF512.h
defBF516.h	defBF514.h
defBF518.h	defBF516.h
defBF525.h	defBF522.h
defBF527.h	defBF525.h
defBF537.h	defBF534.h
defBF539.h	defBF538.h
defBF542.h	defBF54x_base.h
defBF544.h	defBF54x_base.h
defBF547.h	defBF54x_base.h
defBF548.h	defBF547.h
defBF548.h	defBF54x_base.h
defBF549.h	defBF547.h
defBF549.h	defBF54x_base.h
defBF609.h	defBF60x_base.h
def_LPBlackfin.h	anomaly.h
def_LPBlackfin.h	types.h
delay.h	anomaly.h
delay.h	param.h
dma-mapping.c	dma-mapping.h
dma-mapping.c	export.h
dma-mapping.c	gfp.h
dma-mapping.c	scatterlist.h
dma-mapping.c	spinlock.h
dma-mapping.c	string.h
dma-mapping.c	types.h
dma-mapping.h	cacheflush.h
dma.c	bus.h
dma.c	bus.h
dma.c	bus.h
dma.c	bus.h
dma.c	bus.h
dma.c	bus.h
dma.c	bus.h
dma.c	bus.h
dma.c	devs.h
dma.c	devs.h
dma.c	devs.h
dma.c	devs.h
dma.c	devs.h
dma.c	devs.h
dma.c	devs.h
dma.c	devs.h
dma.c	dma-mapping.h
dma.c	dma-mapping.h
dma.c	dma-mapping.h
dma.c	dma-mapping.h
dma.c	dma-mapping.h
dma.c	dma-mapping.h
dma.c	dma-mapping.h
dma.c	dma-mapping.h
dma.c	dma.h
dma.c	dma.h
dma.c	dma.h
dma.c	dma.h
dma.c	dma.h
dma.c	dma.h
dma.c	dma.h
dma.c	dma.h
dma.c	irq.h
dma.c	irq.h
dma.c	irq.h
dma.c	irq.h
dma.c	irq.h
dma.c	irq.h
dma.c	irq.h
dma.c	irq.h
dma.c	irqs.h
dma.c	irqs.h
dma.c	irqs.h
dma.c	irqs.h
dma.c	irqs.h
dma.c	irqs.h
dma.c	irqs.h
dma.c	irqs.h
dma.c	irqs.h
dma.c	irqs.h
dma.c	irqs.h
dma.c	irqs.h
dma.c	irqs.h
dma.c	irqs.h
dma.c	irqs.h
dma.c	irqs.h
dma.c	map.h
dma.c	map.h
dma.c	map.h
dma.c	map.h
dma.c	map.h
dma.c	map.h
dma.c	map.h
dma.c	map.h
dma.c	pl330.h
dma.c	pl330.h
dma.c	pl330.h
dma.c	pl330.h
dma.c	pl330.h
dma.c	pl330.h
dma.c	pl330.h
dma.c	pl330.h
dma.h	dma-pl330.h
dma.h	dma-pl330.h
dma.h	dma-pl330.h
dma.h	dma-pl330.h
dma.h	dma-pl330.h
dma.h	dma-pl330.h
dma.h	dma-pl330.h
dma.h	dma-pl330.h
dma.h	dma-pl330.h
dnp5370.c	bfin5xx_spi.h
dnp5370.c	bfin_mac.h
dnp5370.c	device.h
dnp5370.c	dma.h
dnp5370.c	dpmc.h
dnp5370.c	export.h
dnp5370.c	flash.h
dnp5370.c	i2c.h
dnp5370.c	interrupt.h
dnp5370.c	io.h
dnp5370.c	irq.h
dnp5370.c	kernel.h
dnp5370.c	mmc_spi.h
dnp5370.c	mtd.h
dnp5370.c	nand.h
dnp5370.c	partitions.h
dnp5370.c	phy.h
dnp5370.c	physmap.h
dnp5370.c	plat-ram.h
dnp5370.c	platform_device.h
dnp5370.c	portmux.h
dnp5370.c	reboot.h
dnp5370.c	spi.h
dpmc.c	cdev.h
dpmc.c	cpufreq.h
dpmc.c	delay.h
dpmc.c	device.h
dpmc.c	dpmc.h
dpmc.c	errno.h
dpmc.c	fs.h
dpmc.c	kernel.h
dpmc.c	module.h
dpmc.c	platform_device.h
dpmc.c	types.h
dpmc.h	pll.h
dumpstack.c	kernel.h
dumpstack.c	mm.h
dumpstack.c	module.h
dumpstack.c	thread_info.h
dumpstack.c	trace.h
dumpstack.c	uaccess.h
early_printk.c	blackfin.h
early_printk.c	console.h
early_printk.c	early_printk.h
early_printk.c	init.h
early_printk.c	irq_handler.h
early_printk.c	kernel.h
early_printk.c	reboot.h
early_printk.c	serial_core.h
early_printk.c	string.h
early_printk.h	console.h
elf.h	ptrace.h
elf.h	user.h
entry.h	page.h
entry.h	setup.h
exception.c	irq_handler.h
exception.c	module.h
ext-gpio.c	blackfin.h
ext-gpio.c	err.h
ext-gpio.c	gpio.h
ext-gpio.c	module.h
ext-gpio.c	portmux.h
ezbrd.c	ad7877.h
ezbrd.c	ad7877.h
ezbrd.c	bfin5xx_spi.h
ezbrd.c	bfin5xx_spi.h
ezbrd.c	bfin_mac.h
ezbrd.c	bfin_mac.h
ezbrd.c	bfin_sdh.h
ezbrd.c	bfin_sdh.h
ezbrd.c	device.h
ezbrd.c	device.h
ezbrd.c	dma.h
ezbrd.c	dma.h
ezbrd.c	dpmc.h
ezbrd.c	dpmc.h
ezbrd.c	dsa.h
ezbrd.c	dsa.h
ezbrd.c	export.h
ezbrd.c	export.h
ezbrd.c	flash.h
ezbrd.c	flash.h
ezbrd.c	gpio_keys.h
ezbrd.c	gpio_keys.h
ezbrd.c	i2c.h
ezbrd.c	i2c.h
ezbrd.c	input.h
ezbrd.c	input.h
ezbrd.c	interrupt.h
ezbrd.c	interrupt.h
ezbrd.c	irq.h
ezbrd.c	irq.h
ezbrd.c	mtd.h
ezbrd.c	mtd.h
ezbrd.c	partitions.h
ezbrd.c	partitions.h
ezbrd.c	physmap.h
ezbrd.c	physmap.h
ezbrd.c	platform_device.h
ezbrd.c	platform_device.h
ezbrd.c	portmux.h
ezbrd.c	portmux.h
ezbrd.c	reboot.h
ezbrd.c	reboot.h
ezbrd.c	spi.h
ezbrd.c	spi.h
ezkit.c	adv7183.h
ezkit.c	adv7183.h
ezkit.c	adv7183.h
ezkit.c	adv7183.h
ezkit.c	adv7183.h
ezkit.c	bfin5xx_spi.h
ezkit.c	bfin5xx_spi.h
ezkit.c	bfin5xx_spi.h
ezkit.c	bfin5xx_spi.h
ezkit.c	bfin5xx_spi.h
ezkit.c	bfin_capture.h
ezkit.c	bfin_capture.h
ezkit.c	bfin_capture.h
ezkit.c	bfin_capture.h
ezkit.c	bfin_capture.h
ezkit.c	delay.h
ezkit.c	delay.h
ezkit.c	delay.h
ezkit.c	delay.h
ezkit.c	delay.h
ezkit.c	device.h
ezkit.c	device.h
ezkit.c	device.h
ezkit.c	device.h
ezkit.c	device.h
ezkit.c	dma.h
ezkit.c	dma.h
ezkit.c	dma.h
ezkit.c	dma.h
ezkit.c	dma.h
ezkit.c	dpmc.h
ezkit.c	dpmc.h
ezkit.c	dpmc.h
ezkit.c	dpmc.h
ezkit.c	dpmc.h
ezkit.c	gpio_keys.h
ezkit.c	gpio_keys.h
ezkit.c	gpio_keys.h
ezkit.c	gpio_keys.h
ezkit.c	gpio_keys.h
ezkit.c	i2c-gpio.h
ezkit.c	i2c-gpio.h
ezkit.c	i2c-gpio.h
ezkit.c	i2c-gpio.h
ezkit.c	i2c-gpio.h
ezkit.c	input.h
ezkit.c	input.h
ezkit.c	input.h
ezkit.c	input.h
ezkit.c	input.h
ezkit.c	interrupt.h
ezkit.c	interrupt.h
ezkit.c	interrupt.h
ezkit.c	interrupt.h
ezkit.c	interrupt.h
ezkit.c	irq.h
ezkit.c	irq.h
ezkit.c	irq.h
ezkit.c	irq.h
ezkit.c	irq.h
ezkit.c	isp1362.h
ezkit.c	isp1362.h
ezkit.c	isp1362.h
ezkit.c	isp1362.h
ezkit.c	isp1362.h
ezkit.c	isp1760.h
ezkit.c	isp1760.h
ezkit.c	isp1760.h
ezkit.c	isp1760.h
ezkit.c	isp1760.h
ezkit.c	mtd.h
ezkit.c	mtd.h
ezkit.c	mtd.h
ezkit.c	mtd.h
ezkit.c	mtd.h
ezkit.c	partitions.h
ezkit.c	partitions.h
ezkit.c	partitions.h
ezkit.c	partitions.h
ezkit.c	partitions.h
ezkit.c	physmap.h
ezkit.c	physmap.h
ezkit.c	physmap.h
ezkit.c	physmap.h
ezkit.c	physmap.h
ezkit.c	platform_device.h
ezkit.c	platform_device.h
ezkit.c	platform_device.h
ezkit.c	platform_device.h
ezkit.c	platform_device.h
ezkit.c	portmux.h
ezkit.c	portmux.h
ezkit.c	portmux.h
ezkit.c	portmux.h
ezkit.c	portmux.h
ezkit.c	ppi.h
ezkit.c	ppi.h
ezkit.c	ppi.h
ezkit.c	ppi.h
ezkit.c	ppi.h
ezkit.c	smc91x.h
ezkit.c	smc91x.h
ezkit.c	smc91x.h
ezkit.c	smc91x.h
ezkit.c	smc91x.h
ezkit.c	spi.h
ezkit.c	spi.h
ezkit.c	spi.h
ezkit.c	spi.h
ezkit.c	spi.h
ezkit.c	videodev2.h
ezkit.c	videodev2.h
ezkit.c	videodev2.h
ezkit.c	videodev2.h
ezkit.c	videodev2.h
fixed_code.h	fixed_code.h
fixed_code.h	linkage.h
fixed_code.h	ptrace.h
flat.c	flat.h
flat.c	module.h
flat.c	sched.h
flat.h	unaligned.h
ftrace.c	atomic.h
ftrace.c	cacheflush.h
ftrace.c	ftrace.h
ftrace.c	kernel.h
ftrace.c	sched.h
ftrace.c	uaccess.h
ftrace.h	mm.h
gptimers.c	blackfin.h
gptimers.c	gptimers.h
gptimers.c	io.h
gptimers.c	kernel.h
gptimers.c	module.h
gptimers.h	blackfin.h
gptimers.h	types.h
hardirq.h	hardirq.h
hotplug.c	blackfin.h
hotplug.c	cacheflush.h
hotplug.c	pll.h
hotplug.c	smp.h
init.c	bfin-global.h
init.c	blackfin_sram.h
init.c	bootmem.h
init.c	cplbinit.h
init.c	early_printk.h
init.c	export.h
init.c	gfp.h
init.c	pda.h
init.c	swap.h
init.c	uaccess.h
ints-priority.c	blackfin.h
ints-priority.c	blackfin.h
ints-priority.c	blackfin.h
ints-priority.c	blackfin.h
ints-priority.c	blackfin.h
ints-priority.c	blackfin.h
ints-priority.c	blackfin.h
ints-priority.c	blackfin.h
ints-priority.c	irq.h
ints-priority.c	irq.h
ints-priority.c	irq.h
ints-priority.c	irq.h
ints-priority.c	irq.h
ints-priority.c	irq.h
ints-priority.c	irq.h
ints-priority.c	irq.h
ints-priority.c	module.h
ints-priority.c	module.h
ints-priority.c	module.h
ints-priority.c	module.h
ints-priority.c	module.h
ints-priority.c	module.h
ints-priority.c	module.h
ints-priority.c	module.h
io.h	byteorder.h
io.h	compiler.h
io.h	io.h
io.h	types.h
ipipe.c	atomic.h
ipipe.c	bitops.h
ipipe.c	errno.h
ipipe.c	interrupt.h
ipipe.c	io.h
ipipe.c	irq_handler.h
ipipe.c	kernel.h
ipipe.c	kthread.h
ipipe.c	module.h
ipipe.c	percpu.h
ipipe.c	sched.h
ipipe.c	unistd.h
ipipe.h	atomic.h
ipipe.h	bitops.h
ipipe.h	bitsperlong.h
ipipe.h	cpumask.h
ipipe.h	ipipe_percpu.h
ipipe.h	irq.h
ipipe.h	irq.h
ipipe.h	list.h
ipipe.h	ptrace.h
ipipe.h	threads.h
ipipe.h	traps.h
ipipe_base.h	bitsperlong.h
ipipe_base.h	irq.h
irq.h	irq.h
irq.h	irq.h
irq.h	irq.h
irq.h	irq.h
irq.h	irq.h
irq.h	irq.h
irq.h	irq.h
irq.h	irq.h
irq_handler.h	irq.h
irq_handler.h	linkage.h
irq_handler.h	types.h
irqchip.c	interrupt.h
irqchip.c	irq.h
irqchip.c	irq_handler.h
irqchip.c	kallsyms.h
irqchip.c	kernel_stat.h
irqchip.c	module.h
irqchip.c	pda.h
irqchip.c	random.h
irqchip.c	seq_file.h
irqchip.c	trace.h
irqflags.h	blackfin.h
irqflags.h	compiler.h
irqflags.h	ipipe_trace.h
irqs.h	irqs.h
isram-driver.c	blackfin.h
isram-driver.c	dma.h
isram-driver.c	kernel.h
isram-driver.c	module.h
isram-driver.c	sched.h
isram-driver.c	slab.h
isram-driver.c	spinlock.h
isram-driver.c	types.h
kgdb.c	kgdb.h
kgdb.c	ptrace.h
kgdb.c	uaccess.h
kgdb.h	ptrace.h
kgdb_test.c	blackfin.h
kgdb_test.c	current.h
kgdb_test.c	init.h
kgdb_test.c	kernel.h
kgdb_test.c	module.h
kgdb_test.c	proc_fs.h
kgdb_test.c	uaccess.h
l1layout.h	blackfin.h
lshrdi3.c	gcclib.h
maccess.c	dma.h
maccess.c	uaccess.h
mach-goni.c	arch.h
mach-goni.c	atmel_mxt_ts.h
mach-goni.c	camport.h
mach-goni.c	clock.h
mach-goni.c	common.h
mach-goni.c	cpu.h
mach-goni.c	devs.h
mach-goni.c	fb.h
mach-goni.c	fb.h
mach-goni.c	fixed.h
mach-goni.c	gpio-cfg.h
mach-goni.c	gpio.h
mach-goni.c	gpio_keys.h
mach-goni.c	host.h
mach-goni.c	i2c-gpio.h
mach-goni.c	i2c-s3c2410.h
mach-goni.c	i2c.h
mach-goni.c	init.h
mach-goni.c	input.h
mach-goni.c	interrupt.h
mach-goni.c	kernel.h
mach-goni.c	keypad.h
mach-goni.c	lcd.h
mach-goni.c	mach-types.h
mach-goni.c	map.h
mach-goni.c	map.h
mach-goni.c	max8998.h
mach-goni.c	mfc.h
mach-goni.c	noon010pc30.h
mach-goni.c	pdata.h
mach-goni.c	regs-clock.h
mach-goni.c	regs-serial.h
mach-goni.c	s3c-hsotg.h
mach-goni.c	s5p-time.h
mach-goni.c	s5p_fimc.h
mach-goni.c	samsung_fimd.h
mach-goni.c	sdhci.h
mach-goni.c	serial_core.h
mach-goni.c	setup.h
mach-goni.c	spi.h
mach-goni.c	spi_gpio.h
mach-goni.c	types.h
mach-goni.c	v4l2-mediabus.h
mach-goni.c	vic.h
map.h	map-base.h
map.h	map-s5p.h
minotaur.c	ad7877.h
minotaur.c	ata_platform.h
minotaur.c	bfin5xx_spi.h
minotaur.c	bfin_mac.h
minotaur.c	device.h
minotaur.c	dma.h
minotaur.c	flash.h
minotaur.c	interrupt.h
minotaur.c	irq.h
minotaur.c	isp1362.h
minotaur.c	mtd.h
minotaur.c	partitions.h
minotaur.c	platform_device.h
minotaur.c	portmux.h
minotaur.c	reboot.h
minotaur.c	sl811.h
minotaur.c	spi.h
mmu_context.h	cplbinit.h
mmu_context.h	page.h
mmu_context.h	pgalloc.h
mmu_context.h	sched.h
mmu_context.h	sections.h
mmu_context.h	setup.h
mmu_context.h	slab.h
module.c	cacheflush.h
module.c	dma.h
module.c	elf.h
module.c	fs.h
module.c	kernel.h
module.c	moduleloader.h
module.c	string.h
module.c	uaccess.h
module.c	vmalloc.h
module.h	module.h
nmi.c	atomic.h
nmi.c	bfin_watchdog.h
nmi.c	bitops.h
nmi.c	blackfin.h
nmi.c	cacheflush.h
nmi.c	hardirq.h
nmi.c	nmi.h
nmi.c	pm.h
nmi.c	smp.h
nmi.c	syscore_ops.h
nmi.c	timer.h
nmi.h	nmi.h
page.h	getorder.h
page.h	memory_model.h
page.h	page.h
pci.h	pci-dma-compat.h
pci.h	pci.h
pci.h	scatterlist.h
pda.h	anomaly.h
perf_event.c	bfin_pfmon.h
perf_event.c	export.h
perf_event.c	init.h
perf_event.c	kernel.h
perf_event.c	perf_event.h
pgtable.h	4level-fixup.h
pgtable.h	def_LPBlackfin.h
pgtable.h	page.h
pgtable.h	pgtable.h
pll.h	pll.h
pll.h	pll.h
pll.h	pll.h
pll.h	pll.h
pll.h	pll.h
pll.h	pll.h
pll.h	pll.h
pm.c	cpu.h
pm.c	cpu.h
pm.c	cpu.h
pm.c	init.h
pm.c	init.h
pm.c	init.h
pm.c	io.h
pm.c	io.h
pm.c	io.h
pm.c	pm.h
pm.c	pm.h
pm.c	pm.h
pm.c	regs-clock.h
pm.c	regs-clock.h
pm.c	regs-clock.h
pm.c	regs-irq.h
pm.c	regs-irq.h
pm.c	regs-irq.h
pm.c	regs-timer.h
pm.c	regs-timer.h
pm.c	regs-timer.h
pm.c	suspend.h
pm.c	suspend.h
pm.c	suspend.h
pm.c	syscore_ops.h
pm.c	syscore_ops.h
pm.c	syscore_ops.h
pm.h	suspend.h
pm.h	suspend.h
pnav10.c	ad7877.h
pnav10.c	bfin5xx_spi.h
pnav10.c	bfin_mac.h
pnav10.c	device.h
pnav10.c	dma.h
pnav10.c	etherdevice.h
pnav10.c	export.h
pnav10.c	flash.h
pnav10.c	irq.h
pnav10.c	mtd.h
pnav10.c	partitions.h
pnav10.c	platform_device.h
pnav10.c	portmux.h
pnav10.c	smc91x.h
pnav10.c	spi.h
process.c	blackfin.h
process.c	err.h
process.c	fixed_code.h
process.c	fs.h
process.c	irq.h
process.c	mem_map.h
process.c	module.h
process.c	sched.h
process.c	slab.h
process.c	tick.h
process.c	uaccess.h
process.c	unistd.h
process.c	user.h
processor.h	blackfin.h
processor.h	ptrace.h
pseudo_instructions.h	ptrace.h
pseudo_instructions.h	types.h
pseudodbg.c	kernel.h
pseudodbg.c	ptrace.h
pseudodbg.c	types.h
ptrace.c	asm-offsets.h
ptrace.c	cacheflush.h
ptrace.c	dma.h
ptrace.c	elf.h
ptrace.c	errno.h
ptrace.c	fixed_code.h
ptrace.c	kernel.h
ptrace.c	mem_map.h
ptrace.c	mm.h
ptrace.c	mmu_context.h
ptrace.c	page.h
ptrace.c	pgtable.h
ptrace.c	processor.h
ptrace.c	ptrace.h
ptrace.c	regset.h
ptrace.c	sched.h
ptrace.c	signal.h
ptrace.c	smp.h
ptrace.c	tracehook.h
ptrace.c	uaccess.h
ptrace.c	user.h
ptrace.h	ptrace.h
ptrace.h	ptrace.h
reboot.c	bfin-global.h
reboot.c	bfrom.h
reboot.c	interrupt.h
reboot.c	reboot.h
regs-clock.h	map.h
regs-gpio.h	map.h
regs-irq.h	map.h
regs-irq.h	vic.h
sections.h	mem_map.h
sections.h	sections.h
setup-fimc.c	camport.h
setup-fimc.c	gpio-cfg.h
setup-fimc.c	gpio.h
setup-ide.c	gpio-cfg.h
setup-ide.c	gpio.h
setup-ide.c	kernel.h
setup-keypad.c	gpio-cfg.h
setup-keypad.c	gpio.h
setup-sdhci-gpio.c	card.h
setup-sdhci-gpio.c	gpio-cfg.h
setup-sdhci-gpio.c	gpio.h
setup-sdhci-gpio.c	host.h
setup-sdhci-gpio.c	interrupt.h
setup-sdhci-gpio.c	io.h
setup-sdhci-gpio.c	kernel.h
setup-sdhci-gpio.c	platform_device.h
setup-sdhci-gpio.c	regs-sdhci.h
setup-sdhci-gpio.c	sdhci.h
setup-sdhci-gpio.c	types.h
setup.c	blackfin.h
setup.c	bootmem.h
setup.c	cacheflush.h
setup.c	clocks.h
setup.c	console.h
setup.c	cplb.h
setup.c	cplbinit.h
setup.c	cpu.h
setup.c	cpu.h
setup.c	cramfs_fs.h
setup.c	delay.h
setup.c	div64.h
setup.c	early_printk.h
setup.c	ext2_fs.h
setup.c	fixed_code.h
setup.c	irq_handler.h
setup.c	map.h
setup.c	mm.h
setup.c	module.h
setup.c	pda.h
setup.c	pfn.h
setup.c	pm.h
setup.c	romfs_fs.h
setup.c	seq_file.h
setup.c	tty.h
shadow_console.c	blackfin.h
shadow_console.c	console.h
shadow_console.c	early_printk.h
shadow_console.c	init.h
shadow_console.c	irq_handler.h
shadow_console.c	kernel.h
shadow_console.c	string.h
signal.c	binfmts.h
signal.c	cacheflush.h
signal.c	fixed_code.h
signal.c	personality.h
signal.c	ptrace.h
signal.c	signal.h
signal.c	syscall.h
signal.c	syscalls.h
signal.c	tracehook.h
signal.c	tty.h
signal.c	uaccess.h
signal.c	ucontext.h
smp.c	delay.h
smp.c	delay.h
smp.c	dma.h
smp.c	dma.h
smp.c	init.h
smp.c	init.h
smp.c	kernel.h
smp.c	kernel.h
smp.c	sched.h
smp.c	sched.h
smp.c	smp.h
smp.c	smp.h
smp.c	time.h
smp.c	time.h
spinlock.h	atomic.h
spinlock_types.h	rwlock.h
sram-alloc.c	blackfin.h
sram-alloc.c	blackfin_sram.h
sram-alloc.c	fcntl.h
sram-alloc.c	init.h
sram-alloc.c	ioport.h
sram-alloc.c	kernel.h
sram-alloc.c	mem_map.h
sram-alloc.c	miscdevice.h
sram-alloc.c	module.h
sram-alloc.c	poll.h
sram-alloc.c	proc_fs.h
sram-alloc.c	rtc.h
sram-alloc.c	seq_file.h
sram-alloc.c	slab.h
sram-alloc.c	spinlock.h
sram-alloc.c	types.h
stacktrace.c	module.h
stacktrace.c	sched.h
stacktrace.c	stacktrace.h
stacktrace.c	thread_info.h
stamp.c	ad714x.h
stamp.c	ad714x.h
stamp.c	ad7877.h
stamp.c	ad7879.h
stamp.c	adf702x.h
stamp.c	adp5520.h
stamp.c	adp5588.h
stamp.c	adp8860.h
stamp.c	adp8870.h
stamp.c	ads7846.h
stamp.c	adxl34x.h
stamp.c	ata_platform.h
stamp.c	bfin-lq035q1.h
stamp.c	bfin5xx_spi.h
stamp.c	bfin_capture.h
stamp.c	bfin_mac.h
stamp.c	bfin_sport.h
stamp.c	consumer.h
stamp.c	device.h
stamp.c	dma.h
stamp.c	dpmc.h
stamp.c	etherdevice.h
stamp.c	export.h
stamp.c	fixed.h
stamp.c	flash.h
stamp.c	gpio_keys.h
stamp.c	i2c.h
stamp.c	input.h
stamp.c	interrupt.h
stamp.c	io.h
stamp.c	irq.h
stamp.c	isp1362.h
stamp.c	isp1760.h
stamp.c	kernel.h
stamp.c	leds.h
stamp.c	machine.h
stamp.c	mmc_spi.h
stamp.c	mtd.h
stamp.c	nand.h
stamp.c	partitions.h
stamp.c	physmap.h
stamp.c	plat-ram.h
stamp.c	platform_device.h
stamp.c	portmux.h
stamp.c	ppi.h
stamp.c	reboot.h
stamp.c	sl811.h
stamp.c	smc91x.h
stamp.c	spi.h
stamp.c	userspace-consumer.h
stamp.c	videodev2.h
string.h	types.h
swab.h	swab.h
swab.h	types.h
switch_to.h	l1layout.h
switch_to.h	mem_map.h
sys_bfin.c	cachectl.h
sys_bfin.c	cacheflush.h
sys_bfin.c	dma.h
sys_bfin.c	export.h
sys_bfin.c	fb.h
sys_bfin.c	file.h
sys_bfin.c	fs.h
sys_bfin.c	ipc.h
sys_bfin.c	mman.h
sys_bfin.c	msg.h
sys_bfin.c	ptrace.h
sys_bfin.c	sem.h
sys_bfin.c	shm.h
sys_bfin.c	spinlock.h
sys_bfin.c	syscalls.h
sys_bfin.c	uaccess.h
sys_bfin.c	unistd.h
syscall.h	err.h
syscall.h	ptrace.h
syscall.h	sched.h
tcm-bf518.c	ad7877.h
tcm-bf518.c	bfin5xx_spi.h
tcm-bf518.c	bfin_mac.h
tcm-bf518.c	bfin_sdh.h
tcm-bf518.c	device.h
tcm-bf518.c	dma.h
tcm-bf518.c	dpmc.h
tcm-bf518.c	dsa.h
tcm-bf518.c	etherdevice.h
tcm-bf518.c	flash.h
tcm-bf518.c	gpio_keys.h
tcm-bf518.c	i2c.h
tcm-bf518.c	input.h
tcm-bf518.c	interrupt.h
tcm-bf518.c	irq.h
tcm-bf518.c	mtd.h
tcm-bf518.c	partitions.h
tcm-bf518.c	physmap.h
tcm-bf518.c	platform_device.h
tcm-bf518.c	portmux.h
tcm-bf518.c	reboot.h
tcm-bf518.c	spi.h
tcm_bf537.c	ata_platform.h
tcm_bf537.c	bfin5xx_spi.h
tcm_bf537.c	bfin_mac.h
tcm_bf537.c	device.h
tcm_bf537.c	dma.h
tcm_bf537.c	dpmc.h
tcm_bf537.c	etherdevice.h
tcm_bf537.c	export.h
tcm_bf537.c	flash.h
tcm_bf537.c	irq.h
tcm_bf537.c	isp1362.h
tcm_bf537.c	mmc_spi.h
tcm_bf537.c	mtd.h
tcm_bf537.c	partitions.h
tcm_bf537.c	physmap.h
tcm_bf537.c	platform_device.h
tcm_bf537.c	portmux.h
tcm_bf537.c	smc91x.h
tcm_bf537.c	spi.h
tepla.c	device.h
tepla.c	irq.h
tepla.c	platform_device.h
thread_info.h	compiler.h
thread_info.h	entry.h
thread_info.h	l1layout.h
thread_info.h	page.h
time-ts.c	blackfin.h
time-ts.c	clockchips.h
time-ts.c	clocksource.h
time-ts.c	cpufreq.h
time-ts.c	gptimers.h
time-ts.c	interrupt.h
time-ts.c	irq.h
time-ts.c	module.h
time-ts.c	nmi.h
time-ts.c	profile.h
time-ts.c	time.h
time-ts.c	time.h
time-ts.c	timex.h
time.c	blackfin.h
time.c	delay.h
time.c	gptimers.h
time.c	interrupt.h
time.c	irq.h
time.c	module.h
time.c	profile.h
time.c	sched.h
time.c	time.h
time.c	time.h
tlb.h	tlb.h
tlbflush.h	tlbflush.h
tll6527m.c	ad7879.h
tll6527m.c	adxl34x.h
tll6527m.c	bfin-lq035q1.h
tll6527m.c	bfin5xx_spi.h
tll6527m.c	bfin_mac.h
tll6527m.c	device.h
tll6527m.c	dma.h
tll6527m.c	dpmc.h
tll6527m.c	export.h
tll6527m.c	flash.h
tll6527m.c	gpio-decoder.h
tll6527m.c	i2c.h
tll6527m.c	input.h
tll6527m.c	interrupt.h
tll6527m.c	irq.h
tll6527m.c	leds.h
tll6527m.c	mcp23s08.h
tll6527m.c	mtd.h
tll6527m.c	musb.h
tll6527m.c	nand.h
tll6527m.c	partitions.h
tll6527m.c	physmap.h
tll6527m.c	platform_device.h
tll6527m.c	portmux.h
tll6527m.c	reboot.h
tll6527m.c	spi.h
trace.c	dma.h
trace.c	err.h
trace.c	fixed_code.h
trace.c	fs.h
trace.c	hardirq.h
trace.c	irq.h
trace.c	irq_handler.h
trace.c	kallsyms.h
trace.c	kernel.h
trace.c	mm.h
trace.c	module.h
trace.c	oom.h
trace.c	pda.h
trace.c	sched.h
trace.c	thread_info.h
trace.c	trace.h
trace.c	traps.h
trace.c	uaccess.h
traps.c	blackfin.h
traps.c	bug.h
traps.c	cplb.h
traps.c	fixed_code.h
traps.c	irq.h
traps.c	irq_handler.h
traps.c	module.h
traps.c	pda.h
traps.c	pseudo_instructions.h
traps.c	trace.h
traps.c	traps.h
traps.c	uaccess.h
uaccess.h	mm.h
uaccess.h	sched.h
uaccess.h	sections.h
uaccess.h	segment.h
uaccess.h	string.h
uncompress.h	map.h
uncompress.h	uncompress.h
unistd.h	unistd.h
