3ds_debugboard.c	fixed.h
3ds_debugboard.c	gpio.h
3ds_debugboard.c	hardware.h
3ds_debugboard.c	interrupt.h
3ds_debugboard.c	io.h
3ds_debugboard.c	irq.h
3ds_debugboard.c	irqdomain.h
3ds_debugboard.c	machine.h
3ds_debugboard.c	module.h
3ds_debugboard.c	platform_device.h
3ds_debugboard.c	smsc911x.h
adma.h	iop3xx-adma.h
aemif.c	clk.h
aemif.c	err.h
aemif.c	io.h
aemif.c	kernel.h
aemif.c	module.h
aemif.c	mtd-davinci-aemif.h
aemif.c	time.h
avic.c	common.h
avic.c	exception.h
avic.c	hardware.h
avic.c	io.h
avic.c	irq-common.h
avic.c	irq.h
avic.c	irq.h
avic.c	irqdomain.h
avic.c	module.h
avic.c	of.h
board-ap4evb.c	arch.h
board-ap4evb.c	clk.h
board-ap4evb.c	common.h
board-ap4evb.c	delay.h
board-ap4evb.c	dma-mapping.h
board-ap4evb.c	fixed.h
board-ap4evb.c	gpio.h
board-ap4evb.c	host.h
board-ap4evb.c	i2c.h
board-ap4evb.c	init.h
board-ap4evb.c	input.h
board-ap4evb.c	interrupt.h
board-ap4evb.c	io.h
board-ap4evb.c	irq.h
board-ap4evb.c	irqs.h
board-ap4evb.c	kernel.h
board-ap4evb.c	leds.h
board-ap4evb.c	mach-types.h
board-ap4evb.c	machine.h
board-ap4evb.c	mtd.h
board-ap4evb.c	partitions.h
board-ap4evb.c	physmap.h
board-ap4evb.c	platform_device.h
board-ap4evb.c	pm_clock.h
board-ap4evb.c	r8a66597.h
board-ap4evb.c	setup.h
board-ap4evb.c	sh-gpio.h
board-ap4evb.c	sh7372.h
board-ap4evb.c	sh_clk.h
board-ap4evb.c	sh_fsi.h
board-ap4evb.c	sh_intc.h
board-ap4evb.c	sh_keysc.h
board-ap4evb.c	sh_mipi_dsi.h
board-ap4evb.c	sh_mmcif.h
board-ap4evb.c	sh_mobile_ceu.h
board-ap4evb.c	sh_mobile_csi2.h
board-ap4evb.c	sh_mobile_hdmi.h
board-ap4evb.c	sh_mobile_lcdc.h
board-ap4evb.c	sh_mobile_sdhi.h
board-ap4evb.c	simple_card.h
board-ap4evb.c	smsc911x.h
board-ap4evb.c	soc_camera.h
board-ap4evb.c	tmio.h
board-ap4evb.c	tsc2007.h
board-bonito.c	arch.h
board-bonito.c	cache-l2x0.h
board-bonito.c	common.h
board-bonito.c	fixed.h
board-bonito.c	gpio.h
board-bonito.c	i2c.h
board-bonito.c	init.h
board-bonito.c	interrupt.h
board-bonito.c	irq.h
board-bonito.c	irqs.h
board-bonito.c	kernel.h
board-bonito.c	mach-types.h
board-bonito.c	machine.h
board-bonito.c	map.h
board-bonito.c	platform_device.h
board-bonito.c	r8a7740.h
board-bonito.c	sh_mobile_lcdc.h
board-bonito.c	smsc911x.h
board-bonito.c	time.h
board-bonito.c	videodev2.h
board-da830-evm.c	arch.h
board-da830-evm.c	at24.h
board-da830-evm.c	console.h
board-da830-evm.c	cp_intc.h
board-da830-evm.c	da8xx.h
board-da830-evm.c	flash.h
board-da830-evm.c	gpio.h
board-da830-evm.c	i2c.h
board-da830-evm.c	init.h
board-da830-evm.c	interrupt.h
board-da830-evm.c	kernel.h
board-da830-evm.c	mach-types.h
board-da830-evm.c	mtd-davinci-aemif.h
board-da830-evm.c	mtd-davinci.h
board-da830-evm.c	mtd.h
board-da830-evm.c	mux.h
board-da830-evm.c	partitions.h
board-da830-evm.c	pcf857x.h
board-da830-evm.c	platform_device.h
board-da830-evm.c	spi-davinci.h
board-da830-evm.c	spi.h
board-da830-evm.c	usb-davinci.h
board-da850-evm.c	adv7343.h
board-da850-evm.c	arch.h
board-da850-evm.c	at24.h
board-da850-evm.c	console.h
board-da850-evm.c	cp_intc.h
board-da850-evm.c	da8xx.h
board-da850-evm.c	delay.h
board-da850-evm.c	flash.h
board-da850-evm.c	gpio.h
board-da850-evm.c	gpio_keys.h
board-da850-evm.c	i2c.h
board-da850-evm.c	init.h
board-da850-evm.c	input.h
board-da850-evm.c	kernel.h
board-da850-evm.c	mach-types.h
board-da850-evm.c	machine.h
board-da850-evm.c	mtd-davinci-aemif.h
board-da850-evm.c	mtd-davinci.h
board-da850-evm.c	mtd.h
board-da850-evm.c	mux.h
board-da850-evm.c	nand.h
board-da850-evm.c	partitions.h
board-da850-evm.c	pca953x.h
board-da850-evm.c	physmap.h
board-da850-evm.c	platform_device.h
board-da850-evm.c	spi-davinci.h
board-da850-evm.c	spi.h
board-da850-evm.c	sram.h
board-da850-evm.c	system_info.h
board-da850-evm.c	tps6507x-ts.h
board-da850-evm.c	tps6507x.h
board-da850-evm.c	tps6507x.h
board-da850-evm.c	tvp514x.h
board-da850-evm.c	uio_pruss.h
board-da850-evm.c	wl12xx.h
board-dm355-evm.c	arch.h
board-dm355-evm.c	clk.h
board-dm355-evm.c	davinci.h
board-dm355-evm.c	eeprom.h
board-dm355-evm.c	err.h
board-dm355-evm.c	gpio.h
board-dm355-evm.c	i2c-davinci.h
board-dm355-evm.c	i2c.h
board-dm355-evm.c	init.h
board-dm355-evm.c	kernel.h
board-dm355-evm.c	mach-types.h
board-dm355-evm.c	mmc-davinci.h
board-dm355-evm.c	mtd-davinci.h
board-dm355-evm.c	mtd.h
board-dm355-evm.c	nand.h
board-dm355-evm.c	partitions.h
board-dm355-evm.c	platform_device.h
board-dm355-evm.c	serial.h
board-dm355-evm.c	spi.h
board-dm355-evm.c	tvp514x.h
board-dm355-evm.c	usb-davinci.h
board-dm355-evm.c	videodev2.h
board-dm355-leopard.c	arch.h
board-dm355-leopard.c	clk.h
board-dm355-leopard.c	davinci.h
board-dm355-leopard.c	eeprom.h
board-dm355-leopard.c	err.h
board-dm355-leopard.c	gpio.h
board-dm355-leopard.c	i2c-davinci.h
board-dm355-leopard.c	i2c.h
board-dm355-leopard.c	init.h
board-dm355-leopard.c	kernel.h
board-dm355-leopard.c	mach-types.h
board-dm355-leopard.c	mmc-davinci.h
board-dm355-leopard.c	mtd-davinci.h
board-dm355-leopard.c	mtd.h
board-dm355-leopard.c	nand.h
board-dm355-leopard.c	partitions.h
board-dm355-leopard.c	platform_device.h
board-dm355-leopard.c	serial.h
board-dm355-leopard.c	spi.h
board-dm355-leopard.c	usb-davinci.h
board-dm365-evm.c	arch.h
board-dm365-evm.c	at24.h
board-dm365-evm.c	clk.h
board-dm365-evm.c	common.h
board-dm365-evm.c	davinci.h
board-dm365-evm.c	eeprom.h
board-dm365-evm.c	err.h
board-dm365-evm.c	i2c-davinci.h
board-dm365-evm.c	i2c.h
board-dm365-evm.c	init.h
board-dm365-evm.c	input.h
board-dm365-evm.c	io.h
board-dm365-evm.c	kernel.h
board-dm365-evm.c	keyscan-davinci.h
board-dm365-evm.c	leds.h
board-dm365-evm.c	mach-types.h
board-dm365-evm.c	mmc-davinci.h
board-dm365-evm.c	mtd-davinci.h
board-dm365-evm.c	mtd.h
board-dm365-evm.c	mux.h
board-dm365-evm.c	nand.h
board-dm365-evm.c	partitions.h
board-dm365-evm.c	serial.h
board-dm365-evm.c	slab.h
board-dm365-evm.c	spi.h
board-dm365-evm.c	tvp514x.h
board-dm644x-evm.c	arch.h
board-dm644x-evm.c	at24.h
board-dm644x-evm.c	clk.h
board-dm644x-evm.c	common.h
board-dm644x-evm.c	davinci.h
board-dm644x-evm.c	dma-mapping.h
board-dm644x-evm.c	export.h
board-dm644x-evm.c	gpio.h
board-dm644x-evm.c	i2c-davinci.h
board-dm644x-evm.c	i2c.h
board-dm644x-evm.c	init.h
board-dm644x-evm.c	kernel.h
board-dm644x-evm.c	mach-types.h
board-dm644x-evm.c	mmc-davinci.h
board-dm644x-evm.c	mtd-davinci-aemif.h
board-dm644x-evm.c	mtd-davinci.h
board-dm644x-evm.c	mtd.h
board-dm644x-evm.c	mux.h
board-dm644x-evm.c	nand.h
board-dm644x-evm.c	partitions.h
board-dm644x-evm.c	pcf857x.h
board-dm644x-evm.c	phy.h
board-dm644x-evm.c	physmap.h
board-dm644x-evm.c	platform_device.h
board-dm644x-evm.c	serial.h
board-dm644x-evm.c	tvp514x.h
board-dm644x-evm.c	usb-davinci.h
board-dm644x-evm.c	v4l2-dv-timings.h
board-dm644x-evm.c	videodev2.h
board-dm646x-evm.c	adv7343.h
board-dm646x-evm.c	arch.h
board-dm646x-evm.c	at24.h
board-dm646x-evm.c	cdce949.h
board-dm646x-evm.c	clk.h
board-dm646x-evm.c	clock.h
board-dm646x-evm.c	clock.h
board-dm646x-evm.c	common.h
board-dm646x-evm.c	davinci.h
board-dm646x-evm.c	export.h
board-dm646x-evm.c	gpio.h
board-dm646x-evm.c	i2c-davinci.h
board-dm646x-evm.c	i2c.h
board-dm646x-evm.c	init.h
board-dm646x-evm.c	kernel.h
board-dm646x-evm.c	leds.h
board-dm646x-evm.c	mach-types.h
board-dm646x-evm.c	mtd-davinci-aemif.h
board-dm646x-evm.c	mtd-davinci.h
board-dm646x-evm.c	mtd.h
board-dm646x-evm.c	nand.h
board-dm646x-evm.c	partitions.h
board-dm646x-evm.c	pcf857x.h
board-dm646x-evm.c	platform_device.h
board-dm646x-evm.c	serial.h
board-dm646x-evm.c	tvp514x.h
board-kota2.c	arch.h
board-kota2.c	cache-l2x0.h
board-kota2.c	common.h
board-kota2.c	delay.h
board-kota2.c	fixed.h
board-kota2.c	gic.h
board-kota2.c	gpio.h
board-kota2.c	gpio_keys.h
board-kota2.c	hardware.h
board-kota2.c	host.h
board-kota2.c	init.h
board-kota2.c	input.h
board-kota2.c	interrupt.h
board-kota2.c	io.h
board-kota2.c	irq.h
board-kota2.c	irqs.h
board-kota2.c	kernel.h
board-kota2.c	leds-renesas-tpu.h
board-kota2.c	leds.h
board-kota2.c	mach-types.h
board-kota2.c	machine.h
board-kota2.c	platform_device.h
board-kota2.c	sh73a0.h
board-kota2.c	sh_keysc.h
board-kota2.c	sh_mmcif.h
board-kota2.c	sh_mobile_sdhi.h
board-kota2.c	smsc911x.h
board-kota2.c	time.h
board-kota2.c	tmio.h
board-kota2.c	traps.h
board-kzm9d.c	arch.h
board-kzm9d.c	common.h
board-kzm9d.c	emev2.h
board-kzm9d.c	fixed.h
board-kzm9d.c	gic.h
board-kzm9d.c	interrupt.h
board-kzm9d.c	kernel.h
board-kzm9d.c	mach-types.h
board-kzm9d.c	machine.h
board-kzm9d.c	platform_device.h
board-kzm9d.c	smsc911x.h
board-mackerel.c	arch.h
board-mackerel.c	common.h
board-mackerel.c	delay.h
board-mackerel.c	dma-mapping.h
board-mackerel.c	fixed.h
board-mackerel.c	gpio.h
board-mackerel.c	host.h
board-mackerel.c	i2c.h
board-mackerel.c	init.h
board-mackerel.c	input.h
board-mackerel.c	interrupt.h
board-mackerel.c	io.h
board-mackerel.c	irq.h
board-mackerel.c	irqs.h
board-mackerel.c	kernel.h
board-mackerel.c	leds.h
board-mackerel.c	mach-types.h
board-mackerel.c	machine.h
board-mackerel.c	mtd.h
board-mackerel.c	partitions.h
board-mackerel.c	physmap.h
board-mackerel.c	platform_device.h
board-mackerel.c	pm_clock.h
board-mackerel.c	renesas_usbhs.h
board-mackerel.c	sh-gpio.h
board-mackerel.c	sh7372.h
board-mackerel.c	sh_flctl.h
board-mackerel.c	sh_fsi.h
board-mackerel.c	sh_intc.h
board-mackerel.c	sh_mmcif.h
board-mackerel.c	sh_mobile_ceu.h
board-mackerel.c	sh_mobile_hdmi.h
board-mackerel.c	sh_mobile_lcdc.h
board-mackerel.c	sh_mobile_sdhi.h
board-mackerel.c	simple_card.h
board-mackerel.c	smsc911x.h
board-mackerel.c	soc_camera.h
board-mackerel.c	soc_camera_platform.h
board-mackerel.c	tca6416_keypad.h
board-mackerel.c	tmio.h
board-mityomapl138.c	arch.h
board-mityomapl138.c	at24.h
board-mityomapl138.c	common.h
board-mityomapl138.c	console.h
board-mityomapl138.c	cp_intc.h
board-mityomapl138.c	da8xx.h
board-mityomapl138.c	etherdevice.h
board-mityomapl138.c	flash.h
board-mityomapl138.c	i2c.h
board-mityomapl138.c	init.h
board-mityomapl138.c	io.h
board-mityomapl138.c	kernel.h
board-mityomapl138.c	mach-types.h
board-mityomapl138.c	machine.h
board-mityomapl138.c	mtd-davinci.h
board-mityomapl138.c	mux.h
board-mityomapl138.c	partitions.h
board-mityomapl138.c	platform_device.h
board-mityomapl138.c	spi-davinci.h
board-mityomapl138.c	spi.h
board-neuros-osd2.c	arch.h
board-neuros-osd2.c	common.h
board-neuros-osd2.c	davinci.h
board-neuros-osd2.c	gpio.h
board-neuros-osd2.c	i2c-davinci.h
board-neuros-osd2.c	mach-types.h
board-neuros-osd2.c	mmc-davinci.h
board-neuros-osd2.c	mtd-davinci.h
board-neuros-osd2.c	mux.h
board-neuros-osd2.c	partitions.h
board-neuros-osd2.c	platform_device.h
board-neuros-osd2.c	serial.h
board-neuros-osd2.c	usb-davinci.h
board-omapl138-hawk.c	arch.h
board-omapl138-hawk.c	console.h
board-omapl138-hawk.c	cp_intc.h
board-omapl138-hawk.c	da8xx.h
board-omapl138-hawk.c	gpio.h
board-omapl138-hawk.c	init.h
board-omapl138-hawk.c	kernel.h
board-omapl138-hawk.c	mach-types.h
board-omapl138-hawk.c	mux.h
board-sffsdr.c	arch.h
board-sffsdr.c	at24.h
board-sffsdr.c	common.h
board-sffsdr.c	davinci.h
board-sffsdr.c	flash.h
board-sffsdr.c	i2c-davinci.h
board-sffsdr.c	i2c.h
board-sffsdr.c	init.h
board-sffsdr.c	mach-types.h
board-sffsdr.c	mtd.h
board-sffsdr.c	mux.h
board-sffsdr.c	nand.h
board-sffsdr.c	partitions.h
board-sffsdr.c	platform_device.h
board-sffsdr.c	serial.h
board-sffsdr.c	usb-davinci.h
board-tnetv107x-evm.c	arch.h
board-tnetv107x-evm.c	console.h
board-tnetv107x-evm.c	cp_intc.h
board-tnetv107x-evm.c	delay.h
board-tnetv107x-evm.c	dma-mapping.h
board-tnetv107x-evm.c	edma.h
board-tnetv107x-evm.c	gpio.h
board-tnetv107x-evm.c	init.h
board-tnetv107x-evm.c	input.h
board-tnetv107x-evm.c	interrupt.h
board-tnetv107x-evm.c	irqs.h
board-tnetv107x-evm.c	kernel.h
board-tnetv107x-evm.c	mach-types.h
board-tnetv107x-evm.c	matrix_keypad.h
board-tnetv107x-evm.c	mtd.h
board-tnetv107x-evm.c	mux.h
board-tnetv107x-evm.c	partitions.h
board-tnetv107x-evm.c	platform_device.h
board-tnetv107x-evm.c	ratelimit.h
board-tnetv107x-evm.c	spi.h
board-tnetv107x-evm.c	tnetv107x.h
cdce949.c	cdce949.h
cdce949.c	clk.h
cdce949.c	clock.h
cdce949.c	clock.h
cdce949.c	i2c.h
cdce949.c	kernel.h
cdce949.c	module.h
cdce949.c	platform_device.h
cdce949.h	clk.h
cdce949.h	clock.h
clk-busy.c	clk-provider.h
clk-busy.c	clk.h
clk-busy.c	clk.h
clk-busy.c	err.h
clk-busy.c	io.h
clk-busy.c	jiffies.h
clk-busy.c	slab.h
clk-gate2.c	clk-provider.h
clk-gate2.c	err.h
clk-gate2.c	io.h
clk-gate2.c	module.h
clk-gate2.c	slab.h
clk-gate2.c	string.h
clk-imx1.c	clk.h
clk-imx1.c	clk.h
clk-imx1.c	clkdev.h
clk-imx1.c	common.h
clk-imx1.c	err.h
clk-imx1.c	hardware.h
clk-imx1.c	init.h
clk-imx1.c	io.h
clk-imx1.c	kernel.h
clk-imx21.c	clk-provider.h
clk-imx21.c	clk.h
clk-imx21.c	clk.h
clk-imx21.c	clkdev.h
clk-imx21.c	common.h
clk-imx21.c	err.h
clk-imx21.c	hardware.h
clk-imx21.c	io.h
clk-imx21.c	module.h
clk-imx25.c	clk.h
clk-imx25.c	clk.h
clk-imx25.c	clkdev.h
clk-imx25.c	common.h
clk-imx25.c	err.h
clk-imx25.c	hardware.h
clk-imx25.c	init.h
clk-imx25.c	io.h
clk-imx25.c	kernel.h
clk-imx25.c	list.h
clk-imx25.c	mx25.h
clk-imx25.c	of.h
clk-imx25.c	of_address.h
clk-imx25.c	of_irq.h
clk-imx27.c	clk-provider.h
clk-imx27.c	clk.h
clk-imx27.c	clk.h
clk-imx27.c	clkdev.h
clk-imx27.c	common.h
clk-imx27.c	err.h
clk-imx27.c	hardware.h
clk-imx27.c	io.h
clk-imx27.c	module.h
clk-imx27.c	of.h
clk-imx31.c	clk.h
clk-imx31.c	clk.h
clk-imx31.c	clkdev.h
clk-imx31.c	common.h
clk-imx31.c	crmregs-imx3.h
clk-imx31.c	err.h
clk-imx31.c	hardware.h
clk-imx31.c	io.h
clk-imx31.c	module.h
clk-imx31.c	mx31.h
clk-imx31.c	of.h
clk-imx35.c	clk.h
clk-imx35.c	clk.h
clk-imx35.c	clkdev.h
clk-imx35.c	common.h
clk-imx35.c	crmregs-imx3.h
clk-imx35.c	delay.h
clk-imx35.c	err.h
clk-imx35.c	hardware.h
clk-imx35.c	io.h
clk-imx35.c	mm.h
clk-imx35.c	of.h
clk-imx51-imx53.c	clk.h
clk-imx51-imx53.c	clk.h
clk-imx51-imx53.c	clkdev.h
clk-imx51-imx53.c	common.h
clk-imx51-imx53.c	crm-regs-imx5.h
clk-imx51-imx53.c	delay.h
clk-imx51-imx53.c	err.h
clk-imx51-imx53.c	hardware.h
clk-imx51-imx53.c	io.h
clk-imx51-imx53.c	mm.h
clk-imx51-imx53.c	of.h
clk-imx6q.c	clk.h
clk-imx6q.c	clk.h
clk-imx6q.c	clkdev.h
clk-imx6q.c	common.h
clk-imx6q.c	err.h
clk-imx6q.c	init.h
clk-imx6q.c	io.h
clk-imx6q.c	of.h
clk-imx6q.c	of_address.h
clk-imx6q.c	of_irq.h
clk-imx6q.c	types.h
clk-pfd.c	clk-provider.h
clk-pfd.c	clk.h
clk-pfd.c	clk.h
clk-pfd.c	err.h
clk-pfd.c	io.h
clk-pfd.c	slab.h
clk-pllv1.c	clk-provider.h
clk-pllv1.c	clk.h
clk-pllv1.c	clk.h
clk-pllv1.c	common.h
clk-pllv1.c	err.h
clk-pllv1.c	hardware.h
clk-pllv1.c	io.h
clk-pllv1.c	kernel.h
clk-pllv1.c	slab.h
clk-pllv2.c	clk.h
clk-pllv2.c	clk.h
clk-pllv2.c	delay.h
clk-pllv2.c	div64.h
clk-pllv2.c	err.h
clk-pllv2.c	errno.h
clk-pllv2.c	io.h
clk-pllv2.c	kernel.h
clk-pllv2.c	slab.h
clk-pllv3.c	clk-provider.h
clk-pllv3.c	clk.h
clk-pllv3.c	clk.h
clk-pllv3.c	err.h
clk-pllv3.c	io.h
clk-pllv3.c	jiffies.h
clk-pllv3.c	slab.h
clk.c	spinlock.h
clk.h	clk-provider.h
clk.h	spinlock.h
clock-emev2.c	clkdev.h
clock-emev2.c	common.h
clock-emev2.c	init.h
clock-emev2.c	io.h
clock-emev2.c	kernel.h
clock-emev2.c	sh_clk.h
clock-r8a7779.c	clkdev.h
clock-r8a7779.c	common.h
clock-r8a7779.c	init.h
clock-r8a7779.c	io.h
clock-r8a7779.c	kernel.h
clock-r8a7779.c	sh_clk.h
clock.c	export.h
clock.c	export.h
clock.c	init.h
clock.c	init.h
clock.c	kernel.h
clock.c	kernel.h
clock.c	sh_clk.h
clock.c	sh_clk.h
clock.h	clkdev.h
clock.h	clkdev.h
clock.h	list.h
clock.h	list.h
cns3420vb.c	arch.h
cns3420vb.c	cns3xxx.h
cns3420vb.c	compiler.h
cns3420vb.c	core.h
cns3420vb.c	devices.h
cns3420vb.c	dma-mapping.h
cns3420vb.c	ehci_pdriver.h
cns3420vb.c	gic.h
cns3420vb.c	init.h
cns3420vb.c	io.h
cns3420vb.c	irqs.h
cns3420vb.c	kernel.h
cns3420vb.c	mach-types.h
cns3420vb.c	map.h
cns3420vb.c	mtd.h
cns3420vb.c	ohci_pdriver.h
cns3420vb.c	partitions.h
cns3420vb.c	physmap.h
cns3420vb.c	platform_device.h
cns3420vb.c	pm.h
cns3420vb.c	serial_8250.h
cns3420vb.c	serial_core.h
cns3420vb.c	setup.h
cns3420vb.c	time.h
coh901318.h	device.h
coh901318.h	dmaengine.h
common.c	clock.h
common.c	clock.h
common.c	common.h
common.c	common.h
common.c	cputype.h
common.c	cputype.h
common.c	davinci_emac.h
common.c	davinci_emac.h
common.c	dma-mapping.h
common.c	dma-mapping.h
common.c	etherdevice.h
common.c	etherdevice.h
common.c	io.h
common.c	io.h
common.c	map.h
common.c	map.h
common.c	module.h
common.c	module.h
common.c	tlb.h
common.c	tlb.h
console.c	common.h
console.c	init.h
console.c	kernel.h
console.c	map.h
console.c	platform_device.h
core.c	arch.h
core.c	arch.h
core.c	arch.h
core.c	bitops.h
core.c	bitops.h
core.c	bitops.h
core.c	bus.h
core.c	bus.h
core.c	bus.h
core.c	clk-u300.h
core.c	clk-u300.h
core.c	clk-u300.h
core.c	clk.h
core.c	clk.h
core.c	clk.h
core.c	coh901318.h
core.c	coh901318.h
core.c	coh901318.h
core.c	device.h
core.c	device.h
core.c	device.h
core.c	dma-mapping.h
core.c	dma-mapping.h
core.c	dma-mapping.h
core.c	dma_channels.h
core.c	dma_channels.h
core.c	dma_channels.h
core.c	dmaengine.h
core.c	dmaengine.h
core.c	dmaengine.h
core.c	err.h
core.c	err.h
core.c	err.h
core.c	fsmc.h
core.c	fsmc.h
core.c	fsmc.h
core.c	gpio.h
core.c	gpio.h
core.c	gpio.h
core.c	hardware.h
core.c	hardware.h
core.c	hardware.h
core.c	i2c.h
core.c	i2c.h
core.c	i2c.h
core.c	init.h
core.c	init.h
core.c	init.h
core.c	interrupt.h
core.c	interrupt.h
core.c	interrupt.h
core.c	irqs.h
core.c	irqs.h
core.c	irqs.h
core.c	kernel.h
core.c	kernel.h
core.c	kernel.h
core.c	mach-types.h
core.c	mach-types.h
core.c	mach-types.h
core.c	machine.h
core.c	machine.h
core.c	machine.h
core.c	map.h
core.c	map.h
core.c	map.h
core.c	memory.h
core.c	memory.h
core.c	memory.h
core.c	mm.h
core.c	mm.h
core.c	mm.h
core.c	mmci.h
core.c	mmci.h
core.c	mmci.h
core.c	nand.h
core.c	nand.h
core.c	nand.h
core.c	pinconf-generic.h
core.c	pinconf-generic.h
core.c	pinconf-generic.h
core.c	pinctrl-coh901.h
core.c	pinctrl-coh901.h
core.c	pinctrl-coh901.h
core.c	platform_device.h
core.c	platform_device.h
core.c	platform_device.h
core.c	serial.h
core.c	serial.h
core.c	serial.h
core.c	setup.h
core.c	setup.h
core.c	setup.h
core.c	spi.h
core.c	spi.h
core.c	spi.h
core.c	spinlock.h
core.c	spinlock.h
core.c	spinlock.h
core.c	syscon.h
core.c	syscon.h
core.c	syscon.h
core.c	termios.h
core.c	termios.h
core.c	termios.h
core.c	timer.h
core.c	timer.h
core.c	timer.h
core.c	types.h
core.c	types.h
core.c	types.h
core.c	u300-gpio.h
core.c	u300-gpio.h
core.c	u300-gpio.h
core.c	vic.h
core.c	vic.h
core.c	vic.h
cp_intc.c	common.h
cp_intc.c	cp_intc.h
cp_intc.c	export.h
cp_intc.c	init.h
cp_intc.c	io.h
cp_intc.c	irq.h
cp_intc.c	irqdomain.h
cp_intc.c	of.h
cp_intc.c	of_address.h
cp_intc.c	of_irq.h
cpu-imx25.c	hardware.h
cpu-imx25.c	iim.h
cpu-imx25.c	io.h
cpu-imx25.c	module.h
cpu-imx27.c	hardware.h
cpu-imx27.c	io.h
cpu-imx27.c	module.h
cpu-imx31.c	common.h
cpu-imx31.c	hardware.h
cpu-imx31.c	iim.h
cpu-imx31.c	io.h
cpu-imx31.c	module.h
cpu-imx35.c	hardware.h
cpu-imx35.c	iim.h
cpu-imx35.c	io.h
cpu-imx35.c	module.h
cpu-imx5.c	hardware.h
cpu-imx5.c	init.h
cpu-imx5.c	io.h
cpu-imx5.c	kernel.h
cpu-imx5.c	module.h
cpu-imx5.c	types.h
cpu.c	hardware.h
cpu.c	io.h
cpu.c	module.h
cpu_op-mx51.c	bug.h
cpu_op-mx51.c	hardware.h
cpu_op-mx51.c	kernel.h
cpu_op-mx51.c	types.h
cpufreq.c	clk.h
cpufreq.c	clk.h
cpufreq.c	clock.h
cpufreq.c	clock.h
cpufreq.c	common.h
cpufreq.c	common.h
cpufreq.c	cpufreq.h
cpufreq.c	cpufreq.h
cpufreq.c	cpufreq.h
cpufreq.c	cpufreq.h
cpufreq.c	err.h
cpufreq.c	err.h
cpufreq.c	export.h
cpufreq.c	export.h
cpufreq.c	hardware.h
cpufreq.c	hardware.h
cpufreq.c	init.h
cpufreq.c	init.h
cpufreq.c	platform_device.h
cpufreq.c	platform_device.h
cpufreq.c	types.h
cpufreq.c	types.h
cpufreq.h	cpufreq.h
cpuidle.c	cpuidle.h
cpuidle.c	cpuidle.h
cpuidle.c	cpuidle.h
cpuidle.c	cpuidle.h
cpuidle.c	cpuidle.h
cpuidle.c	cpuidle.h
cpuidle.c	err.h
cpuidle.c	err.h
cpuidle.c	err.h
cpuidle.c	io.h
cpuidle.c	io.h
cpuidle.c	io.h
cpuidle.c	module.h
cpuidle.c	module.h
cpuidle.c	module.h
cpuidle.c	pm.h
cpuidle.c	pm.h
cpuidle.c	pm.h
cpuidle.c	suspend.h
cpuidle.c	suspend.h
cpuidle.c	suspend.h
cputype.h	common.h
da830.c	clk.h
da830.c	clock.h
da830.c	common.h
da830.c	cputype.h
da830.c	da8xx.h
da830.c	gpio-davinci.h
da830.c	gpio.h
da830.c	init.h
da830.c	irqs.h
da830.c	map.h
da830.c	mux.h
da830.c	psc.h
da830.c	time.h
da850.c	clk.h
da850.c	clock.h
da850.c	common.h
da850.c	consumer.h
da850.c	cpufreq.h
da850.c	cpufreq.h
da850.c	cputype.h
da850.c	da8xx.h
da850.c	gpio-davinci.h
da850.c	gpio.h
da850.c	init.h
da850.c	irqs.h
da850.c	map.h
da850.c	mux.h
da850.c	platform_device.h
da850.c	pm.h
da850.c	psc.h
da850.c	time.h
da8xx-dt.c	arch.h
da8xx-dt.c	common.h
da8xx-dt.c	cp_intc.h
da8xx-dt.c	da8xx.h
da8xx-dt.c	io.h
da8xx-dt.c	irqdomain.h
da8xx-dt.c	of_irq.h
da8xx-dt.c	of_platform.h
da8xx.h	da8xx-fb.h
da8xx.h	davinci_asp.h
da8xx.h	davinci_emac.h
da8xx.h	edma.h
da8xx.h	i2c-davinci.h
da8xx.h	mmc-davinci.h
da8xx.h	platform_device.h
da8xx.h	pm.h
da8xx.h	serial.h
da8xx.h	spi-davinci.h
da8xx.h	spi.h
da8xx.h	uio_pruss.h
da8xx.h	usb-davinci.h
da8xx.h	videodev2.h
da8xx.h	vpif_types.h
davinci.h	clk.h
davinci.h	davinci_asp.h
davinci.h	davinci_emac.h
davinci.h	edma.h
davinci.h	hardware.h
davinci.h	keyscan-davinci.h
davinci.h	platform_device.h
davinci.h	spi.h
davinci.h	videodev2.h
davinci.h	vpbe.h
davinci.h	vpbe_osd.h
davinci.h	vpbe_types.h
davinci.h	vpbe_venc.h
davinci.h	vpfe_capture.h
davinci.h	vpif_types.h
davinci.h	vpss.h
devices-da8xx.c	ahci_platform.h
devices-da8xx.c	asp.h
devices-da8xx.c	clk.h
devices-da8xx.c	clock.h
devices-da8xx.c	common.h
devices-da8xx.c	cpuidle.h
devices-da8xx.c	cputype.h
devices-da8xx.c	da8xx.h
devices-da8xx.c	dma-mapping.h
devices-da8xx.c	init.h
devices-da8xx.c	platform_device.h
devices-da8xx.c	serial_8250.h
devices-da8xx.c	sram.h
devices-da8xx.c	time.h
devices-imx1.h	devices-common.h
devices-imx21.h	devices-common.h
devices-imx25.h	devices-common.h
devices-imx27.h	devices-common.h
devices-imx31.h	devices-common.h
devices-imx35.h	devices-common.h
devices-imx50.h	devices-common.h
devices-imx51.h	devices-common.h
devices-tnetv107x.c	clk.h
devices-tnetv107x.c	clock.h
devices-tnetv107x.c	common.h
devices-tnetv107x.c	dma-mapping.h
devices-tnetv107x.c	edma.h
devices-tnetv107x.c	init.h
devices-tnetv107x.c	irqs.h
devices-tnetv107x.c	kernel.h
devices-tnetv107x.c	platform_device.h
devices-tnetv107x.c	slab.h
devices-tnetv107x.c	tnetv107x.h
devices.c	clock.h
devices.c	clock.h
devices.c	cputype.h
devices.c	cputype.h
devices.c	davinci.h
devices.c	davinci.h
devices.c	dma-mapping.h
devices.c	dma-mapping.h
devices.c	edma.h
devices.c	edma.h
devices.c	hardware.h
devices.c	hardware.h
devices.c	i2c-davinci.h
devices.c	i2c-davinci.h
devices.c	init.h
devices.c	init.h
devices.c	io.h
devices.c	io.h
devices.c	irqs.h
devices.c	irqs.h
devices.c	mmc-davinci.h
devices.c	mmc-davinci.h
devices.c	mux.h
devices.c	mux.h
devices.c	platform_device.h
devices.c	platform_device.h
devices.c	time.h
devices.c	time.h
dm355.c	asp.h
dm355.c	clk.h
dm355.c	clock.h
dm355.c	common.h
dm355.c	cputype.h
dm355.c	davinci.h
dm355.c	dma-mapping.h
dm355.c	edma.h
dm355.c	gpio-davinci.h
dm355.c	init.h
dm355.c	irqs.h
dm355.c	map.h
dm355.c	mux.h
dm355.c	mux.h
dm355.c	platform_device.h
dm355.c	psc.h
dm355.c	serial.h
dm355.c	serial_8250.h
dm355.c	spi-davinci.h
dm355.c	spi.h
dm355.c	time.h
dm365.c	asp.h
dm365.c	clk.h
dm365.c	clock.h
dm365.c	common.h
dm365.c	cputype.h
dm365.c	davinci.h
dm365.c	dma-mapping.h
dm365.c	edma.h
dm365.c	gpio-davinci.h
dm365.c	init.h
dm365.c	irqs.h
dm365.c	keyscan-davinci.h
dm365.c	map.h
dm365.c	mux.h
dm365.c	mux.h
dm365.c	platform_device.h
dm365.c	psc.h
dm365.c	serial.h
dm365.c	serial_8250.h
dm365.c	spi-davinci.h
dm365.c	spi.h
dm365.c	time.h
dm644x.c	asp.h
dm644x.c	clk.h
dm644x.c	clock.h
dm644x.c	common.h
dm644x.c	cputype.h
dm644x.c	davinci.h
dm644x.c	edma.h
dm644x.c	gpio-davinci.h
dm644x.c	init.h
dm644x.c	irqs.h
dm644x.c	map.h
dm644x.c	mux.h
dm644x.c	mux.h
dm644x.c	platform_device.h
dm644x.c	psc.h
dm644x.c	serial.h
dm644x.c	serial_8250.h
dm644x.c	time.h
dm646x.c	asp.h
dm646x.c	clk.h
dm646x.c	clock.h
dm646x.c	common.h
dm646x.c	cputype.h
dm646x.c	davinci.h
dm646x.c	dma-mapping.h
dm646x.c	edma.h
dm646x.c	gpio-davinci.h
dm646x.c	init.h
dm646x.c	irqs.h
dm646x.c	map.h
dm646x.c	mux.h
dm646x.c	mux.h
dm646x.c	platform_device.h
dm646x.c	psc.h
dm646x.c	serial.h
dm646x.c	serial_8250.h
dm646x.c	time.h
dma.c	edma.h
dma.c	init.h
dma.c	interrupt.h
dma.c	io.h
dma.c	kernel.h
dma.c	module.h
dma.c	platform_device.h
dma.c	slab.h
dummyspichip.c	device.h
dummyspichip.c	dma-mapping.h
dummyspichip.c	err.h
dummyspichip.c	init.h
dummyspichip.c	kernel.h
dummyspichip.c	module.h
dummyspichip.c	mutex.h
dummyspichip.c	pl022.h
dummyspichip.c	slab.h
dummyspichip.c	spi.h
dummyspichip.c	sysfs.h
ehci-imx25.c	hardware.h
ehci-imx25.c	io.h
ehci-imx25.c	platform_device.h
ehci-imx25.c	usb-ehci-mxc.h
ehci-imx27.c	hardware.h
ehci-imx27.c	io.h
ehci-imx27.c	platform_device.h
ehci-imx27.c	usb-ehci-mxc.h
ehci-imx31.c	hardware.h
ehci-imx31.c	io.h
ehci-imx31.c	platform_device.h
ehci-imx31.c	usb-ehci-mxc.h
ehci-imx35.c	hardware.h
ehci-imx35.c	io.h
ehci-imx35.c	platform_device.h
ehci-imx35.c	usb-ehci-mxc.h
ehci-imx5.c	hardware.h
ehci-imx5.c	io.h
ehci-imx5.c	platform_device.h
ehci-imx5.c	usb-ehci-mxc.h
epit.c	clk.h
epit.c	clockchips.h
epit.c	common.h
epit.c	err.h
epit.c	hardware.h
epit.c	interrupt.h
epit.c	irq.h
epit.c	time.h
eukrea_mbimx27-baseboard.c	ads7846.h
eukrea_mbimx27-baseboard.c	arch.h
eukrea_mbimx27-baseboard.c	backlight.h
eukrea_mbimx27-baseboard.c	common.h
eukrea_mbimx27-baseboard.c	devices-imx27.h
eukrea_mbimx27-baseboard.c	gpio.h
eukrea_mbimx27-baseboard.c	hardware.h
eukrea_mbimx27-baseboard.c	iomux-mx27.h
eukrea_mbimx27-baseboard.c	irq.h
eukrea_mbimx27-baseboard.c	platform_device.h
eukrea_mbimx27-baseboard.c	platform_lcd.h
eukrea_mbimx27-baseboard.c	spi.h
eukrea_mbimxsd25-baseboard.c	arch.h
eukrea_mbimxsd25-baseboard.c	common.h
eukrea_mbimxsd25-baseboard.c	devices-imx25.h
eukrea_mbimxsd25-baseboard.c	gpio.h
eukrea_mbimxsd25-baseboard.c	hardware.h
eukrea_mbimxsd25-baseboard.c	input.h
eukrea_mbimxsd25-baseboard.c	iomux-mx25.h
eukrea_mbimxsd25-baseboard.c	leds.h
eukrea_mbimxsd25-baseboard.c	mach-types.h
eukrea_mbimxsd25-baseboard.c	mx25.h
eukrea_mbimxsd25-baseboard.c	platform_device.h
eukrea_mbimxsd25-baseboard.c	platform_lcd.h
eukrea_mbimxsd25-baseboard.c	spi.h
eukrea_mbimxsd35-baseboard.c	arch.h
eukrea_mbimxsd35-baseboard.c	common.h
eukrea_mbimxsd35-baseboard.c	devices-imx35.h
eukrea_mbimxsd35-baseboard.c	gpio.h
eukrea_mbimxsd35-baseboard.c	hardware.h
eukrea_mbimxsd35-baseboard.c	i2c.h
eukrea_mbimxsd35-baseboard.c	init.h
eukrea_mbimxsd35-baseboard.c	input.h
eukrea_mbimxsd35-baseboard.c	interrupt.h
eukrea_mbimxsd35-baseboard.c	iomux-mx35.h
eukrea_mbimxsd35-baseboard.c	leds.h
eukrea_mbimxsd35-baseboard.c	mach-types.h
eukrea_mbimxsd35-baseboard.c	map.h
eukrea_mbimxsd35-baseboard.c	platform_device.h
eukrea_mbimxsd35-baseboard.c	platform_lcd.h
eukrea_mbimxsd35-baseboard.c	spi.h
eukrea_mbimxsd35-baseboard.c	time.h
eukrea_mbimxsd35-baseboard.c	types.h
eukrea_mbimxsd51-baseboard.c	arch.h
eukrea_mbimxsd51-baseboard.c	backlight.h
eukrea_mbimxsd51-baseboard.c	common.h
eukrea_mbimxsd51-baseboard.c	devices-imx51.h
eukrea_mbimxsd51-baseboard.c	gpio.h
eukrea_mbimxsd51-baseboard.c	hardware.h
eukrea_mbimxsd51-baseboard.c	i2c.h
eukrea_mbimxsd51-baseboard.c	init.h
eukrea_mbimxsd51-baseboard.c	input.h
eukrea_mbimxsd51-baseboard.c	interrupt.h
eukrea_mbimxsd51-baseboard.c	iomux-mx51.h
eukrea_mbimxsd51-baseboard.c	leds.h
eukrea_mbimxsd51-baseboard.c	mach-types.h
eukrea_mbimxsd51-baseboard.c	map.h
eukrea_mbimxsd51-baseboard.c	platform_device.h
eukrea_mbimxsd51-baseboard.c	platform_lcd.h
eukrea_mbimxsd51-baseboard.c	time.h
eukrea_mbimxsd51-baseboard.c	types.h
gpc.c	gic.h
gpc.c	io.h
gpc.c	irq.h
gpc.c	of.h
gpc.c	of_address.h
gpc.c	of_irq.h
gpio-davinci.h	common.h
gpio-davinci.h	gpio.h
gpio-davinci.h	io.h
gpio-davinci.h	irqs.h
gpio-davinci.h	spinlock.h
gpio.h	iop3xx-gpio.h
gpio.h	iop3xx-gpio.h
hotplug.c	cacheflush.h
hotplug.c	cacheflush.h
hotplug.c	common.h
hotplug.c	common.h
hotplug.c	cpumask.h
hotplug.c	cpumask.h
hotplug.c	delay.h
hotplug.c	delay.h
hotplug.c	emev2.h
hotplug.c	emev2.h
hotplug.c	errno.h
hotplug.c	errno.h
hotplug.c	kernel.h
hotplug.c	kernel.h
hotplug.c	mach-types.h
hotplug.c	mach-types.h
hotplug.c	of.h
hotplug.c	of.h
hotplug.c	r8a7779.h
hotplug.c	r8a7779.h
hotplug.c	smp.h
hotplug.c	smp.h
i2c.c	ab3100.h
i2c.c	bus.h
i2c.c	i2c.h
i2c.c	irqs.h
i2c.c	kernel.h
i2c.c	machine.h
imx25-dt.c	arch.h
imx25-dt.c	common.h
imx25-dt.c	irq.h
imx25-dt.c	mx25.h
imx25-dt.c	of_irq.h
imx25-dt.c	of_platform.h
imx25-dt.c	time.h
imx27-dt.c	arch.h
imx27-dt.c	common.h
imx27-dt.c	irq.h
imx27-dt.c	mx27.h
imx27-dt.c	of_irq.h
imx27-dt.c	of_platform.h
imx27-dt.c	time.h
imx31-dt.c	arch.h
imx31-dt.c	common.h
imx31-dt.c	irq.h
imx31-dt.c	mx31.h
imx31-dt.c	of_irq.h
imx31-dt.c	of_platform.h
imx31-dt.c	time.h
imx51-dt.c	arch.h
imx51-dt.c	common.h
imx51-dt.c	irq.h
imx51-dt.c	mx51.h
imx51-dt.c	of_irq.h
imx51-dt.c	of_platform.h
imx51-dt.c	time.h
intc-r8a7740.c	arch.h
intc-r8a7740.c	init.h
intc-r8a7740.c	intc.h
intc-r8a7740.c	interrupt.h
intc-r8a7740.c	io.h
intc-r8a7740.c	irq.h
intc-r8a7740.c	irqs.h
intc-r8a7740.c	kernel.h
intc-r8a7740.c	mach-types.h
intc-r8a7740.c	sh_intc.h
intc-sh7372.c	arch.h
intc-sh7372.c	init.h
intc-sh7372.c	intc.h
intc-sh7372.c	interrupt.h
intc-sh7372.c	io.h
intc-sh7372.c	irq.h
intc-sh7372.c	irqs.h
intc-sh7372.c	kernel.h
intc-sh7372.c	mach-types.h
intc-sh7372.c	module.h
intc-sh7372.c	sh_intc.h
intc.h	sh_intc.h
io.c	hardware.h
io.c	io.h
io.c	kernel.h
io.c	module.h
io.c	page.h
io.c	types.h
iomux-imx31.c	gpio.h
iomux-imx31.c	hardware.h
iomux-imx31.c	io.h
iomux-imx31.c	iomux-mx3.h
iomux-imx31.c	kernel.h
iomux-imx31.c	module.h
iomux-imx31.c	spinlock.h
iomux-mx1.h	iomux-v1.h
iomux-mx21.h	iomux-mx2x.h
iomux-mx21.h	iomux-v1.h
iomux-mx25.h	iomux-v3.h
iomux-mx27.h	iomux-mx2x.h
iomux-mx27.h	iomux-v1.h
iomux-mx3.h	types.h
iomux-mx35.h	iomux-v3.h
iomux-mx50.h	iomux-v3.h
iomux-mx51.h	iomux-v3.h
iomux-v1.c	errno.h
iomux-v1.c	gpio.h
iomux-v1.c	hardware.h
iomux-v1.c	init.h
iomux-v1.c	iomux-v1.h
iomux-v1.c	kernel.h
iomux-v1.c	map.h
iomux-v1.c	module.h
iomux-v1.c	string.h
iomux-v3.c	errno.h
iomux-v3.c	gpio.h
iomux-v3.c	hardware.h
iomux-v3.c	init.h
iomux-v3.c	iomux-v3.h
iomux-v3.c	kernel.h
iomux-v3.c	map.h
iomux-v3.c	module.h
iomux-v3.c	string.h
iop33x.h	iop3xx.h
iq80331.c	arch.h
iq80331.c	hardware.h
iq80331.c	init.h
iq80331.c	io.h
iq80331.c	irq.h
iq80331.c	kernel.h
iq80331.c	mach-types.h
iq80331.c	map.h
iq80331.c	mm.h
iq80331.c	page.h
iq80331.c	pci.h
iq80331.c	pci.h
iq80331.c	pgtable.h
iq80331.c	physmap.h
iq80331.c	platform_device.h
iq80331.c	serial_8250.h
iq80331.c	serial_core.h
iq80331.c	string.h
iq80331.c	time.h
iq80331.c	time.h
iq80332.c	arch.h
iq80332.c	hardware.h
iq80332.c	init.h
iq80332.c	io.h
iq80332.c	irq.h
iq80332.c	kernel.h
iq80332.c	mach-types.h
iq80332.c	map.h
iq80332.c	mm.h
iq80332.c	page.h
iq80332.c	pci.h
iq80332.c	pci.h
iq80332.c	pgtable.h
iq80332.c	physmap.h
iq80332.c	platform_device.h
iq80332.c	serial_8250.h
iq80332.c	serial_core.h
iq80332.c	string.h
iq80332.c	time.h
iq80332.c	time.h
iram_alloc.c	genalloc.h
iram_alloc.c	imx-iram.h
iram_alloc.c	io.h
iram_alloc.c	kernel.h
iram_alloc.c	module.h
iram_alloc.c	spinlock.h
irq-common.c	irq-common.h
irq-common.c	irq.h
irq-common.c	module.h
irq.c	hardware.h
irq.c	hardware.h
irq.c	init.h
irq.c	init.h
irq.c	interrupt.h
irq.c	interrupt.h
irq.c	irq.h
irq.c	irq.h
irq.c	irq.h
irq.c	irq.h
irq.c	list.h
irq.c	list.h
irq.c	mach-types.h
irq.c	mach-types.h
irqs.h	sh_intc.h
irqs.h	sh_intc.h
irqs.h	sh_intc.h
irqs.h	sh_intc.h
irqs.h	sh_intc.h
irqs.h	sh_intc.h
leds.c	core.h
leds.c	init.h
leds.c	io.h
leds.c	kernel.h
leds.c	leds.h
leds.c	mach-types.h
leds.c	slab.h
mach-apf9328.c	arch.h
mach-apf9328.c	common.h
mach-apf9328.c	devices-imx1.h
mach-apf9328.c	dm9000.h
mach-apf9328.c	gpio.h
mach-apf9328.c	hardware.h
mach-apf9328.c	i2c.h
mach-apf9328.c	init.h
mach-apf9328.c	iomux-mx1.h
mach-apf9328.c	kernel.h
mach-apf9328.c	mach-types.h
mach-apf9328.c	physmap.h
mach-apf9328.c	platform_device.h
mach-apf9328.c	time.h
mach-armadillo5x0.c	arch.h
mach-armadillo5x0.c	clk.h
mach-armadillo5x0.c	common.h
mach-armadillo5x0.c	crmregs-imx3.h
mach-armadillo5x0.c	delay.h
mach-armadillo5x0.c	devices-imx31.h
mach-armadillo5x0.c	fixed.h
mach-armadillo5x0.c	gpio.h
mach-armadillo5x0.c	hardware.h
mach-armadillo5x0.c	i2c.h
mach-armadillo5x0.c	init.h
mach-armadillo5x0.c	input.h
mach-armadillo5x0.c	interrupt.h
mach-armadillo5x0.c	io.h
mach-armadillo5x0.c	iomux-mx3.h
mach-armadillo5x0.c	irq.h
mach-armadillo5x0.c	mach-types.h
mach-armadillo5x0.c	machine.h
mach-armadillo5x0.c	map.h
mach-armadillo5x0.c	memory.h
mach-armadillo5x0.c	otg.h
mach-armadillo5x0.c	physmap.h
mach-armadillo5x0.c	platform_device.h
mach-armadillo5x0.c	smsc911x.h
mach-armadillo5x0.c	time.h
mach-armadillo5x0.c	types.h
mach-armadillo5x0.c	ulpi.h
mach-armadillo5x0.c	ulpi.h
mach-bug.c	arch.h
mach-bug.c	common.h
mach-bug.c	devices-imx31.h
mach-bug.c	hardware.h
mach-bug.c	init.h
mach-bug.c	iomux-mx3.h
mach-bug.c	kernel.h
mach-bug.c	mach-types.h
mach-bug.c	platform_device.h
mach-bug.c	time.h
mach-cpuimx27.c	arch.h
mach-cpuimx27.c	common.h
mach-cpuimx27.c	devices-imx27.h
mach-cpuimx27.c	eukrea-baseboards.h
mach-cpuimx27.c	hardware.h
mach-cpuimx27.c	i2c.h
mach-cpuimx27.c	io.h
mach-cpuimx27.c	iomux-mx27.h
mach-cpuimx27.c	mach-types.h
mach-cpuimx27.c	map.h
mach-cpuimx27.c	otg.h
mach-cpuimx27.c	physmap.h
mach-cpuimx27.c	plat-ram.h
mach-cpuimx27.c	platform_device.h
mach-cpuimx27.c	serial_8250.h
mach-cpuimx27.c	time.h
mach-cpuimx27.c	ulpi.h
mach-cpuimx27.c	ulpi.h
mach-cpuimx35.c	arch.h
mach-cpuimx35.c	common.h
mach-cpuimx35.c	delay.h
mach-cpuimx35.c	devices-imx35.h
mach-cpuimx35.c	eukrea-baseboards.h
mach-cpuimx35.c	gpio.h
mach-cpuimx35.c	hardware.h
mach-cpuimx35.c	i2c-gpio.h
mach-cpuimx35.c	i2c.h
mach-cpuimx35.c	init.h
mach-cpuimx35.c	interrupt.h
mach-cpuimx35.c	iomux-mx35.h
mach-cpuimx35.c	mach-types.h
mach-cpuimx35.c	map.h
mach-cpuimx35.c	memory.h
mach-cpuimx35.c	otg.h
mach-cpuimx35.c	physmap.h
mach-cpuimx35.c	platform_device.h
mach-cpuimx35.c	time.h
mach-cpuimx35.c	tsc2007.h
mach-cpuimx35.c	types.h
mach-cpuimx35.c	ulpi.h
mach-cpuimx51sd.c	arch.h
mach-cpuimx51sd.c	common.h
mach-cpuimx51sd.c	cpu_op-mx51.h
mach-cpuimx51sd.c	delay.h
mach-cpuimx51sd.c	devices-imx51.h
mach-cpuimx51sd.c	eukrea-baseboards.h
mach-cpuimx51sd.c	gpio.h
mach-cpuimx51sd.c	hardware.h
mach-cpuimx51sd.c	i2c-gpio.h
mach-cpuimx51sd.c	i2c.h
mach-cpuimx51sd.c	init.h
mach-cpuimx51sd.c	interrupt.h
mach-cpuimx51sd.c	io.h
mach-cpuimx51sd.c	iomux-mx51.h
mach-cpuimx51sd.c	mach-types.h
mach-cpuimx51sd.c	mcp251x.h
mach-cpuimx51sd.c	platform_device.h
mach-cpuimx51sd.c	setup.h
mach-cpuimx51sd.c	spi.h
mach-cpuimx51sd.c	time.h
mach-cpuimx51sd.c	tsc2007.h
mach-eukrea_cpuimx25.c	arch.h
mach-eukrea_cpuimx25.c	clk.h
mach-eukrea_cpuimx25.c	common.h
mach-eukrea_cpuimx25.c	delay.h
mach-eukrea_cpuimx25.c	devices-imx25.h
mach-eukrea_cpuimx25.c	eukrea-baseboards.h
mach-eukrea_cpuimx25.c	gpio.h
mach-eukrea_cpuimx25.c	hardware.h
mach-eukrea_cpuimx25.c	init.h
mach-eukrea_cpuimx25.c	iomux-mx25.h
mach-eukrea_cpuimx25.c	irq.h
mach-eukrea_cpuimx25.c	mach-types.h
mach-eukrea_cpuimx25.c	map.h
mach-eukrea_cpuimx25.c	memory.h
mach-eukrea_cpuimx25.c	mx25.h
mach-eukrea_cpuimx25.c	otg.h
mach-eukrea_cpuimx25.c	platform_device.h
mach-eukrea_cpuimx25.c	time.h
mach-eukrea_cpuimx25.c	types.h
mach-eukrea_cpuimx25.c	ulpi.h
mach-imx27_visstrim_m10.c	arch.h
mach-imx27_visstrim_m10.c	asoc-mx27vis.h
mach-imx27_visstrim_m10.c	common.h
mach-imx27_visstrim_m10.c	delay.h
mach-imx27_visstrim_m10.c	devices-imx27.h
mach-imx27_visstrim_m10.c	dma-mapping.h
mach-imx27_visstrim_m10.c	gpio.h
mach-imx27_visstrim_m10.c	hardware.h
mach-imx27_visstrim_m10.c	i2c.h
mach-imx27_visstrim_m10.c	input.h
mach-imx27_visstrim_m10.c	iomux-mx27.h
mach-imx27_visstrim_m10.c	leds.h
mach-imx27_visstrim_m10.c	mach-types.h
mach-imx27_visstrim_m10.c	memblock.h
mach-imx27_visstrim_m10.c	pca953x.h
mach-imx27_visstrim_m10.c	physmap.h
mach-imx27_visstrim_m10.c	platform_device.h
mach-imx27_visstrim_m10.c	soc_camera.h
mach-imx27_visstrim_m10.c	system_info.h
mach-imx27_visstrim_m10.c	time.h
mach-imx27_visstrim_m10.c	tlv320aic32x4.h
mach-imx27ipcam.c	arch.h
mach-imx27ipcam.c	common.h
mach-imx27ipcam.c	devices-imx27.h
mach-imx27ipcam.c	hardware.h
mach-imx27ipcam.c	iomux-mx27.h
mach-imx27ipcam.c	mach-types.h
mach-imx27ipcam.c	time.h
mach-imx27lite.c	arch.h
mach-imx27lite.c	common.h
mach-imx27lite.c	devices-imx27.h
mach-imx27lite.c	gpio.h
mach-imx27lite.c	hardware.h
mach-imx27lite.c	iomux-mx27.h
mach-imx27lite.c	mach-types.h
mach-imx27lite.c	map.h
mach-imx27lite.c	platform_device.h
mach-imx27lite.c	time.h
mach-imx53.c	arch.h
mach-imx53.c	clk.h
mach-imx53.c	clkdev.h
mach-imx53.c	common.h
mach-imx53.c	err.h
mach-imx53.c	io.h
mach-imx53.c	irq.h
mach-imx53.c	mx53.h
mach-imx53.c	of_irq.h
mach-imx53.c	of_platform.h
mach-imx53.c	time.h
mach-imx6q.c	arch.h
mach-imx6q.c	cache-l2x0.h
mach-imx6q.c	clk.h
mach-imx6q.c	clkdev.h
mach-imx6q.c	common.h
mach-imx6q.c	cpuidle.h
mach-imx6q.c	cpuidle.h
mach-imx6q.c	cpuidle.h
mach-imx6q.c	delay.h
mach-imx6q.c	export.h
mach-imx6q.c	gic.h
mach-imx6q.c	hardware.h
mach-imx6q.c	init.h
mach-imx6q.c	io.h
mach-imx6q.c	irq.h
mach-imx6q.c	micrel_phy.h
mach-imx6q.c	of.h
mach-imx6q.c	of_address.h
mach-imx6q.c	of_irq.h
mach-imx6q.c	of_platform.h
mach-imx6q.c	phy.h
mach-imx6q.c	regmap.h
mach-imx6q.c	smp_twd.h
mach-imx6q.c	syscon.h
mach-imx6q.c	system_misc.h
mach-imx6q.c	time.h
mach-kzm_arm11_01.c	arch.h
mach-kzm_arm11_01.c	common.h
mach-kzm_arm11_01.c	devices-imx31.h
mach-kzm_arm11_01.c	fixed.h
mach-kzm_arm11_01.c	gpio.h
mach-kzm_arm11_01.c	hardware.h
mach-kzm_arm11_01.c	init.h
mach-kzm_arm11_01.c	iomux-mx3.h
mach-kzm_arm11_01.c	irq.h
mach-kzm_arm11_01.c	irq.h
mach-kzm_arm11_01.c	mach-types.h
mach-kzm_arm11_01.c	machine.h
mach-kzm_arm11_01.c	map.h
mach-kzm_arm11_01.c	memory.h
mach-kzm_arm11_01.c	platform_device.h
mach-kzm_arm11_01.c	serial_8250.h
mach-kzm_arm11_01.c	setup.h
mach-kzm_arm11_01.c	smsc911x.h
mach-kzm_arm11_01.c	time.h
mach-kzm_arm11_01.c	types.h
mach-mx1ads.c	arch.h
mach-mx1ads.c	common.h
mach-mx1ads.c	devices-imx1.h
mach-mx1ads.c	hardware.h
mach-mx1ads.c	i2c.h
mach-mx1ads.c	init.h
mach-mx1ads.c	iomux-mx1.h
mach-mx1ads.c	kernel.h
mach-mx1ads.c	mach-types.h
mach-mx1ads.c	pcf857x.h
mach-mx1ads.c	physmap.h
mach-mx1ads.c	platform_device.h
mach-mx1ads.c	time.h
mach-mx21ads.c	arch.h
mach-mx21ads.c	common.h
mach-mx21ads.c	devices-imx21.h
mach-mx21ads.c	gpio.h
mach-mx21ads.c	hardware.h
mach-mx21ads.c	iomux-mx21.h
mach-mx21ads.c	mach-types.h
mach-mx21ads.c	map.h
mach-mx21ads.c	mtd.h
mach-mx21ads.c	physmap.h
mach-mx21ads.c	platform_device.h
mach-mx21ads.c	time.h
mach-mx25_3ds.c	arch.h
mach-mx25_3ds.c	clk.h
mach-mx25_3ds.c	common.h
mach-mx25_3ds.c	delay.h
mach-mx25_3ds.c	devices-imx25.h
mach-mx25_3ds.c	gpio.h
mach-mx25_3ds.c	hardware.h
mach-mx25_3ds.c	init.h
mach-mx25_3ds.c	iomux-mx25.h
mach-mx25_3ds.c	irq.h
mach-mx25_3ds.c	mach-types.h
mach-mx25_3ds.c	map.h
mach-mx25_3ds.c	memory.h
mach-mx25_3ds.c	mx25.h
mach-mx25_3ds.c	otg.h
mach-mx25_3ds.c	platform_device.h
mach-mx25_3ds.c	time.h
mach-mx25_3ds.c	types.h
mach-mx27_3ds.c	3ds_debugboard.h
mach-mx27_3ds.c	arch.h
mach-mx27_3ds.c	common.h
mach-mx27_3ds.c	delay.h
mach-mx27_3ds.c	devices-imx27.h
mach-mx27_3ds.c	gpio.h
mach-mx27_3ds.c	hardware.h
mach-mx27_3ds.c	iomux-mx27.h
mach-mx27_3ds.c	irq.h
mach-mx27_3ds.c	l4f00242t03.h
mach-mx27_3ds.c	mach-types.h
mach-mx27_3ds.c	machine.h
mach-mx27_3ds.c	mc13783.h
mach-mx27_3ds.c	otg.h
mach-mx27_3ds.c	platform_device.h
mach-mx27_3ds.c	soc_camera.h
mach-mx27_3ds.c	spi.h
mach-mx27_3ds.c	time.h
mach-mx27_3ds.c	ulpi.h
mach-mx27_3ds.c	ulpi.h
mach-mx27ads.c	arch.h
mach-mx27ads.c	common.h
mach-mx27ads.c	devices-imx27.h
mach-mx27ads.c	gpio.h
mach-mx27ads.c	hardware.h
mach-mx27ads.c	i2c.h
mach-mx27ads.c	iomux-mx27.h
mach-mx27ads.c	irq.h
mach-mx27ads.c	mach-types.h
mach-mx27ads.c	map.h
mach-mx27ads.c	map.h
mach-mx27ads.c	mtd.h
mach-mx27ads.c	partitions.h
mach-mx27ads.c	physmap.h
mach-mx27ads.c	platform_device.h
mach-mx27ads.c	time.h
mach-mx31_3ds.c	3ds_debugboard.h
mach-mx31_3ds.c	arch.h
mach-mx31_3ds.c	clk.h
mach-mx31_3ds.c	common.h
mach-mx31_3ds.c	delay.h
mach-mx31_3ds.c	devices-imx31.h
mach-mx31_3ds.c	dma-mapping.h
mach-mx31_3ds.c	gpio.h
mach-mx31_3ds.c	hardware.h
mach-mx31_3ds.c	init.h
mach-mx31_3ds.c	iomux-mx3.h
mach-mx31_3ds.c	irq.h
mach-mx31_3ds.c	l4f00242t03.h
mach-mx31_3ds.c	mach-types.h
mach-mx31_3ds.c	machine.h
mach-mx31_3ds.c	map.h
mach-mx31_3ds.c	mc13783.h
mach-mx31_3ds.c	memblock.h
mach-mx31_3ds.c	memblock.h
mach-mx31_3ds.c	memory.h
mach-mx31_3ds.c	otg.h
mach-mx31_3ds.c	platform_device.h
mach-mx31_3ds.c	soc_camera.h
mach-mx31_3ds.c	spi.h
mach-mx31_3ds.c	time.h
mach-mx31_3ds.c	types.h
mach-mx31_3ds.c	ulpi.h
mach-mx31_3ds.c	ulpi.h
mach-mx31ads.c	arch.h
mach-mx31ads.c	audio.h
mach-mx31ads.c	clk.h
mach-mx31ads.c	common.h
mach-mx31ads.c	core.h
mach-mx31ads.c	devices-imx31.h
mach-mx31ads.c	gpio.h
mach-mx31ads.c	hardware.h
mach-mx31ads.c	i2c.h
mach-mx31ads.c	init.h
mach-mx31ads.c	iomux-mx3.h
mach-mx31ads.c	irq.h
mach-mx31ads.c	irqdomain.h
mach-mx31ads.c	mach-types.h
mach-mx31ads.c	map.h
mach-mx31ads.c	memory.h
mach-mx31ads.c	pmic.h
mach-mx31ads.c	serial_8250.h
mach-mx31ads.c	time.h
mach-mx31ads.c	types.h
mach-mx31lilly.c	arch.h
mach-mx31lilly.c	board-mx31lilly.h
mach-mx31lilly.c	clk.h
mach-mx31lilly.c	common.h
mach-mx31lilly.c	delay.h
mach-mx31lilly.c	devices-imx31.h
mach-mx31lilly.c	fixed.h
mach-mx31lilly.c	gpio.h
mach-mx31lilly.c	hardware.h
mach-mx31lilly.c	init.h
mach-mx31lilly.c	interrupt.h
mach-mx31lilly.c	iomux-mx3.h
mach-mx31lilly.c	mach-types.h
mach-mx31lilly.c	machine.h
mach-mx31lilly.c	map.h
mach-mx31lilly.c	mc13783.h
mach-mx31lilly.c	moduleparam.h
mach-mx31lilly.c	otg.h
mach-mx31lilly.c	physmap.h
mach-mx31lilly.c	platform_device.h
mach-mx31lilly.c	smsc911x.h
mach-mx31lilly.c	spi.h
mach-mx31lilly.c	time.h
mach-mx31lilly.c	types.h
mach-mx31lilly.c	ulpi.h
mach-mx31lilly.c	ulpi.h
mach-mx31lite.c	arch.h
mach-mx31lite.c	board-mx31lite.h
mach-mx31lite.c	common.h
mach-mx31lite.c	delay.h
mach-mx31lite.c	devices-imx31.h
mach-mx31lite.c	fixed.h
mach-mx31lite.c	gpio.h
mach-mx31lite.c	hardware.h
mach-mx31lite.c	init.h
mach-mx31lite.c	iomux-mx3.h
mach-mx31lite.c	kernel.h
mach-mx31lite.c	mach-types.h
mach-mx31lite.c	machine.h
mach-mx31lite.c	map.h
mach-mx31lite.c	mc13783.h
mach-mx31lite.c	memory.h
mach-mx31lite.c	moduleparam.h
mach-mx31lite.c	otg.h
mach-mx31lite.c	page.h
mach-mx31lite.c	physmap.h
mach-mx31lite.c	platform_device.h
mach-mx31lite.c	setup.h
mach-mx31lite.c	smsc911x.h
mach-mx31lite.c	spi.h
mach-mx31lite.c	time.h
mach-mx31lite.c	types.h
mach-mx31lite.c	ulpi.h
mach-mx31lite.c	ulpi.h
mach-mx31moboard.c	arch.h
mach-mx31moboard.c	asoc-imx-ssi.h
mach-mx31moboard.c	board-mx31moboard.h
mach-mx31moboard.c	clk.h
mach-mx31moboard.c	common.h
mach-mx31moboard.c	delay.h
mach-mx31moboard.c	devices-imx31.h
mach-mx31moboard.c	dma-mapping.h
mach-mx31moboard.c	err.h
mach-mx31moboard.c	gfp.h
mach-mx31moboard.c	gpio.h
mach-mx31moboard.c	hardware.h
mach-mx31moboard.c	init.h
mach-mx31moboard.c	input.h
mach-mx31moboard.c	interrupt.h
mach-mx31moboard.c	io.h
mach-mx31moboard.c	iomux-mx3.h
mach-mx31moboard.c	leds.h
mach-mx31moboard.c	mach-types.h
mach-mx31moboard.c	machine.h
mach-mx31moboard.c	map.h
mach-mx31moboard.c	mc13783.h
mach-mx31moboard.c	memblock.h
mach-mx31moboard.c	memblock.h
mach-mx31moboard.c	memory.h
mach-mx31moboard.c	moduleparam.h
mach-mx31moboard.c	otg.h
mach-mx31moboard.c	partitions.h
mach-mx31moboard.c	physmap.h
mach-mx31moboard.c	platform_device.h
mach-mx31moboard.c	spi.h
mach-mx31moboard.c	time.h
mach-mx31moboard.c	types.h
mach-mx31moboard.c	ulpi.h
mach-mx31moboard.c	ulpi.h
mach-mx35_3ds.c	3ds_debugboard.h
mach-mx35_3ds.c	arch.h
mach-mx35_3ds.c	common.h
mach-mx35_3ds.c	devices-imx35.h
mach-mx35_3ds.c	gpio.h
mach-mx35_3ds.c	hardware.h
mach-mx35_3ds.c	init.h
mach-mx35_3ds.c	iomux-mx35.h
mach-mx35_3ds.c	mach-types.h
mach-mx35_3ds.c	machine.h
mach-mx35_3ds.c	map.h
mach-mx35_3ds.c	mc13892.h
mach-mx35_3ds.c	memblock.h
mach-mx35_3ds.c	memory.h
mach-mx35_3ds.c	otg.h
mach-mx35_3ds.c	physmap.h
mach-mx35_3ds.c	platform_device.h
mach-mx35_3ds.c	platform_lcd.h
mach-mx35_3ds.c	soc_camera.h
mach-mx35_3ds.c	time.h
mach-mx35_3ds.c	types.h
mach-mx50_rdp.c	arch.h
mach-mx50_rdp.c	common.h
mach-mx50_rdp.c	delay.h
mach-mx50_rdp.c	devices-imx50.h
mach-mx50_rdp.c	gpio.h
mach-mx50_rdp.c	hardware.h
mach-mx50_rdp.c	init.h
mach-mx50_rdp.c	io.h
mach-mx50_rdp.c	iomux-mx50.h
mach-mx50_rdp.c	irq.h
mach-mx50_rdp.c	mach-types.h
mach-mx50_rdp.c	platform_device.h
mach-mx50_rdp.c	setup.h
mach-mx50_rdp.c	time.h
mach-mx51_3ds.c	3ds_debugboard.h
mach-mx51_3ds.c	arch.h
mach-mx51_3ds.c	common.h
mach-mx51_3ds.c	devices-imx51.h
mach-mx51_3ds.c	gpio.h
mach-mx51_3ds.c	hardware.h
mach-mx51_3ds.c	iomux-mx51.h
mach-mx51_3ds.c	irq.h
mach-mx51_3ds.c	mach-types.h
mach-mx51_3ds.c	platform_device.h
mach-mx51_3ds.c	spi.h
mach-mx51_3ds.c	time.h
mach-mx51_babbage.c	arch.h
mach-mx51_babbage.c	common.h
mach-mx51_babbage.c	cpu_op-mx51.h
mach-mx51_babbage.c	delay.h
mach-mx51_babbage.c	devices-imx51.h
mach-mx51_babbage.c	flash.h
mach-mx51_babbage.c	gpio.h
mach-mx51_babbage.c	hardware.h
mach-mx51_babbage.c	i2c.h
mach-mx51_babbage.c	init.h
mach-mx51_babbage.c	input.h
mach-mx51_babbage.c	io.h
mach-mx51_babbage.c	iomux-mx51.h
mach-mx51_babbage.c	mach-types.h
mach-mx51_babbage.c	platform_device.h
mach-mx51_babbage.c	setup.h
mach-mx51_babbage.c	spi.h
mach-mx51_babbage.c	time.h
mach-mxt_td60.c	arch.h
mach-mxt_td60.c	common.h
mach-mxt_td60.c	devices-imx27.h
mach-mxt_td60.c	gpio.h
mach-mxt_td60.c	hardware.h
mach-mxt_td60.c	i2c.h
mach-mxt_td60.c	iomux-mx27.h
mach-mxt_td60.c	irq.h
mach-mxt_td60.c	mach-types.h
mach-mxt_td60.c	map.h
mach-mxt_td60.c	map.h
mach-mxt_td60.c	mtd.h
mach-mxt_td60.c	partitions.h
mach-mxt_td60.c	pca953x.h
mach-mxt_td60.c	physmap.h
mach-mxt_td60.c	platform_device.h
mach-mxt_td60.c	time.h
mach-pca100.c	arch.h
mach-pca100.c	at24.h
mach-pca100.c	common.h
mach-pca100.c	delay.h
mach-pca100.c	devices-imx27.h
mach-pca100.c	dma-mapping.h
mach-pca100.c	eeprom.h
mach-pca100.c	gpio.h
mach-pca100.c	hardware.h
mach-pca100.c	i2c.h
mach-pca100.c	io.h
mach-pca100.c	iomux-mx27.h
mach-pca100.c	irq.h
mach-pca100.c	mach-types.h
mach-pca100.c	otg.h
mach-pca100.c	platform_device.h
mach-pca100.c	spi.h
mach-pca100.c	time.h
mach-pca100.c	ulpi.h
mach-pca100.c	ulpi.h
mach-pcm037.c	arch.h
mach-pcm037.c	at24.h
mach-pcm037.c	common.h
mach-pcm037.c	delay.h
mach-pcm037.c	devices-imx31.h
mach-pcm037.c	dma-mapping.h
mach-pcm037.c	fixed.h
mach-pcm037.c	gfp.h
mach-pcm037.c	gpio.h
mach-pcm037.c	hardware.h
mach-pcm037.c	i2c.h
mach-pcm037.c	init.h
mach-pcm037.c	interrupt.h
mach-pcm037.c	iomux-mx3.h
mach-pcm037.c	irq.h
mach-pcm037.c	mach-types.h
mach-pcm037.c	machine.h
mach-pcm037.c	map.h
mach-pcm037.c	memblock.h
mach-pcm037.c	memblock.h
mach-pcm037.c	memory.h
mach-pcm037.c	otg.h
mach-pcm037.c	pcm037.h
mach-pcm037.c	physmap.h
mach-pcm037.c	plat-ram.h
mach-pcm037.c	platform_device.h
mach-pcm037.c	sja1000.h
mach-pcm037.c	smsc911x.h
mach-pcm037.c	soc_camera.h
mach-pcm037.c	spi.h
mach-pcm037.c	time.h
mach-pcm037.c	types.h
mach-pcm037.c	ulpi.h
mach-pcm037.c	ulpi.h
mach-pcm038.c	arch.h
mach-pcm038.c	at24.h
mach-pcm038.c	board-pcm038.h
mach-pcm038.c	common.h
mach-pcm038.c	devices-imx27.h
mach-pcm038.c	gpio.h
mach-pcm038.c	hardware.h
mach-pcm038.c	i2c.h
mach-pcm038.c	io.h
mach-pcm038.c	iomux-mx27.h
mach-pcm038.c	irq.h
mach-pcm038.c	mach-types.h
mach-pcm038.c	machine.h
mach-pcm038.c	mc13783.h
mach-pcm038.c	physmap.h
mach-pcm038.c	plat-ram.h
mach-pcm038.c	platform_device.h
mach-pcm038.c	spi.h
mach-pcm038.c	time.h
mach-pcm038.c	ulpi.h
mach-pcm043.c	arch.h
mach-pcm043.c	at24.h
mach-pcm043.c	common.h
mach-pcm043.c	delay.h
mach-pcm043.c	devices-imx35.h
mach-pcm043.c	gpio.h
mach-pcm043.c	hardware.h
mach-pcm043.c	i2c.h
mach-pcm043.c	init.h
mach-pcm043.c	interrupt.h
mach-pcm043.c	iomux-mx35.h
mach-pcm043.c	mach-types.h
mach-pcm043.c	map.h
mach-pcm043.c	memory.h
mach-pcm043.c	otg.h
mach-pcm043.c	physmap.h
mach-pcm043.c	plat-ram.h
mach-pcm043.c	platform_device.h
mach-pcm043.c	smc911x.h
mach-pcm043.c	time.h
mach-pcm043.c	types.h
mach-pcm043.c	ulpi.h
mach-pcm043.c	ulpi.h
mach-qong.c	arch.h
mach-qong.c	common.h
mach-qong.c	devices-imx31.h
mach-qong.c	gpio.h
mach-qong.c	hardware.h
mach-qong.c	init.h
mach-qong.c	iomux-mx3.h
mach-qong.c	kernel.h
mach-qong.c	mach-types.h
mach-qong.c	map.h
mach-qong.c	memory.h
mach-qong.c	nand.h
mach-qong.c	page.h
mach-qong.c	physmap.h
mach-qong.c	platform_device.h
mach-qong.c	setup.h
mach-qong.c	time.h
mach-qong.c	types.h
mach-vpr200.c	arch.h
mach-vpr200.c	at24.h
mach-vpr200.c	common.h
mach-vpr200.c	devices-imx35.h
mach-vpr200.c	gpio.h
mach-vpr200.c	hardware.h
mach-vpr200.c	i2c.h
mach-vpr200.c	init.h
mach-vpr200.c	iomux-mx35.h
mach-vpr200.c	mach-types.h
mach-vpr200.c	mc13xxx.h
mach-vpr200.c	memory.h
mach-vpr200.c	physmap.h
mach-vpr200.c	platform_device.h
mach-vpr200.c	time.h
mach-vpr200.c	types.h
mm-imx1.c	common.h
mm-imx1.c	devices-common.h
mm-imx1.c	hardware.h
mm-imx1.c	init.h
mm-imx1.c	io.h
mm-imx1.c	iomux-v1.h
mm-imx1.c	kernel.h
mm-imx1.c	machine.h
mm-imx1.c	map.h
mm-imx21.c	common.h
mm-imx21.c	devices-common.h
mm-imx21.c	hardware.h
mm-imx21.c	init.h
mm-imx21.c	iomux-v1.h
mm-imx21.c	machine.h
mm-imx21.c	map.h
mm-imx21.c	mm.h
mm-imx21.c	pgtable.h
mm-imx25.c	common.h
mm-imx25.c	devices-common.h
mm-imx25.c	err.h
mm-imx25.c	hardware.h
mm-imx25.c	init.h
mm-imx25.c	iomux-v3.h
mm-imx25.c	machine.h
mm-imx25.c	map.h
mm-imx25.c	mm.h
mm-imx25.c	mx25.h
mm-imx25.c	pgtable.h
mm-imx27.c	common.h
mm-imx27.c	devices-common.h
mm-imx27.c	hardware.h
mm-imx27.c	init.h
mm-imx27.c	iomux-v1.h
mm-imx27.c	machine.h
mm-imx27.c	map.h
mm-imx27.c	mm.h
mm-imx27.c	pgtable.h
mm-imx3.c	cache-l2x0.h
mm-imx3.c	common.h
mm-imx3.c	crmregs-imx3.h
mm-imx3.c	devices-common.h
mm-imx3.c	err.h
mm-imx3.c	hardware.h
mm-imx3.c	init.h
mm-imx3.c	iomux-v3.h
mm-imx3.c	machine.h
mm-imx3.c	map.h
mm-imx3.c	mm.h
mm-imx3.c	pgtable.h
mm-imx3.c	system_misc.h
mm-imx5.c	clk.h
mm-imx5.c	common.h
mm-imx5.c	devices-common.h
mm-imx5.c	hardware.h
mm-imx5.c	init.h
mm-imx5.c	iomux-v3.h
mm-imx5.c	machine.h
mm-imx5.c	map.h
mm-imx5.c	mm.h
mmc.h	mmc-ap4eb.h
mmc.h	mmc-mackerel.h
mmdc.c	init.h
mmdc.c	io.h
mmdc.c	module.h
mmdc.c	of.h
mmdc.c	of_address.h
mmdc.c	of_device.h
mux.c	common.h
mux.c	io.h
mux.c	module.h
mux.c	mux.h
mux.c	spinlock.h
mux.h	mux.h
mux.h	mux.h
mx1-camera-fiq-ksym.c	camera-mx1.h
mx1-camera-fiq-ksym.c	module.h
mx1-camera-fiq-ksym.c	platform_device.h
mx1.h	irq.h
mx21.h	irq.h
mx25.h	irq.h
mx27.h	irq.h
mx2x.h	irq.h
mx31.h	irq.h
mx31lilly-db.c	arch.h
mx31lilly-db.c	board-mx31lilly.h
mx31lilly-db.c	common.h
mx31lilly-db.c	devices-imx31.h
mx31lilly-db.c	gpio.h
mx31lilly-db.c	hardware.h
mx31lilly-db.c	init.h
mx31lilly-db.c	iomux-mx3.h
mx31lilly-db.c	kernel.h
mx31lilly-db.c	mach-types.h
mx31lilly-db.c	map.h
mx31lilly-db.c	platform_device.h
mx31lilly-db.c	types.h
mx31lite-db.c	arch.h
mx31lite-db.c	board-mx31lite.h
mx31lite-db.c	common.h
mx31lite-db.c	devices-imx31.h
mx31lite-db.c	gpio.h
mx31lite-db.c	hardware.h
mx31lite-db.c	init.h
mx31lite-db.c	iomux-mx3.h
mx31lite-db.c	kernel.h
mx31lite-db.c	leds.h
mx31lite-db.c	mach-types.h
mx31lite-db.c	map.h
mx31lite-db.c	platform_device.h
mx31lite-db.c	types.h
mx31moboard-devboard.c	common.h
mx31moboard-devboard.c	delay.h
mx31moboard-devboard.c	devices-imx31.h
mx31moboard-devboard.c	gpio.h
mx31moboard-devboard.c	hardware.h
mx31moboard-devboard.c	init.h
mx31moboard-devboard.c	interrupt.h
mx31moboard-devboard.c	iomux-mx3.h
mx31moboard-devboard.c	otg.h
mx31moboard-devboard.c	platform_device.h
mx31moboard-devboard.c	slab.h
mx31moboard-devboard.c	types.h
mx31moboard-devboard.c	ulpi.h
mx31moboard-marxbot.c	common.h
mx31moboard-marxbot.c	delay.h
mx31moboard-marxbot.c	devices-imx31.h
mx31moboard-marxbot.c	gpio.h
mx31moboard-marxbot.c	hardware.h
mx31moboard-marxbot.c	i2c.h
mx31moboard-marxbot.c	init.h
mx31moboard-marxbot.c	interrupt.h
mx31moboard-marxbot.c	iomux-mx3.h
mx31moboard-marxbot.c	otg.h
mx31moboard-marxbot.c	platform_device.h
mx31moboard-marxbot.c	slab.h
mx31moboard-marxbot.c	soc_camera.h
mx31moboard-marxbot.c	spi.h
mx31moboard-marxbot.c	types.h
mx31moboard-marxbot.c	ulpi.h
mx31moboard-smartbot.c	board-mx31moboard.h
mx31moboard-smartbot.c	common.h
mx31moboard-smartbot.c	delay.h
mx31moboard-smartbot.c	devices-imx31.h
mx31moboard-smartbot.c	gpio.h
mx31moboard-smartbot.c	hardware.h
mx31moboard-smartbot.c	i2c.h
mx31moboard-smartbot.c	init.h
mx31moboard-smartbot.c	interrupt.h
mx31moboard-smartbot.c	iomux-mx3.h
mx31moboard-smartbot.c	otg.h
mx31moboard-smartbot.c	platform_device.h
mx31moboard-smartbot.c	soc_camera.h
mx31moboard-smartbot.c	types.h
mx31moboard-smartbot.c	ulpi.h
mx31moboard-smartbot.c	ulpi.h
mx3x.h	irq.h
mx50.h	irq.h
mx51.h	irq.h
mx53.h	irq.h
mxc.h	types.h
pcie.c	bug.h
pcie.c	cns3xxx.h
pcie.c	core.h
pcie.c	init.h
pcie.c	interrupt.h
pcie.c	io.h
pcie.c	ioport.h
pcie.c	kernel.h
pcie.c	map.h
pcie.c	pci.h
pcie.c	ptrace.h
pcm970-baseboard.c	arch.h
pcm970-baseboard.c	common.h
pcm970-baseboard.c	devices-imx27.h
pcm970-baseboard.c	gpio.h
pcm970-baseboard.c	hardware.h
pcm970-baseboard.c	iomux-mx27.h
pcm970-baseboard.c	irq.h
pcm970-baseboard.c	platform_device.h
pcm970-baseboard.c	sja1000.h
pfc-r8a7740.c	init.h
pfc-r8a7740.c	irqs.h
pfc-r8a7740.c	kernel.h
pfc-r8a7740.c	r8a7740.h
pfc-r8a7740.c	sh_pfc.h
pfc-sh73a0.c	init.h
pfc-sh73a0.c	irqs.h
pfc-sh73a0.c	kernel.h
pfc-sh73a0.c	sh73a0.h
pfc-sh73a0.c	sh_pfc.h
platform-ahci-imx.c	clk.h
platform-ahci-imx.c	device.h
platform-ahci-imx.c	devices-common.h
platform-ahci-imx.c	dma-mapping.h
platform-ahci-imx.c	err.h
platform-ahci-imx.c	hardware.h
platform-ahci-imx.c	io.h
platform-ahci-imx.c	sizes.h
platform-gpio_keys.c	devices-common.h
platform-gpio_keys.c	hardware.h
platform-gpio_keys.c	sizes.h
platform-imx-i2c.c	devices-common.h
platform-imx-i2c.c	hardware.h
platform-imx-ssi.c	devices-common.h
platform-imx-ssi.c	hardware.h
platform-imx_udc.c	devices-common.h
platform-imx_udc.c	hardware.h
platform-mxc_rnga.c	devices-common.h
platform-mxc_rnga.c	hardware.h
platform-mxc_w1.c	devices-common.h
platform-mxc_w1.c	hardware.h
platsmp.c	common.h
platsmp.c	gic.h
platsmp.c	hardware.h
platsmp.c	init.h
platsmp.c	map.h
platsmp.c	page.h
platsmp.c	smp.h
platsmp.c	smp_scu.h
pm-imx27.c	hardware.h
pm-imx27.c	io.h
pm-imx27.c	kernel.h
pm-imx27.c	suspend.h
pm-imx3.c	common.h
pm-imx3.c	crmregs-imx3.h
pm-imx3.c	devices-common.h
pm-imx3.c	hardware.h
pm-imx3.c	io.h
pm-imx5.c	cacheflush.h
pm-imx5.c	clk.h
pm-imx5.c	common.h
pm-imx5.c	cpuidle.h
pm-imx5.c	crm-regs-imx5.h
pm-imx5.c	err.h
pm-imx5.c	export.h
pm-imx5.c	hardware.h
pm-imx5.c	io.h
pm-imx5.c	suspend.h
pm-imx5.c	system_misc.h
pm-imx5.c	tlbflush.h
pm-imx6q.c	cache-l2x0.h
pm-imx6q.c	cacheflush.h
pm-imx6q.c	common.h
pm-imx6q.c	hardware.h
pm-imx6q.c	init.h
pm-imx6q.c	io.h
pm-imx6q.c	of.h
pm-imx6q.c	proc-fns.h
pm-imx6q.c	suspend.h
pm-imx6q.c	suspend.h
pm-r8a7779.c	common.h
pm-r8a7779.c	console.h
pm-r8a7779.c	delay.h
pm-r8a7779.c	err.h
pm-r8a7779.c	interrupt.h
pm-r8a7779.c	io.h
pm-r8a7779.c	irq.h
pm-r8a7779.c	platform_device.h
pm-r8a7779.c	pm.h
pm-r8a7779.c	pm_clock.h
pm-r8a7779.c	r8a7779.h
pm-r8a7779.c	suspend.h
pm-rmobile.c	console.h
pm-rmobile.c	delay.h
pm-rmobile.c	io.h
pm-rmobile.c	platform_device.h
pm-rmobile.c	pm-rmobile.h
pm-rmobile.c	pm.h
pm-rmobile.c	pm_clock.h
pm-rmobile.h	pm_domain.h
pm-sh7372.c	bitrev.h
pm-sh7372.c	common.h
pm-sh7372.c	console.h
pm-sh7372.c	cpuidle.h
pm-sh7372.c	cpuidle.h
pm-sh7372.c	delay.h
pm-sh7372.c	err.h
pm-sh7372.c	io.h
pm-sh7372.c	irq.h
pm-sh7372.c	list.h
pm-sh7372.c	module.h
pm-sh7372.c	platform_device.h
pm-sh7372.c	pm-rmobile.h
pm-sh7372.c	pm.h
pm-sh7372.c	pm_clock.h
pm-sh7372.c	sh7372.h
pm-sh7372.c	slab.h
pm-sh7372.c	suspend.h
pm-sh7372.c	suspend.h
pm-sh7372.c	tlbflush.h
pm.c	cacheflush.h
pm.c	cacheflush.h
pm.c	clk.h
pm.c	clk.h
pm.c	clock.h
pm.c	clock.h
pm.c	da8xx.h
pm.c	da8xx.h
pm.c	delay.h
pm.c	delay.h
pm.c	io.h
pm.c	io.h
pm.c	module.h
pm.c	module.h
pm.c	platform_device.h
pm.c	platform_device.h
pm.c	pm.h
pm.c	pm.h
pm.c	pm.h
pm.c	pm.h
pm.c	spinlock.h
pm.c	spinlock.h
pm.c	sram.h
pm.c	sram.h
pm.c	suspend.h
pm.c	suspend.h
pm_domain.c	init.h
pm_domain.c	platform_device.h
pm_domain.c	pm_clock.h
pm_domain.c	pm_runtime.h
psc.c	clock.h
psc.c	cputype.h
psc.c	init.h
psc.c	io.h
psc.c	kernel.h
psc.c	psc.h
r8a7740.h	pm-rmobile.h
r8a7779.h	pm_domain.h
r8a7779.h	sh_clk.h
regulator.c	consumer.h
regulator.c	device.h
regulator.c	err.h
regulator.c	hardware.h
regulator.c	io.h
regulator.c	signal.h
regulator.c	syscon.h
sdhi.h	sdhi-sh7372.h
serial.c	clk.h
serial.c	cputype.h
serial.c	delay.h
serial.c	init.h
serial.c	io.h
serial.c	kernel.h
serial.c	platform_device.h
serial.c	serial.h
serial.c	serial_8250.h
serial.c	serial_reg.h
serial.h	hardware.h
serial.h	memory.h
setup-r8a7779.c	arch.h
setup-r8a7779.c	cache-l2x0.h
setup-r8a7779.c	common.h
setup-r8a7779.c	delay.h
setup-r8a7779.c	hardware.h
setup-r8a7779.c	init.h
setup-r8a7779.c	input.h
setup-r8a7779.c	interrupt.h
setup-r8a7779.c	io.h
setup-r8a7779.c	irq.h
setup-r8a7779.c	irqs.h
setup-r8a7779.c	kernel.h
setup-r8a7779.c	mach-types.h
setup-r8a7779.c	map.h
setup-r8a7779.c	platform_device.h
setup-r8a7779.c	r8a7779.h
setup-r8a7779.c	serial_sci.h
setup-r8a7779.c	sh_intc.h
setup-r8a7779.c	sh_timer.h
setup-r8a7779.c	time.h
setup-sh7372.c	arch.h
setup-sh7372.c	common.h
setup-sh7372.c	delay.h
setup-sh7372.c	dma-mapping.h
setup-sh7372.c	dma-register.h
setup-sh7372.c	hardware.h
setup-sh7372.c	init.h
setup-sh7372.c	input.h
setup-sh7372.c	interrupt.h
setup-sh7372.c	io.h
setup-sh7372.c	irq.h
setup-sh7372.c	irqs.h
setup-sh7372.c	kernel.h
setup-sh7372.c	mach-types.h
setup-sh7372.c	map.h
setup-sh7372.c	of_platform.h
setup-sh7372.c	platform_device.h
setup-sh7372.c	pm_domain.h
setup-sh7372.c	serial_sci.h
setup-sh7372.c	sh7372.h
setup-sh7372.c	sh_dma.h
setup-sh7372.c	sh_intc.h
setup-sh7372.c	sh_timer.h
setup-sh7372.c	time.h
setup-sh7372.c	uio_driver.h
sh-gpio.h	errno.h
sh-gpio.h	io.h
sh-gpio.h	kernel.h
sh7372.h	pm-rmobile.h
sh7372.h	pm_domain.h
sh7372.h	sh_clk.h
smp-r8a7779.c	common.h
smp-r8a7779.c	delay.h
smp-r8a7779.c	gic.h
smp-r8a7779.c	init.h
smp-r8a7779.c	io.h
smp-r8a7779.c	kernel.h
smp-r8a7779.c	r8a7779.h
smp-r8a7779.c	smp.h
smp-r8a7779.c	smp_plat.h
smp-r8a7779.c	smp_scu.h
smp-r8a7779.c	smp_twd.h
smp-r8a7779.c	spinlock.h
smp-sh73a0.c	common.h
smp-sh73a0.c	delay.h
smp-sh73a0.c	gic.h
smp-sh73a0.c	init.h
smp-sh73a0.c	io.h
smp-sh73a0.c	kernel.h
smp-sh73a0.c	sh73a0.h
smp-sh73a0.c	smp.h
smp-sh73a0.c	smp_plat.h
smp-sh73a0.c	smp_scu.h
smp-sh73a0.c	smp_twd.h
smp-sh73a0.c	spinlock.h
spi.c	bus.h
spi.c	coh901318.h
spi.c	device.h
spi.c	dma_channels.h
spi.c	err.h
spi.c	pl022.h
spi.c	spi.h
spi.h	bus.h
sram.c	common.h
sram.c	genalloc.h
sram.c	init.h
sram.c	io.h
sram.c	module.h
sram.c	sram.h
src.c	init.h
src.c	io.h
src.c	of.h
src.c	of_address.h
src.c	smp.h
src.c	smp_plat.h
ssi-fiq-ksym.c	asoc-imx-ssi.h
ssi-fiq-ksym.c	module.h
suspend.c	err.h
suspend.c	io.h
suspend.c	module.h
suspend.c	pm.h
suspend.c	suspend.h
suspend.c	system_misc.h
system.c	clk.h
system.c	common.h
system.c	delay.h
system.c	err.h
system.c	hardware.h
system.c	io.h
system.c	kernel.h
system.c	mach-types.h
system.c	proc-fns.h
system.c	system_misc.h
system.h	system_misc.h
time.c	clk.h
time.c	clk.h
time.c	clock.h
time.c	clock.h
time.c	clockchips.h
time.c	clockchips.h
time.c	clocksource.h
time.c	clocksource.h
time.c	cputype.h
time.c	cputype.h
time.c	err.h
time.c	err.h
time.c	hardware.h
time.c	hardware.h
time.c	init.h
time.c	init.h
time.c	interrupt.h
time.c	interrupt.h
time.c	io.h
time.c	io.h
time.c	irq.h
time.c	irq.h
time.c	kernel.h
time.c	kernel.h
time.c	platform_device.h
time.c	platform_device.h
time.c	sched_clock.h
time.c	sched_clock.h
time.c	time.h
time.c	time.h
time.c	time.h
time.c	time.h
time.c	types.h
time.c	types.h
timer.c	clk.h
timer.c	clockchips.h
timer.c	clocksource.h
timer.c	err.h
timer.c	hardware.h
timer.c	interrupt.h
timer.c	io.h
timer.c	irq.h
timer.c	irqs.h
timer.c	map.h
timer.c	sched_clock.h
timer.c	time.h
timer.c	time.h
timer.c	timer.h
timer.c	timex.h
timer.c	types.h
tnetv107x.c	clk.h
tnetv107x.c	clock.h
tnetv107x.c	common.h
tnetv107x.c	cp_intc.h
tnetv107x.c	cputype.h
tnetv107x.c	err.h
tnetv107x.c	gpio-davinci.h
tnetv107x.c	gpio.h
tnetv107x.c	hardware.h
tnetv107x.c	init.h
tnetv107x.c	io.h
tnetv107x.c	irqs.h
tnetv107x.c	kernel.h
tnetv107x.c	map.h
tnetv107x.c	mux.h
tnetv107x.c	platform_device.h
tnetv107x.c	psc.h
tnetv107x.c	time.h
tnetv107x.c	tnetv107x.h
tnetv107x.h	matrix_keypad.h
tnetv107x.h	mmc-davinci.h
tnetv107x.h	mtd-davinci.h
tnetv107x.h	serial.h
tnetv107x.h	serial_8250.h
tnetv107x.h	sizes.h
tnetv107x.h	ti_ssp.h
tzic.c	common.h
tzic.c	device.h
tzic.c	errno.h
tzic.c	exception.h
tzic.c	hardware.h
tzic.c	init.h
tzic.c	io.h
tzic.c	irq-common.h
tzic.c	irq.h
tzic.c	irqdomain.h
tzic.c	module.h
tzic.c	moduleparam.h
tzic.c	of.h
uart.c	arch.h
uart.c	fs.h
uart.c	hardware.h
uart.c	init.h
uart.c	io.h
uart.c	iop3xx.h
uart.c	major.h
uart.c	map.h
uart.c	memory.h
uart.c	mm.h
uart.c	page.h
uart.c	pgtable.h
uart.c	platform_device.h
uart.c	serial.h
uart.c	serial_8250.h
uart.c	setup.h
uart.c	tty.h
ulpi.c	delay.h
ulpi.c	io.h
ulpi.c	kernel.h
ulpi.c	module.h
ulpi.c	otg.h
ulpi.c	ulpi.h
ulpi.c	ulpi.h
usb.c	common.h
usb.c	cputype.h
usb.c	dma-mapping.h
usb.c	init.h
usb.c	irqs.h
usb.c	musb.h
usb.c	platform_device.h
usb.c	usb-davinci.h
zboot.h	head-ap4evb.txt
zboot.h	head-mackerel.txt
zboot.h	mach-types.h
zboot.h	zboot_macros.h
