21285.c	console.h
21285.c	dec21285.h
21285.c	device.h
21285.c	hardware.h
21285.c	init.h
21285.c	io.h
21285.c	ioport.h
21285.c	irq.h
21285.c	mach-types.h
21285.c	module.h
21285.c	serial.h
21285.c	serial_core.h
21285.c	system_info.h
21285.c	tty.h
21285.c	tty_flip.h
8250.c	8250.h
8250.c	console.h
8250.c	delay.h
8250.c	init.h
8250.c	io.h
8250.c	ioport.h
8250.c	irq.h
8250.c	module.h
8250.c	moduleparam.h
8250.c	mutex.h
8250.c	nmi.h
8250.c	platform_device.h
8250.c	ratelimit.h
8250.c	serial.h
8250.c	serial.h
8250.c	serial_8250.h
8250.c	serial_core.h
8250.c	serial_reg.h
8250.c	slab.h
8250.c	sunserialcore.h
8250.c	sysrq.h
8250.c	tty.h
8250.c	tty_flip.h
8250.h	serial_8250.h
8250_accent.c	init.h
8250_accent.c	module.h
8250_accent.c	serial_8250.h
8250_acorn.c	8250.h
8250_acorn.c	device.h
8250_acorn.c	ecard.h
8250_acorn.c	errno.h
8250_acorn.c	init.h
8250_acorn.c	io.h
8250_acorn.c	ioport.h
8250_acorn.c	module.h
8250_acorn.c	serial_core.h
8250_acorn.c	slab.h
8250_acorn.c	string.h
8250_acorn.c	tty.h
8250_acorn.c	types.h
8250_boca.c	init.h
8250_boca.c	module.h
8250_boca.c	serial_8250.h
8250_dw.c	device.h
8250_dw.c	init.h
8250_dw.c	io.h
8250_dw.c	module.h
8250_dw.c	of.h
8250_dw.c	of_irq.h
8250_dw.c	of_platform.h
8250_dw.c	platform_device.h
8250_dw.c	serial_8250.h
8250_dw.c	serial_core.h
8250_dw.c	serial_reg.h
8250_dw.c	slab.h
8250_early.c	console.h
8250_early.c	fixmap.h
8250_early.c	init.h
8250_early.c	io.h
8250_early.c	pgtable.h
8250_early.c	serial.h
8250_early.c	serial.h
8250_early.c	serial_8250.h
8250_early.c	serial_core.h
8250_early.c	serial_reg.h
8250_early.c	tty.h
8250_em.c	8250.h
8250_em.c	clk.h
8250_em.c	device.h
8250_em.c	init.h
8250_em.c	io.h
8250_em.c	module.h
8250_em.c	platform_device.h
8250_em.c	serial_8250.h
8250_em.c	serial_core.h
8250_em.c	serial_reg.h
8250_em.c	slab.h
8250_exar_st16c554.c	init.h
8250_exar_st16c554.c	module.h
8250_exar_st16c554.c	serial_8250.h
8250_fourport.c	init.h
8250_fourport.c	module.h
8250_fourport.c	serial_8250.h
8250_fsl.c	8250.h
8250_fsl.c	serial_8250.h
8250_fsl.c	serial_reg.h
8250_gsc.c	8250.h
8250_gsc.c	errno.h
8250_gsc.c	hardware.h
8250_gsc.c	init.h
8250_gsc.c	interrupt.h
8250_gsc.c	io.h
8250_gsc.c	ioport.h
8250_gsc.c	module.h
8250_gsc.c	parisc-device.h
8250_gsc.c	serial_core.h
8250_gsc.c	signal.h
8250_gsc.c	types.h
8250_hp300.c	8250.h
8250_hp300.c	console.h
8250_hp300.c	delay.h
8250_hp300.c	dio.h
8250_hp300.c	init.h
8250_hp300.c	io.h
8250_hp300.c	kernel.h
8250_hp300.c	module.h
8250_hp300.c	serial.h
8250_hp300.c	serial_8250.h
8250_hp300.c	serial_core.h
8250_hp300.c	slab.h
8250_hp300.c	string.h
8250_hub6.c	init.h
8250_hub6.c	module.h
8250_hub6.c	serial_8250.h
8250_pci.c	8250.h
8250_pci.c	8250_pci.h
8250_pci.c	bitops.h
8250_pci.c	byteorder.h
8250_pci.c	delay.h
8250_pci.c	init.h
8250_pci.c	io.h
8250_pci.c	kernel.h
8250_pci.c	module.h
8250_pci.c	pci.h
8250_pci.c	serial_core.h
8250_pci.c	serial_reg.h
8250_pci.c	slab.h
8250_pci.c	string.h
8250_pci.c	tty.h
8250_pnp.c	8250.h
8250_pnp.c	bitops.h
8250_pnp.c	byteorder.h
8250_pnp.c	init.h
8250_pnp.c	kernel.h
8250_pnp.c	module.h
8250_pnp.c	pci.h
8250_pnp.c	pnp.h
8250_pnp.c	serial_core.h
8250_pnp.c	string.h
access.c	internals.h
access.c	io.h
aer_inject.c	aerdrv.h
aer_inject.c	fs.h
aer_inject.c	init.h
aer_inject.c	miscdevice.h
aer_inject.c	module.h
aer_inject.c	pci.h
aer_inject.c	slab.h
aer_inject.c	stddef.h
aer_inject.c	uaccess.h
aerdrv.c	aerdrv.h
aerdrv.c	delay.h
aerdrv.c	errno.h
aerdrv.c	init.h
aerdrv.c	interrupt.h
aerdrv.c	kernel.h
aerdrv.c	module.h
aerdrv.c	pci-acpi.h
aerdrv.c	pci.h
aerdrv.c	pci.h
aerdrv.c	pcieport_if.h
aerdrv.c	pm.h
aerdrv.c	sched.h
aerdrv.c	slab.h
aerdrv.h	aer.h
aerdrv.h	interrupt.h
aerdrv.h	pcieport_if.h
aerdrv.h	workqueue.h
aerdrv_acpi.c	acpi.h
aerdrv_acpi.c	aerdrv.h
aerdrv_acpi.c	apei.h
aerdrv_acpi.c	delay.h
aerdrv_acpi.c	errno.h
aerdrv_acpi.c	kernel.h
aerdrv_acpi.c	module.h
aerdrv_acpi.c	pci-acpi.h
aerdrv_acpi.c	pci.h
aerdrv_acpi.c	pm.h
aerdrv_acpi.c	suspend.h
aerdrv_core.c	aerdrv.h
aerdrv_core.c	delay.h
aerdrv_core.c	errno.h
aerdrv_core.c	kernel.h
aerdrv_core.c	kfifo.h
aerdrv_core.c	module.h
aerdrv_core.c	pci.h
aerdrv_core.c	pm.h
aerdrv_core.c	slab.h
aerdrv_core.c	suspend.h
aerdrv_errprint.c	aerdrv.h
aerdrv_errprint.c	cper.h
aerdrv_errprint.c	errno.h
aerdrv_errprint.c	kernel.h
aerdrv_errprint.c	module.h
aerdrv_errprint.c	pci.h
aerdrv_errprint.c	pm.h
aerdrv_errprint.c	suspend.h
altera_uart.c	altera_uart.h
altera_uart.c	console.h
altera_uart.c	init.h
altera_uart.c	interrupt.h
altera_uart.c	io.h
altera_uart.c	kernel.h
altera_uart.c	module.h
altera_uart.c	of.h
altera_uart.c	platform_device.h
altera_uart.c	serial.h
altera_uart.c	serial_core.h
altera_uart.c	timer.h
altera_uart.c	tty.h
altera_uart.c	tty_flip.h
amba-pl011.c	bus.h
amba-pl011.c	clk.h
amba-pl011.c	console.h
amba-pl011.c	consumer.h
amba-pl011.c	delay.h
amba-pl011.c	device.h
amba-pl011.c	dma-mapping.h
amba-pl011.c	dmaengine.h
amba-pl011.c	init.h
amba-pl011.c	io.h
amba-pl011.c	ioport.h
amba-pl011.c	module.h
amba-pl011.c	of.h
amba-pl011.c	of_device.h
amba-pl011.c	scatterlist.h
amba-pl011.c	serial.h
amba-pl011.c	serial.h
amba-pl011.c	serial_core.h
amba-pl011.c	sizes.h
amba-pl011.c	slab.h
amba-pl011.c	sysrq.h
amba-pl011.c	tty.h
amba-pl011.c	tty_flip.h
amba-pl011.c	types.h
amiserial.c	amigahw.h
amiserial.c	amigaints.h
amiserial.c	bitops.h
amiserial.c	circ_buf.h
amiserial.c	console.h
amiserial.c	delay.h
amiserial.c	errno.h
amiserial.c	fcntl.h
amiserial.c	init.h
amiserial.c	interrupt.h
amiserial.c	ioport.h
amiserial.c	irq.h
amiserial.c	kernel.h
amiserial.c	major.h
amiserial.c	mm.h
amiserial.c	module.h
amiserial.c	platform_device.h
amiserial.c	ptrace.h
amiserial.c	sched.h
amiserial.c	seq_file.h
amiserial.c	serial.h
amiserial.c	serial_reg.h
amiserial.c	setup.h
amiserial.c	signal.h
amiserial.c	slab.h
amiserial.c	string.h
amiserial.c	timer.h
amiserial.c	tty.h
amiserial.c	tty_flip.h
amiserial.c	types.h
amiserial.c	uaccess.h
ar933x_uart.c	ar933x_uart.h
ar933x_uart.c	ar933x_uart_platform.h
ar933x_uart.c	console.h
ar933x_uart.c	delay.h
ar933x_uart.c	div64.h
ar933x_uart.c	init.h
ar933x_uart.c	io.h
ar933x_uart.c	ioport.h
ar933x_uart.c	irq.h
ar933x_uart.c	module.h
ar933x_uart.c	platform_device.h
ar933x_uart.c	serial.h
ar933x_uart.c	serial_core.h
ar933x_uart.c	slab.h
ar933x_uart.c	sysrq.h
ar933x_uart.c	tty.h
ar933x_uart.c	tty_flip.h
asp.c	errno.h
asp.c	gsc.h
asp.c	init.h
asp.c	interrupt.h
asp.c	io.h
asp.c	led.h
asp.c	module.h
asp.c	types.h
balancing.c	internals.h
bfin_jtag_comm.c	atomic.h
bfin_jtag_comm.c	circ_buf.h
bfin_jtag_comm.c	console.h
bfin_jtag_comm.c	delay.h
bfin_jtag_comm.c	err.h
bfin_jtag_comm.c	kernel.h
bfin_jtag_comm.c	kthread.h
bfin_jtag_comm.c	module.h
bfin_jtag_comm.c	mutex.h
bfin_jtag_comm.c	sched.h
bfin_jtag_comm.c	slab.h
bfin_jtag_comm.c	tty.h
bfin_jtag_comm.c	tty_driver.h
bfin_jtag_comm.c	tty_flip.h
bus.c	errno.h
bus.c	init.h
bus.c	ioport.h
bus.c	kernel.h
bus.c	module.h
bus.c	pci.h
bus.c	pci.h
bus.c	proc_fs.h
bus.c	slab.h
ccio-dma.c	byteorder.h
ccio-dma.c	cache.h
ccio-dma.c	dma.h
ccio-dma.c	export.h
ccio-dma.c	hardware.h
ccio-dma.c	init.h
ccio-dma.c	io.h
ccio-dma.c	iommu-helper.h
ccio-dma.c	iommu-helpers.h
ccio-dma.c	kernel.h
ccio-dma.c	mm.h
ccio-dma.c	page.h
ccio-dma.c	parisc-device.h
ccio-dma.c	pci.h
ccio-dma.c	proc_fs.h
ccio-dma.c	reboot.h
ccio-dma.c	runway.h
ccio-dma.c	scatterlist.h
ccio-dma.c	seq_file.h
ccio-dma.c	slab.h
ccio-dma.c	spinlock.h
ccio-dma.c	string.h
ccio-dma.c	types.h
ccio-dma.c	uaccess.h
ccio-rm-dma.c	gfp.h
ccio-rm-dma.c	hardware.h
ccio-rm-dma.c	init.h
ccio-rm-dma.c	io.h
ccio-rm-dma.c	mm.h
ccio-rm-dma.c	page.h
ccio-rm-dma.c	pci.h
ccio-rm-dma.c	string.h
ccio-rm-dma.c	types.h
ccio-rm-dma.c	uaccess.h
chip.c	bsearch.h
chip.c	cpumask.h
chip.c	internals.h
chip.c	io.h
consolemap.c	console.h
consolemap.c	consolemap.h
consolemap.c	errno.h
consolemap.c	init.h
consolemap.c	kd.h
consolemap.c	mm.h
consolemap.c	module.h
consolemap.c	slab.h
consolemap.c	tty.h
consolemap.c	uaccess.h
consolemap.c	vt_kern.h
core.c	device.h
core.c	device.h
core.c	device.h
core.c	device.h
core.c	device.h
core.c	export.h
core.c	export.h
core.c	export.h
core.c	export.h
core.c	export.h
core.c	init.h
core.c	init.h
core.c	init.h
core.c	init.h
core.c	init.h
core.c	internals.h
core.c	internals.h
core.c	internals.h
core.c	internals.h
core.c	internals.h
core.c	interrupt.h
core.c	interrupt.h
core.c	interrupt.h
core.c	interrupt.h
core.c	interrupt.h
core.c	io.h
core.c	io.h
core.c	io.h
core.c	io.h
core.c	io.h
core.c	irq.h
core.c	irq.h
core.c	irq.h
core.c	irq.h
core.c	irq.h
core.c	irqdomain.h
core.c	irqdomain.h
core.c	irqdomain.h
core.c	irqdomain.h
core.c	irqdomain.h
core.c	list.h
core.c	list.h
core.c	list.h
core.c	list.h
core.c	list.h
core.c	radix-tree.h
core.c	radix-tree.h
core.c	radix-tree.h
core.c	radix-tree.h
core.c	radix-tree.h
core.c	sh_intc.h
core.c	sh_intc.h
core.c	sh_intc.h
core.c	sh_intc.h
core.c	sh_intc.h
core.c	slab.h
core.c	slab.h
core.c	slab.h
core.c	slab.h
core.c	slab.h
core.c	sort.h
core.c	sort.h
core.c	sort.h
core.c	sort.h
core.c	sort.h
core.c	spinlock.h
core.c	spinlock.h
core.c	spinlock.h
core.c	spinlock.h
core.c	spinlock.h
core.c	stat.h
core.c	stat.h
core.c	stat.h
core.c	stat.h
core.c	stat.h
core.c	syscore_ops.h
core.c	syscore_ops.h
core.c	syscore_ops.h
core.c	syscore_ops.h
core.c	syscore_ops.h
coupled.c	cpu.h
coupled.c	cpuidle.h
coupled.c	cpuidle.h
coupled.c	kernel.h
coupled.c	mutex.h
coupled.c	sched.h
coupled.c	slab.h
coupled.c	spinlock.h
cpg.c	clk.h
cpg.c	compiler.h
cpg.c	io.h
cpg.c	sh_clk.h
cpg.c	slab.h
cpuidle-calxeda.c	cacheflush.h
cpuidle-calxeda.c	cp15.h
cpuidle-calxeda.c	cpuidle.h
cpuidle-calxeda.c	cpuidle.h
cpuidle-calxeda.c	delay.h
cpuidle-calxeda.c	init.h
cpuidle-calxeda.c	io.h
cpuidle-calxeda.c	of.h
cpuidle-calxeda.c	proc-fns.h
cpuidle-calxeda.c	smp_scu.h
cpuidle-calxeda.c	suspend.h
cpuidle-calxeda.c	suspend.h
cpuidle-calxeda.c	time.h
cpuidle.c	cpu.h
cpuidle.c	cpuidle.h
cpuidle.c	cpuidle.h
cpuidle.c	hrtimer.h
cpuidle.c	kernel.h
cpuidle.c	ktime.h
cpuidle.c	module.h
cpuidle.c	mutex.h
cpuidle.c	notifier.h
cpuidle.c	pm_qos.h
cpuidle.c	power.h
cpuidle.c	sched.h
crisv10.h	circ_buf.h
crisv10.h	dma.h
crisv10.h	io_interface_mux.h
crisv10.h	termios.h
cyclades.c	bitops.h
cyclades.c	cyclades.h
cyclades.c	delay.h
cyclades.c	device.h
cyclades.c	errno.h
cyclades.c	fcntl.h
cyclades.c	firmware.h
cyclades.c	init.h
cyclades.c	interrupt.h
cyclades.c	io.h
cyclades.c	ioport.h
cyclades.c	kernel.h
cyclades.c	major.h
cyclades.c	mm.h
cyclades.c	module.h
cyclades.c	pci.h
cyclades.c	proc_fs.h
cyclades.c	ptrace.h
cyclades.c	sched.h
cyclades.c	seq_file.h
cyclades.c	serial.h
cyclades.c	signal.h
cyclades.c	slab.h
cyclades.c	spinlock.h
cyclades.c	stat.h
cyclades.c	string.h
cyclades.c	timer.h
cyclades.c	tty.h
cyclades.c	tty_flip.h
cyclades.c	uaccess.h
devfreq.c	devfreq.h
devfreq.c	err.h
devfreq.c	errno.h
devfreq.c	governor.h
devfreq.c	hrtimer.h
devfreq.c	init.h
devfreq.c	kernel.h
devfreq.c	list.h
devfreq.c	module.h
devfreq.c	opp.h
devfreq.c	platform_device.h
devfreq.c	printk.h
devfreq.c	sched.h
devfreq.c	slab.h
devfreq.c	stat.h
devfreq.c	workqueue.h
dino.c	delay.h
dino.c	gsc.h
dino.c	hardware.h
dino.c	init.h
dino.c	interrupt.h
dino.c	io.h
dino.c	ioport.h
dino.c	kernel.h
dino.c	page.h
dino.c	pci.h
dino.c	pdc.h
dino.c	slab.h
dino.c	spinlock.h
dino.c	types.h
driver.c	cpuidle.h
driver.c	cpuidle.h
driver.c	module.h
driver.c	mutex.h
ds1wm.c	core.h
ds1wm.c	delay.h
ds1wm.c	ds1wm.h
ds1wm.c	err.h
ds1wm.c	interrupt.h
ds1wm.c	io.h
ds1wm.c	irq.h
ds1wm.c	module.h
ds1wm.c	platform_device.h
ds1wm.c	pm.h
ds1wm.c	slab.h
ds1wm.c	w1.h
ds1wm.c	w1_int.h
ds2482.c	delay.h
ds2482.c	delay.h
ds2482.c	i2c.h
ds2482.c	init.h
ds2482.c	module.h
ds2482.c	slab.h
ds2482.c	w1.h
ds2482.c	w1_int.h
ds2490.c	kernel.h
ds2490.c	mod_devicetable.h
ds2490.c	module.h
ds2490.c	slab.h
ds2490.c	usb.h
ds2490.c	w1.h
ds2490.c	w1_int.h
dz.c	atomic.h
dz.c	bitops.h
dz.c	bootinfo.h
dz.c	compiler.h
dz.c	console.h
dz.c	delay.h
dz.c	dz.h
dz.c	errno.h
dz.c	init.h
dz.c	interrupt.h
dz.c	interrupts.h
dz.c	io.h
dz.c	ioport.h
dz.c	kernel.h
dz.c	kn01.h
dz.c	kn02.h
dz.c	machtype.h
dz.c	major.h
dz.c	module.h
dz.c	prom.h
dz.c	serial.h
dz.c	serial_core.h
dz.c	sysrq.h
dz.c	system.h
dz.c	tty.h
dz.c	tty_flip.h
ecrc.c	errno.h
ecrc.c	kernel.h
ecrc.c	module.h
ecrc.c	moduleparam.h
ecrc.c	pci.h
ecrc.c	pci.h
ecrc.c	pci_regs.h
efm32-uart.c	clk.h
efm32-uart.c	console.h
efm32-uart.c	efm32-uart.h
efm32-uart.c	io.h
efm32-uart.c	kernel.h
efm32-uart.c	module.h
efm32-uart.c	of.h
efm32-uart.c	of_device.h
efm32-uart.c	platform_device.h
efm32-uart.c	serial_core.h
efm32-uart.c	slab.h
efm32-uart.c	sysrq.h
efm32-uart.c	tty_flip.h
ehv_bytechan.c	cdev.h
ehv_bytechan.c	circ_buf.h
ehv_bytechan.c	console.h
ehv_bytechan.c	epapr_hcalls.h
ehv_bytechan.c	err.h
ehv_bytechan.c	fs.h
ehv_bytechan.c	init.h
ehv_bytechan.c	interrupt.h
ehv_bytechan.c	module.h
ehv_bytechan.c	of.h
ehv_bytechan.c	platform_device.h
ehv_bytechan.c	poll.h
ehv_bytechan.c	slab.h
ehv_bytechan.c	tty.h
ehv_bytechan.c	tty_flip.h
ehv_bytechan.c	udbg.h
eisa.c	byteorder.h
eisa.c	delay.h
eisa.c	eisa.h
eisa.c	eisa_bus.h
eisa.c	eisa_eeprom.h
eisa.c	hardware.h
eisa.c	init.h
eisa.c	interrupt.h
eisa.c	io.h
eisa.c	ioport.h
eisa.c	kernel.h
eisa.c	module.h
eisa.c	parisc-device.h
eisa.c	pci.h
eisa.c	processor.h
eisa.c	spinlock.h
eisa_eeprom.c	eisa_eeprom.h
eisa_eeprom.c	fs.h
eisa_eeprom.c	init.h
eisa_eeprom.c	io.h
eisa_eeprom.c	kernel.h
eisa_eeprom.c	miscdevice.h
eisa_eeprom.c	module.h
eisa_eeprom.c	slab.h
eisa_eeprom.c	uaccess.h
eisa_enumerator.c	byteorder.h
eisa_enumerator.c	eisa_bus.h
eisa_enumerator.c	eisa_eeprom.h
eisa_enumerator.c	init.h
eisa_enumerator.c	io.h
eisa_enumerator.c	ioport.h
eisa_enumerator.c	kernel.h
eisa_enumerator.c	slab.h
eisa_enumerator.c	uaccess.h
exynos4_bus.c	consumer.h
exynos4_bus.c	devfreq.h
exynos4_bus.c	io.h
exynos4_bus.c	map-s5p.h
exynos4_bus.c	module.h
exynos4_bus.c	mutex.h
exynos4_bus.c	opp.h
exynos4_bus.c	platform_device.h
exynos4_bus.c	regs-clock.h
exynos4_bus.c	slab.h
exynos4_bus.c	suspend.h
governor.c	cpuidle.h
governor.c	cpuidle.h
governor.c	module.h
governor.c	mutex.h
governor.h	devfreq.h
governor_performance.c	devfreq.h
governor_performance.c	governor.h
governor_performance.c	module.h
governor_powersave.c	devfreq.h
governor_powersave.c	governor.h
governor_powersave.c	module.h
governor_simpleondemand.c	devfreq.h
governor_simpleondemand.c	errno.h
governor_simpleondemand.c	governor.h
governor_simpleondemand.c	math64.h
governor_simpleondemand.c	module.h
governor_userspace.c	devfreq.h
governor_userspace.c	device.h
governor_userspace.c	governor.h
governor_userspace.c	module.h
governor_userspace.c	mutex.h
governor_userspace.c	pm.h
governor_userspace.c	slab.h
gpio.c	consumer.h
gpio.c	gpio.h
gpio.c	init.h
gpio.c	module.h
gpio.c	platform_device.h
gpio.c	sh_pfc.h
gpio.c	slab.h
gpio.c	spinlock.h
gsc.c	bitops.h
gsc.c	errno.h
gsc.c	gsc.h
gsc.c	hardware.h
gsc.c	init.h
gsc.c	interrupt.h
gsc.c	io.h
gsc.c	ioport.h
gsc.c	module.h
gsc.c	types.h
gsc.h	hardware.h
gsc.h	interrupt.h
gsc.h	parisc-device.h
handle.c	init.h
handle.c	internals.h
handle.c	irq.h
handle.c	spinlock.h
hardware.c	hardware.h
hardware.c	interrupt.h
hardware.c	io.h
hardware.c	irq.h
hardware.c	kernel.h
hardware.c	list.h
hardware.c	main.h
hardware.c	network.h
hardware.c	setup_protocol.h
hardware.c	slab.h
hardware.h	interrupt.h
hardware.h	sched.h
hardware.h	types.h
hid-a4tech.c	device.h
hid-a4tech.c	hid-ids.h
hid-a4tech.c	hid.h
hid-a4tech.c	input.h
hid-a4tech.c	module.h
hid-a4tech.c	slab.h
hid-apple.c	device.h
hid-apple.c	hid-ids.h
hid-apple.c	hid.h
hid-apple.c	module.h
hid-apple.c	slab.h
hid-apple.c	usb.h
hid-aureal.c	device.h
hid-aureal.c	hid-ids.h
hid-aureal.c	hid.h
hid-aureal.c	module.h
hid-axff.c	hid-ids.h
hid-axff.c	hid.h
hid-axff.c	input.h
hid-axff.c	module.h
hid-axff.c	slab.h
hid-axff.c	usb.h
hid-axff.c	usbhid.h
hid-belkin.c	device.h
hid-belkin.c	hid-ids.h
hid-belkin.c	hid.h
hid-belkin.c	module.h
hid-cherry.c	device.h
hid-cherry.c	hid-ids.h
hid-cherry.c	hid.h
hid-cherry.c	module.h
hid-chicony.c	device.h
hid-chicony.c	hid-ids.h
hid-chicony.c	hid.h
hid-chicony.c	input.h
hid-chicony.c	module.h
hid-core.c	byteorder.h
hid-core.c	byteorder.h
hid-core.c	hid-debug.h
hid-core.c	hid-debug.h
hid-core.c	hid.h
hid-core.c	hid.h
hid-core.c	hiddev.h
hid-core.c	hiddev.h
hid-core.c	hidraw.h
hid-core.c	hidraw.h
hid-core.c	init.h
hid-core.c	init.h
hid-core.c	input.h
hid-core.c	input.h
hid-core.c	kernel.h
hid-core.c	kernel.h
hid-core.c	list.h
hid-core.c	list.h
hid-core.c	mm.h
hid-core.c	mm.h
hid-core.c	module.h
hid-core.c	module.h
hid-core.c	mutex.h
hid-core.c	mutex.h
hid-core.c	slab.h
hid-core.c	slab.h
hid-core.c	spinlock.h
hid-core.c	spinlock.h
hid-core.c	string.h
hid-core.c	string.h
hid-core.c	unaligned.h
hid-core.c	unaligned.h
hid-core.c	usb.h
hid-core.c	usb.h
hid-core.c	usbhid.h
hid-core.c	usbhid.h
hid-core.c	wait.h
hid-core.c	wait.h
hid-core.c	workqueue.h
hid-core.c	workqueue.h
hid-cypress.c	device.h
hid-cypress.c	hid-ids.h
hid-cypress.c	hid.h
hid-cypress.c	input.h
hid-cypress.c	module.h
hid-debug.c	debugfs.h
hid-debug.c	export.h
hid-debug.c	hid-debug.h
hid-debug.c	hid.h
hid-debug.c	poll.h
hid-debug.c	sched.h
hid-debug.c	seq_file.h
hid-debug.c	slab.h
hid-debug.c	uaccess.h
hid-dr.c	hid-ids.h
hid-dr.c	hid.h
hid-dr.c	input.h
hid-dr.c	module.h
hid-dr.c	slab.h
hid-dr.c	usb.h
hid-dr.c	usbhid.h
hid-elecom.c	device.h
hid-elecom.c	hid-ids.h
hid-elecom.c	hid.h
hid-elecom.c	module.h
hid-emsff.c	hid-ids.h
hid-emsff.c	hid.h
hid-emsff.c	input.h
hid-emsff.c	module.h
hid-emsff.c	usb.h
hid-emsff.c	usbhid.h
hid-ezkey.c	device.h
hid-ezkey.c	hid-ids.h
hid-ezkey.c	hid.h
hid-ezkey.c	input.h
hid-ezkey.c	module.h
hid-gaff.c	hid-ids.h
hid-gaff.c	hid.h
hid-gaff.c	input.h
hid-gaff.c	module.h
hid-gaff.c	slab.h
hid-gaff.c	usb.h
hid-gaff.c	usbhid.h
hid-generic.c	byteorder.h
hid-generic.c	hid.h
hid-generic.c	kernel.h
hid-generic.c	module.h
hid-generic.c	slab.h
hid-generic.c	unaligned.h
hid-gyration.c	device.h
hid-gyration.c	hid-ids.h
hid-gyration.c	hid.h
hid-gyration.c	input.h
hid-gyration.c	module.h
hid-holtek-kbd.c	device.h
hid-holtek-kbd.c	hid-ids.h
hid-holtek-kbd.c	hid.h
hid-holtek-kbd.c	module.h
hid-holtek-kbd.c	usb.h
hid-holtek-kbd.c	usbhid.h
hid-holtekff.c	hid-ids.h
hid-holtekff.c	hid.h
hid-holtekff.c	input.h
hid-holtekff.c	module.h
hid-holtekff.c	slab.h
hid-holtekff.c	usb.h
hid-holtekff.c	usbhid.h
hid-hyperv.c	completion.h
hid-hyperv.c	device.h
hid-hyperv.c	hid.h
hid-hyperv.c	hiddev.h
hid-hyperv.c	hyperv.h
hid-hyperv.c	init.h
hid-hyperv.c	input.h
hid-hyperv.c	module.h
hid-icade.c	assert.h
hid-icade.c	device.h
hid-icade.c	hid-ids.h
hid-icade.c	hid.h
hid-icade.c	input.h
hid-icade.c	module.h
hid-icade.c	stdio.h
hid-input.c	hid-debug.h
hid-input.c	hid-ids.h
hid-input.c	hid.h
hid-input.c	kernel.h
hid-input.c	module.h
hid-input.c	slab.h
hid-kensington.c	device.h
hid-kensington.c	hid-ids.h
hid-kensington.c	hid.h
hid-kensington.c	input.h
hid-kensington.c	module.h
hid-keytouch.c	device.h
hid-keytouch.c	hid-ids.h
hid-keytouch.c	hid.h
hid-keytouch.c	module.h
hid-kye.c	device.h
hid-kye.c	hid-ids.h
hid-kye.c	hid.h
hid-kye.c	module.h
hid-kye.c	usb.h
hid-kye.c	usbhid.h
hid-lcpower.c	device.h
hid-lcpower.c	hid-ids.h
hid-lcpower.c	hid.h
hid-lcpower.c	module.h
hid-lenovo-tpkbd.c	device.h
hid-lenovo-tpkbd.c	hid-ids.h
hid-lenovo-tpkbd.c	hid.h
hid-lenovo-tpkbd.c	input.h
hid-lenovo-tpkbd.c	leds.h
hid-lenovo-tpkbd.c	module.h
hid-lenovo-tpkbd.c	sysfs.h
hid-lenovo-tpkbd.c	usb.h
hid-lenovo-tpkbd.c	usbhid.h
hid-lg.c	device.h
hid-lg.c	hid-ids.h
hid-lg.c	hid-lg.h
hid-lg.c	hid.h
hid-lg.c	module.h
hid-lg.c	random.h
hid-lg.c	sched.h
hid-lg.c	wait.h
hid-lg2ff.c	hid-lg.h
hid-lg2ff.c	hid.h
hid-lg2ff.c	input.h
hid-lg2ff.c	slab.h
hid-lg2ff.c	usb.h
hid-lg2ff.c	usbhid.h
hid-lg3ff.c	hid-lg.h
hid-lg3ff.c	hid.h
hid-lg3ff.c	input.h
hid-lg3ff.c	usb.h
hid-lg3ff.c	usbhid.h
hid-lg4ff.c	hid-ids.h
hid-lg4ff.c	hid-lg.h
hid-lg4ff.c	hid.h
hid-lg4ff.c	input.h
hid-lg4ff.c	usb.h
hid-lg4ff.c	usbhid.h
hid-lgff.c	hid-lg.h
hid-lgff.c	hid.h
hid-lgff.c	input.h
hid-lgff.c	usb.h
hid-lgff.c	usbhid.h
hid-logitech-dj.c	device.h
hid-logitech-dj.c	hid-ids.h
hid-logitech-dj.c	hid-logitech-dj.h
hid-logitech-dj.c	hid.h
hid-logitech-dj.c	module.h
hid-logitech-dj.c	unaligned.h
hid-logitech-dj.c	usb.h
hid-logitech-dj.c	usbhid.h
hid-logitech-dj.h	kfifo.h
hid-magicmouse.c	device.h
hid-magicmouse.c	hid-ids.h
hid-magicmouse.c	hid.h
hid-magicmouse.c	module.h
hid-magicmouse.c	mt.h
hid-magicmouse.c	slab.h
hid-magicmouse.c	usb.h
hid-microsoft.c	device.h
hid-microsoft.c	hid-ids.h
hid-microsoft.c	hid.h
hid-microsoft.c	input.h
hid-microsoft.c	module.h
hid-monterey.c	device.h
hid-monterey.c	hid-ids.h
hid-monterey.c	hid.h
hid-monterey.c	module.h
hid-multitouch.c	device.h
hid-multitouch.c	hid-ids.h
hid-multitouch.c	hid.h
hid-multitouch.c	module.h
hid-multitouch.c	mt.h
hid-multitouch.c	slab.h
hid-multitouch.c	usb.h
hid-multitouch.c	usbhid.h
hid-ntrig.c	device.h
hid-ntrig.c	hid-ids.h
hid-ntrig.c	hid.h
hid-ntrig.c	module.h
hid-ntrig.c	slab.h
hid-ntrig.c	usb.h
hid-ntrig.c	usbhid.h
hid-ortek.c	device.h
hid-ortek.c	hid-ids.h
hid-ortek.c	hid.h
hid-ortek.c	module.h
hid-petalynx.c	device.h
hid-petalynx.c	hid-ids.h
hid-petalynx.c	hid.h
hid-petalynx.c	module.h
hid-picolcd_backlight.c	backlight.h
hid-picolcd_backlight.c	fb.h
hid-picolcd_backlight.c	hid-picolcd.h
hid-picolcd_backlight.c	hid.h
hid-picolcd_backlight.c	usb.h
hid-picolcd_backlight.c	usbhid.h
hid-picolcd_cir.c	backlight.h
hid-picolcd_cir.c	completion.h
hid-picolcd_cir.c	debugfs.h
hid-picolcd_cir.c	fb.h
hid-picolcd_cir.c	hid-debug.h
hid-picolcd_cir.c	hid-ids.h
hid-picolcd_cir.c	hid-picolcd.h
hid-picolcd_cir.c	hid.h
hid-picolcd_cir.c	input.h
hid-picolcd_cir.c	lcd.h
hid-picolcd_cir.c	leds.h
hid-picolcd_cir.c	module.h
hid-picolcd_cir.c	rc-core.h
hid-picolcd_cir.c	seq_file.h
hid-picolcd_cir.c	uaccess.h
hid-picolcd_cir.c	usb.h
hid-picolcd_cir.c	usbhid.h
hid-picolcd_cir.c	vmalloc.h
hid-picolcd_core.c	completion.h
hid-picolcd_core.c	fb.h
hid-picolcd_core.c	hid-debug.h
hid-picolcd_core.c	hid-ids.h
hid-picolcd_core.c	hid-picolcd.h
hid-picolcd_core.c	hid.h
hid-picolcd_core.c	input.h
hid-picolcd_core.c	module.h
hid-picolcd_core.c	uaccess.h
hid-picolcd_core.c	usb.h
hid-picolcd_core.c	usbhid.h
hid-picolcd_core.c	vmalloc.h
hid-picolcd_debugfs.c	debugfs.h
hid-picolcd_debugfs.c	fb.h
hid-picolcd_debugfs.c	hid-debug.h
hid-picolcd_debugfs.c	hid-picolcd.h
hid-picolcd_debugfs.c	hid.h
hid-picolcd_debugfs.c	module.h
hid-picolcd_debugfs.c	seq_file.h
hid-picolcd_debugfs.c	uaccess.h
hid-picolcd_debugfs.c	usb.h
hid-picolcd_debugfs.c	usbhid.h
hid-picolcd_fb.c	fb.h
hid-picolcd_fb.c	hid-picolcd.h
hid-picolcd_fb.c	hid.h
hid-picolcd_fb.c	module.h
hid-picolcd_fb.c	usb.h
hid-picolcd_fb.c	usbhid.h
hid-picolcd_fb.c	vmalloc.h
hid-picolcd_lcd.c	fb.h
hid-picolcd_lcd.c	hid-picolcd.h
hid-picolcd_lcd.c	hid.h
hid-picolcd_lcd.c	lcd.h
hid-picolcd_lcd.c	usb.h
hid-picolcd_lcd.c	usbhid.h
hid-picolcd_leds.c	backlight.h
hid-picolcd_leds.c	completion.h
hid-picolcd_leds.c	debugfs.h
hid-picolcd_leds.c	fb.h
hid-picolcd_leds.c	hid-debug.h
hid-picolcd_leds.c	hid-ids.h
hid-picolcd_leds.c	hid-picolcd.h
hid-picolcd_leds.c	hid.h
hid-picolcd_leds.c	input.h
hid-picolcd_leds.c	lcd.h
hid-picolcd_leds.c	leds.h
hid-picolcd_leds.c	module.h
hid-picolcd_leds.c	seq_file.h
hid-picolcd_leds.c	uaccess.h
hid-picolcd_leds.c	usb.h
hid-picolcd_leds.c	usbhid.h
hid-picolcd_leds.c	vmalloc.h
hid-pidff.c	hid.h
hid-pidff.c	input.h
hid-pidff.c	slab.h
hid-pidff.c	usb.h
hid-pidff.c	usbhid.h
hid-pl.c	hid-ids.h
hid-pl.c	hid.h
hid-pl.c	input.h
hid-pl.c	module.h
hid-pl.c	slab.h
hid-pl.c	usb.h
hid-pl.c	usbhid.h
hid-primax.c	device.h
hid-primax.c	hid-ids.h
hid-primax.c	hid.h
hid-primax.c	module.h
hid-prodikeys.c	core.h
hid-prodikeys.c	device.h
hid-prodikeys.c	hid-ids.h
hid-prodikeys.c	hid.h
hid-prodikeys.c	initval.h
hid-prodikeys.c	module.h
hid-prodikeys.c	mutex.h
hid-prodikeys.c	rawmidi.h
hid-prodikeys.c	usb.h
hid-prodikeys.c	usbhid.h
hid-ps3remote.c	device.h
hid-ps3remote.c	hid-ids.h
hid-ps3remote.c	hid.h
hid-ps3remote.c	module.h
hid-quirks.c	export.h
hid-quirks.c	hid-ids.h
hid-quirks.c	hid.h
hid-quirks.c	slab.h
hid-roccat-arvo.c	device.h
hid-roccat-arvo.c	hid-ids.h
hid-roccat-arvo.c	hid-roccat-arvo.h
hid-roccat-arvo.c	hid-roccat-common.h
hid-roccat-arvo.c	hid-roccat.h
hid-roccat-arvo.c	hid.h
hid-roccat-arvo.c	input.h
hid-roccat-arvo.c	module.h
hid-roccat-arvo.c	slab.h
hid-roccat-arvo.h	types.h
hid-roccat-common.c	hid-roccat-common.h
hid-roccat-common.c	hid.h
hid-roccat-common.c	module.h
hid-roccat-common.c	slab.h
hid-roccat-common.h	types.h
hid-roccat-common.h	usb.h
hid-roccat-isku.c	device.h
hid-roccat-isku.c	hid-ids.h
hid-roccat-isku.c	hid-roccat-common.h
hid-roccat-isku.c	hid-roccat-isku.h
hid-roccat-isku.c	hid-roccat.h
hid-roccat-isku.c	hid.h
hid-roccat-isku.c	input.h
hid-roccat-isku.c	module.h
hid-roccat-isku.c	slab.h
hid-roccat-isku.h	types.h
hid-roccat-kone.c	device.h
hid-roccat-kone.c	hid-ids.h
hid-roccat-kone.c	hid-roccat-common.h
hid-roccat-kone.c	hid-roccat-kone.h
hid-roccat-kone.c	hid-roccat.h
hid-roccat-kone.c	hid.h
hid-roccat-kone.c	input.h
hid-roccat-kone.c	module.h
hid-roccat-kone.c	slab.h
hid-roccat-kone.h	types.h
hid-roccat-koneplus.c	device.h
hid-roccat-koneplus.c	hid-ids.h
hid-roccat-koneplus.c	hid-roccat-common.h
hid-roccat-koneplus.c	hid-roccat-koneplus.h
hid-roccat-koneplus.c	hid-roccat.h
hid-roccat-koneplus.c	hid.h
hid-roccat-koneplus.c	input.h
hid-roccat-koneplus.c	module.h
hid-roccat-koneplus.c	slab.h
hid-roccat-koneplus.h	types.h
hid-roccat-kovaplus.c	device.h
hid-roccat-kovaplus.c	hid-ids.h
hid-roccat-kovaplus.c	hid-roccat-common.h
hid-roccat-kovaplus.c	hid-roccat-kovaplus.h
hid-roccat-kovaplus.c	hid-roccat.h
hid-roccat-kovaplus.c	hid.h
hid-roccat-kovaplus.c	input.h
hid-roccat-kovaplus.c	module.h
hid-roccat-kovaplus.c	slab.h
hid-roccat-kovaplus.h	types.h
hid-roccat-lua.c	device.h
hid-roccat-lua.c	hid-ids.h
hid-roccat-lua.c	hid-roccat-common.h
hid-roccat-lua.c	hid-roccat-lua.h
hid-roccat-lua.c	hid-roccat.h
hid-roccat-lua.c	hid.h
hid-roccat-lua.c	input.h
hid-roccat-lua.c	module.h
hid-roccat-lua.c	slab.h
hid-roccat-lua.h	types.h
hid-roccat-pyra.c	device.h
hid-roccat-pyra.c	hid-ids.h
hid-roccat-pyra.c	hid-roccat-common.h
hid-roccat-pyra.c	hid-roccat-pyra.h
hid-roccat-pyra.c	hid-roccat.h
hid-roccat-pyra.c	hid.h
hid-roccat-pyra.c	input.h
hid-roccat-pyra.c	module.h
hid-roccat-pyra.c	slab.h
hid-roccat-pyra.h	types.h
hid-roccat-savu.c	device.h
hid-roccat-savu.c	hid-ids.h
hid-roccat-savu.c	hid-roccat-common.h
hid-roccat-savu.c	hid-roccat-savu.h
hid-roccat-savu.c	hid-roccat.h
hid-roccat-savu.c	hid.h
hid-roccat-savu.c	input.h
hid-roccat-savu.c	module.h
hid-roccat-savu.c	slab.h
hid-roccat-savu.h	types.h
hid-roccat.c	cdev.h
hid-roccat.c	hid-roccat.h
hid-roccat.c	module.h
hid-roccat.c	poll.h
hid-roccat.c	sched.h
hid-saitek.c	device.h
hid-saitek.c	hid-ids.h
hid-saitek.c	hid.h
hid-saitek.c	kernel.h
hid-saitek.c	module.h
hid-samsung.c	device.h
hid-samsung.c	hid-ids.h
hid-samsung.c	hid.h
hid-samsung.c	module.h
hid-samsung.c	usb.h
hid-sensor-hub.c	core.h
hid-sensor-hub.c	device.h
hid-sensor-hub.c	hid-ids.h
hid-sensor-hub.c	hid-sensor-hub.h
hid-sensor-hub.c	hid-sensor-ids.h
hid-sensor-hub.c	hid.h
hid-sensor-hub.c	list.h
hid-sensor-hub.c	module.h
hid-sensor-hub.c	slab.h
hid-sensor-hub.c	usb.h
hid-sensor-hub.c	usbhid.h
hid-sjoy.c	hid-ids.h
hid-sjoy.c	hid.h
hid-sjoy.c	input.h
hid-sjoy.c	module.h
hid-sjoy.c	slab.h
hid-sjoy.c	usb.h
hid-sjoy.c	usbhid.h
hid-sony.c	device.h
hid-sony.c	hid-ids.h
hid-sony.c	hid.h
hid-sony.c	module.h
hid-sony.c	slab.h
hid-sony.c	usb.h
hid-speedlink.c	device.h
hid-speedlink.c	hid-ids.h
hid-speedlink.c	hid.h
hid-speedlink.c	module.h
hid-speedlink.c	usb.h
hid-speedlink.c	usbhid.h
hid-sunplus.c	device.h
hid-sunplus.c	hid-ids.h
hid-sunplus.c	hid.h
hid-sunplus.c	module.h
hid-tivo.c	device.h
hid-tivo.c	hid-ids.h
hid-tivo.c	hid.h
hid-tivo.c	module.h
hid-tmff.c	hid-ids.h
hid-tmff.c	hid.h
hid-tmff.c	input.h
hid-tmff.c	module.h
hid-tmff.c	slab.h
hid-tmff.c	usb.h
hid-tmff.c	usbhid.h
hid-topseed.c	device.h
hid-topseed.c	hid-ids.h
hid-topseed.c	hid.h
hid-topseed.c	module.h
hid-twinhan.c	device.h
hid-twinhan.c	hid-ids.h
hid-twinhan.c	hid.h
hid-twinhan.c	input.h
hid-twinhan.c	module.h
hid-uclogic.c	device.h
hid-uclogic.c	hid-ids.h
hid-uclogic.c	hid.h
hid-uclogic.c	module.h
hid-uclogic.c	usb.h
hid-wacom.c	device.h
hid-wacom.c	hid-ids.h
hid-wacom.c	hid.h
hid-wacom.c	leds.h
hid-wacom.c	module.h
hid-wacom.c	power_supply.h
hid-wacom.c	slab.h
hid-waltop.c	device.h
hid-waltop.c	hid-ids.h
hid-waltop.c	hid.h
hid-waltop.c	module.h
hid-wiimote-core.c	completion.h
hid-wiimote-core.c	device.h
hid-wiimote-core.c	hid-ids.h
hid-wiimote-core.c	hid-wiimote.h
hid-wiimote-core.c	hid.h
hid-wiimote-core.c	input.h
hid-wiimote-core.c	leds.h
hid-wiimote-core.c	module.h
hid-wiimote-core.c	mutex.h
hid-wiimote-core.c	power_supply.h
hid-wiimote-core.c	spinlock.h
hid-wiimote-debug.c	debugfs.h
hid-wiimote-debug.c	hid-wiimote.h
hid-wiimote-debug.c	module.h
hid-wiimote-debug.c	seq_file.h
hid-wiimote-debug.c	spinlock.h
hid-wiimote-debug.c	uaccess.h
hid-wiimote-ext.c	atomic.h
hid-wiimote-ext.c	hid-wiimote.h
hid-wiimote-ext.c	module.h
hid-wiimote-ext.c	spinlock.h
hid-wiimote-ext.c	workqueue.h
hid-wiimote.h	completion.h
hid-wiimote.h	device.h
hid-wiimote.h	hid.h
hid-wiimote.h	input.h
hid-wiimote.h	leds.h
hid-wiimote.h	module.h
hid-wiimote.h	mutex.h
hid-wiimote.h	power_supply.h
hid-wiimote.h	spinlock.h
hid-zpff.c	hid-ids.h
hid-zpff.c	hid.h
hid-zpff.c	input.h
hid-zpff.c	module.h
hid-zpff.c	slab.h
hid-zpff.c	usb.h
hid-zpff.c	usbhid.h
hid-zydacron.c	device.h
hid-zydacron.c	hid-ids.h
hid-zydacron.c	hid.h
hid-zydacron.c	module.h
hiddev.c	compat.h
hiddev.c	hid.h
hiddev.c	hiddev.h
hiddev.c	init.h
hiddev.c	input.h
hiddev.c	module.h
hiddev.c	poll.h
hiddev.c	slab.h
hiddev.c	usb.h
hiddev.c	usbhid.h
hiddev.c	vmalloc.h
hidraw.c	cdev.h
hidraw.c	device.h
hidraw.c	errno.h
hidraw.c	fs.h
hidraw.c	hid.h
hidraw.c	hidraw.h
hidraw.c	init.h
hidraw.c	kernel.h
hidraw.c	major.h
hidraw.c	module.h
hidraw.c	mutex.h
hidraw.c	poll.h
hidraw.c	sched.h
hidraw.c	slab.h
host-bridge.c	init.h
host-bridge.c	kernel.h
host-bridge.c	module.h
host-bridge.c	pci.h
host-bridge.c	pci.h
hppb.c	dma-mapping.h
hppb.c	hardware.h
hppb.c	init.h
hppb.c	io.h
hppb.c	ioport.h
hppb.c	mm.h
hppb.c	parisc-device.h
hppb.c	slab.h
hppb.c	types.h
hvc_beat.c	console.h
hvc_beat.c	err.h
hvc_beat.c	firmware.h
hvc_beat.c	hvc_console.h
hvc_beat.c	hvconsole.h
hvc_beat.c	init.h
hvc_beat.c	module.h
hvc_beat.c	prom.h
hvc_beat.c	string.h
hvc_bfin_jtag.c	console.h
hvc_bfin_jtag.c	delay.h
hvc_bfin_jtag.c	err.h
hvc_bfin_jtag.c	hvc_console.h
hvc_bfin_jtag.c	init.h
hvc_bfin_jtag.c	moduleparam.h
hvc_bfin_jtag.c	types.h
hvc_console.c	console.h
hvc_console.c	cpumask.h
hvc_console.c	delay.h
hvc_console.c	freezer.h
hvc_console.c	hvc_console.h
hvc_console.c	init.h
hvc_console.c	kbd_kern.h
hvc_console.c	kernel.h
hvc_console.c	kthread.h
hvc_console.c	list.h
hvc_console.c	major.h
hvc_console.c	module.h
hvc_console.c	sched.h
hvc_console.c	serial_core.h
hvc_console.c	slab.h
hvc_console.c	spinlock.h
hvc_console.c	sysrq.h
hvc_console.c	tty.h
hvc_console.c	tty_flip.h
hvc_console.c	uaccess.h
hvc_console.h	kref.h
hvc_console.h	spinlock.h
hvc_console.h	tty.h
hvc_console.h	xmon.h
hvc_dcc.c	console.h
hvc_dcc.c	delay.h
hvc_dcc.c	err.h
hvc_dcc.c	hvc_console.h
hvc_dcc.c	init.h
hvc_dcc.c	moduleparam.h
hvc_dcc.c	processor.h
hvc_dcc.c	types.h
hvc_irq.c	hvc_console.h
hvc_irq.c	interrupt.h
hvc_iucv.c	ctype.h
hvc_iucv.c	delay.h
hvc_iucv.c	device.h
hvc_iucv.c	ebcdic.h
hvc_iucv.c	hvc_console.h
hvc_iucv.c	init.h
hvc_iucv.c	iucv.h
hvc_iucv.c	mempool.h
hvc_iucv.c	moduleparam.h
hvc_iucv.c	slab.h
hvc_iucv.c	tty.h
hvc_iucv.c	types.h
hvc_iucv.c	wait.h
hvc_opal.c	console.h
hvc_opal.c	delay.h
hvc_opal.c	export.h
hvc_opal.c	firmware.h
hvc_opal.c	hvc_console.h
hvc_opal.c	hvconsole.h
hvc_opal.c	hvsi.h
hvc_opal.c	init.h
hvc_opal.c	of.h
hvc_opal.c	of_platform.h
hvc_opal.c	opal.h
hvc_opal.c	prom.h
hvc_opal.c	slab.h
hvc_opal.c	types.h
hvc_opal.c	udbg.h
hvc_rtas.c	console.h
hvc_rtas.c	delay.h
hvc_rtas.c	err.h
hvc_rtas.c	hvc_console.h
hvc_rtas.c	init.h
hvc_rtas.c	irq.h
hvc_rtas.c	moduleparam.h
hvc_rtas.c	rtas.h
hvc_rtas.c	types.h
hvc_tile.c	console.h
hvc_tile.c	delay.h
hvc_tile.c	err.h
hvc_tile.c	hvc_console.h
hvc_tile.c	hypervisor.h
hvc_tile.c	init.h
hvc_tile.c	moduleparam.h
hvc_tile.c	types.h
hvc_udbg.c	console.h
hvc_udbg.c	delay.h
hvc_udbg.c	err.h
hvc_udbg.c	hvc_console.h
hvc_udbg.c	init.h
hvc_udbg.c	irq.h
hvc_udbg.c	moduleparam.h
hvc_udbg.c	types.h
hvc_udbg.c	udbg.h
hvc_vio.c	console.h
hvc_vio.c	delay.h
hvc_vio.c	hvc_console.h
hvc_vio.c	hvconsole.h
hvc_vio.c	hvsi.h
hvc_vio.c	init.h
hvc_vio.c	module.h
hvc_vio.c	prom.h
hvc_vio.c	slab.h
hvc_vio.c	types.h
hvc_vio.c	udbg.h
hvc_vio.c	vio.h
hvc_xen.c	console.h
hvc_xen.c	console.h
hvc_xen.c	delay.h
hvc_xen.c	err.h
hvc_xen.c	events.h
hvc_xen.c	grant_table.h
hvc_xen.c	hvc-console.h
hvc_xen.c	hvc_console.h
hvc_xen.c	hvm.h
hvc_xen.c	hypervisor.h
hvc_xen.c	init.h
hvc_xen.c	io.h
hvc_xen.c	irq.h
hvc_xen.c	list.h
hvc_xen.c	page.h
hvc_xen.c	sched.h
hvc_xen.c	types.h
hvc_xen.c	xen.h
hvc_xen.c	xen.h
hvc_xen.c	xenbus.h
hvcs.c	device.h
hvcs.c	hvconsole.h
hvcs.c	hvcserver.h
hvcs.c	init.h
hvcs.c	interrupt.h
hvcs.c	kernel.h
hvcs.c	kref.h
hvcs.c	kthread.h
hvcs.c	list.h
hvcs.c	major.h
hvcs.c	module.h
hvcs.c	moduleparam.h
hvcs.c	sched.h
hvcs.c	slab.h
hvcs.c	spinlock.h
hvcs.c	stat.h
hvcs.c	tty.h
hvcs.c	tty_flip.h
hvcs.c	uaccess.h
hvcs.c	vio.h
hvsi.c	console.h
hvsi.c	ctype.h
hvsi.c	delay.h
hvsi.c	hvcall.h
hvsi.c	hvconsole.h
hvsi.c	hvsi.h
hvsi.c	init.h
hvsi.c	interrupt.h
hvsi.c	kernel.h
hvsi.c	major.h
hvsi.c	module.h
hvsi.c	param.h
hvsi.c	prom.h
hvsi.c	spinlock.h
hvsi.c	sysrq.h
hvsi.c	tty.h
hvsi.c	tty_flip.h
hvsi.c	uaccess.h
hvsi.c	vio.h
hvsi_lib.c	console.h
hvsi_lib.c	delay.h
hvsi_lib.c	hvc_console.h
hvsi_lib.c	hvsi.h
hvsi_lib.c	init.h
hvsi_lib.c	slab.h
hvsi_lib.c	types.h
hwspinlock_core.c	err.h
hwspinlock_core.c	hwspinlock.h
hwspinlock_core.c	hwspinlock_internal.h
hwspinlock_core.c	jiffies.h
hwspinlock_core.c	kernel.h
hwspinlock_core.c	module.h
hwspinlock_core.c	mutex.h
hwspinlock_core.c	pm_runtime.h
hwspinlock_core.c	radix-tree.h
hwspinlock_core.c	spinlock.h
hwspinlock_core.c	types.h
hwspinlock_internal.h	device.h
hwspinlock_internal.h	spinlock.h
hypercalls.c	ktime.h
hypercalls.c	lg.h
hypercalls.c	mm.h
hypercalls.c	page.h
hypercalls.c	pgtable.h
hypercalls.c	syscalls.h
hypercalls.c	uaccess.h
i2c-hid.c	delay.h
i2c-hid.c	device.h
i2c-hid.c	err.h
i2c-hid.c	hid.h
i2c-hid.c	i2c-hid.h
i2c-hid.c	i2c.h
i2c-hid.c	input.h
i2c-hid.c	interrupt.h
i2c-hid.c	jiffies.h
i2c-hid.c	kernel.h
i2c-hid.c	list.h
i2c-hid.c	module.h
i2c-hid.c	mutex.h
i2c-hid.c	pm.h
i2c-hid.c	slab.h
i2c-hid.c	string.h
i2c-hid.c	wait.h
internals.h	device.h
internals.h	irq.h
internals.h	irqdomain.h
internals.h	kernel.h
internals.h	list.h
internals.h	radix-tree.h
internals.h	sh_intc.h
internals.h	types.h
interrupts_and_traps.c	interrupt.h
interrupts_and_traps.c	lg.h
interrupts_and_traps.c	module.h
interrupts_and_traps.c	sched.h
interrupts_and_traps.c	uaccess.h
iommu-helpers.h	prefetch.h
iosapic.c	byteorder.h
iosapic.c	init.h
iosapic.c	interrupt.h
iosapic.c	io.h
iosapic.c	iosapic_private.h
iosapic.c	kernel.h
iosapic.c	page.h
iosapic.c	pci.h
iosapic.c	pdc.h
iosapic.c	pdcpat.h
iosapic.c	ropes.h
iosapic.c	slab.h
iosapic.c	spinlock.h
iosapic.c	superio.h
iosapic.c	types.h
irqdomain.c	export.h
irqdomain.c	internals.h
irqdomain.c	irqdomain.h
irqdomain.c	sh_intc.h
isicom.c	delay.h
isicom.c	firmware.h
isicom.c	fs.h
isicom.c	interrupt.h
isicom.c	io.h
isicom.c	ioport.h
isicom.c	isicom.h
isicom.c	kernel.h
isicom.c	mm.h
isicom.c	module.h
isicom.c	pci.h
isicom.c	sched.h
isicom.c	serial.h
isicom.c	slab.h
isicom.c	termios.h
isicom.c	timer.h
isicom.c	tty.h
isicom.c	tty_flip.h
isicom.c	uaccess.h
keyboard.c	consolemap.h
keyboard.c	init.h
keyboard.c	input.h
keyboard.c	irq_regs.h
keyboard.c	jiffies.h
keyboard.c	kbd_diacr.h
keyboard.c	kbd_kern.h
keyboard.c	kbdleds.h
keyboard.c	mm.h
keyboard.c	module.h
keyboard.c	notifier.h
keyboard.c	reboot.h
keyboard.c	sched.h
keyboard.c	slab.h
keyboard.c	string.h
keyboard.c	tty.h
keyboard.c	tty_flip.h
keyboard.c	uaccess.h
keyboard.c	vt_kern.h
kgdb_nmi.c	atomic.h
kgdb_nmi.c	compiler.h
kgdb_nmi.c	console.h
kgdb_nmi.c	errno.h
kgdb_nmi.c	hrtimer.h
kgdb_nmi.c	init.h
kgdb_nmi.c	interrupt.h
kgdb_nmi.c	kdb.h
kgdb_nmi.c	kernel.h
kgdb_nmi.c	kfifo.h
kgdb_nmi.c	kgdb.h
kgdb_nmi.c	module.h
kgdb_nmi.c	slab.h
kgdb_nmi.c	tick.h
kgdb_nmi.c	tty.h
kgdb_nmi.c	tty_driver.h
kgdb_nmi.c	tty_flip.h
ladder.c	cpuidle.h
ladder.c	io.h
ladder.c	jiffies.h
ladder.c	kernel.h
ladder.c	module.h
ladder.c	pm_qos.h
ladder.c	uaccess.h
lasi.c	errno.h
lasi.c	gsc.h
lasi.c	hardware.h
lasi.c	init.h
lasi.c	interrupt.h
lasi.c	io.h
lasi.c	led.h
lasi.c	module.h
lasi.c	pm.h
lasi.c	slab.h
lasi.c	types.h
lba_pci.c	byteorder.h
lba_pci.c	delay.h
lba_pci.c	hardware.h
lba_pci.c	init.h
lba_pci.c	io.h
lba_pci.c	ioport.h
lba_pci.c	kernel.h
lba_pci.c	page.h
lba_pci.c	parisc-device.h
lba_pci.c	pci.h
lba_pci.c	pdc.h
lba_pci.c	pdcpat.h
lba_pci.c	ropes.h
lba_pci.c	slab.h
lba_pci.c	spinlock.h
lba_pci.c	types.h
led.c	blkdev.h
led.c	capability.h
led.c	ctype.h
led.c	delay.h
led.c	hardware.h
led.c	in.h
led.c	inetdevice.h
led.c	init.h
led.c	interrupt.h
led.c	io.h
led.c	ioport.h
led.c	kernel_stat.h
led.c	led.h
led.c	module.h
led.c	netdevice.h
led.c	param.h
led.c	pdc.h
led.c	proc_fs.h
led.c	processor.h
led.c	rcupdate.h
led.c	reboot.h
led.c	seq_file.h
led.c	stddef.h
led.c	types.h
led.c	uaccess.h
led.c	utsname.h
led.c	workqueue.h
lg.h	err.h
lg.h	hrtimer.h
lg.h	init.h
lg.h	lguest.h
lg.h	lguest.h
lg.h	lguest_launcher.h
lg.h	slab.h
lg.h	stringify.h
lg.h	types.h
lg.h	wait.h
lguest_device.c	bootmem.h
lguest_device.c	err.h
lguest_device.c	export.h
lguest_device.c	init.h
lguest_device.c	interrupt.h
lguest_device.c	io.h
lguest_device.c	lguest_hcall.h
lguest_device.c	lguest_launcher.h
lguest_device.c	paravirt.h
lguest_device.c	slab.h
lguest_device.c	virtio.h
lguest_device.c	virtio_config.h
lguest_device.c	virtio_ring.h
lguest_user.c	eventfd.h
lguest_user.c	export.h
lguest_user.c	file.h
lguest_user.c	fs.h
lguest_user.c	lg.h
lguest_user.c	miscdevice.h
lguest_user.c	sched.h
lguest_user.c	slab.h
lguest_user.c	uaccess.h
m32r_sio.c	console.h
m32r_sio.c	delay.h
m32r_sio.c	init.h
m32r_sio.c	io.h
m32r_sio.c	ioport.h
m32r_sio.c	irq.h
m32r_sio.c	m32r.h
m32r_sio.c	m32r_sio.h
m32r_sio.c	m32r_sio_reg.h
m32r_sio.c	module.h
m32r_sio.c	serial.h
m32r_sio.c	serial_core.h
m32r_sio.c	sysrq.h
m32r_sio.c	tty.h
m32r_sio.c	tty_flip.h
m32r_sio.h	pci.h
main.c	cisreg.h
main.c	delay.h
main.c	device_id.h
main.c	ds.h
main.c	hardware.h
main.c	init.h
main.c	io.h
main.c	kernel.h
main.c	main.h
main.c	module.h
main.c	network.h
main.c	sched.h
main.c	slab.h
main.c	ss.h
main.c	tty.h
main.h	cistpl.h
main.h	ds.h
main.h	hardware.h
main.h	sched.h
main.h	types.h
maple.c	cacheflush.h
maple.c	delay.h
maple.c	device.h
maple.c	dma-mapping.h
maple.c	dma.h
maple.c	dma.h
maple.c	init.h
maple.c	interrupt.h
maple.c	io.h
maple.c	io.h
maple.c	kernel.h
maple.c	list.h
maple.c	maple.h
maple.c	module.h
maple.c	slab.h
maple.c	sysasic.h
matrox_w1.c	atomic.h
matrox_w1.c	delay.h
matrox_w1.c	interrupt.h
matrox_w1.c	io.h
matrox_w1.c	kernel.h
matrox_w1.c	list.h
matrox_w1.c	module.h
matrox_w1.c	pci.h
matrox_w1.c	pci_ids.h
matrox_w1.c	slab.h
matrox_w1.c	spinlock.h
matrox_w1.c	timer.h
matrox_w1.c	types.h
matrox_w1.c	w1.h
matrox_w1.c	w1_int.h
matrox_w1.c	w1_log.h
mcf.c	coldfire.h
mcf.c	console.h
mcf.c	init.h
mcf.c	interrupt.h
mcf.c	io.h
mcf.c	kernel.h
mcf.c	mcfsim.h
mcf.c	mcfuart.h
mcf.c	module.h
mcf.c	nettel.h
mcf.c	serial.h
mcf.c	serial_core.h
mcf.c	tty.h
mcf.c	tty_flip.h
menu.c	cpuidle.h
menu.c	hrtimer.h
menu.c	kernel.h
menu.c	ktime.h
menu.c	math64.h
menu.c	module.h
menu.c	pm_qos.h
menu.c	sched.h
menu.c	tick.h
menu.c	time.h
mfd.c	circ_buf.h
mfd.c	console.h
mfd.c	debugfs.h
mfd.c	delay.h
mfd.c	dma-mapping.h
mfd.c	init.h
mfd.c	interrupt.h
mfd.c	io.h
mfd.c	module.h
mfd.c	nmi.h
mfd.c	pci.h
mfd.c	pm_runtime.h
mfd.c	serial_core.h
mfd.c	serial_mfd.h
mfd.c	serial_reg.h
mfd.c	slab.h
mfd.c	sysrq.h
mfd.c	tty.h
mfd.c	tty_flip.h
moxa.c	bitops.h
moxa.c	delay.h
moxa.c	errno.h
moxa.c	fcntl.h
moxa.c	firmware.h
moxa.c	init.h
moxa.c	interrupt.h
moxa.c	io.h
moxa.c	ioport.h
moxa.c	major.h
moxa.c	mm.h
moxa.c	module.h
moxa.c	moxa.h
moxa.c	pci.h
moxa.c	ptrace.h
moxa.c	ratelimit.h
moxa.c	sched.h
moxa.c	serial.h
moxa.c	signal.h
moxa.c	slab.h
moxa.c	string.h
moxa.c	timer.h
moxa.c	tty.h
moxa.c	tty_driver.h
moxa.c	tty_flip.h
moxa.c	types.h
moxa.c	uaccess.h
mrst_max3110.c	console.h
mrst_max3110.c	init.h
mrst_max3110.c	ioport.h
mrst_max3110.c	irq.h
mrst_max3110.c	kthread.h
mrst_max3110.c	module.h
mrst_max3110.c	mrst_max3110.h
mrst_max3110.c	serial_core.h
mrst_max3110.c	serial_reg.h
mrst_max3110.c	spi.h
mrst_max3110.c	tty.h
mrst_max3110.c	tty_flip.h
msm_serial_hs.c	atomic.h
msm_serial_hs.c	clk.h
msm_serial_hs.c	dma-mapping.h
msm_serial_hs.c	dma.h
msm_serial_hs.c	dmapool.h
msm_serial_hs.c	hardware.h
msm_serial_hs.c	init.h
msm_serial_hs.c	interrupt.h
msm_serial_hs.c	io.h
msm_serial_hs.c	ioport.h
msm_serial_hs.c	irq.h
msm_serial_hs.c	irq.h
msm_serial_hs.c	kernel.h
msm_serial_hs.c	module.h
msm_serial_hs.c	msm_serial_hs.h
msm_serial_hs.c	platform_device.h
msm_serial_hs.c	pm_runtime.h
msm_serial_hs.c	serial.h
msm_serial_hs.c	serial_core.h
msm_serial_hs.c	slab.h
msm_serial_hs.c	timer.h
msm_serial_hs.c	tty.h
msm_serial_hs.c	tty_flip.h
msm_serial_hs.c	wait.h
msm_serial_hs.c	workqueue.h
mxc_w1.c	clk.h
mxc_w1.c	delay.h
mxc_w1.c	interrupt.h
mxc_w1.c	io.h
mxc_w1.c	module.h
mxc_w1.c	platform_device.h
mxc_w1.c	slab.h
mxc_w1.c	w1.h
mxc_w1.c	w1_int.h
mxc_w1.c	w1_log.h
mxser.c	bitops.h
mxser.c	delay.h
mxser.c	errno.h
mxser.c	fcntl.h
mxser.c	interrupt.h
mxser.c	io.h
mxser.c	ioport.h
mxser.c	irq.h
mxser.c	major.h
mxser.c	mm.h
mxser.c	module.h
mxser.c	mxser.h
mxser.c	pci.h
mxser.c	ptrace.h
mxser.c	ratelimit.h
mxser.c	sched.h
mxser.c	serial.h
mxser.c	serial_reg.h
mxser.c	signal.h
mxser.c	slab.h
mxser.c	string.h
mxser.c	timer.h
mxser.c	tty.h
mxser.c	tty_flip.h
mxser.c	uaccess.h
n_gsm.c	arp.h
n_gsm.c	bitops.h
n_gsm.c	ctype.h
n_gsm.c	errno.h
n_gsm.c	etherdevice.h
n_gsm.c	fcntl.h
n_gsm.c	file.h
n_gsm.c	gsmmux.h
n_gsm.c	interrupt.h
n_gsm.c	ip.h
n_gsm.c	kfifo.h
n_gsm.c	major.h
n_gsm.c	mm.h
n_gsm.c	module.h
n_gsm.c	netdevice.h
n_gsm.c	poll.h
n_gsm.c	sched.h
n_gsm.c	serial.h
n_gsm.c	signal.h
n_gsm.c	skbuff.h
n_gsm.c	slab.h
n_gsm.c	string.h
n_gsm.c	timer.h
n_gsm.c	tty.h
n_gsm.c	tty_driver.h
n_gsm.c	tty_flip.h
n_gsm.c	types.h
n_gsm.c	uaccess.h
n_hdlc.c	bitops.h
n_hdlc.c	errno.h
n_hdlc.c	fcntl.h
n_hdlc.c	if.h
n_hdlc.c	in.h
n_hdlc.c	init.h
n_hdlc.c	interrupt.h
n_hdlc.c	ioctl.h
n_hdlc.c	kernel.h
n_hdlc.c	module.h
n_hdlc.c	poll.h
n_hdlc.c	ptrace.h
n_hdlc.c	sched.h
n_hdlc.c	signal.h
n_hdlc.c	slab.h
n_hdlc.c	string.h
n_hdlc.c	termios.h
n_hdlc.c	tty.h
n_hdlc.c	types.h
n_hdlc.c	uaccess.h
n_r3964.c	errno.h
n_r3964.c	fcntl.h
n_r3964.c	in.h
n_r3964.c	init.h
n_r3964.c	interrupt.h
n_r3964.c	ioctl.h
n_r3964.c	ioport.h
n_r3964.c	kernel.h
n_r3964.c	module.h
n_r3964.c	n_r3964.h
n_r3964.c	poll.h
n_r3964.c	ptrace.h
n_r3964.c	sched.h
n_r3964.c	signal.h
n_r3964.c	slab.h
n_r3964.c	string.h
n_r3964.c	tty.h
n_r3964.c	types.h
n_r3964.c	uaccess.h
n_tracerouter.c	bug.h
n_tracerouter.c	errno.h
n_tracerouter.c	init.h
n_tracerouter.c	ioctl.h
n_tracerouter.c	kernel.h
n_tracerouter.c	module.h
n_tracerouter.c	mutex.h
n_tracerouter.c	n_tracesink.h
n_tracerouter.c	slab.h
n_tracerouter.c	string.h
n_tracerouter.c	tty.h
n_tracerouter.c	tty_ldisc.h
n_tracerouter.c	types.h
n_tracesink.c	bug.h
n_tracesink.c	errno.h
n_tracesink.c	init.h
n_tracesink.c	ioctl.h
n_tracesink.c	kernel.h
n_tracesink.c	module.h
n_tracesink.c	n_tracesink.h
n_tracesink.c	string.h
n_tracesink.c	tty.h
n_tracesink.c	tty_ldisc.h
n_tracesink.c	types.h
n_tty.c	audit.h
n_tty.c	bitops.h
n_tty.c	ctype.h
n_tty.c	errno.h
n_tty.c	fcntl.h
n_tty.c	file.h
n_tty.c	interrupt.h
n_tty.c	major.h
n_tty.c	mm.h
n_tty.c	module.h
n_tty.c	poll.h
n_tty.c	sched.h
n_tty.c	signal.h
n_tty.c	slab.h
n_tty.c	string.h
n_tty.c	timer.h
n_tty.c	tty.h
n_tty.c	types.h
n_tty.c	uaccess.h
network.c	hardware.h
network.c	interrupt.h
network.c	kernel.h
network.c	main.h
network.c	mutex.h
network.c	netdevice.h
network.c	network.h
network.c	ppp-ioctl.h
network.c	ppp_channel.h
network.c	ppp_defs.h
network.c	skbuff.h
network.c	slab.h
network.c	tty.h
network.h	types.h
nozomi.c	byteorder.h
nozomi.c	delay.h
nozomi.c	init.h
nozomi.c	interrupt.h
nozomi.c	ioport.h
nozomi.c	kernel.h
nozomi.c	kfifo.h
nozomi.c	kmod.h
nozomi.c	module.h
nozomi.c	pci.h
nozomi.c	sched.h
nozomi.c	serial.h
nozomi.c	slab.h
nozomi.c	tty.h
nozomi.c	tty_driver.h
nozomi.c	tty_flip.h
nozomi.c	uaccess.h
omap_hdq.c	err.h
omap_hdq.c	interrupt.h
omap_hdq.c	io.h
omap_hdq.c	kernel.h
omap_hdq.c	module.h
omap_hdq.c	platform_device.h
omap_hdq.c	pm_runtime.h
omap_hdq.c	sched.h
omap_hdq.c	slab.h
omap_hdq.c	w1.h
omap_hdq.c	w1_int.h
omap_hwspinlock.c	bitops.h
omap_hwspinlock.c	delay.h
omap_hwspinlock.c	device.h
omap_hwspinlock.c	hwspinlock.h
omap_hwspinlock.c	hwspinlock_internal.h
omap_hwspinlock.c	io.h
omap_hwspinlock.c	kernel.h
omap_hwspinlock.c	module.h
omap_hwspinlock.c	platform_device.h
omap_hwspinlock.c	pm_runtime.h
omap_hwspinlock.c	slab.h
omap_hwspinlock.c	spinlock.h
page_tables.c	gfp.h
page_tables.c	lg.h
page_tables.c	mm.h
page_tables.c	percpu.h
page_tables.c	random.h
page_tables.c	spinlock.h
page_tables.c	tlbflush.h
page_tables.c	types.h
page_tables.c	uaccess.h
pdc_stable.c	capability.h
pdc_stable.c	ctype.h
pdc_stable.c	device.h
pdc_stable.c	errno.h
pdc_stable.c	hardware.h
pdc_stable.c	init.h
pdc_stable.c	kernel.h
pdc_stable.c	kobject.h
pdc_stable.c	module.h
pdc_stable.c	page.h
pdc_stable.c	pdc.h
pdc_stable.c	spinlock.h
pdc_stable.c	string.h
pdc_stable.c	sysfs.h
pdc_stable.c	uaccess.h
pinctrl.c	consumer.h
pinctrl.c	err.h
pinctrl.c	init.h
pinctrl.c	module.h
pinctrl.c	pinconf-generic.h
pinctrl.c	pinconf.h
pinctrl.c	pinctrl.h
pinctrl.c	pinmux.h
pinctrl.c	platform_device.h
pinctrl.c	sh_pfc.h
pinctrl.c	slab.h
pinctrl.c	spinlock.h
pm_runtime.c	bitmap.h
pm_runtime.c	clk.h
pm_runtime.c	init.h
pm_runtime.c	io.h
pm_runtime.c	kernel.h
pm_runtime.c	platform_device.h
pm_runtime.c	pm_clock.h
pm_runtime.c	pm_domain.h
pm_runtime.c	pm_runtime.h
pm_runtime.c	sh_clk.h
pm_runtime.c	slab.h
pmac_zilog.c	adb.h
pmac_zilog.c	bitops.h
pmac_zilog.c	console.h
pmac_zilog.c	dbdma.h
pmac_zilog.c	delay.h
pmac_zilog.c	fcntl.h
pmac_zilog.c	init.h
pmac_zilog.c	io.h
pmac_zilog.c	irq.h
pmac_zilog.c	kernel.h
pmac_zilog.c	machdep.h
pmac_zilog.c	macio.h
pmac_zilog.c	major.h
pmac_zilog.c	mm.h
pmac_zilog.c	module.h
pmac_zilog.c	mutex.h
pmac_zilog.c	platform_device.h
pmac_zilog.c	pmac_feature.h
pmac_zilog.c	pmac_zilog.h
pmac_zilog.c	pmu.h
pmac_zilog.c	prom.h
pmac_zilog.c	sections.h
pmac_zilog.c	serial.h
pmac_zilog.c	serial_core.h
pmac_zilog.c	string.h
pmac_zilog.c	sysrq.h
pmac_zilog.c	tty.h
pmac_zilog.c	tty_flip.h
pme.c	acpi.h
pme.c	device.h
pme.c	errno.h
pme.c	init.h
pme.c	interrupt.h
pme.c	kernel.h
pme.c	module.h
pme.c	pci-acpi.h
pme.c	pci.h
pme.c	pci.h
pme.c	pcieport_if.h
pme.c	pm_runtime.h
pme.c	portdrv.h
pme.c	slab.h
pnx8xxx_uart.c	console.h
pnx8xxx_uart.c	device.h
pnx8xxx_uart.c	init.h
pnx8xxx_uart.c	io.h
pnx8xxx_uart.c	ioport.h
pnx8xxx_uart.c	irq.h
pnx8xxx_uart.c	module.h
pnx8xxx_uart.c	platform_device.h
pnx8xxx_uart.c	serial.h
pnx8xxx_uart.c	serial_core.h
pnx8xxx_uart.c	serial_pnx8xxx.h
pnx8xxx_uart.c	sysrq.h
pnx8xxx_uart.c	tty.h
pnx8xxx_uart.c	tty_flip.h
portdrv_core.c	aer.h
portdrv_core.c	errno.h
portdrv_core.c	kernel.h
portdrv_core.c	module.h
portdrv_core.c	pci.h
portdrv_core.c	pci.h
portdrv_core.c	pcieport_if.h
portdrv_core.c	pm.h
portdrv_core.c	portdrv.h
portdrv_core.c	slab.h
portdrv_core.c	string.h
portdrv_pci.c	aer.h
portdrv_pci.c	aerdrv.h
portdrv_pci.c	dmi.h
portdrv_pci.c	errno.h
portdrv_pci.c	init.h
portdrv_pci.c	kernel.h
portdrv_pci.c	module.h
portdrv_pci.c	pci-aspm.h
portdrv_pci.c	pci.h
portdrv_pci.c	pcieport_if.h
portdrv_pci.c	pm.h
portdrv_pci.c	pm_runtime.h
portdrv_pci.c	portdrv.h
power.c	init.h
power.c	io.h
power.c	kernel.h
power.c	kthread.h
power.c	led.h
power.c	module.h
power.c	notifier.h
power.c	pdc.h
power.c	pm.h
power.c	reboot.h
power.c	sched.h
pty.c	bitops.h
pty.c	device.h
pty.c	devpts_fs.h
pty.c	errno.h
pty.c	fcntl.h
pty.c	init.h
pty.c	interrupt.h
pty.c	major.h
pty.c	mm.h
pty.c	module.h
pty.c	mutex.h
pty.c	sched.h
pty.c	slab.h
pty.c	string.h
pty.c	tty.h
pty.c	tty_flip.h
pty.c	uaccess.h
pxa.c	circ_buf.h
pxa.c	clk.h
pxa.c	console.h
pxa.c	delay.h
pxa.c	init.h
pxa.c	interrupt.h
pxa.c	io.h
pxa.c	ioport.h
pxa.c	module.h
pxa.c	of.h
pxa.c	platform_device.h
pxa.c	serial_core.h
pxa.c	serial_reg.h
pxa.c	slab.h
pxa.c	sysrq.h
pxa.c	tty.h
pxa.c	tty_flip.h
rocket.c	atomic.h
rocket.c	bitops.h
rocket.c	completion.h
rocket.c	delay.h
rocket.c	errno.h
rocket.c	fcntl.h
rocket.c	init.h
rocket.c	interrupt.h
rocket.c	ioport.h
rocket.c	kernel.h
rocket.c	major.h
rocket.c	mm.h
rocket.c	module.h
rocket.c	mutex.h
rocket.c	pci.h
rocket.c	ptrace.h
rocket.c	rocket.h
rocket.c	rocket_int.h
rocket.c	sched.h
rocket.c	serial.h
rocket.c	signal.h
rocket.c	slab.h
rocket.c	spinlock.h
rocket.c	string.h
rocket.c	timer.h
rocket.c	tty.h
rocket.c	tty_driver.h
rocket.c	tty_flip.h
rocket.c	uaccess.h
rocket.c	unaligned.h
rocket.c	wait.h
rocket_int.h	byteorder.h
rocket_int.h	io.h
rocket_int.h	mutex.h
rom.c	export.h
rom.c	kernel.h
rom.c	pci.h
rom.c	pci.h
rom.c	slab.h
sba_iommu.c	byteorder.h
sba_iommu.c	dma.h
sba_iommu.c	hardware.h
sba_iommu.c	init.h
sba_iommu.c	io.h
sba_iommu.c	iommu-helper.h
sba_iommu.c	iommu-helpers.h
sba_iommu.c	kernel.h
sba_iommu.c	mckinley.h
sba_iommu.c	mm.h
sba_iommu.c	module.h
sba_iommu.c	page.h
sba_iommu.c	parisc-device.h
sba_iommu.c	pci.h
sba_iommu.c	pdc.h
sba_iommu.c	pdcpat.h
sba_iommu.c	proc_fs.h
sba_iommu.c	ropes.h
sba_iommu.c	runway.h
sba_iommu.c	scatterlist.h
sba_iommu.c	seq_file.h
sba_iommu.c	slab.h
sba_iommu.c	spinlock.h
sba_iommu.c	string.h
sba_iommu.c	types.h
sc26xx.c	circ_buf.h
sc26xx.c	console.h
sc26xx.c	delay.h
sc26xx.c	errno.h
sc26xx.c	init.h
sc26xx.c	io.h
sc26xx.c	irq.h
sc26xx.c	kernel.h
sc26xx.c	major.h
sc26xx.c	module.h
sc26xx.c	platform_device.h
sc26xx.c	serial.h
sc26xx.c	serial_core.h
sc26xx.c	slab.h
sc26xx.c	spinlock.h
sc26xx.c	sysrq.h
sc26xx.c	tty.h
sc26xx.c	tty_flip.h
search.c	init.h
search.c	interrupt.h
search.c	module.h
search.c	pci.h
search.c	pci.h
search.c	slab.h
segments.c	lg.h
selection.c	console.h
selection.c	consolemap.h
selection.c	kbd_kern.h
selection.c	mm.h
selection.c	module.h
selection.c	sched.h
selection.c	selection.h
selection.c	slab.h
selection.c	tiocl.h
selection.c	tty.h
selection.c	types.h
selection.c	uaccess.h
selection.c	vt_kern.h
serial_cs.c	8250.h
serial_cs.c	ciscode.h
serial_cs.c	cisreg.h
serial_cs.c	cistpl.h
serial_cs.c	delay.h
serial_cs.c	ds.h
serial_cs.c	init.h
serial_cs.c	io.h
serial_cs.c	kernel.h
serial_cs.c	major.h
serial_cs.c	module.h
serial_cs.c	moduleparam.h
serial_cs.c	ptrace.h
serial_cs.c	serial_core.h
serial_cs.c	slab.h
serial_cs.c	string.h
serial_cs.c	timer.h
sh-sci.c	clk.h
sh-sci.c	console.h
sh-sci.c	cpufreq.h
sh-sci.c	ctype.h
sh-sci.c	delay.h
sh-sci.c	dma-mapping.h
sh-sci.c	dmaengine.h
sh-sci.c	err.h
sh-sci.c	errno.h
sh-sci.c	gpio.h
sh-sci.c	init.h
sh-sci.c	interrupt.h
sh-sci.c	ioport.h
sh-sci.c	major.h
sh-sci.c	mm.h
sh-sci.c	module.h
sh-sci.c	notifier.h
sh-sci.c	platform_device.h
sh-sci.c	pm_runtime.h
sh-sci.c	scatterlist.h
sh-sci.c	serial.h
sh-sci.c	serial_sci.h
sh-sci.c	sh-sci.h
sh-sci.c	sh_bios.h
sh-sci.c	sh_dma.h
sh-sci.c	slab.h
sh-sci.c	string.h
sh-sci.c	sysrq.h
sh-sci.c	timer.h
sh-sci.c	tty.h
sh-sci.c	tty_flip.h
sn_console.c	circ_buf.h
sn_console.c	console.h
sn_console.c	delay.h
sn_console.c	interrupt.h
sn_console.c	io.h
sn_console.c	miscdevice.h
sn_console.c	module.h
sn_console.c	serial.h
sn_console.c	serial_core.h
sn_console.c	serial_reg.h
sn_console.c	simulator.h
sn_console.c	sn_sal.h
sn_console.c	sysrq.h
sn_console.c	tty.h
sn_console.c	tty_flip.h
sunsab.c	circ_buf.h
sunsab.c	console.h
sunsab.c	delay.h
sunsab.c	errno.h
sunsab.c	init.h
sunsab.c	io.h
sunsab.c	ioport.h
sunsab.c	irq.h
sunsab.c	kernel.h
sunsab.c	major.h
sunsab.c	module.h
sunsab.c	of_device.h
sunsab.c	prom.h
sunsab.c	ptrace.h
sunsab.c	serial.h
sunsab.c	serial_core.h
sunsab.c	setup.h
sunsab.c	slab.h
sunsab.c	spinlock.h
sunsab.c	string.h
sunsab.c	sunsab.h
sunsab.c	sunserialcore.h
sunsab.c	sysrq.h
sunsab.c	tty.h
sunsab.c	tty_flip.h
superhyway-sysfs.c	device.h
superhyway-sysfs.c	kernel.h
superhyway-sysfs.c	superhyway.h
superhyway-sysfs.c	types.h
superhyway.c	device.h
superhyway.c	init.h
superhyway.c	kernel.h
superhyway.c	list.h
superhyway.c	module.h
superhyway.c	slab.h
superhyway.c	string.h
superhyway.c	superhyway.h
superhyway.c	types.h
superio.c	delay.h
superio.c	errno.h
superio.c	hardware.h
superio.c	init.h
superio.c	interrupt.h
superio.c	io.h
superio.c	ioport.h
superio.c	module.h
superio.c	parport.h
superio.c	parport_pc.h
superio.c	pci.h
superio.c	serial.h
superio.c	serial_8250.h
superio.c	serial_core.h
superio.c	superio.h
superio.c	termios.h
superio.c	tty.h
superio.c	types.h
synclink.c	bitops.h
synclink.c	delay.h
synclink.c	dma-mapping.h
synclink.c	dma.h
synclink.c	errno.h
synclink.c	fcntl.h
synclink.c	hdlc.h
synclink.c	init.h
synclink.c	interrupt.h
synclink.c	io.h
synclink.c	ioctl.h
synclink.c	ioport.h
synclink.c	irq.h
synclink.c	major.h
synclink.c	mm.h
synclink.c	module.h
synclink.c	netdevice.h
synclink.c	pci.h
synclink.c	ptrace.h
synclink.c	sched.h
synclink.c	seq_file.h
synclink.c	serial.h
synclink.c	signal.h
synclink.c	slab.h
synclink.c	string.h
synclink.c	synclink.h
synclink.c	termios.h
synclink.c	timer.h
synclink.c	tty.h
synclink.c	tty_flip.h
synclink.c	types.h
synclink.c	uaccess.h
synclink.c	vmalloc.h
synclink.c	workqueue.h
synclink_gt.c	bitops.h
synclink_gt.c	delay.h
synclink_gt.c	dma.h
synclink_gt.c	errno.h
synclink_gt.c	fcntl.h
synclink_gt.c	hdlc.h
synclink_gt.c	init.h
synclink_gt.c	interrupt.h
synclink_gt.c	io.h
synclink_gt.c	ioctl.h
synclink_gt.c	ioport.h
synclink_gt.c	irq.h
synclink_gt.c	major.h
synclink_gt.c	mm.h
synclink_gt.c	module.h
synclink_gt.c	netdevice.h
synclink_gt.c	pci.h
synclink_gt.c	ptrace.h
synclink_gt.c	sched.h
synclink_gt.c	seq_file.h
synclink_gt.c	serial.h
synclink_gt.c	signal.h
synclink_gt.c	slab.h
synclink_gt.c	string.h
synclink_gt.c	synclink.h
synclink_gt.c	termios.h
synclink_gt.c	timer.h
synclink_gt.c	tty.h
synclink_gt.c	tty_flip.h
synclink_gt.c	types.h
synclink_gt.c	uaccess.h
synclink_gt.c	vmalloc.h
synclink_gt.c	workqueue.h
synclinkmp.c	bitops.h
synclinkmp.c	delay.h
synclinkmp.c	dma.h
synclinkmp.c	errno.h
synclinkmp.c	fcntl.h
synclinkmp.c	hdlc.h
synclinkmp.c	init.h
synclinkmp.c	interrupt.h
synclinkmp.c	io.h
synclinkmp.c	ioctl.h
synclinkmp.c	ioport.h
synclinkmp.c	irq.h
synclinkmp.c	major.h
synclinkmp.c	mm.h
synclinkmp.c	module.h
synclinkmp.c	netdevice.h
synclinkmp.c	pci.h
synclinkmp.c	ptrace.h
synclinkmp.c	sched.h
synclinkmp.c	seq_file.h
synclinkmp.c	serial.h
synclinkmp.c	signal.h
synclinkmp.c	slab.h
synclinkmp.c	string.h
synclinkmp.c	synclink.h
synclinkmp.c	termios.h
synclinkmp.c	timer.h
synclinkmp.c	tty.h
synclinkmp.c	tty_flip.h
synclinkmp.c	types.h
synclinkmp.c	uaccess.h
synclinkmp.c	vmalloc.h
synclinkmp.c	workqueue.h
sysfs.c	capability.h
sysfs.c	cpu.h
sysfs.c	cpuidle.h
sysfs.c	cpuidle.h
sysfs.c	device.h
sysfs.c	kernel.h
sysfs.c	slab.h
sysfs.c	sysfs.h
sysrq.c	fs.h
sysrq.c	ftrace.h
sysrq.c	hrtimer.h
sysrq.c	input.h
sysrq.c	interrupt.h
sysrq.c	irq_regs.h
sysrq.c	kbd_kern.h
sysrq.c	kdev_t.h
sysrq.c	kernel.h
sysrq.c	major.h
sysrq.c	mm.h
sysrq.c	module.h
sysrq.c	mount.h
sysrq.c	nmi.h
sysrq.c	oom.h
sysrq.c	perf_event.h
sysrq.c	proc_fs.h
sysrq.c	ptrace.h
sysrq.c	quotaops.h
sysrq.c	reboot.h
sysrq.c	sched.h
sysrq.c	slab.h
sysrq.c	spinlock.h
sysrq.c	suspend.h
sysrq.c	swap.h
sysrq.c	sysrq.h
sysrq.c	uaccess.h
sysrq.c	vt_kern.h
sysrq.c	workqueue.h
sysrq.c	writeback.h
timbuart.c	interrupt.h
timbuart.c	ioport.h
timbuart.c	kernel.h
timbuart.c	module.h
timbuart.c	pci.h
timbuart.c	platform_device.h
timbuart.c	serial_core.h
timbuart.c	slab.h
timbuart.c	timbuart.h
timbuart.c	tty.h
timbuart.c	tty_flip.h
tty.c	hardware.h
tty.c	if.h
tty.c	init.h
tty.c	kernel.h
tty.c	main.h
tty.c	module.h
tty.c	mutex.h
tty.c	network.h
tty.c	ppp-ioctl.h
tty.c	ppp_defs.h
tty.c	sched.h
tty.c	serial.h
tty.c	slab.h
tty.c	tty.h
tty.c	tty.h
tty.c	tty_driver.h
tty.c	tty_flip.h
tty.c	uaccess.h
tty.h	cistpl.h
tty.h	ds.h
tty.h	sched.h
tty.h	types.h
tty_audit.c	audit.h
tty_audit.c	slab.h
tty_audit.c	tty.h
tty_buffer.c	bitops.h
tty_buffer.c	delay.h
tty_buffer.c	errno.h
tty_buffer.c	init.h
tty_buffer.c	module.h
tty_buffer.c	sched.h
tty_buffer.c	slab.h
tty_buffer.c	string.h
tty_buffer.c	timer.h
tty_buffer.c	tty.h
tty_buffer.c	tty_driver.h
tty_buffer.c	tty_flip.h
tty_buffer.c	types.h
tty_buffer.c	wait.h
tty_io.c	bitops.h
tty_io.c	console.h
tty_io.c	ctype.h
tty_io.c	delay.h
tty_io.c	device.h
tty_io.c	devpts_fs.h
tty_io.c	errno.h
tty_io.c	fcntl.h
tty_io.c	fdtable.h
tty_io.c	file.h
tty_io.c	init.h
tty_io.c	interrupt.h
tty_io.c	kbd_kern.h
tty_io.c	kd.h
tty_io.c	kmod.h
tty_io.c	major.h
tty_io.c	mm.h
tty_io.c	module.h
tty_io.c	nsproxy.h
tty_io.c	poll.h
tty_io.c	proc_fs.h
tty_io.c	ratelimit.h
tty_io.c	sched.h
tty_io.c	selection.h
tty_io.c	seq_file.h
tty_io.c	serial.h
tty_io.c	signal.h
tty_io.c	slab.h
tty_io.c	string.h
tty_io.c	timer.h
tty_io.c	tty.h
tty_io.c	tty_driver.h
tty_io.c	tty_flip.h
tty_io.c	types.h
tty_io.c	uaccess.h
tty_io.c	vt_kern.h
tty_io.c	wait.h
tty_ioctl.c	bitops.h
tty_ioctl.c	compat.h
tty_ioctl.c	errno.h
tty_ioctl.c	fcntl.h
tty_ioctl.c	io.h
tty_ioctl.c	kernel.h
tty_ioctl.c	major.h
tty_ioctl.c	mm.h
tty_ioctl.c	module.h
tty_ioctl.c	mutex.h
tty_ioctl.c	sched.h
tty_ioctl.c	string.h
tty_ioctl.c	termios.h
tty_ioctl.c	tty.h
tty_ioctl.c	types.h
tty_ioctl.c	uaccess.h
tty_ldisc.c	bitops.h
tty_ldisc.c	device.h
tty_ldisc.c	errno.h
tty_ldisc.c	file.h
tty_ldisc.c	init.h
tty_ldisc.c	interrupt.h
tty_ldisc.c	kmod.h
tty_ldisc.c	mm.h
tty_ldisc.c	module.h
tty_ldisc.c	poll.h
tty_ldisc.c	proc_fs.h
tty_ldisc.c	ratelimit.h
tty_ldisc.c	sched.h
tty_ldisc.c	seq_file.h
tty_ldisc.c	slab.h
tty_ldisc.c	string.h
tty_ldisc.c	tty.h
tty_ldisc.c	tty_driver.h
tty_ldisc.c	types.h
tty_ldisc.c	uaccess.h
tty_ldisc.c	wait.h
tty_mutex.c	kallsyms.h
tty_mutex.c	module.h
tty_mutex.c	sched.h
tty_mutex.c	semaphore.h
tty_mutex.c	tty.h
tty_port.c	bitops.h
tty_port.c	delay.h
tty_port.c	errno.h
tty_port.c	init.h
tty_port.c	module.h
tty_port.c	sched.h
tty_port.c	serial.h
tty_port.c	slab.h
tty_port.c	string.h
tty_port.c	timer.h
tty_port.c	tty.h
tty_port.c	tty_driver.h
tty_port.c	tty_flip.h
tty_port.c	types.h
tty_port.c	wait.h
u8500_hsem.c	delay.h
u8500_hsem.c	hwspinlock.h
u8500_hsem.c	hwspinlock_internal.h
u8500_hsem.c	io.h
u8500_hsem.c	module.h
u8500_hsem.c	platform_device.h
u8500_hsem.c	pm_runtime.h
u8500_hsem.c	slab.h
u8500_hsem.c	spinlock.h
ucc_uart.c	dma-mapping.h
ucc_uart.c	firmware.h
ucc_uart.c	fs_uart_pd.h
ucc_uart.c	io.h
ucc_uart.c	module.h
ucc_uart.c	of_platform.h
ucc_uart.c	reg.h
ucc_uart.c	serial.h
ucc_uart.c	serial_core.h
ucc_uart.c	slab.h
ucc_uart.c	tty.h
ucc_uart.c	tty_flip.h
ucc_uart.c	ucc_slow.h
uhid.c	atomic.h
uhid.c	device.h
uhid.c	fs.h
uhid.c	hid.h
uhid.c	input.h
uhid.c	miscdevice.h
uhid.c	module.h
uhid.c	mutex.h
uhid.c	poll.h
uhid.c	sched.h
uhid.c	spinlock.h
uhid.c	uhid.h
uhid.c	wait.h
usbhid.h	input.h
usbhid.h	list.h
usbhid.h	mutex.h
usbhid.h	slab.h
usbhid.h	timer.h
usbhid.h	types.h
usbhid.h	wait.h
usbhid.h	workqueue.h
usbkbd.c	hid.h
usbkbd.c	init.h
usbkbd.c	input.h
usbkbd.c	kernel.h
usbkbd.c	module.h
usbkbd.c	slab.h
usbmouse.c	hid-ids.h
usbmouse.c	hid.h
usbmouse.c	init.h
usbmouse.c	input.h
usbmouse.c	kernel.h
usbmouse.c	module.h
usbmouse.c	slab.h
userimask.c	device.h
userimask.c	errno.h
userimask.c	init.h
userimask.c	internals.h
userimask.c	io.h
userimask.c	sizes.h
userimask.c	stat.h
vc_screen.c	byteorder.h
vc_screen.c	console.h
vc_screen.c	device.h
vc_screen.c	errno.h
vc_screen.c	export.h
vc_screen.c	fs.h
vc_screen.c	init.h
vc_screen.c	interrupt.h
vc_screen.c	kbd_kern.h
vc_screen.c	kernel.h
vc_screen.c	major.h
vc_screen.c	mm.h
vc_screen.c	notifier.h
vc_screen.c	poll.h
vc_screen.c	sched.h
vc_screen.c	selection.h
vc_screen.c	signal.h
vc_screen.c	slab.h
vc_screen.c	tty.h
vc_screen.c	uaccess.h
vc_screen.c	unaligned.h
vc_screen.c	vt_kern.h
virq-debugfs.c	debugfs.h
virq-debugfs.c	fs.h
virq-debugfs.c	init.h
virq-debugfs.c	internals.h
virq-debugfs.c	irq.h
virq-debugfs.c	seq_file.h
virq.c	export.h
virq.c	internals.h
virq.c	irq.h
virq.c	list.h
virq.c	radix-tree.h
virq.c	slab.h
virq.c	spinlock.h
virtio_rpmsg_bus.c	dma-mapping.h
virtio_rpmsg_bus.c	idr.h
virtio_rpmsg_bus.c	jiffies.h
virtio_rpmsg_bus.c	kernel.h
virtio_rpmsg_bus.c	module.h
virtio_rpmsg_bus.c	mutex.h
virtio_rpmsg_bus.c	rpmsg.h
virtio_rpmsg_bus.c	scatterlist.h
virtio_rpmsg_bus.c	sched.h
virtio_rpmsg_bus.c	slab.h
virtio_rpmsg_bus.c	virtio.h
virtio_rpmsg_bus.c	virtio_config.h
virtio_rpmsg_bus.c	virtio_ids.h
virtio_rpmsg_bus.c	wait.h
vt.c	bitops.h
vt.c	console.h
vt.c	consolemap.h
vt.c	ctype.h
vt.c	device.h
vt.c	errno.h
vt.c	font.h
vt.c	init.h
vt.c	interrupt.h
vt.c	io.h
vt.c	kbd_kern.h
vt.c	kd.h
vt.c	kdb.h
vt.c	kernel.h
vt.c	major.h
vt.c	mm.h
vt.c	module.h
vt.c	mutex.h
vt.c	notifier.h
vt.c	pm.h
vt.c	sched.h
vt.c	selection.h
vt.c	slab.h
vt.c	string.h
vt.c	timer.h
vt.c	tiocl.h
vt.c	tty.h
vt.c	tty_flip.h
vt.c	types.h
vt.c	uaccess.h
vt.c	vt_kern.h
vt.c	workqueue.h
vt8500_serial.c	clk.h
vt8500_serial.c	console.h
vt8500_serial.c	delay.h
vt8500_serial.c	hrtimer.h
vt8500_serial.c	init.h
vt8500_serial.c	io.h
vt8500_serial.c	ioport.h
vt8500_serial.c	irq.h
vt8500_serial.c	module.h
vt8500_serial.c	of.h
vt8500_serial.c	platform_device.h
vt8500_serial.c	serial.h
vt8500_serial.c	serial_core.h
vt8500_serial.c	slab.h
vt8500_serial.c	tty.h
vt8500_serial.c	tty_flip.h
vt_ioctl.c	compat.h
vt_ioctl.c	console.h
vt_ioctl.c	consolemap.h
vt_ioctl.c	errno.h
vt_ioctl.c	fs.h
vt_ioctl.c	io.h
vt_ioctl.c	kbd_diacr.h
vt_ioctl.c	kbd_kern.h
vt_ioctl.c	kd.h
vt_ioctl.c	kernel.h
vt_ioctl.c	major.h
vt_ioctl.c	module.h
vt_ioctl.c	sched.h
vt_ioctl.c	selection.h
vt_ioctl.c	signal.h
vt_ioctl.c	slab.h
vt_ioctl.c	string.h
vt_ioctl.c	suspend.h
vt_ioctl.c	syscalls.h
vt_ioctl.c	timer.h
vt_ioctl.c	timex.h
vt_ioctl.c	tty.h
vt_ioctl.c	types.h
vt_ioctl.c	uaccess.h
vt_ioctl.c	vt.h
vt_ioctl.c	vt_kern.h
w1-gpio.c	consumer.h
w1-gpio.c	err.h
w1-gpio.c	gpio.h
w1-gpio.c	init.h
w1-gpio.c	module.h
w1-gpio.c	of.h
w1-gpio.c	of_gpio.h
w1-gpio.c	of_platform.h
w1-gpio.c	platform_device.h
w1-gpio.c	slab.h
w1-gpio.c	w1-gpio.h
w1-gpio.c	w1.h
w1-gpio.c	w1_int.h
w1.c	atomic.h
w1.c	delay.h
w1.c	device.h
w1.c	freezer.h
w1.c	interrupt.h
w1.c	kernel.h
w1.c	kthread.h
w1.c	list.h
w1.c	module.h
w1.c	moduleparam.h
w1.c	sched.h
w1.c	slab.h
w1.c	spinlock.h
w1.c	timer.h
w1.c	w1.h
w1.c	w1_family.h
w1.c	w1_int.h
w1.c	w1_log.h
w1.c	w1_netlink.h
w1.h	completion.h
w1.h	device.h
w1.h	mutex.h
w1.h	w1_family.h
w1_bq27000.c	bq27x00_battery.h
w1_bq27000.c	device.h
w1_bq27000.c	kernel.h
w1_bq27000.c	module.h
w1_bq27000.c	mutex.h
w1_bq27000.c	platform_device.h
w1_bq27000.c	types.h
w1_bq27000.c	w1.h
w1_bq27000.c	w1_family.h
w1_bq27000.c	w1_int.h
w1_ds2408.c	delay.h
w1_ds2408.c	device.h
w1_ds2408.c	kernel.h
w1_ds2408.c	module.h
w1_ds2408.c	moduleparam.h
w1_ds2408.c	slab.h
w1_ds2408.c	types.h
w1_ds2408.c	w1.h
w1_ds2408.c	w1_family.h
w1_ds2408.c	w1_int.h
w1_ds2423.c	crc16.h
w1_ds2423.c	delay.h
w1_ds2423.c	device.h
w1_ds2423.c	kernel.h
w1_ds2423.c	module.h
w1_ds2423.c	moduleparam.h
w1_ds2423.c	types.h
w1_ds2423.c	w1.h
w1_ds2423.c	w1_family.h
w1_ds2423.c	w1_int.h
w1_ds2431.c	delay.h
w1_ds2431.c	device.h
w1_ds2431.c	kernel.h
w1_ds2431.c	module.h
w1_ds2431.c	moduleparam.h
w1_ds2431.c	types.h
w1_ds2431.c	w1.h
w1_ds2431.c	w1_family.h
w1_ds2431.c	w1_int.h
w1_ds2433.c	crc16.h
w1_ds2433.c	delay.h
w1_ds2433.c	device.h
w1_ds2433.c	kernel.h
w1_ds2433.c	module.h
w1_ds2433.c	moduleparam.h
w1_ds2433.c	slab.h
w1_ds2433.c	types.h
w1_ds2433.c	w1.h
w1_ds2433.c	w1_family.h
w1_ds2433.c	w1_int.h
w1_ds2760.c	device.h
w1_ds2760.c	gfp.h
w1_ds2760.c	idr.h
w1_ds2760.c	kernel.h
w1_ds2760.c	module.h
w1_ds2760.c	mutex.h
w1_ds2760.c	platform_device.h
w1_ds2760.c	types.h
w1_ds2760.c	w1.h
w1_ds2760.c	w1_ds2760.h
w1_ds2760.c	w1_family.h
w1_ds2760.c	w1_int.h
w1_ds2780.c	device.h
w1_ds2780.c	idr.h
w1_ds2780.c	kernel.h
w1_ds2780.c	module.h
w1_ds2780.c	mutex.h
w1_ds2780.c	platform_device.h
w1_ds2780.c	types.h
w1_ds2780.c	w1.h
w1_ds2780.c	w1_ds2780.h
w1_ds2780.c	w1_family.h
w1_ds2780.c	w1_int.h
w1_ds2781.c	device.h
w1_ds2781.c	idr.h
w1_ds2781.c	kernel.h
w1_ds2781.c	module.h
w1_ds2781.c	mutex.h
w1_ds2781.c	platform_device.h
w1_ds2781.c	types.h
w1_ds2781.c	w1.h
w1_ds2781.c	w1_ds2781.h
w1_ds2781.c	w1_family.h
w1_ds2781.c	w1_int.h
w1_ds28e04.c	crc16.h
w1_ds28e04.c	delay.h
w1_ds28e04.c	device.h
w1_ds28e04.c	kernel.h
w1_ds28e04.c	module.h
w1_ds28e04.c	moduleparam.h
w1_ds28e04.c	slab.h
w1_ds28e04.c	types.h
w1_ds28e04.c	uaccess.h
w1_ds28e04.c	w1.h
w1_ds28e04.c	w1_family.h
w1_ds28e04.c	w1_int.h
w1_family.c	delay.h
w1_family.c	export.h
w1_family.c	list.h
w1_family.c	sched.h
w1_family.c	spinlock.h
w1_family.c	w1.h
w1_family.c	w1_family.h
w1_family.h	atomic.h
w1_family.h	device.h
w1_family.h	types.h
w1_int.c	delay.h
w1_int.c	export.h
w1_int.c	kernel.h
w1_int.c	kthread.h
w1_int.c	list.h
w1_int.c	moduleparam.h
w1_int.c	slab.h
w1_int.c	w1.h
w1_int.c	w1_int.h
w1_int.c	w1_log.h
w1_int.c	w1_netlink.h
w1_int.h	device.h
w1_int.h	kernel.h
w1_int.h	w1.h
w1_io.c	delay.h
w1_io.c	io.h
w1_io.c	module.h
w1_io.c	moduleparam.h
w1_io.c	w1.h
w1_io.c	w1_log.h
w1_netlink.c	connector.h
w1_netlink.c	netlink.h
w1_netlink.c	skbuff.h
w1_netlink.c	slab.h
w1_netlink.c	w1.h
w1_netlink.c	w1_log.h
w1_netlink.c	w1_netlink.h
w1_netlink.h	connector.h
w1_netlink.h	types.h
w1_netlink.h	w1.h
w1_smem.c	device.h
w1_smem.c	kernel.h
w1_smem.c	module.h
w1_smem.c	moduleparam.h
w1_smem.c	types.h
w1_smem.c	types.h
w1_smem.c	w1.h
w1_smem.c	w1_family.h
w1_smem.c	w1_int.h
w1_therm.c	delay.h
w1_therm.c	device.h
w1_therm.c	kernel.h
w1_therm.c	module.h
w1_therm.c	moduleparam.h
w1_therm.c	sched.h
w1_therm.c	types.h
w1_therm.c	types.h
w1_therm.c	w1.h
w1_therm.c	w1_family.h
w1_therm.c	w1_int.h
wax.c	errno.h
wax.c	gsc.h
wax.c	hardware.h
wax.c	init.h
wax.c	interrupt.h
wax.c	io.h
wax.c	ioport.h
wax.c	module.h
wax.c	slab.h
wax.c	types.h
xilinx_uartps.c	console.h
xilinx_uartps.c	io.h
xilinx_uartps.c	irq.h
xilinx_uartps.c	module.h
xilinx_uartps.c	of.h
xilinx_uartps.c	platform_device.h
xilinx_uartps.c	serial.h
xilinx_uartps.c	serial_core.h
xilinx_uartps.c	tty.h
xilinx_uartps.c	tty_flip.h
zs.c	atomic.h
zs.c	bug.h
zs.c	console.h
zs.c	delay.h
zs.c	errno.h
zs.c	init.h
zs.c	interrupt.h
zs.c	interrupts.h
zs.c	io.h
zs.c	ioasic_addrs.h
zs.c	ioport.h
zs.c	irqflags.h
zs.c	kernel.h
zs.c	major.h
zs.c	module.h
zs.c	serial.h
zs.c	serial_core.h
zs.c	spinlock.h
zs.c	sysrq.h
zs.c	system.h
zs.c	tty.h
zs.c	tty_flip.h
zs.c	types.h
zs.c	zs.h
