ablk_helper.c	ablk_helper.h
ablk_helper.c	algapi.h
ablk_helper.c	cryptd.h
ablk_helper.c	crypto.h
ablk_helper.c	i387.h
ablk_helper.c	init.h
ablk_helper.c	kernel.h
ablk_helper.c	module.h
aes_glue.c	aes.h
aes_glue.c	aes.h
aes_glue.c	module.h
aesni-intel_glue.c	ablk_helper.h
aesni-intel_glue.c	aead.h
aesni-intel_glue.c	aes.h
aesni-intel_glue.c	aes.h
aesni-intel_glue.c	algapi.h
aesni-intel_glue.c	b128ops.h
aesni-intel_glue.c	cpu_device_id.h
aesni-intel_glue.c	cryptd.h
aesni-intel_glue.c	crypto.h
aesni-intel_glue.c	ctr.h
aesni-intel_glue.c	err.h
aesni-intel_glue.c	hardirq.h
aesni-intel_glue.c	i387.h
aesni-intel_glue.c	lrw.h
aesni-intel_glue.c	module.h
aesni-intel_glue.c	scatterwalk.h
aesni-intel_glue.c	spinlock.h
aesni-intel_glue.c	types.h
aesni-intel_glue.c	workqueue.h
aesni-intel_glue.c	xts.h
alix.c	dmi.h
alix.c	geode.h
alix.c	gpio.h
alix.c	gpio_keys.h
alix.c	init.h
alix.c	input.h
alix.c	io.h
alix.c	kernel.h
alix.c	leds.h
alix.c	module.h
alix.c	platform_device.h
alix.c	string.h
amd.c	init.h
amd.c	mm.h
amd.c	msr.h
amd.c	mtrr.h
amd.c	mtrr.h
amd_nb.c	amd_nb.h
amd_nb.c	errno.h
amd_nb.c	init.h
amd_nb.c	module.h
amd_nb.c	slab.h
amd_nb.c	spinlock.h
amd_nb.c	types.h
amdtopology.c	acpi.h
amdtopology.c	amd_nb.h
amdtopology.c	apic.h
amdtopology.c	bootmem.h
amdtopology.c	e820.h
amdtopology.c	init.h
amdtopology.c	io.h
amdtopology.c	kernel.h
amdtopology.c	memblock.h
amdtopology.c	mmzone.h
amdtopology.c	module.h
amdtopology.c	mpspec.h
amdtopology.c	nodemask.h
amdtopology.c	numa.h
amdtopology.c	pci-direct.h
amdtopology.c	pci_ids.h
amdtopology.c	proto.h
amdtopology.c	string.h
amdtopology.c	types.h
apb_timer.c	apb_timer.h
apb_timer.c	cpu.h
apb_timer.c	delay.h
apb_timer.c	dw_apb_timer.h
apb_timer.c	errno.h
apb_timer.c	fixmap.h
apb_timer.c	init.h
apb_timer.c	interrupt.h
apb_timer.c	irq.h
apb_timer.c	mrst.h
apb_timer.c	pm.h
apb_timer.c	sfi.h
apb_timer.c	slab.h
apb_timer.c	time.h
apic.c	acpi_pmtmr.h
apic.c	apic.h
apic.c	atomic.h
apic.c	bootmem.h
apic.c	clockchips.h
apic.c	cpu.h
apic.c	delay.h
apic.c	desc.h
apic.c	dmar.h
apic.c	dmi.h
apic.c	ftrace.h
apic.c	hpet.h
apic.c	hypervisor.h
apic.c	i8253.h
apic.c	i8259.h
apic.c	idle.h
apic.c	init.h
apic.c	interrupt.h
apic.c	io_apic.h
apic.c	ioport.h
apic.c	irq_remapping.h
apic.c	kernel_stat.h
apic.c	mc146818rtc.h
apic.c	mce.h
apic.c	mm.h
apic.c	module.h
apic.c	mpspec.h
apic.c	mtrr.h
apic.c	perf_event.h
apic.c	perf_event.h
apic.c	pgalloc.h
apic.c	proto.h
apic.c	smp.h
apic.c	smp.h
apic.c	syscore_ops.h
apic.c	time.h
apic.c	timex.h
apic.c	tsc.h
apic.c	x86_init.h
apic_flat_64.c	acpi_bus.h
apic_flat_64.c	apic.h
apic_flat_64.c	cpumask.h
apic_flat_64.c	ctype.h
apic_flat_64.c	errno.h
apic_flat_64.c	hardirq.h
apic_flat_64.c	init.h
apic_flat_64.c	ipi.h
apic_flat_64.c	kernel.h
apic_flat_64.c	module.h
apic_flat_64.c	smp.h
apic_flat_64.c	string.h
apic_flat_64.c	threads.h
apic_noop.c	acpi.h
apic_noop.c	apic.h
apic_noop.c	apicdef.h
apic_noop.c	cpumask.h
apic_noop.c	ctype.h
apic_noop.c	e820.h
apic_noop.c	errno.h
apic_noop.c	fixmap.h
apic_noop.c	init.h
apic_noop.c	interrupt.h
apic_noop.c	ipi.h
apic_noop.c	kernel.h
apic_noop.c	module.h
apic_noop.c	mpspec.h
apic_noop.c	setup.h
apic_noop.c	smp.h
apic_noop.c	string.h
apic_noop.c	threads.h
apic_numachip.c	apic.h
apic_numachip.c	apic_flat_64.h
apic_numachip.c	cpumask.h
apic_numachip.c	ctype.h
apic_numachip.c	delay.h
apic_numachip.c	errno.h
apic_numachip.c	hardirq.h
apic_numachip.c	init.h
apic_numachip.c	ipi.h
apic_numachip.c	kernel.h
apic_numachip.c	module.h
apic_numachip.c	numachip.h
apic_numachip.c	numachip_csr.h
apic_numachip.c	smp.h
apic_numachip.c	string.h
apic_numachip.c	threads.h
arch_hweight.h	arch_hweight.h
archsetjmp.h	archsetjmp_32.h
archsetjmp.h	archsetjmp_64.h
asm-offsets.c	bootparam.h
asm-offsets.c	crypto.h
asm-offsets.c	hardirq.h
asm-offsets.c	kbuild.h
asm-offsets.c	processor.h
asm-offsets.c	sched.h
asm-offsets.c	sigframe.h
asm-offsets.c	stddef.h
asm-offsets.c	suspend.h
asm-offsets.c	suspend.h
asm-offsets.c	thread_info.h
asm-offsets.c	xen.h
atomic64_32.c	atomic.h
atomic64_32.c	export.h
audit.c	audit_change_attr.h
audit.c	audit_dir_write.h
audit.c	audit_read.h
audit.c	audit_signal.h
audit.c	audit_write.h
audit.c	unistd_32.h
barrier.h	asm.h
barrier.h	cmpxchg.h
barrier.h	cpufeature.h
barrier.h	irqflags.h
barrier.h	kernel.h
barrier.h	nops.h
barrier.h	segment.h
bigsmp_32.c	apic.h
bigsmp_32.c	apicdef.h
bigsmp_32.c	cpumask.h
bigsmp_32.c	dmi.h
bigsmp_32.c	fixmap.h
bigsmp_32.c	init.h
bigsmp_32.c	ipi.h
bigsmp_32.c	kernel.h
bigsmp_32.c	mpspec.h
bigsmp_32.c	smp.h
bigsmp_32.c	threads.h
bios_uv.c	bios.h
bios_uv.c	efi.h
bios_uv.c	efi.h
bios_uv.c	export.h
bios_uv.c	io.h
bios_uv.c	uv_hub.h
blowfish_glue.c	algapi.h
blowfish_glue.c	blowfish.h
blowfish_glue.c	crypto.h
blowfish_glue.c	init.h
blowfish_glue.c	module.h
blowfish_glue.c	processor.h
blowfish_glue.c	types.h
bpf_jit_comp.c	cacheflush.h
bpf_jit_comp.c	filter.h
bpf_jit_comp.c	if_vlan.h
bpf_jit_comp.c	moduleloader.h
bpf_jit_comp.c	netdevice.h
bug.c	uaccess.h
bugs.c	alternative.h
bugs.c	bugs.h
bugs.c	i387.h
bugs.c	init.h
bugs.c	msr.h
bugs.c	paravirt.h
bugs.c	processor-flags.h
bugs.c	processor.h
bugs.c	utsname.h
bugs_32.c	asm-offsets.h
bugs_32.c	kern_util.h
bugs_32.c	longjmp.h
bugs_32.c	ptrace.h
bugs_32.c	signal.h
bugs_64.c	ptrace.h
cache-smp.c	module.h
cache-smp.c	smp.h
camellia_aesni_avx_glue.c	ablk_helper.h
camellia_aesni_avx_glue.c	algapi.h
camellia_aesni_avx_glue.c	camellia.h
camellia_aesni_avx_glue.c	crypto.h
camellia_aesni_avx_glue.c	ctr.h
camellia_aesni_avx_glue.c	err.h
camellia_aesni_avx_glue.c	glue_helper.h
camellia_aesni_avx_glue.c	lrw.h
camellia_aesni_avx_glue.c	module.h
camellia_aesni_avx_glue.c	types.h
camellia_aesni_avx_glue.c	xcr.h
camellia_aesni_avx_glue.c	xsave.h
camellia_aesni_avx_glue.c	xts.h
camellia_glue.c	algapi.h
camellia_glue.c	camellia.h
camellia_glue.c	crypto.h
camellia_glue.c	glue_helper.h
camellia_glue.c	init.h
camellia_glue.c	lrw.h
camellia_glue.c	module.h
camellia_glue.c	processor.h
camellia_glue.c	types.h
camellia_glue.c	unaligned.h
camellia_glue.c	xts.h
cast5_avx_glue.c	ablk_helper.h
cast5_avx_glue.c	algapi.h
cast5_avx_glue.c	cast5.h
cast5_avx_glue.c	cryptd.h
cast5_avx_glue.c	crypto.h
cast5_avx_glue.c	ctr.h
cast5_avx_glue.c	err.h
cast5_avx_glue.c	glue_helper.h
cast5_avx_glue.c	hardirq.h
cast5_avx_glue.c	module.h
cast5_avx_glue.c	types.h
cast5_avx_glue.c	xcr.h
cast5_avx_glue.c	xsave.h
cast6_avx_glue.c	ablk_helper.h
cast6_avx_glue.c	algapi.h
cast6_avx_glue.c	b128ops.h
cast6_avx_glue.c	cast6.h
cast6_avx_glue.c	cryptd.h
cast6_avx_glue.c	crypto.h
cast6_avx_glue.c	ctr.h
cast6_avx_glue.c	err.h
cast6_avx_glue.c	glue_helper.h
cast6_avx_glue.c	hardirq.h
cast6_avx_glue.c	lrw.h
cast6_avx_glue.c	module.h
cast6_avx_glue.c	types.h
cast6_avx_glue.c	xcr.h
cast6_avx_glue.c	xsave.h
cast6_avx_glue.c	xts.h
ce4100.c	ce4100.h
ce4100.c	emergency-restart.h
ce4100.c	i8259.h
ce4100.c	init.h
ce4100.c	io.h
ce4100.c	io_apic.h
ce4100.c	irq.h
ce4100.c	kernel.h
ce4100.c	module.h
ce4100.c	prom.h
ce4100.c	serial_8250.h
ce4100.c	serial_reg.h
ce4100.c	setup.h
centaur.c	init.h
centaur.c	mm.h
centaur.c	msr.h
centaur.c	mtrr.h
centaur.c	mtrr.h
checksum.h	in6.h
checksum.h	string.h
cleanup.c	cpu.h
cleanup.c	e820.h
cleanup.c	init.h
cleanup.c	kvm_para.h
cleanup.c	module.h
cleanup.c	msr.h
cleanup.c	mtrr.h
cleanup.c	mtrr.h
cleanup.c	mutex.h
cleanup.c	pci.h
cleanup.c	processor.h
cleanup.c	range.h
cleanup.c	smp.h
cleanup.c	uaccess.h
cmpxchg.h	alternative.h
cmpxchg.h	compiler.h
common.c	apic.h
common.c	archrandom.h
common.c	asm.h
common.c	atomic.h
common.c	bitops.h
common.c	bootmem.h
common.c	cpu.h
common.c	cpu.h
common.c	cpumask.h
common.c	debugreg.h
common.c	delay.h
common.c	desc.h
common.c	fpu-internal.h
common.c	hypervisor.h
common.c	i387.h
common.c	init.h
common.c	io.h
common.c	kernel.h
common.c	kgdb.h
common.c	linkage.h
common.c	mce.h
common.c	mmu_context.h
common.c	module.h
common.c	msr.h
common.c	mtrr.h
common.c	numa.h
common.c	pat.h
common.c	percpu.h
common.c	perf_event.h
common.c	pgtable.h
common.c	processor.h
common.c	proto.h
common.c	sched.h
common.c	sections.h
common.c	setup.h
common.c	smp.h
common.c	stackprotector.h
common.c	string.h
common.c	topology.h
common.c	uv.h
compat.h	processor.h
compat.h	sched.h
compat.h	types.h
compat.h	unistd.h
compat.h	user32.h
cpu.c	cpu.h
cpu.c	debugreg.h
cpu.c	export.h
cpu.c	fpu-internal.h
cpu.c	mce.h
cpu.c	mtrr.h
cpu.c	page.h
cpu.c	pgtable.h
cpu.c	proto.h
cpu.c	smp.h
cpu.c	suspend.h
cpu.c	suspend.h
cpu.c	xcr.h
cpumask.h	cpumask.h
crash.c	apic.h
crash.c	cpu.h
crash.c	delay.h
crash.c	elf.h
crash.c	elfcore.h
crash.c	hardirq.h
crash.c	hpet.h
crash.c	hw_irq.h
crash.c	init.h
crash.c	kdebug.h
crash.c	kernel.h
crash.c	kexec.h
crash.c	module.h
crash.c	nmi.h
crash.c	processor.h
crash.c	reboot.h
crash.c	reboot.h
crash.c	smp.h
crash.c	types.h
crash.c	virtext.h
crash_dump_32.c	crash_dump.h
crash_dump_32.c	errno.h
crash_dump_32.c	highmem.h
crash_dump_32.c	slab.h
crash_dump_32.c	uaccess.h
crc32c-intel_glue.c	cpu_device_id.h
crc32c-intel_glue.c	cpufeature.h
crc32c-intel_glue.c	fpu-internal.h
crc32c-intel_glue.c	hash.h
crc32c-intel_glue.c	i387.h
crc32c-intel_glue.c	init.h
crc32c-intel_glue.c	kernel.h
crc32c-intel_glue.c	module.h
crc32c-intel_glue.c	string.h
csum-partial_64.c	checksum.h
csum-partial_64.c	compiler.h
csum-partial_64.c	module.h
csum-wrappers_64.c	checksum.h
csum-wrappers_64.c	module.h
cyrix.c	init.h
cyrix.c	io.h
cyrix.c	mm.h
cyrix.c	msr.h
cyrix.c	mtrr.h
cyrix.c	mtrr.h
cyrix.c	processor-cyrix.h
cyrix.c	processor-flags.h
debugreg.h	bug.h
debugreg.h	debugreg.h
delay.c	delay.h
delay.c	delay.h
delay.c	delay.h
delay.c	delay.h
delay.c	init.h
delay.c	init.h
delay.c	module.h
delay.c	module.h
delay.c	preempt.h
delay.c	preempt.h
delay.c	processor.h
delay.c	processor.h
delay.c	sched.h
delay.c	sched.h
delay.c	timer.h
delay.c	timer.h
delay.c	timex.h
delay.c	timex.h
delay.h	delay.h
dma-mapping.h	dma-attrs.h
dma-mapping.h	dma-coherent.h
dma-mapping.h	dma-contiguous.h
dma-mapping.h	dma-debug.h
dma-mapping.h	dma-mapping-common.h
dma-mapping.h	io.h
dma-mapping.h	kmemcheck.h
dma-mapping.h	scatterlist.h
dma-mapping.h	swiotlb.h
dump_pagetables.c	debugfs.h
dump_pagetables.c	mm.h
dump_pagetables.c	module.h
dump_pagetables.c	pgtable.h
dump_pagetables.c	seq_file.h
dumpstack_32.c	bug.h
dumpstack_32.c	hardirq.h
dumpstack_32.c	kallsyms.h
dumpstack_32.c	kdebug.h
dumpstack_32.c	kexec.h
dumpstack_32.c	kprobes.h
dumpstack_32.c	module.h
dumpstack_32.c	nmi.h
dumpstack_32.c	ptrace.h
dumpstack_32.c	stacktrace.h
dumpstack_32.c	sysfs.h
dumpstack_32.c	uaccess.h
early_printk_mrst.c	console.h
early_printk_mrst.c	delay.h
early_printk_mrst.c	fixmap.h
early_printk_mrst.c	init.h
early_printk_mrst.c	io.h
early_printk_mrst.c	kernel.h
early_printk_mrst.c	kmsg_dump.h
early_printk_mrst.c	mrst.h
early_printk_mrst.c	pgtable.h
early_printk_mrst.c	serial_mfd.h
early_printk_mrst.c	serial_reg.h
efi-bgrt.c	acpi.h
efi-bgrt.c	efi-bgrt.h
efi-bgrt.c	efi.h
efi-bgrt.c	kernel.h
efi.c	bcd.h
efi.c	bootmem.h
efi.c	cacheflush.h
efi.c	efi-bgrt.h
efi.c	efi.h
efi.c	efi.h
efi.c	export.h
efi.c	init.h
efi.c	io.h
efi.c	kernel.h
efi.c	memblock.h
efi.c	reboot.h
efi.c	setup.h
efi.c	spinlock.h
efi.c	time.h
efi.c	time.h
efi.c	tlbflush.h
efi.c	uaccess.h
efi.c	x86_init.h
efi_32.c	desc.h
efi_32.c	efi.h
efi_32.c	efi.h
efi_32.c	io.h
efi_32.c	ioport.h
efi_32.c	kernel.h
efi_32.c	page.h
efi_32.c	pgtable.h
efi_32.c	tlbflush.h
efi_32.c	types.h
efi_64.c	bootmem.h
efi_64.c	cacheflush.h
efi_64.c	e820.h
efi_64.c	efi.h
efi_64.c	efi.h
efi_64.c	fixmap.h
efi_64.c	init.h
efi_64.c	io.h
efi_64.c	ioport.h
efi_64.c	kernel.h
efi_64.c	mm.h
efi_64.c	module.h
efi_64.c	page.h
efi_64.c	pgtable.h
efi_64.c	proto.h
efi_64.c	reboot.h
efi_64.c	setup.h
efi_64.c	spinlock.h
efi_64.c	tlbflush.h
efi_64.c	types.h
efi_64.c	uaccess.h
elf.h	skas.h
elf.h	user.h
elfcore.c	coredump.h
elfcore.c	elf.h
elfcore.c	elf.h
elfcore.c	fs.h
elfcore.c	mm.h
error.c	error.h
error.c	interrupt.h
error.c	kdebug.h
error.c	kernel.h
error.c	kmemcheck.h
error.c	ptrace.h
error.c	shadow.h
error.c	stacktrace.h
error.c	string.h
error.c	types.h
error.h	ptrace.h
error.h	shadow.h
es7000_32.c	acpi.h
es7000_32.c	apic.h
es7000_32.c	apicdef.h
es7000_32.c	atomic.h
es7000_32.c	cpumask.h
es7000_32.c	errno.h
es7000_32.c	fixmap.h
es7000_32.c	gfp.h
es7000_32.c	init.h
es7000_32.c	io.h
es7000_32.c	ipi.h
es7000_32.c	kernel.h
es7000_32.c	module.h
es7000_32.c	mpspec.h
es7000_32.c	nmi.h
es7000_32.c	notifier.h
es7000_32.c	reboot.h
es7000_32.c	setup.h
es7000_32.c	smp.h
es7000_32.c	spinlock.h
es7000_32.c	string.h
es7000_32.c	threads.h
es7000_32.c	types.h
extable.c	module.h
extable.c	sort.h
extable.c	spinlock.h
extable.c	uaccess.h
fault.c	ptrace.h
fault.c	ptrace.h
faultinfo.h	faultinfo_32.h
faultinfo.h	faultinfo_64.h
fpu.c	algapi.h
fpu.c	err.h
fpu.c	i387.h
fpu.c	init.h
fpu.c	kernel.h
fpu.c	module.h
fpu.c	slab.h
generic.c	cpufeature.h
generic.c	init.h
generic.c	io.h
generic.c	mm.h
generic.c	module.h
generic.c	msr.h
generic.c	mtrr.h
generic.c	mtrr.h
generic.c	pat.h
generic.c	processor-flags.h
generic.c	tlbflush.h
geos.c	dmi.h
geos.c	geode.h
geos.c	gpio.h
geos.c	gpio_keys.h
geos.c	init.h
geos.c	input.h
geos.c	io.h
geos.c	kernel.h
geos.c	leds.h
geos.c	module.h
geos.c	platform_device.h
geos.c	string.h
ghash-clmulni-intel_glue.c	algapi.h
ghash-clmulni-intel_glue.c	cpu_device_id.h
ghash-clmulni-intel_glue.c	cryptd.h
ghash-clmulni-intel_glue.c	crypto.h
ghash-clmulni-intel_glue.c	err.h
ghash-clmulni-intel_glue.c	gf128mul.h
ghash-clmulni-intel_glue.c	hash.h
ghash-clmulni-intel_glue.c	i387.h
ghash-clmulni-intel_glue.c	init.h
ghash-clmulni-intel_glue.c	kernel.h
ghash-clmulni-intel_glue.c	module.h
glue_helper.c	b128ops.h
glue_helper.c	glue_helper.h
glue_helper.c	lrw.h
glue_helper.c	module.h
glue_helper.c	scatterwalk.h
glue_helper.c	xts.h
gup.c	highmem.h
gup.c	mm.h
gup.c	pgtable.h
gup.c	sched.h
gup.c	swap.h
gup.c	vmstat.h
head64.c	bios_ebda.h
head64.c	desc.h
head64.c	e820.h
head64.c	init.h
head64.c	io.h
head64.c	kdebug.h
head64.c	kernel.h
head64.c	linkage.h
head64.c	memblock.h
head64.c	percpu.h
head64.c	pgtable.h
head64.c	processor.h
head64.c	proto.h
head64.c	sections.h
head64.c	setup.h
head64.c	smp.h
head64.c	start_kernel.h
head64.c	string.h
head64.c	tlbflush.h
head64.c	types.h
hibernate_32.c	bootmem.h
hibernate_32.c	gfp.h
hibernate_32.c	mmzone.h
hibernate_32.c	page.h
hibernate_32.c	pgtable.h
hibernate_32.c	suspend.h
hibernate_64.c	gfp.h
hibernate_64.c	mtrr.h
hibernate_64.c	page.h
hibernate_64.c	pgtable.h
hibernate_64.c	proto.h
hibernate_64.c	smp.h
hibernate_64.c	suspend.h
hibernate_64.c	suspend.h
highmem_32.c	highmem.h
highmem_32.c	module.h
highmem_32.c	swap.h
hpet.h	interrupt.h
hpet.h	msi.h
hugetlbpage.c	err.h
hugetlbpage.c	fs.h
hugetlbpage.c	hugetlb.h
hugetlbpage.c	init.h
hugetlbpage.c	mm.h
hugetlbpage.c	mman.h
hugetlbpage.c	pagemap.h
hugetlbpage.c	pgalloc.h
hugetlbpage.c	sysctl.h
hugetlbpage.c	tlb.h
hugetlbpage.c	tlbflush.h
hw_breakpoint.c	debugreg.h
hw_breakpoint.c	hw_breakpoint.h
hw_breakpoint.c	hw_breakpoint.h
hw_breakpoint.c	init.h
hw_breakpoint.c	irqflags.h
hw_breakpoint.c	kallsyms.h
hw_breakpoint.c	kdebug.h
hw_breakpoint.c	kernel.h
hw_breakpoint.c	kprobes.h
hw_breakpoint.c	module.h
hw_breakpoint.c	notifier.h
hw_breakpoint.c	percpu.h
hw_breakpoint.c	perf_event.h
hw_breakpoint.c	processor.h
hw_breakpoint.c	sched.h
hw_breakpoint.c	smp.h
hw_nmi.c	apic.h
hw_nmi.c	cpumask.h
hw_nmi.c	delay.h
hw_nmi.c	kdebug.h
hw_nmi.c	kprobes.h
hw_nmi.c	module.h
hw_nmi.c	nmi.h
hw_nmi.c	notifier.h
hypervisor.c	hypervisor.h
hypervisor.c	module.h
hypervisor.c	processor.h
i8237.c	dma.h
i8237.c	init.h
i8237.c	syscore_ops.h
ia32_aout.c	a.out.h
ia32_aout.c	binfmts.h
ia32_aout.c	cacheflush.h
ia32_aout.c	coredump.h
ia32_aout.c	errno.h
ia32_aout.c	fcntl.h
ia32_aout.c	file.h
ia32_aout.c	fs.h
ia32_aout.c	ia32.h
ia32_aout.c	init.h
ia32_aout.c	jiffies.h
ia32_aout.c	kernel.h
ia32_aout.c	mm.h
ia32_aout.c	mman.h
ia32_aout.c	module.h
ia32_aout.c	personality.h
ia32_aout.c	pgalloc.h
ia32_aout.c	ptrace.h
ia32_aout.c	signal.h
ia32_aout.c	stat.h
ia32_aout.c	string.h
ia32_aout.c	time.h
ia32_aout.c	uaccess.h
ia32_aout.c	user.h
ia32_aout.c	user32.h
ia32_signal.c	binfmts.h
ia32_signal.c	compat.h
ia32_signal.c	errno.h
ia32_signal.c	fpu-internal.h
ia32_signal.c	i387.h
ia32_signal.c	ia32_unistd.h
ia32_signal.c	kernel.h
ia32_signal.c	mm.h
ia32_signal.c	personality.h
ia32_signal.c	proto.h
ia32_signal.c	ptrace.h
ia32_signal.c	sched.h
ia32_signal.c	sigcontext32.h
ia32_signal.c	sigframe.h
ia32_signal.c	sighandling.h
ia32_signal.c	smap.h
ia32_signal.c	smp.h
ia32_signal.c	stddef.h
ia32_signal.c	sys_ia32.h
ia32_signal.c	uaccess.h
ia32_signal.c	ucontext.h
ia32_signal.c	unistd.h
ia32_signal.c	user32.h
ia32_signal.c	vdso.h
ia32_signal.c	wait.h
if.c	capability.h
if.c	ctype.h
if.c	init.h
if.c	module.h
if.c	mtrr.h
if.c	mtrr.h
if.c	proc_fs.h
if.c	seq_file.h
if.c	slab.h
if.c	string.h
if.c	uaccess.h
inat.c	inat-tables.c
inat.c	insn.h
init.c	cacheflush.h
init.c	cacheflush.h
init.c	io.h
init.c	io.h
init.c	memblock.h
init.c	memblock.h
init.c	pgtable.h
init.c	pgtable.h
init.c	realmode.h
init.c	realmode.h
init_32.c	apic.h
init_32.c	asm.h
init_32.c	bios_ebda.h
init_32.c	bootmem.h
init_32.c	bugs.h
init_32.c	cacheflush.h
init_32.c	cpumask.h
init_32.c	dma.h
init_32.c	e820.h
init_32.c	errno.h
init_32.c	fixmap.h
init_32.c	gfp.h
init_32.c	highmem.h
init_32.c	hugetlb.h
init_32.c	init.h
init_32.c	init.h
init_32.c	initrd.h
init_32.c	kernel.h
init_32.c	memblock.h
init_32.c	memory_hotplug.h
init_32.c	mm.h
init_32.c	mman.h
init_32.c	module.h
init_32.c	olpc_ofw.h
init_32.c	page_types.h
init_32.c	pagemap.h
init_32.c	paravirt.h
init_32.c	pci.h
init_32.c	pfn.h
init_32.c	pgalloc.h
init_32.c	pgtable.h
init_32.c	poison.h
init_32.c	proc_fs.h
init_32.c	processor.h
init_32.c	ptrace.h
init_32.c	sched.h
init_32.c	sections.h
init_32.c	setup.h
init_32.c	signal.h
init_32.c	smp.h
init_32.c	string.h
init_32.c	swap.h
init_32.c	tlb.h
init_32.c	tlbflush.h
init_32.c	types.h
init_32.c	uaccess.h
init_64.c	apic.h
init_64.c	bios_ebda.h
init_64.c	bootmem.h
init_64.c	cacheflush.h
init_64.c	dma-mapping.h
init_64.c	dma.h
init_64.c	e820.h
init_64.c	errno.h
init_64.c	fixmap.h
init_64.c	gfp.h
init_64.c	init.h
init_64.c	init.h
init_64.c	initrd.h
init_64.c	kdebug.h
init_64.c	kernel.h
init_64.c	memblock.h
init_64.c	memory.h
init_64.c	memory_hotplug.h
init_64.c	mm.h
init_64.c	mman.h
init_64.c	mmu_context.h
init_64.c	module.h
init_64.c	nmi.h
init_64.c	numa.h
init_64.c	pagemap.h
init_64.c	pci.h
init_64.c	pfn.h
init_64.c	pgalloc.h
init_64.c	pgtable.h
init_64.c	poison.h
init_64.c	proc_fs.h
init_64.c	processor.h
init_64.c	proto.h
init_64.c	ptrace.h
init_64.c	sched.h
init_64.c	sections.h
init_64.c	setup.h
init_64.c	signal.h
init_64.c	smp.h
init_64.c	smp.h
init_64.c	string.h
init_64.c	swap.h
init_64.c	tlb.h
init_64.c	types.h
init_64.c	uaccess.h
init_64.c	uv.h
insn.c	inat.h
insn.c	insn.h
insn.c	string.h
insn.c	string.h
insn_sanity.c	assert.h
insn_sanity.c	fcntl.h
insn_sanity.c	inat.c
insn_sanity.c	insn.c
insn_sanity.c	insn.h
insn_sanity.c	stat.h
insn_sanity.c	stdio.h
insn_sanity.c	stdlib.h
insn_sanity.c	string.h
insn_sanity.c	types.h
insn_sanity.c	unistd.h
intel.c	apic.h
intel.c	bitops.h
intel.c	bugs.h
intel.c	cpu.h
intel.c	cpu.h
intel.c	init.h
intel.c	kernel.h
intel.c	module.h
intel.c	mpspec.h
intel.c	msr.h
intel.c	numa_64.h
intel.c	pgtable.h
intel.c	processor.h
intel.c	sched.h
intel.c	smp.h
intel.c	string.h
intel.c	thread_info.h
intel.c	topology.h
intel.c	uaccess.h
intel_cacheinfo.c	amd_nb.h
intel_cacheinfo.c	compiler.h
intel_cacheinfo.c	cpu.h
intel_cacheinfo.c	cpu.h
intel_cacheinfo.c	device.h
intel_cacheinfo.c	init.h
intel_cacheinfo.c	kobject.h
intel_cacheinfo.c	pci.h
intel_cacheinfo.c	processor.h
intel_cacheinfo.c	sched.h
intel_cacheinfo.c	slab.h
intel_cacheinfo.c	smp.h
intel_cacheinfo.c	smp.h
intel_cacheinfo.c	sysfs.h
io_apic.c	acpi.h
io_apic.c	acpi.h
io_apic.c	acpi_bus.h
io_apic.c	apic.h
io_apic.c	bootmem.h
io_apic.c	compiler.h
io_apic.c	cpu.h
io_apic.c	delay.h
io_apic.c	desc.h
io_apic.c	dma.h
io_apic.c	dmar.h
io_apic.c	freezer.h
io_apic.c	hpet.h
io_apic.c	hpet.h
io_apic.c	htirq.h
io_apic.c	hw_irq.h
io_apic.c	hypertransport.h
io_apic.c	i8259.h
io_apic.c	idle.h
io_apic.c	init.h
io_apic.c	interrupt.h
io_apic.c	io.h
io_apic.c	irq_remapping.h
io_apic.c	jiffies.h
io_apic.c	kthread.h
io_apic.c	mc146818rtc.h
io_apic.c	mm.h
io_apic.c	module.h
io_apic.c	msi.h
io_apic.c	msidef.h
io_apic.c	pci.h
io_apic.c	proto.h
io_apic.c	sched.h
io_apic.c	setup.h
io_apic.c	slab.h
io_apic.c	smp.h
io_apic.c	syscore_ops.h
io_apic.c	timer.h
iomap_32.c	highmem.h
iomap_32.c	iomap.h
iomap_32.c	module.h
iomap_32.c	pat.h
ioport.c	bitmap.h
ioport.c	capability.h
ioport.c	errno.h
ioport.c	ioport.h
ioport.c	kernel.h
ioport.c	sched.h
ioport.c	slab.h
ioport.c	smp.h
ioport.c	stddef.h
ioport.c	syscalls.h
ioport.c	syscalls.h
ioport.c	thread_info.h
ioport.c	types.h
ioremap.c	bootmem.h
ioremap.c	cacheflush.h
ioremap.c	e820.h
ioremap.c	fixmap.h
ioremap.c	init.h
ioremap.c	io.h
ioremap.c	mmiotrace.h
ioremap.c	module.h
ioremap.c	pat.h
ioremap.c	pgalloc.h
ioremap.c	pgtable.h
ioremap.c	physaddr.h
ioremap.c	slab.h
ioremap.c	tlbflush.h
ioremap.c	vmalloc.h
ipc32.c	compat.h
ipc32.c	ipc.h
ipc32.c	kernel.h
ipc32.c	list.h
ipc32.c	msg.h
ipc32.c	sem.h
ipc32.c	shm.h
ipc32.c	spinlock.h
ipc32.c	sys_ia32.h
ipc32.c	syscalls.h
ipc32.c	time.h
ipi.c	apic.h
ipi.c	cache.h
ipi.c	cpu.h
ipi.c	cpumask.h
ipi.c	delay.h
ipi.c	init.h
ipi.c	interrupt.h
ipi.c	ipi.h
ipi.c	kernel_stat.h
ipi.c	mc146818rtc.h
ipi.c	mm.h
ipi.c	mmu_context.h
ipi.c	module.h
ipi.c	mtrr.h
ipi.c	proto.h
ipi.c	smp.h
ipi.c	spinlock.h
ipi.c	tlbflush.h
iris.c	delay.h
iris.c	errno.h
iris.c	init.h
iris.c	io.h
iris.c	kernel.h
iris.c	module.h
iris.c	moduleparam.h
iris.c	platform_device.h
iris.c	pm.h
irq.c	apic.h
irq.c	cpu.h
irq.c	delay.h
irq.c	export.h
irq.c	ftrace.h
irq.c	hw_irq.h
irq.c	idle.h
irq.c	interrupt.h
irq.c	io_apic.h
irq.c	irq.h
irq.c	kernel_stat.h
irq.c	mce.h
irq.c	of.h
irq.c	seq_file.h
irq.c	smp.h
irq_32.c	apic.h
irq_32.c	cpu.h
irq_32.c	delay.h
irq_32.c	interrupt.h
irq_32.c	kernel_stat.h
irq_32.c	mm.h
irq_32.c	module.h
irq_32.c	notifier.h
irq_32.c	percpu.h
irq_32.c	seq_file.h
irq_32.c	uaccess.h
irq_regs.h	percpu.h
irq_work.c	apic.h
irq_work.c	hardirq.h
irq_work.c	irq_work.h
irq_work.c	kernel.h
kernel-offsets.h	common-offsets.h
kernel-offsets.h	crypto.h
kernel-offsets.h	elf.h
kernel-offsets.h	mman.h
kernel-offsets.h	sched.h
kernel-offsets.h	stddef.h
kgdb.c	apic.h
kgdb.c	apicdef.h
kgdb.c	debugreg.h
kgdb.c	delay.h
kgdb.c	hw_breakpoint.h
kgdb.c	init.h
kgdb.c	kdebug.h
kgdb.c	kernel.h
kgdb.c	kgdb.h
kgdb.c	memory.h
kgdb.c	nmi.h
kgdb.c	nmi.h
kgdb.c	ptrace.h
kgdb.c	sched.h
kgdb.c	smp.h
kgdb.c	spinlock.h
kgdb.c	string.h
kgdb.c	uaccess.h
kmemcheck.c	cacheflush.h
kmemcheck.c	error.h
kmemcheck.c	init.h
kmemcheck.c	interrupt.h
kmemcheck.c	kallsyms.h
kmemcheck.c	kernel.h
kmemcheck.c	kmemcheck.h
kmemcheck.c	kmemcheck.h
kmemcheck.c	mm.h
kmemcheck.c	module.h
kmemcheck.c	opcode.h
kmemcheck.c	page-flags.h
kmemcheck.c	percpu.h
kmemcheck.c	pgtable.h
kmemcheck.c	pte.h
kmemcheck.c	ptrace.h
kmemcheck.c	selftest.h
kmemcheck.c	shadow.h
kmemcheck.c	string.h
kmemcheck.c	tlbflush.h
kmemcheck.c	types.h
kmmio.c	cacheflush.h
kmmio.c	debugreg.h
kmmio.c	errno.h
kmmio.c	hash.h
kmmio.c	init.h
kmmio.c	io.h
kmmio.c	kdebug.h
kmmio.c	kernel.h
kmmio.c	list.h
kmmio.c	mmiotrace.h
kmmio.c	module.h
kmmio.c	mutex.h
kmmio.c	percpu.h
kmmio.c	preempt.h
kmmio.c	ptrace.h
kmmio.c	rculist.h
kmmio.c	slab.h
kmmio.c	spinlock.h
kmmio.c	tlbflush.h
kmmio.c	uaccess.h
kprobes-opt.c	alternative.h
kprobes-opt.c	cacheflush.h
kprobes-opt.c	debugreg.h
kprobes-opt.c	desc.h
kprobes-opt.c	ftrace.h
kprobes-opt.c	hardirq.h
kprobes-opt.c	insn.h
kprobes-opt.c	kallsyms.h
kprobes-opt.c	kdebug.h
kprobes-opt.c	kprobes-common.h
kprobes-opt.c	kprobes.h
kprobes-opt.c	module.h
kprobes-opt.c	pgtable.h
kprobes-opt.c	preempt.h
kprobes-opt.c	ptrace.h
kprobes-opt.c	slab.h
kprobes-opt.c	string.h
kprobes-opt.c	uaccess.h
ksyms.c	checksum.h
ksyms.c	module.h
ksyms.c	string.h
kvmclock.c	apic.h
kvmclock.c	clocksource.h
kvmclock.c	hardirq.h
kvmclock.c	kvm_para.h
kvmclock.c	memblock.h
kvmclock.c	msr.h
kvmclock.c	percpu.h
kvmclock.c	pvclock.h
kvmclock.c	reboot.h
kvmclock.c	x86_init.h
ldt.c	desc.h
ldt.c	desc.h
ldt.c	errno.h
ldt.c	errno.h
ldt.c	gfp.h
ldt.c	gfp.h
ldt.c	ldt.h
ldt.c	ldt.h
ldt.c	mm.h
ldt.c	mm.h
ldt.c	mmu_context.h
ldt.c	mmu_context.h
ldt.c	sched.h
ldt.c	sched.h
ldt.c	smp.h
ldt.c	smp.h
ldt.c	string.h
ldt.c	string.h
ldt.c	syscalls.h
ldt.c	syscalls.h
ldt.c	uaccess.h
ldt.c	uaccess.h
ldt.c	vmalloc.h
ldt.c	vmalloc.h
local.h	asm.h
local.h	atomic.h
local.h	percpu.h
mach_traps.h	mc146818rtc.h
machine_kexec_64.c	debugreg.h
machine_kexec_64.c	ftrace.h
machine_kexec_64.c	gfp.h
machine_kexec_64.c	io.h
machine_kexec_64.c	kexec.h
machine_kexec_64.c	mm.h
machine_kexec_64.c	mmu_context.h
machine_kexec_64.c	numa.h
machine_kexec_64.c	pgtable.h
machine_kexec_64.c	reboot.h
machine_kexec_64.c	string.h
machine_kexec_64.c	suspend.h
machine_kexec_64.c	tlbflush.h
main.c	cpu.h
main.c	e820.h
main.c	init.h
main.c	kvm_para.h
main.c	module.h
main.c	msr.h
main.c	mtrr.h
main.c	mtrr.h
main.c	mutex.h
main.c	pci.h
main.c	processor.h
main.c	smp.h
main.c	sort.h
main.c	stop_machine.h
main.c	syscore_ops.h
main.c	types.h
main.c	uaccess.h
mce-severity.c	debugfs.h
mce-severity.c	init.h
mce-severity.c	kernel.h
mce-severity.c	mce-internal.h
mce-severity.c	mce.h
mce-severity.c	seq_file.h
mce_intel.c	apic.h
mce_intel.c	gfp.h
mce_intel.c	init.h
mce_intel.c	interrupt.h
mce_intel.c	mce-internal.h
mce_intel.c	mce.h
mce_intel.c	msr.h
mce_intel.c	percpu.h
mce_intel.c	processor.h
mce_intel.c	sched.h
mcontext.c	ptrace.h
mcontext.c	ptrace.h
mcontext.c	ucontext.h
mem_32.c	mm.h
mem_32.c	mman.h
mem_32.c	page.h
mem_64.c	mm.h
mem_64.c	mman.h
mem_64.c	page.h
memcpy_32.c	module.h
memcpy_32.c	string.h
memtest.c	errno.h
memtest.c	init.h
memtest.c	kernel.h
memtest.c	memblock.h
memtest.c	mm.h
memtest.c	pfn.h
memtest.c	smp.h
memtest.c	string.h
memtest.c	types.h
microcode_core.c	capability.h
microcode_core.c	cpu.h
microcode_core.c	cpu_device_id.h
microcode_core.c	fs.h
microcode_core.c	kernel.h
microcode_core.c	microcode.h
microcode_core.c	miscdevice.h
microcode_core.c	mm.h
microcode_core.c	module.h
microcode_core.c	mutex.h
microcode_core.c	perf_event.h
microcode_core.c	platform_device.h
microcode_core.c	processor.h
microcode_core.c	syscore_ops.h
mm_context.h	ldt.h
mm_context.h	mutex.h
mmap.c	elf.h
mmap.c	limits.h
mmap.c	mm.h
mmap.c	personality.h
mmap.c	random.h
mmap.c	sched.h
mmio-mod.c	atomic.h
mmio-mod.c	cpu.h
mmio-mod.c	debugfs.h
mmio-mod.c	e820.h
mmio-mod.c	io.h
mmio-mod.c	kallsyms.h
mmio-mod.c	mmiotrace.h
mmio-mod.c	module.h
mmio-mod.c	percpu.h
mmio-mod.c	pf_in.h
mmio-mod.c	pgtable.h
mmio-mod.c	slab.h
mmio-mod.c	uaccess.h
mmx_32.c	asm.h
mmx_32.c	hardirq.h
mmx_32.c	i387.h
mmx_32.c	module.h
mmx_32.c	sched.h
mmx_32.c	string.h
mmx_32.c	types.h
module.c	bug.h
module.c	elf.h
module.c	fs.h
module.c	gfp.h
module.c	jump_label.h
module.c	kernel.h
module.c	mm.h
module.c	moduleloader.h
module.c	page.h
module.c	pgtable.h
module.c	string.h
module.c	vmalloc.h
mrst.c	apb_timer.h
mrst.c	apic.h
mrst.c	gpio.h
mrst.c	gpio_keys.h
mrst.c	hw_irq.h
mrst.c	i2c.h
mrst.c	i8259.h
mrst.c	init.h
mrst.c	input.h
mrst.c	intel_msic.h
mrst.c	intel_pmic_gpio.h
mrst.c	intel_scu_ipc.h
mrst.c	interrupt.h
mrst.c	io.h
mrst.c	io_apic.h
mrst.c	irq.h
mrst.c	kernel.h
mrst.c	module.h
mrst.c	mpspec_def.h
mrst.c	mrst-vrtc.h
mrst.c	mrst.h
mrst.c	notifier.h
mrst.c	pca953x.h
mrst.c	platform_device.h
mrst.c	reboot.h
mrst.c	scatterlist.h
mrst.c	setup.h
mrst.c	sfi.h
mrst.c	spi.h
mrst.c	tc35876x.h
msr-reg-export.c	module.h
msr-reg-export.c	msr.h
msr-smp.c	module.h
msr-smp.c	msr.h
msr-smp.c	preempt.h
msr-smp.c	smp.h
msr.c	module.h
msr.c	msr.h
msr.c	preempt.h
mtrr.h	stddef.h
mtrr.h	types.h
net5501.c	geode.h
net5501.c	gpio.h
net5501.c	gpio_keys.h
net5501.c	init.h
net5501.c	input.h
net5501.c	io.h
net5501.c	kernel.h
net5501.c	leds.h
net5501.c	module.h
net5501.c	platform_device.h
net5501.c	string.h
nmi.h	io.h
nmi.h	irq.h
nmi.h	pm.h
nosyscall.c	errno.h
nosyscall.c	kernel.h
numa.c	acpi.h
numa.c	amd_nb.h
numa.c	bootmem.h
numa.c	ctype.h
numa.c	dma.h
numa.c	e820.h
numa.c	init.h
numa.c	kernel.h
numa.c	memblock.h
numa.c	mm.h
numa.c	mmzone.h
numa.c	module.h
numa.c	nodemask.h
numa.c	numa_internal.h
numa.c	proto.h
numa.c	sched.h
numa.c	string.h
numa.c	topology.h
numa_32.c	bootmem.h
numa_32.c	memblock.h
numa_32.c	module.h
numa_32.c	numa_internal.h
numa_64.c	bootmem.h
numa_64.c	numa_internal.h
numa_emulation.c	bootmem.h
numa_emulation.c	dma.h
numa_emulation.c	errno.h
numa_emulation.c	kernel.h
numa_emulation.c	memblock.h
numa_emulation.c	numa_internal.h
numa_emulation.c	topology.h
numa_internal.h	numa.h
numa_internal.h	types.h
numaq_32.c	apic.h
numaq_32.c	bootmem.h
numaq_32.c	cpumask.h
numaq_32.c	e820.h
numaq_32.c	fixmap.h
numaq_32.c	init.h
numaq_32.c	io.h
numaq_32.c	ipi.h
numaq_32.c	kernel.h
numaq_32.c	memblock.h
numaq_32.c	mm.h
numaq_32.c	mmzone.h
numaq_32.c	module.h
numaq_32.c	mpspec.h
numaq_32.c	nodemask.h
numaq_32.c	numa.h
numaq_32.c	numaq.h
numaq_32.c	processor.h
numaq_32.c	setup.h
numaq_32.c	smp.h
numaq_32.c	string.h
numaq_32.c	threads.h
numaq_32.c	topology.h
olpc-xo1-pm.c	core.h
olpc-xo1-pm.c	cs5535.h
olpc-xo1-pm.c	export.h
olpc-xo1-pm.c	io.h
olpc-xo1-pm.c	olpc-ec.h
olpc-xo1-pm.c	olpc.h
olpc-xo1-pm.c	platform_device.h
olpc-xo1-pm.c	pm.h
olpc-xo1-pm.c	suspend.h
olpc-xo1-rtc.c	mc146818rtc.h
olpc-xo1-rtc.c	msr.h
olpc-xo1-rtc.c	of.h
olpc-xo1-rtc.c	olpc.h
olpc-xo1-rtc.c	platform_device.h
olpc-xo1-rtc.c	rtc.h
olpc-xo1-sci.c	core.h
olpc-xo1-sci.c	cs5535.h
olpc-xo1-sci.c	device.h
olpc-xo1-sci.c	gpio.h
olpc-xo1-sci.c	input.h
olpc-xo1-sci.c	interrupt.h
olpc-xo1-sci.c	io.h
olpc-xo1-sci.c	msr.h
olpc-xo1-sci.c	olpc-ec.h
olpc-xo1-sci.c	olpc.h
olpc-xo1-sci.c	platform_device.h
olpc-xo1-sci.c	pm.h
olpc-xo1-sci.c	pm_wakeup.h
olpc-xo1-sci.c	power_supply.h
olpc-xo1-sci.c	suspend.h
olpc-xo1-sci.c	workqueue.h
olpc-xo15-sci.c	acpi_bus.h
olpc-xo15-sci.c	acpi_drivers.h
olpc-xo15-sci.c	device.h
olpc-xo15-sci.c	olpc-ec.h
olpc-xo15-sci.c	olpc.h
olpc-xo15-sci.c	power_supply.h
olpc-xo15-sci.c	slab.h
olpc-xo15-sci.c	workqueue.h
olpc.c	delay.h
olpc.c	geode.h
olpc.c	init.h
olpc.c	io.h
olpc.c	kernel.h
olpc.c	module.h
olpc.c	mutex.h
olpc.c	of.h
olpc.c	olpc-ec.h
olpc.c	olpc.h
olpc.c	olpc_ofw.h
olpc.c	platform_device.h
olpc.c	setup.h
olpc.c	string.h
olpc.c	syscore_ops.h
olpc_dt.c	bootmem.h
olpc_dt.c	kernel.h
olpc_dt.c	of.h
olpc_dt.c	of_pdt.h
olpc_dt.c	of_platform.h
olpc_dt.c	olpc.h
olpc_dt.c	olpc_ofw.h
olpc_ofw.c	init.h
olpc_ofw.c	io.h
olpc_ofw.c	kernel.h
olpc_ofw.c	module.h
olpc_ofw.c	olpc_ofw.h
olpc_ofw.c	page.h
olpc_ofw.c	pgtable.h
olpc_ofw.c	setup.h
opcode.c	opcode.h
opcode.c	types.h
opcode.h	types.h
p5.c	init.h
p5.c	interrupt.h
p5.c	kernel.h
p5.c	mce.h
p5.c	msr.h
p5.c	processor.h
p5.c	smp.h
p5.c	types.h
page_32.h	mmx.h
page_32.h	page_32_types.h
page_32.h	string.h
pageattr-test.c	bootmem.h
pageattr-test.c	cacheflush.h
pageattr-test.c	init.h
pageattr-test.c	kdebug.h
pageattr-test.c	kernel.h
pageattr-test.c	kthread.h
pageattr-test.c	mm.h
pageattr-test.c	pgtable.h
pageattr-test.c	random.h
pageattr.c	bootmem.h
pageattr.c	debugfs.h
pageattr.c	e820.h
pageattr.c	gfp.h
pageattr.c	highmem.h
pageattr.c	interrupt.h
pageattr.c	mm.h
pageattr.c	module.h
pageattr.c	pageattr-test.c
pageattr.c	pat.h
pageattr.c	pci.h
pageattr.c	percpu.h
pageattr.c	pfn.h
pageattr.c	pgalloc.h
pageattr.c	processor.h
pageattr.c	proto.h
pageattr.c	sched.h
pageattr.c	sections.h
pageattr.c	seq_file.h
pageattr.c	setup.h
pageattr.c	tlbflush.h
pageattr.c	uaccess.h
paravirt-spinlocks.c	module.h
paravirt-spinlocks.c	paravirt.h
paravirt-spinlocks.c	spinlock.h
paravirt_patch_32.c	paravirt.h
pat.c	bootmem.h
pat.c	cacheflush.h
pat.c	debugfs.h
pat.c	e820.h
pat.c	fcntl.h
pat.c	fs.h
pat.c	io.h
pat.c	kernel.h
pat.c	mm.h
pat.c	module.h
pat.c	msr.h
pat.c	mtrr.h
pat.c	page.h
pat.c	pat.h
pat.c	pat_internal.h
pat.c	pgtable.h
pat.c	processor.h
pat.c	rbtree.h
pat.c	seq_file.h
pat.c	slab.h
pat.c	tlbflush.h
pat.c	x86_init.h
pat_rbtree.c	debugfs.h
pat_rbtree.c	gfp.h
pat_rbtree.c	kernel.h
pat_rbtree.c	module.h
pat_rbtree.c	pat.h
pat_rbtree.c	pat_internal.h
pat_rbtree.c	pgtable.h
pat_rbtree.c	rbtree_augmented.h
pat_rbtree.c	sched.h
pat_rbtree.c	seq_file.h
pci.h	io.h
pci.h	mm.h
pci.h	pci-dma-compat.h
pci.h	pci.h
pci.h	pci_64.h
pci.h	scatterlist.h
pci.h	slab.h
pci.h	string.h
pci.h	types.h
pci.h	x86_init.h
perf_event_intel.c	apic.h
perf_event_intel.c	export.h
perf_event_intel.c	hardirq.h
perf_event_intel.c	init.h
perf_event_intel.c	perf_event.h
perf_event_intel.c	slab.h
perf_event_intel.c	stddef.h
perf_event_intel.c	types.h
perf_event_intel_ds.c	bitops.h
perf_event_intel_ds.c	insn.h
perf_event_intel_ds.c	perf_event.h
perf_event_intel_ds.c	perf_event.h
perf_event_intel_ds.c	slab.h
perf_event_intel_ds.c	types.h
perf_event_intel_lbr.c	insn.h
perf_event_intel_lbr.c	msr.h
perf_event_intel_lbr.c	perf_event.h
perf_event_intel_lbr.c	perf_event.h
perf_event_intel_lbr.c	perf_event.h
perf_event_intel_lbr.c	types.h
perf_event_intel_uncore.h	module.h
perf_event_intel_uncore.h	pci.h
perf_event_intel_uncore.h	perf_event.h
perf_event_intel_uncore.h	perf_event.h
perf_event_intel_uncore.h	slab.h
perf_event_knc.c	hardirq.h
perf_event_knc.c	perf_event.h
perf_event_knc.c	perf_event.h
perf_event_knc.c	types.h
perf_event_p4.c	apic.h
perf_event_p4.c	hardirq.h
perf_event_p4.c	perf_event.h
perf_event_p4.c	perf_event.h
perf_event_p4.c	perf_event_p4.h
perf_event_p6.c	perf_event.h
perf_event_p6.c	perf_event.h
perf_event_p6.c	types.h
perf_regs.c	bug.h
perf_regs.c	errno.h
perf_regs.c	kernel.h
perf_regs.c	perf_event.h
perf_regs.c	perf_regs.h
perf_regs.c	ptrace.h
perf_regs.c	sched.h
perf_regs.c	stddef.h
pf_in.c	module.h
pf_in.c	pf_in.h
pf_in.c	ptrace.h
pgtable.c	fixmap.h
pgtable.c	gfp.h
pgtable.c	mm.h
pgtable.c	pgalloc.h
pgtable.c	pgtable.h
pgtable.c	tlb.h
pgtable.h	e820.h
pgtable.h	mm_types.h
pgtable.h	page.h
pgtable.h	paravirt.h
pgtable.h	pgtable.h
pgtable.h	pgtable_types.h
pgtable.h	x86_init.h
pgtable_32.c	e820.h
pgtable_32.c	errno.h
pgtable_32.c	fixmap.h
pgtable_32.c	highmem.h
pgtable_32.c	io.h
pgtable_32.c	kernel.h
pgtable_32.c	mm.h
pgtable_32.c	module.h
pgtable_32.c	nmi.h
pgtable_32.c	pagemap.h
pgtable_32.c	pgalloc.h
pgtable_32.c	pgtable.h
pgtable_32.c	sched.h
pgtable_32.c	smp.h
pgtable_32.c	spinlock.h
pgtable_32.c	swap.h
pgtable_32.c	tlb.h
pgtable_32.c	tlbflush.h
pgtable_64_types.h	types.h
physaddr.c	mm.h
physaddr.c	mmdebug.h
physaddr.c	module.h
physaddr.c	page.h
physaddr.c	physaddr.h
physaddr.h	processor.h
powerflags.c	cpufeature.h
prctl.c	ptrace.h
prctl.c	ptrace.h
probe_32.c	acpi.h
probe_32.c	apic.h
probe_32.c	apicdef.h
probe_32.c	cpumask.h
probe_32.c	ctype.h
probe_32.c	e820.h
probe_32.c	errno.h
probe_32.c	fixmap.h
probe_32.c	init.h
probe_32.c	interrupt.h
probe_32.c	ipi.h
probe_32.c	kernel.h
probe_32.c	module.h
probe_32.c	mpspec.h
probe_32.c	setup.h
probe_32.c	smp.h
probe_32.c	string.h
probe_32.c	threads.h
probe_64.c	apic.h
probe_64.c	cpumask.h
probe_64.c	ctype.h
probe_64.c	dmar.h
probe_64.c	hardirq.h
probe_64.c	init.h
probe_64.c	ipi.h
probe_64.c	kernel.h
probe_64.c	module.h
probe_64.c	setup.h
probe_64.c	smp.h
probe_64.c	string.h
probe_64.c	threads.h
process.c	apic.h
process.c	clockchips.h
process.c	cpu.h
process.c	cpuidle.h
process.c	debugreg.h
process.c	dmi.h
process.c	errno.h
process.c	fpu-internal.h
process.c	hw_breakpoint.h
process.c	i387.h
process.c	idle.h
process.c	kernel.h
process.c	mm.h
process.c	module.h
process.c	nmi.h
process.c	pm.h
process.c	power.h
process.c	prctl.h
process.c	random.h
process.c	sched.h
process.c	slab.h
process.c	smp.h
process.c	stackprotector.h
process.c	syscalls.h
process.c	tick.h
process.c	uaccess.h
process.c	user-return-notifier.h
process.c	utsname.h
processor.h	faultinfo.h
processor.h	processor-generic.h
processor.h	user.h
processor_32.h	ldt.h
processor_32.h	segment.h
processor_32.h	string.h
prom.h	atomic.h
prom.h	irq.h
prom.h	of.h
prom.h	pci.h
prom.h	setup.h
prom.h	types.h
pte.c	mm.h
pte.c	pgtable.h
pte.c	pte.h
pte.h	mm.h
pte.h	pgtable.h
ptrace.h	faultinfo.h
ptrace.h	faultinfo.h
ptrace.h	ptrace_32.h
ptrace.h	ptrace_32.h
ptrace.h	ptrace_64.h
ptrace.h	ptrace_64.h
ptrace.h	user_constants.h
ptrace.h	user_constants.h
ptrace_32.c	mm.h
ptrace_32.c	sched.h
ptrace_32.c	skas.h
ptrace_32.c	uaccess.h
ptrace_64.c	errno.h
ptrace_64.c	mm.h
ptrace_64.c	ptrace.h
ptrace_64.c	sched.h
ptrace_64.c	uaccess.h
ptrace_user.c	errno.h
ptrace_user.c	ptrace_user.h
ptrace_user.h	user_constants.h
pvclock.c	bootmem.h
pvclock.c	fixmap.h
pvclock.c	gfp.h
pvclock.c	kernel.h
pvclock.c	notifier.h
pvclock.c	percpu.h
pvclock.c	pvclock.h
pvclock.c	sched.h
registers.c	errno.h
registers.c	longjmp.h
registers.c	ptrace.h
registers.c	ptrace_user.h
registers.c	user.h
regs.c	regs.c
relocs.c	byteswap.h
relocs.c	elf.h
relocs.c	endian.h
relocs.c	errno.h
relocs.c	le_byteshift.h
relocs.c	regex.h
relocs.c	stdarg.h
relocs.c	stdint.h
relocs.c	stdio.h
relocs.c	stdlib.h
relocs.c	string.h
relocs.c	unistd.h
resource.c	e820.h
resource.c	ioport.h
resume-trace.h	asm.h
rtc.c	acpi.h
rtc.c	bcd.h
rtc.c	export.h
rtc.c	mc146818rtc.h
rtc.c	mrst.h
rtc.c	of.h
rtc.c	platform_device.h
rtc.c	pnp.h
rtc.c	time.h
rtc.c	vsyscall.h
rtc.c	x86_init.h
salsa20_glue.c	algapi.h
salsa20_glue.c	crypto.h
salsa20_glue.c	module.h
scattered.c	apic.h
scattered.c	cpu.h
scattered.c	pat.h
scattered.c	processor.h
scx200_32.c	errno.h
scx200_32.c	init.h
scx200_32.c	kernel.h
scx200_32.c	module.h
scx200_32.c	mutex.h
scx200_32.c	pci.h
scx200_32.c	scx200.h
scx200_32.c	scx200_gpio.h
seccomp_64.h	ia32_unistd.h
seccomp_64.h	unistd.h
selftest.c	bug.h
selftest.c	kernel.h
selftest.c	opcode.h
selftest.c	selftest.h
serpent_avx_glue.c	ablk_helper.h
serpent_avx_glue.c	algapi.h
serpent_avx_glue.c	b128ops.h
serpent_avx_glue.c	cryptd.h
serpent_avx_glue.c	crypto.h
serpent_avx_glue.c	ctr.h
serpent_avx_glue.c	err.h
serpent_avx_glue.c	glue_helper.h
serpent_avx_glue.c	hardirq.h
serpent_avx_glue.c	lrw.h
serpent_avx_glue.c	module.h
serpent_avx_glue.c	serpent-avx.h
serpent_avx_glue.c	serpent.h
serpent_avx_glue.c	types.h
serpent_avx_glue.c	xcr.h
serpent_avx_glue.c	xsave.h
serpent_avx_glue.c	xts.h
serpent_sse2_glue.c	ablk_helper.h
serpent_sse2_glue.c	algapi.h
serpent_sse2_glue.c	b128ops.h
serpent_sse2_glue.c	cryptd.h
serpent_sse2_glue.c	crypto.h
serpent_sse2_glue.c	ctr.h
serpent_sse2_glue.c	err.h
serpent_sse2_glue.c	glue_helper.h
serpent_sse2_glue.c	hardirq.h
serpent_sse2_glue.c	lrw.h
serpent_sse2_glue.c	module.h
serpent_sse2_glue.c	serpent-sse2.h
serpent_sse2_glue.c	serpent.h
serpent_sse2_glue.c	types.h
serpent_sse2_glue.c	xts.h
setup.c	acpi.h
setup.c	alternative.h
setup.c	amd_nb.h
setup.c	apic.h
setup.c	apicdef.h
setup.c	apm_bios.h
setup.c	bios_ebda.h
setup.c	bootmem.h
setup.c	bugs.h
setup.c	cacheflush.h
setup.c	console.h
setup.c	cpu.h
setup.c	cpufreq.h
setup.c	crash_dump.h
setup.c	ctype.h
setup.c	delay.h
setup.c	desc.h
setup.c	dma-contiguous.h
setup.c	dma-mapping.h
setup.c	dma.h
setup.c	dmi.h
setup.c	dmi.h
setup.c	e820.h
setup.c	edd.h
setup.c	edid.h
setup.c	efi.h
setup.c	efi.h
setup.c	errno.h
setup.c	gart.h
setup.c	highmem.h
setup.c	hypervisor.h
setup.c	i8259.h
setup.c	init.h
setup.c	init_ohci1394_dma.h
setup.c	initrd.h
setup.c	io_apic.h
setup.c	iommu.h
setup.c	ioport.h
setup.c	iscsi_ibft.h
setup.c	ist.h
setup.c	jiffies.h
setup.c	kallsyms.h
setup.c	kernel.h
setup.c	kexec.h
setup.c	kvm_para.h
setup.c	mce.h
setup.c	memblock.h
setup.c	mm.h
setup.c	mmu_context.h
setup.c	mmzone.h
setup.c	module.h
setup.c	mpspec.h
setup.c	mtrr.h
setup.c	nodemask.h
setup.c	numa_64.h
setup.c	olpc_ofw.h
setup.c	paravirt.h
setup.c	pci-direct.h
setup.c	pci.h
setup.c	percpu.h
setup.c	percpu.h
setup.c	pfn.h
setup.c	processor.h
setup.c	prom.h
setup.c	proto.h
setup.c	ptrace.h
setup.c	realmode.h
setup.c	root_dev.h
setup.c	sched.h
setup.c	screen_info.h
setup.c	sections.h
setup.c	seq_file.h
setup.c	setup.h
setup.c	setup_arch.h
setup.c	sfi.h
setup.c	stddef.h
setup.c	tboot.h
setup.c	timer.h
setup.c	topology.h
setup.c	uaccess.h
setup.c	unistd.h
setup.c	user.h
setup.c	vsyscall.h
setup_nx.c	errno.h
setup_nx.c	init.h
setup_nx.c	pgtable.h
setup_nx.c	proto.h
setup_nx.c	spinlock.h
sfi.c	acpi.h
sfi.c	apic.h
sfi.c	init.h
sfi.c	io.h
sfi.c	io_apic.h
sfi.c	mpspec.h
sfi.c	setup.h
sfi.c	sfi.h
sha1_ssse3_glue.c	byteorder.h
sha1_ssse3_glue.c	cryptohash.h
sha1_ssse3_glue.c	hash.h
sha1_ssse3_glue.c	i387.h
sha1_ssse3_glue.c	init.h
sha1_ssse3_glue.c	mm.h
sha1_ssse3_glue.c	module.h
sha1_ssse3_glue.c	sha.h
sha1_ssse3_glue.c	types.h
sha1_ssse3_glue.c	xcr.h
sha1_ssse3_glue.c	xsave.h
shadow.c	kmemcheck.h
shadow.c	mm.h
shadow.c	module.h
shadow.c	page.h
shadow.c	pgtable.h
shadow.c	pte.h
shadow.c	shadow.h
signal.c	context_tracking.h
signal.c	context_tracking.h
signal.c	errno.h
signal.c	errno.h
signal.c	fpu-internal.h
signal.c	fpu-internal.h
signal.c	i387.h
signal.c	i387.h
signal.c	ia32_unistd.h
signal.c	ia32_unistd.h
signal.c	kernel.h
signal.c	kernel.h
signal.c	mce.h
signal.c	mce.h
signal.c	mm.h
signal.c	mm.h
signal.c	personality.h
signal.c	personality.h
signal.c	processor.h
signal.c	processor.h
signal.c	proto.h
signal.c	proto.h
signal.c	sched.h
signal.c	sched.h
signal.c	sigframe.h
signal.c	sigframe.h
signal.c	sighandling.h
signal.c	sighandling.h
signal.c	smp.h
signal.c	smp.h
signal.c	stddef.h
signal.c	stddef.h
signal.c	sys_ia32.h
signal.c	sys_ia32.h
signal.c	syscall.h
signal.c	syscall.h
signal.c	syscalls.h
signal.c	syscalls.h
signal.c	tracehook.h
signal.c	tracehook.h
signal.c	uaccess.h
signal.c	uaccess.h
signal.c	ucontext.h
signal.c	ucontext.h
signal.c	unistd.h
signal.c	unistd.h
signal.c	uprobes.h
signal.c	uprobes.h
signal.c	user-return-notifier.h
signal.c	user-return-notifier.h
signal.c	vdso.h
signal.c	vdso.h
signal.c	wait.h
signal.c	wait.h
spinlock_types.h	rwlock.h
spinlock_types.h	types.h
srat.c	acpi.h
srat.c	apic.h
srat.c	bitmap.h
srat.c	bootmem.h
srat.c	e820.h
srat.c	kernel.h
srat.c	memblock.h
srat.c	mm.h
srat.c	mmzone.h
srat.c	module.h
srat.c	numa.h
srat.c	proto.h
srat.c	topology.h
srat.c	uv.h
string_32.c	module.h
string_32.c	string.h
strstr_32.c	string.h
stub.h	as-layout.h
stub.h	mman.h
stub.h	signal.h
stub.h	stub-data.h
stub.h	stub_32.h
stub.h	stub_64.h
stub.h	unistd.h
stub_32.h	ptrace.h
stub_64.h	ptrace_user.h
stub_segv.c	faultinfo.h
stub_segv.c	mcontext.h
stub_segv.c	stub.h
summit_32.c	apic.h
summit_32.c	apicdef.h
summit_32.c	bios_ebda.h
summit_32.c	cpumask.h
summit_32.c	fixmap.h
summit_32.c	gfp.h
summit_32.c	init.h
summit_32.c	io.h
summit_32.c	ipi.h
summit_32.c	kernel.h
summit_32.c	mm.h
summit_32.c	mpspec.h
summit_32.c	smp.h
summit_32.c	smp.h
summit_32.c	string.h
summit_32.c	threads.h
summit_32.c	tsc.h
sys_call_table_32.c	cache.h
sys_call_table_32.c	linkage.h
sys_call_table_32.c	sys.h
sys_call_table_32.c	syscalls_32.h
sys_call_table_32.c	syscalls_32.h
sys_call_table_32.c	user_constants.h
sys_call_table_64.c	cache.h
sys_call_table_64.c	linkage.h
sys_call_table_64.c	sys.h
sys_call_table_64.c	syscalls_64.h
sys_call_table_64.c	syscalls_64.h
sys_call_table_64.c	user_constants.h
sys_ia32.c	atomic.h
sys_ia32.c	compat.h
sys_ia32.c	file.h
sys_ia32.c	fs.h
sys_ia32.c	highuid.h
sys_ia32.c	kernel.h
sys_ia32.c	mm.h
sys_ia32.c	mman.h
sys_ia32.c	personality.h
sys_ia32.c	poll.h
sys_ia32.c	ptrace.h
sys_ia32.c	rwsem.h
sys_ia32.c	sched.h
sys_ia32.c	signal.h
sys_ia32.c	slab.h
sys_ia32.c	stat.h
sys_ia32.c	sys_ia32.h
sys_ia32.c	syscalls.h
sys_ia32.c	sysctl.h
sys_ia32.c	times.h
sys_ia32.c	types.h
sys_ia32.c	uaccess.h
sys_ia32.c	uio.h
sys_ia32.c	utsname.h
sys_ia32.c	vfs.h
sys_ia32.c	vgtod.h
sys_x86_64.c	elf.h
sys_x86_64.c	errno.h
sys_x86_64.c	file.h
sys_x86_64.c	fs.h
sys_x86_64.c	ia32.h
sys_x86_64.c	mm.h
sys_x86_64.c	mman.h
sys_x86_64.c	msg.h
sys_x86_64.c	personality.h
sys_x86_64.c	random.h
sys_x86_64.c	sched.h
sys_x86_64.c	sem.h
sys_x86_64.c	shm.h
sys_x86_64.c	smp.h
sys_x86_64.c	stat.h
sys_x86_64.c	syscalls.h
sys_x86_64.c	syscalls.h
sys_x86_64.c	uaccess.h
sys_x86_64.c	utsname.h
syscall_32.c	asm-offsets.h
syscall_32.c	cache.h
syscall_32.c	linkage.h
syscall_32.c	sys.h
syscall_32.c	syscalls_32.h
syscall_32.c	syscalls_32.h
syscall_ia32.c	asm-offsets.h
syscall_ia32.c	cache.h
syscall_ia32.c	linkage.h
syscall_ia32.c	sys.h
syscall_ia32.c	syscalls_32.h
syscall_ia32.c	syscalls_32.h
syscalls.h	syscalls_32.h
syscalls.h	syscalls_64.h
syscalls_32.c	syscalls.h
syscalls_32.c	syscalls.h
syscalls_32.h	ptrace.h
syscalls_32.h	unistd.h
syscalls_64.c	os.h
syscalls_64.c	prctl.h
syscalls_64.c	sched.h
syscalls_64.h	msg.h
syscalls_64.h	shm.h
sysrq_32.c	kallsyms.h
sysrq_32.c	kernel.h
sysrq_32.c	ptrace.h
sysrq_32.c	sched.h
sysrq_32.c	smp.h
sysrq_32.c	sysrq.h
sysrq_64.c	current.h
sysrq_64.c	kernel.h
sysrq_64.c	module.h
sysrq_64.c	ptrace.h
sysrq_64.c	sched.h
sysrq_64.c	sysrq.h
sysrq_64.c	utsname.h
task_size.c	longjmp.h
task_size.c	mman.h
task_size.c	signal.h
task_size.c	stdio.h
task_size.c	stdlib.h
test_get_len.c	assert.h
test_get_len.c	inat.c
test_get_len.c	insn.c
test_get_len.c	insn.h
test_get_len.c	stdio.h
test_get_len.c	stdlib.h
test_get_len.c	string.h
test_get_len.c	unistd.h
testmmiotrace.c	io.h
testmmiotrace.c	mmiotrace.h
testmmiotrace.c	module.h
therm_throt.c	apic.h
therm_throt.c	cpu.h
therm_throt.c	export.h
therm_throt.c	idle.h
therm_throt.c	init.h
therm_throt.c	interrupt.h
therm_throt.c	jiffies.h
therm_throt.c	kernel.h
therm_throt.c	mce.h
therm_throt.c	msr.h
therm_throt.c	notifier.h
therm_throt.c	percpu.h
therm_throt.c	processor.h
therm_throt.c	smp.h
therm_throt.c	types.h
threshold.c	apic.h
threshold.c	idle.h
threshold.c	interrupt.h
threshold.c	irq_vectors.h
threshold.c	kernel.h
threshold.c	mce.h
time.h	clocksource.h
time.h	mc146818rtc.h
timex.h	processor.h
timex.h	tsc.h
tlb.c	apic.h
tlb.c	cache.h
tlb.c	cpu.h
tlb.c	debugfs.h
tlb.c	init.h
tlb.c	interrupt.h
tlb.c	mm.h
tlb.c	mmu_context.h
tlb.c	module.h
tlb.c	smp.h
tlb.c	spinlock.h
tlb.c	tlbflush.h
tlb.c	uv.h
tlb_uv.c	apic.h
tlb_uv.c	debugfs.h
tlb_uv.c	delay.h
tlb_uv.c	idle.h
tlb_uv.c	irq_vectors.h
tlb_uv.c	kernel.h
tlb_uv.c	mmu_context.h
tlb_uv.c	proc_fs.h
tlb_uv.c	seq_file.h
tlb_uv.c	slab.h
tlb_uv.c	timer.h
tlb_uv.c	tsc.h
tlb_uv.c	uv.h
tlb_uv.c	uv_bau.h
tlb_uv.c	uv_hub.h
tlb_uv.c	uv_mmrs.h
tls.c	desc.h
tls.c	desc.h
tls.c	errno.h
tls.c	errno.h
tls.c	kernel.h
tls.c	kernel.h
tls.c	ldt.h
tls.c	ldt.h
tls.c	processor.h
tls.c	processor.h
tls.c	proto.h
tls.c	proto.h
tls.c	regset.h
tls.c	regset.h
tls.c	sched.h
tls.c	sched.h
tls.c	syscalls.h
tls.c	syscalls.h
tls.c	tls.h
tls.c	tls.h
tls.c	uaccess.h
tls.c	uaccess.h
tls.c	user.h
tls.c	user.h
tls_32.c	os.h
tls_32.c	percpu.h
tls_32.c	sched.h
tls_32.c	skas.h
tls_32.c	tls.h
tls_32.c	uaccess.h
tls_64.c	sched.h
topology.c	apic.h
topology.c	apic.h
topology.c	cpu.h
topology.c	cpu.h
topology.c	pat.h
topology.c	pat.h
topology.c	processor.h
topology.c	processor.h
transmeta.c	cpu.h
transmeta.c	init.h
transmeta.c	kernel.h
transmeta.c	mm.h
transmeta.c	msr.h
transmeta.c	processor.h
traps.c	atomic.h
traps.c	bug.h
traps.c	context_tracking.h
traps.c	debugreg.h
traps.c	delay.h
traps.c	desc.h
traps.c	edac.h
traps.c	eisa.h
traps.c	errno.h
traps.c	fpu-internal.h
traps.c	ftrace.h
traps.c	i387.h
traps.c	init.h
traps.c	interrupt.h
traps.c	io.h
traps.c	ioport.h
traps.c	kallsyms.h
traps.c	kdebug.h
traps.c	kernel.h
traps.c	kexec.h
traps.c	kgdb.h
traps.c	kmemcheck.h
traps.c	kprobes.h
traps.c	mach_traps.h
traps.c	mce.h
traps.c	mm.h
traps.c	module.h
traps.c	nmi.h
traps.c	pgalloc.h
traps.c	processor-flags.h
traps.c	processor.h
traps.c	proto.h
traps.c	ptrace.h
traps.c	sched.h
traps.c	setup.h
traps.c	smp.h
traps.c	spinlock.h
traps.c	stacktrace.h
traps.c	string.h
traps.c	timer.h
traps.c	traps.h
traps.c	uaccess.h
traps.c	x86_init.h
tsc.h	processor.h
tsc_sync.c	init.h
tsc_sync.c	kernel.h
tsc_sync.c	nmi.h
tsc_sync.c	smp.h
tsc_sync.c	spinlock.h
tsc_sync.c	tsc.h
twofish_avx_glue.c	ablk_helper.h
twofish_avx_glue.c	algapi.h
twofish_avx_glue.c	b128ops.h
twofish_avx_glue.c	cryptd.h
twofish_avx_glue.c	crypto.h
twofish_avx_glue.c	ctr.h
twofish_avx_glue.c	err.h
twofish_avx_glue.c	glue_helper.h
twofish_avx_glue.c	hardirq.h
twofish_avx_glue.c	i387.h
twofish_avx_glue.c	lrw.h
twofish_avx_glue.c	module.h
twofish_avx_glue.c	scatterwalk.h
twofish_avx_glue.c	spinlock.h
twofish_avx_glue.c	twofish.h
twofish_avx_glue.c	twofish.h
twofish_avx_glue.c	types.h
twofish_avx_glue.c	workqueue.h
twofish_avx_glue.c	xcr.h
twofish_avx_glue.c	xsave.h
twofish_avx_glue.c	xts.h
twofish_glue.c	crypto.h
twofish_glue.c	init.h
twofish_glue.c	module.h
twofish_glue.c	twofish.h
twofish_glue.c	types.h
twofish_glue_3way.c	algapi.h
twofish_glue_3way.c	b128ops.h
twofish_glue_3way.c	crypto.h
twofish_glue_3way.c	glue_helper.h
twofish_glue_3way.c	init.h
twofish_glue_3way.c	lrw.h
twofish_glue_3way.c	module.h
twofish_glue_3way.c	processor.h
twofish_glue_3way.c	twofish.h
twofish_glue_3way.c	twofish.h
twofish_glue_3way.c	types.h
twofish_glue_3way.c	xts.h
uaccess.h	asm.h
uaccess.h	compiler.h
uaccess.h	errno.h
uaccess.h	page.h
uaccess.h	smap.h
uaccess.h	string.h
uaccess.h	thread_info.h
um_vdso.c	getcpu.h
um_vdso.c	time.h
um_vdso.c	unistd.h
umc.c	cpu.h
umc.c	init.h
umc.c	kernel.h
umc.c	processor.h
uprobes.c	insn.h
uprobes.c	kdebug.h
uprobes.c	kernel.h
uprobes.c	processor.h
uprobes.c	ptrace.h
uprobes.c	sched.h
uprobes.c	uaccess.h
uprobes.c	uprobes.h
user-offsets.c	mman.h
user-offsets.c	poll.h
user-offsets.c	ptrace.h
user-offsets.c	signal.h
user-offsets.c	stddef.h
user-offsets.c	stdio.h
user-offsets.c	syscalls_32.h
user-offsets.c	syscalls_64.h
user-offsets.c	types.h
user-offsets.c	user.h
user_64.h	page.h
user_64.h	types.h
usercopy.c	highmem.h
usercopy.c	module.h
usercopy.c	sched.h
usercopy.c	word-at-a-time.h
usercopy_32.c	asm.h
usercopy_32.c	backing-dev.h
usercopy_32.c	blkdev.h
usercopy_32.c	highmem.h
usercopy_32.c	interrupt.h
usercopy_32.c	mm.h
usercopy_32.c	mmx.h
usercopy_32.c	module.h
usercopy_32.c	uaccess.h
usercopy_64.c	module.h
usercopy_64.c	uaccess.h
uv_irq.c	apic.h
uv_irq.c	irq.h
uv_irq.c	module.h
uv_irq.c	rbtree.h
uv_irq.c	slab.h
uv_irq.c	uv_hub.h
uv_irq.c	uv_irq.h
uv_sysfs.c	bios.h
uv_sysfs.c	device.h
uv_sysfs.c	uv.h
uv_time.c	apic.h
uv_time.c	bios.h
uv_time.c	clockchips.h
uv_time.c	cpu.h
uv_time.c	slab.h
uv_time.c	uv.h
uv_time.c	uv_hub.h
uv_time.c	uv_mmrs.h
vclock_gettime.c	fixmap.h
vclock_gettime.c	hpet.h
vclock_gettime.c	io.h
vclock_gettime.c	kernel.h
vclock_gettime.c	posix-timers.h
vclock_gettime.c	pvclock.h
vclock_gettime.c	string.h
vclock_gettime.c	time.h
vclock_gettime.c	timex.h
vclock_gettime.c	unistd.h
vclock_gettime.c	vgtod.h
vclock_gettime.c	vsyscall.h
vdso32-setup.c	cpufeature.h
vdso32-setup.c	elf.h
vdso32-setup.c	elf.h
vdso32-setup.c	err.h
vdso32-setup.c	gfp.h
vdso32-setup.c	init.h
vdso32-setup.c	mm.h
vdso32-setup.c	module.h
vdso32-setup.c	msr.h
vdso32-setup.c	pgtable.h
vdso32-setup.c	proto.h
vdso32-setup.c	sched.h
vdso32-setup.c	smp.h
vdso32-setup.c	string.h
vdso32-setup.c	sysctl.h
vdso32-setup.c	thread_info.h
vdso32-setup.c	tlbflush.h
vdso32-setup.c	unistd.h
vdso32-setup.c	vdso.h
vgetcpu.c	getcpu.h
vgetcpu.c	jiffies.h
vgetcpu.c	kernel.h
vgetcpu.c	time.h
vgetcpu.c	vgtod.h
vgetcpu.c	vsyscall.h
video-bios.c	video-bios.c
video-mode.c	video-mode.c
video-vesa.c	video-vesa.c
video-vga.c	video-vga.c
visws_quirks.c	apic.h
visws_quirks.c	cobalt.h
visws_quirks.c	e820.h
visws_quirks.c	fixmap.h
visws_quirks.c	i8259.h
visws_quirks.c	init.h
visws_quirks.c	interrupt.h
visws_quirks.c	io.h
visws_quirks.c	io_apic.h
visws_quirks.c	irq_vectors.h
visws_quirks.c	kernel.h
visws_quirks.c	kernel_stat.h
visws_quirks.c	lithium.h
visws_quirks.c	module.h
visws_quirks.c	pci.h
visws_quirks.c	pci_ids.h
visws_quirks.c	piix4.h
visws_quirks.c	reboot.h
visws_quirks.c	sched.h
visws_quirks.c	setup.h
visws_quirks.c	smp.h
visws_quirks.c	time.h
vma.c	elf.h
vma.c	elf.h
vma.c	err.h
vma.c	err.h
vma.c	init.h
vma.c	init.h
vma.c	mm.h
vma.c	mm.h
vma.c	page.h
vma.c	page.h
vma.c	proto.h
vma.c	proto.h
vma.c	random.h
vma.c	random.h
vma.c	sched.h
vma.c	sched.h
vma.c	slab.h
vma.c	slab.h
vma.c	vdso.h
vma.c	vdso.h
vma.c	vgtod.h
vma.c	vgtod.h
vma.c	vsyscall.h
vma.c	vsyscall.h
vrtc.c	export.h
vrtc.c	fixmap.h
vrtc.c	init.h
vrtc.c	kernel.h
vrtc.c	mrst-vrtc.h
vrtc.c	mrst.h
vrtc.c	platform_device.h
vrtc.c	sfi.h
vrtc.c	time.h
wakemain.c	boot.h
wakemain.c	wakeup.h
wakeup.h	types.h
winchip.c	init.h
winchip.c	interrupt.h
winchip.c	kernel.h
winchip.c	mce.h
winchip.c	msr.h
winchip.c	processor.h
winchip.c	types.h
x2apic.h	apic.h
x2apic.h	cpumask.h
x2apic.h	ipi.h
x2apic_cluster.c	cpu.h
x2apic_cluster.c	cpumask.h
x2apic_cluster.c	ctype.h
x2apic_cluster.c	dmar.h
x2apic_cluster.c	init.h
x2apic_cluster.c	kernel.h
x2apic_cluster.c	smp.h
x2apic_cluster.c	string.h
x2apic_cluster.c	threads.h
x2apic_cluster.c	x2apic.h
x2apic_phys.c	cpumask.h
x2apic_phys.c	ctype.h
x2apic_phys.c	dmar.h
x2apic_phys.c	init.h
x2apic_phys.c	kernel.h
x2apic_phys.c	smp.h
x2apic_phys.c	string.h
x2apic_phys.c	threads.h
x2apic_phys.c	x2apic.h
x2apic_uv_x.c	apic.h
x2apic_uv_x.c	bios.h
x2apic_uv_x.c	cpu.h
x2apic_uv_x.c	cpumask.h
x2apic_uv_x.c	crash_dump.h
x2apic_uv_x.c	ctype.h
x2apic_uv_x.c	current.h
x2apic_uv_x.c	delay.h
x2apic_uv_x.c	emergency-restart.h
x2apic_uv_x.c	hardirq.h
x2apic_uv_x.c	init.h
x2apic_uv_x.c	io.h
x2apic_uv_x.c	ipi.h
x2apic_uv_x.c	kdebug.h
x2apic_uv_x.c	kernel.h
x2apic_uv_x.c	module.h
x2apic_uv_x.c	nmi.h
x2apic_uv_x.c	pci.h
x2apic_uv_x.c	pgtable.h
x2apic_uv_x.c	proc_fs.h
x2apic_uv_x.c	sched.h
x2apic_uv_x.c	slab.h
x2apic_uv_x.c	smp.h
x2apic_uv_x.c	string.h
x2apic_uv_x.c	threads.h
x2apic_uv_x.c	timer.h
x2apic_uv_x.c	uv.h
x2apic_uv_x.c	uv_hub.h
x2apic_uv_x.c	uv_mmrs.h
x2apic_uv_x.c	x86_init.h
x8664_ksyms_64.c	checksum.h
x8664_ksyms_64.c	desc.h
x8664_ksyms_64.c	ftrace.h
x8664_ksyms_64.c	module.h
x8664_ksyms_64.c	pgtable.h
x8664_ksyms_64.c	processor.h
x8664_ksyms_64.c	smp.h
x8664_ksyms_64.c	uaccess.h
x86_init.c	apic.h
x86_init.c	bios_ebda.h
x86_init.c	e820.h
x86_init.c	init.h
x86_init.c	io_apic.h
x86_init.c	iommu.h
x86_init.c	ioport.h
x86_init.c	irq.h
x86_init.c	mach_traps.h
x86_init.c	module.h
x86_init.c	mpspec.h
x86_init.c	paravirt.h
x86_init.c	pat.h
x86_init.c	pci.h
x86_init.c	pci.h
x86_init.c	pci_x86.h
x86_init.c	setup.h
x86_init.c	time.h
x86_init.c	tsc.h
xcr.h	types.h
xsave.c	bootmem.h
xsave.c	compat.h
xsave.c	fpu-internal.h
xsave.c	i387.h
xsave.c	sigframe.h
xsave.c	xcr.h
