NCR5380.h	interrupt.h
NCR5380.h	scsi_eh.h
aachba.c	aacraid.h
aachba.c	blkdev.h
aachba.c	completion.h
aachba.c	highmem.h
aachba.c	init.h
aachba.c	kernel.h
aachba.c	module.h
aachba.c	pci.h
aachba.c	scsi.h
aachba.c	scsi_cmnd.h
aachba.c	scsi_device.h
aachba.c	scsi_host.h
aachba.c	slab.h
aachba.c	spinlock.h
aachba.c	types.h
aachba.c	uaccess.h
aacraid.h	interrupt.h
accel_2d.c	console.h
accel_2d.c	delay.h
accel_2d.c	drm.h
accel_2d.c	drmP.h
accel_2d.c	drm_crtc.h
accel_2d.c	errno.h
accel_2d.c	fb.h
accel_2d.c	framebuffer.h
accel_2d.c	init.h
accel_2d.c	kernel.h
accel_2d.c	mm.h
accel_2d.c	module.h
accel_2d.c	psb_drv.h
accel_2d.c	psb_reg.h
accel_2d.c	slab.h
accel_2d.c	string.h
accel_2d.c	tty.h
aha152x.c	aha152x.h
aha152x.c	blkdev.h
aha152x.c	completion.h
aha152x.c	delay.h
aha152x.c	errno.h
aha152x.c	init.h
aha152x.c	interrupt.h
aha152x.c	io.h
aha152x.c	ioport.h
aha152x.c	irq.h
aha152x.c	isapnp.h
aha152x.c	kernel.h
aha152x.c	list.h
aha152x.c	module.h
aha152x.c	proc_fs.h
aha152x.c	scsi.h
aha152x.c	scsi_dbg.h
aha152x.c	scsi_eh.h
aha152x.c	scsi_host.h
aha152x.c	scsi_transport_spi.h
aha152x.c	scsicam.h
aha152x.c	slab.h
aha152x.c	spinlock.h
aha152x.c	string.h
aha152x.c	wait.h
aha152x.c	workqueue.h
aha152x_core.c	aha152x.c
aha152x_stub.c	aha152x.h
aha152x_stub.c	blkdev.h
aha152x_stub.c	cistpl.h
aha152x_stub.c	ds.h
aha152x_stub.c	init.h
aha152x_stub.c	ioport.h
aha152x_stub.c	kernel.h
aha152x_stub.c	major.h
aha152x_stub.c	module.h
aha152x_stub.c	scsi.h
aha152x_stub.c	scsi.h
aha152x_stub.c	scsi_host.h
aha152x_stub.c	scsi_ioctl.h
aha152x_stub.c	slab.h
aha152x_stub.c	string.h
ati_pcigart.c	drmP.h
ati_pcigart.c	export.h
atp870u.h	kdev_t.h
atp870u.h	types.h
backlight.c	intel_bios.h
backlight.c	power.h
backlight.c	psb_drv.h
backlight.c	psb_intel_drv.h
backlight.c	psb_intel_reg.h
cdv_device.c	backlight.h
cdv_device.c	cdv_device.h
cdv_device.c	drm.h
cdv_device.c	drmP.h
cdv_device.c	gma_drm.h
cdv_device.c	intel_bios.h
cdv_device.c	psb_drv.h
cdv_device.c	psb_intel_reg.h
cdv_device.c	psb_reg.h
cdv_intel_crt.c	cdv_device.h
cdv_intel_crt.c	drmP.h
cdv_intel_crt.c	i2c.h
cdv_intel_crt.c	intel_bios.h
cdv_intel_crt.c	pm_runtime.h
cdv_intel_crt.c	power.h
cdv_intel_crt.c	psb_drv.h
cdv_intel_crt.c	psb_intel_drv.h
cdv_intel_crt.c	psb_intel_reg.h
cdv_intel_display.c	cdv_device.h
cdv_intel_display.c	drmP.h
cdv_intel_display.c	framebuffer.h
cdv_intel_display.c	i2c.h
cdv_intel_display.c	pm_runtime.h
cdv_intel_display.c	power.h
cdv_intel_display.c	psb_drv.h
cdv_intel_display.c	psb_intel_display.h
cdv_intel_display.c	psb_intel_drv.h
cdv_intel_display.c	psb_intel_reg.h
cdv_intel_dp.c	drmP.h
cdv_intel_dp.c	drm_crtc.h
cdv_intel_dp.c	drm_crtc_helper.h
cdv_intel_dp.c	drm_dp_helper.h
cdv_intel_dp.c	i2c.h
cdv_intel_dp.c	psb_drv.h
cdv_intel_dp.c	psb_intel_drv.h
cdv_intel_dp.c	psb_intel_reg.h
cdv_intel_dp.c	slab.h
cdv_intel_hdmi.c	cdv_device.h
cdv_intel_hdmi.c	drm.h
cdv_intel_hdmi.c	drmP.h
cdv_intel_hdmi.c	drm_crtc.h
cdv_intel_hdmi.c	drm_edid.h
cdv_intel_hdmi.c	pm_runtime.h
cdv_intel_hdmi.c	psb_drv.h
cdv_intel_hdmi.c	psb_intel_drv.h
cdv_intel_hdmi.c	psb_intel_reg.h
cdv_intel_lvds.c	cdv_device.h
cdv_intel_lvds.c	dmi.h
cdv_intel_lvds.c	drmP.h
cdv_intel_lvds.c	i2c.h
cdv_intel_lvds.c	intel_bios.h
cdv_intel_lvds.c	pm_runtime.h
cdv_intel_lvds.c	power.h
cdv_intel_lvds.c	psb_drv.h
cdv_intel_lvds.c	psb_intel_drv.h
cdv_intel_lvds.c	psb_intel_reg.h
channel.c	hyperv.h
channel.c	hyperv_vmbus.h
channel.c	kernel.h
channel.c	mm.h
channel.c	module.h
channel.c	sched.h
channel.c	slab.h
channel.c	wait.h
channel_mgmt.c	completion.h
channel_mgmt.c	hyperv.h
channel_mgmt.c	hyperv_vmbus.h
channel_mgmt.c	kernel.h
channel_mgmt.c	list.h
channel_mgmt.c	mm.h
channel_mgmt.c	module.h
channel_mgmt.c	sched.h
channel_mgmt.c	slab.h
channel_mgmt.c	wait.h
commctrl.c	aacraid.h
commctrl.c	blkdev.h
commctrl.c	completion.h
commctrl.c	delay.h
commctrl.c	dma-mapping.h
commctrl.c	init.h
commctrl.c	kernel.h
commctrl.c	kthread.h
commctrl.c	pci.h
commctrl.c	scsi_host.h
commctrl.c	semaphore.h
commctrl.c	slab.h
commctrl.c	spinlock.h
commctrl.c	types.h
commctrl.c	uaccess.h
comminit.c	aacraid.h
comminit.c	blkdev.h
comminit.c	completion.h
comminit.c	init.h
comminit.c	kernel.h
comminit.c	mm.h
comminit.c	pci.h
comminit.c	scsi_host.h
comminit.c	slab.h
comminit.c	spinlock.h
comminit.c	types.h
commsup.c	aacraid.h
commsup.c	blkdev.h
commsup.c	completion.h
commsup.c	delay.h
commsup.c	init.h
commsup.c	interrupt.h
commsup.c	kernel.h
commsup.c	kthread.h
commsup.c	pci.h
commsup.c	sched.h
commsup.c	scsi.h
commsup.c	scsi_cmnd.h
commsup.c	scsi_device.h
commsup.c	scsi_host.h
commsup.c	semaphore.h
commsup.c	slab.h
commsup.c	spinlock.h
commsup.c	types.h
connection.c	delay.h
connection.c	hyperv.h
connection.c	hyperv.h
connection.c	hyperv_vmbus.h
connection.c	kernel.h
connection.c	mm.h
connection.c	sched.h
connection.c	slab.h
connection.c	vmalloc.h
connection.c	wait.h
cq_enet_desc.h	cq_desc.h
cq_exch_desc.h	cq_desc.h
csio_attr.c	csio_init.h
csio_attr.c	delay.h
csio_attr.c	fc_fs.h
csio_attr.c	init.h
csio_attr.c	jiffies.h
csio_attr.c	kernel.h
csio_attr.c	mm.h
csio_attr.c	module.h
csio_attr.c	pci.h
csio_attr.c	string.h
csio_defs.h	bug.h
csio_defs.h	jiffies.h
csio_defs.h	kernel.h
csio_defs.h	list.h
csio_defs.h	pci.h
csio_defs.h	stddef.h
csio_defs.h	timer.h
csio_hw.c	compiler.h
csio_hw.c	csio_hw.h
csio_hw.c	csio_lnode.h
csio_hw.c	csio_rnode.h
csio_hw.c	delay.h
csio_hw.c	firmware.h
csio_hw.c	jiffies.h
csio_hw.c	kernel.h
csio_hw.c	log2.h
csio_hw.c	pci.h
csio_hw.c	pci_regs.h
csio_hw.c	stddef.h
csio_hw.c	string.h
csio_hw.h	cdev.h
csio_hw.h	compiler.h
csio_hw.h	csio_defs.h
csio_hw.h	csio_mb.h
csio_hw.h	csio_scsi.h
csio_hw.h	csio_wr.h
csio_hw.h	device.h
csio_hw.h	io.h
csio_hw.h	kernel.h
csio_hw.h	list.h
csio_hw.h	mempool.h
csio_hw.h	pci.h
csio_hw.h	scsi_device.h
csio_hw.h	scsi_transport_fc.h
csio_hw.h	spinlock_types.h
csio_hw.h	t4_msg.h
csio_hw.h	t4_regs.h
csio_hw.h	workqueue.h
csio_init.c	aer.h
csio_init.c	csio_defs.h
csio_init.c	csio_init.h
csio_init.c	debugfs.h
csio_init.c	export.h
csio_init.c	init.h
csio_init.c	kdebug.h
csio_init.c	kernel.h
csio_init.c	mm.h
csio_init.c	module.h
csio_init.c	notifier.h
csio_init.c	pci.h
csio_init.c	seq_file.h
csio_init.c	string.h
csio_init.h	csio_hw.h
csio_init.h	csio_lnode.h
csio_init.h	csio_rnode.h
csio_init.h	csio_scsi.h
csio_init.h	if_ether.h
csio_init.h	pci.h
csio_init.h	scsi.h
csio_init.h	scsi_device.h
csio_init.h	scsi_host.h
csio_init.h	scsi_transport_fc.h
csio_isr.c	cpumask.h
csio_isr.c	csio_hw.h
csio_isr.c	csio_init.h
csio_isr.c	interrupt.h
csio_isr.c	kernel.h
csio_isr.c	pci.h
csio_isr.c	string.h
csio_lnode.c	csio_hw.h
csio_lnode.c	csio_lnode.h
csio_lnode.c	csio_mb.h
csio_lnode.c	csio_rnode.h
csio_lnode.c	delay.h
csio_lnode.c	fc_els.h
csio_lnode.c	fc_fs.h
csio_lnode.c	fc_gs.h
csio_lnode.c	fc_ms.h
csio_lnode.c	kernel.h
csio_lnode.c	scsi_device.h
csio_lnode.c	scsi_transport_fc.h
csio_lnode.c	slab.h
csio_lnode.c	unaligned.h
csio_lnode.c	utsname.h
csio_lnode.h	csio_defs.h
csio_lnode.h	csio_hw.h
csio_lnode.h	fc_els.h
csio_lnode.h	kref.h
csio_lnode.h	timer.h
csio_lnode.h	workqueue.h
csio_mb.c	csio_hw.h
csio_mb.c	csio_lnode.h
csio_mb.c	csio_mb.h
csio_mb.c	csio_rnode.h
csio_mb.c	csio_wr.h
csio_mb.c	delay.h
csio_mb.c	jiffies.h
csio_mb.c	scsi_device.h
csio_mb.c	scsi_transport_fc.h
csio_mb.c	string.h
csio_mb.h	completion.h
csio_mb.h	csio_defs.h
csio_mb.h	t4fw_api.h
csio_mb.h	t4fw_api_stor.h
csio_mb.h	timer.h
csio_rnode.c	csio_hw.h
csio_rnode.c	csio_lnode.h
csio_rnode.c	csio_rnode.h
csio_rnode.c	fc_els.h
csio_rnode.c	fc_fs.h
csio_rnode.c	scsi_device.h
csio_rnode.c	scsi_transport_fc.h
csio_rnode.c	string.h
csio_rnode.h	csio_defs.h
csio_scsi.c	compiler.h
csio_scsi.c	csio_hw.h
csio_scsi.c	csio_init.h
csio_scsi.c	csio_lnode.h
csio_scsi.c	csio_rnode.h
csio_scsi.c	csio_scsi.h
csio_scsi.c	ctype.h
csio_scsi.c	delay.h
csio_scsi.c	device.h
csio_scsi.c	export.h
csio_scsi.c	kernel.h
csio_scsi.c	module.h
csio_scsi.c	page.h
csio_scsi.c	scsi.h
csio_scsi.c	scsi_device.h
csio_scsi.c	scsi_transport_fc.h
csio_scsi.c	slab.h
csio_scsi.c	string.h
csio_scsi.c	unaligned.h
csio_scsi.h	completion.h
csio_scsi.h	csio_defs.h
csio_scsi.h	csio_wr.h
csio_scsi.h	fc_fcp.h
csio_scsi.h	scsi.h
csio_scsi.h	scsi_cmnd.h
csio_scsi.h	scsi_device.h
csio_scsi.h	scsi_eh.h
csio_scsi.h	scsi_host.h
csio_scsi.h	scsi_tcq.h
csio_scsi.h	spinlock_types.h
csio_wr.c	cache.h
csio_wr.c	compiler.h
csio_wr.c	csio_defs.h
csio_wr.c	csio_hw.h
csio_wr.c	csio_mb.h
csio_wr.c	csio_wr.h
csio_wr.c	kernel.h
csio_wr.c	page.h
csio_wr.c	slab.h
csio_wr.c	string.h
csio_wr.h	cache.h
csio_wr.h	csio_defs.h
csio_wr.h	t4fw_api.h
csio_wr.h	t4fw_api_stor.h
dc395x.c	blkdev.h
dc395x.c	ctype.h
dc395x.c	dc395x.h
dc395x.c	delay.h
dc395x.c	init.h
dc395x.c	interrupt.h
dc395x.c	io.h
dc395x.c	list.h
dc395x.c	module.h
dc395x.c	moduleparam.h
dc395x.c	pci.h
dc395x.c	scsi.h
dc395x.c	scsi_cmnd.h
dc395x.c	scsi_device.h
dc395x.c	scsi_host.h
dc395x.c	scsicam.h
dc395x.c	slab.h
dc395x.c	spinlock.h
dc395x.c	vmalloc.h
dpcsup.c	aacraid.h
dpcsup.c	blkdev.h
dpcsup.c	completion.h
dpcsup.c	init.h
dpcsup.c	kernel.h
dpcsup.c	semaphore.h
dpcsup.c	slab.h
dpcsup.c	spinlock.h
dpcsup.c	types.h
dpti.h	dpti_i2o.h
dpti.h	dpti_ioctl.h
dpti.h	sys_info.h
dpti.h	wait.h
drm_agpsupport.c	agp.h
drm_agpsupport.c	drmP.h
drm_agpsupport.c	module.h
drm_agpsupport.c	slab.h
drm_auth.c	drmP.h
drm_encoder_slave.c	drm_encoder_slave.h
drm_encoder_slave.c	module.h
drm_fops.c	drmP.h
drm_fops.c	module.h
drm_fops.c	poll.h
drm_fops.c	slab.h
drm_gem.c	dma-buf.h
drm_gem.c	drmP.h
drm_gem.c	file.h
drm_gem.c	fs.h
drm_gem.c	mm.h
drm_gem.c	mman.h
drm_gem.c	module.h
drm_gem.c	pagemap.h
drm_gem.c	shmem_fs.h
drm_gem.c	slab.h
drm_gem.c	types.h
drm_gem.c	uaccess.h
drm_ioc32.c	compat.h
drm_ioc32.c	drmP.h
drm_ioc32.c	drm_core.h
drm_ioc32.c	export.h
drm_ioc32.c	ratelimit.h
drm_modes.c	drmP.h
drm_modes.c	drm_crtc.h
drm_modes.c	export.h
drm_modes.c	list.h
drm_modes.c	list_sort.h
drm_pci.c	dma-mapping.h
drm_pci.c	drmP.h
drm_pci.c	export.h
drm_pci.c	pci.h
drm_pci.c	slab.h
drm_scatter.c	drmP.h
drm_scatter.c	slab.h
drm_scatter.c	vmalloc.h
drm_sysfs.c	device.h
drm_sysfs.c	drmP.h
drm_sysfs.c	drm_core.h
drm_sysfs.c	drm_sysfs.h
drm_sysfs.c	err.h
drm_sysfs.c	export.h
drm_sysfs.c	gfp.h
drm_sysfs.c	kdev_t.h
drm_trace.h	define_trace.h
drm_trace.h	stringify.h
drm_trace.h	tracepoint.h
drm_trace.h	types.h
drm_trace_points.c	drmP.h
drm_trace_points.c	drm_trace.h
drm_vm.c	drmP.h
drm_vm.c	efi.h
drm_vm.c	export.h
drm_vm.c	slab.h
eata.c	blkdev.h
eata.c	byteorder.h
eata.c	ctype.h
eata.c	delay.h
eata.c	dma-mapping.h
eata.c	dma.h
eata.c	init.h
eata.c	interrupt.h
eata.c	io.h
eata.c	ioport.h
eata.c	irq.h
eata.c	kernel.h
eata.c	module.h
eata.c	moduleparam.h
eata.c	pci.h
eata.c	proc_fs.h
eata.c	scsi.h
eata.c	scsi_cmnd.h
eata.c	scsi_device.h
eata.c	scsi_host.h
eata.c	scsi_module.c
eata.c	scsi_tcq.h
eata.c	scsicam.h
eata.c	slab.h
eata.c	spinlock.h
eata.c	stat.h
eata.c	string.h
eata_pio.c	blkdev.h
eata_pio.c	delay.h
eata_pio.c	eata_generic.h
eata_pio.c	eata_pio.h
eata_pio.c	in.h
eata_pio.c	interrupt.h
eata_pio.c	io.h
eata_pio.c	ioport.h
eata_pio.c	kernel.h
eata_pio.c	module.h
eata_pio.c	pci.h
eata_pio.c	proc_fs.h
eata_pio.c	scsi.h
eata_pio.c	scsi_cmnd.h
eata_pio.c	scsi_device.h
eata_pio.c	scsi_host.h
eata_pio.c	scsi_module.c
eata_pio.c	spinlock.h
eata_pio.c	string.h
esp_scsi.c	completion.h
esp_scsi.c	delay.h
esp_scsi.c	dma.h
esp_scsi.c	esp_scsi.h
esp_scsi.c	init.h
esp_scsi.c	io.h
esp_scsi.c	irq.h
esp_scsi.c	irqreturn.h
esp_scsi.c	kallsyms.h
esp_scsi.c	kernel.h
esp_scsi.c	list.h
esp_scsi.c	module.h
esp_scsi.c	moduleparam.h
esp_scsi.c	scsi.h
esp_scsi.c	scsi_cmnd.h
esp_scsi.c	scsi_dbg.h
esp_scsi.c	scsi_device.h
esp_scsi.c	scsi_host.h
esp_scsi.c	scsi_tcq.h
esp_scsi.c	scsi_transport_spi.h
esp_scsi.c	slab.h
esp_scsi.c	types.h
exynos_ddc.c	drmP.h
exynos_ddc.c	exynos_drm_drv.h
exynos_ddc.c	exynos_hdmi.h
exynos_ddc.c	i2c.h
exynos_ddc.c	kernel.h
exynos_ddc.c	module.h
exynos_drm_buf.c	drmP.h
exynos_drm_buf.c	exynos_drm.h
exynos_drm_buf.c	exynos_drm_buf.h
exynos_drm_buf.c	exynos_drm_drv.h
exynos_drm_buf.c	exynos_drm_gem.h
exynos_drm_buf.c	exynos_drm_iommu.h
exynos_drm_connector.c	drmP.h
exynos_drm_connector.c	drm_crtc_helper.h
exynos_drm_connector.c	exynos_drm.h
exynos_drm_connector.c	exynos_drm_drv.h
exynos_drm_connector.c	exynos_drm_encoder.h
exynos_drm_core.c	drmP.h
exynos_drm_core.c	exynos_drm_connector.h
exynos_drm_core.c	exynos_drm_drv.h
exynos_drm_core.c	exynos_drm_encoder.h
exynos_drm_core.c	exynos_drm_fbdev.h
exynos_drm_crtc.c	drmP.h
exynos_drm_crtc.c	drm_crtc_helper.h
exynos_drm_crtc.c	exynos_drm_drv.h
exynos_drm_crtc.c	exynos_drm_encoder.h
exynos_drm_crtc.c	exynos_drm_plane.h
exynos_drm_dmabuf.c	dma-buf.h
exynos_drm_dmabuf.c	drmP.h
exynos_drm_dmabuf.c	exynos_drm.h
exynos_drm_dmabuf.c	exynos_drm_drv.h
exynos_drm_dmabuf.c	exynos_drm_gem.h
exynos_drm_drv.c	drmP.h
exynos_drm_drv.c	drm_crtc_helper.h
exynos_drm_drv.c	exynos_drm.h
exynos_drm_drv.c	exynos_drm_crtc.h
exynos_drm_drv.c	exynos_drm_dmabuf.h
exynos_drm_drv.c	exynos_drm_drv.h
exynos_drm_drv.c	exynos_drm_encoder.h
exynos_drm_drv.c	exynos_drm_fb.h
exynos_drm_drv.c	exynos_drm_fbdev.h
exynos_drm_drv.c	exynos_drm_g2d.h
exynos_drm_drv.c	exynos_drm_gem.h
exynos_drm_drv.c	exynos_drm_iommu.h
exynos_drm_drv.c	exynos_drm_ipp.h
exynos_drm_drv.c	exynos_drm_plane.h
exynos_drm_drv.c	exynos_drm_vidi.h
exynos_drm_drv.h	module.h
exynos_drm_encoder.c	drmP.h
exynos_drm_encoder.c	drm_crtc_helper.h
exynos_drm_encoder.c	exynos_drm_connector.h
exynos_drm_encoder.c	exynos_drm_drv.h
exynos_drm_encoder.c	exynos_drm_encoder.h
exynos_drm_fb.c	drmP.h
exynos_drm_fb.c	drm_crtc.h
exynos_drm_fb.c	drm_crtc_helper.h
exynos_drm_fb.c	drm_fb_helper.h
exynos_drm_fb.c	exynos_drm.h
exynos_drm_fb.c	exynos_drm_drv.h
exynos_drm_fb.c	exynos_drm_encoder.h
exynos_drm_fb.c	exynos_drm_fb.h
exynos_drm_fb.c	exynos_drm_gem.h
exynos_drm_fb.c	exynos_drm_iommu.h
exynos_drm_fbdev.c	drmP.h
exynos_drm_fbdev.c	drm_crtc.h
exynos_drm_fbdev.c	drm_crtc_helper.h
exynos_drm_fbdev.c	drm_fb_helper.h
exynos_drm_fbdev.c	exynos_drm_drv.h
exynos_drm_fbdev.c	exynos_drm_fb.h
exynos_drm_fbdev.c	exynos_drm_gem.h
exynos_drm_fbdev.c	exynos_drm_iommu.h
exynos_drm_fimc.c	clk.h
exynos_drm_fimc.c	drmP.h
exynos_drm_fimc.c	exynos_drm.h
exynos_drm_fimc.c	exynos_drm_fimc.h
exynos_drm_fimc.c	exynos_drm_ipp.h
exynos_drm_fimc.c	kernel.h
exynos_drm_fimc.c	map-base.h
exynos_drm_fimc.c	module.h
exynos_drm_fimc.c	platform_device.h
exynos_drm_fimc.c	pm_runtime.h
exynos_drm_fimc.c	regs-fimc.h
exynos_drm_fimd.c	clk.h
exynos_drm_fimd.c	drmP.h
exynos_drm_fimd.c	exynos_drm.h
exynos_drm_fimd.c	exynos_drm_crtc.h
exynos_drm_fimd.c	exynos_drm_drv.h
exynos_drm_fimd.c	exynos_drm_fbdev.h
exynos_drm_fimd.c	exynos_drm_iommu.h
exynos_drm_fimd.c	kernel.h
exynos_drm_fimd.c	module.h
exynos_drm_fimd.c	of_device.h
exynos_drm_fimd.c	platform_device.h
exynos_drm_fimd.c	pm_runtime.h
exynos_drm_fimd.c	samsung_fimd.h
exynos_drm_g2d.c	clk.h
exynos_drm_g2d.c	dma-attrs.h
exynos_drm_g2d.c	dma-mapping.h
exynos_drm_g2d.c	drmP.h
exynos_drm_g2d.c	err.h
exynos_drm_g2d.c	exynos_drm.h
exynos_drm_g2d.c	exynos_drm_drv.h
exynos_drm_g2d.c	exynos_drm_gem.h
exynos_drm_g2d.c	exynos_drm_iommu.h
exynos_drm_g2d.c	interrupt.h
exynos_drm_g2d.c	io.h
exynos_drm_g2d.c	kernel.h
exynos_drm_g2d.c	module.h
exynos_drm_g2d.c	platform_device.h
exynos_drm_g2d.c	pm_runtime.h
exynos_drm_g2d.c	slab.h
exynos_drm_g2d.c	workqueue.h
exynos_drm_gem.c	drmP.h
exynos_drm_gem.c	exynos_drm.h
exynos_drm_gem.c	exynos_drm_buf.h
exynos_drm_gem.c	exynos_drm_drv.h
exynos_drm_gem.c	exynos_drm_gem.h
exynos_drm_gem.c	shmem_fs.h
exynos_drm_gsc.c	clk.h
exynos_drm_gsc.c	drmP.h
exynos_drm_gsc.c	exynos_drm.h
exynos_drm_gsc.c	exynos_drm_gsc.h
exynos_drm_gsc.c	exynos_drm_ipp.h
exynos_drm_gsc.c	kernel.h
exynos_drm_gsc.c	map-base.h
exynos_drm_gsc.c	module.h
exynos_drm_gsc.c	platform_device.h
exynos_drm_gsc.c	pm_runtime.h
exynos_drm_gsc.c	regs-gsc.h
exynos_drm_hdmi.c	drmP.h
exynos_drm_hdmi.c	exynos_drm.h
exynos_drm_hdmi.c	exynos_drm_drv.h
exynos_drm_hdmi.c	exynos_drm_hdmi.h
exynos_drm_hdmi.c	kernel.h
exynos_drm_hdmi.c	module.h
exynos_drm_hdmi.c	platform_device.h
exynos_drm_hdmi.c	pm_runtime.h
exynos_drm_hdmi.c	wait.h
exynos_drm_iommu.c	dma-iommu.h
exynos_drm_iommu.c	dma-mapping.h
exynos_drm_iommu.c	drmP.h
exynos_drm_iommu.c	exynos_drm.h
exynos_drm_iommu.c	exynos_drm_drv.h
exynos_drm_iommu.c	exynos_drm_iommu.h
exynos_drm_iommu.c	iommu.h
exynos_drm_iommu.c	kref.h
exynos_drm_ipp.c	clk.h
exynos_drm_ipp.c	drmP.h
exynos_drm_ipp.c	exynos_drm.h
exynos_drm_ipp.c	exynos_drm_drv.h
exynos_drm_ipp.c	exynos_drm_gem.h
exynos_drm_ipp.c	exynos_drm_iommu.h
exynos_drm_ipp.c	exynos_drm_ipp.h
exynos_drm_ipp.c	kernel.h
exynos_drm_ipp.c	map-base.h
exynos_drm_ipp.c	module.h
exynos_drm_ipp.c	platform_device.h
exynos_drm_ipp.c	pm_runtime.h
exynos_drm_ipp.c	types.h
exynos_drm_plane.c	drmP.h
exynos_drm_plane.c	exynos_drm.h
exynos_drm_plane.c	exynos_drm_drv.h
exynos_drm_plane.c	exynos_drm_encoder.h
exynos_drm_plane.c	exynos_drm_fb.h
exynos_drm_plane.c	exynos_drm_gem.h
exynos_drm_rotator.c	clk.h
exynos_drm_rotator.c	drmP.h
exynos_drm_rotator.c	err.h
exynos_drm_rotator.c	exynos_drm.h
exynos_drm_rotator.c	exynos_drm.h
exynos_drm_rotator.c	exynos_drm_ipp.h
exynos_drm_rotator.c	interrupt.h
exynos_drm_rotator.c	io.h
exynos_drm_rotator.c	kernel.h
exynos_drm_rotator.c	module.h
exynos_drm_rotator.c	platform_device.h
exynos_drm_rotator.c	pm_runtime.h
exynos_drm_rotator.c	regs-rotator.h
exynos_drm_vidi.c	drmP.h
exynos_drm_vidi.c	drm_crtc_helper.h
exynos_drm_vidi.c	drm_edid.h
exynos_drm_vidi.c	exynos_drm.h
exynos_drm_vidi.c	exynos_drm_crtc.h
exynos_drm_vidi.c	exynos_drm_drv.h
exynos_drm_vidi.c	exynos_drm_encoder.h
exynos_drm_vidi.c	kernel.h
exynos_drm_vidi.c	module.h
exynos_drm_vidi.c	platform_device.h
exynos_hdmi.c	clk.h
exynos_hdmi.c	consumer.h
exynos_hdmi.c	delay.h
exynos_hdmi.c	drmP.h
exynos_hdmi.c	drm_crtc_helper.h
exynos_hdmi.c	drm_edid.h
exynos_hdmi.c	exynos_drm.h
exynos_hdmi.c	exynos_drm_drv.h
exynos_hdmi.c	exynos_drm_hdmi.h
exynos_hdmi.c	exynos_hdmi.h
exynos_hdmi.c	gpio.h
exynos_hdmi.c	i2c.h
exynos_hdmi.c	interrupt.h
exynos_hdmi.c	io.h
exynos_hdmi.c	irq.h
exynos_hdmi.c	kernel.h
exynos_hdmi.c	module.h
exynos_hdmi.c	of_gpio.h
exynos_hdmi.c	platform_device.h
exynos_hdmi.c	pm_runtime.h
exynos_hdmi.c	regs-hdmi.h
exynos_hdmi.c	s5p_hdmi.h
exynos_hdmi.c	spinlock.h
exynos_hdmi.c	wait.h
exynos_hdmiphy.c	drmP.h
exynos_hdmiphy.c	exynos_drm_drv.h
exynos_hdmiphy.c	exynos_hdmi.h
exynos_hdmiphy.c	i2c.h
exynos_hdmiphy.c	kernel.h
exynos_hdmiphy.c	module.h
exynos_mixer.c	clk.h
exynos_mixer.c	consumer.h
exynos_mixer.c	delay.h
exynos_mixer.c	drmP.h
exynos_mixer.c	exynos_drm.h
exynos_mixer.c	exynos_drm_crtc.h
exynos_mixer.c	exynos_drm_drv.h
exynos_mixer.c	exynos_drm_hdmi.h
exynos_mixer.c	exynos_drm_iommu.h
exynos_mixer.c	i2c.h
exynos_mixer.c	interrupt.h
exynos_mixer.c	irq.h
exynos_mixer.c	kernel.h
exynos_mixer.c	module.h
exynos_mixer.c	platform_device.h
exynos_mixer.c	pm_runtime.h
exynos_mixer.c	regs-mixer.h
exynos_mixer.c	regs-vp.h
exynos_mixer.c	spinlock.h
exynos_mixer.c	wait.h
fcpio.h	if_ether.h
fdomain_core.c	fdomain.c
fdomain_stub.c	blkdev.h
fdomain_stub.c	cistpl.h
fdomain_stub.c	ds.h
fdomain_stub.c	fdomain.h
fdomain_stub.c	init.h
fdomain_stub.c	ioport.h
fdomain_stub.c	kernel.h
fdomain_stub.c	major.h
fdomain_stub.c	module.h
fdomain_stub.c	scsi.h
fdomain_stub.c	scsi.h
fdomain_stub.c	scsi_host.h
fdomain_stub.c	scsi_ioctl.h
fdomain_stub.c	slab.h
fdomain_stub.c	string.h
fnic.h	bitops.h
fnic.h	fnic_io.h
fnic.h	fnic_res.h
fnic.h	interrupt.h
fnic.h	libfc.h
fnic.h	libfcoe.h
fnic.h	netdevice.h
fnic.h	vnic_cq.h
fnic.h	vnic_dev.h
fnic.h	vnic_intr.h
fnic.h	vnic_rq.h
fnic.h	vnic_scsi.h
fnic.h	vnic_stats.h
fnic.h	vnic_wq.h
fnic.h	vnic_wq_copy.h
fnic.h	workqueue.h
fnic_attrs.c	device.h
fnic_attrs.c	fnic.h
fnic_attrs.c	scsi_host.h
fnic_attrs.c	string.h
fnic_fcs.c	cq_enet_desc.h
fnic_fcs.c	cq_exch_desc.h
fnic_fcs.c	errno.h
fnic_fcs.c	fc_els.h
fnic_fcs.c	fc_fcoe.h
fnic_fcs.c	fc_fip.h
fnic_fcs.c	fc_frame.h
fnic_fcs.c	fnic.h
fnic_fcs.c	fnic_io.h
fnic_fcs.c	if_ether.h
fnic_fcs.c	if_vlan.h
fnic_fcs.c	interrupt.h
fnic_fcs.c	libfc.h
fnic_fcs.c	pci.h
fnic_fcs.c	skbuff.h
fnic_fcs.c	slab.h
fnic_fcs.c	spinlock.h
fnic_fcs.c	workqueue.h
fnic_io.h	fc_fcp.h
fnic_isr.c	errno.h
fnic_isr.c	fc_frame.h
fnic_isr.c	fnic.h
fnic_isr.c	fnic_io.h
fnic_isr.c	interrupt.h
fnic_isr.c	libfc.h
fnic_isr.c	pci.h
fnic_isr.c	string.h
fnic_isr.c	vnic_dev.h
fnic_isr.c	vnic_intr.h
fnic_isr.c	vnic_stats.h
fnic_main.c	errno.h
fnic_main.c	fc_fip.h
fnic_main.c	fc_frame.h
fnic_main.c	fnic.h
fnic_main.c	fnic_io.h
fnic_main.c	if_ether.h
fnic_main.c	init.h
fnic_main.c	interrupt.h
fnic_main.c	libfc.h
fnic_main.c	mempool.h
fnic_main.c	module.h
fnic_main.c	pci.h
fnic_main.c	scsi_host.h
fnic_main.c	scsi_tcq.h
fnic_main.c	scsi_transport.h
fnic_main.c	scsi_transport_fc.h
fnic_main.c	skbuff.h
fnic_main.c	slab.h
fnic_main.c	spinlock.h
fnic_main.c	string.h
fnic_main.c	vnic_dev.h
fnic_main.c	vnic_intr.h
fnic_main.c	vnic_stats.h
fnic_main.c	workqueue.h
fnic_res.c	cq_enet_desc.h
fnic_res.c	errno.h
fnic_res.c	fnic.h
fnic_res.c	pci.h
fnic_res.c	rq_enet_desc.h
fnic_res.c	types.h
fnic_res.c	vnic_cq.h
fnic_res.c	vnic_dev.h
fnic_res.c	vnic_intr.h
fnic_res.c	vnic_nic.h
fnic_res.c	vnic_resource.h
fnic_res.c	vnic_rq.h
fnic_res.c	vnic_stats.h
fnic_res.c	vnic_wq.h
fnic_res.c	wq_enet_desc.h
fnic_res.h	fcpio.h
fnic_res.h	fnic_io.h
fnic_res.h	rq_enet_desc.h
fnic_res.h	vnic_cq_copy.h
fnic_res.h	vnic_rq.h
fnic_res.h	vnic_wq.h
fnic_res.h	vnic_wq_copy.h
fnic_res.h	wq_enet_desc.h
fnic_scsi.c	delay.h
fnic_scsi.c	errno.h
fnic_scsi.c	fc_els.h
fnic_scsi.c	fc_fcoe.h
fnic_scsi.c	fc_frame.h
fnic_scsi.c	fnic.h
fnic_scsi.c	fnic_io.h
fnic_scsi.c	gfp.h
fnic_scsi.c	if_ether.h
fnic_scsi.c	if_vlan.h
fnic_scsi.c	init.h
fnic_scsi.c	libfc.h
fnic_scsi.c	mempool.h
fnic_scsi.c	pci.h
fnic_scsi.c	scatterlist.h
fnic_scsi.c	scsi.h
fnic_scsi.c	scsi_cmnd.h
fnic_scsi.c	scsi_device.h
fnic_scsi.c	scsi_host.h
fnic_scsi.c	scsi_tcq.h
fnic_scsi.c	skbuff.h
fnic_scsi.c	spinlock.h
fnic_scsi.c	workqueue.h
framebuffer.c	console.h
framebuffer.c	delay.h
framebuffer.c	drm.h
framebuffer.c	drmP.h
framebuffer.c	drm_crtc.h
framebuffer.c	drm_fb_helper.h
framebuffer.c	errno.h
framebuffer.c	fb.h
framebuffer.c	framebuffer.h
framebuffer.c	gtt.h
framebuffer.c	init.h
framebuffer.c	kernel.h
framebuffer.c	mm.h
framebuffer.c	module.h
framebuffer.c	psb_drv.h
framebuffer.c	psb_intel_drv.h
framebuffer.c	psb_intel_reg.h
framebuffer.c	slab.h
framebuffer.c	string.h
framebuffer.c	tty.h
framebuffer.h	drmP.h
framebuffer.h	drm_fb_helper.h
framebuffer.h	psb_drv.h
g_NCR5380_mmio.c	g_NCR5380.c
gdth.h	gdth_ioctl.h
gdth.h	types.h
gdth_proc.c	completion.h
gdth_proc.c	slab.h
gem.c	drm.h
gem.c	drmP.h
gem.c	gma_drm.h
gem.c	psb_drv.h
gtt.c	drmP.h
gtt.c	psb_drv.h
gtt.c	shmem_fs.h
gtt.h	drmP.h
gvp11.c	amigahw.h
gvp11.c	amigaints.h
gvp11.c	gvp11.h
gvp11.c	init.h
gvp11.c	interrupt.h
gvp11.c	mm.h
gvp11.c	module.h
gvp11.c	page.h
gvp11.c	pgtable.h
gvp11.c	scsi.h
gvp11.c	slab.h
gvp11.c	spinlock.h
gvp11.c	types.h
gvp11.c	wd33c93.h
gvp11.c	zorro.h
hv.c	hyperv.h
hv.c	hyperv.h
hv.c	hyperv_vmbus.h
hv.c	kernel.h
hv.c	mm.h
hv.c	slab.h
hv.c	version.h
hv.c	vmalloc.h
hv_balloon.c	completion.h
hv_balloon.c	delay.h
hv_balloon.c	hyperv.h
hv_balloon.c	init.h
hv_balloon.c	kernel.h
hv_balloon.c	kthread.h
hv_balloon.c	memory.h
hv_balloon.c	memory_hotplug.h
hv_balloon.c	mman.h
hv_balloon.c	mman.h
hv_balloon.c	module.h
hv_balloon.c	notifier.h
hv_balloon.c	percpu_counter.h
hv_balloon.c	slab.h
hv_kvp.c	connector.h
hv_kvp.c	hyperv.h
hv_kvp.c	net.h
hv_kvp.c	nls.h
hv_kvp.c	workqueue.h
hv_util.c	hyperv.h
hv_util.c	init.h
hv_util.c	kernel.h
hv_util.c	module.h
hv_util.c	reboot.h
hv_util.c	slab.h
hv_util.c	sysctl.h
hyperv_vmbus.h	atomic.h
hyperv_vmbus.h	hyperv.h
hyperv_vmbus.h	list.h
hyperv_vmbus.h	sync_bitops.h
i810_dma.c	delay.h
i810_dma.c	drmP.h
i810_dma.c	i810_drm.h
i810_dma.c	i810_drv.h
i810_dma.c	interrupt.h
i810_dma.c	pagemap.h
i810_dma.c	slab.h
i810_drv.c	drmP.h
i810_drv.c	drm_pciids.h
i810_drv.c	i810_drm.h
i810_drv.c	i810_drv.h
i810_drv.c	module.h
in2000.c	blkdev.h
in2000.c	delay.h
in2000.c	in2000.h
in2000.c	interrupt.h
in2000.c	io.h
in2000.c	ioport.h
in2000.c	module.h
in2000.c	proc_fs.h
in2000.c	scsi.h
in2000.c	scsi_host.h
in2000.c	scsi_module.c
in2000.c	stat.h
in2000.c	string.h
initio.c	blkdev.h
initio.c	delay.h
initio.c	dma-mapping.h
initio.c	errno.h
initio.c	init.h
initio.c	initio.h
initio.c	interrupt.h
initio.c	io.h
initio.c	ioport.h
initio.c	jiffies.h
initio.c	kernel.h
initio.c	module.h
initio.c	pci.h
initio.c	proc_fs.h
initio.c	scsi.h
initio.c	scsi_cmnd.h
initio.c	scsi_device.h
initio.c	scsi_host.h
initio.c	scsi_tcq.h
initio.c	slab.h
initio.c	spinlock.h
initio.c	stat.h
initio.c	string.h
intel_bios.c	drm.h
intel_bios.c	drmP.h
intel_bios.c	gma_drm.h
intel_bios.c	intel_bios.h
intel_bios.c	psb_drv.h
intel_bios.c	psb_intel_drv.h
intel_bios.c	psb_intel_reg.h
intel_bios.h	drmP.h
intel_bios.h	drm_dp_helper.h
intel_gmbus.c	drmP.h
intel_gmbus.c	gma_drm.h
intel_gmbus.c	i2c-algo-bit.h
intel_gmbus.c	i2c.h
intel_gmbus.c	module.h
intel_gmbus.c	psb_drv.h
intel_gmbus.c	psb_intel_drv.h
intel_gmbus.c	psb_intel_reg.h
intel_i2c.c	export.h
intel_i2c.c	i2c-algo-bit.h
intel_i2c.c	i2c.h
intel_i2c.c	psb_drv.h
intel_i2c.c	psb_intel_reg.h
ipr.h	completion.h
ipr.h	kref.h
ipr.h	libata.h
ipr.h	list.h
ipr.h	scsi.h
ipr.h	scsi_cmnd.h
ipr.h	types.h
ipr.h	unaligned.h
ips.c	blkdev.h
ips.c	byteorder.h
ips.c	delay.h
ips.c	dma-mapping.h
ips.c	errno.h
ips.c	init.h
ips.c	interrupt.h
ips.c	io.h
ips.c	ioport.h
ips.c	ips.h
ips.c	kernel.h
ips.c	module.h
ips.c	page.h
ips.c	pci.h
ips.c	proc_fs.h
ips.c	reboot.h
ips.c	scsi.h
ips.c	scsi_host.h
ips.c	sg.h
ips.c	slab.h
ips.c	smp.h
ips.c	spinlock.h
ips.c	stat.h
ips.c	stddef.h
ips.c	string.h
ips.c	types.h
iscsi_boot_sysfs.c	capability.h
iscsi_boot_sysfs.c	iscsi_boot_sysfs.h
iscsi_boot_sysfs.c	module.h
iscsi_boot_sysfs.c	slab.h
iscsi_boot_sysfs.c	string.h
iscsi_boot_sysfs.c	sysfs.h
iscsi_tcp.h	libiscsi.h
iscsi_tcp.h	libiscsi_tcp.h
linit.c	aacraid.h
linit.c	blkdev.h
linit.c	compat.h
linit.c	completion.h
linit.c	delay.h
linit.c	init.h
linit.c	interrupt.h
linit.c	kernel.h
linit.c	kthread.h
linit.c	module.h
linit.c	moduleparam.h
linit.c	mutex.h
linit.c	pci-aspm.h
linit.c	pci.h
linit.c	scsi.h
linit.c	scsi_cmnd.h
linit.c	scsi_device.h
linit.c	scsi_eh.h
linit.c	scsi_host.h
linit.c	scsi_tcq.h
linit.c	scsicam.h
linit.c	slab.h
linit.c	spinlock.h
linit.c	syscalls.h
mbox_defs.h	types.h
mdfld_device.c	intel_scu_ipc.h
mdfld_device.c	mdfld_dsi_output.h
mdfld_device.c	mdfld_output.h
mdfld_device.c	mid_bios.h
mdfld_device.c	psb_drv.h
mdfld_device.c	tc35876x-dsi-lvds.h
mdfld_dsi_dpi.c	mdfld_dsi_dpi.h
mdfld_dsi_dpi.c	mdfld_dsi_pkg_sender.h
mdfld_dsi_dpi.c	mdfld_output.h
mdfld_dsi_dpi.c	psb_drv.h
mdfld_dsi_dpi.c	tc35876x-dsi-lvds.h
mdfld_dsi_dpi.h	mdfld_dsi_output.h
mdfld_dsi_dpi.h	mdfld_output.h
mdfld_dsi_output.c	intel_scu_ipc.h
mdfld_dsi_output.c	mdfld_dsi_dpi.h
mdfld_dsi_output.c	mdfld_dsi_output.h
mdfld_dsi_output.c	mdfld_dsi_pkg_sender.h
mdfld_dsi_output.c	mdfld_output.h
mdfld_dsi_output.c	module.h
mdfld_dsi_output.c	pm_runtime.h
mdfld_dsi_output.c	tc35876x-dsi-lvds.h
mdfld_dsi_output.h	backlight.h
mdfld_dsi_output.h	drm.h
mdfld_dsi_output.h	drmP.h
mdfld_dsi_output.h	drm_crtc.h
mdfld_dsi_output.h	drm_edid.h
mdfld_dsi_output.h	mdfld_output.h
mdfld_dsi_output.h	mrst.h
mdfld_dsi_output.h	psb_drv.h
mdfld_dsi_output.h	psb_intel_drv.h
mdfld_dsi_output.h	psb_intel_reg.h
mdfld_dsi_pkg_sender.c	freezer.h
mdfld_dsi_pkg_sender.c	mdfld_dsi_dpi.h
mdfld_dsi_pkg_sender.c	mdfld_dsi_output.h
mdfld_dsi_pkg_sender.c	mdfld_dsi_pkg_sender.h
mdfld_dsi_pkg_sender.h	kthread.h
mdfld_intel_display.c	drmP.h
mdfld_intel_display.c	framebuffer.h
mdfld_intel_display.c	i2c.h
mdfld_intel_display.c	mdfld_dsi_output.h
mdfld_intel_display.c	mdfld_output.h
mdfld_intel_display.c	pm_runtime.h
mdfld_intel_display.c	psb_intel_display.h
mdfld_intel_display.c	psb_intel_reg.h
mdfld_output.c	mdfld_dsi_dpi.h
mdfld_output.c	mdfld_dsi_output.h
mdfld_output.c	mdfld_output.h
mdfld_output.c	tc35876x-dsi-lvds.h
mdfld_output.h	psb_drv.h
mdfld_tmd_vid.c	mdfld_dsi_dpi.h
mdfld_tmd_vid.c	mdfld_dsi_pkg_sender.h
mdfld_tpo_vid.c	mdfld_dsi_dpi.h
mega_common.h	blkdev.h
mega_common.h	delay.h
mega_common.h	dma-mapping.h
mega_common.h	interrupt.h
mega_common.h	kernel.h
mega_common.h	list.h
mega_common.h	moduleparam.h
mega_common.h	mutex.h
mega_common.h	pci.h
mega_common.h	scsi.h
mega_common.h	scsi_cmnd.h
mega_common.h	scsi_device.h
mega_common.h	scsi_host.h
mega_common.h	spinlock.h
mega_common.h	types.h
megaraid_ioctl.h	mbox_defs.h
megaraid_ioctl.h	semaphore.h
megaraid_ioctl.h	types.h
megaraid_mbox.c	megaraid_mbox.h
megaraid_mbox.c	module.h
megaraid_mbox.c	slab.h
megaraid_mbox.h	mbox_defs.h
megaraid_mbox.h	mega_common.h
megaraid_mbox.h	megaraid_ioctl.h
megaraid_mm.c	megaraid_mm.h
megaraid_mm.c	mutex.h
megaraid_mm.c	sched.h
megaraid_mm.c	slab.h
megaraid_mm.h	fs.h
megaraid_mm.h	list.h
megaraid_mm.h	mbox_defs.h
megaraid_mm.h	megaraid_ioctl.h
megaraid_mm.h	miscdevice.h
megaraid_mm.h	module.h
megaraid_mm.h	moduleparam.h
megaraid_mm.h	pci.h
megaraid_mm.h	spinlock.h
megaraid_mm.h	uaccess.h
megaraid_sas_base.c	blkdev.h
megaraid_sas_base.c	compat.h
megaraid_sas_base.c	delay.h
megaraid_sas_base.c	fs.h
megaraid_sas_base.c	interrupt.h
megaraid_sas_base.c	kernel.h
megaraid_sas_base.c	list.h
megaraid_sas_base.c	megaraid_sas.h
megaraid_sas_base.c	megaraid_sas_fusion.h
megaraid_sas_base.c	module.h
megaraid_sas_base.c	moduleparam.h
megaraid_sas_base.c	mutex.h
megaraid_sas_base.c	pci.h
megaraid_sas_base.c	poll.h
megaraid_sas_base.c	scsi.h
megaraid_sas_base.c	scsi_cmnd.h
megaraid_sas_base.c	scsi_device.h
megaraid_sas_base.c	scsi_host.h
megaraid_sas_base.c	scsi_tcq.h
megaraid_sas_base.c	slab.h
megaraid_sas_base.c	spinlock.h
megaraid_sas_base.c	types.h
megaraid_sas_base.c	uaccess.h
megaraid_sas_base.c	uio.h
megaraid_sas_fp.c	blkdev.h
megaraid_sas_fp.c	compat.h
megaraid_sas_fp.c	delay.h
megaraid_sas_fp.c	div64.h
megaraid_sas_fp.c	fs.h
megaraid_sas_fp.c	interrupt.h
megaraid_sas_fp.c	kernel.h
megaraid_sas_fp.c	list.h
megaraid_sas_fp.c	megaraid_sas.h
megaraid_sas_fp.c	megaraid_sas_fusion.h
megaraid_sas_fp.c	module.h
megaraid_sas_fp.c	moduleparam.h
megaraid_sas_fp.c	pci.h
megaraid_sas_fp.c	poll.h
megaraid_sas_fp.c	scsi.h
megaraid_sas_fp.c	scsi_cmnd.h
megaraid_sas_fp.c	scsi_device.h
megaraid_sas_fp.c	scsi_host.h
megaraid_sas_fp.c	spinlock.h
megaraid_sas_fp.c	types.h
megaraid_sas_fp.c	uaccess.h
megaraid_sas_fp.c	uio.h
megaraid_sas_fusion.c	blkdev.h
megaraid_sas_fusion.c	compat.h
megaraid_sas_fusion.c	delay.h
megaraid_sas_fusion.c	fs.h
megaraid_sas_fusion.c	interrupt.h
megaraid_sas_fusion.c	kernel.h
megaraid_sas_fusion.c	list.h
megaraid_sas_fusion.c	megaraid_sas.h
megaraid_sas_fusion.c	megaraid_sas_fusion.h
megaraid_sas_fusion.c	module.h
megaraid_sas_fusion.c	moduleparam.h
megaraid_sas_fusion.c	mutex.h
megaraid_sas_fusion.c	pci.h
megaraid_sas_fusion.c	poll.h
megaraid_sas_fusion.c	scsi.h
megaraid_sas_fusion.c	scsi_cmnd.h
megaraid_sas_fusion.c	scsi_device.h
megaraid_sas_fusion.c	scsi_host.h
megaraid_sas_fusion.c	spinlock.h
megaraid_sas_fusion.c	types.h
megaraid_sas_fusion.c	uaccess.h
megaraid_sas_fusion.c	uio.h
mesh.c	blkdev.h
mesh.c	dbdma.h
mesh.c	delay.h
mesh.c	hydra.h
mesh.c	interrupt.h
mesh.c	io.h
mesh.c	irq.h
mesh.c	kernel.h
mesh.c	machdep.h
mesh.c	macio.h
mesh.c	mesh.h
mesh.c	module.h
mesh.c	pci-bridge.h
mesh.c	pgtable.h
mesh.c	pmac_feature.h
mesh.c	proc_fs.h
mesh.c	processor.h
mesh.c	prom.h
mesh.c	reboot.h
mesh.c	scsi.h
mesh.c	scsi_cmnd.h
mesh.c	scsi_device.h
mesh.c	scsi_host.h
mesh.c	spinlock.h
mesh.c	stat.h
mesh.c	string.h
mesh.c	types.h
mid_bios.c	drm.h
mid_bios.c	drmP.h
mid_bios.c	gma_drm.h
mid_bios.c	mid_bios.h
mid_bios.c	psb_drv.h
mmu.c	drmP.h
mmu.c	psb_drv.h
mmu.c	psb_reg.h
mvumi.c	blkdev.h
mvumi.c	delay.h
mvumi.c	device.h
mvumi.c	init.h
mvumi.c	interrupt.h
mvumi.c	io.h
mvumi.c	kernel.h
mvumi.c	kthread.h
mvumi.c	list.h
mvumi.c	module.h
mvumi.c	moduleparam.h
mvumi.c	mvumi.h
mvumi.c	pci.h
mvumi.c	scsi.h
mvumi.c	scsi_cmnd.h
mvumi.c	scsi_device.h
mvumi.c	scsi_eh.h
mvumi.c	scsi_host.h
mvumi.c	scsi_transport.h
mvumi.c	spinlock.h
mvumi.c	uaccess.h
nark.c	aacraid.h
nark.c	blkdev.h
nark.c	pci.h
nark.c	scsi_host.h
ncr53c8xx.c	blkdev.h
ncr53c8xx.c	delay.h
ncr53c8xx.c	dma-mapping.h
ncr53c8xx.c	dma.h
ncr53c8xx.c	errno.h
ncr53c8xx.c	gfp.h
ncr53c8xx.c	init.h
ncr53c8xx.c	interrupt.h
ncr53c8xx.c	io.h
ncr53c8xx.c	ioport.h
ncr53c8xx.c	mm.h
ncr53c8xx.c	module.h
ncr53c8xx.c	ncr53c8xx.h
ncr53c8xx.c	sched.h
ncr53c8xx.c	scsi.h
ncr53c8xx.c	scsi_cmnd.h
ncr53c8xx.c	scsi_dbg.h
ncr53c8xx.c	scsi_device.h
ncr53c8xx.c	scsi_tcq.h
ncr53c8xx.c	scsi_transport.h
ncr53c8xx.c	scsi_transport_spi.h
ncr53c8xx.c	signal.h
ncr53c8xx.c	spinlock.h
ncr53c8xx.c	stat.h
ncr53c8xx.c	string.h
ncr53c8xx.c	time.h
ncr53c8xx.c	timer.h
ncr53c8xx.c	types.h
ncr53c8xx.h	scsi_host.h
nsp_cs.c	blkdev.h
nsp_cs.c	cisreg.h
nsp_cs.c	cistpl.h
nsp_cs.c	delay.h
nsp_cs.c	ds.h
nsp_cs.c	init.h
nsp_cs.c	interrupt.h
nsp_cs.c	io.h
nsp_cs.c	ioport.h
nsp_cs.c	irq.h
nsp_cs.c	kernel.h
nsp_cs.c	major.h
nsp_cs.c	module.h
nsp_cs.c	nsp_cs.h
nsp_cs.c	nsp_debug.c
nsp_cs.c	nsp_io.h
nsp_cs.c	nsp_message.c
nsp_cs.c	scsi.h
nsp_cs.c	scsi.h
nsp_cs.c	scsi_host.h
nsp_cs.c	scsi_ioctl.h
nsp_cs.c	slab.h
nsp_cs.c	stat.h
nsp_cs.c	string.h
nsp_cs.c	timer.h
oaktrail_crtc.c	drmP.h
oaktrail_crtc.c	framebuffer.h
oaktrail_crtc.c	i2c.h
oaktrail_crtc.c	pm_runtime.h
oaktrail_crtc.c	power.h
oaktrail_crtc.c	psb_drv.h
oaktrail_crtc.c	psb_intel_display.h
oaktrail_crtc.c	psb_intel_drv.h
oaktrail_crtc.c	psb_intel_reg.h
oaktrail_device.c	backlight.h
oaktrail_device.c	dmi.h
oaktrail_device.c	drm.h
oaktrail_device.c	drmP.h
oaktrail_device.c	gma_drm.h
oaktrail_device.c	intel_bios.h
oaktrail_device.c	intel_scu_ipc.h
oaktrail_device.c	mid_bios.h
oaktrail_device.c	module.h
oaktrail_device.c	mrst.h
oaktrail_device.c	psb_drv.h
oaktrail_device.c	psb_intel_reg.h
oaktrail_device.c	psb_reg.h
oaktrail_hdmi.c	drm.h
oaktrail_hdmi.c	drmP.h
oaktrail_hdmi.c	psb_drv.h
oaktrail_hdmi.c	psb_intel_drv.h
oaktrail_hdmi.c	psb_intel_reg.h
oaktrail_hdmi_i2c.c	delay.h
oaktrail_hdmi_i2c.c	export.h
oaktrail_hdmi_i2c.c	i2c.h
oaktrail_hdmi_i2c.c	interrupt.h
oaktrail_hdmi_i2c.c	mutex.h
oaktrail_hdmi_i2c.c	pci.h
oaktrail_hdmi_i2c.c	psb_drv.h
oaktrail_lvds.c	drmP.h
oaktrail_lvds.c	i2c.h
oaktrail_lvds.c	intel_bios.h
oaktrail_lvds.c	mrst.h
oaktrail_lvds.c	pm_runtime.h
oaktrail_lvds.c	power.h
oaktrail_lvds.c	psb_drv.h
oaktrail_lvds.c	psb_intel_drv.h
oaktrail_lvds.c	psb_intel_reg.h
opregion.c	acpi.h
opregion.c	acpi_io.h
opregion.c	psb_drv.h
opregion.c	psb_intel_reg.h
osst.c	blkdev.h
osst.c	delay.h
osst.c	dma.h
osst.c	errno.h
osst.c	fcntl.h
osst.c	fs.h
osst.c	init.h
osst.c	ioctl.h
osst.c	jiffies.h
osst.c	kernel.h
osst.c	mm.h
osst.c	module.h
osst.c	moduleparam.h
osst.c	mtio.h
osst.c	mutex.h
osst.c	osst.h
osst.c	osst_detect.h
osst.c	osst_options.h
osst.c	proc_fs.h
osst.c	sched.h
osst.c	scsi.h
osst.c	scsi_dbg.h
osst.c	scsi_device.h
osst.c	scsi_driver.h
osst.c	scsi_eh.h
osst.c	scsi_host.h
osst.c	scsi_ioctl.h
osst.c	slab.h
osst.c	spinlock.h
osst.c	st.h
osst.c	string.h
osst.c	uaccess.h
osst.c	vmalloc.h
pas16.c	NCR5380.c
pas16.c	NCR5380.h
pas16.c	blkdev.h
pas16.c	delay.h
pas16.c	dma.h
pas16.c	init.h
pas16.c	interrupt.h
pas16.c	io.h
pas16.c	module.h
pas16.c	pas16.h
pas16.c	proc_fs.h
pas16.c	scsi.h
pas16.c	scsi_host.h
pas16.c	scsi_module.c
pas16.c	signal.h
pas16.c	stat.h
pm8001_ctl.c	firmware.h
pm8001_ctl.c	pm8001_ctl.h
pm8001_ctl.c	pm8001_sas.h
pm8001_ctl.c	slab.h
pm8001_hwi.c	pm8001_chips.h
pm8001_hwi.c	pm8001_ctl.h
pm8001_hwi.c	pm8001_hwi.h
pm8001_hwi.c	pm8001_sas.h
pm8001_hwi.c	slab.h
pm8001_hwi.h	libsas.h
pm8001_hwi.h	types.h
pm8001_init.c	pm8001_chips.h
pm8001_init.c	pm8001_sas.h
pm8001_init.c	slab.h
pm8001_sas.c	pm8001_sas.h
pm8001_sas.c	slab.h
pm8001_sas.h	atomic.h
pm8001_sas.h	ctype.h
pm8001_sas.h	delay.h
pm8001_sas.h	dma-mapping.h
pm8001_sas.h	interrupt.h
pm8001_sas.h	kernel.h
pm8001_sas.h	libsas.h
pm8001_sas.h	module.h
pm8001_sas.h	pci.h
pm8001_sas.h	pm8001_defs.h
pm8001_sas.h	sas_ata.h
pm8001_sas.h	scsi_tcq.h
pm8001_sas.h	spinlock.h
pm8001_sas.h	types.h
pm8001_sas.h	workqueue.h
power.c	mutex.h
power.c	pm_runtime.h
power.c	power.h
power.c	psb_drv.h
power.c	psb_intel_reg.h
power.c	psb_reg.h
power.h	drmP.h
power.h	pci.h
psb_device.c	backlight.h
psb_device.c	drm.h
psb_device.c	drmP.h
psb_device.c	gma_drm.h
psb_device.c	intel_bios.h
psb_device.c	psb_drv.h
psb_device.c	psb_intel_reg.h
psb_device.c	psb_reg.h
psb_drv.c	cpu.h
psb_drv.c	drm.h
psb_drv.c	drmP.h
psb_drv.c	drm_pciids.h
psb_drv.c	framebuffer.h
psb_drv.c	gma_drm.h
psb_drv.c	intel_bios.h
psb_drv.c	mid_bios.h
psb_drv.c	module.h
psb_drv.c	notifier.h
psb_drv.c	pm_runtime.h
psb_drv.c	power.h
psb_drv.c	psb_drv.h
psb_drv.c	psb_intel_reg.h
psb_drv.c	psb_reg.h
psb_drv.c	spinlock.h
psb_drv.c	video.h
psb_drv.h	drmP.h
psb_drv.h	drm_global.h
psb_drv.h	gma_drm.h
psb_drv.h	gtt.h
psb_drv.h	intel_bios.h
psb_drv.h	kref.h
psb_drv.h	oaktrail.h
psb_drv.h	opregion.h
psb_drv.h	power.h
psb_drv.h	psb_intel_drv.h
psb_drv.h	psb_reg.h
psb_intel_display.c	drmP.h
psb_intel_display.c	framebuffer.h
psb_intel_display.c	i2c.h
psb_intel_display.c	pm_runtime.h
psb_intel_display.c	power.h
psb_intel_display.c	psb_drv.h
psb_intel_display.c	psb_intel_display.h
psb_intel_display.c	psb_intel_drv.h
psb_intel_display.c	psb_intel_reg.h
psb_intel_drv.h	drm_crtc.h
psb_intel_drv.h	drm_crtc_helper.h
psb_intel_drv.h	gpio.h
psb_intel_drv.h	i2c-algo-bit.h
psb_intel_drv.h	i2c.h
psb_intel_lvds.c	drmP.h
psb_intel_lvds.c	i2c.h
psb_intel_lvds.c	intel_bios.h
psb_intel_lvds.c	pm_runtime.h
psb_intel_lvds.c	power.h
psb_intel_lvds.c	psb_drv.h
psb_intel_lvds.c	psb_intel_drv.h
psb_intel_lvds.c	psb_intel_reg.h
psb_intel_modes.c	drmP.h
psb_intel_modes.c	fb.h
psb_intel_modes.c	i2c.h
psb_intel_modes.c	psb_intel_drv.h
psb_intel_sdvo.c	delay.h
psb_intel_sdvo.c	drmP.h
psb_intel_sdvo.c	drm_crtc.h
psb_intel_sdvo.c	drm_edid.h
psb_intel_sdvo.c	gma_drm.h
psb_intel_sdvo.c	i2c.h
psb_intel_sdvo.c	module.h
psb_intel_sdvo.c	psb_drv.h
psb_intel_sdvo.c	psb_intel_drv.h
psb_intel_sdvo.c	psb_intel_reg.h
psb_intel_sdvo.c	psb_intel_sdvo_regs.h
psb_intel_sdvo.c	slab.h
psb_irq.c	drmP.h
psb_irq.c	mdfld_output.h
psb_irq.c	power.h
psb_irq.c	psb_drv.h
psb_irq.c	psb_intel_reg.h
psb_irq.c	psb_irq.h
psb_irq.c	psb_reg.h
psb_irq.h	drmP.h
psb_lid.c	drmP.h
psb_lid.c	psb_drv.h
psb_lid.c	psb_intel_reg.h
psb_lid.c	psb_reg.h
psb_lid.c	spinlock.h
qla_attr.c	delay.h
qla_attr.c	kthread.h
qla_attr.c	qla_def.h
qla_attr.c	qla_target.h
qla_attr.c	slab.h
qla_attr.c	vmalloc.h
qla_bsg.c	delay.h
qla_bsg.c	kthread.h
qla_bsg.c	qla_def.h
qla_bsg.c	vmalloc.h
qla_dbg.c	delay.h
qla_dbg.c	qla_def.h
qla_dbg.h	qla_def.h
qla_def.h	aer.h
qla_def.h	completion.h
qla_def.h	dma-mapping.h
qla_def.h	dmapool.h
qla_def.h	firmware.h
qla_def.h	init.h
qla_def.h	interrupt.h
qla_def.h	kernel.h
qla_def.h	list.h
qla_def.h	mempool.h
qla_def.h	module.h
qla_def.h	mutex.h
qla_def.h	pci.h
qla_def.h	qla_bsg.h
qla_def.h	qla_dbg.h
qla_def.h	qla_fw.h
qla_def.h	qla_gbl.h
qla_def.h	qla_inline.h
qla_def.h	qla_nx.h
qla_def.h	qla_settings.h
qla_def.h	sched.h
qla_def.h	scsi.h
qla_def.h	scsi_bsg_fc.h
qla_def.h	scsi_cmnd.h
qla_def.h	scsi_device.h
qla_def.h	scsi_host.h
qla_def.h	scsi_transport_fc.h
qla_def.h	slab.h
qla_def.h	spinlock.h
qla_def.h	types.h
qla_def.h	workqueue.h
qla_dfs.c	debugfs.h
qla_dfs.c	qla_def.h
qla_dfs.c	seq_file.h
qla_gbl.h	interrupt.h
qla_gs.c	qla_def.h
qla_gs.c	qla_target.h
qla_init.c	delay.h
qla_init.c	prom.h
qla_init.c	qla_def.h
qla_init.c	qla_devtbl.h
qla_init.c	qla_gbl.h
qla_init.c	qla_target.h
qla_init.c	slab.h
qla_init.c	target_core_base.h
qla_init.c	vmalloc.h
qla_iocb.c	blkdev.h
qla_iocb.c	delay.h
qla_iocb.c	qla_def.h
qla_iocb.c	qla_target.h
qla_iocb.c	scsi_tcq.h
qla_isr.c	delay.h
qla_isr.c	qla_def.h
qla_isr.c	qla_target.h
qla_isr.c	scsi_bsg_fc.h
qla_isr.c	scsi_eh.h
qla_isr.c	scsi_tcq.h
qla_isr.c	slab.h
qla_mbx.c	delay.h
qla_mbx.c	gfp.h
qla_mbx.c	qla_def.h
qla_mbx.c	qla_target.h
qla_mid.c	delay.h
qla_mid.c	list.h
qla_mid.c	moduleparam.h
qla_mid.c	qla_def.h
qla_mid.c	qla_gbl.h
qla_mid.c	qla_target.h
qla_mid.c	scsi_tcq.h
qla_mid.c	scsicam.h
qla_mid.c	slab.h
qla_mid.c	vmalloc.h
qla_nx.c	delay.h
qla_nx.c	pci.h
qla_nx.c	qla_def.h
qla_nx.c	ratelimit.h
qla_nx.c	scsi_tcq.h
qla_nx.c	vmalloc.h
qla_os.c	delay.h
qla_os.c	kobject.h
qla_os.c	kthread.h
qla_os.c	moduleparam.h
qla_os.c	mutex.h
qla_os.c	qla_def.h
qla_os.c	qla_target.h
qla_os.c	scsi_tcq.h
qla_os.c	scsi_transport.h
qla_os.c	scsi_transport_fc.h
qla_os.c	scsicam.h
qla_os.c	slab.h
qla_os.c	vmalloc.h
qla_settings.h	qla_version.h
qla_sup.c	delay.h
qla_sup.c	qla_def.h
qla_sup.c	slab.h
qla_sup.c	uaccess.h
qla_sup.c	vmalloc.h
qla_target.c	blkdev.h
qla_target.c	delay.h
qla_target.c	init.h
qla_target.c	interrupt.h
qla_target.c	list.h
qla_target.c	module.h
qla_target.c	pci.h
qla_target.c	qla_def.h
qla_target.c	qla_target.h
qla_target.c	scsi.h
qla_target.c	scsi_host.h
qla_target.c	scsi_tcq.h
qla_target.c	target_core_base.h
qla_target.c	target_core_fabric.h
qla_target.c	types.h
qla_target.c	unaligned.h
qla_target.c	workqueue.h
qla_target.h	qla_def.h
qla_target.h	target_core_base.h
qlogic_stub.c	blkdev.h
qlogic_stub.c	ciscode.h
qlogic_stub.c	cistpl.h
qlogic_stub.c	ds.h
qlogic_stub.c	init.h
qlogic_stub.c	interrupt.h
qlogic_stub.c	io.h
qlogic_stub.c	ioport.h
qlogic_stub.c	kernel.h
qlogic_stub.c	major.h
qlogic_stub.c	module.h
qlogic_stub.c	qlogicfas408.h
qlogic_stub.c	scsi.h
qlogic_stub.c	scsi.h
qlogic_stub.c	scsi_host.h
qlogic_stub.c	scsi_ioctl.h
qlogic_stub.c	slab.h
qlogic_stub.c	string.h
qlogicpti.c	blkdev.h
qlogicpti.c	byteorder.h
qlogicpti.c	delay.h
qlogicpti.c	dma-mapping.h
qlogicpti.c	dma.h
qlogicpti.c	firmware.h
qlogicpti.c	gfp.h
qlogicpti.c	init.h
qlogicpti.c	interrupt.h
qlogicpti.c	io.h
qlogicpti.c	irq.h
qlogicpti.c	jiffies.h
qlogicpti.c	kernel.h
qlogicpti.c	module.h
qlogicpti.c	of.h
qlogicpti.c	of_device.h
qlogicpti.c	oplib.h
qlogicpti.c	pgtable.h
qlogicpti.c	proc_fs.h
qlogicpti.c	ptrace.h
qlogicpti.c	qlogicpti.h
qlogicpti.c	scsi.h
qlogicpti.c	scsi_cmnd.h
qlogicpti.c	scsi_device.h
qlogicpti.c	scsi_eh.h
qlogicpti.c	scsi_host.h
qlogicpti.c	scsi_tcq.h
qlogicpti.c	spinlock.h
qlogicpti.c	stat.h
qlogicpti.c	string.h
qlogicpti.c	types.h
ring_buffer.c	hyperv.h
ring_buffer.c	hyperv_vmbus.h
ring_buffer.c	kernel.h
ring_buffer.c	mm.h
rkt.c	aacraid.h
rkt.c	blkdev.h
rkt.c	scsi_host.h
rx.c	aacraid.h
rx.c	blkdev.h
rx.c	completion.h
rx.c	delay.h
rx.c	init.h
rx.c	interrupt.h
rx.c	kernel.h
rx.c	pci.h
rx.c	scsi_host.h
rx.c	spinlock.h
rx.c	time.h
rx.c	types.h
sa.c	aacraid.h
sa.c	blkdev.h
sa.c	completion.h
sa.c	delay.h
sa.c	init.h
sa.c	interrupt.h
sa.c	kernel.h
sa.c	pci.h
sa.c	scsi_host.h
sa.c	spinlock.h
sa.c	time.h
sa.c	types.h
scsi_devinfo.c	blkdev.h
scsi_devinfo.c	init.h
scsi_devinfo.c	kernel.h
scsi_devinfo.c	module.h
scsi_devinfo.c	moduleparam.h
scsi_devinfo.c	proc_fs.h
scsi_devinfo.c	scsi_device.h
scsi_devinfo.c	scsi_devinfo.h
scsi_devinfo.c	scsi_priv.h
scsi_devinfo.c	seq_file.h
scsi_devinfo.c	slab.h
scsi_error.c	blkdev.h
scsi_error.c	delay.h
scsi_error.c	freezer.h
scsi_error.c	gfp.h
scsi_error.c	interrupt.h
scsi_error.c	kernel.h
scsi_error.c	kthread.h
scsi_error.c	module.h
scsi_error.c	sched.h
scsi_error.c	scsi.h
scsi_error.c	scsi.h
scsi_error.c	scsi_cmnd.h
scsi_error.c	scsi_dbg.h
scsi_error.c	scsi_device.h
scsi_error.c	scsi_driver.h
scsi_error.c	scsi_eh.h
scsi_error.c	scsi_host.h
scsi_error.c	scsi_ioctl.h
scsi_error.c	scsi_logging.h
scsi_error.c	scsi_priv.h
scsi_error.c	scsi_transport.h
scsi_error.c	scsi_transport_api.h
scsi_error.c	string.h
scsi_error.c	timer.h
scsi_lib_dma.c	blkdev.h
scsi_lib_dma.c	device.h
scsi_lib_dma.c	export.h
scsi_lib_dma.c	kernel.h
scsi_lib_dma.c	scsi.h
scsi_lib_dma.c	scsi_cmnd.h
scsi_lib_dma.c	scsi_device.h
scsi_lib_dma.c	scsi_host.h
scsi_module.c	init.h
scsi_module.c	kernel.h
scsi_module.c	module.h
scsi_module.c	scsi_host.h
scsi_pm.c	async.h
scsi_pm.c	export.h
scsi_pm.c	pm_runtime.h
scsi_pm.c	scsi.h
scsi_pm.c	scsi_device.h
scsi_pm.c	scsi_driver.h
scsi_pm.c	scsi_host.h
scsi_pm.c	scsi_priv.h
scsi_trace.c	kernel.h
scsi_trace.c	scsi.h
scsi_trace.c	trace_seq.h
scsi_transport_sas.c	blkdev.h
scsi_transport_sas.c	bsg.h
scsi_transport_sas.c	err.h
scsi_transport_sas.c	init.h
scsi_transport_sas.c	jiffies.h
scsi_transport_sas.c	module.h
scsi_transport_sas.c	scsi.h
scsi_transport_sas.c	scsi_device.h
scsi_transport_sas.c	scsi_host.h
scsi_transport_sas.c	scsi_sas_internal.h
scsi_transport_sas.c	scsi_transport.h
scsi_transport_sas.c	scsi_transport_sas.h
scsi_transport_sas.c	slab.h
scsi_transport_sas.c	string.h
sd.c	async.h
sd.c	bio.h
sd.c	blkdev.h
sd.c	blkpg.h
sd.c	delay.h
sd.c	errno.h
sd.c	fs.h
sd.c	genhd.h
sd.c	hdreg.h
sd.c	idr.h
sd.c	init.h
sd.c	interrupt.h
sd.c	kernel.h
sd.c	mm.h
sd.c	module.h
sd.c	mutex.h
sd.c	pm_runtime.h
sd.c	scsi.h
sd.c	scsi_cmnd.h
sd.c	scsi_dbg.h
sd.c	scsi_device.h
sd.c	scsi_driver.h
sd.c	scsi_eh.h
sd.c	scsi_host.h
sd.c	scsi_ioctl.h
sd.c	scsi_logging.h
sd.c	scsi_priv.h
sd.c	scsicam.h
sd.c	sd.h
sd.c	slab.h
sd.c	string_helpers.h
sd.c	uaccess.h
sd.c	unaligned.h
sim710.c	53c700.h
sim710.c	blkdev.h
sim710.c	device.h
sim710.c	eisa.h
sim710.c	init.h
sim710.c	interrupt.h
sim710.c	module.h
sim710.c	scsi_device.h
sim710.c	scsi_host.h
sim710.c	scsi_transport.h
sim710.c	scsi_transport_spi.h
sim710.c	slab.h
src.c	aacraid.h
src.c	blkdev.h
src.c	completion.h
src.c	delay.h
src.c	init.h
src.c	interrupt.h
src.c	kernel.h
src.c	pci.h
src.c	scsi_host.h
src.c	slab.h
src.c	spinlock.h
src.c	time.h
src.c	types.h
st.c	blkdev.h
st.c	cdev.h
st.c	cdrom.h
st.c	delay.h
st.c	dma.h
st.c	errno.h
st.c	fcntl.h
st.c	fs.h
st.c	idr.h
st.c	init.h
st.c	ioctl.h
st.c	kernel.h
st.c	mm.h
st.c	module.h
st.c	moduleparam.h
st.c	mtio.h
st.c	mutex.h
st.c	osst_detect.h
st.c	sched.h
st.c	scsi.h
st.c	scsi_dbg.h
st.c	scsi_device.h
st.c	scsi_driver.h
st.c	scsi_eh.h
st.c	scsi_host.h
st.c	scsi_ioctl.h
st.c	sg.h
st.c	slab.h
st.c	spinlock.h
st.c	st.h
st.c	st_options.h
st.c	string.h
st.c	uaccess.h
sun3_scsi_vme.c	blkdev.h
sun3_scsi_vme.c	ctype.h
sun3_scsi_vme.c	delay.h
sun3_scsi_vme.c	dvma.h
sun3_scsi_vme.c	idprom.h
sun3_scsi_vme.c	init.h
sun3_scsi_vme.c	initio.h
sun3_scsi_vme.c	io.h
sun3_scsi_vme.c	ioport.h
sun3_scsi_vme.c	machines.h
sun3_scsi_vme.c	module.h
sun3_scsi_vme.c	scsi.h
sun3_scsi_vme.c	scsi_host.h
sun3_scsi_vme.c	scsi_module.c
sun3_scsi_vme.c	signal.h
sun3_scsi_vme.c	stddef.h
sun3_scsi_vme.c	sun3_NCR5380.c
sun3_scsi_vme.c	sun3_scsi.h
sun3_scsi_vme.c	sun3ints.h
sun3_scsi_vme.c	types.h
sun3x_esp.c	delay.h
sun3x_esp.c	dma-mapping.h
sun3x_esp.c	dma.h
sun3x_esp.c	dvma.h
sun3x_esp.c	esp_scsi.h
sun3x_esp.c	gfp.h
sun3x_esp.c	init.h
sun3x_esp.c	interrupt.h
sun3x_esp.c	io.h
sun3x_esp.c	kernel.h
sun3x_esp.c	module.h
sun3x_esp.c	platform_device.h
sun3x_esp.c	scsi_host.h
sun3x_esp.c	sun3x.h
sun3x_esp.c	types.h
sym53c500_cs.c	bitops.h
sym53c500_cs.c	blkdev.h
sym53c500_cs.c	ciscode.h
sym53c500_cs.c	cistpl.h
sym53c500_cs.c	dma.h
sym53c500_cs.c	ds.h
sym53c500_cs.c	errno.h
sym53c500_cs.c	init.h
sym53c500_cs.c	interrupt.h
sym53c500_cs.c	io.h
sym53c500_cs.c	ioport.h
sym53c500_cs.c	irq.h
sym53c500_cs.c	kernel.h
sym53c500_cs.c	module.h
sym53c500_cs.c	moduleparam.h
sym53c500_cs.c	scsi.h
sym53c500_cs.c	scsi_cmnd.h
sym53c500_cs.c	scsi_device.h
sym53c500_cs.c	scsi_host.h
sym53c500_cs.c	scsi_ioctl.h
sym53c500_cs.c	slab.h
sym53c500_cs.c	spinlock.h
sym53c500_cs.c	string.h
tc35876x-dsi-lvds.c	intel_scu_ipc.h
tc35876x-dsi-lvds.c	kernel.h
tc35876x-dsi-lvds.c	mdfld_dsi_dpi.h
tc35876x-dsi-lvds.c	mdfld_dsi_pkg_sender.h
tc35876x-dsi-lvds.c	mdfld_output.h
tc35876x-dsi-lvds.c	module.h
tc35876x-dsi-lvds.c	tc35876x-dsi-lvds.h
tc35876x-dsi-lvds.c	tc35876x.h
tcm_qla2xxx.c	configfs.h
tcm_qla2xxx.c	configfs_macros.h
tcm_qla2xxx.c	ctype.h
tcm_qla2xxx.c	init.h
tcm_qla2xxx.c	kthread.h
tcm_qla2xxx.c	list.h
tcm_qla2xxx.c	module.h
tcm_qla2xxx.c	moduleparam.h
tcm_qla2xxx.c	qla_def.h
tcm_qla2xxx.c	qla_target.h
tcm_qla2xxx.c	scsi.h
tcm_qla2xxx.c	scsi_cmnd.h
tcm_qla2xxx.c	scsi_device.h
tcm_qla2xxx.c	scsi_host.h
tcm_qla2xxx.c	slab.h
tcm_qla2xxx.c	string.h
tcm_qla2xxx.c	target_core_base.h
tcm_qla2xxx.c	target_core_configfs.h
tcm_qla2xxx.c	target_core_fabric.h
tcm_qla2xxx.c	target_core_fabric_configfs.h
tcm_qla2xxx.c	tcm_qla2xxx.h
tcm_qla2xxx.c	types.h
tcm_qla2xxx.c	unaligned.h
tcm_qla2xxx.c	utsname.h
tcm_qla2xxx.c	utsrelease.h
tcm_qla2xxx.h	btree.h
tcm_qla2xxx.h	qla_target.h
tcm_qla2xxx.h	target_core_base.h
ttm_agp_backend.c	agp.h
ttm_agp_backend.c	agp_backend.h
ttm_agp_backend.c	io.h
ttm_agp_backend.c	module.h
ttm_agp_backend.c	slab.h
ttm_agp_backend.c	ttm_bo_driver.h
ttm_agp_backend.c	ttm_module.h
ttm_agp_backend.c	ttm_page_alloc.h
ttm_agp_backend.c	ttm_placement.h
ttm_bo.c	atomic.h
ttm_bo.c	file.h
ttm_bo.c	jiffies.h
ttm_bo.c	mm.h
ttm_bo.c	module.h
ttm_bo.c	sched.h
ttm_bo.c	slab.h
ttm_bo.c	ttm_bo_driver.h
ttm_bo.c	ttm_module.h
ttm_bo.c	ttm_placement.h
ttm_bo_manager.c	drm_mm.h
ttm_bo_manager.c	module.h
ttm_bo_manager.c	slab.h
ttm_bo_manager.c	spinlock.h
ttm_bo_manager.c	ttm_bo_driver.h
ttm_bo_manager.c	ttm_module.h
ttm_bo_manager.c	ttm_placement.h
ttm_bo_util.c	highmem.h
ttm_bo_util.c	io.h
ttm_bo_util.c	module.h
ttm_bo_util.c	slab.h
ttm_bo_util.c	ttm_bo_driver.h
ttm_bo_util.c	ttm_placement.h
ttm_bo_util.c	vmalloc.h
ttm_bo_util.c	wait.h
ttm_bo_vm.c	mm.h
ttm_bo_vm.c	module.h
ttm_bo_vm.c	rbtree.h
ttm_bo_vm.c	ttm_bo_driver.h
ttm_bo_vm.c	ttm_module.h
ttm_bo_vm.c	ttm_placement.h
ttm_bo_vm.c	uaccess.h
ttm_execbuf_util.c	module.h
ttm_execbuf_util.c	sched.h
ttm_execbuf_util.c	ttm_bo_driver.h
ttm_execbuf_util.c	ttm_execbuf_util.h
ttm_execbuf_util.c	ttm_placement.h
ttm_execbuf_util.c	wait.h
ttm_lock.c	atomic.h
ttm_lock.c	errno.h
ttm_lock.c	module.h
ttm_lock.c	sched.h
ttm_lock.c	ttm_lock.h
ttm_lock.c	ttm_module.h
ttm_lock.c	wait.h
ttm_memory.c	mm.h
ttm_memory.c	module.h
ttm_memory.c	sched.h
ttm_memory.c	slab.h
ttm_memory.c	spinlock.h
ttm_memory.c	ttm_memory.h
ttm_memory.c	ttm_module.h
ttm_memory.c	ttm_page_alloc.h
ttm_memory.c	wait.h
ttm_module.c	device.h
ttm_module.c	drm_sysfs.h
ttm_module.c	module.h
ttm_module.c	sched.h
ttm_module.c	ttm_module.h
ttm_object.c	atomic.h
ttm_object.c	list.h
ttm_object.c	module.h
ttm_object.c	slab.h
ttm_object.c	spinlock.h
ttm_object.c	ttm_module.h
ttm_object.c	ttm_object.h
ttm_page_alloc.c	agp.h
ttm_page_alloc.c	atomic.h
ttm_page_alloc.c	dma-mapping.h
ttm_page_alloc.c	highmem.h
ttm_page_alloc.c	list.h
ttm_page_alloc.c	mm.h
ttm_page_alloc.c	mm_types.h
ttm_page_alloc.c	module.h
ttm_page_alloc.c	seq_file.h
ttm_page_alloc.c	slab.h
ttm_page_alloc.c	spinlock.h
ttm_page_alloc.c	ttm_bo_driver.h
ttm_page_alloc.c	ttm_page_alloc.h
ttm_page_alloc_dma.c	agp.h
ttm_page_alloc_dma.c	atomic.h
ttm_page_alloc_dma.c	device.h
ttm_page_alloc_dma.c	dma-mapping.h
ttm_page_alloc_dma.c	highmem.h
ttm_page_alloc_dma.c	kthread.h
ttm_page_alloc_dma.c	list.h
ttm_page_alloc_dma.c	mm.h
ttm_page_alloc_dma.c	mm_types.h
ttm_page_alloc_dma.c	module.h
ttm_page_alloc_dma.c	seq_file.h
ttm_page_alloc_dma.c	slab.h
ttm_page_alloc_dma.c	spinlock.h
ttm_page_alloc_dma.c	ttm_bo_driver.h
ttm_page_alloc_dma.c	ttm_page_alloc.h
ttm_tt.c	drm_cache.h
ttm_tt.c	drm_mem_util.h
ttm_tt.c	export.h
ttm_tt.c	file.h
ttm_tt.c	highmem.h
ttm_tt.c	pagemap.h
ttm_tt.c	sched.h
ttm_tt.c	shmem_fs.h
ttm_tt.c	slab.h
ttm_tt.c	swap.h
ttm_tt.c	ttm_bo_driver.h
ttm_tt.c	ttm_module.h
ttm_tt.c	ttm_page_alloc.h
ttm_tt.c	ttm_placement.h
udl_connector.c	drmP.h
udl_connector.c	drm_crtc.h
udl_connector.c	drm_crtc_helper.h
udl_connector.c	drm_edid.h
udl_connector.c	udl_drv.h
udl_drv.c	drm_crtc_helper.h
udl_drv.c	drm_usb.h
udl_drv.c	module.h
udl_drv.c	udl_drv.h
udl_drv.h	usb.h
udl_encoder.c	drmP.h
udl_encoder.c	drm_crtc.h
udl_encoder.c	drm_crtc_helper.h
udl_encoder.c	udl_drv.h
udl_fb.c	dma-buf.h
udl_fb.c	drmP.h
udl_fb.c	drm_crtc.h
udl_fb.c	drm_crtc_helper.h
udl_fb.c	drm_fb_helper.h
udl_fb.c	fb.h
udl_fb.c	module.h
udl_fb.c	slab.h
udl_fb.c	udl_drv.h
udl_gem.c	dma-buf.h
udl_gem.c	drmP.h
udl_gem.c	shmem_fs.h
udl_gem.c	udl_drv.h
udl_main.c	drmP.h
udl_main.c	udl_drv.h
udl_modeset.c	drmP.h
udl_modeset.c	drm_crtc.h
udl_modeset.c	drm_crtc_helper.h
udl_modeset.c	udl_drv.h
udl_transfer.c	drmP.h
udl_transfer.c	fb.h
udl_transfer.c	module.h
udl_transfer.c	prefetch.h
udl_transfer.c	slab.h
udl_transfer.c	udl_drv.h
ultrastor.c	bitops.h
ultrastor.c	blkdev.h
ultrastor.c	delay.h
ultrastor.c	dma.h
ultrastor.c	interrupt.h
ultrastor.c	io.h
ultrastor.c	ioport.h
ultrastor.c	kernel.h
ultrastor.c	module.h
ultrastor.c	proc_fs.h
ultrastor.c	scsi.h
ultrastor.c	scsi_host.h
ultrastor.c	scsi_module.c
ultrastor.c	spinlock.h
ultrastor.c	stat.h
ultrastor.c	stddef.h
ultrastor.c	string.h
ultrastor.c	ultrastor.h
vga_switcheroo.c	debugfs.h
vga_switcheroo.c	fb.h
vga_switcheroo.c	fs.h
vga_switcheroo.c	module.h
vga_switcheroo.c	pci.h
vga_switcheroo.c	seq_file.h
vga_switcheroo.c	uaccess.h
vga_switcheroo.c	vga_switcheroo.h
vga_switcheroo.c	vgaarb.h
vgaarb.c	errno.h
vgaarb.c	init.h
vgaarb.c	kernel.h
vgaarb.c	list.h
vgaarb.c	miscdevice.h
vgaarb.c	module.h
vgaarb.c	pci.h
vgaarb.c	poll.h
vgaarb.c	sched.h
vgaarb.c	slab.h
vgaarb.c	spinlock.h
vgaarb.c	uaccess.h
vgaarb.c	vgaarb.h
vgaarb.c	wait.h
vmbus_drv.c	acpi.h
vmbus_drv.c	acpi_bus.h
vmbus_drv.c	completion.h
vmbus_drv.c	device.h
vmbus_drv.c	hyperv.h
vmbus_drv.c	hyperv.h
vmbus_drv.c	hyperv_vmbus.h
vmbus_drv.c	hypervisor.h
vmbus_drv.c	init.h
vmbus_drv.c	interrupt.h
vmbus_drv.c	irq.h
vmbus_drv.c	module.h
vmbus_drv.c	slab.h
vmbus_drv.c	sysctl.h
vnic_cq.c	errno.h
vnic_cq.c	pci.h
vnic_cq.c	types.h
vnic_cq.c	vnic_cq.h
vnic_cq.c	vnic_dev.h
vnic_cq.h	cq_desc.h
vnic_cq.h	vnic_dev.h
vnic_cq_copy.h	fcpio.h
vnic_dev.c	delay.h
vnic_dev.c	errno.h
vnic_dev.c	if_ether.h
vnic_dev.c	kernel.h
vnic_dev.c	pci.h
vnic_dev.c	slab.h
vnic_dev.c	types.h
vnic_dev.c	vnic_dev.h
vnic_dev.c	vnic_devcmd.h
vnic_dev.c	vnic_resource.h
vnic_dev.c	vnic_stats.h
vnic_dev.h	vnic_devcmd.h
vnic_dev.h	vnic_resource.h
vnic_intr.c	delay.h
vnic_intr.c	errno.h
vnic_intr.c	kernel.h
vnic_intr.c	pci.h
vnic_intr.c	types.h
vnic_intr.c	vnic_dev.h
vnic_intr.c	vnic_intr.h
vnic_intr.h	pci.h
vnic_intr.h	vnic_dev.h
vnic_rq.c	delay.h
vnic_rq.c	errno.h
vnic_rq.c	pci.h
vnic_rq.c	slab.h
vnic_rq.c	types.h
vnic_rq.c	vnic_dev.h
vnic_rq.c	vnic_rq.h
vnic_rq.h	pci.h
vnic_rq.h	vnic_cq.h
vnic_rq.h	vnic_dev.h
vnic_wq.c	delay.h
vnic_wq.c	errno.h
vnic_wq.c	pci.h
vnic_wq.c	slab.h
vnic_wq.c	types.h
vnic_wq.c	vnic_dev.h
vnic_wq.c	vnic_wq.h
vnic_wq.h	pci.h
vnic_wq.h	vnic_cq.h
vnic_wq.h	vnic_dev.h
vnic_wq_copy.c	delay.h
vnic_wq_copy.c	errno.h
vnic_wq_copy.c	pci.h
vnic_wq_copy.c	types.h
vnic_wq_copy.c	vnic_wq_copy.h
vnic_wq_copy.h	fcpio.h
vnic_wq_copy.h	pci.h
vnic_wq_copy.h	vnic_wq.h
