a800.c	dibusb.h
ad9389b.c	ad9389b.h
ad9389b.c	delay.h
ad9389b.c	i2c.h
ad9389b.c	kernel.h
ad9389b.c	module.h
ad9389b.c	slab.h
ad9389b.c	v4l2-chip-ident.h
ad9389b.c	v4l2-common.h
ad9389b.c	v4l2-ctrls.h
ad9389b.c	v4l2-device.h
ad9389b.c	v4l2-dv-timings.h
ad9389b.c	videodev2.h
ad9389b.c	workqueue.h
adv7170.c	i2c.h
adv7170.c	ioctl.h
adv7170.c	module.h
adv7170.c	slab.h
adv7170.c	types.h
adv7170.c	uaccess.h
adv7170.c	v4l2-chip-ident.h
adv7170.c	v4l2-device.h
adv7170.c	videodev2.h
adv7180.c	errno.h
adv7180.c	i2c.h
adv7180.c	init.h
adv7180.c	interrupt.h
adv7180.c	kernel.h
adv7180.c	module.h
adv7180.c	mutex.h
adv7180.c	slab.h
adv7180.c	v4l2-chip-ident.h
adv7180.c	v4l2-ctrls.h
adv7180.c	v4l2-device.h
adv7180.c	v4l2-ioctl.h
adv7180.c	videodev2.h
af9005-fe.c	af9005-script.h
af9005-fe.c	af9005.h
af9005-fe.c	div64.h
af9005-fe.c	mt2060.h
af9005-fe.c	qt1010.h
af9005-remote.c	af9005.h
af9005.c	af9005.h
af9005.h	dvb-usb.h
af9015.c	af9015.h
af9015.h	af9013.h
af9015.h	dvb-pll.h
af9015.h	dvb_usb.h
af9015.h	hash.h
af9015.h	mc44s803.h
af9015.h	mt2060.h
af9015.h	mxl5005s.h
af9015.h	mxl5007t.h
af9015.h	qt1010.h
af9015.h	tda18218.h
af9015.h	tda18271.h
af9035.c	af9035.h
af9035.h	af9033.h
af9035.h	dvb_usb.h
af9035.h	fc0011.h
af9035.h	fc2580.h
af9035.h	mxl5007t.h
af9035.h	tda18218.h
af9035.h	tua9001.h
ak881x.c	ak881x.h
ak881x.c	i2c.h
ak881x.c	init.h
ak881x.c	module.h
ak881x.c	platform_device.h
ak881x.c	slab.h
ak881x.c	v4l2-chip-ident.h
ak881x.c	v4l2-common.h
ak881x.c	v4l2-device.h
ak881x.c	videodev2.h
anysee.c	anysee.h
anysee.c	cx24116.h
anysee.c	cxd2820r.h
anysee.c	dvb-pll.h
anysee.c	isl6423.h
anysee.c	mt352.h
anysee.c	mt352_priv.h
anysee.c	stv0900.h
anysee.c	stv6110.h
anysee.c	tda1002x.h
anysee.c	tda18212.h
anysee.c	zl10353.h
anysee.h	dvb_ca_en50221.h
anysee.h	dvb_usb.h
as3645a.c	as3645a.h
as3645a.c	delay.h
as3645a.c	i2c.h
as3645a.c	module.h
as3645a.c	mutex.h
as3645a.c	slab.h
as3645a.c	v4l2-ctrls.h
as3645a.c	v4l2-device.h
au6610.c	au6610.h
au6610.c	qt1010.h
au6610.c	zl10353.h
au6610.h	dvb_usb.h
autogain_functions.c	gspca.h
az6007.c	cypress_firmware.h
az6007.c	drxk.h
az6007.c	dvb_ca_en50221.h
az6007.c	dvb_usb.h
az6007.c	mt2063.h
az6027.c	az6027.h
az6027.c	dvb_ca_en50221.h
az6027.c	stb0899_cfg.h
az6027.c	stb0899_drv.h
az6027.c	stb0899_reg.h
az6027.c	stb6100.h
az6027.c	stb6100_cfg.h
az6027.h	dvb-usb.h
benq.c	gspca.h
btcx-risc.c	btcx-risc.h
btcx-risc.c	init.h
btcx-risc.c	interrupt.h
btcx-risc.c	module.h
btcx-risc.c	page.h
btcx-risc.c	pci.h
btcx-risc.c	pgtable.h
btcx-risc.c	videodev2.h
ce6230.c	ce6230.h
ce6230.h	dvb_usb.h
ce6230.h	mxl5005s.h
ce6230.h	zl10353.h
cinergyT2-core.c	cinergyT2.h
cinergyT2-fe.c	cinergyT2.h
cinergyT2.h	dvb-usb.h
cinergyT2.h	input.h
conex.c	gspca.h
conex.c	jpeg.h
cpia1.c	gspca.h
cpia1.c	input.h
cx2341x.c	cx2341x.h
cx2341x.c	errno.h
cx2341x.c	init.h
cx2341x.c	kernel.h
cx2341x.c	module.h
cx2341x.c	tuner.h
cx2341x.c	types.h
cx2341x.c	v4l2-common.h
cx2341x.c	videodev2.h
cxusb.c	atbm8830.h
cxusb.c	cx22702.h
cxusb.c	cxusb.h
cxusb.c	dib0070.h
cxusb.c	dib7000p.h
cxusb.c	lgdt330x.h
cxusb.c	lgs8gxx.h
cxusb.c	max2165.h
cxusb.c	mt352.h
cxusb.c	mt352_priv.h
cxusb.c	mxl5005s.h
cxusb.c	slab.h
cxusb.c	tuner-simple.h
cxusb.c	tuner-xc2028.h
cxusb.c	tuner.h
cxusb.c	vmalloc.h
cxusb.c	zl10353.h
cxusb.h	dvb-usb.h
cypress_firmware.c	cypress_firmware.h
cypress_firmware.c	dvb_usb.h
dib0700.h	dib07x0.h
dib0700.h	dvb-usb.h
dib0700_core.c	dib0700.h
dib0700_devices.c	dib0070.h
dib0700_devices.c	dib0090.h
dib0700_devices.c	dib0700.h
dib0700_devices.c	dib3000mc.h
dib0700_devices.c	dib7000m.h
dib0700_devices.c	dib7000p.h
dib0700_devices.c	dib8000.h
dib0700_devices.c	dib9000.h
dib0700_devices.c	lgdt3305.h
dib0700_devices.c	mt2060.h
dib0700_devices.c	mt2266.h
dib0700_devices.c	mxl5007t.h
dib0700_devices.c	s5h1411.h
dib0700_devices.c	tuner-xc2028.h
dib0700_devices.c	xc4000.h
dib0700_devices.c	xc5000.h
dibusb-common.c	dibusb.h
dibusb-mb.c	dibusb.h
dibusb-mc.c	dibusb.h
dibusb.h	dib3000.h
dibusb.h	dib3000mc.h
dibusb.h	dvb-usb.h
dibusb.h	mt2060.h
digitv.c	digitv.h
digitv.c	mt352.h
digitv.c	nxt6000.h
digitv.h	dvb-usb.h
dtt200u-fe.c	dtt200u.h
dtt200u.c	dtt200u.h
dtt200u.h	dvb-usb.h
dtv5100.c	dtv5100.h
dtv5100.c	qt1010.h
dtv5100.c	zl10353.h
dtv5100.h	dvb-usb.h
dvb-ttusb-budget.c	cx22700.h
dvb-ttusb-budget.c	delay.h
dvb-ttusb-budget.c	dmx.h
dvb-ttusb-budget.c	dmxdev.h
dvb-ttusb-budget.c	dvb_demux.h
dvb-ttusb-budget.c	dvb_frontend.h
dvb-ttusb-budget.c	dvb_net.h
dvb-ttusb-budget.c	errno.h
dvb-ttusb-budget.c	firmware.h
dvb-ttusb-budget.c	frontend.h
dvb-ttusb-budget.c	fs.h
dvb-ttusb-budget.c	init.h
dvb-ttusb-budget.c	jiffies.h
dvb-ttusb-budget.c	lnbp21.h
dvb-ttusb-budget.c	module.h
dvb-ttusb-budget.c	mutex.h
dvb-ttusb-budget.c	pci.h
dvb-ttusb-budget.c	slab.h
dvb-ttusb-budget.c	stv0297.h
dvb-ttusb-budget.c	stv0299.h
dvb-ttusb-budget.c	tda1004x.h
dvb-ttusb-budget.c	tda8083.h
dvb-ttusb-budget.c	time.h
dvb-ttusb-budget.c	usb.h
dvb-ttusb-budget.c	ves1820.h
dvb-ttusb-budget.c	wait.h
dvb-usb-common.h	dvb-usb.h
dvb-usb-dvb.c	dvb-usb-common.h
dvb-usb-firmware.c	dvb-usb-common.h
dvb-usb-firmware.c	usb.h
dvb-usb-i2c.c	dvb-usb-common.h
dvb-usb-init.c	dvb-usb-common.h
dvb-usb-remote.c	dvb-usb-common.h
dvb-usb-remote.c	input.h
dvb-usb-urb.c	dvb-usb-common.h
dvb-usb.h	dmxdev.h
dvb-usb.h	dvb-pll.h
dvb-usb.h	dvb-usb-ids.h
dvb-usb.h	dvb_demux.h
dvb-usb.h	dvb_frontend.h
dvb-usb.h	dvb_net.h
dvb-usb.h	firmware.h
dvb-usb.h	input.h
dvb-usb.h	mutex.h
dvb-usb.h	rc-core.h
dvb-usb.h	usb.h
dvb_usb.h	dmxdev.h
dvb_usb.h	dvb-usb-ids.h
dvb_usb.h	dvb_demux.h
dvb_usb.h	dvb_frontend.h
dvb_usb.h	dvb_net.h
dvb_usb.h	firmware.h
dvb_usb.h	input.h
dvb_usb.h	rc-core.h
dvb_usb_common.h	dvb_usb.h
dvb_usb_core.c	dvb_usb_common.h
dvb_usb_urb.c	dvb_usb_common.h
dw2102.c	cx24116.h
dw2102.c	ds3000.h
dw2102.c	dw2102.h
dw2102.c	eds1547.h
dw2102.c	mt312.h
dw2102.c	si21xx.h
dw2102.c	stb6000.h
dw2102.c	stb6100.h
dw2102.c	stb6100_proc.h
dw2102.c	stv0288.h
dw2102.c	stv0299.h
dw2102.c	stv0900.h
dw2102.c	stv6110.h
dw2102.c	tda1002x.h
dw2102.c	z0194a.h
dw2102.c	zl10039.h
dw2102.h	dvb-usb.h
ec168.c	ec100.h
ec168.c	ec168.h
ec168.c	mxl5005s.h
ec168.h	dvb_usb.h
finepix.c	gspca.h
flexcop-usb.c	flexcop-common.h
flexcop-usb.c	flexcop-usb.h
flexcop-usb.h	usb.h
friio-fe.c	friio.h
friio-fe.c	init.h
friio-fe.c	slab.h
friio-fe.c	string.h
friio.c	friio.h
friio.h	dvb-usb.h
gl860-mi1320.c	gl860.h
gl860-mi2020.c	gl860.h
gl860-ov2640.c	gl860.h
gl860-ov9655.c	gl860.h
gl860.c	gl860.h
gl860.c	gspca.h
gl860.h	gspca.h
gl861.c	gl861.h
gl861.c	qt1010.h
gl861.c	zl10353.h
gl861.h	dvb_usb.h
gp8psk-fe.c	gp8psk.h
gp8psk.c	gp8psk.h
gp8psk.h	dvb-usb.h
gspca.c	fs.h
gspca.c	gspca.h
gspca.c	init.h
gspca.c	input.h
gspca.c	input.h
gspca.c	io.h
gspca.c	ktime.h
gspca.c	mm.h
gspca.c	page.h
gspca.c	pagemap.h
gspca.c	sched.h
gspca.c	slab.h
gspca.c	string.h
gspca.c	uaccess.h
gspca.c	v4l2-ctrls.h
gspca.c	v4l2-event.h
gspca.c	v4l2-fh.h
gspca.c	v4l2-ioctl.h
gspca.c	vmalloc.h
gspca.h	kernel.h
gspca.h	module.h
gspca.h	mutex.h
gspca.h	usb.h
gspca.h	v4l2-common.h
gspca.h	v4l2-ctrls.h
gspca.h	v4l2-device.h
gspca.h	videodev2.h
hdpvr-control.c	errno.h
hdpvr-control.c	hdpvr.h
hdpvr-control.c	init.h
hdpvr-control.c	kernel.h
hdpvr-control.c	module.h
hdpvr-control.c	mutex.h
hdpvr-control.c	slab.h
hdpvr-control.c	usb.h
hdpvr-control.c	v4l2-common.h
hdpvr-control.c	videodev2.h
hdpvr-core.c	atomic.h
hdpvr-core.c	errno.h
hdpvr-core.c	hdpvr.h
hdpvr-core.c	i2c.h
hdpvr-core.c	init.h
hdpvr-core.c	kernel.h
hdpvr-core.c	module.h
hdpvr-core.c	mutex.h
hdpvr-core.c	slab.h
hdpvr-core.c	uaccess.h
hdpvr-core.c	usb.h
hdpvr-core.c	v4l2-common.h
hdpvr-core.c	v4l2-dev.h
hdpvr-core.c	videodev2.h
hdpvr-i2c.c	export.h
hdpvr-i2c.c	hdpvr.h
hdpvr-i2c.c	i2c.h
hdpvr-i2c.c	slab.h
hdpvr-video.c	errno.h
hdpvr-video.c	hdpvr.h
hdpvr-video.c	init.h
hdpvr-video.c	kernel.h
hdpvr-video.c	module.h
hdpvr-video.c	mutex.h
hdpvr-video.c	slab.h
hdpvr-video.c	uaccess.h
hdpvr-video.c	usb.h
hdpvr-video.c	v4l2-common.h
hdpvr-video.c	v4l2-dev.h
hdpvr-video.c	v4l2-ioctl.h
hdpvr-video.c	videodev2.h
hdpvr-video.c	workqueue.h
hdpvr.h	i2c.h
hdpvr.h	ir-kbd-i2c.h
hdpvr.h	mutex.h
hdpvr.h	usb.h
hdpvr.h	v4l2-device.h
hdpvr.h	videodev2.h
hdpvr.h	workqueue.h
it913x.c	dvb_usb.h
it913x.c	input.h
it913x.c	it913x-fe.h
it913x.c	rc-core.h
it913x.c	usb.h
jeilinj.c	gspca.h
jeilinj.c	jpeg.h
jeilinj.c	slab.h
kinect.c	gspca.h
konica.c	gspca.h
konica.c	input.h
lmedm04.c	dvb-pll.h
lmedm04.c	dvb_usb.h
lmedm04.c	input.h
lmedm04.c	ix2505v.h
lmedm04.c	lmedm04.h
lmedm04.c	m88rs2000.h
lmedm04.c	rc-core.h
lmedm04.c	stv0288.h
lmedm04.c	stv0299.h
lmedm04.c	tda10086.h
lmedm04.c	tda826x.h
lmedm04.c	usb.h
lmedm04.c	z0194a.h
m5602_bridge.h	gspca.h
m5602_bridge.h	slab.h
m5602_core.c	m5602_mt9m111.h
m5602_core.c	m5602_ov7660.h
m5602_core.c	m5602_ov9650.h
m5602_core.c	m5602_po1030.h
m5602_core.c	m5602_s5k4aa.h
m5602_core.c	m5602_s5k83a.h
m5602_mt9m111.c	m5602_mt9m111.h
m5602_mt9m111.h	m5602_sensor.h
m5602_ov7660.c	m5602_ov7660.h
m5602_ov7660.h	m5602_sensor.h
m5602_ov9650.c	m5602_ov9650.h
m5602_ov9650.h	dmi.h
m5602_ov9650.h	m5602_sensor.h
m5602_po1030.c	m5602_po1030.h
m5602_po1030.h	m5602_sensor.h
m5602_s5k4aa.c	m5602_s5k4aa.h
m5602_s5k4aa.h	dmi.h
m5602_s5k4aa.h	m5602_sensor.h
m5602_s5k83a.c	kthread.h
m5602_s5k83a.c	m5602_s5k83a.h
m5602_s5k83a.h	m5602_sensor.h
m5602_sensor.h	m5602_bridge.h
m920x.c	m920x.h
m920x.c	mt352.h
m920x.c	mt352_priv.h
m920x.c	qt1010.h
m920x.c	tda1004x.h
m920x.c	tda827x.h
m920x.c	tuner-simple.h
m920x.c	tuner.h
m920x.c	unaligned.h
m920x.h	dvb-usb.h
mars.c	gspca.h
mars.c	jpeg.h
mr97310a.c	gspca.h
mr97310a.c	pac_common.h
mt9m111.c	delay.h
mt9m111.c	gpio.h
mt9m111.c	i2c.h
mt9m111.c	log2.h
mt9m111.c	module.h
mt9m111.c	slab.h
mt9m111.c	soc_camera.h
mt9m111.c	v4l2-chip-ident.h
mt9m111.c	v4l2-common.h
mt9m111.c	v4l2-ctrls.h
mt9m111.c	v4l2-mediabus.h
mt9m111.c	videodev2.h
mt9p031.c	aptina-pll.h
mt9p031.c	delay.h
mt9p031.c	device.h
mt9p031.c	gpio.h
mt9p031.c	i2c.h
mt9p031.c	log2.h
mt9p031.c	module.h
mt9p031.c	mt9p031.h
mt9p031.c	pm.h
mt9p031.c	slab.h
mt9p031.c	v4l2-chip-ident.h
mt9p031.c	v4l2-ctrls.h
mt9p031.c	v4l2-device.h
mt9p031.c	v4l2-subdev.h
mt9p031.c	videodev2.h
mt9t001.c	i2c.h
mt9t001.c	log2.h
mt9t001.c	module.h
mt9t001.c	mt9t001.h
mt9t001.c	slab.h
mt9t001.c	v4l2-ctrls.h
mt9t001.c	v4l2-device.h
mt9t001.c	v4l2-mediabus.h
mt9t001.c	v4l2-subdev.h
mt9t001.c	videodev2.h
mt9t031.c	device.h
mt9t031.c	i2c.h
mt9t031.c	log2.h
mt9t031.c	module.h
mt9t031.c	pm.h
mt9t031.c	slab.h
mt9t031.c	soc_camera.h
mt9t031.c	v4l2-chip-ident.h
mt9t031.c	v4l2-ctrls.h
mt9t031.c	v4l2-mediabus.h
mt9t031.c	v4l2-subdev.h
mt9t031.c	videodev2.h
mt9v011.c	delay.h
mt9v011.c	div64.h
mt9v011.c	i2c.h
mt9v011.c	module.h
mt9v011.c	mt9v011.h
mt9v011.c	slab.h
mt9v011.c	v4l2-chip-ident.h
mt9v011.c	v4l2-device.h
mt9v011.c	videodev2.h
mxl111sf-demod.c	mxl111sf-demod.h
mxl111sf-demod.c	mxl111sf-reg.h
mxl111sf-demod.h	dvb_frontend.h
mxl111sf-demod.h	mxl111sf.h
mxl111sf-gpio.c	mxl111sf-gpio.h
mxl111sf-gpio.c	mxl111sf-i2c.h
mxl111sf-gpio.c	mxl111sf.h
mxl111sf-gpio.h	mxl111sf.h
mxl111sf-i2c.c	mxl111sf-i2c.h
mxl111sf-i2c.c	mxl111sf.h
mxl111sf-i2c.h	i2c.h
mxl111sf-phy.c	mxl111sf-phy.h
mxl111sf-phy.c	mxl111sf-reg.h
mxl111sf-phy.h	mxl111sf.h
mxl111sf-tuner.c	mxl111sf-phy.h
mxl111sf-tuner.c	mxl111sf-reg.h
mxl111sf-tuner.c	mxl111sf-tuner.h
mxl111sf-tuner.h	dvb_frontend.h
mxl111sf-tuner.h	mxl111sf.h
mxl111sf.c	i2c.h
mxl111sf.c	lg2160.h
mxl111sf.c	lgdt3305.h
mxl111sf.c	mxl111sf-demod.h
mxl111sf.c	mxl111sf-gpio.h
mxl111sf.c	mxl111sf-i2c.h
mxl111sf.c	mxl111sf-phy.h
mxl111sf.c	mxl111sf-reg.h
mxl111sf.c	mxl111sf-tuner.h
mxl111sf.c	mxl111sf.h
mxl111sf.c	vmalloc.h
mxl111sf.h	dvb_usb.h
mxl111sf.h	tveeprom.h
noon010pc30.c	consumer.h
noon010pc30.c	delay.h
noon010pc30.c	gpio.h
noon010pc30.c	i2c.h
noon010pc30.c	module.h
noon010pc30.c	noon010pc30.h
noon010pc30.c	slab.h
noon010pc30.c	v4l2-chip-ident.h
noon010pc30.c	v4l2-ctrls.h
noon010pc30.c	v4l2-device.h
noon010pc30.c	v4l2-mediabus.h
noon010pc30.c	v4l2-subdev.h
noon010pc30.c	videodev2.h
nova-t-usb2.c	dibusb.h
nw80x.c	gspca.h
opera1.c	dvb-usb.h
opera1.c	stv0299.h
ov2640.c	delay.h
ov2640.c	i2c.h
ov2640.c	init.h
ov2640.c	module.h
ov2640.c	slab.h
ov2640.c	soc_camera.h
ov2640.c	v4l2-chip-ident.h
ov2640.c	v4l2-ctrls.h
ov2640.c	v4l2-mediabus.h
ov2640.c	v4l2-subdev.h
ov2640.c	videodev2.h
ov519.c	gspca.h
ov519.c	input.h
ov519.c	jpeg.h
ov519.c	w996Xcf.c
ov534.c	fixp-arith.h
ov534.c	gspca.h
ov534.c	v4l2-ctrls.h
ov534_9.c	gspca.h
pac7302.c	gspca.h
pac7302.c	input.h
pac7302.c	pac_common.h
pac7302.c	v4l2-chip-ident.h
pac7311.c	gspca.h
pac7311.c	input.h
pac7311.c	pac_common.h
pctv452e.c	dvb-usb.h
pctv452e.c	dvb_ca_en50221.h
pctv452e.c	lnbp22.h
pctv452e.c	stb0899_cfg.h
pctv452e.c	stb0899_drv.h
pctv452e.c	stb0899_reg.h
pctv452e.c	stb6100.h
pctv452e.c	stb6100_cfg.h
pctv452e.c	ttpci-eeprom.h
pd-alsa.c	control.h
pd-alsa.c	core.h
pd-alsa.c	gfp.h
pd-alsa.c	info.h
pd-alsa.c	init.h
pd-alsa.c	initval.h
pd-alsa.c	kernel.h
pd-alsa.c	module.h
pd-alsa.c	pcm.h
pd-alsa.c	pcm_params.h
pd-alsa.c	pd-common.h
pd-alsa.c	proc_fs.h
pd-alsa.c	sound.h
pd-alsa.c	soundcard.h
pd-alsa.c	spinlock.h
pd-alsa.c	usb.h
pd-alsa.c	v4l2-common.h
pd-alsa.c	vendorcmds.h
pd-alsa.c	vmalloc.h
pd-common.h	dmxdev.h
pd-common.h	dvb_demux.h
pd-common.h	dvb_frontend.h
pd-common.h	dvbdev.h
pd-common.h	fs.h
pd-common.h	list.h
pd-common.h	poll.h
pd-common.h	semaphore.h
pd-common.h	usb.h
pd-common.h	v4l2-device.h
pd-common.h	videobuf-vmalloc.h
pd-common.h	videodev2.h
pd-common.h	wait.h
pd-dvb.c	atomic.h
pd-dvb.c	delay.h
pd-dvb.c	dmx.h
pd-dvb.c	gfp.h
pd-dvb.c	kernel.h
pd-dvb.c	pd-common.h
pd-dvb.c	sched.h
pd-dvb.c	time.h
pd-dvb.c	usb.h
pd-dvb.c	vendorcmds.h
pd-main.c	ctype.h
pd-main.c	errno.h
pd-main.c	firmware.h
pd-main.c	init.h
pd-main.c	kernel.h
pd-main.c	kref.h
pd-main.c	module.h
pd-main.c	pd-common.h
pd-main.c	quirks.h
pd-main.c	slab.h
pd-main.c	string.h
pd-main.c	suspend.h
pd-main.c	types.h
pd-main.c	vendorcmds.h
pd-radio.c	bitmap.h
pd-radio.c	i2c.h
pd-radio.c	init.h
pd-radio.c	kernel.h
pd-radio.c	list.h
pd-radio.c	mm.h
pd-radio.c	module.h
pd-radio.c	mutex.h
pd-radio.c	pd-common.h
pd-radio.c	sched.h
pd-radio.c	usb.h
pd-radio.c	v4l2-dev.h
pd-radio.c	v4l2-ioctl.h
pd-radio.c	vendorcmds.h
pd-video.c	fs.h
pd-video.c	mm.h
pd-video.c	pd-common.h
pd-video.c	sched.h
pd-video.c	slab.h
pd-video.c	usb.h
pd-video.c	v4l2-dev.h
pd-video.c	v4l2-ioctl.h
pd-video.c	vendorcmds.h
pd-video.c	videodev2.h
pd-video.c	vmalloc.h
pvrusb2-audio.c	msp3400.h
pvrusb2-audio.c	pvrusb2-audio.h
pvrusb2-audio.c	pvrusb2-debug.h
pvrusb2-audio.c	pvrusb2-hdw-internal.h
pvrusb2-audio.c	v4l2-common.h
pvrusb2-audio.c	videodev2.h
pvrusb2-audio.h	pvrusb2-hdw-internal.h
pvrusb2-context.c	errno.h
pvrusb2-context.c	kthread.h
pvrusb2-context.c	pvrusb2-context.h
pvrusb2-context.c	pvrusb2-debug.h
pvrusb2-context.c	pvrusb2-hdw.h
pvrusb2-context.c	pvrusb2-io.h
pvrusb2-context.c	pvrusb2-ioread.h
pvrusb2-context.c	slab.h
pvrusb2-context.c	string.h
pvrusb2-context.c	wait.h
pvrusb2-context.h	mutex.h
pvrusb2-context.h	usb.h
pvrusb2-context.h	workqueue.h
pvrusb2-cs53l32a.c	errno.h
pvrusb2-cs53l32a.c	pvrusb2-cs53l32a.h
pvrusb2-cs53l32a.c	pvrusb2-debug.h
pvrusb2-cs53l32a.c	pvrusb2-hdw-internal.h
pvrusb2-cs53l32a.c	v4l2-common.h
pvrusb2-cs53l32a.c	videodev2.h
pvrusb2-cs53l32a.h	pvrusb2-hdw-internal.h
pvrusb2-ctrl.c	errno.h
pvrusb2-ctrl.c	mutex.h
pvrusb2-ctrl.c	pvrusb2-ctrl.h
pvrusb2-ctrl.c	pvrusb2-hdw-internal.h
pvrusb2-ctrl.c	string.h
pvrusb2-cx2584x-v4l.c	cx25840.h
pvrusb2-cx2584x-v4l.c	errno.h
pvrusb2-cx2584x-v4l.c	pvrusb2-cx2584x-v4l.h
pvrusb2-cx2584x-v4l.c	pvrusb2-debug.h
pvrusb2-cx2584x-v4l.c	pvrusb2-hdw-internal.h
pvrusb2-cx2584x-v4l.c	pvrusb2-video-v4l.h
pvrusb2-cx2584x-v4l.c	v4l2-common.h
pvrusb2-cx2584x-v4l.c	videodev2.h
pvrusb2-cx2584x-v4l.h	pvrusb2-hdw-internal.h
pvrusb2-debugifc.c	pvrusb2-debug.h
pvrusb2-debugifc.c	pvrusb2-debugifc.h
pvrusb2-debugifc.c	pvrusb2-hdw.h
pvrusb2-debugifc.c	string.h
pvrusb2-devattr.c	i2c.h
pvrusb2-devattr.c	lgdt330x.h
pvrusb2-devattr.c	module.h
pvrusb2-devattr.c	pvrusb2-devattr.h
pvrusb2-devattr.c	pvrusb2-hdw-internal.h
pvrusb2-devattr.c	s5h1409.h
pvrusb2-devattr.c	s5h1411.h
pvrusb2-devattr.c	tda10048.h
pvrusb2-devattr.c	tda18271.h
pvrusb2-devattr.c	tda8290.h
pvrusb2-devattr.c	tuner-simple.h
pvrusb2-devattr.c	tuner.h
pvrusb2-devattr.c	usb.h
pvrusb2-devattr.h	mod_devicetable.h
pvrusb2-devattr.h	pvrusb2-dvb.h
pvrusb2-devattr.h	videodev2.h
pvrusb2-dvb.c	dvbdev.h
pvrusb2-dvb.c	freezer.h
pvrusb2-dvb.c	kthread.h
pvrusb2-dvb.c	mm.h
pvrusb2-dvb.c	pvrusb2-debug.h
pvrusb2-dvb.c	pvrusb2-dvb.h
pvrusb2-dvb.c	pvrusb2-hdw-internal.h
pvrusb2-dvb.c	pvrusb2-hdw.h
pvrusb2-dvb.c	pvrusb2-io.h
pvrusb2-dvb.c	slab.h
pvrusb2-dvb.h	dmxdev.h
pvrusb2-dvb.h	dvb_demux.h
pvrusb2-dvb.h	dvb_frontend.h
pvrusb2-dvb.h	dvb_net.h
pvrusb2-dvb.h	pvrusb2-context.h
pvrusb2-eeprom.c	pvrusb2-debug.h
pvrusb2-eeprom.c	pvrusb2-eeprom.h
pvrusb2-eeprom.c	pvrusb2-hdw-internal.h
pvrusb2-eeprom.c	slab.h
pvrusb2-eeprom.c	tveeprom.h
pvrusb2-encoder.c	device.h
pvrusb2-encoder.c	firmware.h
pvrusb2-encoder.c	pvrusb2-debug.h
pvrusb2-encoder.c	pvrusb2-encoder.h
pvrusb2-encoder.c	pvrusb2-fx2-cmd.h
pvrusb2-encoder.c	pvrusb2-hdw-internal.h
pvrusb2-encoder.c	pvrusb2-util.h
pvrusb2-hdw-internal.h	cx2341x.h
pvrusb2-hdw-internal.h	i2c.h
pvrusb2-hdw-internal.h	ir-kbd-i2c.h
pvrusb2-hdw-internal.h	mutex.h
pvrusb2-hdw-internal.h	pvrusb2-devattr.h
pvrusb2-hdw-internal.h	pvrusb2-hdw.h
pvrusb2-hdw-internal.h	pvrusb2-io.h
pvrusb2-hdw-internal.h	v4l2-device.h
pvrusb2-hdw-internal.h	videodev2.h
pvrusb2-hdw-internal.h	workqueue.h
pvrusb2-hdw.c	errno.h
pvrusb2-hdw.c	firmware.h
pvrusb2-hdw.c	module.h
pvrusb2-hdw.c	pvrusb2-audio.h
pvrusb2-hdw.c	pvrusb2-cs53l32a.h
pvrusb2-hdw.c	pvrusb2-cx2584x-v4l.h
pvrusb2-hdw.c	pvrusb2-debug.h
pvrusb2-hdw.c	pvrusb2-eeprom.h
pvrusb2-hdw.c	pvrusb2-encoder.h
pvrusb2-hdw.c	pvrusb2-fx2-cmd.h
pvrusb2-hdw.c	pvrusb2-hdw-internal.h
pvrusb2-hdw.c	pvrusb2-hdw.h
pvrusb2-hdw.c	pvrusb2-i2c-core.h
pvrusb2-hdw.c	pvrusb2-std.h
pvrusb2-hdw.c	pvrusb2-util.h
pvrusb2-hdw.c	pvrusb2-video-v4l.h
pvrusb2-hdw.c	pvrusb2-wm8775.h
pvrusb2-hdw.c	pvrusb2.h
pvrusb2-hdw.c	slab.h
pvrusb2-hdw.c	string.h
pvrusb2-hdw.c	tuner.h
pvrusb2-hdw.c	v4l2-common.h
pvrusb2-hdw.c	videodev2.h
pvrusb2-hdw.h	pvrusb2-ctrl.h
pvrusb2-hdw.h	pvrusb2-io.h
pvrusb2-hdw.h	usb.h
pvrusb2-hdw.h	videodev2.h
pvrusb2-i2c-core.c	i2c.h
pvrusb2-i2c-core.c	ir-kbd-i2c.h
pvrusb2-i2c-core.c	module.h
pvrusb2-i2c-core.c	pvrusb2-debug.h
pvrusb2-i2c-core.c	pvrusb2-fx2-cmd.h
pvrusb2-i2c-core.c	pvrusb2-hdw-internal.h
pvrusb2-i2c-core.c	pvrusb2-i2c-core.h
pvrusb2-i2c-core.c	pvrusb2.h
pvrusb2-io.c	errno.h
pvrusb2-io.c	mutex.h
pvrusb2-io.c	pvrusb2-debug.h
pvrusb2-io.c	pvrusb2-io.h
pvrusb2-io.c	slab.h
pvrusb2-io.c	string.h
pvrusb2-io.h	list.h
pvrusb2-io.h	usb.h
pvrusb2-ioread.c	errno.h
pvrusb2-ioread.c	mm.h
pvrusb2-ioread.c	mutex.h
pvrusb2-ioread.c	pvrusb2-debug.h
pvrusb2-ioread.c	pvrusb2-ioread.h
pvrusb2-ioread.c	slab.h
pvrusb2-ioread.c	string.h
pvrusb2-ioread.c	uaccess.h
pvrusb2-ioread.h	pvrusb2-io.h
pvrusb2-main.c	errno.h
pvrusb2-main.c	kernel.h
pvrusb2-main.c	module.h
pvrusb2-main.c	pvrusb2-context.h
pvrusb2-main.c	pvrusb2-debug.h
pvrusb2-main.c	pvrusb2-devattr.h
pvrusb2-main.c	pvrusb2-hdw.h
pvrusb2-main.c	pvrusb2-sysfs.h
pvrusb2-main.c	pvrusb2-v4l2.h
pvrusb2-main.c	usb.h
pvrusb2-main.c	videodev2.h
pvrusb2-std.c	pvrusb2-debug.h
pvrusb2-std.c	pvrusb2-std.h
pvrusb2-std.c	slab.h
pvrusb2-std.c	string.h
pvrusb2-std.h	videodev2.h
pvrusb2-sysfs.c	pvrusb2-debug.h
pvrusb2-sysfs.c	pvrusb2-debugifc.h
pvrusb2-sysfs.c	pvrusb2-hdw.h
pvrusb2-sysfs.c	pvrusb2-sysfs.h
pvrusb2-sysfs.c	slab.h
pvrusb2-sysfs.c	string.h
pvrusb2-sysfs.h	list.h
pvrusb2-sysfs.h	pvrusb2-context.h
pvrusb2-sysfs.h	sysfs.h
pvrusb2-v4l2.c	kernel.h
pvrusb2-v4l2.c	module.h
pvrusb2-v4l2.c	pvrusb2-context.h
pvrusb2-v4l2.c	pvrusb2-debug.h
pvrusb2-v4l2.c	pvrusb2-hdw.h
pvrusb2-v4l2.c	pvrusb2-ioread.h
pvrusb2-v4l2.c	pvrusb2-v4l2.h
pvrusb2-v4l2.c	pvrusb2.h
pvrusb2-v4l2.c	slab.h
pvrusb2-v4l2.c	v4l2-common.h
pvrusb2-v4l2.c	v4l2-dev.h
pvrusb2-v4l2.c	v4l2-ioctl.h
pvrusb2-v4l2.c	version.h
pvrusb2-v4l2.c	videodev2.h
pvrusb2-v4l2.h	pvrusb2-context.h
pvrusb2-video-v4l.c	errno.h
pvrusb2-video-v4l.c	pvrusb2-debug.h
pvrusb2-video-v4l.c	pvrusb2-hdw-internal.h
pvrusb2-video-v4l.c	pvrusb2-video-v4l.h
pvrusb2-video-v4l.c	saa7115.h
pvrusb2-video-v4l.c	v4l2-common.h
pvrusb2-video-v4l.c	videodev2.h
pvrusb2-video-v4l.h	pvrusb2-hdw-internal.h
pvrusb2-wm8775.c	errno.h
pvrusb2-wm8775.c	pvrusb2-debug.h
pvrusb2-wm8775.c	pvrusb2-hdw-internal.h
pvrusb2-wm8775.c	pvrusb2-wm8775.h
pvrusb2-wm8775.c	v4l2-common.h
pvrusb2-wm8775.c	videodev2.h
pvrusb2-wm8775.h	pvrusb2-hdw-internal.h
pwc-ctrl.c	errno.h
pwc-ctrl.c	pwc-dec1.h
pwc-ctrl.c	pwc-dec23.h
pwc-ctrl.c	pwc-kiara.h
pwc-ctrl.c	pwc-nala.h
pwc-ctrl.c	pwc-timon.h
pwc-ctrl.c	pwc.h
pwc-ctrl.c	uaccess.h
pwc-dec1.c	pwc.h
pwc-dec1.h	mutex.h
pwc-dec23.c	pwc-dec23.h
pwc-dec23.c	pwc-kiara.h
pwc-dec23.c	pwc-timon.h
pwc-dec23.c	slab.h
pwc-dec23.c	string.h
pwc-if.c	errno.h
pwc-if.c	init.h
pwc-if.c	input.h
pwc-if.c	io.h
pwc-if.c	kernel.h
pwc-if.c	mm.h
pwc-if.c	module.h
pwc-if.c	poll.h
pwc-if.c	pwc-dec1.h
pwc-if.c	pwc-dec23.h
pwc-if.c	pwc-kiara.h
pwc-if.c	pwc-timon.h
pwc-if.c	pwc.h
pwc-if.c	slab.h
pwc-if.c	vmalloc.h
pwc-kiara.c	pwc-kiara.h
pwc-kiara.h	pwc.h
pwc-misc.c	pwc.h
pwc-timon.c	pwc-timon.h
pwc-timon.h	pwc.h
pwc-uncompress.c	current.h
pwc-uncompress.c	pwc-dec1.h
pwc-uncompress.c	pwc-dec23.h
pwc-uncompress.c	pwc.h
pwc-uncompress.c	types.h
pwc-v4l.c	errno.h
pwc-v4l.c	init.h
pwc-v4l.c	io.h
pwc-v4l.c	jiffies.h
pwc-v4l.c	mm.h
pwc-v4l.c	module.h
pwc-v4l.c	poll.h
pwc-v4l.c	pwc.h
pwc-v4l.c	vmalloc.h
pwc.h	errno.h
pwc.h	input.h
pwc.h	mm.h
pwc.h	module.h
pwc.h	mutex.h
pwc.h	pwc-dec1.h
pwc.h	pwc-dec23.h
pwc.h	slab.h
pwc.h	spinlock.h
pwc.h	usb.h
pwc.h	v4l2-common.h
pwc.h	v4l2-ctrls.h
pwc.h	v4l2-device.h
pwc.h	v4l2-event.h
pwc.h	v4l2-fh.h
pwc.h	v4l2-ioctl.h
pwc.h	videobuf2-vmalloc.h
pwc.h	videodev2.h
pwc.h	wait.h
rtl28xxu.c	e4000.h
rtl28xxu.c	fc0012.h
rtl28xxu.c	fc0013.h
rtl28xxu.c	fc2580.h
rtl28xxu.c	mt2060.h
rtl28xxu.c	mxl5005s.h
rtl28xxu.c	qt1010.h
rtl28xxu.c	rtl2830.h
rtl28xxu.c	rtl2832.h
rtl28xxu.c	rtl28xxu.h
rtl28xxu.c	tua9001.h
rtl28xxu.h	dvb_usb.h
s2255drv.c	firmware.h
s2255drv.c	kernel.h
s2255drv.c	mm.h
s2255drv.c	module.h
s2255drv.c	mutex.h
s2255drv.c	slab.h
s2255drv.c	usb.h
s2255drv.c	v4l2-common.h
s2255drv.c	v4l2-device.h
s2255drv.c	v4l2-ioctl.h
s2255drv.c	videobuf-vmalloc.h
s2255drv.c	videodev2.h
s2255drv.c	vmalloc.h
s5k6aa.c	clk.h
s5k6aa.c	consumer.h
s5k6aa.c	delay.h
s5k6aa.c	gpio.h
s5k6aa.c	i2c.h
s5k6aa.c	media-entity.h
s5k6aa.c	media.h
s5k6aa.c	module.h
s5k6aa.c	s5k6aa.h
s5k6aa.c	slab.h
s5k6aa.c	v4l2-ctrls.h
s5k6aa.c	v4l2-device.h
s5k6aa.c	v4l2-mediabus.h
s5k6aa.c	v4l2-subdev.h
se401.c	gspca.h
se401.c	input.h
se401.c	se401.h
se401.c	slab.h
smiapp-core.c	clk.h
smiapp-core.c	consumer.h
smiapp-core.c	delay.h
smiapp-core.c	device.h
smiapp-core.c	gpio.h
smiapp-core.c	module.h
smiapp-core.c	slab.h
smiapp-core.c	smiapp.h
smiapp-core.c	v4l2-device.h
smiapp-core.c	v4l2-mediabus.h
smiapp-limits.c	smiapp.h
smiapp-quirk.c	delay.h
smiapp-quirk.c	smiapp.h
smiapp-reg.h	smiapp-reg-defs.h
smiapp-regs.c	delay.h
smiapp-regs.c	i2c.h
smiapp-regs.c	smiapp-regs.h
smiapp-regs.c	smiapp.h
smiapp-regs.h	i2c.h
smiapp-regs.h	types.h
smiapp.h	mutex.h
smiapp.h	smiapp-limits.h
smiapp.h	smiapp-pll.h
smiapp.h	smiapp-quirk.h
smiapp.h	smiapp-reg.h
smiapp.h	smiapp-regs.h
smiapp.h	smiapp.h
smiapp.h	v4l2-ctrls.h
smiapp.h	v4l2-subdev.h
smsusb.c	firmware.h
smsusb.c	init.h
smsusb.c	kernel.h
smsusb.c	module.h
smsusb.c	slab.h
smsusb.c	sms-cards.h
smsusb.c	smscoreapi.h
smsusb.c	smsendian.h
smsusb.c	usb.h
sn9c102.h	device.h
sn9c102.h	kref.h
sn9c102.h	list.h
sn9c102.h	mutex.h
sn9c102.h	param.h
sn9c102.h	rwsem.h
sn9c102.h	sn9c102_config.h
sn9c102.h	sn9c102_devtable.h
sn9c102.h	sn9c102_sensor.h
sn9c102.h	spinlock.h
sn9c102.h	stddef.h
sn9c102.h	string.h
sn9c102.h	time.h
sn9c102.h	types.h
sn9c102.h	usb.h
sn9c102.h	v4l2-common.h
sn9c102.h	v4l2-ioctl.h
sn9c102.h	videodev2.h
sn9c102.h	wait.h
sn9c102_config.h	jiffies.h
sn9c102_config.h	types.h
sn9c102_core.c	byteorder.h
sn9c102_core.c	compiler.h
sn9c102_core.c	delay.h
sn9c102_core.c	device.h
sn9c102_core.c	errno.h
sn9c102_core.c	fs.h
sn9c102_core.c	init.h
sn9c102_core.c	ioctl.h
sn9c102_core.c	kernel.h
sn9c102_core.c	mm.h
sn9c102_core.c	module.h
sn9c102_core.c	page-flags.h
sn9c102_core.c	page.h
sn9c102_core.c	param.h
sn9c102_core.c	poll.h
sn9c102_core.c	slab.h
sn9c102_core.c	sn9c102.h
sn9c102_core.c	stat.h
sn9c102_core.c	uaccess.h
sn9c102_core.c	version.h
sn9c102_core.c	vmalloc.h
sn9c102_devtable.h	usb.h
sn9c102_hv7131d.c	sn9c102_devtable.h
sn9c102_hv7131d.c	sn9c102_sensor.h
sn9c102_hv7131r.c	sn9c102_devtable.h
sn9c102_hv7131r.c	sn9c102_sensor.h
sn9c102_mi0343.c	sn9c102_devtable.h
sn9c102_mi0343.c	sn9c102_sensor.h
sn9c102_mi0360.c	sn9c102_devtable.h
sn9c102_mi0360.c	sn9c102_sensor.h
sn9c102_mt9v111.c	sn9c102_devtable.h
sn9c102_mt9v111.c	sn9c102_sensor.h
sn9c102_ov7630.c	sn9c102_devtable.h
sn9c102_ov7630.c	sn9c102_sensor.h
sn9c102_ov7660.c	sn9c102_devtable.h
sn9c102_ov7660.c	sn9c102_sensor.h
sn9c102_pas106b.c	delay.h
sn9c102_pas106b.c	sn9c102_devtable.h
sn9c102_pas106b.c	sn9c102_sensor.h
sn9c102_pas202bcb.c	delay.h
sn9c102_pas202bcb.c	sn9c102_devtable.h
sn9c102_pas202bcb.c	sn9c102_sensor.h
sn9c102_sensor.h	device.h
sn9c102_sensor.h	errno.h
sn9c102_sensor.h	stddef.h
sn9c102_sensor.h	types.h
sn9c102_sensor.h	usb.h
sn9c102_sensor.h	videodev2.h
sn9c102_tas5110c1b.c	sn9c102_devtable.h
sn9c102_tas5110c1b.c	sn9c102_sensor.h
sn9c102_tas5110d.c	sn9c102_devtable.h
sn9c102_tas5110d.c	sn9c102_sensor.h
sn9c102_tas5130d1b.c	sn9c102_devtable.h
sn9c102_tas5130d1b.c	sn9c102_sensor.h
sn9c2028.c	gspca.h
sn9c2028.c	sn9c2028.h
sn9c20x.c	dmi.h
sn9c20x.c	gspca.h
sn9c20x.c	input.h
sn9c20x.c	jpeg.h
sn9c20x.c	v4l2-chip-ident.h
sonixb.c	gspca.h
sonixb.c	input.h
sonixj.c	autogain_functions.h
sonixj.c	gspca.h
sonixj.c	input.h
sonixj.c	jpeg.h
spca1528.c	gspca.h
spca1528.c	jpeg.h
spca500.c	gspca.h
spca500.c	jpeg.h
spca501.c	gspca.h
spca505.c	gspca.h
spca506.c	gspca.h
spca561.c	gspca.h
spca561.c	input.h
sq905.c	gspca.h
sq905.c	slab.h
sq905.c	workqueue.h
sq905c.c	gspca.h
sq905c.c	slab.h
sq905c.c	workqueue.h
sq930x.c	gspca.h
stv0680.c	gspca.h
sunplus.c	gspca.h
sunplus.c	jpeg.h
t613.c	gspca.h
t613.c	input.h
t613.c	slab.h
tcm825x.c	i2c.h
tcm825x.c	module.h
tcm825x.c	tcm825x.h
tcm825x.c	v4l2-int-device.h
tcm825x.h	v4l2-int-device.h
tcm825x.h	videodev2.h
tda7432.c	delay.h
tda7432.c	errno.h
tda7432.c	i2c-addr.h
tda7432.c	i2c.h
tda7432.c	init.h
tda7432.c	kernel.h
tda7432.c	module.h
tda7432.c	slab.h
tda7432.c	string.h
tda7432.c	timer.h
tda7432.c	v4l2-device.h
tda7432.c	v4l2-ioctl.h
tda7432.c	videodev2.h
tea6420.c	i2c.h
tea6420.c	ioctl.h
tea6420.c	module.h
tea6420.c	slab.h
tea6420.c	tea6420.h
tea6420.c	v4l2-chip-ident.h
tea6420.c	v4l2-device.h
technisat-usb2.c	dvb-usb.h
technisat-usb2.c	stv090x.h
technisat-usb2.c	stv6110x.h
tm6000-alsa.c	control.h
tm6000-alsa.c	core.h
tm6000-alsa.c	delay.h
tm6000-alsa.c	device.h
tm6000-alsa.c	init.h
tm6000-alsa.c	initval.h
tm6000-alsa.c	interrupt.h
tm6000-alsa.c	module.h
tm6000-alsa.c	pcm.h
tm6000-alsa.c	pcm_params.h
tm6000-alsa.c	slab.h
tm6000-alsa.c	tm6000-regs.h
tm6000-alsa.c	tm6000.h
tm6000-alsa.c	usb.h
tm6000-alsa.c	vmalloc.h
tm6000-cards.c	delay.h
tm6000-cards.c	i2c-addr.h
tm6000-cards.c	i2c.h
tm6000-cards.c	init.h
tm6000-cards.c	module.h
tm6000-cards.c	pci.h
tm6000-cards.c	rc-map.h
tm6000-cards.c	slab.h
tm6000-cards.c	tm6000-regs.h
tm6000-cards.c	tm6000.h
tm6000-cards.c	tuner-xc2028.h
tm6000-cards.c	tuner.h
tm6000-cards.c	tvaudio.h
tm6000-cards.c	usb.h
tm6000-cards.c	v4l2-common.h
tm6000-cards.c	xc5000.h
tm6000-core.c	i2c.h
tm6000-core.c	kernel.h
tm6000-core.c	module.h
tm6000-core.c	slab.h
tm6000-core.c	tm6000-regs.h
tm6000-core.c	tm6000.h
tm6000-core.c	tuner.h
tm6000-core.c	usb.h
tm6000-core.c	v4l2-common.h
tm6000-dvb.c	kernel.h
tm6000-dvb.c	slab.h
tm6000-dvb.c	tm6000-regs.h
tm6000-dvb.c	tm6000.h
tm6000-dvb.c	tuner-xc2028.h
tm6000-dvb.c	tuner.h
tm6000-dvb.c	usb.h
tm6000-dvb.c	xc5000.h
tm6000-dvb.c	zl10353.h
tm6000-i2c.c	i2c.h
tm6000-i2c.c	kernel.h
tm6000-i2c.c	module.h
tm6000-i2c.c	tm6000-regs.h
tm6000-i2c.c	tm6000.h
tm6000-i2c.c	tuner-xc2028.h
tm6000-i2c.c	tuner.h
tm6000-i2c.c	usb.h
tm6000-i2c.c	v4l2-common.h
tm6000-input.c	delay.h
tm6000-input.c	init.h
tm6000-input.c	input.h
tm6000-input.c	module.h
tm6000-input.c	rc-core.h
tm6000-input.c	tm6000-regs.h
tm6000-input.c	tm6000.h
tm6000-input.c	usb.h
tm6000-stds.c	kernel.h
tm6000-stds.c	module.h
tm6000-stds.c	tm6000-regs.h
tm6000-stds.c	tm6000.h
tm6000-usb-isoc.h	videodev2.h
tm6000-video.c	delay.h
tm6000-video.c	errno.h
tm6000-video.c	freezer.h
tm6000-video.c	fs.h
tm6000-video.c	highmem.h
tm6000-video.c	init.h
tm6000-video.c	interrupt.h
tm6000-video.c	ioport.h
tm6000-video.c	kernel.h
tm6000-video.c	kthread.h
tm6000-video.c	mm.h
tm6000-video.c	module.h
tm6000-video.c	random.h
tm6000-video.c	sched.h
tm6000-video.c	slab.h
tm6000-video.c	tm6000-regs.h
tm6000-video.c	tm6000.h
tm6000-video.c	tuner.h
tm6000-video.c	usb.h
tm6000-video.c	v4l2-ioctl.h
tm6000-video.c	videodev2.h
tm6000.h	dmxdev.h
tm6000.h	dvb_demux.h
tm6000.h	dvb_frontend.h
tm6000.h	frontend.h
tm6000.h	i2c.h
tm6000.h	mutex.h
tm6000.h	tm6000-usb-isoc.h
tm6000.h	v4l2-common.h
tm6000.h	v4l2-device.h
tm6000.h	videobuf-vmalloc.h
tm6000.h	videodev2.h
topro.c	gspca.h
ttusb2.c	dvb-usb.h
ttusb2.c	dvb_ca_en50221.h
ttusb2.c	lnbp21.h
ttusb2.c	tda1002x.h
ttusb2.c	tda10048.h
ttusb2.c	tda10086.h
ttusb2.c	tda826x.h
ttusb2.c	tda827x.h
ttusb2.c	ttusb2.h
ttusb_dec.c	crc32.h
ttusb_dec.c	dmxdev.h
ttusb_dec.c	dvb_demux.h
ttusb_dec.c	dvb_filter.h
ttusb_dec.c	dvb_frontend.h
ttusb_dec.c	dvb_net.h
ttusb_dec.c	firmware.h
ttusb_dec.c	init.h
ttusb_dec.c	input.h
ttusb_dec.c	interrupt.h
ttusb_dec.c	list.h
ttusb_dec.c	module.h
ttusb_dec.c	mutex.h
ttusb_dec.c	pci.h
ttusb_dec.c	slab.h
ttusb_dec.c	spinlock.h
ttusb_dec.c	ttusbdecfe.h
ttusb_dec.c	usb.h
ttusbdecfe.c	dvb_frontend.h
ttusbdecfe.c	ttusbdecfe.h
ttusbdecfe.h	frontend.h
tv8532.c	gspca.h
tvaudio.c	delay.h
tvaudio.c	errno.h
tvaudio.c	freezer.h
tvaudio.c	i2c-addr.h
tvaudio.c	i2c.h
tvaudio.c	init.h
tvaudio.c	kernel.h
tvaudio.c	kthread.h
tvaudio.c	module.h
tvaudio.c	sched.h
tvaudio.c	slab.h
tvaudio.c	string.h
tvaudio.c	timer.h
tvaudio.c	tvaudio.h
tvaudio.c	v4l2-chip-ident.h
tvaudio.c	v4l2-device.h
tvaudio.c	videodev2.h
tveeprom.c	errno.h
tveeprom.c	i2c.h
tveeprom.c	init.h
tveeprom.c	kernel.h
tveeprom.c	module.h
tveeprom.c	tuner.h
tveeprom.c	tveeprom.h
tveeprom.c	types.h
tveeprom.c	v4l2-chip-ident.h
tveeprom.c	v4l2-common.h
tveeprom.c	videodev2.h
tvp7002.c	delay.h
tvp7002.c	i2c.h
tvp7002.c	module.h
tvp7002.c	slab.h
tvp7002.c	tvp7002.h
tvp7002.c	tvp7002_reg.h
tvp7002.c	v4l2-chip-ident.h
tvp7002.c	v4l2-common.h
tvp7002.c	v4l2-ctrls.h
tvp7002.c	v4l2-device.h
tvp7002.c	v4l2-dv-timings.h
tvp7002.c	videodev2.h
tw9910.c	delay.h
tw9910.c	i2c.h
tw9910.c	init.h
tw9910.c	kernel.h
tw9910.c	module.h
tw9910.c	slab.h
tw9910.c	soc_camera.h
tw9910.c	tw9910.h
tw9910.c	v4l2-chip-ident.h
tw9910.c	v4l2-mediabus.h
tw9910.c	v4l2-subdev.h
tw9910.c	videodev2.h
umt-010.c	dibusb.h
umt-010.c	mt352.h
usb-urb.c	dvb-usb-common.h
usb_urb.c	dvb_usb_common.h
usbvision-cards.c	list.h
usbvision-cards.c	module.h
usbvision-cards.c	tuner.h
usbvision-cards.c	usbvision-cards.h
usbvision-cards.c	usbvision.h
usbvision-cards.c	v4l2-dev.h
usbvision-core.c	gfp.h
usbvision-core.c	highmem.h
usbvision-core.c	i2c.h
usbvision-core.c	init.h
usbvision-core.c	io.h
usbvision-core.c	kernel.h
usbvision-core.c	list.h
usbvision-core.c	mm.h
usbvision-core.c	module.h
usbvision-core.c	saa7115.h
usbvision-core.c	spinlock.h
usbvision-core.c	timer.h
usbvision-core.c	tuner.h
usbvision-core.c	usbvision.h
usbvision-core.c	v4l2-common.h
usbvision-core.c	videodev2.h
usbvision-core.c	vmalloc.h
usbvision-core.c	workqueue.h
usbvision-i2c.c	delay.h
usbvision-i2c.c	errno.h
usbvision-i2c.c	i2c.h
usbvision-i2c.c	init.h
usbvision-i2c.c	ioport.h
usbvision-i2c.c	kernel.h
usbvision-i2c.c	module.h
usbvision-i2c.c	uaccess.h
usbvision-i2c.c	usb.h
usbvision-i2c.c	usbvision.h
usbvision-video.c	highmem.h
usbvision-video.c	i2c.h
usbvision-video.c	init.h
usbvision-video.c	io.h
usbvision-video.c	kernel.h
usbvision-video.c	list.h
usbvision-video.c	mm.h
usbvision-video.c	module.h
usbvision-video.c	saa7115.h
usbvision-video.c	slab.h
usbvision-video.c	spinlock.h
usbvision-video.c	timer.h
usbvision-video.c	tuner.h
usbvision-video.c	usbvision-cards.h
usbvision-video.c	usbvision.h
usbvision-video.c	v4l2-common.h
usbvision-video.c	v4l2-ioctl.h
usbvision-video.c	videodev2.h
usbvision-video.c	vmalloc.h
usbvision-video.c	workqueue.h
usbvision.h	i2c.h
usbvision.h	list.h
usbvision.h	mutex.h
usbvision.h	tuner.h
usbvision.h	usb.h
usbvision.h	v4l2-device.h
usbvision.h	videodev2.h
uvc_ctrl.c	atomic.h
uvc_ctrl.c	kernel.h
uvc_ctrl.c	list.h
uvc_ctrl.c	module.h
uvc_ctrl.c	slab.h
uvc_ctrl.c	uaccess.h
uvc_ctrl.c	usb.h
uvc_ctrl.c	uvcvideo.h
uvc_ctrl.c	v4l2-ctrls.h
uvc_ctrl.c	videodev2.h
uvc_ctrl.c	vmalloc.h
uvc_ctrl.c	wait.h
uvc_debugfs.c	debugfs.h
uvc_debugfs.c	module.h
uvc_debugfs.c	slab.h
uvc_debugfs.c	usb.h
uvc_debugfs.c	uvcvideo.h
uvc_driver.c	atomic.h
uvc_driver.c	kernel.h
uvc_driver.c	list.h
uvc_driver.c	module.h
uvc_driver.c	slab.h
uvc_driver.c	unaligned.h
uvc_driver.c	usb.h
uvc_driver.c	uvcvideo.h
uvc_driver.c	v4l2-common.h
uvc_driver.c	version.h
uvc_driver.c	videodev2.h
uvc_driver.c	vmalloc.h
uvc_driver.c	wait.h
uvc_entity.c	kernel.h
uvc_entity.c	list.h
uvc_entity.c	uvcvideo.h
uvc_entity.c	v4l2-common.h
uvc_entity.c	videodev2.h
uvc_isight.c	kernel.h
uvc_isight.c	mm.h
uvc_isight.c	usb.h
uvc_isight.c	uvcvideo.h
uvc_queue.c	atomic.h
uvc_queue.c	kernel.h
uvc_queue.c	list.h
uvc_queue.c	mm.h
uvc_queue.c	module.h
uvc_queue.c	usb.h
uvc_queue.c	uvcvideo.h
uvc_queue.c	videobuf2-vmalloc.h
uvc_queue.c	videodev2.h
uvc_queue.c	vmalloc.h
uvc_queue.c	wait.h
uvc_status.c	input.h
uvc_status.c	input.h
uvc_status.c	kernel.h
uvc_status.c	slab.h
uvc_status.c	usb.h
uvc_status.c	uvcvideo.h
uvc_v4l2.c	atomic.h
uvc_v4l2.c	compat.h
uvc_v4l2.c	kernel.h
uvc_v4l2.c	list.h
uvc_v4l2.c	mm.h
uvc_v4l2.c	module.h
uvc_v4l2.c	slab.h
uvc_v4l2.c	usb.h
uvc_v4l2.c	uvcvideo.h
uvc_v4l2.c	v4l2-common.h
uvc_v4l2.c	v4l2-ctrls.h
uvc_v4l2.c	v4l2-event.h
uvc_v4l2.c	v4l2-ioctl.h
uvc_v4l2.c	version.h
uvc_v4l2.c	videodev2.h
uvc_v4l2.c	vmalloc.h
uvc_v4l2.c	wait.h
uvc_video.c	atomic.h
uvc_video.c	kernel.h
uvc_video.c	list.h
uvc_video.c	module.h
uvc_video.c	slab.h
uvc_video.c	unaligned.h
uvc_video.c	usb.h
uvc_video.c	uvcvideo.h
uvc_video.c	v4l2-common.h
uvc_video.c	videodev2.h
uvc_video.c	vmalloc.h
uvc_video.c	wait.h
uvcvideo.h	kernel.h
uvcvideo.h	media-device.h
uvcvideo.h	poll.h
uvcvideo.h	usb.h
uvcvideo.h	uvcvideo.h
uvcvideo.h	v4l2-device.h
uvcvideo.h	v4l2-event.h
uvcvideo.h	v4l2-fh.h
uvcvideo.h	video.h
uvcvideo.h	videobuf2-core.h
uvcvideo.h	videodev2.h
vc032x.c	gspca.h
vicam.c	firmware.h
vicam.c	gspca.h
vicam.c	ihex.h
vicam.c	slab.h
vicam.c	workqueue.h
vp27smpx.c	i2c.h
vp27smpx.c	ioctl.h
vp27smpx.c	module.h
vp27smpx.c	slab.h
vp27smpx.c	types.h
vp27smpx.c	uaccess.h
vp27smpx.c	v4l2-chip-ident.h
vp27smpx.c	v4l2-device.h
vp27smpx.c	videodev2.h
vp702x-fe.c	vp702x.h
vp702x.c	mutex.h
vp702x.c	vp702x.h
vp702x.h	dvb-usb.h
vp7045-fe.c	vp7045.h
vp7045.c	vp7045.h
vp7045.h	dvb-usb.h
wm8775.c	i2c.h
wm8775.c	ioctl.h
wm8775.c	module.h
wm8775.c	slab.h
wm8775.c	types.h
wm8775.c	uaccess.h
wm8775.c	v4l2-chip-ident.h
wm8775.c	v4l2-ctrls.h
wm8775.c	v4l2-device.h
wm8775.c	videodev2.h
wm8775.c	wm8775.h
xirlink_cit.c	gspca.h
xirlink_cit.c	input.h
zc3xx.c	gspca.h
zc3xx.c	input.h
zc3xx.c	jpeg.h
zc3xx.c	zc3xx-reg.h
zr364xx.c	highmem.h
zr364xx.c	init.h
zr364xx.c	module.h
zr364xx.c	proc_fs.h
zr364xx.c	slab.h
zr364xx.c	usb.h
zr364xx.c	v4l2-common.h
zr364xx.c	v4l2-ctrls.h
zr364xx.c	v4l2-device.h
zr364xx.c	v4l2-event.h
zr364xx.c	v4l2-fh.h
zr364xx.c	v4l2-ioctl.h
zr364xx.c	videobuf-vmalloc.h
zr364xx.c	vmalloc.h
