aec62xx.c	ide.h
aec62xx.c	init.h
aec62xx.c	io.h
aec62xx.c	module.h
aec62xx.c	pci.h
aec62xx.c	types.h
ah.c	ib_addr.h
ah.c	ib_cache.h
ah.c	inet.h
ah.c	mlx4_ib.h
ah.c	slab.h
ah.c	string.h
ali14xx.c	blkdev.h
ali14xx.c	delay.h
ali14xx.c	ide.h
ali14xx.c	init.h
ali14xx.c	io.h
ali14xx.c	ioport.h
ali14xx.c	kernel.h
ali14xx.c	mm.h
ali14xx.c	module.h
ali14xx.c	timer.h
ali14xx.c	types.h
alias_GUID.c	cmd.h
alias_GUID.c	delay.h
alias_GUID.c	errno.h
alias_GUID.c	ib_cache.h
alias_GUID.c	ib_mad.h
alias_GUID.c	ib_pack.h
alias_GUID.c	ib_sa.h
alias_GUID.c	ib_smi.h
alias_GUID.c	ib_user_verbs.h
alias_GUID.c	init.h
alias_GUID.c	mlx4_ib.h
alias_GUID.c	module.h
alim15x3.c	dmi.h
alim15x3.c	ide.h
alim15x3.c	init.h
alim15x3.c	io.h
alim15x3.c	kernel.h
alim15x3.c	module.h
alim15x3.c	pci.h
alim15x3.c	types.h
amd74xx.c	ide.h
amd74xx.c	init.h
amd74xx.c	kernel.h
amd74xx.c	module.h
amd74xx.c	pci.h
atiixp.c	ide.h
atiixp.c	init.h
atiixp.c	kernel.h
atiixp.c	module.h
atiixp.c	pci.h
atiixp.c	types.h
au1xxx-ide.c	au1000.h
au1xxx-ide.c	au1xxx_dbdma.h
au1xxx-ide.c	au1xxx_ide.h
au1xxx-ide.c	delay.h
au1xxx-ide.c	ide.h
au1xxx-ide.c	init.h
au1xxx-ide.c	kernel.h
au1xxx-ide.c	module.h
au1xxx-ide.c	platform_device.h
au1xxx-ide.c	scatterlist.h
au1xxx-ide.c	types.h
b43_pci_bridge.c	module.h
b43_pci_bridge.c	pci.h
b43_pci_bridge.c	ssb.h
b43_pci_bridge.c	ssb_private.h
buddha.c	amigahw.h
buddha.c	amigaints.h
buddha.c	blkdev.h
buddha.c	ide.h
buddha.c	init.h
buddha.c	interrupt.h
buddha.c	mm.h
buddha.c	module.h
buddha.c	types.h
buddha.c	zorro.h
c2_intr.c	c2.h
c2_intr.c	c2_vq.h
c2_intr.c	iw_cm.h
cm.c	if_vlan.h
cm.c	if_vlan.h
cm.c	inetdevice.h
cm.c	inetdevice.h
cm.c	ip.h
cm.c	ip.h
cm.c	iw_cxgb4.h
cm.c	iw_cxgb4.h
cm.c	list.h
cm.c	list.h
cm.c	module.h
cm.c	module.h
cm.c	neighbour.h
cm.c	neighbour.h
cm.c	netevent.h
cm.c	netevent.h
cm.c	notifier.h
cm.c	notifier.h
cm.c	route.h
cm.c	route.h
cm.c	skbuff.h
cm.c	skbuff.h
cm.c	tcp.h
cm.c	tcp.h
cm.c	tcp.h
cm.c	tcp.h
cm.c	timer.h
cm.c	timer.h
cm.c	workqueue.h
cm.c	workqueue.h
cmd64x.c	ide.h
cmd64x.c	init.h
cmd64x.c	io.h
cmd64x.c	module.h
cmd64x.c	pci.h
cmd64x.c	types.h
cq.c	iw_cxgb4.h
cq.c	iw_cxgb4.h
cs5520.c	dma-mapping.h
cs5520.c	ide.h
cs5520.c	init.h
cs5520.c	kernel.h
cs5520.c	module.h
cs5520.c	pci.h
cs5520.c	types.h
cs5530.c	ide.h
cs5530.c	init.h
cs5530.c	io.h
cs5530.c	kernel.h
cs5530.c	module.h
cs5530.c	pci.h
cs5530.c	types.h
cs5535.c	ide.h
cs5535.c	module.h
cs5535.c	pci.h
cs5536.c	ide.h
cs5536.c	init.h
cs5536.c	kernel.h
cs5536.c	module.h
cs5536.c	msr.h
cs5536.c	pci.h
cxio_dbg.c	common.h
cxio_dbg.c	cxgb3_ioctl.h
cxio_dbg.c	cxio_hal.h
cxio_dbg.c	cxio_wr.h
cxio_dbg.c	slab.h
cxio_dbg.c	types.h
cxio_hal.c	cxgb3_offload.h
cxio_hal.c	cxio_hal.h
cxio_hal.c	cxio_resource.h
cxio_hal.c	delay.h
cxio_hal.c	dma-mapping.h
cxio_hal.c	mutex.h
cxio_hal.c	net_namespace.h
cxio_hal.c	netdevice.h
cxio_hal.c	pci.h
cxio_hal.c	sched.h
cxio_hal.c	sge_defs.h
cxio_hal.c	slab.h
cxio_hal.c	spinlock.h
cxio_hal.h	cxgb3_ctl_defs.h
cxio_hal.h	cxio_wr.h
cxio_hal.h	kfifo.h
cxio_hal.h	list.h
cxio_hal.h	mutex.h
cxio_hal.h	t3_cpl.h
cxio_hal.h	t3cdev.h
cxio_resource.c	cxio_hal.h
cxio_resource.c	cxio_resource.h
cxio_resource.c	errno.h
cxio_resource.c	kernel.h
cxio_resource.c	kfifo.h
cxio_resource.c	random.h
cxio_resource.c	slab.h
cxio_resource.c	spinlock.h
cxio_resource.h	cxio_hal.h
cxio_resource.h	errno.h
cxio_resource.h	genalloc.h
cxio_resource.h	kernel.h
cxio_resource.h	kfifo.h
cxio_resource.h	random.h
cxio_resource.h	slab.h
cxio_resource.h	spinlock.h
cxio_wr.h	firmware_exports.h
cxio_wr.h	io.h
cxio_wr.h	pci.h
cxio_wr.h	timer.h
cy82c693.c	ide.h
cy82c693.c	init.h
cy82c693.c	io.h
cy82c693.c	module.h
cy82c693.c	pci.h
cy82c693.c	types.h
delkin_cb.c	ide.h
delkin_cb.c	init.h
delkin_cb.c	io.h
delkin_cb.c	module.h
delkin_cb.c	pci.h
delkin_cb.c	types.h
device.c	debugfs.h
device.c	ib_verbs.h
device.c	iw_cxgb4.h
device.c	module.h
device.c	moduleparam.h
device.c	vmalloc.h
doorbell.c	mlx4_ib.h
doorbell.c	slab.h
driver_chipcommon.c	bcm47xx_wdt.h
driver_chipcommon.c	export.h
driver_chipcommon.c	pci.h
driver_chipcommon.c	ssb.h
driver_chipcommon.c	ssb_private.h
driver_chipcommon.c	ssb_regs.h
driver_chipcommon_pmu.c	delay.h
driver_chipcommon_pmu.c	export.h
driver_chipcommon_pmu.c	nvram.h
driver_chipcommon_pmu.c	ssb.h
driver_chipcommon_pmu.c	ssb_driver_chipcommon.h
driver_chipcommon_pmu.c	ssb_private.h
driver_chipcommon_pmu.c	ssb_regs.h
driver_extif.c	serial.h
driver_extif.c	serial_core.h
driver_extif.c	serial_reg.h
driver_extif.c	ssb_private.h
driver_gige.c	export.h
driver_gige.c	pci.h
driver_gige.c	pci_regs.h
driver_gige.c	slab.h
driver_gige.c	ssb.h
driver_gige.c	ssb_driver_gige.h
driver_gpio.c	export.h
driver_gpio.c	gpio.h
driver_gpio.c	ssb.h
driver_gpio.c	ssb_private.h
driver_mipscore.c	serial.h
driver_mipscore.c	serial_core.h
driver_mipscore.c	serial_reg.h
driver_mipscore.c	ssb.h
driver_mipscore.c	ssb_private.h
driver_mipscore.c	time.h
driver_pcicore.c	delay.h
driver_pcicore.c	export.h
driver_pcicore.c	paccess.h
driver_pcicore.c	pci.h
driver_pcicore.c	ssb.h
driver_pcicore.c	ssb_embedded.h
driver_pcicore.c	ssb_private.h
dtc2278.c	blkdev.h
dtc2278.c	delay.h
dtc2278.c	ide.h
dtc2278.c	init.h
dtc2278.c	io.h
dtc2278.c	ioport.h
dtc2278.c	kernel.h
dtc2278.c	mm.h
dtc2278.c	module.h
dtc2278.c	timer.h
dtc2278.c	types.h
ehca_av.c	ehca_iverbs.h
ehca_av.c	ehca_tools.h
ehca_av.c	hcp_if.h
ehca_av.c	slab.h
ehca_classes.h	ehca_classes_pSeries.h
ehca_classes.h	ehca_irq.h
ehca_classes.h	ehca_qes.h
ehca_classes.h	ib_user_verbs.h
ehca_classes.h	ib_verbs.h
ehca_classes.h	ipz_pt_fn.h
ehca_classes.h	mutex.h
ehca_classes.h	wait.h
ehca_classes_pSeries.h	hcp_phyp.h
ehca_classes_pSeries.h	ipz_pt_fn.h
ehca_cq.c	ehca_classes.h
ehca_cq.c	ehca_irq.h
ehca_cq.c	ehca_iverbs.h
ehca_cq.c	hcp_if.h
ehca_cq.c	slab.h
ehca_eq.c	ehca_classes.h
ehca_eq.c	ehca_irq.h
ehca_eq.c	ehca_iverbs.h
ehca_eq.c	ehca_qes.h
ehca_eq.c	hcp_if.h
ehca_eq.c	ipz_pt_fn.h
ehca_hca.c	ehca_iverbs.h
ehca_hca.c	ehca_tools.h
ehca_hca.c	gfp.h
ehca_hca.c	hcp_if.h
ehca_irq.c	ehca_classes.h
ehca_irq.c	ehca_irq.h
ehca_irq.c	ehca_iverbs.h
ehca_irq.c	ehca_tools.h
ehca_irq.c	hcp_if.h
ehca_irq.c	hipz_fns.h
ehca_irq.c	ipz_pt_fn.h
ehca_irq.c	slab.h
ehca_irq.c	smpboot.h
ehca_irq.h	interrupt.h
ehca_irq.h	types.h
ehca_iverbs.h	ehca_classes.h
ehca_main.c	ehca_classes.h
ehca_main.c	ehca_iverbs.h
ehca_main.c	ehca_mrmw.h
ehca_main.c	ehca_tools.h
ehca_main.c	hcp_if.h
ehca_main.c	memory.h
ehca_main.c	notifier.h
ehca_main.c	slab.h
ehca_mcast.c	ehca_classes.h
ehca_mcast.c	ehca_iverbs.h
ehca_mcast.c	ehca_qes.h
ehca_mcast.c	ehca_tools.h
ehca_mcast.c	err.h
ehca_mcast.c	hcp_if.h
ehca_mcast.c	module.h
ehca_mrmw.c	ehca_iverbs.h
ehca_mrmw.c	ehca_mrmw.h
ehca_mrmw.c	hcp_if.h
ehca_mrmw.c	hipz_hw.h
ehca_mrmw.c	ib_umem.h
ehca_mrmw.c	slab.h
ehca_pd.c	ehca_iverbs.h
ehca_pd.c	ehca_tools.h
ehca_pd.c	slab.h
ehca_qes.h	ehca_tools.h
ehca_qp.c	ehca_classes.h
ehca_qp.c	ehca_iverbs.h
ehca_qp.c	ehca_qes.h
ehca_qp.c	ehca_tools.h
ehca_qp.c	hcp_if.h
ehca_qp.c	hipz_fns.h
ehca_qp.c	slab.h
ehca_reqs.c	ehca_classes.h
ehca_reqs.c	ehca_iverbs.h
ehca_reqs.c	ehca_qes.h
ehca_reqs.c	ehca_tools.h
ehca_reqs.c	hcp_if.h
ehca_reqs.c	hipz_fns.h
ehca_reqs.c	ib_mad.h
ehca_sqp.c	ehca_classes.h
ehca_sqp.c	ehca_iverbs.h
ehca_sqp.c	ehca_tools.h
ehca_sqp.c	hcp_if.h
ehca_sqp.c	ib_mad.h
ehca_tools.h	atomic.h
ehca_tools.h	cpu.h
ehca_tools.h	delay.h
ehca_tools.h	device.h
ehca_tools.h	hvcall.h
ehca_tools.h	ibmebus.h
ehca_tools.h	idr.h
ehca_tools.h	io.h
ehca_tools.h	kernel.h
ehca_tools.h	kthread.h
ehca_tools.h	mm.h
ehca_tools.h	mman.h
ehca_tools.h	module.h
ehca_tools.h	moduleparam.h
ehca_tools.h	notifier.h
ehca_tools.h	pgtable.h
ehca_tools.h	spinlock.h
ehca_tools.h	vmalloc.h
ehca_uverbs.c	ehca_classes.h
ehca_uverbs.c	ehca_iverbs.h
ehca_uverbs.c	ehca_mrmw.h
ehca_uverbs.c	ehca_tools.h
ehca_uverbs.c	hcp_if.h
ehca_uverbs.c	slab.h
embedded.c	export.h
embedded.c	pci.h
embedded.c	platform_device.h
embedded.c	ssb.h
embedded.c	ssb_driver_gige.h
embedded.c	ssb_driver_pci.h
embedded.c	ssb_embedded.h
embedded.c	ssb_private.h
ev.c	iw_cxgb4.h
ev.c	mman.h
ev.c	slab.h
ev.c	sock.h
falconide.c	atari_stdma.h
falconide.c	atarihw.h
falconide.c	atariints.h
falconide.c	blkdev.h
falconide.c	ide.h
falconide.c	ide.h
falconide.c	init.h
falconide.c	interrupt.h
falconide.c	mm.h
falconide.c	module.h
falconide.c	setup.h
falconide.c	types.h
gayle.c	amigahw.h
gayle.c	amigaints.h
gayle.c	amigayle.h
gayle.c	blkdev.h
gayle.c	ide.h
gayle.c	init.h
gayle.c	interrupt.h
gayle.c	mm.h
gayle.c	module.h
gayle.c	platform_device.h
gayle.c	setup.h
gayle.c	types.h
gayle.c	zorro.h
hcp_if.c	ehca_tools.h
hcp_if.c	hcp_if.h
hcp_if.c	hcp_phyp.h
hcp_if.c	hipz_fns.h
hcp_if.c	hvcall.h
hcp_if.c	ipz_pt_fn.h
hcp_if.h	ehca_classes.h
hcp_if.h	ehca_tools.h
hcp_if.h	hipz_hw.h
hcp_phyp.c	ehca_classes.h
hcp_phyp.c	hipz_hw.h
hipz_fns.h	ehca_classes.h
hipz_fns.h	hipz_fns_core.h
hipz_fns.h	hipz_hw.h
hipz_fns_core.h	hcp_phyp.h
hipz_fns_core.h	hipz_hw.h
hipz_hw.h	ehca_tools.h
hpt366.c	blkdev.h
hpt366.c	delay.h
hpt366.c	ide.h
hpt366.c	init.h
hpt366.c	interrupt.h
hpt366.c	io.h
hpt366.c	kernel.h
hpt366.c	module.h
hpt366.c	pci.h
hpt366.c	slab.h
hpt366.c	types.h
hpt366.c	uaccess.h
ht6560b.c	blkdev.h
ht6560b.c	delay.h
ht6560b.c	ide.h
ht6560b.c	init.h
ht6560b.c	io.h
ht6560b.c	ioport.h
ht6560b.c	kernel.h
ht6560b.c	mm.h
ht6560b.c	module.h
ht6560b.c	timer.h
ht6560b.c	types.h
ib_dm_mad.h	ib_mad.h
ib_dm_mad.h	types.h
ib_srp.c	atomic.h
ib_srp.c	err.h
ib_srp.c	ib_srp.h
ib_srp.c	init.h
ib_srp.c	jiffies.h
ib_srp.c	module.h
ib_srp.c	parser.h
ib_srp.c	random.h
ib_srp.c	scsi.h
ib_srp.c	scsi_dbg.h
ib_srp.c	scsi_device.h
ib_srp.c	scsi_transport_srp.h
ib_srp.c	slab.h
ib_srp.c	srp.h
ib_srp.c	string.h
ib_srp.h	ib_cm.h
ib_srp.h	ib_fmr_pool.h
ib_srp.h	ib_sa.h
ib_srp.h	ib_verbs.h
ib_srp.h	list.h
ib_srp.h	mutex.h
ib_srp.h	scatterlist.h
ib_srp.h	scsi_cmnd.h
ib_srp.h	scsi_host.h
ib_srp.h	types.h
ib_srpt.c	atomic.h
ib_srpt.c	configfs_macros.h
ib_srpt.c	ctype.h
ib_srpt.c	delay.h
ib_srpt.c	err.h
ib_srpt.c	ib_srpt.h
ib_srpt.c	init.h
ib_srpt.c	kthread.h
ib_srpt.c	module.h
ib_srpt.c	scsi_tcq.h
ib_srpt.c	slab.h
ib_srpt.c	string.h
ib_srpt.c	target_core_base.h
ib_srpt.c	target_core_configfs.h
ib_srpt.c	target_core_fabric.h
ib_srpt.c	target_core_fabric_configfs.h
ib_srpt.h	ib_cm.h
ib_srpt.h	ib_dm_mad.h
ib_srpt.h	ib_sa.h
ib_srpt.h	ib_verbs.h
ib_srpt.h	list.h
ib_srpt.h	srp.h
ib_srpt.h	types.h
ib_srpt.h	wait.h
icside.c	blkdev.h
icside.c	device.h
icside.c	dma-mapping.h
icside.c	dma.h
icside.c	ecard.h
icside.c	errno.h
icside.c	ide.h
icside.c	init.h
icside.c	io.h
icside.c	ioport.h
icside.c	module.h
icside.c	scatterlist.h
icside.c	slab.h
icside.c	string.h
id_table.c	iw_cxgb4.h
id_table.c	kernel.h
id_table.c	random.h
ide-4drives.c	ide.h
ide-4drives.c	init.h
ide-4drives.c	kernel.h
ide-4drives.c	module.h
ide-atapi.c	cdrom.h
ide-atapi.c	delay.h
ide-atapi.c	export.h
ide-atapi.c	gfp.h
ide-atapi.c	ide.h
ide-atapi.c	kernel.h
ide-atapi.c	scatterlist.h
ide-atapi.c	scsi.h
ide-cd.c	bcd.h
ide-cd.c	byteorder.h
ide-cd.c	cdrom.h
ide-cd.c	completion.h
ide-cd.c	delay.h
ide-cd.c	errno.h
ide-cd.c	ide-cd.h
ide-cd.c	ide.h
ide-cd.c	interrupt.h
ide-cd.c	io.h
ide-cd.c	kernel.h
ide-cd.c	module.h
ide-cd.c	mutex.h
ide-cd.c	scsi.h
ide-cd.c	seq_file.h
ide-cd.c	slab.h
ide-cd.c	timer.h
ide-cd.c	types.h
ide-cd.c	uaccess.h
ide-cd.c	unaligned.h
ide-cd.h	byteorder.h
ide-cd.h	cdrom.h
ide-cd_ioctl.c	cdrom.h
ide-cd_ioctl.c	gfp.h
ide-cd_ioctl.c	ide-cd.h
ide-cd_ioctl.c	ide.h
ide-cd_ioctl.c	kernel.h
ide-cd_ioctl.c	scsi.h
ide-cd_verbose.c	blkdev.h
ide-cd_verbose.c	cdrom.h
ide-cd_verbose.c	kernel.h
ide-cd_verbose.c	scsi.h
ide-devsets.c	gfp.h
ide-devsets.c	ide.h
ide-devsets.c	kernel.h
ide-disk.c	byteorder.h
ide-disk.c	delay.h
ide-disk.c	div64.h
ide-disk.c	errno.h
ide-disk.c	genhd.h
ide-disk.c	ide-disk.h
ide-disk.c	ide.h
ide-disk.c	interrupt.h
ide-disk.c	io.h
ide-disk.c	irq.h
ide-disk.c	kernel.h
ide-disk.c	leds.h
ide-disk.c	major.h
ide-disk.c	mm.h
ide-disk.c	mutex.h
ide-disk.c	slab.h
ide-disk.c	string.h
ide-disk.c	timer.h
ide-disk.c	types.h
ide-disk.c	uaccess.h
ide-disk_ioctl.c	hdreg.h
ide-disk_ioctl.c	ide-disk.h
ide-disk_ioctl.c	ide.h
ide-disk_ioctl.c	kernel.h
ide-disk_ioctl.c	mutex.h
ide-disk_proc.c	export.h
ide-disk_proc.c	ide-disk.h
ide-disk_proc.c	ide.h
ide-disk_proc.c	kernel.h
ide-disk_proc.c	seq_file.h
ide-disk_proc.c	slab.h
ide-eh.c	delay.h
ide-eh.c	export.h
ide-eh.c	ide.h
ide-eh.c	kernel.h
ide-floppy.c	bitops.h
ide-floppy.c	byteorder.h
ide-floppy.c	cdrom.h
ide-floppy.c	delay.h
ide-floppy.c	errno.h
ide-floppy.c	genhd.h
ide-floppy.c	hdreg.h
ide-floppy.c	ide-floppy.h
ide-floppy.c	ide.h
ide-floppy.c	interrupt.h
ide-floppy.c	io.h
ide-floppy.c	kernel.h
ide-floppy.c	major.h
ide-floppy.c	mm.h
ide-floppy.c	mutex.h
ide-floppy.c	scatterlist.h
ide-floppy.c	scsi_ioctl.h
ide-floppy.c	string.h
ide-floppy.c	timer.h
ide-floppy.c	types.h
ide-floppy.c	uaccess.h
ide-floppy.c	unaligned.h
ide-floppy.h	ide-gd.h
ide-floppy_ioctl.c	cdrom.h
ide-floppy_ioctl.c	ide-floppy.h
ide-floppy_ioctl.c	ide.h
ide-floppy_ioctl.c	kernel.h
ide-floppy_ioctl.c	mutex.h
ide-floppy_ioctl.c	scsi_ioctl.h
ide-floppy_ioctl.c	unaligned.h
ide-floppy_proc.c	export.h
ide-floppy_proc.c	ide-floppy.h
ide-floppy_proc.c	ide.h
ide-floppy_proc.c	kernel.h
ide-floppy_proc.c	seq_file.h
ide-gd.c	dmi.h
ide-gd.c	errno.h
ide-gd.c	genhd.h
ide-gd.c	hdreg.h
ide-gd.c	ide-disk.h
ide-gd.c	ide-floppy.h
ide-gd.c	ide.h
ide-gd.c	kernel.h
ide-gd.c	module.h
ide-gd.c	mutex.h
ide-gd.c	slab.h
ide-gd.c	string.h
ide-gd.c	types.h
ide-generic.c	ide.h
ide-generic.c	init.h
ide-generic.c	irq.h
ide-generic.c	kernel.h
ide-generic.c	m32r.h
ide-generic.c	module.h
ide-generic.c	pci_ids.h
ide-h8300.c	ide.h
ide-h8300.c	init.h
ide-h8300.c	io.h
ide-h8300.c	irq.h
ide-io-std.c	export.h
ide-io-std.c	ide.h
ide-io-std.c	ide.h
ide-io-std.c	ide_iops.h
ide-io-std.c	kernel.h
ide-io.c	bitops.h
ide-io.c	blkpg.h
ide-io.c	byteorder.h
ide-io.c	cdrom.h
ide-io.c	completion.h
ide-io.c	delay.h
ide-io.c	device.h
ide-io.c	errno.h
ide-io.c	genhd.h
ide-io.c	ide.h
ide-io.c	init.h
ide-io.c	interrupt.h
ide-io.c	io.h
ide-io.c	irq.h
ide-io.c	kernel.h
ide-io.c	kmod.h
ide-io.c	major.h
ide-io.c	mm.h
ide-io.c	module.h
ide-io.c	pci.h
ide-io.c	reboot.h
ide-io.c	scatterlist.h
ide-io.c	seq_file.h
ide-io.c	slab.h
ide-io.c	string.h
ide-io.c	timer.h
ide-io.c	types.h
ide-io.c	uaccess.h
ide-ioctls.c	export.h
ide-ioctls.c	hdreg.h
ide-ioctls.c	ide.h
ide-ioctls.c	slab.h
ide-iops.c	bitops.h
ide-iops.c	blkpg.h
ide-iops.c	byteorder.h
ide-iops.c	delay.h
ide-iops.c	errno.h
ide-iops.c	genhd.h
ide-iops.c	ide.h
ide-iops.c	interrupt.h
ide-iops.c	io.h
ide-iops.c	irq.h
ide-iops.c	kernel.h
ide-iops.c	major.h
ide-iops.c	mm.h
ide-iops.c	module.h
ide-iops.c	nmi.h
ide-iops.c	pci.h
ide-iops.c	slab.h
ide-iops.c	string.h
ide-iops.c	timer.h
ide-iops.c	types.h
ide-iops.c	uaccess.h
ide-legacy.c	export.h
ide-legacy.c	ide.h
ide-legacy.c	kernel.h
ide-lib.c	bitops.h
ide-lib.c	export.h
ide-lib.c	ide.h
ide-lib.c	interrupt.h
ide-lib.c	kernel.h
ide-lib.c	string.h
ide-lib.c	types.h
ide-pci-generic.c	ide.h
ide-pci-generic.c	init.h
ide-pci-generic.c	kernel.h
ide-pci-generic.c	module.h
ide-pci-generic.c	pci.h
ide-pci-generic.c	types.h
ide-pio-blacklist.c	string.h
ide-pm.c	gfp.h
ide-pm.c	ide.h
ide-pm.c	kernel.h
ide-pnp.c	ide.h
ide-pnp.c	init.h
ide-pnp.c	module.h
ide-pnp.c	pnp.h
ide-probe.c	byteorder.h
ide-probe.c	delay.h
ide-probe.c	errno.h
ide-probe.c	genhd.h
ide-probe.c	ide.h
ide-probe.c	interrupt.h
ide-probe.c	io.h
ide-probe.c	irq.h
ide-probe.c	kernel.h
ide-probe.c	kmod.h
ide-probe.c	major.h
ide-probe.c	mm.h
ide-probe.c	module.h
ide-probe.c	pci.h
ide-probe.c	scatterlist.h
ide-probe.c	slab.h
ide-probe.c	spinlock.h
ide-probe.c	string.h
ide-probe.c	timer.h
ide-probe.c	types.h
ide-probe.c	uaccess.h
ide-proc.c	ctype.h
ide-proc.c	errno.h
ide-proc.c	ide.h
ide-proc.c	io.h
ide-proc.c	mm.h
ide-proc.c	module.h
ide-proc.c	pci.h
ide-proc.c	proc_fs.h
ide-proc.c	seq_file.h
ide-proc.c	slab.h
ide-proc.c	stat.h
ide-proc.c	uaccess.h
ide-scan-pci.c	ide.h
ide-scan-pci.c	init.h
ide-scan-pci.c	kernel.h
ide-scan-pci.c	module.h
ide-sysfs.c	ide.h
ide-sysfs.c	kernel.h
ide-tape.c	bitops.h
ide-tape.c	byteorder.h
ide-tape.c	completion.h
ide-tape.c	delay.h
ide-tape.c	errno.h
ide-tape.c	genhd.h
ide-tape.c	ide.h
ide-tape.c	interrupt.h
ide-tape.c	io.h
ide-tape.c	jiffies.h
ide-tape.c	kernel.h
ide-tape.c	major.h
ide-tape.c	mm.h
ide-tape.c	module.h
ide-tape.c	mtio.h
ide-tape.c	mutex.h
ide-tape.c	pci.h
ide-tape.c	scsi.h
ide-tape.c	seq_file.h
ide-tape.c	slab.h
ide-tape.c	string.h
ide-tape.c	timer.h
ide-tape.c	types.h
ide-tape.c	uaccess.h
ide-tape.c	unaligned.h
ide-taskfile.c	delay.h
ide-taskfile.c	errno.h
ide-taskfile.c	export.h
ide-taskfile.c	hdreg.h
ide-taskfile.c	ide.h
ide-taskfile.c	interrupt.h
ide-taskfile.c	io.h
ide-taskfile.c	kernel.h
ide-taskfile.c	scatterlist.h
ide-taskfile.c	sched.h
ide-taskfile.c	slab.h
ide-taskfile.c	string.h
ide-taskfile.c	types.h
ide-taskfile.c	uaccess.h
ide-timings.c	ide.h
ide-timings.c	kernel.h
ide-timings.c	module.h
ide-xfer-mode.c	bitops.h
ide-xfer-mode.c	export.h
ide-xfer-mode.c	ide.h
ide-xfer-mode.c	interrupt.h
ide-xfer-mode.c	kernel.h
ide-xfer-mode.c	string.h
ide-xfer-mode.c	types.h
ide.c	completion.h
ide.c	device.h
ide.c	errno.h
ide.c	genhd.h
ide.c	hdreg.h
ide.c	ide.h
ide.c	init.h
ide.c	interrupt.h
ide.c	kernel.h
ide.c	major.h
ide.c	module.h
ide.c	pci.h
ide.c	string.h
ide.c	types.h
ide_platform.c	ata_platform.h
ide_platform.c	ide.h
ide_platform.c	init.h
ide_platform.c	interrupt.h
ide_platform.c	io.h
ide_platform.c	ioport.h
ide_platform.c	kernel.h
ide_platform.c	module.h
ide_platform.c	platform_device.h
ide_platform.c	types.h
ipath_cq.c	err.h
ipath_cq.c	ipath_verbs.h
ipath_cq.c	slab.h
ipath_cq.c	vmalloc.h
ipath_diag.c	export.h
ipath_diag.c	fs.h
ipath_diag.c	io.h
ipath_diag.c	ipath_common.h
ipath_diag.c	ipath_kernel.h
ipath_diag.c	pci.h
ipath_diag.c	uaccess.h
ipath_diag.c	vmalloc.h
ipath_dma.c	gfp.h
ipath_dma.c	ib_verbs.h
ipath_dma.c	ipath_verbs.h
ipath_dma.c	scatterlist.h
ipath_driver.c	bitmap.h
ipath_driver.c	delay.h
ipath_driver.c	idr.h
ipath_driver.c	io.h
ipath_driver.c	ipath_kernel.h
ipath_driver.c	ipath_verbs.h
ipath_driver.c	module.h
ipath_driver.c	netdevice.h
ipath_driver.c	pci.h
ipath_driver.c	sched.h
ipath_driver.c	slab.h
ipath_driver.c	spinlock.h
ipath_driver.c	vmalloc.h
ipath_eeprom.c	delay.h
ipath_eeprom.c	ipath_kernel.h
ipath_eeprom.c	pci.h
ipath_eeprom.c	vmalloc.h
ipath_file_ops.c	cdev.h
ipath_file_ops.c	cpu.h
ipath_file_ops.c	export.h
ipath_file_ops.c	highmem.h
ipath_file_ops.c	io.h
ipath_file_ops.c	ipath_common.h
ipath_file_ops.c	ipath_kernel.h
ipath_file_ops.c	ipath_user_sdma.h
ipath_file_ops.c	jiffies.h
ipath_file_ops.c	pci.h
ipath_file_ops.c	pgtable.h
ipath_file_ops.c	poll.h
ipath_file_ops.c	slab.h
ipath_file_ops.c	swap.h
ipath_file_ops.c	vmalloc.h
ipath_fs.c	fs.h
ipath_fs.c	init.h
ipath_fs.c	ipath_kernel.h
ipath_fs.c	module.h
ipath_fs.c	mount.h
ipath_fs.c	namei.h
ipath_fs.c	pagemap.h
ipath_fs.c	slab.h
ipath_iba6110.c	delay.h
ipath_iba6110.c	htirq.h
ipath_iba6110.c	ib_verbs.h
ipath_iba6110.c	ipath_kernel.h
ipath_iba6110.c	ipath_registers.h
ipath_iba6110.c	pci.h
ipath_iba6110.c	vmalloc.h
ipath_init_chip.c	ipath_common.h
ipath_init_chip.c	ipath_kernel.h
ipath_init_chip.c	moduleparam.h
ipath_init_chip.c	netdevice.h
ipath_init_chip.c	pci.h
ipath_init_chip.c	slab.h
ipath_init_chip.c	stat.h
ipath_init_chip.c	vmalloc.h
ipath_intr.c	delay.h
ipath_intr.c	ipath_common.h
ipath_intr.c	ipath_kernel.h
ipath_intr.c	ipath_verbs.h
ipath_intr.c	pci.h
ipath_intr.c	sched.h
ipath_kernel.h	dma-mapping.h
ipath_kernel.h	ib_verbs.h
ipath_kernel.h	interrupt.h
ipath_kernel.h	io.h
ipath_kernel.h	ipath_common.h
ipath_kernel.h	ipath_debug.h
ipath_kernel.h	ipath_registers.h
ipath_kernel.h	list.h
ipath_kernel.h	mutex.h
ipath_kernel.h	pci.h
ipath_kernel.h	scatterlist.h
ipath_keys.c	io.h
ipath_keys.c	ipath_kernel.h
ipath_keys.c	ipath_verbs.h
ipath_mad.c	ib_pma.h
ipath_mad.c	ib_smi.h
ipath_mad.c	ipath_common.h
ipath_mad.c	ipath_kernel.h
ipath_mad.c	ipath_verbs.h
ipath_mmap.c	errno.h
ipath_mmap.c	ipath_verbs.h
ipath_mmap.c	mm.h
ipath_mmap.c	module.h
ipath_mmap.c	pgtable.h
ipath_mmap.c	slab.h
ipath_mmap.c	vmalloc.h
ipath_mr.c	ib_pack.h
ipath_mr.c	ib_smi.h
ipath_mr.c	ib_umem.h
ipath_mr.c	ipath_verbs.h
ipath_mr.c	slab.h
ipath_qp.c	err.h
ipath_qp.c	ipath_kernel.h
ipath_qp.c	ipath_verbs.h
ipath_qp.c	sched.h
ipath_qp.c	slab.h
ipath_qp.c	vmalloc.h
ipath_rc.c	io.h
ipath_rc.c	ipath_kernel.h
ipath_rc.c	ipath_verbs.h
ipath_ruc.c	ipath_kernel.h
ipath_ruc.c	ipath_verbs.h
ipath_ruc.c	sched.h
ipath_ruc.c	spinlock.h
ipath_sdma.c	gfp.h
ipath_sdma.c	ipath_common.h
ipath_sdma.c	ipath_kernel.h
ipath_sdma.c	ipath_verbs.h
ipath_sdma.c	spinlock.h
ipath_srq.c	err.h
ipath_srq.c	ipath_verbs.h
ipath_srq.c	slab.h
ipath_srq.c	vmalloc.h
ipath_stats.c	ipath_kernel.h
ipath_sysfs.c	ctype.h
ipath_sysfs.c	ipath_common.h
ipath_sysfs.c	ipath_kernel.h
ipath_sysfs.c	ipath_verbs.h
ipath_sysfs.c	stat.h
ipath_uc.c	ipath_kernel.h
ipath_uc.c	ipath_verbs.h
ipath_ud.c	ib_smi.h
ipath_ud.c	ipath_kernel.h
ipath_ud.c	ipath_verbs.h
ipath_ud.c	sched.h
ipath_user_pages.c	device.h
ipath_user_pages.c	ipath_kernel.h
ipath_user_pages.c	mm.h
ipath_user_pages.c	sched.h
ipath_user_pages.c	slab.h
ipath_user_sdma.c	delay.h
ipath_user_sdma.c	device.h
ipath_user_sdma.c	dmapool.h
ipath_user_sdma.c	highmem.h
ipath_user_sdma.c	io.h
ipath_user_sdma.c	ipath_kernel.h
ipath_user_sdma.c	ipath_user_sdma.h
ipath_user_sdma.c	list.h
ipath_user_sdma.c	mm.h
ipath_user_sdma.c	rbtree.h
ipath_user_sdma.c	sched.h
ipath_user_sdma.c	slab.h
ipath_user_sdma.c	spinlock.h
ipath_user_sdma.c	types.h
ipath_user_sdma.c	uio.h
ipath_user_sdma.h	device.h
ipath_verbs.c	ib_mad.h
ipath_verbs.c	ib_user_verbs.h
ipath_verbs.c	io.h
ipath_verbs.c	ipath_common.h
ipath_verbs.c	ipath_kernel.h
ipath_verbs.c	ipath_verbs.h
ipath_verbs.c	module.h
ipath_verbs.c	rculist.h
ipath_verbs.c	slab.h
ipath_verbs.c	utsname.h
ipath_verbs.h	ib_pack.h
ipath_verbs.h	ib_user_verbs.h
ipath_verbs.h	interrupt.h
ipath_verbs.h	ipath_kernel.h
ipath_verbs.h	kernel.h
ipath_verbs.h	kref.h
ipath_verbs.h	spinlock.h
ipath_verbs.h	types.h
ipath_verbs_mcast.c	ipath_verbs.h
ipath_verbs_mcast.c	rculist.h
ipath_verbs_mcast.c	sched.h
ipath_verbs_mcast.c	slab.h
ipath_wc_ppc64.c	ipath_kernel.h
ipath_wc_x86_64.c	ipath_kernel.h
ipath_wc_x86_64.c	mtrr.h
ipath_wc_x86_64.c	pci.h
ipath_wc_x86_64.c	processor.h
ipoib.h	atomic.h
ipoib.h	ib_pack.h
ipoib.h	ib_sa.h
ipoib.h	ib_verbs.h
ipoib.h	if_infiniband.h
ipoib.h	kref.h
ipoib.h	list.h
ipoib.h	mutex.h
ipoib.h	neighbour.h
ipoib.h	netdevice.h
ipoib.h	sch_generic.h
ipoib.h	sched.h
ipoib.h	skbuff.h
ipoib.h	workqueue.h
ipoib_cm.c	delay.h
ipoib_cm.c	dst.h
ipoib_cm.c	ib_cm.h
ipoib_cm.c	icmp.h
ipoib_cm.c	icmpv6.h
ipoib_cm.c	ipoib.h
ipoib_cm.c	moduleparam.h
ipoib_cm.c	slab.h
ipoib_cm.c	vmalloc.h
ipoib_ethtool.c	ethtool.h
ipoib_ethtool.c	ipoib.h
ipoib_ethtool.c	kernel.h
ipoib_ethtool.c	netdevice.h
ipoib_fs.c	debugfs.h
ipoib_fs.c	err.h
ipoib_fs.c	export.h
ipoib_fs.c	ipoib.h
ipoib_fs.c	seq_file.h
ipoib_fs.c	slab.h
ipoib_ib.c	delay.h
ipoib_ib.c	dma-mapping.h
ipoib_ib.c	ip.h
ipoib_ib.c	ipoib.h
ipoib_ib.c	moduleparam.h
ipoib_ib.c	slab.h
ipoib_ib.c	tcp.h
ipoib_main.c	arp.h
ipoib_main.c	if_arp.h
ipoib_main.c	in.h
ipoib_main.c	init.h
ipoib_main.c	ip.h
ipoib_main.c	ipoib.h
ipoib_main.c	jhash.h
ipoib_main.c	kernel.h
ipoib_main.c	module.h
ipoib_main.c	slab.h
ipoib_main.c	vmalloc.h
ipoib_multicast.c	completion.h
ipoib_multicast.c	delay.h
ipoib_multicast.c	dst.h
ipoib_multicast.c	igmp.h
ipoib_multicast.c	in.h
ipoib_multicast.c	inetdevice.h
ipoib_multicast.c	ip.h
ipoib_multicast.c	ipoib.h
ipoib_multicast.c	moduleparam.h
ipoib_multicast.c	rtnetlink.h
ipoib_multicast.c	skbuff.h
ipoib_multicast.c	slab.h
ipoib_netlink.c	ipoib.h
ipoib_netlink.c	module.h
ipoib_netlink.c	netdevice.h
ipoib_netlink.c	rtnetlink.h
ipoib_verbs.c	ipoib.h
ipoib_verbs.c	slab.h
ipoib_vlan.c	init.h
ipoib_vlan.c	ipoib.h
ipoib_vlan.c	module.h
ipoib_vlan.c	seq_file.h
ipoib_vlan.c	uaccess.h
ipz_pt_fn.c	ehca_classes.h
ipz_pt_fn.c	ehca_tools.h
ipz_pt_fn.c	ipz_pt_fn.h
ipz_pt_fn.c	slab.h
ipz_pt_fn.h	ehca_qes.h
ipz_pt_fn.h	ehca_tools.h
iscsi_iser.c	blkdev.h
iscsi_iser.c	cdev.h
iscsi_iser.c	delay.h
iscsi_iser.c	hardirq.h
iscsi_iser.c	in.h
iscsi_iser.c	init.h
iscsi_iser.c	ioctl.h
iscsi_iser.c	iscsi_iser.h
iscsi_iser.c	kfifo.h
iscsi_iser.c	list.h
iscsi_iser.c	module.h
iscsi_iser.c	net.h
iscsi_iser.c	scatterlist.h
iscsi_iser.c	scsi.h
iscsi_iser.c	scsi_cmnd.h
iscsi_iser.c	scsi_device.h
iscsi_iser.c	scsi_eh.h
iscsi_iser.c	scsi_host.h
iscsi_iser.c	scsi_tcq.h
iscsi_iser.c	scsi_transport_iscsi.h
iscsi_iser.c	slab.h
iscsi_iser.c	sock.h
iscsi_iser.c	types.h
iscsi_iser.c	uaccess.h
iscsi_iser.h	dma-mapping.h
iscsi_iser.h	ib_fmr_pool.h
iscsi_iser.h	ib_verbs.h
iscsi_iser.h	in.h
iscsi_iser.h	in6.h
iscsi_iser.h	interrupt.h
iscsi_iser.h	libiscsi.h
iscsi_iser.h	list.h
iscsi_iser.h	mempool.h
iscsi_iser.h	mutex.h
iscsi_iser.h	net.h
iscsi_iser.h	rdma_cm.h
iscsi_iser.h	sched.h
iscsi_iser.h	scsi_transport_iscsi.h
iscsi_iser.h	slab.h
iscsi_iser.h	socket.h
iscsi_iser.h	types.h
iscsi_iser.h	uio.h
iscsi_iser.h	wait.h
iser_initiator.c	iscsi_iser.h
iser_initiator.c	kernel.h
iser_initiator.c	kfifo.h
iser_initiator.c	mm.h
iser_initiator.c	scatterlist.h
iser_initiator.c	scsi_cmnd.h
iser_initiator.c	scsi_host.h
iser_initiator.c	slab.h
iser_memory.c	highmem.h
iser_memory.c	iscsi_iser.h
iser_memory.c	kernel.h
iser_memory.c	mm.h
iser_memory.c	module.h
iser_memory.c	scatterlist.h
iser_memory.c	slab.h
iser_verbs.c	delay.h
iser_verbs.c	iscsi_iser.h
iser_verbs.c	kernel.h
iser_verbs.c	module.h
iser_verbs.c	slab.h
it8172.c	ide.h
it8172.c	init.h
it8172.c	ioport.h
it8172.c	kernel.h
it8172.c	module.h
it8172.c	pci.h
it8172.c	types.h
it8213.c	ide.h
it8213.c	init.h
it8213.c	kernel.h
it8213.c	module.h
it8213.c	pci.h
it8213.c	types.h
iw_cxgb4.h	byteorder.h
iw_cxgb4.h	completion.h
iw_cxgb4.h	cxgb4.h
iw_cxgb4.h	cxgb4_uld.h
iw_cxgb4.h	dma-mapping.h
iw_cxgb4.h	ib_verbs.h
iw_cxgb4.h	idr.h
iw_cxgb4.h	inet.h
iw_cxgb4.h	io.h
iw_cxgb4.h	iw_cm.h
iw_cxgb4.h	kref.h
iw_cxgb4.h	l2t.h
iw_cxgb4.h	list.h
iw_cxgb4.h	mutex.h
iw_cxgb4.h	net_namespace.h
iw_cxgb4.h	netdevice.h
iw_cxgb4.h	pci.h
iw_cxgb4.h	sched.h
iw_cxgb4.h	spinlock.h
iw_cxgb4.h	t4.h
iw_cxgb4.h	timer.h
iw_cxgb4.h	user.h
iw_cxgb4.h	wait.h
iwch.c	cxgb3_offload.h
iwch.c	ib_verbs.h
iwch.c	iwch.h
iwch.c	iwch_cm.h
iwch.c	iwch_provider.h
iwch.c	iwch_user.h
iwch.c	module.h
iwch.c	moduleparam.h
iwch.h	cxgb3_offload.h
iwch.h	cxio_hal.h
iwch.h	ib_verbs.h
iwch.h	idr.h
iwch.h	list.h
iwch.h	mutex.h
iwch.h	spinlock.h
iwch.h	workqueue.h
iwch_cm.c	cxgb3_offload.h
iwch_cm.c	inetdevice.h
iwch_cm.c	iwch.h
iwch_cm.c	iwch_cm.h
iwch_cm.c	iwch_provider.h
iwch_cm.c	list.h
iwch_cm.c	module.h
iwch_cm.c	neighbour.h
iwch_cm.c	netevent.h
iwch_cm.c	notifier.h
iwch_cm.c	route.h
iwch_cm.c	skbuff.h
iwch_cm.c	slab.h
iwch_cm.c	tcb.h
iwch_cm.c	timer.h
iwch_cm.c	workqueue.h
iwch_cm.h	cxgb3_offload.h
iwch_cm.h	ib_verbs.h
iwch_cm.h	inet.h
iwch_cm.h	iw_cm.h
iwch_cm.h	iwch_provider.h
iwch_cm.h	kref.h
iwch_cm.h	spinlock.h
iwch_cm.h	wait.h
iwch_cq.c	iwch.h
iwch_cq.c	iwch_provider.h
iwch_ev.c	cxio_hal.h
iwch_ev.c	cxio_wr.h
iwch_ev.c	gfp.h
iwch_ev.c	iwch.h
iwch_ev.c	iwch_cm.h
iwch_ev.c	iwch_provider.h
iwch_ev.c	mman.h
iwch_ev.c	sock.h
iwch_mem.c	byteorder.h
iwch_mem.c	cxio_hal.h
iwch_mem.c	cxio_resource.h
iwch_mem.c	ib_verbs.h
iwch_mem.c	iw_cm.h
iwch_mem.c	iwch.h
iwch_mem.c	iwch_provider.h
iwch_mem.c	slab.h
iwch_provider.c	byteorder.h
iwch_provider.c	common.h
iwch_provider.c	cxio_hal.h
iwch_provider.c	delay.h
iwch_provider.c	device.h
iwch_provider.c	errno.h
iwch_provider.c	etherdevice.h
iwch_provider.c	ethtool.h
iwch_provider.c	ib_smi.h
iwch_provider.c	ib_umem.h
iwch_provider.c	ib_user_verbs.h
iwch_provider.c	ib_verbs.h
iwch_provider.c	inetdevice.h
iwch_provider.c	io.h
iwch_provider.c	irq.h
iwch_provider.c	iw_cm.h
iwch_provider.c	iwch.h
iwch_provider.c	iwch_cm.h
iwch_provider.c	iwch_provider.h
iwch_provider.c	iwch_user.h
iwch_provider.c	list.h
iwch_provider.c	module.h
iwch_provider.c	moduleparam.h
iwch_provider.c	netdevice.h
iwch_provider.c	rtnetlink.h
iwch_provider.c	sched.h
iwch_provider.c	slab.h
iwch_provider.c	spinlock.h
iwch_provider.h	cxio_hal.h
iwch_provider.h	cxio_wr.h
iwch_provider.h	ib_verbs.h
iwch_provider.h	iwch.h
iwch_provider.h	list.h
iwch_provider.h	spinlock.h
iwch_provider.h	t3cdev.h
iwch_provider.h	types.h
iwch_qp.c	cxio_hal.h
iwch_qp.c	cxio_resource.h
iwch_qp.c	gfp.h
iwch_qp.c	iwch.h
iwch_qp.c	iwch_cm.h
iwch_qp.c	iwch_provider.h
iwch_qp.c	sched.h
jmicron.c	ide.h
jmicron.c	init.h
jmicron.c	module.h
jmicron.c	pci.h
jmicron.c	types.h
macide.c	blkdev.h
macide.c	delay.h
macide.c	ide.h
macide.c	interrupt.h
macide.c	mac_baboon.h
macide.c	macintosh.h
macide.c	macints.h
macide.c	mm.h
macide.c	module.h
macide.c	types.h
mad.c	cmd.h
mad.c	gfp.h
mad.c	ib_cache.h
mad.c	ib_mad.h
mad.c	ib_pma.h
mad.c	ib_sa.h
mad.c	ib_smi.h
mad.c	mlx4_ib.h
mad.c	random.h
main.c	cistpl.h
main.c	cistpl.h
main.c	delay.h
main.c	delay.h
main.c	dma-mapping.h
main.c	dma-mapping.h
main.c	ds.h
main.c	ds.h
main.c	io.h
main.c	io.h
main.c	module.h
main.c	module.h
main.c	pci.h
main.c	pci.h
main.c	platform_device.h
main.c	platform_device.h
main.c	sdio_func.h
main.c	sdio_func.h
main.c	slab.h
main.c	slab.h
main.c	ssb.h
main.c	ssb.h
main.c	ssb_driver_gige.h
main.c	ssb_driver_gige.h
main.c	ssb_private.h
main.c	ssb_private.h
main.c	ssb_regs.h
main.c	ssb_regs.h
mcg.c	cmd.h
mcg.c	delay.h
mcg.c	ib_cache.h
mcg.c	ib_mad.h
mcg.c	ib_sa.h
mcg.c	ib_smi.h
mcg.c	mlx4_ib.h
mcg.c	rbtree.h
mem.c	atomic.h
mem.c	ib_umem.h
mem.c	iw_cxgb4.h
mlx4_ib.h	compiler.h
mlx4_ib.h	device.h
mlx4_ib.h	doorbell.h
mlx4_ib.h	ib_mad.h
mlx4_ib.h	ib_sa.h
mlx4_ib.h	ib_umem.h
mlx4_ib.h	ib_verbs.h
mlx4_ib.h	idr.h
mlx4_ib.h	list.h
mlx4_ib.h	mutex.h
mr.c	mlx4_ib.h
mr.c	slab.h
mthca_allocator.c	bitmap.h
mthca_allocator.c	errno.h
mthca_allocator.c	mthca_dev.h
mthca_allocator.c	slab.h
mthca_av.c	ib_cache.h
mthca_av.c	ib_verbs.h
mthca_av.c	mthca_dev.h
mthca_av.c	slab.h
mthca_av.c	string.h
mthca_catas.c	jiffies.h
mthca_catas.c	module.h
mthca_catas.c	mthca_dev.h
mthca_catas.c	timer.h
mthca_catas.c	workqueue.h
mthca_cmd.c	completion.h
mthca_cmd.c	errno.h
mthca_cmd.c	ib_mad.h
mthca_cmd.c	io.h
mthca_cmd.c	module.h
mthca_cmd.c	mthca_cmd.h
mthca_cmd.c	mthca_config_reg.h
mthca_cmd.c	mthca_dev.h
mthca_cmd.c	mthca_memfree.h
mthca_cmd.c	pci.h
mthca_cmd.c	sched.h
mthca_cmd.c	slab.h
mthca_cmd.h	ib_verbs.h
mthca_cq.c	gfp.h
mthca_cq.c	hardirq.h
mthca_cq.c	ib_pack.h
mthca_cq.c	io.h
mthca_cq.c	mthca_cmd.h
mthca_cq.c	mthca_dev.h
mthca_cq.c	mthca_memfree.h
mthca_cq.c	sched.h
mthca_dev.h	dma-mapping.h
mthca_dev.h	kernel.h
mthca_dev.h	list.h
mthca_dev.h	mthca_doorbell.h
mthca_dev.h	mthca_provider.h
mthca_dev.h	mutex.h
mthca_dev.h	pci.h
mthca_dev.h	semaphore.h
mthca_dev.h	spinlock.h
mthca_dev.h	timer.h
mthca_doorbell.h	types.h
mthca_eq.c	errno.h
mthca_eq.c	interrupt.h
mthca_eq.c	mthca_cmd.h
mthca_eq.c	mthca_config_reg.h
mthca_eq.c	mthca_dev.h
mthca_eq.c	pci.h
mthca_eq.c	slab.h
mthca_mad.c	ib_mad.h
mthca_mad.c	ib_smi.h
mthca_mad.c	ib_verbs.h
mthca_mad.c	mthca_cmd.h
mthca_mad.c	mthca_dev.h
mthca_mad.c	slab.h
mthca_mad.c	string.h
mthca_main.c	errno.h
mthca_main.c	gfp.h
mthca_main.c	init.h
mthca_main.c	interrupt.h
mthca_main.c	module.h
mthca_main.c	mthca_cmd.h
mthca_main.c	mthca_config_reg.h
mthca_main.c	mthca_dev.h
mthca_main.c	mthca_memfree.h
mthca_main.c	mthca_profile.h
mthca_main.c	mthca_wqe.h
mthca_main.c	pci.h
mthca_mcg.c	gfp.h
mthca_mcg.c	mthca_cmd.h
mthca_mcg.c	mthca_dev.h
mthca_mcg.c	string.h
mthca_memfree.c	mm.h
mthca_memfree.c	mthca_cmd.h
mthca_memfree.c	mthca_dev.h
mthca_memfree.c	mthca_memfree.h
mthca_memfree.c	page.h
mthca_memfree.c	scatterlist.h
mthca_memfree.c	sched.h
mthca_memfree.c	slab.h
mthca_memfree.h	list.h
mthca_memfree.h	mutex.h
mthca_mr.c	errno.h
mthca_mr.c	mthca_cmd.h
mthca_mr.c	mthca_dev.h
mthca_mr.c	mthca_memfree.h
mthca_mr.c	slab.h
mthca_pd.c	errno.h
mthca_pd.c	mthca_dev.h
mthca_profile.c	module.h
mthca_profile.c	moduleparam.h
mthca_profile.c	mthca_profile.h
mthca_profile.c	slab.h
mthca_profile.c	string.h
mthca_profile.h	mthca_cmd.h
mthca_profile.h	mthca_dev.h
mthca_provider.c	export.h
mthca_provider.c	ib_smi.h
mthca_provider.c	ib_umem.h
mthca_provider.c	ib_user_verbs.h
mthca_provider.c	mm.h
mthca_provider.c	mthca_cmd.h
mthca_provider.c	mthca_dev.h
mthca_provider.c	mthca_memfree.h
mthca_provider.c	mthca_user.h
mthca_provider.c	sched.h
mthca_provider.c	slab.h
mthca_provider.c	stat.h
mthca_provider.h	ib_pack.h
mthca_provider.h	ib_verbs.h
mthca_qp.c	ib_cache.h
mthca_qp.c	ib_pack.h
mthca_qp.c	ib_verbs.h
mthca_qp.c	io.h
mthca_qp.c	mthca_cmd.h
mthca_qp.c	mthca_dev.h
mthca_qp.c	mthca_memfree.h
mthca_qp.c	mthca_wqe.h
mthca_qp.c	sched.h
mthca_qp.c	slab.h
mthca_qp.c	string.h
mthca_reset.c	delay.h
mthca_reset.c	errno.h
mthca_reset.c	mthca_cmd.h
mthca_reset.c	mthca_dev.h
mthca_reset.c	pci.h
mthca_reset.c	slab.h
mthca_srq.c	io.h
mthca_srq.c	mthca_cmd.h
mthca_srq.c	mthca_dev.h
mthca_srq.c	mthca_memfree.h
mthca_srq.c	mthca_wqe.h
mthca_srq.c	sched.h
mthca_srq.c	slab.h
mthca_srq.c	string.h
mthca_uar.c	mthca_dev.h
mthca_uar.c	mthca_memfree.h
mthca_uar.c	page.h
mthca_user.h	types.h
mthca_wqe.h	types.h
nes.c	byteorder.h
nes.c	crc32.h
nes.c	etherdevice.h
nes.c	ethtool.h
nes.c	fs.h
nes.c	highmem.h
nes.c	ib_pack.h
nes.c	ib_smi.h
nes.c	ib_verbs.h
nes.c	if_arp.h
nes.c	if_vlan.h
nes.c	in.h
nes.c	init.h
nes.c	io.h
nes.c	ip_fib.h
nes.c	irq.h
nes.c	iw_cm.h
nes.c	mii.h
nes.c	module.h
nes.c	moduleparam.h
nes.c	neighbour.h
nes.c	nes.h
nes.c	netdevice.h
nes.c	netevent.h
nes.c	route.h
nes.c	slab.h
nes.h	crc32c.h
nes.h	delay.h
nes.h	dma-mapping.h
nes.h	ib_pack.h
nes.h	ib_smi.h
nes.h	ib_verbs.h
nes.h	inetdevice.h
nes.h	io.h
nes.h	iw_cm.h
nes.h	kernel.h
nes.h	nes_cm.h
nes.h	nes_context.h
nes.h	nes_hw.h
nes.h	nes_mgt.h
nes.h	nes_user.h
nes.h	nes_verbs.h
nes.h	netdevice.h
nes.h	pci.h
nes.h	rdma_cm.h
nes.h	slab.h
nes.h	spinlock.h
nes.h	workqueue.h
nes_cm.c	arp.h
nes_cm.c	atomic.h
nes_cm.c	delay.h
nes_cm.c	etherdevice.h
nes_cm.c	highmem.h
nes_cm.c	if_arp.h
nes_cm.c	if_vlan.h
nes_cm.c	init.h
nes_cm.c	ip.h
nes_cm.c	ip_fib.h
nes_cm.c	list.h
nes_cm.c	neighbour.h
nes_cm.c	nes.h
nes_cm.c	net.h
nes_cm.c	netdevice.h
nes_cm.c	notifier.h
nes_cm.c	random.h
nes_cm.c	route.h
nes_cm.c	skbuff.h
nes_cm.c	slab.h
nes_cm.c	tcp.h
nes_cm.c	tcp.h
nes_cm.c	threads.h
nes_cm.c	time.h
nes_cm.c	timer.h
nes_cm.c	types.h
nes_hw.c	etherdevice.h
nes_hw.c	if_vlan.h
nes_hw.c	inet_lro.h
nes_hw.c	ip.h
nes_hw.c	module.h
nes_hw.c	moduleparam.h
nes_hw.c	nes.h
nes_hw.c	nes_cm.h
nes_hw.c	netdevice.h
nes_hw.c	slab.h
nes_hw.c	tcp.h
nes_hw.h	inet_lro.h
nes_mgt.c	etherdevice.h
nes_mgt.c	ip.h
nes_mgt.c	kthread.h
nes_mgt.c	nes.h
nes_mgt.c	nes_mgt.h
nes_mgt.c	skbuff.h
nes_mgt.c	tcp.h
nes_mgt.c	tcp.h
nes_nic.c	etherdevice.h
nes_nic.c	ethtool.h
nes_nic.c	if_arp.h
nes_nic.c	if_vlan.h
nes_nic.c	inet.h
nes_nic.c	inet_common.h
nes_nic.c	ip.h
nes_nic.c	module.h
nes_nic.c	moduleparam.h
nes_nic.c	nes.h
nes_nic.c	netdevice.h
nes_nic.c	slab.h
nes_nic.c	tcp.h
nes_nic.c	tcp.h
nes_user.h	types.h
nes_utils.c	byteorder.h
nes_utils.c	crc32.h
nes_utils.c	etherdevice.h
nes_utils.c	ethtool.h
nes_utils.c	if_vlan.h
nes_utils.c	in.h
nes_utils.c	init.h
nes_utils.c	io.h
nes_utils.c	ip.h
nes_utils.c	irq.h
nes_utils.c	mii.h
nes_utils.c	module.h
nes_utils.c	moduleparam.h
nes_utils.c	nes.h
nes_utils.c	netdevice.h
nes_utils.c	slab.h
nes_utils.c	tcp.h
nes_verbs.c	byteorder.h
nes_verbs.c	highmem.h
nes_verbs.c	ib_umem.h
nes_verbs.c	ib_user_verbs.h
nes_verbs.c	ib_verbs.h
nes_verbs.c	iw_cm.h
nes_verbs.c	module.h
nes_verbs.c	moduleparam.h
nes_verbs.c	nes.h
nes_verbs.c	random.h
nes_verbs.c	slab.h
ocrdma.h	be_roce.h
ocrdma.h	ib_user_verbs.h
ocrdma.h	ib_verbs.h
ocrdma.h	list.h
ocrdma.h	mutex.h
ocrdma.h	ocrdma_sli.h
ocrdma.h	pci.h
ocrdma.h	spinlock.h
ocrdma_ah.c	ib_addr.h
ocrdma_ah.c	ib_cache.h
ocrdma_ah.c	neighbour.h
ocrdma_ah.c	netevent.h
ocrdma_ah.c	ocrdma.h
ocrdma_ah.c	ocrdma_ah.h
ocrdma_ah.c	ocrdma_hw.h
ocrdma_ah.c	ocrdma_verbs.h
ocrdma_hw.c	dma-mapping.h
ocrdma_hw.c	ib_addr.h
ocrdma_hw.c	ib_user_verbs.h
ocrdma_hw.c	ib_verbs.h
ocrdma_hw.c	interrupt.h
ocrdma_hw.c	log2.h
ocrdma_hw.c	ocrdma.h
ocrdma_hw.c	ocrdma_ah.h
ocrdma_hw.c	ocrdma_hw.h
ocrdma_hw.c	ocrdma_verbs.h
ocrdma_hw.c	sched.h
ocrdma_hw.h	ocrdma_sli.h
ocrdma_main.c	addrconf.h
ocrdma_main.c	be_roce.h
ocrdma_main.c	ib_addr.h
ocrdma_main.c	ib_user_verbs.h
ocrdma_main.c	ib_verbs.h
ocrdma_main.c	idr.h
ocrdma_main.c	module.h
ocrdma_main.c	netdevice.h
ocrdma_main.c	ocrdma.h
ocrdma_main.c	ocrdma_ah.h
ocrdma_main.c	ocrdma_hw.h
ocrdma_main.c	ocrdma_verbs.h
ocrdma_verbs.c	dma-mapping.h
ocrdma_verbs.c	ib_addr.h
ocrdma_verbs.c	ib_umem.h
ocrdma_verbs.c	ib_user_verbs.h
ocrdma_verbs.c	ib_verbs.h
ocrdma_verbs.c	iw_cm.h
ocrdma_verbs.c	ocrdma.h
ocrdma_verbs.c	ocrdma_abi.h
ocrdma_verbs.c	ocrdma_hw.h
ocrdma_verbs.c	ocrdma_verbs.h
opti621.c	ide.h
opti621.c	io.h
opti621.c	kernel.h
opti621.c	module.h
opti621.c	pci.h
opti621.c	types.h
palm_bk3710.c	clk.h
palm_bk3710.c	delay.h
palm_bk3710.c	ide.h
palm_bk3710.c	init.h
palm_bk3710.c	ioport.h
palm_bk3710.c	kernel.h
palm_bk3710.c	module.h
palm_bk3710.c	platform_device.h
palm_bk3710.c	types.h
pci.c	delay.h
pci.c	pci.h
pci.c	slab.h
pci.c	ssb.h
pci.c	ssb_private.h
pci.c	ssb_regs.h
pcihost_wrapper.c	export.h
pcihost_wrapper.c	pci.h
pcihost_wrapper.c	slab.h
pcihost_wrapper.c	ssb.h
pcmcia.c	ciscode.h
pcmcia.c	cisreg.h
pcmcia.c	cistpl.h
pcmcia.c	delay.h
pcmcia.c	ds.h
pcmcia.c	etherdevice.h
pcmcia.c	io.h
pcmcia.c	ssb.h
pcmcia.c	ssb_private.h
pdc202xx_new.c	delay.h
pdc202xx_new.c	ide.h
pdc202xx_new.c	init.h
pdc202xx_new.c	io.h
pdc202xx_new.c	kernel.h
pdc202xx_new.c	module.h
pdc202xx_new.c	pci-bridge.h
pdc202xx_new.c	pci.h
pdc202xx_new.c	prom.h
pdc202xx_new.c	types.h
pdc202xx_old.c	blkdev.h
pdc202xx_old.c	delay.h
pdc202xx_old.c	ide.h
pdc202xx_old.c	init.h
pdc202xx_old.c	io.h
pdc202xx_old.c	kernel.h
pdc202xx_old.c	module.h
pdc202xx_old.c	pci.h
pdc202xx_old.c	types.h
piix.c	ide.h
piix.c	init.h
piix.c	io.h
piix.c	kernel.h
piix.c	module.h
piix.c	pci.h
piix.c	types.h
pmac.c	adb.h
pmac.c	dbdma.h
pmac.c	delay.h
pmac.c	ide.h
pmac.c	ide.h
pmac.c	init.h
pmac.c	io.h
pmac.c	irq.h
pmac.c	kernel.h
pmac.c	machdep.h
pmac.c	mediabay.h
pmac.c	module.h
pmac.c	notifier.h
pmac.c	pci-bridge.h
pmac.c	pci.h
pmac.c	pmac_feature.h
pmac.c	pmu.h
pmac.c	prom.h
pmac.c	reboot.h
pmac.c	scatterlist.h
pmac.c	sections.h
pmac.c	slab.h
pmac.c	types.h
provider.c	byteorder.h
provider.c	delay.h
provider.c	device.h
provider.c	errno.h
provider.c	etherdevice.h
provider.c	ethtool.h
provider.c	ib_smi.h
provider.c	ib_umem.h
provider.c	ib_user_verbs.h
provider.c	ib_verbs.h
provider.c	inetdevice.h
provider.c	io.h
provider.c	irq.h
provider.c	iw_cm.h
provider.c	iw_cxgb4.h
provider.c	list.h
provider.c	module.h
provider.c	moduleparam.h
provider.c	netdevice.h
provider.c	rtnetlink.h
provider.c	spinlock.h
q40ide.c	blkdev.h
q40ide.c	ide.h
q40ide.c	ide.h
q40ide.c	interrupt.h
q40ide.c	mm.h
q40ide.c	module.h
q40ide.c	types.h
qd65xx.c	blkdev.h
qd65xx.c	delay.h
qd65xx.c	ide.h
qd65xx.c	init.h
qd65xx.c	io.h
qd65xx.c	ioport.h
qd65xx.c	kernel.h
qd65xx.c	mm.h
qd65xx.c	module.h
qd65xx.c	qd65xx.h
qd65xx.c	timer.h
qd65xx.c	types.h
qib.h	completion.h
qib.h	dma-mapping.h
qib.h	fs.h
qib.h	interrupt.h
qib.h	io.h
qib.h	kref.h
qib.h	list.h
qib.h	mutex.h
qib.h	pci.h
qib.h	qib_common.h
qib.h	qib_verbs.h
qib.h	scatterlist.h
qib.h	sched.h
qib.h	slab.h
qib_7220.h	qib_7220_regs.h
qib_cq.c	err.h
qib_cq.c	qib_verbs.h
qib_cq.c	slab.h
qib_cq.c	vmalloc.h
qib_diag.c	export.h
qib_diag.c	fs.h
qib_diag.c	io.h
qib_diag.c	pci.h
qib_diag.c	poll.h
qib_diag.c	qib.h
qib_diag.c	qib_common.h
qib_diag.c	uaccess.h
qib_diag.c	vmalloc.h
qib_dma.c	qib_verbs.h
qib_dma.c	scatterlist.h
qib_dma.c	types.h
qib_driver.c	delay.h
qib_driver.c	io.h
qib_driver.c	module.h
qib_driver.c	netdevice.h
qib_driver.c	pci.h
qib_driver.c	prefetch.h
qib_driver.c	qib.h
qib_driver.c	spinlock.h
qib_driver.c	vmalloc.h
qib_eeprom.c	delay.h
qib_eeprom.c	pci.h
qib_eeprom.c	qib.h
qib_eeprom.c	vmalloc.h
qib_file_ops.c	cdev.h
qib_file_ops.c	delay.h
qib_file_ops.c	export.h
qib_file_ops.c	highmem.h
qib_file_ops.c	io.h
qib_file_ops.c	jiffies.h
qib_file_ops.c	pci.h
qib_file_ops.c	pgtable.h
qib_file_ops.c	poll.h
qib_file_ops.c	qib.h
qib_file_ops.c	qib_common.h
qib_file_ops.c	qib_user_sdma.h
qib_file_ops.c	swap.h
qib_file_ops.c	uio.h
qib_file_ops.c	vmalloc.h
qib_fs.c	fs.h
qib_fs.c	init.h
qib_fs.c	module.h
qib_fs.c	mount.h
qib_fs.c	namei.h
qib_fs.c	pagemap.h
qib_fs.c	qib.h
qib_iba6120.c	delay.h
qib_iba6120.c	ib_verbs.h
qib_iba6120.c	interrupt.h
qib_iba6120.c	pci.h
qib_iba6120.c	qib.h
qib_iba6120.c	qib_6120_regs.h
qib_iba7220.c	delay.h
qib_iba7220.c	ib_verbs.h
qib_iba7220.c	interrupt.h
qib_iba7220.c	io.h
qib_iba7220.c	module.h
qib_iba7220.c	pci.h
qib_iba7220.c	qib.h
qib_iba7220.c	qib_7220.h
qib_iba7322.c	delay.h
qib_iba7322.c	ib_smi.h
qib_iba7322.c	ib_verbs.h
qib_iba7322.c	interrupt.h
qib_iba7322.c	io.h
qib_iba7322.c	jiffies.h
qib_iba7322.c	module.h
qib_iba7322.c	pci.h
qib_iba7322.c	qib.h
qib_iba7322.c	qib_7322_regs.h
qib_iba7322.c	qib_mad.h
qib_iba7322.c	qib_qsfp.h
qib_iba7322.c	qib_verbs.h
qib_init.c	delay.h
qib_init.c	idr.h
qib_init.c	module.h
qib_init.c	netdevice.h
qib_init.c	pci.h
qib_init.c	printk.h
qib_init.c	qib.h
qib_init.c	qib_common.h
qib_init.c	qib_mad.h
qib_init.c	vmalloc.h
qib_intr.c	delay.h
qib_intr.c	pci.h
qib_intr.c	qib.h
qib_intr.c	qib_common.h
qib_keys.c	qib.h
qib_mad.c	ib_smi.h
qib_mad.c	qib.h
qib_mad.c	qib_mad.h
qib_mad.h	ib_pma.h
qib_mmap.c	errno.h
qib_mmap.c	mm.h
qib_mmap.c	module.h
qib_mmap.c	pgtable.h
qib_mmap.c	qib_verbs.h
qib_mmap.c	slab.h
qib_mmap.c	vmalloc.h
qib_mr.c	ib_smi.h
qib_mr.c	ib_umem.h
qib_mr.c	qib.h
qib_pcie.c	aer.h
qib_pcie.c	delay.h
qib_pcie.c	io.h
qib_pcie.c	module.h
qib_pcie.c	pci.h
qib_pcie.c	qib.h
qib_pcie.c	vmalloc.h
qib_pio_copy.c	qib.h
qib_qp.c	err.h
qib_qp.c	jhash.h
qib_qp.c	qib.h
qib_qp.c	vmalloc.h
qib_qsfp.c	delay.h
qib_qsfp.c	pci.h
qib_qsfp.c	qib.h
qib_qsfp.c	qib_qsfp.h
qib_qsfp.c	vmalloc.h
qib_rc.c	io.h
qib_rc.c	qib.h
qib_ruc.c	qib.h
qib_ruc.c	qib_mad.h
qib_ruc.c	spinlock.h
qib_sd7220.c	delay.h
qib_sd7220.c	firmware.h
qib_sd7220.c	module.h
qib_sd7220.c	pci.h
qib_sd7220.c	qib.h
qib_sd7220.c	qib_7220.h
qib_sdma.c	moduleparam.h
qib_sdma.c	netdevice.h
qib_sdma.c	qib.h
qib_sdma.c	qib_common.h
qib_sdma.c	spinlock.h
qib_srq.c	err.h
qib_srq.c	qib_verbs.h
qib_srq.c	slab.h
qib_srq.c	vmalloc.h
qib_sysfs.c	ctype.h
qib_sysfs.c	qib.h
qib_sysfs.c	qib_mad.h
qib_twsi.c	delay.h
qib_twsi.c	pci.h
qib_twsi.c	qib.h
qib_twsi.c	vmalloc.h
qib_tx.c	delay.h
qib_tx.c	io.h
qib_tx.c	moduleparam.h
qib_tx.c	netdevice.h
qib_tx.c	pci.h
qib_tx.c	qib.h
qib_tx.c	spinlock.h
qib_tx.c	vmalloc.h
qib_uc.c	qib.h
qib_ud.c	ib_smi.h
qib_ud.c	qib.h
qib_ud.c	qib_mad.h
qib_user_pages.c	device.h
qib_user_pages.c	mm.h
qib_user_pages.c	qib.h
qib_user_sdma.c	delay.h
qib_user_sdma.c	device.h
qib_user_sdma.c	dmapool.h
qib_user_sdma.c	highmem.h
qib_user_sdma.c	io.h
qib_user_sdma.c	list.h
qib_user_sdma.c	mm.h
qib_user_sdma.c	qib.h
qib_user_sdma.c	qib_user_sdma.h
qib_user_sdma.c	rbtree.h
qib_user_sdma.c	slab.h
qib_user_sdma.c	spinlock.h
qib_user_sdma.c	types.h
qib_user_sdma.c	uio.h
qib_user_sdma.h	device.h
qib_verbs.c	ib_mad.h
qib_verbs.c	ib_user_verbs.h
qib_verbs.c	io.h
qib_verbs.c	mm.h
qib_verbs.c	module.h
qib_verbs.c	qib.h
qib_verbs.c	qib_common.h
qib_verbs.c	random.h
qib_verbs.c	rculist.h
qib_verbs.c	utsname.h
qib_verbs.h	completion.h
qib_verbs.h	ib_pack.h
qib_verbs.h	ib_user_verbs.h
qib_verbs.h	interrupt.h
qib_verbs.h	kernel.h
qib_verbs.h	kref.h
qib_verbs.h	spinlock.h
qib_verbs.h	types.h
qib_verbs.h	workqueue.h
qib_verbs_mcast.c	qib.h
qib_verbs_mcast.c	rculist.h
qib_wc_ppc64.c	qib.h
qib_wc_x86_64.c	mtrr.h
qib_wc_x86_64.c	pci.h
qib_wc_x86_64.c	processor.h
qib_wc_x86_64.c	qib.h
qp.c	iw_cxgb4.h
qp.c	iw_cxgb4.h
qp.c	module.h
qp.c	module.h
rapide.c	blkdev.h
rapide.c	ecard.h
rapide.c	errno.h
rapide.c	ide.h
rapide.c	init.h
rapide.c	module.h
resource.c	genalloc.h
resource.c	iw_cxgb4.h
resource.c	ratelimit.h
resource.c	spinlock.h
rz1000.c	ide.h
rz1000.c	init.h
rz1000.c	kernel.h
rz1000.c	module.h
rz1000.c	pci.h
rz1000.c	types.h
sc1200.c	ide.h
sc1200.c	init.h
sc1200.c	io.h
sc1200.c	kernel.h
sc1200.c	module.h
sc1200.c	pci.h
sc1200.c	pm.h
sc1200.c	slab.h
sc1200.c	types.h
scan.c	cistpl.h
scan.c	ds.h
scan.c	io.h
scan.c	pci.h
scan.c	ssb.h
scan.c	ssb_private.h
scan.c	ssb_regs.h
sdio.c	delay.h
sdio.c	etherdevice.h
sdio.c	io.h
sdio.c	sdio_func.h
sdio.c	ssb.h
sdio.c	ssb_private.h
serverworks.c	ide.h
serverworks.c	init.h
serverworks.c	io.h
serverworks.c	kernel.h
serverworks.c	module.h
serverworks.c	pci.h
serverworks.c	types.h
setup-pci.c	dma-mapping.h
setup-pci.c	export.h
setup-pci.c	ide.h
setup-pci.c	init.h
setup-pci.c	interrupt.h
setup-pci.c	io.h
setup-pci.c	kernel.h
setup-pci.c	pci.h
setup-pci.c	types.h
sgiioc4.c	blkdev.h
sgiioc4.c	delay.h
sgiioc4.c	ide.h
sgiioc4.c	init.h
sgiioc4.c	io.h
sgiioc4.c	ioc4.h
sgiioc4.c	ioport.h
sgiioc4.c	kernel.h
sgiioc4.c	module.h
sgiioc4.c	pci.h
sgiioc4.c	scatterlist.h
sgiioc4.c	types.h
siimage.c	ide.h
siimage.c	init.h
siimage.c	io.h
siimage.c	module.h
siimage.c	pci.h
siimage.c	types.h
sis5513.c	ide.h
sis5513.c	init.h
sis5513.c	kernel.h
sis5513.c	module.h
sis5513.c	pci.h
sis5513.c	types.h
sl82c105.c	ide.h
sl82c105.c	io.h
sl82c105.c	kernel.h
sl82c105.c	module.h
sl82c105.c	pci.h
sl82c105.c	types.h
sprom.c	ctype.h
sprom.c	slab.h
sprom.c	ssb_private.h
srq.c	mlx4_ib.h
srq.c	qp.h
srq.c	slab.h
srq.c	srq.h
srq.c	user.h
ssb_private.h	bcm47xx_wdt.h
ssb_private.h	ssb.h
ssb_private.h	types.h
sysfs.c	core_priv.h
sysfs.c	ib_mad.h
sysfs.c	mlx4_ib.h
sysfs.c	slab.h
sysfs.c	stat.h
sysfs.c	string.h
t4.h	t4_hw.h
t4.h	t4_msg.h
t4.h	t4_regs.h
t4.h	t4fw_ri_api.h
t4fw_ri_api.h	t4fw_api.h
tc86c001.c	ide.h
tc86c001.c	module.h
tc86c001.c	pci.h
tc86c001.c	types.h
triflex.c	ide.h
triflex.c	init.h
triflex.c	kernel.h
triflex.c	module.h
triflex.c	pci.h
triflex.c	types.h
trm290.c	blkdev.h
trm290.c	ide.h
trm290.c	init.h
trm290.c	interrupt.h
trm290.c	io.h
trm290.c	ioport.h
trm290.c	kernel.h
trm290.c	module.h
trm290.c	pci.h
trm290.c	types.h
tx4938ide.c	ide.h
tx4938ide.c	ide.h
tx4938ide.c	init.h
tx4938ide.c	io.h
tx4938ide.c	module.h
tx4938ide.c	platform_device.h
tx4938ide.c	tx4938.h
tx4938ide.c	types.h
tx4939ide.c	delay.h
tx4939ide.c	ide.h
tx4939ide.c	ide.h
tx4939ide.c	init.h
tx4939ide.c	io.h
tx4939ide.c	module.h
tx4939ide.c	platform_device.h
tx4939ide.c	scatterlist.h
tx4939ide.c	types.h
umc8672.c	blkdev.h
umc8672.c	delay.h
umc8672.c	ide.h
umc8672.c	init.h
umc8672.c	io.h
umc8672.c	ioport.h
umc8672.c	kernel.h
umc8672.c	mm.h
umc8672.c	module.h
umc8672.c	timer.h
umc8672.c	types.h
