3780i.c	3780i.h
3780i.c	bitops.h
3780i.c	delay.h
3780i.c	init.h
3780i.c	io.h
3780i.c	ioport.h
3780i.c	irq.h
3780i.c	kernel.h
3780i.c	mwavedd.h
3780i.c	sched.h
3780i.c	smapi.h
3780i.c	uaccess.h
3780i.c	unistd.h
3780i.h	io.h
agp.h	agp.h
ak4xxx.c	core.h
ak4xxx.c	delay.h
ak4xxx.c	ice1712.h
ak4xxx.c	init.h
ak4xxx.c	initval.h
ak4xxx.c	interrupt.h
ak4xxx.c	io.h
ak4xxx.c	module.h
ak4xxx.c	slab.h
ali-agp.c	agp.h
ali-agp.c	agp_backend.h
ali-agp.c	init.h
ali-agp.c	module.h
ali-agp.c	page.h
ali-agp.c	pci.h
ali-agp.c	types.h
alpha-agp.c	agp.h
alpha-agp.c	agp_backend.h
alpha-agp.c	agp_backend.h
alpha-agp.c	init.h
alpha-agp.c	machvec.h
alpha-agp.c	mm.h
alpha-agp.c	module.h
alpha-agp.c	pci.h
alpha-agp.c	pci_impl.h
alpha-agp.c	slab.h
amd-k7-agp.c	agp.h
amd-k7-agp.c	agp_backend.h
amd-k7-agp.c	init.h
amd-k7-agp.c	mm.h
amd-k7-agp.c	module.h
amd-k7-agp.c	page-flags.h
amd-k7-agp.c	pci.h
amd-k7-agp.c	slab.h
amd-rng.c	delay.h
amd-rng.c	hw_random.h
amd-rng.c	io.h
amd-rng.c	kernel.h
amd-rng.c	module.h
amd-rng.c	pci.h
amd64-agp.c	agp.h
amd64-agp.c	agp_backend.h
amd64-agp.c	amd_nb.h
amd64-agp.c	e820.h
amd64-agp.c	gart.h
amd64-agp.c	init.h
amd64-agp.c	mmzone.h
amd64-agp.c	module.h
amd64-agp.c	page.h
amd64-agp.c	pci.h
amp.c	amp.h
amp.c	core.h
amp.c	delay.h
amp.c	envy24ht.h
amp.c	ice1712.h
amp.c	init.h
amp.c	interrupt.h
apm-emulation.c	apm-emulation.h
apm-emulation.c	apm_bios.h
apm-emulation.c	capability.h
apm-emulation.c	completion.h
apm-emulation.c	delay.h
apm-emulation.c	device.h
apm-emulation.c	freezer.h
apm-emulation.c	init.h
apm-emulation.c	kernel.h
apm-emulation.c	kthread.h
apm-emulation.c	list.h
apm-emulation.c	miscdevice.h
apm-emulation.c	module.h
apm-emulation.c	mutex.h
apm-emulation.c	poll.h
apm-emulation.c	proc_fs.h
apm-emulation.c	sched.h
apm-emulation.c	seq_file.h
apm-emulation.c	slab.h
apm-emulation.c	suspend.h
applicom.c	applicom.h
applicom.c	errno.h
applicom.c	fs.h
applicom.c	init.h
applicom.c	interrupt.h
applicom.c	io.h
applicom.c	kernel.h
applicom.c	miscdevice.h
applicom.c	module.h
applicom.c	mutex.h
applicom.c	pci.h
applicom.c	sched.h
applicom.c	slab.h
applicom.c	uaccess.h
applicom.c	wait.h
ati-agp.c	agp.h
ati-agp.c	agp.h
ati-agp.c	agp_backend.h
ati-agp.c	init.h
ati-agp.c	module.h
ati-agp.c	pci.h
ati-agp.c	slab.h
ati-agp.c	string.h
ati-agp.c	types.h
atiixp.c	ac97_codec.h
atiixp.c	core.h
atiixp.c	delay.h
atiixp.c	info.h
atiixp.c	init.h
atiixp.c	initval.h
atiixp.c	interrupt.h
atiixp.c	io.h
atiixp.c	module.h
atiixp.c	mutex.h
atiixp.c	pci.h
atiixp.c	pcm.h
atiixp.c	pcm_params.h
atiixp.c	slab.h
atmel-rng.c	clk.h
atmel-rng.c	err.h
atmel-rng.c	hw_random.h
atmel-rng.c	io.h
atmel-rng.c	kernel.h
atmel-rng.c	module.h
atmel-rng.c	platform_device.h
atmel-rng.c	slab.h
aureon.c	aureon.h
aureon.c	core.h
aureon.c	delay.h
aureon.c	envy24ht.h
aureon.c	ice1712.h
aureon.c	init.h
aureon.c	interrupt.h
aureon.c	mutex.h
aureon.c	slab.h
aureon.c	tlv.h
backend.c	agp.h
backend.c	agp_backend.h
backend.c	agpgart.h
backend.c	init.h
backend.c	io.h
backend.c	miscdevice.h
backend.c	module.h
backend.c	pagemap.h
backend.c	pci.h
backend.c	pm.h
backend.c	slab.h
backend.c	vmalloc.h
bcm63xx-rng.c	bcm63xx_io.h
bcm63xx-rng.c	bcm63xx_regs.h
bcm63xx-rng.c	clk.h
bcm63xx-rng.c	err.h
bcm63xx-rng.c	hw_random.h
bcm63xx-rng.c	io.h
bcm63xx-rng.c	module.h
bcm63xx-rng.c	platform_device.h
bcm63xx-rng.c	slab.h
bfin-otp.c	bfrom.h
bfin-otp.c	blackfin.h
bfin-otp.c	device.h
bfin-otp.c	errno.h
bfin-otp.c	fs.h
bfin-otp.c	init.h
bfin-otp.c	miscdevice.h
bfin-otp.c	module.h
bfin-otp.c	mtd-abi.h
bfin-otp.c	mutex.h
bfin-otp.c	types.h
bfin-otp.c	uaccess.h
bfusb.c	bluetooth.h
bfusb.c	device.h
bfusb.c	errno.h
bfusb.c	firmware.h
bfusb.c	hci_core.h
bfusb.c	init.h
bfusb.c	kernel.h
bfusb.c	module.h
bfusb.c	skbuff.h
bfusb.c	slab.h
bfusb.c	types.h
bfusb.c	usb.h
bsr.c	cdev.h
bsr.c	fs.h
bsr.c	io.h
bsr.c	kernel.h
bsr.c	list.h
bsr.c	mm.h
bsr.c	module.h
bsr.c	of.h
bsr.c	of_device.h
bsr.c	of_platform.h
bsr.c	pgtable.h
bsr.c	slab.h
buffer_icap.c	buffer_icap.h
buffer_icap.h	cdev.h
buffer_icap.h	io.h
buffer_icap.h	platform_device.h
buffer_icap.h	types.h
buffer_icap.h	xilinx_hwicap.h
cm4000_cs.c	bitrev.h
cm4000_cs.c	ciscode.h
cm4000_cs.c	cisreg.h
cm4000_cs.c	cistpl.h
cm4000_cs.c	cm4000_cs.h
cm4000_cs.c	delay.h
cm4000_cs.c	ds.h
cm4000_cs.c	fs.h
cm4000_cs.c	init.h
cm4000_cs.c	io.h
cm4000_cs.c	kernel.h
cm4000_cs.c	module.h
cm4000_cs.c	mutex.h
cm4000_cs.c	slab.h
cm4000_cs.c	uaccess.h
cm4040_cs.c	ciscode.h
cm4040_cs.c	cisreg.h
cm4040_cs.c	cistpl.h
cm4040_cs.c	cm4040_cs.h
cm4040_cs.c	delay.h
cm4040_cs.c	ds.h
cm4040_cs.c	fs.h
cm4040_cs.c	init.h
cm4040_cs.c	io.h
cm4040_cs.c	kernel.h
cm4040_cs.c	module.h
cm4040_cs.c	mutex.h
cm4040_cs.c	poll.h
cm4040_cs.c	slab.h
cm4040_cs.c	uaccess.h
cm4040_cs.c	wait.h
compat_ioctl.c	agp.h
compat_ioctl.c	agpgart.h
compat_ioctl.c	compat_ioctl.h
compat_ioctl.c	fs.h
compat_ioctl.c	kernel.h
compat_ioctl.c	pci.h
compat_ioctl.c	slab.h
compat_ioctl.c	uaccess.h
compat_ioctl.h	agpgart.h
compat_ioctl.h	compat.h
core-card.c	atomic.h
core-card.c	bug.h
core-card.c	byteorder.h
core-card.c	completion.h
core-card.c	core.h
core-card.c	crc-itu-t.h
core-card.c	device.h
core-card.c	errno.h
core-card.c	firewire-constants.h
core-card.c	firewire.h
core-card.c	jiffies.h
core-card.c	kernel.h
core-card.c	kref.h
core-card.c	list.h
core-card.c	module.h
core-card.c	mutex.h
core-card.c	spinlock.h
core-card.c	workqueue.h
core-cdev.c	bug.h
core-cdev.c	compat.h
core-cdev.c	core.h
core-cdev.c	delay.h
core-cdev.c	device.h
core-cdev.c	dma-mapping.h
core-cdev.c	errno.h
core-cdev.c	firewire-cdev.h
core-cdev.c	firewire.h
core-cdev.c	idr.h
core-cdev.c	irqflags.h
core-cdev.c	jiffies.h
core-cdev.c	kernel.h
core-cdev.c	kref.h
core-cdev.c	mm.h
core-cdev.c	module.h
core-cdev.c	mutex.h
core-cdev.c	poll.h
core-cdev.c	sched.h
core-cdev.c	slab.h
core-cdev.c	spinlock.h
core-cdev.c	string.h
core-cdev.c	time.h
core-cdev.c	uaccess.h
core-cdev.c	vmalloc.h
core-cdev.c	wait.h
core-cdev.c	workqueue.h
core-device.c	atomic.h
core-device.c	bug.h
core-device.c	byteorder.h
core-device.c	core.h
core-device.c	ctype.h
core-device.c	delay.h
core-device.c	device.h
core-device.c	errno.h
core-device.c	firewire-constants.h
core-device.c	firewire.h
core-device.c	idr.h
core-device.c	jiffies.h
core-device.c	kobject.h
core-device.c	list.h
core-device.c	mod_devicetable.h
core-device.c	module.h
core-device.c	mutex.h
core-device.c	random.h
core-device.c	rwsem.h
core-device.c	slab.h
core-device.c	spinlock.h
core-device.c	string.h
core-device.c	workqueue.h
core-iso.c	byteorder.h
core-iso.c	core.h
core-iso.c	dma-mapping.h
core-iso.c	errno.h
core-iso.c	export.h
core-iso.c	firewire-constants.h
core-iso.c	firewire.h
core-iso.c	kernel.h
core-iso.c	mm.h
core-iso.c	slab.h
core-iso.c	spinlock.h
core-iso.c	vmalloc.h
core-topology.c	atomic.h
core-topology.c	bug.h
core-topology.c	byteorder.h
core-topology.c	core.h
core-topology.c	errno.h
core-topology.c	firewire-constants.h
core-topology.c	firewire.h
core-topology.c	jiffies.h
core-topology.c	kernel.h
core-topology.c	list.h
core-topology.c	module.h
core-topology.c	slab.h
core-topology.c	spinlock.h
core-transaction.c	bug.h
core-transaction.c	byteorder.h
core-transaction.c	completion.h
core-transaction.c	core.h
core-transaction.c	device.h
core-transaction.c	errno.h
core-transaction.c	firewire-constants.h
core-transaction.c	firewire.h
core-transaction.c	fs.h
core-transaction.c	idr.h
core-transaction.c	init.h
core-transaction.c	jiffies.h
core-transaction.c	kernel.h
core-transaction.c	list.h
core-transaction.c	module.h
core-transaction.c	rculist.h
core-transaction.c	slab.h
core-transaction.c	spinlock.h
core-transaction.c	string.h
core-transaction.c	timer.h
core-transaction.c	types.h
core-transaction.c	workqueue.h
core.c	delay.h
core.c	delay.h
core.c	device.h
core.c	device.h
core.c	fs.h
core.c	fs.h
core.c	hw_random.h
core.c	hw_random.h
core.c	init.h
core.c	init.h
core.c	kernel.h
core.c	kernel.h
core.c	miscdevice.h
core.c	miscdevice.h
core.c	module.h
core.c	module.h
core.c	sched.h
core.c	sched.h
core.c	uaccess.h
core.c	uaccess.h
core.h	machine.h
core.h	machine.h
core.h	mutex.h
core.h	mutex.h
core.h	pinconf.h
core.h	pinconf.h
core.h	radix-tree.h
core.h	radix-tree.h
darla20.c	asoundef.h
darla20.c	atomic.h
darla20.c	control.h
darla20.c	core.h
darla20.c	darla20_dsp.c
darla20.c	delay.h
darla20.c	echoaudio.c
darla20.c	echoaudio.h
darla20.c	echoaudio_dsp.c
darla20.c	firmware.h
darla20.c	info.h
darla20.c	init.h
darla20.c	initval.h
darla20.c	interrupt.h
darla20.c	io.h
darla20.c	module.h
darla20.c	pci.h
darla20.c	pcm.h
darla20.c	pcm_params.h
darla20.c	slab.h
darla20.c	tlv.h
darla24.c	asoundef.h
darla24.c	atomic.h
darla24.c	control.h
darla24.c	core.h
darla24.c	darla24_dsp.c
darla24.c	delay.h
darla24.c	echoaudio.c
darla24.c	echoaudio.h
darla24.c	echoaudio_dsp.c
darla24.c	firmware.h
darla24.c	info.h
darla24.c	init.h
darla24.c	initval.h
darla24.c	interrupt.h
darla24.c	io.h
darla24.c	module.h
darla24.c	pci.h
darla24.c	pcm.h
darla24.c	pcm_params.h
darla24.c	slab.h
darla24.c	tlv.h
delta.c	asoundef.h
delta.c	core.h
delta.c	cs8403.h
delta.c	cs8427.h
delta.c	delay.h
delta.c	delta.h
delta.c	ice1712.h
delta.c	init.h
delta.c	interrupt.h
delta.c	mutex.h
delta.c	slab.h
devicetree.c	core.h
devicetree.c	device.h
devicetree.c	devicetree.h
devicetree.c	of.h
devicetree.c	pinctrl.h
devicetree.c	slab.h
ds1302.c	bcd.h
ds1302.c	delay.h
ds1302.c	fs.h
ds1302.c	init.h
ds1302.c	io.h
ds1302.c	m32r.h
ds1302.c	miscdevice.h
ds1302.c	mm.h
ds1302.c	module.h
ds1302.c	mutex.h
ds1302.c	rtc.h
ds1302.c	uaccess.h
ds1620.c	capability.h
ds1620.c	delay.h
ds1620.c	hardware.h
ds1620.c	init.h
ds1620.c	mach-types.h
ds1620.c	miscdevice.h
ds1620.c	module.h
ds1620.c	mutex.h
ds1620.c	proc_fs.h
ds1620.c	therm.h
ds1620.c	uaccess.h
dsp56k.c	atarihw.h
dsp56k.c	delay.h
dsp56k.c	device.h
dsp56k.c	dsp56k.h
dsp56k.c	errno.h
dsp56k.c	firmware.h
dsp56k.c	fs.h
dsp56k.c	init.h
dsp56k.c	major.h
dsp56k.c	mm.h
dsp56k.c	module.h
dsp56k.c	mutex.h
dsp56k.c	platform_device.h
dsp56k.c	traps.h
dsp56k.c	types.h
dsp56k.c	uaccess.h
dtlk.c	delay.h
dtlk.c	dtlk.h
dtlk.c	errno.h
dtlk.c	fs.h
dtlk.c	init.h
dtlk.c	io.h
dtlk.c	ioport.h
dtlk.c	mm.h
dtlk.c	module.h
dtlk.c	mutex.h
dtlk.c	poll.h
dtlk.c	sched.h
dtlk.c	types.h
dtlk.c	uaccess.h
dtlk.c	wait.h
echo3g.c	asoundef.h
echo3g.c	atomic.h
echo3g.c	control.h
echo3g.c	core.h
echo3g.c	delay.h
echo3g.c	echo3g_dsp.c
echo3g.c	echoaudio.c
echo3g.c	echoaudio.h
echo3g.c	echoaudio_3g.c
echo3g.c	echoaudio_dsp.c
echo3g.c	firmware.h
echo3g.c	info.h
echo3g.c	init.h
echo3g.c	initval.h
echo3g.c	interrupt.h
echo3g.c	io.h
echo3g.c	midi.c
echo3g.c	module.h
echo3g.c	pci.h
echo3g.c	pcm.h
echo3g.c	pcm_params.h
echo3g.c	rawmidi.h
echo3g.c	slab.h
echo3g.c	tlv.h
echo3g_dsp.c	interrupt.h
echoaudio.c	module.h
echoaudio.h	echoaudio_dsp.h
efficeon-agp.c	agp.h
efficeon-agp.c	agp_backend.h
efficeon-agp.c	gfp.h
efficeon-agp.c	init.h
efficeon-agp.c	intel-agp.h
efficeon-agp.c	mm.h
efficeon-agp.c	module.h
efficeon-agp.c	page-flags.h
efficeon-agp.c	pci.h
efirtc.c	efi.h
efirtc.c	errno.h
efirtc.c	init.h
efirtc.c	miscdevice.h
efirtc.c	module.h
efirtc.c	proc_fs.h
efirtc.c	rtc.h
efirtc.c	types.h
efirtc.c	uaccess.h
envy24ht.h	ac97_codec.h
envy24ht.h	control.h
envy24ht.h	i2c.h
envy24ht.h	ice1712.h
envy24ht.h	pcm.h
envy24ht.h	rawmidi.h
es1968.c	ac97_codec.h
es1968.c	core.h
es1968.c	delay.h
es1968.c	dma-mapping.h
es1968.c	gameport.h
es1968.c	init.h
es1968.c	initval.h
es1968.c	input.h
es1968.c	interrupt.h
es1968.c	io.h
es1968.c	module.h
es1968.c	mpu401.h
es1968.c	mutex.h
es1968.c	pci.h
es1968.c	pcm.h
es1968.c	slab.h
es1968.c	tea575x-tuner.h
ews.c	asoundef.h
ews.c	core.h
ews.c	cs8403.h
ews.c	cs8427.h
ews.c	delay.h
ews.c	ews.h
ews.c	ice1712.h
ews.c	init.h
ews.c	interrupt.h
ews.c	slab.h
exynos-rng.c	clk.h
exynos-rng.c	err.h
exynos-rng.c	hw_random.h
exynos-rng.c	init.h
exynos-rng.c	io.h
exynos-rng.c	kernel.h
exynos-rng.c	module.h
exynos-rng.c	platform_device.h
exynos-rng.c	pm_runtime.h
fifo_icap.c	fifo_icap.h
fifo_icap.h	cdev.h
fifo_icap.h	io.h
fifo_icap.h	platform_device.h
fifo_icap.h	types.h
fifo_icap.h	xilinx_hwicap.h
frontend.c	agp.h
frontend.c	agp_backend.h
frontend.c	agpgart.h
frontend.c	fs.h
frontend.c	init.h
frontend.c	kernel.h
frontend.c	miscdevice.h
frontend.c	mm.h
frontend.c	mman.h
frontend.c	module.h
frontend.c	pci.h
frontend.c	pgtable.h
frontend.c	sched.h
frontend.c	slab.h
frontend.c	types.h
frontend.c	uaccess.h
generic.c	agp.h
generic.c	agp_backend.h
generic.c	cacheflush.h
generic.c	dma-mapping.h
generic.c	init.h
generic.c	io.h
generic.c	miscdevice.h
generic.c	mm.h
generic.c	module.h
generic.c	pagemap.h
generic.c	pci.h
generic.c	pgtable.h
generic.c	pm.h
generic.c	sched.h
generic.c	slab.h
generic.c	vmalloc.h
generic_nvram.c	errno.h
generic_nvram.c	fcntl.h
generic_nvram.c	fs.h
generic_nvram.c	init.h
generic_nvram.c	machdep.h
generic_nvram.c	miscdevice.h
generic_nvram.c	module.h
generic_nvram.c	mutex.h
generic_nvram.c	nvram.h
generic_nvram.c	types.h
generic_nvram.c	uaccess.h
genrtc.c	errno.h
genrtc.c	fcntl.h
genrtc.c	init.h
genrtc.c	miscdevice.h
genrtc.c	module.h
genrtc.c	mutex.h
genrtc.c	poll.h
genrtc.c	proc_fs.h
genrtc.c	rtc.h
genrtc.c	rtc.h
genrtc.c	sched.h
genrtc.c	uaccess.h
genrtc.c	workqueue.h
geode-rng.c	delay.h
geode-rng.c	hw_random.h
geode-rng.c	io.h
geode-rng.c	kernel.h
geode-rng.c	module.h
geode-rng.c	pci.h
gina20.c	asoundef.h
gina20.c	atomic.h
gina20.c	control.h
gina20.c	core.h
gina20.c	delay.h
gina20.c	echoaudio.c
gina20.c	echoaudio.h
gina20.c	echoaudio_dsp.c
gina20.c	firmware.h
gina20.c	gina20_dsp.c
gina20.c	info.h
gina20.c	init.h
gina20.c	initval.h
gina20.c	interrupt.h
gina20.c	io.h
gina20.c	module.h
gina20.c	pci.h
gina20.c	pcm.h
gina20.c	pcm_params.h
gina20.c	slab.h
gina20.c	tlv.h
gina24.c	asoundef.h
gina24.c	atomic.h
gina24.c	control.h
gina24.c	core.h
gina24.c	delay.h
gina24.c	echoaudio.c
gina24.c	echoaudio.h
gina24.c	echoaudio_dsp.c
gina24.c	echoaudio_gml.c
gina24.c	firmware.h
gina24.c	gina24_dsp.c
gina24.c	info.h
gina24.c	init.h
gina24.c	initval.h
gina24.c	interrupt.h
gina24.c	io.h
gina24.c	module.h
gina24.c	pci.h
gina24.c	pcm.h
gina24.c	pcm_params.h
gina24.c	slab.h
gina24.c	tlv.h
hangcheck-timer.c	delay.h
hangcheck-timer.c	fs.h
hangcheck-timer.c	init.h
hangcheck-timer.c	kernel.h
hangcheck-timer.c	mm.h
hangcheck-timer.c	module.h
hangcheck-timer.c	moduleparam.h
hangcheck-timer.c	reboot.h
hangcheck-timer.c	sysrq.h
hangcheck-timer.c	time.h
hangcheck-timer.c	timer.h
hangcheck-timer.c	types.h
hangcheck-timer.c	uaccess.h
hci_ll.c	bluetooth.h
hci_ll.c	errno.h
hci_ll.c	fcntl.h
hci_ll.c	hci_core.h
hci_ll.c	hci_uart.h
hci_ll.c	init.h
hci_ll.c	interrupt.h
hci_ll.c	ioctl.h
hci_ll.c	kernel.h
hci_ll.c	module.h
hci_ll.c	poll.h
hci_ll.c	ptrace.h
hci_ll.c	sched.h
hci_ll.c	signal.h
hci_ll.c	skbuff.h
hci_ll.c	slab.h
hci_ll.c	string.h
hci_ll.c	tty.h
hci_ll.c	types.h
hda_beep.h	hda_codec.h
hda_codec.c	asoundef.h
hda_codec.c	core.h
hda_codec.c	delay.h
hda_codec.c	hda_beep.h
hda_codec.c	hda_codec.h
hda_codec.c	hda_hwdep.h
hda_codec.c	hda_jack.h
hda_codec.c	hda_local.h
hda_codec.c	hda_trace.h
hda_codec.c	init.h
hda_codec.c	initval.h
hda_codec.c	jack.h
hda_codec.c	mm.h
hda_codec.c	module.h
hda_codec.c	mutex.h
hda_codec.c	pci.h
hda_codec.c	slab.h
hda_codec.c	tlv.h
hda_eld.c	core.h
hda_eld.c	hda_codec.h
hda_eld.c	hda_local.h
hda_eld.c	init.h
hda_eld.c	slab.h
hda_eld.c	unaligned.h
hda_intel.c	cacheflush.h
hda_intel.c	clocksource.h
hda_intel.c	completion.h
hda_intel.c	core.h
hda_intel.c	delay.h
hda_intel.c	dma-mapping.h
hda_intel.c	firmware.h
hda_intel.c	hda_codec.h
hda_intel.c	hda_intel_trace.h
hda_intel.c	init.h
hda_intel.c	initval.h
hda_intel.c	interrupt.h
hda_intel.c	io.h
hda_intel.c	kernel.h
hda_intel.c	module.h
hda_intel.c	moduleparam.h
hda_intel.c	mutex.h
hda_intel.c	pci.h
hda_intel.c	pgtable.h
hda_intel.c	pm_runtime.h
hda_intel.c	reboot.h
hda_intel.c	slab.h
hda_intel.c	time.h
hda_intel.c	vga_switcheroo.h
hda_intel.c	vgaarb.h
hda_jack.c	control.h
hda_jack.c	core.h
hda_jack.c	export.h
hda_jack.c	hda_auto_parser.h
hda_jack.c	hda_codec.h
hda_jack.c	hda_jack.h
hda_jack.c	hda_local.h
hda_jack.c	init.h
hda_jack.c	jack.h
hda_jack.c	slab.h
hoontech.c	core.h
hoontech.c	delay.h
hoontech.c	hoontech.h
hoontech.c	ice1712.h
hoontech.c	init.h
hoontech.c	interrupt.h
hoontech.c	mutex.h
hoontech.c	slab.h
hp-agp.c	acpi-ext.h
hp-agp.c	acpi.h
hp-agp.c	agp.h
hp-agp.c	agp_backend.h
hp-agp.c	init.h
hp-agp.c	log2.h
hp-agp.c	module.h
hp-agp.c	pci.h
hp-agp.c	slab.h
hpet.c	acpi.h
hpet.c	acpi_bus.h
hpet.c	bcd.h
hpet.c	bitops.h
hpet.c	clocksource.h
hpet.c	compat.h
hpet.c	current.h
hpet.c	div64.h
hpet.c	fcntl.h
hpet.c	hpet.h
hpet.c	init.h
hpet.c	interrupt.h
hpet.c	io.h
hpet.c	ioport.h
hpet.c	irq.h
hpet.c	kernel.h
hpet.c	major.h
hpet.c	miscdevice.h
hpet.c	mm.h
hpet.c	module.h
hpet.c	poll.h
hpet.c	proc_fs.h
hpet.c	seq_file.h
hpet.c	slab.h
hpet.c	spinlock.h
hpet.c	sysctl.h
hpet.c	types.h
hpet.c	uaccess.h
hpet.c	wait.h
hsi.c	compiler.h
hsi.c	hsi.h
hsi.c	hsi_core.h
hsi.c	kobject.h
hsi.c	list.h
hsi.c	notifier.h
hsi.c	slab.h
hsi.c	string.h
hsi_boardinfo.c	hsi.h
hsi_boardinfo.c	hsi_core.h
hsi_boardinfo.c	list.h
hsi_boardinfo.c	slab.h
hsi_char.c	atomic.h
hsi_char.c	cdev.h
hsi_char.c	device.h
hsi_char.c	errno.h
hsi_char.c	fs.h
hsi_char.c	hsi.h
hsi_char.c	hsi_char.h
hsi_char.c	init.h
hsi_char.c	ioctl.h
hsi_char.c	kernel.h
hsi_char.c	kmemleak.h
hsi_char.c	list.h
hsi_char.c	module.h
hsi_char.c	mutex.h
hsi_char.c	scatterlist.h
hsi_char.c	sched.h
hsi_char.c	slab.h
hsi_char.c	stat.h
hsi_char.c	types.h
hsi_char.c	uaccess.h
hsi_char.c	wait.h
hsi_core.h	hsi.h
i460-agp.c	agp.h
i460-agp.c	agp_backend.h
i460-agp.c	init.h
i460-agp.c	log2.h
i460-agp.c	module.h
i460-agp.c	pci.h
i460-agp.c	slab.h
i460-agp.c	string.h
i8k.c	capability.h
i8k.c	dmi.h
i8k.c	hwmon-sysfs.h
i8k.c	hwmon.h
i8k.c	i8k.h
i8k.c	init.h
i8k.c	io.h
i8k.c	module.h
i8k.c	mutex.h
i8k.c	proc_fs.h
i8k.c	seq_file.h
i8k.c	types.h
i8k.c	uaccess.h
ice1712.c	asoundef.h
ice1712.c	core.h
ice1712.c	cs8427.h
ice1712.c	delay.h
ice1712.c	delta.h
ice1712.c	dma-mapping.h
ice1712.c	ews.h
ice1712.c	hoontech.h
ice1712.c	ice1712.h
ice1712.c	info.h
ice1712.c	init.h
ice1712.c	initval.h
ice1712.c	interrupt.h
ice1712.c	module.h
ice1712.c	mutex.h
ice1712.c	pci.h
ice1712.c	slab.h
ice1712.c	tlv.h
ice1712.h	ac97_codec.h
ice1712.h	ak4114.h
ice1712.h	ak4xxx-adda.h
ice1712.h	control.h
ice1712.h	i2c.h
ice1712.h	io.h
ice1712.h	mpu401.h
ice1712.h	pcm.h
ice1712.h	pt2258.h
ice1712.h	rawmidi.h
ice1724.c	amp.h
ice1724.c	asoundef.h
ice1724.c	aureon.h
ice1724.c	core.h
ice1724.c	delay.h
ice1724.c	envy24ht.h
ice1724.c	ice1712.h
ice1724.c	info.h
ice1724.c	init.h
ice1724.c	initval.h
ice1724.c	interrupt.h
ice1724.c	juli.h
ice1724.c	maya44.h
ice1724.c	module.h
ice1724.c	mutex.h
ice1724.c	pci.h
ice1724.c	phase.h
ice1724.c	pontis.h
ice1724.c	prodigy192.h
ice1724.c	prodigy_hifi.h
ice1724.c	psc724.h
ice1724.c	quartet.h
ice1724.c	rawmidi.h
ice1724.c	revo.h
ice1724.c	se.h
ice1724.c	slab.h
ice1724.c	vt1720_mobo.h
ice1724.c	wtm.h
indigo.c	asoundef.h
indigo.c	atomic.h
indigo.c	control.h
indigo.c	core.h
indigo.c	delay.h
indigo.c	echoaudio.c
indigo.c	echoaudio.h
indigo.c	echoaudio_dsp.c
indigo.c	firmware.h
indigo.c	indigo_dsp.c
indigo.c	info.h
indigo.c	init.h
indigo.c	initval.h
indigo.c	interrupt.h
indigo.c	io.h
indigo.c	module.h
indigo.c	pci.h
indigo.c	pcm.h
indigo.c	pcm_params.h
indigo.c	slab.h
indigo.c	tlv.h
indigodj.c	asoundef.h
indigodj.c	atomic.h
indigodj.c	control.h
indigodj.c	core.h
indigodj.c	delay.h
indigodj.c	echoaudio.c
indigodj.c	echoaudio.h
indigodj.c	echoaudio_dsp.c
indigodj.c	firmware.h
indigodj.c	indigodj_dsp.c
indigodj.c	info.h
indigodj.c	init.h
indigodj.c	initval.h
indigodj.c	interrupt.h
indigodj.c	io.h
indigodj.c	module.h
indigodj.c	pci.h
indigodj.c	pcm.h
indigodj.c	pcm_params.h
indigodj.c	slab.h
indigodj.c	tlv.h
indigodjx.c	asoundef.h
indigodjx.c	atomic.h
indigodjx.c	control.h
indigodjx.c	core.h
indigodjx.c	delay.h
indigodjx.c	echoaudio.c
indigodjx.c	echoaudio.h
indigodjx.c	echoaudio_dsp.c
indigodjx.c	firmware.h
indigodjx.c	indigo_express_dsp.c
indigodjx.c	indigodjx_dsp.c
indigodjx.c	info.h
indigodjx.c	init.h
indigodjx.c	initval.h
indigodjx.c	interrupt.h
indigodjx.c	io.h
indigodjx.c	module.h
indigodjx.c	pci.h
indigodjx.c	pcm.h
indigodjx.c	pcm_params.h
indigodjx.c	slab.h
indigodjx.c	tlv.h
indigoio.c	asoundef.h
indigoio.c	atomic.h
indigoio.c	control.h
indigoio.c	core.h
indigoio.c	delay.h
indigoio.c	echoaudio.c
indigoio.c	echoaudio.h
indigoio.c	echoaudio_dsp.c
indigoio.c	firmware.h
indigoio.c	indigoio_dsp.c
indigoio.c	info.h
indigoio.c	init.h
indigoio.c	initval.h
indigoio.c	interrupt.h
indigoio.c	io.h
indigoio.c	module.h
indigoio.c	pci.h
indigoio.c	pcm.h
indigoio.c	pcm_params.h
indigoio.c	slab.h
indigoio.c	tlv.h
indigoiox.c	asoundef.h
indigoiox.c	atomic.h
indigoiox.c	control.h
indigoiox.c	core.h
indigoiox.c	delay.h
indigoiox.c	echoaudio.c
indigoiox.c	echoaudio.h
indigoiox.c	echoaudio_dsp.c
indigoiox.c	firmware.h
indigoiox.c	indigo_express_dsp.c
indigoiox.c	indigoiox_dsp.c
indigoiox.c	info.h
indigoiox.c	init.h
indigoiox.c	initval.h
indigoiox.c	interrupt.h
indigoiox.c	io.h
indigoiox.c	module.h
indigoiox.c	pci.h
indigoiox.c	pcm.h
indigoiox.c	pcm_params.h
indigoiox.c	slab.h
indigoiox.c	tlv.h
init_ohci1394_dma.c	delay.h
init_ohci1394_dma.c	fixmap.h
init_ohci1394_dma.c	init_ohci1394_dma.h
init_ohci1394_dma.c	io.h
init_ohci1394_dma.c	kernel.h
init_ohci1394_dma.c	ohci.h
init_ohci1394_dma.c	pci-direct.h
init_ohci1394_dma.c	pci.h
init_ohci1394_dma.c	string.h
intel-agp.c	agp.h
intel-agp.c	agp_backend.h
intel-agp.c	init.h
intel-agp.c	intel-agp.h
intel-agp.c	intel-gtt.h
intel-agp.c	kernel.h
intel-agp.c	module.h
intel-agp.c	pagemap.h
intel-agp.c	pci.h
intel-agp.c	slab.h
intel-agp.c	smp.h
intel-gtt.c	agp.h
intel-gtt.c	agp_backend.h
intel-gtt.c	delay.h
intel-gtt.c	init.h
intel-gtt.c	intel-agp.h
intel-gtt.c	intel-gtt.h
intel-gtt.c	kernel.h
intel-gtt.c	module.h
intel-gtt.c	pagemap.h
intel-gtt.c	pci.h
intel-gtt.c	smp.h
intel-rng.c	delay.h
intel-rng.c	hw_random.h
intel-rng.c	io.h
intel-rng.c	kernel.h
intel-rng.c	module.h
intel-rng.c	pci.h
intel-rng.c	slab.h
intel-rng.c	stop_machine.h
intel8x0m.c	ac97_codec.h
intel8x0m.c	core.h
intel8x0m.c	delay.h
intel8x0m.c	info.h
intel8x0m.c	init.h
intel8x0m.c	initval.h
intel8x0m.c	interrupt.h
intel8x0m.c	io.h
intel8x0m.c	module.h
intel8x0m.c	pci.h
intel8x0m.c	pcm.h
intel8x0m.c	slab.h
ipmi_bt_sm.c	ipmi_msgdefs.h
ipmi_bt_sm.c	ipmi_si_sm.h
ipmi_bt_sm.c	kernel.h
ipmi_bt_sm.c	module.h
ipmi_bt_sm.c	moduleparam.h
ipmi_bt_sm.c	string.h
ipmi_devintf.c	compat.h
ipmi_devintf.c	device.h
ipmi_devintf.c	errno.h
ipmi_devintf.c	init.h
ipmi_devintf.c	ipmi.h
ipmi_devintf.c	module.h
ipmi_devintf.c	moduleparam.h
ipmi_devintf.c	mutex.h
ipmi_devintf.c	poll.h
ipmi_devintf.c	sched.h
ipmi_devintf.c	slab.h
ipmi_devintf.c	spinlock.h
ipmi_kcs_sm.c	ipmi_msgdefs.h
ipmi_kcs_sm.c	ipmi_si_sm.h
ipmi_kcs_sm.c	jiffies.h
ipmi_kcs_sm.c	kernel.h
ipmi_kcs_sm.c	module.h
ipmi_kcs_sm.c	moduleparam.h
ipmi_kcs_sm.c	string.h
ipmi_msghandler.c	errno.h
ipmi_msghandler.c	init.h
ipmi_msghandler.c	interrupt.h
ipmi_msghandler.c	ipmi.h
ipmi_msghandler.c	ipmi_smi.h
ipmi_msghandler.c	module.h
ipmi_msghandler.c	mutex.h
ipmi_msghandler.c	notifier.h
ipmi_msghandler.c	poll.h
ipmi_msghandler.c	proc_fs.h
ipmi_msghandler.c	rcupdate.h
ipmi_msghandler.c	sched.h
ipmi_msghandler.c	seq_file.h
ipmi_msghandler.c	slab.h
ipmi_msghandler.c	spinlock.h
ipmi_poweroff.c	completion.h
ipmi_poweroff.c	ipmi.h
ipmi_poweroff.c	ipmi_smi.h
ipmi_poweroff.c	kdev_t.h
ipmi_poweroff.c	module.h
ipmi_poweroff.c	moduleparam.h
ipmi_poweroff.c	pm.h
ipmi_poweroff.c	proc_fs.h
ipmi_poweroff.c	string.h
ipmi_poweroff.c	sysctl.h
ipmi_si_intf.c	acpi.h
ipmi_si_intf.c	ctype.h
ipmi_si_intf.c	delay.h
ipmi_si_intf.c	dmi.h
ipmi_si_intf.c	errno.h
ipmi_si_intf.c	init.h
ipmi_si_intf.c	interrupt.h
ipmi_si_intf.c	io.h
ipmi_si_intf.c	ioport.h
ipmi_si_intf.c	ipmi.h
ipmi_si_intf.c	ipmi_si_sm.h
ipmi_si_intf.c	ipmi_smi.h
ipmi_si_intf.c	irq.h
ipmi_si_intf.c	kthread.h
ipmi_si_intf.c	list.h
ipmi_si_intf.c	module.h
ipmi_si_intf.c	moduleparam.h
ipmi_si_intf.c	mutex.h
ipmi_si_intf.c	notifier.h
ipmi_si_intf.c	of_address.h
ipmi_si_intf.c	of_device.h
ipmi_si_intf.c	of_irq.h
ipmi_si_intf.c	of_platform.h
ipmi_si_intf.c	pci.h
ipmi_si_intf.c	pnp.h
ipmi_si_intf.c	rcupdate.h
ipmi_si_intf.c	sched.h
ipmi_si_intf.c	seq_file.h
ipmi_si_intf.c	slab.h
ipmi_si_intf.c	spinlock.h
ipmi_si_intf.c	string.h
ipmi_si_intf.c	timer.h
ipmi_smic_sm.c	ipmi_msgdefs.h
ipmi_smic_sm.c	ipmi_si_sm.h
ipmi_smic_sm.c	kernel.h
ipmi_smic_sm.c	module.h
ipmi_smic_sm.c	moduleparam.h
ipmi_smic_sm.c	string.h
ipmi_watchdog.c	atomic.h
ipmi_watchdog.c	completion.h
ipmi_watchdog.c	ctype.h
ipmi_watchdog.c	delay.h
ipmi_watchdog.c	errno.h
ipmi_watchdog.c	init.h
ipmi_watchdog.c	ipmi.h
ipmi_watchdog.c	ipmi_smi.h
ipmi_watchdog.c	kdebug.h
ipmi_watchdog.c	kdebug.h
ipmi_watchdog.c	miscdevice.h
ipmi_watchdog.c	module.h
ipmi_watchdog.c	moduleparam.h
ipmi_watchdog.c	mutex.h
ipmi_watchdog.c	nmi.h
ipmi_watchdog.c	nmi.h
ipmi_watchdog.c	notifier.h
ipmi_watchdog.c	poll.h
ipmi_watchdog.c	reboot.h
ipmi_watchdog.c	rwsem.h
ipmi_watchdog.c	string.h
ipmi_watchdog.c	uaccess.h
ipmi_watchdog.c	wait.h
ipmi_watchdog.c	watchdog.h
isoch.c	agp.h
isoch.c	agp_backend.h
isoch.c	list.h
isoch.c	module.h
isoch.c	pci.h
isoch.c	slab.h
ixp4xx-rng.c	bitops.h
ixp4xx-rng.c	hardware.h
ixp4xx-rng.c	hw_random.h
ixp4xx-rng.c	init.h
ixp4xx-rng.c	io.h
ixp4xx-rng.c	kernel.h
ixp4xx-rng.c	module.h
ixp4xx-rng.c	moduleparam.h
ixp4xx-rng.c	types.h
juli.c	core.h
juli.c	delay.h
juli.c	envy24ht.h
juli.c	ice1712.h
juli.c	init.h
juli.c	interrupt.h
juli.c	juli.h
juli.c	slab.h
juli.c	tlv.h
layla20.c	asoundef.h
layla20.c	atomic.h
layla20.c	control.h
layla20.c	core.h
layla20.c	delay.h
layla20.c	echoaudio.c
layla20.c	echoaudio.h
layla20.c	echoaudio_dsp.c
layla20.c	firmware.h
layla20.c	info.h
layla20.c	init.h
layla20.c	initval.h
layla20.c	interrupt.h
layla20.c	io.h
layla20.c	layla20_dsp.c
layla20.c	midi.c
layla20.c	module.h
layla20.c	pci.h
layla20.c	pcm.h
layla20.c	pcm_params.h
layla20.c	rawmidi.h
layla20.c	slab.h
layla20.c	tlv.h
layla24.c	asoundef.h
layla24.c	atomic.h
layla24.c	control.h
layla24.c	core.h
layla24.c	delay.h
layla24.c	echoaudio.c
layla24.c	echoaudio.h
layla24.c	echoaudio_dsp.c
layla24.c	echoaudio_gml.c
layla24.c	firmware.h
layla24.c	info.h
layla24.c	init.h
layla24.c	initval.h
layla24.c	interrupt.h
layla24.c	io.h
layla24.c	layla24_dsp.c
layla24.c	midi.c
layla24.c	module.h
layla24.c	pci.h
layla24.c	pcm.h
layla24.c	pcm_params.h
layla24.c	rawmidi.h
layla24.c	slab.h
layla24.c	tlv.h
lp.c	compat.h
lp.c	console.h
lp.c	delay.h
lp.c	device.h
lp.c	errno.h
lp.c	fcntl.h
lp.c	init.h
lp.c	irq.h
lp.c	jiffies.h
lp.c	kernel.h
lp.c	lp.h
lp.c	major.h
lp.c	module.h
lp.c	mutex.h
lp.c	parport.h
lp.c	poll.h
lp.c	sched.h
lp.c	slab.h
lp.c	uaccess.h
lp.c	wait.h
lx6464es.c	control.h
lx6464es.c	delay.h
lx6464es.c	info.h
lx6464es.c	init.h
lx6464es.c	initval.h
lx6464es.c	lx6464es.h
lx6464es.c	module.h
lx6464es.c	pci.h
lx6464es.c	slab.h
lx6464es.h	atomic.h
lx6464es.h	core.h
lx6464es.h	lx_core.h
lx6464es.h	pcm.h
lx6464es.h	spinlock.h
lx_core.c	delay.h
lx_core.c	lx6464es.h
lx_core.c	lx_core.h
lx_core.c	module.h
lx_core.c	pci.h
lx_core.h	interrupt.h
lx_core.h	lx_defs.h
maya44.c	control.h
maya44.c	core.h
maya44.c	envy24ht.h
maya44.c	ice1712.h
maya44.c	init.h
maya44.c	maya44.h
maya44.c	pcm.h
maya44.c	slab.h
maya44.c	tlv.h
mbcs.c	addrs.h
mbcs.c	delay.h
mbcs.c	device.h
mbcs.c	fs.h
mbcs.c	init.h
mbcs.c	interrupt.h
mbcs.c	intr.h
mbcs.c	io.h
mbcs.c	ioport.h
mbcs.c	kernel.h
mbcs.c	mbcs.h
mbcs.c	mm.h
mbcs.c	module.h
mbcs.c	moduleparam.h
mbcs.c	mutex.h
mbcs.c	notifier.h
mbcs.c	pgtable.h
mbcs.c	reboot.h
mbcs.c	slab.h
mbcs.c	tiocx.h
mbcs.c	types.h
mbcs.c	uaccess.h
mbcs.c	uio.h
mem.c	backing-dev.h
mem.c	bootmem.h
mem.c	capability.h
mem.c	crash_dump.h
mem.c	device.h
mem.c	export.h
mem.c	highmem.h
mem.c	init.h
mem.c	io.h
mem.c	miscdevice.h
mem.c	mm.h
mem.c	mman.h
mem.c	pfn.h
mem.c	ptrace.h
mem.c	random.h
mem.c	raw.h
mem.c	slab.h
mem.c	splice.h
mem.c	tty.h
mem.c	uaccess.h
mem.c	vmalloc.h
mia.c	asoundef.h
mia.c	atomic.h
mia.c	control.h
mia.c	core.h
mia.c	delay.h
mia.c	echoaudio.c
mia.c	echoaudio.h
mia.c	echoaudio_dsp.c
mia.c	firmware.h
mia.c	info.h
mia.c	init.h
mia.c	initval.h
mia.c	interrupt.h
mia.c	io.h
mia.c	mia_dsp.c
mia.c	midi.c
mia.c	module.h
mia.c	pci.h
mia.c	pcm.h
mia.c	pcm_params.h
mia.c	rawmidi.h
mia.c	slab.h
mia.c	tlv.h
misc.c	device.h
misc.c	errno.h
misc.c	fs.h
misc.c	gfp.h
misc.c	init.h
misc.c	kernel.h
misc.c	kmod.h
misc.c	major.h
misc.c	miscdevice.h
misc.c	module.h
misc.c	mutex.h
misc.c	proc_fs.h
misc.c	seq_file.h
misc.c	stat.h
misc.c	tty.h
mmtimer.c	addrs.h
mmtimer.c	errno.h
mmtimer.c	fs.h
mmtimer.c	init.h
mmtimer.c	interrupt.h
mmtimer.c	intr.h
mmtimer.c	ioctl.h
mmtimer.c	kernel.h
mmtimer.c	math64.h
mmtimer.c	miscdevice.h
mmtimer.c	mm.h
mmtimer.c	mmtimer.h
mmtimer.c	module.h
mmtimer.c	mutex.h
mmtimer.c	nodepda.h
mmtimer.c	posix-timers.h
mmtimer.c	shub_mmr.h
mmtimer.c	shubio.h
mmtimer.c	slab.h
mmtimer.c	time.h
mmtimer.c	types.h
mmtimer.c	uaccess.h
mona.c	asoundef.h
mona.c	atomic.h
mona.c	control.h
mona.c	core.h
mona.c	delay.h
mona.c	echoaudio.c
mona.c	echoaudio.h
mona.c	echoaudio_dsp.c
mona.c	echoaudio_gml.c
mona.c	firmware.h
mona.c	info.h
mona.c	init.h
mona.c	initval.h
mona.c	interrupt.h
mona.c	io.h
mona.c	module.h
mona.c	mona_dsp.c
mona.c	pci.h
mona.c	pcm.h
mona.c	pcm_params.h
mona.c	slab.h
mona.c	tlv.h
msm_smd_pkt.c	cdev.h
msm_smd_pkt.c	delay.h
msm_smd_pkt.c	device.h
msm_smd_pkt.c	fs.h
msm_smd_pkt.c	module.h
msm_smd_pkt.c	msm_smd.h
msm_smd_pkt.c	mutex.h
msm_smd_pkt.c	poll.h
msm_smd_pkt.c	sched.h
msm_smd_pkt.c	slab.h
msm_smd_pkt.c	uaccess.h
msm_smd_pkt.c	workqueue.h
mspec.c	addrs.h
mspec.c	arch.h
mspec.c	atomic.h
mspec.c	bte.h
mspec.c	errno.h
mspec.c	fs.h
mspec.c	init.h
mspec.c	io.h
mspec.c	kernel.h
mspec.c	miscdevice.h
mspec.c	mm.h
mspec.c	module.h
mspec.c	mspec.h
mspec.c	numa.h
mspec.c	page.h
mspec.c	pgtable.h
mspec.c	shubio.h
mspec.c	slab.h
mspec.c	sn_cpuid.h
mspec.c	spinlock.h
mspec.c	string.h
mspec.c	tlbflush.h
mspec.c	types.h
mspec.c	uncached.h
mspec.c	vmalloc.h
mwavedd.c	3780i.h
mwavedd.c	delay.h
mwavedd.c	device.h
mwavedd.c	fs.h
mwavedd.c	init.h
mwavedd.c	kernel.h
mwavedd.c	major.h
mwavedd.c	miscdevice.h
mwavedd.c	module.h
mwavedd.c	mutex.h
mwavedd.c	mwavedd.h
mwavedd.c	sched.h
mwavedd.c	serial.h
mwavedd.c	serial_8250.h
mwavedd.c	smapi.h
mwavedd.c	spinlock.h
mwavedd.c	tp3780i.h
mwavedd.h	3780i.h
mwavedd.h	ioctl.h
mwavedd.h	mwavepub.h
mwavedd.h	smapi.h
mwavedd.h	tp3780i.h
mwavedd.h	uaccess.h
mwavedd.h	wait.h
mwavepub.h	miscdevice.h
mxc-rnga.c	clk.h
mxc-rnga.c	delay.h
mxc-rnga.c	err.h
mxc-rnga.c	hw_random.h
mxc-rnga.c	init.h
mxc-rnga.c	io.h
mxc-rnga.c	ioport.h
mxc-rnga.c	kernel.h
mxc-rnga.c	module.h
mxc-rnga.c	platform_device.h
n2-drv.c	delay.h
n2-drv.c	hw_random.h
n2-drv.c	hypervisor.h
n2-drv.c	init.h
n2-drv.c	kernel.h
n2-drv.c	module.h
n2-drv.c	n2rng.h
n2-drv.c	of.h
n2-drv.c	of_device.h
n2-drv.c	preempt.h
n2-drv.c	slab.h
n2-drv.c	types.h
n2-drv.c	workqueue.h
net.c	arp.h
net.c	bug.h
net.c	compiler.h
net.c	delay.h
net.c	device.h
net.c	ethtool.h
net.c	firewire-constants.h
net.c	firewire.h
net.c	highmem.h
net.c	in.h
net.c	ip.h
net.c	jiffies.h
net.c	mod_devicetable.h
net.c	module.h
net.c	moduleparam.h
net.c	mutex.h
net.c	netdevice.h
net.c	skbuff.h
net.c	slab.h
net.c	spinlock.h
net.c	unaligned.h
nm256.c	ac97_codec.h
nm256.c	control.h
nm256.c	core.h
nm256.c	delay.h
nm256.c	info.h
nm256.c	init.h
nm256.c	initval.h
nm256.c	interrupt.h
nm256.c	io.h
nm256.c	module.h
nm256.c	mutex.h
nm256.c	nm256_coef.c
nm256.c	pci.h
nm256.c	pcm.h
nm256.c	slab.h
nomadik-rng.c	bus.h
nomadik-rng.c	clk.h
nomadik-rng.c	device.h
nomadik-rng.c	err.h
nomadik-rng.c	hw_random.h
nomadik-rng.c	init.h
nomadik-rng.c	io.h
nomadik-rng.c	kernel.h
nomadik-rng.c	module.h
nosy-user.h	ioctl.h
nosy-user.h	types.h
nosy.c	atomic.h
nosy.c	byteorder.h
nosy.c	device.h
nosy.c	dma-mapping.h
nosy.c	errno.h
nosy.c	fs.h
nosy.c	init.h
nosy.c	interrupt.h
nosy.c	io.h
nosy.c	kernel.h
nosy.c	kref.h
nosy.c	miscdevice.h
nosy.c	module.h
nosy.c	mutex.h
nosy.c	nosy-user.h
nosy.c	nosy.h
nosy.c	pci.h
nosy.c	poll.h
nosy.c	sched.h
nosy.c	slab.h
nosy.c	spinlock.h
nosy.c	timex.h
nosy.c	uaccess.h
nosy.c	wait.h
nsc_gpio.c	errno.h
nsc_gpio.c	fs.h
nsc_gpio.c	init.h
nsc_gpio.c	io.h
nsc_gpio.c	kernel.h
nsc_gpio.c	module.h
nsc_gpio.c	nsc_gpio.h
nsc_gpio.c	platform_device.h
nsc_gpio.c	uaccess.h
nvidia-agp.c	agp.h
nvidia-agp.c	agp_backend.h
nvidia-agp.c	init.h
nvidia-agp.c	jiffies.h
nvidia-agp.c	mm.h
nvidia-agp.c	module.h
nvidia-agp.c	page-flags.h
nvidia-agp.c	pci.h
nvram.c	atarihw.h
nvram.c	atariints.h
nvram.c	errno.h
nvram.c	fcntl.h
nvram.c	init.h
nvram.c	io.h
nvram.c	ioport.h
nvram.c	mc146818rtc.h
nvram.c	miscdevice.h
nvram.c	module.h
nvram.c	mutex.h
nvram.c	nvram.h
nvram.c	proc_fs.h
nvram.c	seq_file.h
nvram.c	spinlock.h
nvram.c	types.h
nvram.c	uaccess.h
nwbutton.c	errno.h
nwbutton.c	fs.h
nwbutton.c	init.h
nwbutton.c	interrupt.h
nwbutton.c	irq.h
nwbutton.c	kernel.h
nwbutton.c	mach-types.h
nwbutton.c	miscdevice.h
nwbutton.c	module.h
nwbutton.c	nwbutton.h
nwbutton.c	sched.h
nwbutton.c	string.h
nwbutton.c	time.h
nwbutton.c	timer.h
nwbutton.c	uaccess.h
nwflash.c	dec21285.h
nwflash.c	delay.h
nwflash.c	errno.h
nwflash.c	fs.h
nwflash.c	init.h
nwflash.c	io.h
nwflash.c	jiffies.h
nwflash.c	mach-types.h
nwflash.c	miscdevice.h
nwflash.c	mm.h
nwflash.c	module.h
nwflash.c	mutex.h
nwflash.c	nwflash.h
nwflash.c	proc_fs.h
nwflash.c	rwsem.h
nwflash.c	spinlock.h
nwflash.c	types.h
nwflash.c	uaccess.h
octeon-rng.c	cvmx-rnm-defs.h
octeon-rng.c	device.h
octeon-rng.c	gfp.h
octeon-rng.c	hw_random.h
octeon-rng.c	init.h
octeon-rng.c	io.h
octeon-rng.c	module.h
octeon-rng.c	octeon.h
octeon-rng.c	platform_device.h
ohci.c	bitops.h
ohci.c	bug.h
ohci.c	byteorder.h
ohci.c	compiler.h
ohci.c	core.h
ohci.c	delay.h
ohci.c	device.h
ohci.c	dma-mapping.h
ohci.c	firewire-constants.h
ohci.c	firewire.h
ohci.c	init.h
ohci.c	interrupt.h
ohci.c	io.h
ohci.c	kernel.h
ohci.c	list.h
ohci.c	mm.h
ohci.c	module.h
ohci.c	moduleparam.h
ohci.c	mutex.h
ohci.c	ohci.h
ohci.c	page.h
ohci.c	pci.h
ohci.c	pci_ids.h
ohci.c	pmac_feature.h
ohci.c	slab.h
ohci.c	spinlock.h
ohci.c	string.h
ohci.c	time.h
ohci.c	vmalloc.h
ohci.c	workqueue.h
omap-rng.c	delay.h
omap-rng.c	err.h
omap-rng.c	hw_random.h
omap-rng.c	init.h
omap-rng.c	io.h
omap-rng.c	module.h
omap-rng.c	platform_device.h
omap-rng.c	pm_runtime.h
omap-rng.c	random.h
omap-rng.c	slab.h
parisc-agp.c	agp.h
parisc-agp.c	agp_backend.h
parisc-agp.c	init.h
parisc-agp.c	klist.h
parisc-agp.c	log2.h
parisc-agp.c	module.h
parisc-agp.c	parisc-device.h
parisc-agp.c	pci.h
parisc-agp.c	ropes.h
parisc-agp.c	slab.h
pasemi-rng.c	delay.h
pasemi-rng.c	hw_random.h
pasemi-rng.c	io.h
pasemi-rng.c	kernel.h
pasemi-rng.c	module.h
pasemi-rng.c	of_platform.h
pasemi-rng.c	platform_device.h
patch_analog.c	core.h
patch_analog.c	delay.h
patch_analog.c	hda_auto_parser.h
patch_analog.c	hda_beep.h
patch_analog.c	hda_codec.h
patch_analog.c	hda_jack.h
patch_analog.c	hda_local.h
patch_analog.c	init.h
patch_analog.c	module.h
patch_analog.c	pci.h
patch_analog.c	slab.h
patch_ca0110.c	core.h
patch_ca0110.c	delay.h
patch_ca0110.c	hda_auto_parser.h
patch_ca0110.c	hda_codec.h
patch_ca0110.c	hda_local.h
patch_ca0110.c	init.h
patch_ca0110.c	module.h
patch_ca0110.c	pci.h
patch_ca0110.c	slab.h
patch_cirrus.c	core.h
patch_cirrus.c	delay.h
patch_cirrus.c	hda_auto_parser.h
patch_cirrus.c	hda_codec.h
patch_cirrus.c	hda_jack.h
patch_cirrus.c	hda_local.h
patch_cirrus.c	init.h
patch_cirrus.c	module.h
patch_cirrus.c	pci.h
patch_cirrus.c	slab.h
patch_cirrus.c	tlv.h
patch_si3054.c	core.h
patch_si3054.c	delay.h
patch_si3054.c	hda_codec.h
patch_si3054.c	hda_local.h
patch_si3054.c	init.h
patch_si3054.c	module.h
patch_si3054.c	slab.h
patch_via.c	asoundef.h
patch_via.c	core.h
patch_via.c	delay.h
patch_via.c	hda_auto_parser.h
patch_via.c	hda_codec.h
patch_via.c	hda_jack.h
patch_via.c	hda_local.h
patch_via.c	init.h
patch_via.c	module.h
patch_via.c	slab.h
pc8736x_gpio.c	cdev.h
pc8736x_gpio.c	errno.h
pc8736x_gpio.c	fs.h
pc8736x_gpio.c	init.h
pc8736x_gpio.c	io.h
pc8736x_gpio.c	ioport.h
pc8736x_gpio.c	kernel.h
pc8736x_gpio.c	module.h
pc8736x_gpio.c	mutex.h
pc8736x_gpio.c	nsc_gpio.h
pc8736x_gpio.c	platform_device.h
pc8736x_gpio.c	uaccess.h
phase.c	core.h
phase.c	delay.h
phase.c	envy24ht.h
phase.c	ice1712.h
phase.c	init.h
phase.c	interrupt.h
phase.c	mutex.h
phase.c	phase.h
phase.c	slab.h
phase.c	tlv.h
picoxcell-rng.c	clk.h
picoxcell-rng.c	delay.h
picoxcell-rng.c	err.h
picoxcell-rng.c	hw_random.h
picoxcell-rng.c	io.h
picoxcell-rng.c	kernel.h
picoxcell-rng.c	module.h
picoxcell-rng.c	platform_device.h
pinconf-generic.c	core.h
pinconf-generic.c	debugfs.h
pinconf-generic.c	device.h
pinconf-generic.c	init.h
pinconf-generic.c	kernel.h
pinconf-generic.c	pinconf-generic.h
pinconf-generic.c	pinconf.h
pinconf-generic.c	pinconf.h
pinconf-generic.c	pinctrl.h
pinconf-generic.c	seq_file.h
pinconf-generic.c	slab.h
pinconf.c	core.h
pinconf.c	debugfs.h
pinconf.c	device.h
pinconf.c	init.h
pinconf.c	kernel.h
pinconf.c	machine.h
pinconf.c	module.h
pinconf.c	pinconf.h
pinconf.c	pinconf.h
pinconf.c	pinctrl.h
pinconf.c	seq_file.h
pinconf.c	slab.h
pinctrl-armada-370.c	clk.h
pinctrl-armada-370.c	err.h
pinctrl-armada-370.c	init.h
pinctrl-armada-370.c	io.h
pinctrl-armada-370.c	module.h
pinctrl-armada-370.c	of.h
pinctrl-armada-370.c	of_device.h
pinctrl-armada-370.c	pinctrl-mvebu.h
pinctrl-armada-370.c	pinctrl.h
pinctrl-armada-370.c	platform_device.h
pinctrl-armada-xp.c	bitops.h
pinctrl-armada-xp.c	clk.h
pinctrl-armada-xp.c	err.h
pinctrl-armada-xp.c	init.h
pinctrl-armada-xp.c	io.h
pinctrl-armada-xp.c	module.h
pinctrl-armada-xp.c	of.h
pinctrl-armada-xp.c	of_device.h
pinctrl-armada-xp.c	pinctrl-mvebu.h
pinctrl-armada-xp.c	pinctrl.h
pinctrl-armada-xp.c	platform_device.h
pinctrl-at91.c	at91_pio.h
pinctrl-at91.c	clk.h
pinctrl-at91.c	consumer.h
pinctrl-at91.c	core.h
pinctrl-at91.c	err.h
pinctrl-at91.c	gpio.h
pinctrl-at91.c	hardware.h
pinctrl-at91.c	init.h
pinctrl-at91.c	interrupt.h
pinctrl-at91.c	io.h
pinctrl-at91.c	irq.h
pinctrl-at91.c	irq.h
pinctrl-at91.c	irqdomain.h
pinctrl-at91.c	machine.h
pinctrl-at91.c	module.h
pinctrl-at91.c	of.h
pinctrl-at91.c	of_address.h
pinctrl-at91.c	of_device.h
pinctrl-at91.c	of_irq.h
pinctrl-at91.c	pinconf.h
pinctrl-at91.c	pinctrl.h
pinctrl-at91.c	pinmux.h
pinctrl-at91.c	slab.h
pinctrl-bcm2835.c	bitmap.h
pinctrl-bcm2835.c	bug.h
pinctrl-bcm2835.c	consumer.h
pinctrl-bcm2835.c	delay.h
pinctrl-bcm2835.c	device.h
pinctrl-bcm2835.c	err.h
pinctrl-bcm2835.c	gpio.h
pinctrl-bcm2835.c	interrupt.h
pinctrl-bcm2835.c	io.h
pinctrl-bcm2835.c	irq.h
pinctrl-bcm2835.c	irqdesc.h
pinctrl-bcm2835.c	irqdomain.h
pinctrl-bcm2835.c	machine.h
pinctrl-bcm2835.c	module.h
pinctrl-bcm2835.c	of.h
pinctrl-bcm2835.c	of_address.h
pinctrl-bcm2835.c	of_irq.h
pinctrl-bcm2835.c	pinconf.h
pinctrl-bcm2835.c	pinctrl.h
pinctrl-bcm2835.c	pinmux.h
pinctrl-bcm2835.c	platform_device.h
pinctrl-bcm2835.c	seq_file.h
pinctrl-bcm2835.c	slab.h
pinctrl-bcm2835.c	spinlock.h
pinctrl-bcm2835.c	types.h
pinctrl-coh901.c	clk.h
pinctrl-coh901.c	consumer.h
pinctrl-coh901.c	delay.h
pinctrl-coh901.c	err.h
pinctrl-coh901.c	errno.h
pinctrl-coh901.c	gpio.h
pinctrl-coh901.c	interrupt.h
pinctrl-coh901.c	io.h
pinctrl-coh901.c	irq.h
pinctrl-coh901.c	irqdomain.h
pinctrl-coh901.c	list.h
pinctrl-coh901.c	module.h
pinctrl-coh901.c	pinconf-generic.h
pinctrl-coh901.c	pinctrl-coh901.h
pinctrl-coh901.c	pinctrl-coh901.h
pinctrl-coh901.c	platform_device.h
pinctrl-coh901.c	slab.h
pinctrl-dove.c	bitops.h
pinctrl-dove.c	clk.h
pinctrl-dove.c	err.h
pinctrl-dove.c	init.h
pinctrl-dove.c	io.h
pinctrl-dove.c	module.h
pinctrl-dove.c	of.h
pinctrl-dove.c	of_device.h
pinctrl-dove.c	pinctrl-mvebu.h
pinctrl-dove.c	pinctrl.h
pinctrl-dove.c	platform_device.h
pinctrl-exynos.c	device.h
pinctrl-exynos.c	err.h
pinctrl-exynos.c	interrupt.h
pinctrl-exynos.c	io.h
pinctrl-exynos.c	irq.h
pinctrl-exynos.c	irq.h
pinctrl-exynos.c	irqdomain.h
pinctrl-exynos.c	module.h
pinctrl-exynos.c	of_irq.h
pinctrl-exynos.c	pinctrl-exynos.h
pinctrl-exynos.c	pinctrl-samsung.h
pinctrl-exynos.c	slab.h
pinctrl-exynos5440.c	core.h
pinctrl-exynos5440.c	device.h
pinctrl-exynos5440.c	err.h
pinctrl-exynos5440.c	gpio.h
pinctrl-exynos5440.c	io.h
pinctrl-exynos5440.c	module.h
pinctrl-exynos5440.c	pinconf.h
pinctrl-exynos5440.c	pinctrl.h
pinctrl-exynos5440.c	pinmux.h
pinctrl-exynos5440.c	platform_device.h
pinctrl-exynos5440.c	slab.h
pinctrl-falcon.c	err.h
pinctrl-falcon.c	export.h
pinctrl-falcon.c	gpio.h
pinctrl-falcon.c	interrupt.h
pinctrl-falcon.c	lantiq_soc.h
pinctrl-falcon.c	module.h
pinctrl-falcon.c	of.h
pinctrl-falcon.c	of_address.h
pinctrl-falcon.c	of_gpio.h
pinctrl-falcon.c	of_platform.h
pinctrl-falcon.c	pinctrl-lantiq.h
pinctrl-falcon.c	platform_device.h
pinctrl-falcon.c	slab.h
pinctrl-imx.c	core.h
pinctrl-imx.c	err.h
pinctrl-imx.c	init.h
pinctrl-imx.c	io.h
pinctrl-imx.c	machine.h
pinctrl-imx.c	module.h
pinctrl-imx.c	of.h
pinctrl-imx.c	of_device.h
pinctrl-imx.c	pinconf.h
pinctrl-imx.c	pinctrl-imx.h
pinctrl-imx.c	pinctrl.h
pinctrl-imx.c	pinmux.h
pinctrl-imx.c	slab.h
pinctrl-imx23.c	init.h
pinctrl-imx23.c	module.h
pinctrl-imx23.c	of_device.h
pinctrl-imx23.c	pinctrl-mxs.h
pinctrl-imx23.c	pinctrl.h
pinctrl-imx28.c	init.h
pinctrl-imx28.c	module.h
pinctrl-imx28.c	of_device.h
pinctrl-imx28.c	pinctrl-mxs.h
pinctrl-imx28.c	pinctrl.h
pinctrl-imx35.c	err.h
pinctrl-imx35.c	init.h
pinctrl-imx35.c	io.h
pinctrl-imx35.c	module.h
pinctrl-imx35.c	of.h
pinctrl-imx35.c	of_device.h
pinctrl-imx35.c	pinctrl-imx.h
pinctrl-imx35.c	pinctrl.h
pinctrl-imx51.c	err.h
pinctrl-imx51.c	init.h
pinctrl-imx51.c	io.h
pinctrl-imx51.c	module.h
pinctrl-imx51.c	of.h
pinctrl-imx51.c	of_device.h
pinctrl-imx51.c	pinctrl-imx.h
pinctrl-imx51.c	pinctrl.h
pinctrl-imx53.c	err.h
pinctrl-imx53.c	init.h
pinctrl-imx53.c	io.h
pinctrl-imx53.c	module.h
pinctrl-imx53.c	of.h
pinctrl-imx53.c	of_device.h
pinctrl-imx53.c	pinctrl-imx.h
pinctrl-imx53.c	pinctrl.h
pinctrl-imx6q.c	err.h
pinctrl-imx6q.c	init.h
pinctrl-imx6q.c	io.h
pinctrl-imx6q.c	module.h
pinctrl-imx6q.c	of.h
pinctrl-imx6q.c	of_device.h
pinctrl-imx6q.c	pinctrl-imx.h
pinctrl-imx6q.c	pinctrl.h
pinctrl-kirkwood.c	clk.h
pinctrl-kirkwood.c	err.h
pinctrl-kirkwood.c	init.h
pinctrl-kirkwood.c	io.h
pinctrl-kirkwood.c	module.h
pinctrl-kirkwood.c	of.h
pinctrl-kirkwood.c	of_device.h
pinctrl-kirkwood.c	pinctrl-mvebu.h
pinctrl-kirkwood.c	pinctrl.h
pinctrl-kirkwood.c	platform_device.h
pinctrl-lantiq.c	device.h
pinctrl-lantiq.c	io.h
pinctrl-lantiq.c	module.h
pinctrl-lantiq.c	of.h
pinctrl-lantiq.c	pinctrl-lantiq.h
pinctrl-lantiq.c	platform_device.h
pinctrl-lantiq.c	slab.h
pinctrl-lantiq.h	clkdev.h
pinctrl-lantiq.h	consumer.h
pinctrl-lantiq.h	core.h
pinctrl-lantiq.h	machine.h
pinctrl-lantiq.h	pinconf.h
pinctrl-lantiq.h	pinctrl.h
pinctrl-lantiq.h	pinmux.h
pinctrl-mmp2.c	device.h
pinctrl-mmp2.c	io.h
pinctrl-mmp2.c	module.h
pinctrl-mmp2.c	pinctrl-pxa3xx.h
pinctrl-mmp2.c	platform_device.h
pinctrl-mvebu.c	err.h
pinctrl-mvebu.c	gpio.h
pinctrl-mvebu.c	io.h
pinctrl-mvebu.c	machine.h
pinctrl-mvebu.c	module.h
pinctrl-mvebu.c	of.h
pinctrl-mvebu.c	of_address.h
pinctrl-mvebu.c	of_platform.h
pinctrl-mvebu.c	pinconf.h
pinctrl-mvebu.c	pinctrl-mvebu.h
pinctrl-mvebu.c	pinctrl.h
pinctrl-mvebu.c	pinmux.h
pinctrl-mvebu.c	platform_device.h
pinctrl-mvebu.c	slab.h
pinctrl-mxs.c	core.h
pinctrl-mxs.c	err.h
pinctrl-mxs.c	init.h
pinctrl-mxs.c	io.h
pinctrl-mxs.c	machine.h
pinctrl-mxs.c	module.h
pinctrl-mxs.c	of.h
pinctrl-mxs.c	of_address.h
pinctrl-mxs.c	pinconf.h
pinctrl-mxs.c	pinctrl-mxs.h
pinctrl-mxs.c	pinctrl.h
pinctrl-mxs.c	pinmux.h
pinctrl-mxs.c	platform_device.h
pinctrl-mxs.c	slab.h
pinctrl-mxs.h	pinctrl.h
pinctrl-mxs.h	platform_device.h
pinctrl-nomadik-db8500.c	kernel.h
pinctrl-nomadik-db8500.c	pinctrl-nomadik.h
pinctrl-nomadik-db8500.c	pinctrl.h
pinctrl-nomadik-db8540.c	kernel.h
pinctrl-nomadik-db8540.c	pinctrl-nomadik.h
pinctrl-nomadik-db8540.c	pinctrl.h
pinctrl-nomadik-stn8815.c	kernel.h
pinctrl-nomadik-stn8815.c	pinctrl-nomadik.h
pinctrl-nomadik-stn8815.c	pinctrl.h
pinctrl-nomadik.c	clk.h
pinctrl-nomadik.c	consumer.h
pinctrl-nomadik.c	device.h
pinctrl-nomadik.c	err.h
pinctrl-nomadik.c	gpio.h
pinctrl-nomadik.c	init.h
pinctrl-nomadik.c	interrupt.h
pinctrl-nomadik.c	io.h
pinctrl-nomadik.c	irq.h
pinctrl-nomadik.c	irq.h
pinctrl-nomadik.c	irqdomain.h
pinctrl-nomadik.c	irqs.h
pinctrl-nomadik.c	kernel.h
pinctrl-nomadik.c	module.h
pinctrl-nomadik.c	of_device.h
pinctrl-nomadik.c	pinconf.h
pinctrl-nomadik.c	pinctrl-nomadik.h
pinctrl-nomadik.c	pinctrl-nomadik.h
pinctrl-nomadik.c	pinctrl.h
pinctrl-nomadik.c	pinmux.h
pinctrl-nomadik.c	platform_device.h
pinctrl-nomadik.c	seq_file.h
pinctrl-nomadik.c	slab.h
pinctrl-nomadik.c	spinlock.h
pinctrl-nomadik.h	pinctrl-nomadik.h
pinctrl-plgpio.c	clk.h
pinctrl-plgpio.c	consumer.h
pinctrl-plgpio.c	err.h
pinctrl-plgpio.c	gpio.h
pinctrl-plgpio.c	io.h
pinctrl-plgpio.c	irq.h
pinctrl-plgpio.c	irq.h
pinctrl-plgpio.c	irqdomain.h
pinctrl-plgpio.c	module.h
pinctrl-plgpio.c	platform_device.h
pinctrl-plgpio.c	pm.h
pinctrl-plgpio.c	spinlock.h
pinctrl-pxa168.c	device.h
pinctrl-pxa168.c	io.h
pinctrl-pxa168.c	module.h
pinctrl-pxa168.c	pinctrl-pxa3xx.h
pinctrl-pxa168.c	platform_device.h
pinctrl-pxa3xx.c	device.h
pinctrl-pxa3xx.c	io.h
pinctrl-pxa3xx.c	module.h
pinctrl-pxa3xx.c	pinctrl-pxa3xx.h
pinctrl-pxa3xx.c	platform_device.h
pinctrl-pxa3xx.c	slab.h
pinctrl-pxa3xx.h	pinctrl.h
pinctrl-pxa3xx.h	pinmux.h
pinctrl-pxa910.c	device.h
pinctrl-pxa910.c	io.h
pinctrl-pxa910.c	module.h
pinctrl-pxa910.c	pinctrl-pxa3xx.h
pinctrl-pxa910.c	platform_device.h
pinctrl-samsung.c	core.h
pinctrl-samsung.c	err.h
pinctrl-samsung.c	gpio.h
pinctrl-samsung.c	io.h
pinctrl-samsung.c	irqdomain.h
pinctrl-samsung.c	module.h
pinctrl-samsung.c	pinctrl-samsung.h
pinctrl-samsung.c	platform_device.h
pinctrl-samsung.c	slab.h
pinctrl-samsung.h	consumer.h
pinctrl-samsung.h	gpio.h
pinctrl-samsung.h	machine.h
pinctrl-samsung.h	pinconf.h
pinctrl-samsung.h	pinctrl.h
pinctrl-samsung.h	pinmux.h
pinctrl-single.c	core.h
pinctrl-single.c	err.h
pinctrl-single.c	init.h
pinctrl-single.c	io.h
pinctrl-single.c	list.h
pinctrl-single.c	module.h
pinctrl-single.c	of.h
pinctrl-single.c	of_address.h
pinctrl-single.c	of_device.h
pinctrl-single.c	pinctrl.h
pinctrl-single.c	pinmux.h
pinctrl-single.c	slab.h
pinctrl-sirf.c	bitops.h
pinctrl-sirf.c	consumer.h
pinctrl-sirf.c	err.h
pinctrl-sirf.c	gpio.h
pinctrl-sirf.c	init.h
pinctrl-sirf.c	io.h
pinctrl-sirf.c	irq.h
pinctrl-sirf.c	irq.h
pinctrl-sirf.c	irqdomain.h
pinctrl-sirf.c	machine.h
pinctrl-sirf.c	module.h
pinctrl-sirf.c	of.h
pinctrl-sirf.c	of_address.h
pinctrl-sirf.c	of_device.h
pinctrl-sirf.c	of_gpio.h
pinctrl-sirf.c	of_platform.h
pinctrl-sirf.c	pinctrl.h
pinctrl-sirf.c	pinmux.h
pinctrl-sirf.c	platform_device.h
pinctrl-sirf.c	slab.h
pinctrl-spear.c	err.h
pinctrl-spear.c	machine.h
pinctrl-spear.c	module.h
pinctrl-spear.c	of.h
pinctrl-spear.c	of_address.h
pinctrl-spear.c	of_gpio.h
pinctrl-spear.c	pinctrl-spear.h
pinctrl-spear.c	pinctrl.h
pinctrl-spear.c	pinmux.h
pinctrl-spear.c	platform_device.h
pinctrl-spear.c	slab.h
pinctrl-spear.h	gpio.h
pinctrl-spear.h	io.h
pinctrl-spear.h	pinctrl.h
pinctrl-spear.h	types.h
pinctrl-spear1310.c	err.h
pinctrl-spear1310.c	init.h
pinctrl-spear1310.c	module.h
pinctrl-spear1310.c	of_device.h
pinctrl-spear1310.c	pinctrl-spear.h
pinctrl-spear1310.c	platform_device.h
pinctrl-spear1340.c	err.h
pinctrl-spear1340.c	init.h
pinctrl-spear1340.c	module.h
pinctrl-spear1340.c	of_device.h
pinctrl-spear1340.c	pinctrl-spear.h
pinctrl-spear1340.c	platform_device.h
pinctrl-spear300.c	err.h
pinctrl-spear300.c	init.h
pinctrl-spear300.c	module.h
pinctrl-spear300.c	of_device.h
pinctrl-spear300.c	pinctrl-spear3xx.h
pinctrl-spear300.c	platform_device.h
pinctrl-spear310.c	err.h
pinctrl-spear310.c	init.h
pinctrl-spear310.c	module.h
pinctrl-spear310.c	of_device.h
pinctrl-spear310.c	pinctrl-spear3xx.h
pinctrl-spear310.c	platform_device.h
pinctrl-spear320.c	err.h
pinctrl-spear320.c	init.h
pinctrl-spear320.c	module.h
pinctrl-spear320.c	of_device.h
pinctrl-spear320.c	pinctrl-spear3xx.h
pinctrl-spear320.c	platform_device.h
pinctrl-spear3xx.c	pinctrl-spear3xx.h
pinctrl-spear3xx.c	pinctrl.h
pinctrl-spear3xx.h	pinctrl-spear.h
pinctrl-tegra.c	core.h
pinctrl-tegra.c	err.h
pinctrl-tegra.c	init.h
pinctrl-tegra.c	io.h
pinctrl-tegra.c	machine.h
pinctrl-tegra.c	module.h
pinctrl-tegra.c	of.h
pinctrl-tegra.c	pinconf.h
pinctrl-tegra.c	pinctrl-tegra.h
pinctrl-tegra.c	pinctrl.h
pinctrl-tegra.c	pinmux.h
pinctrl-tegra.c	platform_device.h
pinctrl-tegra.c	slab.h
pinctrl-tegra20.c	module.h
pinctrl-tegra20.c	of.h
pinctrl-tegra20.c	pinctrl-tegra.h
pinctrl-tegra20.c	pinctrl.h
pinctrl-tegra20.c	pinmux.h
pinctrl-tegra20.c	platform_device.h
pinctrl-tegra30.c	module.h
pinctrl-tegra30.c	of.h
pinctrl-tegra30.c	pinctrl-tegra.h
pinctrl-tegra30.c	pinctrl.h
pinctrl-tegra30.c	pinmux.h
pinctrl-tegra30.c	platform_device.h
pinctrl-u300.c	err.h
pinctrl-u300.c	init.h
pinctrl-u300.c	io.h
pinctrl-u300.c	module.h
pinctrl-u300.c	pinconf-generic.h
pinctrl-u300.c	pinconf.h
pinctrl-u300.c	pinctrl-coh901.h
pinctrl-u300.c	pinctrl.h
pinctrl-u300.c	pinmux.h
pinctrl-u300.c	platform_device.h
pinctrl-u300.c	slab.h
pinctrl-xway.c	device.h
pinctrl-xway.c	io.h
pinctrl-xway.c	ioport.h
pinctrl-xway.c	lantiq_soc.h
pinctrl-xway.c	module.h
pinctrl-xway.c	of_address.h
pinctrl-xway.c	of_gpio.h
pinctrl-xway.c	of_platform.h
pinctrl-xway.c	pinctrl-lantiq.h
pinctrl-xway.c	platform_device.h
pinctrl-xway.c	slab.h
pinmux.c	core.h
pinmux.c	debugfs.h
pinmux.c	device.h
pinmux.c	err.h
pinmux.c	init.h
pinmux.c	kernel.h
pinmux.c	list.h
pinmux.c	machine.h
pinmux.c	module.h
pinmux.c	pinmux.h
pinmux.c	pinmux.h
pinmux.c	radix-tree.h
pinmux.c	seq_file.h
pinmux.c	slab.h
pinmux.c	string.h
pinmux.c	sysfs.h
pontis.c	core.h
pontis.c	delay.h
pontis.c	envy24ht.h
pontis.c	ice1712.h
pontis.c	info.h
pontis.c	init.h
pontis.c	interrupt.h
pontis.c	mutex.h
pontis.c	pontis.h
pontis.c	slab.h
pontis.c	tlv.h
ppc4xx-rng.c	delay.h
ppc4xx-rng.c	hw_random.h
ppc4xx-rng.c	io.h
ppc4xx-rng.c	kernel.h
ppc4xx-rng.c	module.h
ppc4xx-rng.c	of_platform.h
ppc4xx-rng.c	platform_device.h
ppdev.c	ctype.h
ppdev.c	device.h
ppdev.c	init.h
ppdev.c	ioctl.h
ppdev.c	major.h
ppdev.c	module.h
ppdev.c	mutex.h
ppdev.c	parport.h
ppdev.c	poll.h
ppdev.c	ppdev.h
ppdev.c	sched.h
ppdev.c	slab.h
ppdev.c	uaccess.h
prodigy192.c	core.h
prodigy192.c	delay.h
prodigy192.c	envy24ht.h
prodigy192.c	ice1712.h
prodigy192.c	init.h
prodigy192.c	interrupt.h
prodigy192.c	prodigy192.h
prodigy192.c	slab.h
prodigy192.c	stac946x.h
prodigy192.c	tlv.h
prodigy_hifi.c	core.h
prodigy_hifi.c	delay.h
prodigy_hifi.c	envy24ht.h
prodigy_hifi.c	ice1712.h
prodigy_hifi.c	info.h
prodigy_hifi.c	init.h
prodigy_hifi.c	interrupt.h
prodigy_hifi.c	mutex.h
prodigy_hifi.c	prodigy_hifi.h
prodigy_hifi.c	slab.h
prodigy_hifi.c	tlv.h
ps3flash.c	fs.h
ps3flash.c	lv1call.h
ps3flash.c	miscdevice.h
ps3flash.c	module.h
ps3flash.c	ps3stor.h
ps3flash.c	slab.h
ps3flash.c	uaccess.h
psc724.c	core.h
psc724.c	delay.h
psc724.c	envy24ht.h
psc724.c	ice1712.h
psc724.c	init.h
psc724.c	psc724.h
psc724.c	slab.h
psc724.c	wm8766.h
psc724.c	wm8776.h
pseries-rng.c	hw_random.h
pseries-rng.c	module.h
pseries-rng.c	vio.h
quartet.c	ak4113.h
quartet.c	core.h
quartet.c	delay.h
quartet.c	envy24ht.h
quartet.c	ice1712.h
quartet.c	info.h
quartet.c	init.h
quartet.c	interrupt.h
quartet.c	quartet.h
quartet.c	slab.h
quartet.c	tlv.h
random.c	cryptohash.h
random.c	fcntl.h
random.c	fips.h
random.c	fs.h
random.c	genhd.h
random.c	init.h
random.c	interrupt.h
random.c	io.h
random.c	irq.h
random.c	irq_regs.h
random.c	kernel.h
random.c	kmemcheck.h
random.c	major.h
random.c	mm.h
random.c	module.h
random.c	percpu.h
random.c	poll.h
random.c	processor.h
random.c	ptrace.h
random.c	random.h
random.c	random.h
random.c	slab.h
random.c	spinlock.h
random.c	string.h
random.c	sysctl.h
random.c	uaccess.h
random.c	utsname.h
raw.c	blkdev.h
raw.c	capability.h
raw.c	cdev.h
raw.c	compat.h
raw.c	device.h
raw.c	fs.h
raw.c	gfp.h
raw.c	init.h
raw.c	major.h
raw.c	module.h
raw.c	mutex.h
raw.c	raw.h
raw.c	uaccess.h
raw.c	uio.h
raw.c	vmalloc.h
revo.c	core.h
revo.c	delay.h
revo.c	envy24ht.h
revo.c	ice1712.h
revo.c	init.h
revo.c	interrupt.h
revo.c	revo.h
revo.c	slab.h
rtc.c	bcd.h
rtc.c	current.h
rtc.c	delay.h
rtc.c	fcntl.h
rtc.c	hpet.h
rtc.c	init.h
rtc.c	interrupt.h
rtc.c	io.h
rtc.c	ioport.h
rtc.c	kernel.h
rtc.c	mc146818rtc.h
rtc.c	miscdevice.h
rtc.c	module.h
rtc.c	of.h
rtc.c	of_device.h
rtc.c	poll.h
rtc.c	proc_fs.h
rtc.c	ratelimit.h
rtc.c	sched.h
rtc.c	seq_file.h
rtc.c	spinlock.h
rtc.c	sysctl.h
rtc.c	types.h
rtc.c	uaccess.h
rtc.c	wait.h
sbp2.c	blkdev.h
sbp2.c	bug.h
sbp2.c	byteorder.h
sbp2.c	completion.h
sbp2.c	delay.h
sbp2.c	device.h
sbp2.c	dma-mapping.h
sbp2.c	firewire-constants.h
sbp2.c	firewire.h
sbp2.c	init.h
sbp2.c	jiffies.h
sbp2.c	kernel.h
sbp2.c	kref.h
sbp2.c	list.h
sbp2.c	mod_devicetable.h
sbp2.c	module.h
sbp2.c	moduleparam.h
sbp2.c	scatterlist.h
sbp2.c	scsi.h
sbp2.c	scsi_cmnd.h
sbp2.c	scsi_device.h
sbp2.c	scsi_host.h
sbp2.c	slab.h
sbp2.c	spinlock.h
sbp2.c	string.h
sbp2.c	stringify.h
sbp2.c	workqueue.h
scx200_gpio.c	cdev.h
scx200_gpio.c	device.h
scx200_gpio.c	errno.h
scx200_gpio.c	fs.h
scx200_gpio.c	init.h
scx200_gpio.c	io.h
scx200_gpio.c	kernel.h
scx200_gpio.c	module.h
scx200_gpio.c	nsc_gpio.h
scx200_gpio.c	platform_device.h
scx200_gpio.c	scx200_gpio.h
scx200_gpio.c	types.h
scx200_gpio.c	uaccess.h
se.c	core.h
se.c	delay.h
se.c	envy24ht.h
se.c	ice1712.h
se.c	init.h
se.c	interrupt.h
se.c	se.h
se.c	slab.h
se.c	tlv.h
sfi_acpi.c	acpi.h
sfi_acpi.c	kernel.h
sfi_acpi.c	sfi.h
sfi_acpi.c	sfi_core.h
sfi_core.c	acpi.h
sfi_core.c	bootmem.h
sfi_core.c	errno.h
sfi_core.c	init.h
sfi_core.c	kernel.h
sfi_core.c	module.h
sfi_core.c	sfi.h
sfi_core.c	sfi_core.h
sfi_core.c	slab.h
sfi_core.c	types.h
sfi_core.h	sysfs.h
sgi-agp.c	acpi.h
sgi-agp.c	addrs.h
sgi-agp.c	agp.h
sgi-agp.c	agp_backend.h
sgi-agp.c	init.h
sgi-agp.c	io.h
sgi-agp.c	module.h
sgi-agp.c	pci.h
sgi-agp.c	pcibus_provider_defs.h
sgi-agp.c	pcidev.h
sgi-agp.c	slab.h
sgi-agp.c	tioca_provider.h
sis-agp.c	agp.h
sis-agp.c	agp_backend.h
sis-agp.c	delay.h
sis-agp.c	init.h
sis-agp.c	module.h
sis-agp.c	pci.h
smapi.c	kernel.h
smapi.c	mc146818rtc.h
smapi.c	mwavedd.h
smapi.c	smapi.h
snsc.c	device.h
snsc.c	geo.h
snsc.c	interrupt.h
snsc.c	io.h
snsc.c	module.h
snsc.c	module.h
snsc.c	mutex.h
snsc.c	nodepda.h
snsc.c	poll.h
snsc.c	sched.h
snsc.c	slab.h
snsc.c	sn_sal.h
snsc.c	snsc.h
snsc.h	cdev.h
snsc.h	fs.h
snsc.h	semaphore.h
snsc.h	spinlock.h
snsc.h	types.h
snsc.h	types.h
snsc.h	wait.h
snsc_event.c	byteorder.h
snsc_event.c	interrupt.h
snsc_event.c	sched.h
snsc_event.c	slab.h
snsc_event.c	sn_sal.h
snsc_event.c	snsc.h
snsc_event.c	unaligned.h
sonicvibes.c	control.h
sonicvibes.c	core.h
sonicvibes.c	delay.h
sonicvibes.c	dma-mapping.h
sonicvibes.c	gameport.h
sonicvibes.c	info.h
sonicvibes.c	init.h
sonicvibes.c	initval.h
sonicvibes.c	interrupt.h
sonicvibes.c	io.h
sonicvibes.c	module.h
sonicvibes.c	mpu401.h
sonicvibes.c	opl3.h
sonicvibes.c	pci.h
sonicvibes.c	pcm.h
sonicvibes.c	slab.h
sonypi.c	acpi.h
sonypi.c	delay.h
sonypi.c	dmi.h
sonypi.c	err.h
sonypi.c	gfp.h
sonypi.c	init.h
sonypi.c	input.h
sonypi.c	interrupt.h
sonypi.c	io.h
sonypi.c	kfifo.h
sonypi.c	miscdevice.h
sonypi.c	module.h
sonypi.c	pci.h
sonypi.c	platform_device.h
sonypi.c	poll.h
sonypi.c	sched.h
sonypi.c	sonypi.h
sonypi.c	uaccess.h
sonypi.c	wait.h
sworks-agp.c	agp.h
sworks-agp.c	agp_backend.h
sworks-agp.c	init.h
sworks-agp.c	jiffies.h
sworks-agp.c	module.h
sworks-agp.c	pci.h
sworks-agp.c	slab.h
sworks-agp.c	string.h
synclink_cs.c	bitops.h
synclink_cs.c	cisreg.h
synclink_cs.c	cistpl.h
synclink_cs.c	delay.h
synclink_cs.c	dma.h
synclink_cs.c	ds.h
synclink_cs.c	errno.h
synclink_cs.c	fcntl.h
synclink_cs.c	hdlc.h
synclink_cs.c	init.h
synclink_cs.c	interrupt.h
synclink_cs.c	io.h
synclink_cs.c	ioctl.h
synclink_cs.c	ioport.h
synclink_cs.c	irq.h
synclink_cs.c	major.h
synclink_cs.c	mm.h
synclink_cs.c	module.h
synclink_cs.c	netdevice.h
synclink_cs.c	ptrace.h
synclink_cs.c	sched.h
synclink_cs.c	seq_file.h
synclink_cs.c	serial.h
synclink_cs.c	signal.h
synclink_cs.c	slab.h
synclink_cs.c	string.h
synclink_cs.c	synclink.h
synclink_cs.c	termios.h
synclink_cs.c	time.h
synclink_cs.c	timer.h
synclink_cs.c	tty.h
synclink_cs.c	tty_flip.h
synclink_cs.c	types.h
synclink_cs.c	uaccess.h
synclink_cs.c	vmalloc.h
synclink_cs.c	workqueue.h
tb0219.c	fs.h
tb0219.c	giu.h
tb0219.c	init.h
tb0219.c	io.h
tb0219.c	module.h
tb0219.c	platform_device.h
tb0219.c	reboot.h
tb0219.c	tb0219.h
tile-srom.c	aio.h
tile-srom.c	cdev.h
tile-srom.c	delay.h
tile-srom.c	drv_srom_intf.h
tile-srom.c	errno.h
tile-srom.c	fcntl.h
tile-srom.c	fs.h
tile-srom.c	hugetlb.h
tile-srom.c	hypervisor.h
tile-srom.c	init.h
tile-srom.c	ioctl.h
tile-srom.c	kernel.h
tile-srom.c	module.h
tile-srom.c	moduleparam.h
tile-srom.c	pagemap.h
tile-srom.c	platform_device.h
tile-srom.c	proc_fs.h
tile-srom.c	slab.h
tile-srom.c	types.h
tile-srom.c	uaccess.h
timeriomem-rng.c	completion.h
timeriomem-rng.c	hw_random.h
timeriomem-rng.c	io.h
timeriomem-rng.c	jiffies.h
timeriomem-rng.c	kernel.h
timeriomem-rng.c	module.h
timeriomem-rng.c	platform_device.h
timeriomem-rng.c	sched.h
timeriomem-rng.c	timer.h
timeriomem-rng.c	timeriomem-rng.h
tlclk.c	device.h
tlclk.c	errno.h
tlclk.c	fs.h
tlclk.c	init.h
tlclk.c	interrupt.h
tlclk.c	io.h
tlclk.c	ioport.h
tlclk.c	kernel.h
tlclk.c	miscdevice.h
tlclk.c	module.h
tlclk.c	mutex.h
tlclk.c	platform_device.h
tlclk.c	sched.h
tlclk.c	slab.h
tlclk.c	spinlock.h
tlclk.c	sysfs.h
tlclk.c	timer.h
tlclk.c	uaccess.h
toshiba.c	fcntl.h
toshiba.c	init.h
toshiba.c	io.h
toshiba.c	ioport.h
toshiba.c	kernel.h
toshiba.c	miscdevice.h
toshiba.c	module.h
toshiba.c	mutex.h
toshiba.c	proc_fs.h
toshiba.c	seq_file.h
toshiba.c	stat.h
toshiba.c	toshiba.h
toshiba.c	types.h
toshiba.c	uaccess.h
tp3780i.c	3780i.h
tp3780i.c	interrupt.h
tp3780i.c	io.h
tp3780i.c	ioport.h
tp3780i.c	kernel.h
tp3780i.c	mwavedd.h
tp3780i.c	mwavepub.h
tp3780i.c	ptrace.h
tp3780i.c	smapi.h
tp3780i.c	tp3780i.h
tp3780i.h	io.h
tp3780i.h	mwavepub.h
tpm-rng.c	hw_random.h
tpm-rng.c	module.h
tpm-rng.c	tpm.h
tpm.c	freezer.h
tpm.c	mutex.h
tpm.c	poll.h
tpm.c	slab.h
tpm.c	spinlock.h
tpm.c	tpm.h
tpm.c	tpm_eventlog.h
tpm.h	delay.h
tpm.h	fs.h
tpm.h	io.h
tpm.h	miscdevice.h
tpm.h	module.h
tpm.h	mutex.h
tpm.h	platform_device.h
tpm.h	sched.h
tpm.h	tpm.h
tpm_acpi.c	acpi.h
tpm_acpi.c	fs.h
tpm_acpi.c	module.h
tpm_acpi.c	security.h
tpm_acpi.c	seq_file.h
tpm_acpi.c	slab.h
tpm_acpi.c	tpm.h
tpm_acpi.c	tpm_eventlog.h
tpm_atmel.c	tpm.h
tpm_atmel.c	tpm_atmel.h
tpm_atmel.h	prom.h
tpm_eventlog.c	fs.h
tpm_eventlog.c	module.h
tpm_eventlog.c	security.h
tpm_eventlog.c	seq_file.h
tpm_eventlog.c	slab.h
tpm_eventlog.c	tpm.h
tpm_eventlog.c	tpm_eventlog.h
tpm_i2c_infineon.c	i2c.h
tpm_i2c_infineon.c	init.h
tpm_i2c_infineon.c	module.h
tpm_i2c_infineon.c	moduleparam.h
tpm_i2c_infineon.c	tpm.h
tpm_i2c_infineon.c	wait.h
tpm_ibmvtpm.c	dma-mapping.h
tpm_ibmvtpm.c	dmapool.h
tpm_ibmvtpm.c	interrupt.h
tpm_ibmvtpm.c	irq.h
tpm_ibmvtpm.c	list.h
tpm_ibmvtpm.c	prom.h
tpm_ibmvtpm.c	slab.h
tpm_ibmvtpm.c	spinlock.h
tpm_ibmvtpm.c	tpm.h
tpm_ibmvtpm.c	tpm_ibmvtpm.h
tpm_ibmvtpm.c	types.h
tpm_ibmvtpm.c	vio.h
tpm_ibmvtpm.c	wait.h
tpm_infineon.c	init.h
tpm_infineon.c	pnp.h
tpm_infineon.c	tpm.h
tpm_nsc.c	platform_device.h
tpm_nsc.c	slab.h
tpm_nsc.c	tpm.h
tpm_of.c	of.h
tpm_of.c	slab.h
tpm_of.c	tpm.h
tpm_of.c	tpm_eventlog.h
tpm_ppi.c	acpi.h
tpm_ppi.c	acpi_drivers.h
tpm_ppi.c	tpm.h
tpm_tis.c	acpi.h
tpm_tis.c	freezer.h
tpm_tis.c	init.h
tpm_tis.c	interrupt.h
tpm_tis.c	module.h
tpm_tis.c	moduleparam.h
tpm_tis.c	pnp.h
tpm_tis.c	slab.h
tpm_tis.c	tpm.h
tpm_tis.c	wait.h
ttyprintk.c	device.h
ttyprintk.c	export.h
ttyprintk.c	serial.h
ttyprintk.c	tty.h
tx4939-rng.c	delay.h
tx4939-rng.c	gfp.h
tx4939-rng.c	hw_random.h
tx4939-rng.c	init.h
tx4939-rng.c	io.h
tx4939-rng.c	kernel.h
tx4939-rng.c	module.h
tx4939-rng.c	platform_device.h
uninorth-agp.c	agp.h
uninorth-agp.c	agp_backend.h
uninorth-agp.c	delay.h
uninorth-agp.c	init.h
uninorth-agp.c	module.h
uninorth-agp.c	pagemap.h
uninorth-agp.c	pci-bridge.h
uninorth-agp.c	pci.h
uninorth-agp.c	pmac_feature.h
uninorth-agp.c	prom.h
uninorth-agp.c	slab.h
uninorth-agp.c	uninorth.h
uninorth-agp.c	vmalloc.h
uv_mmtimer.c	bios.h
uv_mmtimer.c	errno.h
uv_mmtimer.c	fs.h
uv_mmtimer.c	genapic.h
uv_mmtimer.c	init.h
uv_mmtimer.c	interrupt.h
uv_mmtimer.c	ioctl.h
uv_mmtimer.c	kernel.h
uv_mmtimer.c	math64.h
uv_mmtimer.c	miscdevice.h
uv_mmtimer.c	mm.h
uv_mmtimer.c	mmtimer.h
uv_mmtimer.c	module.h
uv_mmtimer.c	posix-timers.h
uv_mmtimer.c	time.h
uv_mmtimer.c	types.h
uv_mmtimer.c	uv.h
uv_mmtimer.c	uv_hub.h
via-agp.c	agp.h
via-agp.c	agp_backend.h
via-agp.c	init.h
via-agp.c	module.h
via-agp.c	pci.h
via-agp.c	types.h
via-rng.c	cpufeature.h
via-rng.c	delay.h
via-rng.c	hw_random.h
via-rng.c	i387.h
via-rng.c	io.h
via-rng.c	kernel.h
via-rng.c	module.h
via-rng.c	msr.h
via-rng.c	padlock.h
virtio-rng.c	err.h
virtio-rng.c	hw_random.h
virtio-rng.c	module.h
virtio-rng.c	scatterlist.h
virtio-rng.c	spinlock.h
virtio-rng.c	virtio.h
virtio-rng.c	virtio_rng.h
virtio_console.c	cdev.h
virtio_console.c	completion.h
virtio_console.c	debugfs.h
virtio_console.c	device.h
virtio_console.c	dma-mapping.h
virtio_console.c	err.h
virtio_console.c	freezer.h
virtio_console.c	fs.h
virtio_console.c	hvc_console.h
virtio_console.c	init.h
virtio_console.c	kconfig.h
virtio_console.c	list.h
virtio_console.c	module.h
virtio_console.c	pagemap.h
virtio_console.c	poll.h
virtio_console.c	sched.h
virtio_console.c	slab.h
virtio_console.c	spinlock.h
virtio_console.c	splice.h
virtio_console.c	virtio.h
virtio_console.c	virtio_console.h
virtio_console.c	wait.h
virtio_console.c	workqueue.h
vt1720_mobo.c	core.h
vt1720_mobo.c	delay.h
vt1720_mobo.c	envy24ht.h
vt1720_mobo.c	ice1712.h
vt1720_mobo.c	init.h
vt1720_mobo.c	interrupt.h
vt1720_mobo.c	vt1720_mobo.h
vx222.c	core.h
vx222.c	init.h
vx222.c	initval.h
vx222.c	interrupt.h
vx222.c	module.h
vx222.c	pci.h
vx222.c	slab.h
vx222.c	tlv.h
vx222.c	vx222.h
vx222.h	vx_core.h
vx222_ops.c	control.h
vx222_ops.c	core.h
vx222_ops.c	delay.h
vx222_ops.c	device.h
vx222_ops.c	firmware.h
vx222_ops.c	io.h
vx222_ops.c	mutex.h
vx222_ops.c	tlv.h
vx222_ops.c	vx222.h
wm8766.c	control.h
wm8766.c	core.h
wm8766.c	delay.h
wm8766.c	tlv.h
wm8766.c	wm8766.h
wm8776.c	control.h
wm8776.c	core.h
wm8776.c	delay.h
wm8776.c	tlv.h
wm8776.c	wm8776.h
wtm.c	core.h
wtm.c	delay.h
wtm.c	envy24ht.h
wtm.c	ice1712.h
wtm.c	init.h
wtm.c	interrupt.h
wtm.c	stac946x.h
wtm.c	wtm.h
xilinx_hwicap.c	buffer_icap.h
xilinx_hwicap.c	cdev.h
xilinx_hwicap.c	fcntl.h
xilinx_hwicap.c	fifo_icap.h
xilinx_hwicap.c	fs.h
xilinx_hwicap.c	init.h
xilinx_hwicap.c	interrupt.h
xilinx_hwicap.c	io.h
xilinx_hwicap.c	ioport.h
xilinx_hwicap.c	kernel.h
xilinx_hwicap.c	module.h
xilinx_hwicap.c	mutex.h
xilinx_hwicap.c	of_address.h
xilinx_hwicap.c	of_device.h
xilinx_hwicap.c	of_platform.h
xilinx_hwicap.c	platform_device.h
xilinx_hwicap.c	poll.h
xilinx_hwicap.c	proc_fs.h
xilinx_hwicap.c	slab.h
xilinx_hwicap.c	sysctl.h
xilinx_hwicap.c	types.h
xilinx_hwicap.c	uaccess.h
xilinx_hwicap.c	xilinx_hwicap.h
xilinx_hwicap.h	cdev.h
xilinx_hwicap.h	io.h
xilinx_hwicap.h	platform_device.h
xilinx_hwicap.h	types.h
