acornfb.h	iomd.h
acornfb.h	memc.h
address.c	device.h
address.c	errno.h
address.c	etherdevice.h
address.c	module.h
address.c	random.h
address.c	slab.h
address.c	uwb-internal.h
allocator.c	kernel.h
allocator.c	slab.h
allocator.c	uwb-internal.h
allocator.c	uwb.h
amba-clcd.c	bus.h
amba-clcd.c	clcd.h
amba-clcd.c	clk.h
amba-clcd.c	delay.h
amba-clcd.c	errno.h
amba-clcd.c	fb.h
amba-clcd.c	hardirq.h
amba-clcd.c	init.h
amba-clcd.c	ioport.h
amba-clcd.c	kernel.h
amba-clcd.c	list.h
amba-clcd.c	mm.h
amba-clcd.c	module.h
amba-clcd.c	sizes.h
amba-clcd.c	slab.h
amba-clcd.c	string.h
apply.c	dispc-compat.h
apply.c	dss.h
apply.c	dss_features.h
apply.c	jiffies.h
apply.c	kernel.h
apply.c	module.h
apply.c	omapdss.h
apply.c	slab.h
apply.c	spinlock.h
arcfb.c	arcfb.h
arcfb.c	delay.h
arcfb.c	errno.h
arcfb.c	fb.h
arcfb.c	init.h
arcfb.c	interrupt.h
arcfb.c	kernel.h
arcfb.c	mm.h
arcfb.c	module.h
arcfb.c	platform_device.h
arcfb.c	string.h
arcfb.c	uaccess.h
arcfb.c	vmalloc.h
atafb_iplan2p4.c	atafb.h
atafb_iplan2p4.c	atafb_utils.h
atafb_iplan2p4.c	fb.h
atafb_iplan2p4.c	module.h
atafb_iplan2p4.c	setup.h
atafb_iplan2p4.c	string.h
atmel_lcdfb.c	atmel.h
atmel_lcdfb.c	atmel_lcdc.h
atmel_lcdfb.c	backlight.h
atmel_lcdfb.c	clk.h
atmel_lcdfb.c	cpu.h
atmel_lcdfb.c	delay.h
atmel_lcdfb.c	dma-mapping.h
atmel_lcdfb.c	fb.h
atmel_lcdfb.c	gfp.h
atmel_lcdfb.c	gpio.h
atmel_lcdfb.c	init.h
atmel_lcdfb.c	interrupt.h
atmel_lcdfb.c	kernel.h
atmel_lcdfb.c	module.h
atmel_lcdfb.c	platform_device.h
auo_k1900fb.c	auo_k190x.h
auo_k1900fb.c	auo_k190xfb.h
auo_k1900fb.c	delay.h
auo_k1900fb.c	errno.h
auo_k1900fb.c	fb.h
auo_k1900fb.c	firmware.h
auo_k1900fb.c	gpio.h
auo_k1900fb.c	init.h
auo_k1900fb.c	interrupt.h
auo_k1900fb.c	kernel.h
auo_k1900fb.c	list.h
auo_k1900fb.c	mm.h
auo_k1900fb.c	module.h
auo_k1900fb.c	platform_device.h
auo_k1900fb.c	pm_runtime.h
auo_k1900fb.c	slab.h
auo_k1900fb.c	string.h
auo_k190x.c	auo_k190x.h
auo_k190x.c	auo_k190xfb.h
auo_k190x.c	consumer.h
auo_k190x.c	delay.h
auo_k190x.c	fb.h
auo_k190x.c	gpio.h
auo_k190x.c	kernel.h
auo_k190x.c	module.h
auo_k190x.c	pm_runtime.h
auo_k190x.c	uaccess.h
auo_k190x.c	vmalloc.h
beacon.c	device.h
beacon.c	err.h
beacon.c	init.h
beacon.c	kdev_t.h
beacon.c	kernel.h
beacon.c	module.h
beacon.c	slab.h
beacon.c	uwb-internal.h
bitblit.c	console.h
bitblit.c	fb.h
bitblit.c	fbcon.h
bitblit.c	module.h
bitblit.c	slab.h
bitblit.c	string.h
bitblit.c	types.h
bitblit.c	vt_kern.h
bus.c	bus.h
bus.c	device.h
bus.c	init.h
bus.c	io.h
bus.c	irq.h
bus.c	module.h
bus.c	pm.h
bus.c	pm_runtime.h
bus.c	sizes.h
bus.c	slab.h
bus.c	string.h
chipsfb.c	backlight.h
chipsfb.c	console.h
chipsfb.c	delay.h
chipsfb.c	errno.h
chipsfb.c	fb.h
chipsfb.c	init.h
chipsfb.c	interrupt.h
chipsfb.c	io.h
chipsfb.c	kernel.h
chipsfb.c	mm.h
chipsfb.c	module.h
chipsfb.c	pci.h
chipsfb.c	pm.h
chipsfb.c	string.h
chipsfb.c	vmalloc.h
cirrusfb.c	amigahw.h
cirrusfb.c	cirrus.h
cirrusfb.c	delay.h
cirrusfb.c	errno.h
cirrusfb.c	fb.h
cirrusfb.c	init.h
cirrusfb.c	kernel.h
cirrusfb.c	machdep.h
cirrusfb.c	mm.h
cirrusfb.c	module.h
cirrusfb.c	pci.h
cirrusfb.c	pgtable.h
cirrusfb.c	string.h
cirrusfb.c	vga.h
cirrusfb.c	zorro.h
class.c	idr.h
class.c	kdev_t.h
class.c	module.h
class.c	rtc-core.h
class.c	rtc.h
class.c	slab.h
class.c	workqueue.h
cn_proc.c	atomic.h
cn_proc.c	cn_proc.h
cn_proc.c	connector.h
cn_proc.c	gfp.h
cn_proc.c	init.h
cn_proc.c	kernel.h
cn_proc.c	ktime.h
cn_proc.c	module.h
cn_proc.c	pid_namespace.h
cn_proc.c	ptrace.h
cn_proc.c	unaligned.h
cn_queue.c	connector.h
cn_queue.c	delay.h
cn_queue.c	kernel.h
cn_queue.c	list.h
cn_queue.c	module.h
cn_queue.c	skbuff.h
cn_queue.c	slab.h
cn_queue.c	spinlock.h
cn_queue.c	suspend.h
cn_queue.c	workqueue.h
connector.c	connector.h
connector.c	kernel.h
connector.c	list.h
connector.c	module.h
connector.c	moduleparam.h
connector.c	mutex.h
connector.c	netlink.h
connector.c	proc_fs.h
connector.c	skbuff.h
connector.c	slab.h
connector.c	sock.h
connector.c	spinlock.h
core.c	clk.h
core.c	clk.h
core.c	consumer.h
core.c	consumer.h
core.c	debugfs.h
core.c	debugfs.h
core.c	device.h
core.c	device.h
core.c	dss.h
core.c	dss.h
core.c	dss_features.h
core.c	dss_features.h
core.c	err.h
core.c	err.h
core.c	io.h
core.c	io.h
core.c	kernel.h
core.c	kernel.h
core.c	module.h
core.c	module.h
core.c	omapdss.h
core.c	omapdss.h
core.c	platform_device.h
core.c	platform_device.h
core.c	seq_file.h
core.c	seq_file.h
core.c	slab.h
core.c	slab.h
core.c	suspend.h
core.c	suspend.h
dfu.c	delay.h
dfu.c	device.h
dfu.c	errno.h
dfu.c	export.h
dfu.c	i1480-dfu.h
dfu.c	pci.h
dfu.c	random.h
dfu.c	uwb.h
dispc-compat.c	delay.h
dispc-compat.c	dispc-compat.h
dispc-compat.c	dss.h
dispc-compat.c	dss_features.h
dispc-compat.c	interrupt.h
dispc-compat.c	jiffies.h
dispc-compat.c	kernel.h
dispc-compat.c	module.h
dispc-compat.c	omapdss.h
dispc-compat.c	seq_file.h
dispc-compat.c	slab.h
dispc-compat.c	spinlock.h
dispc.c	clk.h
dispc.c	delay.h
dispc.c	dispc.h
dispc.c	dma-mapping.h
dispc.c	dss.h
dispc.c	dss_features.h
dispc.c	export.h
dispc.c	hardirq.h
dispc.c	io.h
dispc.c	jiffies.h
dispc.c	kernel.h
dispc.c	omapdss.h
dispc.c	platform_device.h
dispc.c	pm_runtime.h
dispc.c	seq_file.h
dispc.c	sizes.h
dispc.c	vmalloc.h
dispc.c	workqueue.h
dispc_coefs.c	dispc.h
dispc_coefs.c	kernel.h
dispc_coefs.c	omapdss.h
display-sysfs.c	dss.h
display-sysfs.c	dss_features.h
display-sysfs.c	jiffies.h
display-sysfs.c	kernel.h
display-sysfs.c	module.h
display-sysfs.c	omapdss.h
display-sysfs.c	platform_device.h
display.c	dss.h
display.c	dss_features.h
display.c	jiffies.h
display.c	kernel.h
display.c	module.h
display.c	omapdss.h
display.c	platform_device.h
dpi.c	consumer.h
dpi.c	delay.h
dpi.c	dss.h
dpi.c	dss_features.h
dpi.c	err.h
dpi.c	errno.h
dpi.c	export.h
dpi.c	kernel.h
dpi.c	omapdss.h
dpi.c	platform_device.h
dpi.c	string.h
driver.c	device.h
driver.c	err.h
driver.c	init.h
driver.c	kdev_t.h
driver.c	kernel.h
driver.c	module.h
driver.c	random.h
driver.c	uwb-internal.h
drp-avail.c	bitmap.h
drp-avail.c	device.h
drp-avail.c	errno.h
drp-avail.c	module.h
drp-avail.c	uwb-internal.h
drp-ie.c	kernel.h
drp-ie.c	random.h
drp-ie.c	slab.h
drp-ie.c	uwb-internal.h
drp-ie.c	uwb.h
drp.c	delay.h
drp.c	freezer.h
drp.c	kthread.h
drp.c	slab.h
drp.c	uwb-internal.h
dsi.c	clk.h
dsi.c	consumer.h
dsi.c	debugfs.h
dsi.c	delay.h
dsi.c	device.h
dsi.c	dss.h
dsi.c	dss_features.h
dsi.c	err.h
dsi.c	interrupt.h
dsi.c	io.h
dsi.c	kernel.h
dsi.c	mipi_display.h
dsi.c	module.h
dsi.c	mutex.h
dsi.c	omapdss.h
dsi.c	platform_device.h
dsi.c	pm_runtime.h
dsi.c	sched.h
dsi.c	semaphore.h
dsi.c	seq_file.h
dsi.c	slab.h
dsi.c	wait.h
dsi.c	workqueue.h
dss.c	clk.h
dss.c	delay.h
dss.c	dss.h
dss.c	dss_features.h
dss.c	err.h
dss.c	export.h
dss.c	gfp.h
dss.c	io.h
dss.c	kernel.h
dss.c	omapdss.h
dss.c	platform_device.h
dss.c	pm_runtime.h
dss.c	seq_file.h
dss.c	sizes.h
dss.h	interrupt.h
dss_features.c	dss.h
dss_features.c	dss_features.h
dss_features.c	err.h
dss_features.c	kernel.h
dss_features.c	module.h
dss_features.c	omapdss.h
dss_features.c	slab.h
dss_features.c	types.h
dss_features.h	ti_hdmi.h
dummycon.c	console.h
dummycon.c	init.h
dummycon.c	kdev_t.h
dummycon.c	module.h
dummycon.c	screen_info.h
dummycon.c	types.h
dummycon.c	vt_kern.h
ep93xx-fb.c	clk.h
ep93xx-fb.c	dma-mapping.h
ep93xx-fb.c	fb.h
ep93xx-fb.c	module.h
ep93xx-fb.c	platform_device.h
ep93xx-fb.c	slab.h
ep93xx-fb.c	video-ep93xx.h
est.c	export.h
est.c	slab.h
est.c	spinlock.h
est.c	uwb-internal.h
fbcon.c	console.h
fbcon.c	crc32.h
fbcon.c	delay.h
fbcon.c	fb.h
fbcon.c	fb.h
fbcon.c	fbcon.h
fbcon.c	font.h
fbcon.c	fs.h
fbcon.c	init.h
fbcon.c	interrupt.h
fbcon.c	irq.h
fbcon.c	kd.h
fbcon.c	kernel.h
fbcon.c	module.h
fbcon.c	selection.h
fbcon.c	slab.h
fbcon.c	smp.h
fbcon.c	string.h
fbcon.c	types.h
fbcon.c	vt_kern.h
fbcon.h	io.h
fbcon.h	types.h
fbcon.h	vt_buffer.h
fbcon.h	vt_kern.h
fbcon_ccw.c	console.h
fbcon_ccw.c	fb.h
fbcon_ccw.c	fbcon.h
fbcon_ccw.c	fbcon_rotate.h
fbcon_ccw.c	module.h
fbcon_ccw.c	slab.h
fbcon_ccw.c	string.h
fbcon_ccw.c	types.h
fbcon_ccw.c	vt_kern.h
fbcon_cw.c	console.h
fbcon_cw.c	fb.h
fbcon_cw.c	fbcon.h
fbcon_cw.c	fbcon_rotate.h
fbcon_cw.c	module.h
fbcon_cw.c	slab.h
fbcon_cw.c	string.h
fbcon_cw.c	types.h
fbcon_cw.c	vt_kern.h
fbcon_rotate.c	console.h
fbcon_rotate.c	fb.h
fbcon_rotate.c	fbcon.h
fbcon_rotate.c	fbcon_rotate.h
fbcon_rotate.c	module.h
fbcon_rotate.c	slab.h
fbcon_rotate.c	string.h
fbcon_rotate.c	types.h
fbcon_rotate.c	vt_kern.h
fbcon_ud.c	console.h
fbcon_ud.c	fb.h
fbcon_ud.c	fbcon.h
fbcon_ud.c	fbcon_rotate.h
fbcon_ud.c	module.h
fbcon_ud.c	slab.h
fbcon_ud.c	string.h
fbcon_ud.c	types.h
fbcon_ud.c	vt_kern.h
fbdev.c	backlight.h
fbdev.c	backlight.h
fbdev.c	bitrev.h
fbdev.c	delay.h
fbdev.c	errno.h
fbdev.c	fb.h
fbdev.c	init.h
fbdev.c	kernel.h
fbdev.c	machdep.h
fbdev.c	mm.h
fbdev.c	module.h
fbdev.c	mtrr.h
fbdev.c	nvreg.h
fbdev.c	pci-bridge.h
fbdev.c	pci.h
fbdev.c	prom.h
fbdev.c	rivafb.h
fbdev.c	slab.h
fbdev.c	string.h
font_10x18.c	font.h
font_6x11.c	font.h
font_7x14.c	font.h
font_8x16.c	font.h
font_8x16.c	module.h
font_8x8.c	font.h
font_acorn_8x8.c	font.h
font_mini_4x6.c	font.h
font_pearl_8x8.c	font.h
font_sun12x22.c	font.h
font_sun8x16.c	font.h
fonts.c	font.h
fonts.c	module.h
fonts.c	setup.h
fonts.c	string.h
fonts.c	types.h
gpio-74x164.c	74x164.h
gpio-74x164.c	gpio.h
gpio-74x164.c	init.h
gpio-74x164.c	module.h
gpio-74x164.c	mutex.h
gpio-74x164.c	of_gpio.h
gpio-74x164.c	slab.h
gpio-74x164.c	spi.h
gpio-adnp.c	gpio.h
gpio-adnp.c	i2c.h
gpio-adnp.c	interrupt.h
gpio-adnp.c	irqdomain.h
gpio-adnp.c	module.h
gpio-adnp.c	of_irq.h
gpio-adnp.c	seq_file.h
gpio-adnp.c	slab.h
gpio-davinci.c	clk.h
gpio-davinci.c	err.h
gpio-davinci.c	errno.h
gpio-davinci.c	gpio.h
gpio-davinci.c	io.h
gpio-davinci.c	irq.h
gpio-davinci.c	kernel.h
gpio-ge.c	compiler.h
gpio-ge.c	gpio.h
gpio-ge.c	init.h
gpio-ge.c	io.h
gpio-ge.c	kernel.h
gpio-ge.c	module.h
gpio-ge.c	of.h
gpio-ge.c	of_device.h
gpio-ge.c	of_gpio.h
gpio-ge.c	of_platform.h
gpio-ge.c	slab.h
gpio-mm-lantiq.c	gpio.h
gpio-mm-lantiq.c	init.h
gpio-mm-lantiq.c	io.h
gpio-mm-lantiq.c	lantiq_soc.h
gpio-mm-lantiq.c	module.h
gpio-mm-lantiq.c	mutex.h
gpio-mm-lantiq.c	of.h
gpio-mm-lantiq.c	of_gpio.h
gpio-mm-lantiq.c	platform_device.h
gpio-mm-lantiq.c	slab.h
gpio-mm-lantiq.c	types.h
gpio-mpc5200.c	fsl_soc.h
gpio-mpc5200.c	gpio.h
gpio-mpc5200.c	io.h
gpio-mpc5200.c	kernel.h
gpio-mpc5200.c	module.h
gpio-mpc5200.c	mpc52xx.h
gpio-mpc5200.c	of.h
gpio-mpc5200.c	of_gpio.h
gpio-mpc5200.c	of_platform.h
gpio-mpc5200.c	slab.h
gpio-msm-v1.c	bitops.h
gpio-msm-v1.c	cpu.h
gpio-msm-v1.c	gpio.h
gpio-msm-v1.c	interrupt.h
gpio-msm-v1.c	io.h
gpio-msm-v1.c	irq.h
gpio-msm-v1.c	module.h
gpio-msm-v1.c	msm_gpiomux.h
gpio-msm-v1.c	msm_iomap.h
gpio-mxs.c	basic_mmio_gpio.h
gpio-mxs.c	gpio.h
gpio-mxs.c	init.h
gpio-mxs.c	interrupt.h
gpio-mxs.c	io.h
gpio-mxs.c	irq.h
gpio-mxs.c	irqdomain.h
gpio-mxs.c	module.h
gpio-mxs.c	of.h
gpio-mxs.c	of_address.h
gpio-mxs.c	of_device.h
gpio-mxs.c	platform_device.h
gpio-mxs.c	slab.h
gpio-omap.c	clk.h
gpio-omap.c	device.h
gpio-omap.c	err.h
gpio-omap.c	gpio-omap.h
gpio-omap.c	gpio.h
gpio-omap.c	init.h
gpio-omap.c	interrupt.h
gpio-omap.c	io.h
gpio-omap.c	irq.h
gpio-omap.c	irqdomain.h
gpio-omap.c	module.h
gpio-omap.c	of.h
gpio-omap.c	of_device.h
gpio-omap.c	pm.h
gpio-omap.c	pm_runtime.h
gpio-omap.c	syscore_ops.h
gpio-samsung.c	cpu.h
gpio-samsung.c	device.h
gpio-samsung.c	gpio-cfg-helpers.h
gpio-samsung.c	gpio-cfg.h
gpio-samsung.c	gpio-core.h
gpio-samsung.c	gpio-fns.h
gpio-samsung.c	gpio.h
gpio-samsung.c	hardware.h
gpio-samsung.c	init.h
gpio-samsung.c	interrupt.h
gpio-samsung.c	io.h
gpio-samsung.c	ioport.h
gpio-samsung.c	irq.h
gpio-samsung.c	irq.h
gpio-samsung.c	kernel.h
gpio-samsung.c	map.h
gpio-samsung.c	module.h
gpio-samsung.c	of.h
gpio-samsung.c	of_address.h
gpio-samsung.c	pm.h
gpio-samsung.c	regs-gpio.h
gpio-samsung.c	slab.h
gpio-samsung.c	spinlock.h
gpio-spear-spics.c	err.h
gpio-spear-spics.c	gpio.h
gpio-spear-spics.c	io.h
gpio-spear-spics.c	module.h
gpio-spear-spics.c	of.h
gpio-spear-spics.c	platform_device.h
gpio-spear-spics.c	types.h
gpio-tc3589x.c	gpio.h
gpio-tc3589x.c	init.h
gpio-tc3589x.c	interrupt.h
gpio-tc3589x.c	irq.h
gpio-tc3589x.c	irqdomain.h
gpio-tc3589x.c	module.h
gpio-tc3589x.c	of.h
gpio-tc3589x.c	platform_device.h
gpio-tc3589x.c	slab.h
gpio-tc3589x.c	tc3589x.h
gpio-ucb1400.c	module.h
gpio-ucb1400.c	ucb1400.h
gpio-wm8994.c	core.h
gpio-wm8994.c	core.h
gpio-wm8994.c	gpio.h
gpio-wm8994.c	gpio.h
gpio-wm8994.c	kernel.h
gpio-wm8994.c	module.h
gpio-wm8994.c	pdata.h
gpio-wm8994.c	platform_device.h
gpio-wm8994.c	registers.h
gpio-wm8994.c	regmap.h
gpio-wm8994.c	seq_file.h
gpio-wm8994.c	slab.h
gpiolib.c	debugfs.h
gpiolib.c	device.h
gpiolib.c	err.h
gpiolib.c	gpio.h
gpiolib.c	gpio.h
gpiolib.c	idr.h
gpiolib.c	interrupt.h
gpiolib.c	irq.h
gpiolib.c	kernel.h
gpiolib.c	module.h
gpiolib.c	of_gpio.h
gpiolib.c	seq_file.h
gpiolib.c	slab.h
gpiolib.c	spinlock.h
hctosys.c	rtc.h
hdmi.c	clk.h
hdmi.c	consumer.h
hdmi.c	delay.h
hdmi.c	dss.h
hdmi.c	dss_features.h
hdmi.c	err.h
hdmi.c	gpio.h
hdmi.c	interrupt.h
hdmi.c	io.h
hdmi.c	kernel.h
hdmi.c	module.h
hdmi.c	mutex.h
hdmi.c	omapdss.h
hdmi.c	platform_device.h
hdmi.c	pm_runtime.h
hdmi.c	string.h
hdmi.c	ti_hdmi.h
hdmi_panel.c	dss.h
hdmi_panel.c	err.h
hdmi_panel.c	io.h
hdmi_panel.c	kernel.h
hdmi_panel.c	module.h
hdmi_panel.c	mutex.h
hdmi_panel.c	omapdss.h
hdmi_panel.c	slab.h
hecubafb.c	delay.h
hecubafb.c	errno.h
hecubafb.c	fb.h
hecubafb.c	hecubafb.h
hecubafb.c	init.h
hecubafb.c	interrupt.h
hecubafb.c	kernel.h
hecubafb.c	list.h
hecubafb.c	mm.h
hecubafb.c	module.h
hecubafb.c	platform_device.h
hecubafb.c	string.h
hecubafb.c	uaccess.h
hecubafb.c	vmalloc.h
hpfb.c	delay.h
hpfb.c	dio.h
hpfb.c	errno.h
hpfb.c	fb.h
hpfb.c	init.h
hpfb.c	io.h
hpfb.c	kernel.h
hpfb.c	mm.h
hpfb.c	module.h
hpfb.c	string.h
hpfb.c	uaccess.h
hwa-rc.c	init.h
hwa-rc.c	module.h
hwa-rc.c	slab.h
hwa-rc.c	usb.h
hwa-rc.c	uwb-internal.h
hwa-rc.c	uwb.h
hwa-rc.c	wusb-wa.h
hwa-rc.c	wusb.h
i1480-dfu.h	completion.h
i1480-dfu.h	spec.h
i1480-dfu.h	types.h
i1480-est.c	i1480-dfu.h
i1480-est.c	init.h
i1480-est.c	module.h
i1480-est.c	usb.h
i1480-est.c	uwb.h
ie-rcv.c	bitmap.h
ie-rcv.c	device.h
ie-rcv.c	errno.h
ie-rcv.c	module.h
ie-rcv.c	uwb-internal.h
ie.c	export.h
ie.c	slab.h
ie.c	uwb-internal.h
imsttfb.c	delay.h
imsttfb.c	errno.h
imsttfb.c	fb.h
imsttfb.c	init.h
imsttfb.c	interrupt.h
imsttfb.c	io.h
imsttfb.c	kernel.h
imsttfb.c	macmodes.h
imsttfb.c	mm.h
imsttfb.c	module.h
imsttfb.c	nvram.h
imsttfb.c	pci-bridge.h
imsttfb.c	pci.h
imsttfb.c	prom.h
imsttfb.c	string.h
imsttfb.c	uaccess.h
imsttfb.c	vmalloc.h
interface.c	log2.h
interface.c	module.h
interface.c	rtc.h
interface.c	sched.h
interface.c	workqueue.h
ioc3.c	delay.h
ioc3.c	dma-mapping.h
ioc3.c	errno.h
ioc3.c	interrupt.h
ioc3.c	ioc3.h
ioc3.c	module.h
ioc3.c	pci.h
ioc3.c	rwsem.h
ioc3.c	slab.h
ioc3.c	spinlock.h
kapi.c	fs.h
kapi.c	init.h
kapi.c	kc.h
kapi.c	kernel.h
kapi.c	module.h
kapi.c	pps_kernel.h
kapi.c	sched.h
kapi.c	slab.h
kapi.c	spinlock.h
kapi.c	time.h
kapi.c	timex.h
kc.c	device.h
kc.c	init.h
kc.c	kc.h
kc.c	kernel.h
kc.c	module.h
kc.c	pps_kernel.h
kc.c	spinlock.h
kc.h	errno.h
kc.h	pps_kernel.h
lc-dev.c	device.h
lc-dev.c	err.h
lc-dev.c	export.h
lc-dev.c	kdev_t.h
lc-dev.c	kernel.h
lc-dev.c	random.h
lc-dev.c	slab.h
lc-dev.c	stat.h
lc-dev.c	uwb-internal.h
lc-rc.c	device.h
lc-rc.c	err.h
lc-rc.c	etherdevice.h
lc-rc.c	export.h
lc-rc.c	kdev_t.h
lc-rc.c	kernel.h
lc-rc.c	random.h
lc-rc.c	slab.h
lc-rc.c	string.h
lc-rc.c	usb.h
lc-rc.c	uwb-internal.h
mac.c	delay.h
mac.c	firmware.h
mac.c	i1480-dfu.h
mac.c	slab.h
mac.c	uwb.h
macmodes.c	errno.h
macmodes.c	fb.h
macmodes.c	macmodes.h
macmodes.c	module.h
macmodes.c	string.h
manager-sysfs.c	dss.h
manager-sysfs.c	dss_features.h
manager-sysfs.c	jiffies.h
manager-sysfs.c	kernel.h
manager-sysfs.c	module.h
manager-sysfs.c	omapdss.h
manager-sysfs.c	platform_device.h
manager-sysfs.c	slab.h
manager.c	dss.h
manager.c	dss_features.h
manager.c	jiffies.h
manager.c	kernel.h
manager.c	module.h
manager.c	omapdss.h
manager.c	platform_device.h
manager.c	slab.h
mbxdebugfs.c	debugfs.h
mbxdebugfs.c	slab.h
mbxfb.c	delay.h
mbxfb.c	fb.h
mbxfb.c	init.h
mbxfb.c	io.h
mbxfb.c	mbxfb.h
mbxfb.c	module.h
mbxfb.c	platform_device.h
mbxfb.c	reg_bits.h
mbxfb.c	regs.h
mbxfb.c	uaccess.h
mdacon.c	console.h
mdacon.c	delay.h
mdacon.c	fs.h
mdacon.c	init.h
mdacon.c	io.h
mdacon.c	ioport.h
mdacon.c	kd.h
mdacon.c	kernel.h
mdacon.c	module.h
mdacon.c	selection.h
mdacon.c	spinlock.h
mdacon.c	string.h
mdacon.c	types.h
mdacon.c	vga.h
mdacon.c	vt_buffer.h
mdacon.c	vt_kern.h
mddi.c	clk.h
mddi.c	delay.h
mddi.c	dma-mapping.h
mddi.c	gfp.h
mddi.c	interrupt.h
mddi.c	io.h
mddi.c	kernel.h
mddi.c	mddi_hw.h
mddi.c	module.h
mddi.c	platform_device.h
mddi.c	sched.h
mddi.c	spinlock.h
mddi.c	video-msm_fb.h
mddi_client_dummy.c	kernel.h
mddi_client_dummy.c	module.h
mddi_client_dummy.c	platform_device.h
mddi_client_dummy.c	slab.h
mddi_client_dummy.c	video-msm_fb.h
mddi_client_nt35399.c	gpio.h
mddi_client_nt35399.c	interrupt.h
mddi_client_nt35399.c	kernel.h
mddi_client_nt35399.c	module.h
mddi_client_nt35399.c	platform_device.h
mddi_client_nt35399.c	sched.h
mddi_client_nt35399.c	slab.h
mddi_client_nt35399.c	video-msm_fb.h
mddi_client_toshiba.c	gpio.h
mddi_client_toshiba.c	interrupt.h
mddi_client_toshiba.c	kernel.h
mddi_client_toshiba.c	module.h
mddi_client_toshiba.c	platform_device.h
mddi_client_toshiba.c	sched.h
mddi_client_toshiba.c	slab.h
mddi_client_toshiba.c	video-msm_fb.h
mddi_hw.h	types.h
mdp.c	clk.h
mdp.c	export.h
mdp.c	fb.h
mdp.c	file.h
mdp.c	interrupt.h
mdp.c	kernel.h
mdp.c	major.h
mdp.c	mdp_csc_table.h
mdp.c	mdp_hw.h
mdp.c	mdp_scale_tables.h
mdp.c	msm_mdp.h
mdp.c	platform_device.h
mdp.c	slab.h
mdp.c	video-msm_fb.h
mdp.c	wait.h
mdp_hw.h	video-msm_fb.h
mdp_ppp.c	delay.h
mdp_ppp.c	fb.h
mdp_ppp.c	file.h
mdp_ppp.c	mdp_hw.h
mdp_ppp.c	mdp_scale_tables.h
mdp_ppp.c	msm_mdp.h
mdp_ppp.c	video-msm_fb.h
mdp_scale_tables.c	mdp_hw.h
mdp_scale_tables.c	mdp_scale_tables.h
mdp_scale_tables.h	types.h
msm_fb.c	board.h
msm_fb.c	clk.h
msm_fb.c	debugfs.h
msm_fb.c	delay.h
msm_fb.c	dma-mapping.h
msm_fb.c	fb.h
msm_fb.c	freezer.h
msm_fb.c	io.h
msm_fb.c	module.h
msm_fb.c	msm_mdp.h
msm_fb.c	platform_device.h
msm_fb.c	slab.h
msm_fb.c	uaccess.h
msm_fb.c	video-msm_fb.h
msm_fb.c	wait.h
msm_fb.c	workqueue.h
neh.c	err.h
neh.c	export.h
neh.c	kernel.h
neh.c	slab.h
neh.c	timer.h
neh.c	uwb-internal.h
net.c	compat.h
net.c	eventfd.h
net.c	file.h
net.c	if_arp.h
net.c	if_macvlan.h
net.c	if_packet.h
net.c	if_tun.h
net.c	if_vlan.h
net.c	miscdevice.h
net.c	module.h
net.c	moduleparam.h
net.c	mutex.h
net.c	net.h
net.c	rcupdate.h
net.c	slab.h
net.c	sock.h
net.c	vhost.h
net.c	vhost.h
net.c	virtio_net.h
net.c	workqueue.h
newport_con.c	console.h
newport_con.c	errno.h
newport_con.c	font.h
newport_con.c	gio_device.h
newport_con.c	init.h
newport_con.c	io.h
newport_con.c	kd.h
newport_con.c	kernel.h
newport_con.c	linux_logo.h
newport_con.c	mm.h
newport_con.c	module.h
newport_con.c	newport.h
newport_con.c	page.h
newport_con.c	pgtable.h
newport_con.c	selection.h
newport_con.c	slab.h
newport_con.c	uaccess.h
newport_con.c	vt_kern.h
nv_accel.c	fb.h
nv_accel.c	nv_dma.h
nv_accel.c	nv_local.h
nv_accel.c	nv_proto.h
nv_accel.c	nv_type.h
nv_backlight.c	backlight.h
nv_backlight.c	backlight.h
nv_backlight.c	fb.h
nv_backlight.c	nv_local.h
nv_backlight.c	nv_proto.h
nv_backlight.c	nv_type.h
nv_backlight.c	pci.h
nv_driver.c	delay.h
nv_driver.c	nv_type.h
nv_driver.c	nvreg.h
nv_driver.c	pci.h
nv_driver.c	pci_ids.h
nv_driver.c	rivafb.h
nv_hw.c	nv_local.h
nv_hw.c	nv_proto.h
nv_hw.c	nv_type.h
nv_hw.c	pci.h
nv_i2c.c	delay.h
nv_i2c.c	edid.h
nv_i2c.c	fb.h
nv_i2c.c	gfp.h
nv_i2c.c	io.h
nv_i2c.c	kernel.h
nv_i2c.c	module.h
nv_i2c.c	nv_local.h
nv_i2c.c	nv_proto.h
nv_i2c.c	nv_type.h
nv_i2c.c	pci.h
nv_local.h	bitrev.h
nv_of.c	delay.h
nv_of.c	edid.h
nv_of.c	fb.h
nv_of.c	gfp.h
nv_of.c	io.h
nv_of.c	kernel.h
nv_of.c	module.h
nv_of.c	nv_local.h
nv_of.c	nv_proto.h
nv_of.c	nv_type.h
nv_of.c	pci-bridge.h
nv_of.c	pci.h
nv_of.c	prom.h
nv_setup.c	delay.h
nv_setup.c	nv_local.h
nv_setup.c	nv_proto.h
nv_setup.c	nv_type.h
nv_setup.c	pci.h
nv_setup.c	slab.h
nv_setup.c	vga.h
nvidia.c	backlight.h
nvidia.c	btext.h
nvidia.c	console.h
nvidia.c	delay.h
nvidia.c	errno.h
nvidia.c	fb.h
nvidia.c	init.h
nvidia.c	kernel.h
nvidia.c	mm.h
nvidia.c	module.h
nvidia.c	mtrr.h
nvidia.c	nv_dma.h
nvidia.c	nv_local.h
nvidia.c	nv_proto.h
nvidia.c	nv_type.h
nvidia.c	pci-bridge.h
nvidia.c	pci.h
nvidia.c	prom.h
nvidia.c	slab.h
nvidia.c	string.h
omapfb.h	dma-attrs.h
omapfb.h	dma-mapping.h
omapfb.h	omapdss.h
omapfb.h	rwsem.h
output.c	dss.h
output.c	kernel.h
output.c	module.h
output.c	omapdss.h
output.c	platform_device.h
output.c	slab.h
overlay-sysfs.c	dss.h
overlay-sysfs.c	dss_features.h
overlay-sysfs.c	err.h
overlay-sysfs.c	kobject.h
overlay-sysfs.c	module.h
overlay-sysfs.c	omapdss.h
overlay-sysfs.c	platform_device.h
overlay-sysfs.c	sysfs.h
overlay.c	delay.h
overlay.c	dss.h
overlay.c	dss_features.h
overlay.c	err.h
overlay.c	kernel.h
overlay.c	module.h
overlay.c	omapdss.h
overlay.c	platform_device.h
overlay.c	slab.h
overlay.c	sysfs.h
pal.c	debugfs.h
pal.c	export.h
pal.c	kernel.h
pal.c	uwb-internal.h
pal.c	uwb.h
phy.c	delay.h
phy.c	device.h
phy.c	firmware.h
phy.c	i1480-dfu.h
phy.c	wusb.h
pm3fb.c	delay.h
pm3fb.c	errno.h
pm3fb.c	fb.h
pm3fb.c	init.h
pm3fb.c	kernel.h
pm3fb.c	mm.h
pm3fb.c	module.h
pm3fb.c	mtrr.h
pm3fb.c	pci.h
pm3fb.c	pm3fb.h
pm3fb.c	slab.h
pm3fb.c	string.h
pps-gpio.c	gpio.h
pps-gpio.c	init.h
pps-gpio.c	interrupt.h
pps-gpio.c	kernel.h
pps-gpio.c	list.h
pps-gpio.c	module.h
pps-gpio.c	platform_device.h
pps-gpio.c	pps-gpio.h
pps-gpio.c	pps_kernel.h
pps-gpio.c	slab.h
pps-ktimer.c	init.h
pps-ktimer.c	kernel.h
pps-ktimer.c	module.h
pps-ktimer.c	pps_kernel.h
pps-ktimer.c	time.h
pps-ktimer.c	timer.h
pps-ldisc.c	module.h
pps-ldisc.c	pps_kernel.h
pps-ldisc.c	serial_core.h
pps-ldisc.c	tty.h
pps.c	cdev.h
pps.c	idr.h
pps.c	init.h
pps.c	kc.h
pps.c	kernel.h
pps.c	module.h
pps.c	mutex.h
pps.c	poll.h
pps.c	pps_kernel.h
pps.c	sched.h
pps.c	slab.h
pps.c	uaccess.h
pps_gen_parport.c	hrtimer.h
pps_gen_parport.c	init.h
pps_gen_parport.c	kernel.h
pps_gen_parport.c	module.h
pps_gen_parport.c	parport.h
pps_gen_parport.c	time.h
pps_parport.c	init.h
pps_parport.c	irqnr.h
pps_parport.c	kernel.h
pps_parport.c	module.h
pps_parport.c	parport.h
pps_parport.c	pps_kernel.h
pps_parport.c	time.h
ps3fb.c	cell-regs.h
ps3fb.c	console.h
ps3fb.c	errno.h
ps3fb.c	fb.h
ps3fb.c	freezer.h
ps3fb.c	init.h
ps3fb.c	interrupt.h
ps3fb.c	ioctl.h
ps3fb.c	kernel.h
ps3fb.c	kthread.h
ps3fb.c	lv1call.h
ps3fb.c	mm.h
ps3fb.c	module.h
ps3fb.c	ps3.h
ps3fb.c	ps3av.h
ps3fb.c	ps3fb.h
ps3fb.c	ps3gpu.h
ps3fb.c	string.h
ps3fb.c	uaccess.h
ptp_chardev.c	module.h
ptp_chardev.c	poll.h
ptp_chardev.c	posix-clock.h
ptp_chardev.c	ptp_private.h
ptp_chardev.c	sched.h
ptp_chardev.c	slab.h
ptp_clock.c	bitops.h
ptp_clock.c	device.h
ptp_clock.c	err.h
ptp_clock.c	init.h
ptp_clock.c	kernel.h
ptp_clock.c	module.h
ptp_clock.c	posix-clock.h
ptp_clock.c	pps_kernel.h
ptp_clock.c	ptp_private.h
ptp_clock.c	slab.h
ptp_clock.c	syscalls.h
ptp_clock.c	uaccess.h
ptp_ixp46x.c	device.h
ptp_ixp46x.c	err.h
ptp_ixp46x.c	gpio.h
ptp_ixp46x.c	init.h
ptp_ixp46x.c	interrupt.h
ptp_ixp46x.c	io.h
ptp_ixp46x.c	irq.h
ptp_ixp46x.c	ixp46x_ts.h
ptp_ixp46x.c	kernel.h
ptp_ixp46x.c	module.h
ptp_ixp46x.c	ptp_clock_kernel.h
ptp_pch.c	device.h
ptp_pch.c	err.h
ptp_pch.c	init.h
ptp_pch.c	interrupt.h
ptp_pch.c	io.h
ptp_pch.c	irq.h
ptp_pch.c	kernel.h
ptp_pch.c	module.h
ptp_pch.c	pci.h
ptp_pch.c	ptp_clock_kernel.h
ptp_pch.c	slab.h
ptp_private.h	cdev.h
ptp_private.h	device.h
ptp_private.h	mutex.h
ptp_private.h	posix-clock.h
ptp_private.h	ptp_clock.h
ptp_private.h	ptp_clock_kernel.h
ptp_private.h	time.h
ptp_sysfs.c	capability.h
ptp_sysfs.c	ptp_private.h
pwm-ab8500.c	ab8500.h
pwm-ab8500.c	abx500.h
pwm-ab8500.c	err.h
pwm-ab8500.c	module.h
pwm-ab8500.c	platform_device.h
pwm-ab8500.c	pwm.h
pwm-ab8500.c	slab.h
pwm-bfin.c	gptimers.h
pwm-bfin.c	module.h
pwm-bfin.c	platform_device.h
pwm-bfin.c	portmux.h
pwm-bfin.c	pwm.h
pwm-bfin.c	slab.h
pwm-imx.c	clk.h
pwm-imx.c	err.h
pwm-imx.c	io.h
pwm-imx.c	kernel.h
pwm-imx.c	module.h
pwm-imx.c	of_device.h
pwm-imx.c	platform_device.h
pwm-imx.c	pwm.h
pwm-imx.c	slab.h
pwm-jz4740.c	clk.h
pwm-jz4740.c	err.h
pwm-jz4740.c	gpio.h
pwm-jz4740.c	gpio.h
pwm-jz4740.c	kernel.h
pwm-jz4740.c	module.h
pwm-jz4740.c	platform_device.h
pwm-jz4740.c	pwm.h
pwm-jz4740.c	timer.h
pwm-lpc32xx.c	clk.h
pwm-lpc32xx.c	err.h
pwm-lpc32xx.c	io.h
pwm-lpc32xx.c	kernel.h
pwm-lpc32xx.c	module.h
pwm-lpc32xx.c	of.h
pwm-lpc32xx.c	of_address.h
pwm-lpc32xx.c	platform_device.h
pwm-lpc32xx.c	pwm.h
pwm-lpc32xx.c	slab.h
pwm-mxs.c	clk.h
pwm-mxs.c	consumer.h
pwm-mxs.c	err.h
pwm-mxs.c	io.h
pwm-mxs.c	kernel.h
pwm-mxs.c	module.h
pwm-mxs.c	of.h
pwm-mxs.c	of_address.h
pwm-mxs.c	platform_device.h
pwm-mxs.c	pwm.h
pwm-mxs.c	slab.h
pwm-mxs.c	stmp_device.h
pwm-puv3.c	clk.h
pwm-puv3.c	div64.h
pwm-puv3.c	err.h
pwm-puv3.c	hardware.h
pwm-puv3.c	io.h
pwm-puv3.c	kernel.h
pwm-puv3.c	module.h
pwm-puv3.c	platform_device.h
pwm-puv3.c	pwm.h
pwm-puv3.c	slab.h
pwm-pxa.c	clk.h
pwm-pxa.c	div64.h
pwm-pxa.c	err.h
pwm-pxa.c	io.h
pwm-pxa.c	kernel.h
pwm-pxa.c	module.h
pwm-pxa.c	platform_device.h
pwm-pxa.c	pwm.h
pwm-pxa.c	slab.h
pwm-samsung.c	clk.h
pwm-samsung.c	err.h
pwm-samsung.c	export.h
pwm-samsung.c	io.h
pwm-samsung.c	kernel.h
pwm-samsung.c	map.h
pwm-samsung.c	platform_device.h
pwm-samsung.c	pwm.h
pwm-samsung.c	regs-timer.h
pwm-samsung.c	slab.h
pwm-spear.c	clk.h
pwm-spear.c	err.h
pwm-spear.c	io.h
pwm-spear.c	ioport.h
pwm-spear.c	kernel.h
pwm-spear.c	math64.h
pwm-spear.c	module.h
pwm-spear.c	of.h
pwm-spear.c	platform_device.h
pwm-spear.c	pwm.h
pwm-spear.c	slab.h
pwm-spear.c	types.h
pwm-tegra.c	clk.h
pwm-tegra.c	err.h
pwm-tegra.c	io.h
pwm-tegra.c	module.h
pwm-tegra.c	of.h
pwm-tegra.c	platform_device.h
pwm-tegra.c	pwm.h
pwm-tegra.c	slab.h
pwm-tiecap.c	clk.h
pwm-tiecap.c	consumer.h
pwm-tiecap.c	err.h
pwm-tiecap.c	io.h
pwm-tiecap.c	module.h
pwm-tiecap.c	of_device.h
pwm-tiecap.c	platform_device.h
pwm-tiecap.c	pm_runtime.h
pwm-tiecap.c	pwm-tipwmss.h
pwm-tiecap.c	pwm.h
pwm-tiehrpwm.c	clk.h
pwm-tiehrpwm.c	consumer.h
pwm-tiehrpwm.c	err.h
pwm-tiehrpwm.c	io.h
pwm-tiehrpwm.c	module.h
pwm-tiehrpwm.c	of_device.h
pwm-tiehrpwm.c	platform_device.h
pwm-tiehrpwm.c	pm_runtime.h
pwm-tiehrpwm.c	pwm-tipwmss.h
pwm-tiehrpwm.c	pwm.h
pwm-tipwmss.c	err.h
pwm-tipwmss.c	io.h
pwm-tipwmss.c	module.h
pwm-tipwmss.c	of_device.h
pwm-tipwmss.c	platform_device.h
pwm-tipwmss.c	pm_runtime.h
pwm-tipwmss.c	pwm-tipwmss.h
pwm-twl-led.c	module.h
pwm-twl-led.c	platform_device.h
pwm-twl-led.c	pwm.h
pwm-twl-led.c	slab.h
pwm-twl-led.c	twl.h
pwm-twl.c	module.h
pwm-twl.c	platform_device.h
pwm-twl.c	pwm.h
pwm-twl.c	slab.h
pwm-twl.c	twl.h
pwm-vt8500.c	clk.h
pwm-vt8500.c	delay.h
pwm-vt8500.c	div64.h
pwm-vt8500.c	err.h
pwm-vt8500.c	io.h
pwm-vt8500.c	kernel.h
pwm-vt8500.c	module.h
pwm-vt8500.c	of.h
pwm-vt8500.c	of_address.h
pwm-vt8500.c	of_device.h
pwm-vt8500.c	platform_device.h
pwm-vt8500.c	pwm.h
pwm-vt8500.c	slab.h
pxa168fb.c	clk.h
pxa168fb.c	delay.h
pxa168fb.c	dma-mapping.h
pxa168fb.c	err.h
pxa168fb.c	fb.h
pxa168fb.c	init.h
pxa168fb.c	interrupt.h
pxa168fb.c	io.h
pxa168fb.c	ioport.h
pxa168fb.c	kernel.h
pxa168fb.c	module.h
pxa168fb.c	platform_device.h
pxa168fb.c	pxa168fb.h
pxa168fb.c	pxa168fb.h
pxa168fb.c	sched.h
pxa168fb.c	slab.h
pxa168fb.c	string.h
pxa168fb.c	uaccess.h
q40fb.c	delay.h
q40fb.c	errno.h
q40fb.c	fb.h
q40fb.c	interrupt.h
q40fb.c	kernel.h
q40fb.c	mm.h
q40fb.c	module.h
q40fb.c	pgtable.h
q40fb.c	platform_device.h
q40fb.c	q40_master.h
q40fb.c	setup.h
q40fb.c	string.h
q40fb.c	uaccess.h
radio.c	export.h
radio.c	kernel.h
radio.c	uwb-internal.h
radio.c	uwb.h
reset.c	delay.h
reset.c	err.h
reset.c	export.h
reset.c	kernel.h
reset.c	slab.h
reset.c	uwb-internal.h
rfbi.c	clk.h
rfbi.c	delay.h
rfbi.c	dma-mapping.h
rfbi.c	dss.h
rfbi.c	export.h
rfbi.c	hrtimer.h
rfbi.c	io.h
rfbi.c	kernel.h
rfbi.c	kfifo.h
rfbi.c	ktime.h
rfbi.c	omapdss.h
rfbi.c	platform_device.h
rfbi.c	pm_runtime.h
rfbi.c	semaphore.h
rfbi.c	seq_file.h
rfbi.c	vmalloc.h
riva_hw.c	kernel.h
riva_hw.c	nv_type.h
riva_hw.c	pci.h
riva_hw.c	pci_ids.h
riva_hw.c	riva_hw.h
riva_hw.c	riva_tbl.h
riva_hw.h	io.h
rivafb-i2c.c	delay.h
rivafb-i2c.c	edid.h
rivafb-i2c.c	fb.h
rivafb-i2c.c	io.h
rivafb-i2c.c	jiffies.h
rivafb-i2c.c	kernel.h
rivafb-i2c.c	module.h
rivafb-i2c.c	pci.h
rivafb-i2c.c	rivafb.h
rivafb.h	fb.h
rivafb.h	i2c-algo-bit.h
rivafb.h	i2c.h
rivafb.h	riva_hw.h
rivafb.h	vga.h
rsv.c	export.h
rsv.c	kernel.h
rsv.c	random.h
rsv.c	slab.h
rsv.c	uwb-internal.h
rsv.c	uwb.h
rtc-88pm80x.c	88pm80x.h
rtc-88pm80x.c	core.h
rtc-88pm80x.c	kernel.h
rtc-88pm80x.c	module.h
rtc-88pm80x.c	regmap.h
rtc-88pm80x.c	rtc.h
rtc-88pm80x.c	slab.h
rtc-88pm860x.c	88pm860x.h
rtc-88pm860x.c	core.h
rtc-88pm860x.c	delay.h
rtc-88pm860x.c	kernel.h
rtc-88pm860x.c	module.h
rtc-88pm860x.c	mutex.h
rtc-88pm860x.c	of.h
rtc-88pm860x.c	platform_device.h
rtc-88pm860x.c	rtc.h
rtc-88pm860x.c	slab.h
rtc-ab3100.c	abx500.h
rtc-ab3100.c	init.h
rtc-ab3100.c	kernel.h
rtc-ab3100.c	module.h
rtc-ab3100.c	platform_device.h
rtc-ab3100.c	rtc.h
rtc-ab8500.c	ab8500.h
rtc-ab8500.c	abx500.h
rtc-ab8500.c	delay.h
rtc-ab8500.c	init.h
rtc-ab8500.c	kernel.h
rtc-ab8500.c	module.h
rtc-ab8500.c	of.h
rtc-ab8500.c	platform_device.h
rtc-ab8500.c	rtc.h
rtc-at32ap700x.c	io.h
rtc-at32ap700x.c	kernel.h
rtc-at32ap700x.c	module.h
rtc-at32ap700x.c	platform_device.h
rtc-at32ap700x.c	rtc.h
rtc-at32ap700x.c	slab.h
rtc-at91rm9200.c	bcd.h
rtc-at91rm9200.c	completion.h
rtc-at91rm9200.c	interrupt.h
rtc-at91rm9200.c	io.h
rtc-at91rm9200.c	ioctl.h
rtc-at91rm9200.c	kernel.h
rtc-at91rm9200.c	module.h
rtc-at91rm9200.c	platform_device.h
rtc-at91rm9200.c	rtc-at91rm9200.h
rtc-at91rm9200.c	rtc.h
rtc-at91rm9200.c	time.h
rtc-at91rm9200.c	uaccess.h
rtc-at91sam9.c	at91_rtt.h
rtc-at91sam9.c	atmel.h
rtc-at91sam9.c	cpu.h
rtc-at91sam9.c	interrupt.h
rtc-at91sam9.c	ioctl.h
rtc-at91sam9.c	kernel.h
rtc-at91sam9.c	module.h
rtc-at91sam9.c	platform_device.h
rtc-at91sam9.c	rtc.h
rtc-at91sam9.c	slab.h
rtc-at91sam9.c	time.h
rtc-au1xxx.c	au1000.h
rtc-au1xxx.c	init.h
rtc-au1xxx.c	io.h
rtc-au1xxx.c	kernel.h
rtc-au1xxx.c	module.h
rtc-au1xxx.c	platform_device.h
rtc-au1xxx.c	rtc.h
rtc-bfin.c	bcd.h
rtc-bfin.c	blackfin.h
rtc-bfin.c	completion.h
rtc-bfin.c	delay.h
rtc-bfin.c	init.h
rtc-bfin.c	interrupt.h
rtc-bfin.c	kernel.h
rtc-bfin.c	module.h
rtc-bfin.c	platform_device.h
rtc-bfin.c	rtc.h
rtc-bfin.c	seq_file.h
rtc-bfin.c	slab.h
rtc-bq32k.c	bcd.h
rtc-bq32k.c	errno.h
rtc-bq32k.c	i2c.h
rtc-bq32k.c	init.h
rtc-bq32k.c	module.h
rtc-bq32k.c	rtc.h
rtc-bq4802.c	bcd.h
rtc-bq4802.c	init.h
rtc-bq4802.c	io.h
rtc-bq4802.c	kernel.h
rtc-bq4802.c	module.h
rtc-bq4802.c	platform_device.h
rtc-bq4802.c	rtc.h
rtc-bq4802.c	slab.h
rtc-cmos.c	acpi.h
rtc-cmos.c	hpet.h
rtc-cmos.c	init.h
rtc-cmos.c	interrupt.h
rtc-cmos.c	kernel.h
rtc-cmos.c	log2.h
rtc-cmos.c	mod_devicetable.h
rtc-cmos.c	module.h
rtc-cmos.c	of.h
rtc-cmos.c	of_platform.h
rtc-cmos.c	platform_device.h
rtc-cmos.c	pm.h
rtc-cmos.c	pnp.h
rtc-cmos.c	rtc.h
rtc-cmos.c	spinlock.h
rtc-coh901331.c	clk.h
rtc-coh901331.c	init.h
rtc-coh901331.c	interrupt.h
rtc-coh901331.c	io.h
rtc-coh901331.c	module.h
rtc-coh901331.c	platform_device.h
rtc-coh901331.c	pm.h
rtc-coh901331.c	rtc.h
rtc-coh901331.c	slab.h
rtc-da9052.c	da9052.h
rtc-da9052.c	module.h
rtc-da9052.c	platform_device.h
rtc-da9052.c	reg.h
rtc-da9052.c	rtc.h
rtc-da9055.c	core.h
rtc-da9055.c	module.h
rtc-da9055.c	pdata.h
rtc-da9055.c	platform_device.h
rtc-da9055.c	reg.h
rtc-da9055.c	rtc.h
rtc-davinci.c	bcd.h
rtc-davinci.c	delay.h
rtc-davinci.c	init.h
rtc-davinci.c	io.h
rtc-davinci.c	ioport.h
rtc-davinci.c	kernel.h
rtc-davinci.c	module.h
rtc-davinci.c	platform_device.h
rtc-davinci.c	rtc.h
rtc-davinci.c	slab.h
rtc-davinci.c	spinlock.h
rtc-dev.c	module.h
rtc-dev.c	rtc-core.h
rtc-dev.c	rtc.h
rtc-dev.c	sched.h
rtc-dm355evm.c	dm355evm_msp.h
rtc-dm355evm.c	init.h
rtc-dm355evm.c	kernel.h
rtc-dm355evm.c	module.h
rtc-dm355evm.c	platform_device.h
rtc-dm355evm.c	rtc.h
rtc-ds1216.c	bcd.h
rtc-ds1216.c	module.h
rtc-ds1216.c	platform_device.h
rtc-ds1216.c	rtc.h
rtc-ds1216.c	slab.h
rtc-ds1286.c	bcd.h
rtc-ds1286.c	ds1286.h
rtc-ds1286.c	io.h
rtc-ds1286.c	module.h
rtc-ds1286.c	platform_device.h
rtc-ds1286.c	rtc.h
rtc-ds1286.c	slab.h
rtc-ds1302.c	bcd.h
rtc-ds1302.c	init.h
rtc-ds1302.c	io.h
rtc-ds1302.c	kernel.h
rtc-ds1302.c	module.h
rtc-ds1302.c	platform_device.h
rtc-ds1302.c	rtc.h
rtc-ds1302.c	rtc.h
rtc-ds1302.c	secureedge5410.h
rtc-ds1305.c	bcd.h
rtc-ds1305.c	ds1305.h
rtc-ds1305.c	init.h
rtc-ds1305.c	kernel.h
rtc-ds1305.c	module.h
rtc-ds1305.c	rtc.h
rtc-ds1305.c	slab.h
rtc-ds1305.c	spi.h
rtc-ds1305.c	workqueue.h
rtc-ds1307.c	bcd.h
rtc-ds1307.c	ds1307.h
rtc-ds1307.c	i2c.h
rtc-ds1307.c	init.h
rtc-ds1307.c	module.h
rtc-ds1307.c	rtc.h
rtc-ds1307.c	slab.h
rtc-ds1307.c	string.h
rtc-ds1374.c	bcd.h
rtc-ds1374.c	i2c.h
rtc-ds1374.c	interrupt.h
rtc-ds1374.c	kernel.h
rtc-ds1374.c	module.h
rtc-ds1374.c	pm.h
rtc-ds1374.c	rtc.h
rtc-ds1374.c	slab.h
rtc-ds1374.c	workqueue.h
rtc-ds1390.c	bcd.h
rtc-ds1390.c	init.h
rtc-ds1390.c	module.h
rtc-ds1390.c	platform_device.h
rtc-ds1390.c	rtc.h
rtc-ds1390.c	slab.h
rtc-ds1390.c	spi.h
rtc-ds1511.c	bcd.h
rtc-ds1511.c	delay.h
rtc-ds1511.c	gfp.h
rtc-ds1511.c	init.h
rtc-ds1511.c	interrupt.h
rtc-ds1511.c	io.h
rtc-ds1511.c	kernel.h
rtc-ds1511.c	module.h
rtc-ds1511.c	platform_device.h
rtc-ds1511.c	rtc.h
rtc-ds1553.c	bcd.h
rtc-ds1553.c	delay.h
rtc-ds1553.c	gfp.h
rtc-ds1553.c	init.h
rtc-ds1553.c	interrupt.h
rtc-ds1553.c	io.h
rtc-ds1553.c	jiffies.h
rtc-ds1553.c	kernel.h
rtc-ds1553.c	module.h
rtc-ds1553.c	platform_device.h
rtc-ds1553.c	rtc.h
rtc-ds1672.c	i2c.h
rtc-ds1672.c	module.h
rtc-ds1672.c	rtc.h
rtc-ds1742.c	bcd.h
rtc-ds1742.c	delay.h
rtc-ds1742.c	gfp.h
rtc-ds1742.c	init.h
rtc-ds1742.c	io.h
rtc-ds1742.c	jiffies.h
rtc-ds1742.c	kernel.h
rtc-ds1742.c	module.h
rtc-ds1742.c	platform_device.h
rtc-ds1742.c	rtc.h
rtc-ds2404.c	bcd.h
rtc-ds2404.c	delay.h
rtc-ds2404.c	gpio.h
rtc-ds2404.c	init.h
rtc-ds2404.c	io.h
rtc-ds2404.c	module.h
rtc-ds2404.c	platform_device.h
rtc-ds2404.c	rtc-ds2404.h
rtc-ds2404.c	rtc.h
rtc-ds2404.c	slab.h
rtc-ds2404.c	types.h
rtc-ds3232.c	bcd.h
rtc-ds3232.c	i2c.h
rtc-ds3232.c	interrupt.h
rtc-ds3232.c	kernel.h
rtc-ds3232.c	module.h
rtc-ds3232.c	rtc.h
rtc-ds3232.c	slab.h
rtc-ds3232.c	workqueue.h
rtc-ds3234.c	bcd.h
rtc-ds3234.c	device.h
rtc-ds3234.c	init.h
rtc-ds3234.c	module.h
rtc-ds3234.c	platform_device.h
rtc-ds3234.c	rtc.h
rtc-ds3234.c	spi.h
rtc-efi.c	efi.h
rtc-efi.c	kernel.h
rtc-efi.c	module.h
rtc-efi.c	platform_device.h
rtc-efi.c	rtc.h
rtc-efi.c	time.h
rtc-em3027.c	bcd.h
rtc-em3027.c	i2c.h
rtc-em3027.c	module.h
rtc-em3027.c	rtc.h
rtc-ep93xx.c	gfp.h
rtc-ep93xx.c	io.h
rtc-ep93xx.c	module.h
rtc-ep93xx.c	platform_device.h
rtc-ep93xx.c	rtc.h
rtc-fm3130.c	bcd.h
rtc-fm3130.c	i2c.h
rtc-fm3130.c	module.h
rtc-fm3130.c	rtc.h
rtc-fm3130.c	slab.h
rtc-generic.c	kernel.h
rtc-generic.c	module.h
rtc-generic.c	platform_device.h
rtc-generic.c	rtc.h
rtc-generic.c	rtc.h
rtc-generic.c	time.h
rtc-imxdi.c	clk.h
rtc-imxdi.c	delay.h
rtc-imxdi.c	io.h
rtc-imxdi.c	module.h
rtc-imxdi.c	of.h
rtc-imxdi.c	platform_device.h
rtc-imxdi.c	rtc.h
rtc-imxdi.c	sched.h
rtc-imxdi.c	spinlock.h
rtc-imxdi.c	workqueue.h
rtc-isl12022.c	bcd.h
rtc-isl12022.c	i2c.h
rtc-isl12022.c	module.h
rtc-isl12022.c	rtc.h
rtc-isl12022.c	slab.h
rtc-isl1208.c	bcd.h
rtc-isl1208.c	i2c.h
rtc-isl1208.c	module.h
rtc-isl1208.c	rtc.h
rtc-jz4740.c	kernel.h
rtc-jz4740.c	module.h
rtc-jz4740.c	platform_device.h
rtc-jz4740.c	rtc.h
rtc-jz4740.c	slab.h
rtc-jz4740.c	spinlock.h
rtc-lib.c	module.h
rtc-lib.c	rtc.h
rtc-lpc32xx.c	init.h
rtc-lpc32xx.c	io.h
rtc-lpc32xx.c	kernel.h
rtc-lpc32xx.c	module.h
rtc-lpc32xx.c	of.h
rtc-lpc32xx.c	platform_device.h
rtc-lpc32xx.c	rtc.h
rtc-lpc32xx.c	slab.h
rtc-lpc32xx.c	spinlock.h
rtc-ls1x.c	delay.h
rtc-ls1x.c	init.h
rtc-ls1x.c	io.h
rtc-ls1x.c	kernel.h
rtc-ls1x.c	loongson1.h
rtc-ls1x.c	module.h
rtc-ls1x.c	platform_device.h
rtc-ls1x.c	rtc.h
rtc-ls1x.c	types.h
rtc-m41t80.c	bcd.h
rtc-m41t80.c	fs.h
rtc-m41t80.c	i2c.h
rtc-m41t80.c	init.h
rtc-m41t80.c	ioctl.h
rtc-m41t80.c	kernel.h
rtc-m41t80.c	miscdevice.h
rtc-m41t80.c	module.h
rtc-m41t80.c	mutex.h
rtc-m41t80.c	reboot.h
rtc-m41t80.c	rtc.h
rtc-m41t80.c	slab.h
rtc-m41t80.c	string.h
rtc-m41t80.c	watchdog.h
rtc-m41t93.c	bcd.h
rtc-m41t93.c	kernel.h
rtc-m41t93.c	module.h
rtc-m41t93.c	platform_device.h
rtc-m41t93.c	rtc.h
rtc-m41t93.c	spi.h
rtc-m41t94.c	bcd.h
rtc-m41t94.c	kernel.h
rtc-m41t94.c	module.h
rtc-m41t94.c	platform_device.h
rtc-m41t94.c	rtc.h
rtc-m41t94.c	spi.h
rtc-m48t35.c	bcd.h
rtc-m48t35.c	io.h
rtc-m48t35.c	module.h
rtc-m48t35.c	platform_device.h
rtc-m48t35.c	rtc.h
rtc-m48t35.c	slab.h
rtc-m48t59.c	bcd.h
rtc-m48t59.c	device.h
rtc-m48t59.c	init.h
rtc-m48t59.c	io.h
rtc-m48t59.c	kernel.h
rtc-m48t59.c	m48t59.h
rtc-m48t59.c	module.h
rtc-m48t59.c	platform_device.h
rtc-m48t59.c	rtc.h
rtc-m48t59.c	slab.h
rtc-m48t86.c	bcd.h
rtc-m48t86.c	m48t86.h
rtc-m48t86.c	module.h
rtc-m48t86.c	platform_device.h
rtc-m48t86.c	rtc.h
rtc-max6900.c	bcd.h
rtc-max6900.c	delay.h
rtc-max6900.c	i2c.h
rtc-max6900.c	module.h
rtc-max6900.c	rtc.h
rtc-max6902.c	bcd.h
rtc-max6902.c	init.h
rtc-max6902.c	kernel.h
rtc-max6902.c	module.h
rtc-max6902.c	platform_device.h
rtc-max6902.c	rtc.h
rtc-max6902.c	spi.h
rtc-max8907.c	bcd.h
rtc-max8907.c	i2c.h
rtc-max8907.c	max8907.h
rtc-max8907.c	module.h
rtc-max8907.c	platform_device.h
rtc-max8907.c	regmap.h
rtc-max8907.c	rtc.h
rtc-max8907.c	slab.h
rtc-max8925.c	i2c.h
rtc-max8925.c	max8925.h
rtc-max8925.c	module.h
rtc-max8925.c	platform_device.h
rtc-max8925.c	rtc.h
rtc-max8925.c	slab.h
rtc-max8998.c	bcd.h
rtc-max8998.c	delay.h
rtc-max8998.c	i2c.h
rtc-max8998.c	max8998-private.h
rtc-max8998.c	max8998.h
rtc-max8998.c	module.h
rtc-max8998.c	platform_device.h
rtc-max8998.c	rtc.h
rtc-max8998.c	slab.h
rtc-mc13xxx.c	kernel.h
rtc-mc13xxx.c	mc13xxx.h
rtc-mc13xxx.c	module.h
rtc-mc13xxx.c	platform_device.h
rtc-mc13xxx.c	rtc.h
rtc-mc13xxx.c	slab.h
rtc-mpc5121.c	init.h
rtc-mpc5121.c	io.h
rtc-mpc5121.c	module.h
rtc-mpc5121.c	of_device.h
rtc-mpc5121.c	of_platform.h
rtc-mpc5121.c	rtc.h
rtc-mpc5121.c	slab.h
rtc-mrst.c	init.h
rtc-mrst.c	intel_scu_ipc.h
rtc-mrst.c	interrupt.h
rtc-mrst.c	kernel.h
rtc-mrst.c	mod_devicetable.h
rtc-mrst.c	module.h
rtc-mrst.c	mrst-vrtc.h
rtc-mrst.c	mrst.h
rtc-mrst.c	platform_device.h
rtc-mrst.c	rtc.h
rtc-mrst.c	sfi.h
rtc-mrst.c	spinlock.h
rtc-msm6242.c	delay.h
rtc-msm6242.c	io.h
rtc-msm6242.c	kernel.h
rtc-msm6242.c	module.h
rtc-msm6242.c	platform_device.h
rtc-msm6242.c	rtc.h
rtc-msm6242.c	slab.h
rtc-mv.c	bcd.h
rtc-mv.c	delay.h
rtc-mv.c	gfp.h
rtc-mv.c	init.h
rtc-mv.c	io.h
rtc-mv.c	kernel.h
rtc-mv.c	module.h
rtc-mv.c	of.h
rtc-mv.c	platform_device.h
rtc-mv.c	rtc.h
rtc-mxc.c	clk.h
rtc-mxc.c	interrupt.h
rtc-mxc.c	io.h
rtc-mxc.c	module.h
rtc-mxc.c	platform_device.h
rtc-mxc.c	rtc.h
rtc-mxc.c	slab.h
rtc-nuc900.c	bcd.h
rtc-nuc900.c	delay.h
rtc-nuc900.c	init.h
rtc-nuc900.c	io.h
rtc-nuc900.c	module.h
rtc-nuc900.c	platform_device.h
rtc-nuc900.c	rtc.h
rtc-nuc900.c	slab.h
rtc-omap.c	bcd.h
rtc-omap.c	delay.h
rtc-omap.c	init.h
rtc-omap.c	io.h
rtc-omap.c	ioport.h
rtc-omap.c	kernel.h
rtc-omap.c	module.h
rtc-omap.c	of.h
rtc-omap.c	of_device.h
rtc-omap.c	platform_device.h
rtc-omap.c	pm_runtime.h
rtc-omap.c	rtc.h
rtc-pcap.c	ezx-pcap.h
rtc-pcap.c	init.h
rtc-pcap.c	kernel.h
rtc-pcap.c	module.h
rtc-pcap.c	platform_device.h
rtc-pcap.c	rtc.h
rtc-pcap.c	slab.h
rtc-pcf2123.c	bcd.h
rtc-pcf2123.c	delay.h
rtc-pcf2123.c	device.h
rtc-pcf2123.c	errno.h
rtc-pcf2123.c	init.h
rtc-pcf2123.c	kernel.h
rtc-pcf2123.c	module.h
rtc-pcf2123.c	rtc.h
rtc-pcf2123.c	slab.h
rtc-pcf2123.c	spi.h
rtc-pcf2123.c	string.h
rtc-pcf2123.c	sysfs.h
rtc-pcf50633.c	bcd.h
rtc-pcf50633.c	core.h
rtc-pcf50633.c	device.h
rtc-pcf50633.c	err.h
rtc-pcf50633.c	init.h
rtc-pcf50633.c	kernel.h
rtc-pcf50633.c	module.h
rtc-pcf50633.c	platform_device.h
rtc-pcf50633.c	rtc.h
rtc-pcf50633.c	slab.h
rtc-pcf8523.c	bcd.h
rtc-pcf8523.c	i2c.h
rtc-pcf8523.c	module.h
rtc-pcf8523.c	of.h
rtc-pcf8523.c	rtc.h
rtc-pcf8563.c	bcd.h
rtc-pcf8563.c	i2c.h
rtc-pcf8563.c	module.h
rtc-pcf8563.c	of.h
rtc-pcf8563.c	rtc.h
rtc-pcf8563.c	slab.h
rtc-pcf8583.c	bcd.h
rtc-pcf8583.c	errno.h
rtc-pcf8583.c	i2c.h
rtc-pcf8583.c	init.h
rtc-pcf8583.c	module.h
rtc-pcf8583.c	rtc.h
rtc-pcf8583.c	slab.h
rtc-pl030.c	bus.h
rtc-pl030.c	init.h
rtc-pl030.c	interrupt.h
rtc-pl030.c	io.h
rtc-pl030.c	module.h
rtc-pl030.c	rtc.h
rtc-pl030.c	slab.h
rtc-pl031.c	bcd.h
rtc-pl031.c	bus.h
rtc-pl031.c	delay.h
rtc-pl031.c	init.h
rtc-pl031.c	interrupt.h
rtc-pl031.c	io.h
rtc-pl031.c	module.h
rtc-pl031.c	rtc.h
rtc-pl031.c	slab.h
rtc-pm8xxx.c	core.h
rtc-pm8xxx.c	init.h
rtc-pm8xxx.c	module.h
rtc-pm8xxx.c	pm.h
rtc-pm8xxx.c	rtc.h
rtc-pm8xxx.c	rtc.h
rtc-pm8xxx.c	slab.h
rtc-pm8xxx.c	spinlock.h
rtc-proc.c	module.h
rtc-proc.c	proc_fs.h
rtc-proc.c	rtc-core.h
rtc-proc.c	rtc.h
rtc-proc.c	seq_file.h
rtc-ps3.c	kernel.h
rtc-ps3.c	lv1call.h
rtc-ps3.c	module.h
rtc-ps3.c	platform_device.h
rtc-ps3.c	ps3.h
rtc-ps3.c	rtc.h
rtc-puv3.c	bcd.h
rtc-puv3.c	clk.h
rtc-puv3.c	fs.h
rtc-puv3.c	hardware.h
rtc-puv3.c	init.h
rtc-puv3.c	interrupt.h
rtc-puv3.c	io.h
rtc-puv3.c	irq.h
rtc-puv3.c	log2.h
rtc-puv3.c	module.h
rtc-puv3.c	platform_device.h
rtc-puv3.c	rtc.h
rtc-puv3.c	slab.h
rtc-puv3.c	string.h
rtc-puv3.c	uaccess.h
rtc-pxa.c	hardware.h
rtc-pxa.c	init.h
rtc-pxa.c	interrupt.h
rtc-pxa.c	io.h
rtc-pxa.c	module.h
rtc-pxa.c	of.h
rtc-pxa.c	of_device.h
rtc-pxa.c	platform_device.h
rtc-pxa.c	rtc.h
rtc-pxa.c	seq_file.h
rtc-pxa.c	slab.h
rtc-r9701.c	bcd.h
rtc-r9701.c	bitops.h
rtc-r9701.c	delay.h
rtc-r9701.c	device.h
rtc-r9701.c	init.h
rtc-r9701.c	kernel.h
rtc-r9701.c	module.h
rtc-r9701.c	platform_device.h
rtc-r9701.c	rtc.h
rtc-r9701.c	spi.h
rtc-rc5t583.c	bcd.h
rtc-rc5t583.c	errno.h
rtc-rc5t583.c	init.h
rtc-rc5t583.c	interrupt.h
rtc-rc5t583.c	kernel.h
rtc-rc5t583.c	module.h
rtc-rc5t583.c	platform_device.h
rtc-rc5t583.c	rc5t583.h
rtc-rc5t583.c	rtc.h
rtc-rc5t583.c	types.h
rtc-rp5c01.c	io.h
rtc-rp5c01.c	kernel.h
rtc-rp5c01.c	module.h
rtc-rp5c01.c	platform_device.h
rtc-rp5c01.c	rtc.h
rtc-rp5c01.c	slab.h
rtc-rs5c313.c	bcd.h
rtc-rs5c313.c	delay.h
rtc-rs5c313.c	err.h
rtc-rs5c313.c	io.h
rtc-rs5c313.c	module.h
rtc-rs5c313.c	platform_device.h
rtc-rs5c313.c	rtc.h
rtc-rs5c348.c	bcd.h
rtc-rs5c348.c	delay.h
rtc-rs5c348.c	device.h
rtc-rs5c348.c	errno.h
rtc-rs5c348.c	init.h
rtc-rs5c348.c	kernel.h
rtc-rs5c348.c	module.h
rtc-rs5c348.c	rtc.h
rtc-rs5c348.c	slab.h
rtc-rs5c348.c	spi.h
rtc-rs5c348.c	string.h
rtc-rs5c348.c	workqueue.h
rtc-rs5c372.c	bcd.h
rtc-rs5c372.c	i2c.h
rtc-rs5c372.c	module.h
rtc-rs5c372.c	rtc.h
rtc-rs5c372.c	slab.h
rtc-rv3029c2.c	bcd.h
rtc-rv3029c2.c	i2c.h
rtc-rv3029c2.c	module.h
rtc-rv3029c2.c	rtc.h
rtc-rx8025.c	bcd.h
rtc-rx8025.c	i2c.h
rtc-rx8025.c	init.h
rtc-rx8025.c	kernel.h
rtc-rx8025.c	list.h
rtc-rx8025.c	module.h
rtc-rx8025.c	rtc.h
rtc-rx8025.c	slab.h
rtc-rx8581.c	bcd.h
rtc-rx8581.c	i2c.h
rtc-rx8581.c	log2.h
rtc-rx8581.c	module.h
rtc-rx8581.c	rtc.h
rtc-s35390a.c	bcd.h
rtc-s35390a.c	bitrev.h
rtc-s35390a.c	i2c.h
rtc-s35390a.c	module.h
rtc-s35390a.c	rtc.h
rtc-s35390a.c	slab.h
rtc-s3c.c	bcd.h
rtc-s3c.c	clk.h
rtc-s3c.c	fs.h
rtc-s3c.c	hardware.h
rtc-s3c.c	init.h
rtc-s3c.c	interrupt.h
rtc-s3c.c	io.h
rtc-s3c.c	irq.h
rtc-s3c.c	log2.h
rtc-s3c.c	module.h
rtc-s3c.c	of.h
rtc-s3c.c	platform_device.h
rtc-s3c.c	regs-rtc.h
rtc-s3c.c	rtc.h
rtc-s3c.c	slab.h
rtc-s3c.c	string.h
rtc-s3c.c	uaccess.h
rtc-sa1100.c	bitops.h
rtc-sa1100.c	clk.h
rtc-sa1100.c	fs.h
rtc-sa1100.c	hardware.h
rtc-sa1100.c	init.h
rtc-sa1100.c	interrupt.h
rtc-sa1100.c	io.h
rtc-sa1100.c	irqs.h
rtc-sa1100.c	module.h
rtc-sa1100.c	of.h
rtc-sa1100.c	platform_device.h
rtc-sa1100.c	pm.h
rtc-sa1100.c	regs-rtc.h
rtc-sa1100.c	rtc.h
rtc-sa1100.c	slab.h
rtc-sa1100.c	string.h
rtc-sh.c	bcd.h
rtc-sh.c	clk.h
rtc-sh.c	init.h
rtc-sh.c	interrupt.h
rtc-sh.c	io.h
rtc-sh.c	kernel.h
rtc-sh.c	log2.h
rtc-sh.c	module.h
rtc-sh.c	platform_device.h
rtc-sh.c	rtc.h
rtc-sh.c	rtc.h
rtc-sh.c	seq_file.h
rtc-sh.c	slab.h
rtc-sh.c	spinlock.h
rtc-snvs.c	init.h
rtc-snvs.c	io.h
rtc-snvs.c	kernel.h
rtc-snvs.c	module.h
rtc-snvs.c	of.h
rtc-snvs.c	of_device.h
rtc-snvs.c	platform_device.h
rtc-snvs.c	rtc.h
rtc-spear.c	bcd.h
rtc-spear.c	clk.h
rtc-spear.c	delay.h
rtc-spear.c	init.h
rtc-spear.c	io.h
rtc-spear.c	irq.h
rtc-spear.c	module.h
rtc-spear.c	of.h
rtc-spear.c	platform_device.h
rtc-spear.c	rtc.h
rtc-spear.c	slab.h
rtc-spear.c	spinlock.h
rtc-starfire.c	init.h
rtc-starfire.c	kernel.h
rtc-starfire.c	module.h
rtc-starfire.c	oplib.h
rtc-starfire.c	platform_device.h
rtc-starfire.c	rtc.h
rtc-stk17ta8.c	bcd.h
rtc-stk17ta8.c	delay.h
rtc-stk17ta8.c	gfp.h
rtc-stk17ta8.c	init.h
rtc-stk17ta8.c	interrupt.h
rtc-stk17ta8.c	io.h
rtc-stk17ta8.c	jiffies.h
rtc-stk17ta8.c	kernel.h
rtc-stk17ta8.c	module.h
rtc-stk17ta8.c	platform_device.h
rtc-stk17ta8.c	rtc.h
rtc-stmp3xxx.c	common.h
rtc-stmp3xxx.c	init.h
rtc-stmp3xxx.c	interrupt.h
rtc-stmp3xxx.c	io.h
rtc-stmp3xxx.c	kernel.h
rtc-stmp3xxx.c	module.h
rtc-stmp3xxx.c	of_device.h
rtc-stmp3xxx.c	platform_device.h
rtc-stmp3xxx.c	rtc.h
rtc-stmp3xxx.c	slab.h
rtc-sun4v.c	delay.h
rtc-sun4v.c	hypervisor.h
rtc-sun4v.c	init.h
rtc-sun4v.c	kernel.h
rtc-sun4v.c	module.h
rtc-sun4v.c	platform_device.h
rtc-sun4v.c	rtc.h
rtc-sysfs.c	module.h
rtc-sysfs.c	rtc-core.h
rtc-sysfs.c	rtc.h
rtc-tegra.c	delay.h
rtc-tegra.c	init.h
rtc-tegra.c	io.h
rtc-tegra.c	irq.h
rtc-tegra.c	kernel.h
rtc-tegra.c	module.h
rtc-tegra.c	platform_device.h
rtc-tegra.c	rtc.h
rtc-tegra.c	slab.h
rtc-test.c	err.h
rtc-test.c	module.h
rtc-test.c	platform_device.h
rtc-test.c	rtc.h
rtc-tile.c	device.h
rtc-tile.c	module.h
rtc-tile.c	platform_device.h
rtc-tile.c	rtc.h
rtc-tps6586x.c	device.h
rtc-tps6586x.c	err.h
rtc-tps6586x.c	init.h
rtc-tps6586x.c	kernel.h
rtc-tps6586x.c	module.h
rtc-tps6586x.c	platform_device.h
rtc-tps6586x.c	pm_runtime.h
rtc-tps6586x.c	rtc.h
rtc-tps6586x.c	slab.h
rtc-tps6586x.c	tps6586x.h
rtc-tps65910.c	bcd.h
rtc-tps65910.c	errno.h
rtc-tps65910.c	init.h
rtc-tps65910.c	interrupt.h
rtc-tps65910.c	kernel.h
rtc-tps65910.c	module.h
rtc-tps65910.c	platform_device.h
rtc-tps65910.c	rtc.h
rtc-tps65910.c	tps65910.h
rtc-tps65910.c	types.h
rtc-twl.c	bcd.h
rtc-twl.c	errno.h
rtc-twl.c	init.h
rtc-twl.c	interrupt.h
rtc-twl.c	kernel.h
rtc-twl.c	module.h
rtc-twl.c	platform_device.h
rtc-twl.c	rtc.h
rtc-twl.c	twl.h
rtc-twl.c	types.h
rtc-tx4939.c	gfp.h
rtc-tx4939.c	interrupt.h
rtc-tx4939.c	io.h
rtc-tx4939.c	module.h
rtc-tx4939.c	platform_device.h
rtc-tx4939.c	rtc.h
rtc-tx4939.c	tx4939.h
rtc-v3020.c	bcd.h
rtc-v3020.c	delay.h
rtc-v3020.c	gpio.h
rtc-v3020.c	init.h
rtc-v3020.c	io.h
rtc-v3020.c	module.h
rtc-v3020.c	platform_device.h
rtc-v3020.c	rtc-v3020.h
rtc-v3020.c	rtc.h
rtc-v3020.c	slab.h
rtc-v3020.c	types.h
rtc-vr41xx.c	div64.h
rtc-vr41xx.c	err.h
rtc-vr41xx.c	fs.h
rtc-vr41xx.c	init.h
rtc-vr41xx.c	interrupt.h
rtc-vr41xx.c	io.h
rtc-vr41xx.c	ioport.h
rtc-vr41xx.c	log2.h
rtc-vr41xx.c	module.h
rtc-vr41xx.c	platform_device.h
rtc-vr41xx.c	rtc.h
rtc-vr41xx.c	spinlock.h
rtc-vr41xx.c	types.h
rtc-vr41xx.c	uaccess.h
rtc-vt8500.c	bcd.h
rtc-vt8500.c	init.h
rtc-vt8500.c	interrupt.h
rtc-vt8500.c	io.h
rtc-vt8500.c	module.h
rtc-vt8500.c	of.h
rtc-vt8500.c	platform_device.h
rtc-vt8500.c	rtc.h
rtc-vt8500.c	slab.h
rtc-wm831x.c	bcd.h
rtc-wm831x.c	completion.h
rtc-wm831x.c	core.h
rtc-wm831x.c	delay.h
rtc-wm831x.c	interrupt.h
rtc-wm831x.c	ioctl.h
rtc-wm831x.c	kernel.h
rtc-wm831x.c	module.h
rtc-wm831x.c	platform_device.h
rtc-wm831x.c	random.h
rtc-wm831x.c	rtc.h
rtc-wm831x.c	slab.h
rtc-wm831x.c	time.h
rtc-wm8350.c	bcd.h
rtc-wm8350.c	completion.h
rtc-wm8350.c	core.h
rtc-wm8350.c	delay.h
rtc-wm8350.c	interrupt.h
rtc-wm8350.c	ioctl.h
rtc-wm8350.c	kernel.h
rtc-wm8350.c	module.h
rtc-wm8350.c	platform_device.h
rtc-wm8350.c	rtc.h
rtc-wm8350.c	rtc.h
rtc-wm8350.c	time.h
rtc-x1205.c	bcd.h
rtc-x1205.c	delay.h
rtc-x1205.c	i2c.h
rtc-x1205.c	module.h
rtc-x1205.c	rtc.h
scan.c	device.h
scan.c	err.h
scan.c	slab.h
scan.c	stat.h
scan.c	uwb-internal.h
sdi.c	consumer.h
sdi.c	delay.h
sdi.c	dss.h
sdi.c	err.h
sdi.c	export.h
sdi.c	kernel.h
sdi.c	omapdss.h
sdi.c	platform_device.h
sdi.c	string.h
sh_mipi_dsi.c	bitmap.h
sh_mipi_dsi.c	clk.h
sh_mipi_dsi.c	delay.h
sh_mipi_dsi.c	init.h
sh_mipi_dsi.c	io.h
sh_mipi_dsi.c	mipi_display.h
sh_mipi_dsi.c	module.h
sh_mipi_dsi.c	platform_device.h
sh_mipi_dsi.c	pm_runtime.h
sh_mipi_dsi.c	sh_mipi_dsi.h
sh_mipi_dsi.c	sh_mobile_lcdc.h
sh_mipi_dsi.c	sh_mobile_lcdcfb.h
sh_mipi_dsi.c	slab.h
sh_mipi_dsi.c	string.h
sh_mipi_dsi.c	types.h
sh_mobile_lcdcfb.h	completion.h
sh_mobile_lcdcfb.h	fb.h
sh_mobile_lcdcfb.h	mutex.h
sh_mobile_lcdcfb.h	wait.h
sh_mobile_meram.c	device.h
sh_mobile_meram.c	err.h
sh_mobile_meram.c	export.h
sh_mobile_meram.c	genalloc.h
sh_mobile_meram.c	io.h
sh_mobile_meram.c	kernel.h
sh_mobile_meram.c	module.h
sh_mobile_meram.c	platform_device.h
sh_mobile_meram.c	pm_runtime.h
sh_mobile_meram.c	sh_mobile_meram.h
sh_mobile_meram.c	slab.h
softcursor.c	fb.h
softcursor.c	fbcon.h
softcursor.c	io.h
softcursor.c	module.h
softcursor.c	slab.h
softcursor.c	string.h
ssd1307fb.c	delay.h
ssd1307fb.c	fb.h
ssd1307fb.c	i2c.h
ssd1307fb.c	kernel.h
ssd1307fb.c	module.h
ssd1307fb.c	of_device.h
ssd1307fb.c	of_gpio.h
ssd1307fb.c	pwm.h
ssd1307fb.c	uaccess.h
sticon.c	console.h
sticon.c	errno.h
sticon.c	init.h
sticon.c	io.h
sticon.c	kd.h
sticon.c	kernel.h
sticon.c	module.h
sticon.c	selection.h
sticon.c	sticore.h
sticon.c	vt_kern.h
sticore.c	cacheflush.h
sticore.c	font.h
sticore.c	grfioctl.h
sticore.c	hardware.h
sticore.c	init.h
sticore.c	kernel.h
sticore.c	module.h
sticore.c	page.h
sticore.c	parisc-device.h
sticore.c	pci.h
sticore.c	pdc.h
sticore.c	slab.h
sticore.c	sticore.h
sticore.c	types.h
stifb.c	delay.h
stifb.c	errno.h
stifb.c	fb.h
stifb.c	grfioctl.h
stifb.c	init.h
stifb.c	ioport.h
stifb.c	kernel.h
stifb.c	mm.h
stifb.c	module.h
stifb.c	slab.h
stifb.c	sticore.h
stifb.c	string.h
stifb.c	uaccess.h
sunxvr500.c	fb.h
sunxvr500.c	init.h
sunxvr500.c	io.h
sunxvr500.c	kernel.h
sunxvr500.c	module.h
sunxvr500.c	of_device.h
sunxvr500.c	pci.h
svgalib.c	fb.h
svgalib.c	io.h
svgalib.c	kernel.h
svgalib.c	module.h
svgalib.c	string.h
svgalib.c	svga.h
svgalib.c	types.h
syscopyarea.c	fb.h
syscopyarea.c	fb_draw.h
syscopyarea.c	io.h
syscopyarea.c	kernel.h
syscopyarea.c	module.h
syscopyarea.c	string.h
syscopyarea.c	types.h
sysfs.c	device.h
sysfs.c	module.h
sysfs.c	pps_kernel.h
sysfs.c	string.h
tcm_vhost.c	compat.h
tcm_vhost.c	configfs.h
tcm_vhost.c	configfs_macros.h
tcm_vhost.c	ctype.h
tcm_vhost.c	eventfd.h
tcm_vhost.c	fs.h
tcm_vhost.c	init.h
tcm_vhost.c	kthread.h
tcm_vhost.c	miscdevice.h
tcm_vhost.c	module.h
tcm_vhost.c	moduleparam.h
tcm_vhost.c	scsi.h
tcm_vhost.c	scsi_tcq.h
tcm_vhost.c	slab.h
tcm_vhost.c	string.h
tcm_vhost.c	target_core_base.h
tcm_vhost.c	target_core_configfs.h
tcm_vhost.c	target_core_fabric.h
tcm_vhost.c	target_core_fabric_configfs.h
tcm_vhost.c	tcm_vhost.h
tcm_vhost.c	types.h
tcm_vhost.c	unaligned.h
tcm_vhost.c	utsname.h
tcm_vhost.c	utsrelease.h
tcm_vhost.c	vhost.c
tcm_vhost.c	vhost.h
tcm_vhost.c	vhost.h
tcm_vhost.c	virtio_net.h
tcm_vhost.c	virtio_scsi.h
tcm_vhost.h	vhost.h
tegra-ahb.c	io.h
tegra-ahb.c	kernel.h
tegra-ahb.c	module.h
tegra-ahb.c	platform_device.h
tegra-ahb.c	tegra-ahb.h
test.c	compat.h
test.c	eventfd.h
test.c	file.h
test.c	miscdevice.h
test.c	module.h
test.c	mutex.h
test.c	rcupdate.h
test.c	slab.h
test.c	test.h
test.c	vhost.c
test.c	vhost.h
test.c	workqueue.h
ti_hdmi_4xxx_ip.c	asound.h
ti_hdmi_4xxx_ip.c	asoundef.h
ti_hdmi_4xxx_ip.c	delay.h
ti_hdmi_4xxx_ip.c	dss.h
ti_hdmi_4xxx_ip.c	dss_features.h
ti_hdmi_4xxx_ip.c	err.h
ti_hdmi_4xxx_ip.c	gpio.h
ti_hdmi_4xxx_ip.c	interrupt.h
ti_hdmi_4xxx_ip.c	io.h
ti_hdmi_4xxx_ip.c	kernel.h
ti_hdmi_4xxx_ip.c	module.h
ti_hdmi_4xxx_ip.c	mutex.h
ti_hdmi_4xxx_ip.c	seq_file.h
ti_hdmi_4xxx_ip.c	string.h
ti_hdmi_4xxx_ip.c	ti_hdmi_4xxx_ip.h
ti_hdmi_4xxx_ip.h	omapdss.h
ti_hdmi_4xxx_ip.h	string.h
ti_hdmi_4xxx_ip.h	ti_hdmi.h
tileblit.c	console.h
tileblit.c	fb.h
tileblit.c	fbcon.h
tileblit.c	module.h
tileblit.c	string.h
tileblit.c	types.h
tileblit.c	vt_kern.h
umc-bus.c	kernel.h
umc-bus.c	module.h
umc-bus.c	pci.h
umc-bus.c	sysfs.h
umc-bus.c	umc.h
umc-bus.c	workqueue.h
umc-dev.c	export.h
umc-dev.c	kernel.h
umc-dev.c	slab.h
umc-dev.c	umc.h
umc-drv.c	export.h
umc-drv.c	kernel.h
umc-drv.c	umc.h
usb.c	delay.h
usb.c	i1480-dfu.h
usb.c	interrupt.h
usb.c	module.h
usb.c	slab.h
usb.c	usb.h
usb.c	uwb.h
usb.c	wusb-wa.h
usb.c	wusb.h
uwb-debug.c	debug-cmd.h
uwb-debug.c	debugfs.h
uwb-debug.c	device.h
uwb-debug.c	module.h
uwb-debug.c	notifier.h
uwb-debug.c	seq_file.h
uwb-debug.c	slab.h
uwb-debug.c	spinlock.h
uwb-debug.c	uaccess.h
uwb-debug.c	uwb-internal.h
uwb-internal.h	device.h
uwb-internal.h	kernel.h
uwb-internal.h	mutex.h
uwb-internal.h	uwb.h
uwbd.c	freezer.h
uwbd.c	kthread.h
uwbd.c	module.h
uwbd.c	slab.h
uwbd.c	uwb-internal.h
venc.c	clk.h
venc.c	completion.h
venc.c	consumer.h
venc.c	delay.h
venc.c	dss.h
venc.c	dss_features.h
venc.c	err.h
venc.c	io.h
venc.c	kernel.h
venc.c	module.h
venc.c	mutex.h
venc.c	omapdss.h
venc.c	platform_device.h
venc.c	pm_runtime.h
venc.c	seq_file.h
venc.c	string.h
venc_panel.c	dss.h
venc_panel.c	err.h
venc_panel.c	io.h
venc_panel.c	kernel.h
venc_panel.c	module.h
venc_panel.c	mutex.h
venc_panel.c	omapdss.h
vgacon.c	console.h
vgacon.c	fs.h
vgacon.c	init.h
vgacon.c	io.h
vgacon.c	ioport.h
vgacon.c	kd.h
vgacon.c	kernel.h
vgacon.c	module.h
vgacon.c	screen_info.h
vgacon.c	selection.h
vgacon.c	slab.h
vgacon.c	spinlock.h
vgacon.c	string.h
vgacon.c	types.h
vgacon.c	vga.h
vgacon.c	vt_kern.h
vhost.c	cgroup.h
vhost.c	eventfd.h
vhost.c	file.h
vhost.c	highmem.h
vhost.c	kthread.h
vhost.c	miscdevice.h
vhost.c	mm.h
vhost.c	mmu_context.h
vhost.c	mutex.h
vhost.c	poll.h
vhost.c	rcupdate.h
vhost.c	slab.h
vhost.c	vhost.h
vhost.c	vhost.h
vhost.c	virtio_net.h
vhost.h	atomic.h
vhost.h	eventfd.h
vhost.h	file.h
vhost.h	mm.h
vhost.h	mutex.h
vhost.h	poll.h
vhost.h	uio.h
vhost.h	vhost.h
vhost.h	virtio_config.h
vhost.h	virtio_ring.h
whc-rc.c	dma-mapping.h
whc-rc.c	init.h
whc-rc.c	interrupt.h
whc-rc.c	module.h
whc-rc.c	pci.h
whc-rc.c	sched.h
whc-rc.c	slab.h
whc-rc.c	umc.h
whc-rc.c	uwb-internal.h
whc-rc.c	uwb.h
whc-rc.c	whci.h
whc-rc.c	workqueue.h
whci.c	delay.h
whci.c	dma-mapping.h
whci.c	kernel.h
whci.c	module.h
whci.c	pci.h
whci.c	slab.h
whci.c	umc.h
whci.c	whci.h
