88pm860x-codec.c	88pm860x-codec.h
88pm860x-codec.c	88pm860x.h
88pm860x-codec.c	asoc.h
88pm860x-codec.c	core.h
88pm860x-codec.c	delay.h
88pm860x-codec.c	i2c.h
88pm860x-codec.c	initval.h
88pm860x-codec.c	jack.h
88pm860x-codec.c	kernel.h
88pm860x-codec.c	module.h
88pm860x-codec.c	pcm.h
88pm860x-codec.c	pcm_params.h
88pm860x-codec.c	platform_device.h
88pm860x-codec.c	slab.h
88pm860x-codec.c	soc.h
88pm860x-codec.c	tlv.h
ad73311.c	ac97_codec.h
ad73311.c	ad73311.h
ad73311.c	core.h
ad73311.c	device.h
ad73311.c	init.h
ad73311.c	initval.h
ad73311.c	kernel.h
ad73311.c	module.h
ad73311.c	pcm.h
ad73311.c	slab.h
ad73311.c	soc.h
adau1373.c	adau1373.h
adau1373.c	adau1373.h
adau1373.c	core.h
adau1373.c	delay.h
adau1373.c	gcd.h
adau1373.c	i2c.h
adau1373.c	init.h
adau1373.c	module.h
adau1373.c	pcm.h
adau1373.c	pcm_params.h
adau1373.c	pm.h
adau1373.c	slab.h
adau1373.c	soc.h
adau1373.c	tlv.h
adau1701.c	adau1701.h
adau1701.c	core.h
adau1701.c	delay.h
adau1701.c	i2c.h
adau1701.c	init.h
adau1701.c	module.h
adau1701.c	pcm.h
adau1701.c	pcm_params.h
adau1701.c	sigmadsp.h
adau1701.c	slab.h
adau1701.c	soc.h
adav80x.c	adav80x.h
adav80x.c	core.h
adav80x.c	i2c.h
adav80x.c	init.h
adav80x.c	kernel.h
adav80x.c	module.h
adav80x.c	pcm.h
adav80x.c	pcm_params.h
adav80x.c	slab.h
adav80x.c	soc.h
adav80x.c	spi.h
adav80x.c	tlv.h
ak4642.c	delay.h
ak4642.c	i2c.h
ak4642.c	initval.h
ak4642.c	module.h
ak4642.c	slab.h
ak4642.c	soc.h
ak4642.c	tlv.h
ak4671.c	ak4671.h
ak4671.c	delay.h
ak4671.c	i2c.h
ak4671.c	init.h
ak4671.c	initval.h
ak4671.c	module.h
ak4671.c	slab.h
ak4671.c	soc.h
ak4671.c	tlv.h
alc5623.c	alc5623.h
alc5623.c	alc5623.h
alc5623.c	core.h
alc5623.c	delay.h
alc5623.c	i2c.h
alc5623.c	init.h
alc5623.c	initval.h
alc5623.c	kernel.h
alc5623.c	module.h
alc5623.c	pcm.h
alc5623.c	pcm_params.h
alc5623.c	pm.h
alc5623.c	slab.h
alc5623.c	soc.h
alc5623.c	tlv.h
alc5632.c	alc5632.h
alc5632.c	core.h
alc5632.c	delay.h
alc5632.c	i2c.h
alc5632.c	init.h
alc5632.c	initval.h
alc5632.c	kernel.h
alc5632.c	module.h
alc5632.c	pcm.h
alc5632.c	pcm_params.h
alc5632.c	pm.h
alc5632.c	regmap.h
alc5632.c	slab.h
alc5632.c	soc.h
alc5632.c	tlv.h
aloop.c	control.h
aloop.c	core.h
aloop.c	info.h
aloop.c	init.h
aloop.c	initval.h
aloop.c	jiffies.h
aloop.c	module.h
aloop.c	pcm.h
aloop.c	platform_device.h
aloop.c	slab.h
aloop.c	time.h
aloop.c	wait.h
amdtp.c	amdtp.h
amdtp.c	device.h
amdtp.c	err.h
amdtp.c	firewire.h
amdtp.c	module.h
amdtp.c	pcm.h
amdtp.c	slab.h
amdtp.h	interrupt.h
amdtp.h	mutex.h
amdtp.h	packets-buffer.h
amdtp.h	spinlock.h
arizona.h	completion.h
arizona.h	soc.h
arizona.h	wm_adsp.h
asn1_compiler.c	asn1_ber_bytecode.h
asn1_compiler.c	asn1_ber_bytecode.h>\n
asn1_compiler.c	asn1_decoder.h>\n
asn1_compiler.c	ctype.h
asn1_compiler.c	fcntl.h
asn1_compiler.c	stat.h
asn1_compiler.c	stdarg.h
asn1_compiler.c	stdint.h
asn1_compiler.c	stdio.h
asn1_compiler.c	stdlib.h
asn1_compiler.c	string.h
asn1_compiler.c	unistd.h
bin2c.c	stdio.h
checklist.c	dialog.h
checks.c	dtc.h
cmp.c	cmp.h
cmp.c	device.h
cmp.c	firewire-constants.h
cmp.c	firewire.h
cmp.c	iso-resources.h
cmp.c	lib.h
cmp.c	module.h
cmp.c	sched.h
cmp.h	iso-resources.h
cmp.h	mutex.h
cmp.h	types.h
conf.c	ctype.h
conf.c	getopt.h
conf.c	lkc.h
conf.c	locale.h
conf.c	stat.h
conf.c	stdio.h
conf.c	stdlib.h
conf.c	string.h
conf.c	time.h
conf.c	time.h
conf.c	unistd.h
confdata.c	ctype.h
confdata.c	errno.h
confdata.c	fcntl.h
confdata.c	lkc.h
confdata.c	stat.h
confdata.c	stdarg.h
confdata.c	stdio.h
confdata.c	stdlib.h
confdata.c	string.h
confdata.c	time.h
confdata.c	unistd.h
conmakehash.c	ctype.h
conmakehash.c	stdio.h
conmakehash.c	stdlib.h
conmakehash.c	string.h
conmakehash.c	sysexits.h
conmakehash.c	types.h
cq93vc.c	clk.h
cq93vc.c	core.h
cq93vc.c	davinci_voicecodec.h
cq93vc.c	delay.h
cq93vc.c	device.h
cq93vc.c	init.h
cq93vc.c	initval.h
cq93vc.c	io.h
cq93vc.c	module.h
cq93vc.c	moduleparam.h
cq93vc.c	pcm.h
cq93vc.c	pcm_params.h
cq93vc.c	platform_device.h
cq93vc.c	pm.h
cq93vc.c	slab.h
cq93vc.c	soc.h
cq93vc.c	spi.h
cs42l73.c	core.h
cs42l73.c	cs42l73.h
cs42l73.c	delay.h
cs42l73.c	i2c.h
cs42l73.c	init.h
cs42l73.c	initval.h
cs42l73.c	kernel.h
cs42l73.c	module.h
cs42l73.c	moduleparam.h
cs42l73.c	pcm.h
cs42l73.c	pcm_params.h
cs42l73.c	pm.h
cs42l73.c	regmap.h
cs42l73.c	slab.h
cs42l73.c	soc-dapm.h
cs42l73.c	soc.h
cs42l73.c	tlv.h
da7210.c	delay.h
da7210.c	i2c.h
da7210.c	initval.h
da7210.c	module.h
da7210.c	pcm.h
da7210.c	pcm_params.h
da7210.c	regmap.h
da7210.c	slab.h
da7210.c	soc.h
da7210.c	spi.h
da7210.c	tlv.h
da732x.c	core.h
da732x.c	da732x.h
da732x.c	da732x_reg.h
da732x.c	delay.h
da732x.c	div64.h
da732x.c	i2c.h
da732x.c	init.h
da732x.c	initval.h
da732x.c	module.h
da732x.c	moduleparam.h
da732x.c	pcm.h
da732x.c	pcm_params.h
da732x.c	platform_device.h
da732x.c	pm.h
da732x.c	regmap.h
da732x.c	slab.h
da732x.c	soc-dapm.h
da732x.c	soc.h
da732x.c	sysfs.h
da732x.c	tlv.h
da732x.h	soc.h
da9055.c	da9055.h
da9055.c	delay.h
da9055.c	i2c.h
da9055.c	initval.h
da9055.c	module.h
da9055.c	pcm.h
da9055.c	pcm_params.h
da9055.c	regmap.h
da9055.c	slab.h
da9055.c	soc.h
da9055.c	tlv.h
data.c	dtc.h
dfbmcs320.c	init.h
dfbmcs320.c	module.h
dfbmcs320.c	platform_device.h
dfbmcs320.c	soc.h
dialog.h	ctype.h
dialog.h	fcntl.h
dialog.h	stdbool.h
dialog.h	stdlib.h
dialog.h	string.h
dialog.h	types.h
dialog.h	unistd.h
docproc.c	ctype.h
docproc.c	errno.h
docproc.c	limits.h
docproc.c	stdio.h
docproc.c	stdlib.h
docproc.c	string.h
docproc.c	types.h
docproc.c	unistd.h
docproc.c	wait.h
dtc.c	dtc.h
dtc.c	srcpos.h
dtc.c	version_gen.h
dtc.h	assert.h
dtc.h	ctype.h
dtc.h	errno.h
dtc.h	fdt.h
dtc.h	libfdt_env.h
dtc.h	stdarg.h
dtc.h	stdbool.h
dtc.h	stdint.h
dtc.h	stdio.h
dtc.h	stdlib.h
dtc.h	string.h
dtc.h	unistd.h
dtc.h	util.h
dummy.c	control.h
dummy.c	core.h
dummy.c	err.h
dummy.c	hrtimer.h
dummy.c	info.h
dummy.c	init.h
dummy.c	initval.h
dummy.c	jiffies.h
dummy.c	math64.h
dummy.c	module.h
dummy.c	pcm.h
dummy.c	platform_device.h
dummy.c	rawmidi.h
dummy.c	slab.h
dummy.c	time.h
dummy.c	tlv.h
dummy.c	wait.h
expr.c	lkc.h
expr.c	stdio.h
expr.c	stdlib.h
expr.c	string.h
expr.h	assert.h
expr.h	list.h
expr.h	stdbool.h
expr.h	stdio.h
fcp.c	delay.h
fcp.c	device.h
fcp.c	fcp.h
fcp.c	firewire-constants.h
fcp.c	firewire.h
fcp.c	lib.h
fcp.c	list.h
fcp.c	module.h
fcp.c	sched.h
fcp.c	spinlock.h
fcp.c	wait.h
fdt.c	fdt.h
fdt.c	libfdt.h
fdt.c	libfdt_env.h
fdt.c	libfdt_internal.h
fdt_empty_tree.c	fdt.h
fdt_empty_tree.c	libfdt.h
fdt_empty_tree.c	libfdt_env.h
fdt_empty_tree.c	libfdt_internal.h
fdt_ro.c	fdt.h
fdt_ro.c	libfdt.h
fdt_ro.c	libfdt_env.h
fdt_ro.c	libfdt_internal.h
fdt_rw.c	fdt.h
fdt_rw.c	libfdt.h
fdt_rw.c	libfdt_env.h
fdt_rw.c	libfdt_internal.h
fdt_strerror.c	fdt.h
fdt_strerror.c	libfdt.h
fdt_strerror.c	libfdt_env.h
fdt_strerror.c	libfdt_internal.h
fdt_sw.c	fdt.h
fdt_sw.c	libfdt.h
fdt_sw.c	libfdt_env.h
fdt_sw.c	libfdt_internal.h
fdt_wip.c	fdt.h
fdt_wip.c	libfdt.h
fdt_wip.c	libfdt_env.h
fdt_wip.c	libfdt_internal.h
fdtdump.c	ctype.h
fdtdump.c	fdt.h
fdtdump.c	libfdt_env.h
fdtdump.c	stdint.h
fdtdump.c	stdio.h
fdtdump.c	stdlib.h
fdtdump.c	string.h
fdtdump.c	util.h
fdtget.c	assert.h
fdtget.c	ctype.h
fdtget.c	getopt.h
fdtget.c	libfdt.h
fdtget.c	stdio.h
fdtget.c	stdlib.h
fdtget.c	string.h
fdtget.c	util.h
fdtput.c	assert.h
fdtput.c	ctype.h
fdtput.c	getopt.h
fdtput.c	libfdt.h
fdtput.c	stdio.h
fdtput.c	stdlib.h
fdtput.c	string.h
fdtput.c	util.h
file2alias.c	ctype.h
file2alias.c	getsect.h
file2alias.c	inttypes.h
file2alias.c	mod_devicetable.h
file2alias.c	modpost.h
file2alias.c	stdbool.h
file2alias.c	stdint.h
fixdep.c	ctype.h
fixdep.c	fcntl.h
fixdep.c	inet.h
fixdep.c	limits.h
fixdep.c	mman.h
fixdep.c	stat.h
fixdep.c	stdio.h
fixdep.c	stdlib.h
fixdep.c	string.h
fixdep.c	types.h
fixdep.c	unistd.h
flattree.c	dtc.h
flattree.c	srcpos.h
fstree.c	dirent.h
fstree.c	dtc.h
fstree.c	stat.h
gconf.c	gdkkeysyms.h
gconf.c	glade.h
gconf.c	glib.h
gconf.c	gtk.h
gconf.c	images.c
gconf.c	lkc.h
gconf.c	stdio.h
gconf.c	stdlib.h
gconf.c	string.h
gconf.c	time.h
gconf.c	unistd.h
genheaders.c	classmap.h
genheaders.c	ctype.h
genheaders.c	errno.h
genheaders.c	initial_sid_to_string.h
genheaders.c	stdio.h
genheaders.c	stdlib.h
genheaders.c	string.h
genheaders.c	unistd.h
genksyms.c	assert.h
genksyms.c	genksyms.h
genksyms.c	getopt.h
genksyms.c	stdarg.h
genksyms.c	stdio.h
genksyms.c	stdlib.h
genksyms.c	string.h
genksyms.c	unistd.h
genksyms.h	stdio.h
inputbox.c	dialog.h
isabelle.c	core.h
isabelle.c	delay.h
isabelle.c	div64.h
isabelle.c	i2c.h
isabelle.c	init.h
isabelle.c	initval.h
isabelle.c	isabelle.h
isabelle.c	jack.h
isabelle.c	kernel.h
isabelle.c	module.h
isabelle.c	moduleparam.h
isabelle.c	pcm.h
isabelle.c	pcm_params.h
isabelle.c	pm.h
isabelle.c	regmap.h
isabelle.c	slab.h
isabelle.c	soc-dapm.h
isabelle.c	soc.h
isabelle.c	tlv.h
isabelle.h	bitops.h
isight.c	byteorder.h
isight.c	control.h
isight.c	core.h
isight.c	delay.h
isight.c	device.h
isight.c	firewire-constants.h
isight.c	firewire.h
isight.c	initval.h
isight.c	iso-resources.h
isight.c	lib.h
isight.c	mod_devicetable.h
isight.c	module.h
isight.c	mutex.h
isight.c	packets-buffer.h
isight.c	pcm.h
isight.c	string.h
isight.c	tlv.h
iso-resources.c	device.h
iso-resources.c	export.h
iso-resources.c	firewire-constants.h
iso-resources.c	firewire.h
iso-resources.c	iso-resources.h
iso-resources.c	jiffies.h
iso-resources.c	mutex.h
iso-resources.c	sched.h
iso-resources.c	spinlock.h
iso-resources.h	mutex.h
iso-resources.h	types.h
jz4740.c	core.h
jz4740.c	delay.h
jz4740.c	initval.h
jz4740.c	io.h
jz4740.c	kernel.h
jz4740.c	module.h
jz4740.c	pcm.h
jz4740.c	pcm_params.h
jz4740.c	platform_device.h
jz4740.c	regmap.h
jz4740.c	slab.h
jz4740.c	soc.h
jz4740.c	tlv.h
kallsyms.c	ctype.h
kallsyms.c	stdio.h
kallsyms.c	stdlib.h
kallsyms.c	string.h
kallsyms.c	types.h>\n
kxgettext.c	lkc.h
kxgettext.c	stdlib.h
kxgettext.c	string.h
lib.c	delay.h
lib.c	device.h
lib.c	firewire.h
lib.c	lib.h
lib.c	module.h
lib.h	firewire-constants.h
lib.h	types.h
libfdt.h	fdt.h
libfdt.h	libfdt_env.h
libfdt_env.h	stddef.h
libfdt_env.h	stdint.h
libfdt_env.h	string.h
libfdt_internal.h	fdt.h
livetree.c	dtc.h
lkc.h	expr.h
lkc.h	lkc_proto.h
lkc_proto.h	stdarg.h
lm4857.c	core.h
lm4857.c	i2c.h
lm4857.c	init.h
lm4857.c	module.h
lm4857.c	slab.h
lm4857.c	soc.h
lm4857.c	tlv.h
lm49453.c	core.h
lm49453.c	delay.h
lm49453.c	div64.h
lm49453.c	i2c.h
lm49453.c	init.h
lm49453.c	initval.h
lm49453.c	jack.h
lm49453.c	kernel.h
lm49453.c	lm49453.h
lm49453.c	module.h
lm49453.c	moduleparam.h
lm49453.c	pcm.h
lm49453.c	pcm_params.h
lm49453.c	pm.h
lm49453.c	regmap.h
lm49453.c	slab.h
lm49453.c	soc-dapm.h
lm49453.c	soc.h
lm49453.c	tlv.h
max98088.c	core.h
max98088.c	delay.h
max98088.c	div64.h
max98088.c	i2c.h
max98088.c	init.h
max98088.c	initval.h
max98088.c	kernel.h
max98088.c	max98088.h
max98088.c	max98088.h
max98088.c	module.h
max98088.c	moduleparam.h
max98088.c	pcm.h
max98088.c	pcm_params.h
max98088.c	pm.h
max98088.c	slab.h
max98088.c	soc.h
max98088.c	tlv.h
max98095.c	core.h
max98095.c	delay.h
max98095.c	div64.h
max98095.c	i2c.h
max98095.c	init.h
max98095.c	initval.h
max98095.c	jack.h
max98095.c	kernel.h
max98095.c	max98095.h
max98095.c	max98095.h
max98095.c	module.h
max98095.c	moduleparam.h
max98095.c	pcm.h
max98095.c	pcm_params.h
max98095.c	pm.h
max98095.c	slab.h
max98095.c	soc.h
max98095.c	tlv.h
max9850.c	i2c.h
max9850.c	init.h
max9850.c	max9850.h
max9850.c	module.h
max9850.c	pcm.h
max9850.c	pcm_params.h
max9850.c	slab.h
max9850.c	soc.h
max9850.c	tlv.h
max9877.c	i2c.h
max9877.c	init.h
max9877.c	max9877.h
max9877.c	module.h
max9877.c	soc.h
max9877.c	tlv.h
mc13783.c	control.h
mc13783.c	core.h
mc13783.c	device.h
mc13783.c	initval.h
mc13783.c	mc13783.h
mc13783.c	mc13xxx.h
mc13783.c	module.h
mc13783.c	pcm.h
mc13783.c	slab.h
mc13783.c	soc-dapm.h
mc13783.c	soc.h
mconf.c	ctype.h
mconf.c	dialog.h
mconf.c	errno.h
mconf.c	fcntl.h
mconf.c	limits.h
mconf.c	lkc.h
mconf.c	locale.h
mconf.c	signal.h
mconf.c	stdarg.h
mconf.c	stdlib.h
mconf.c	string.h
mconf.c	unistd.h
mdp.c	classmap.h
mdp.c	initial_sid_to_string.h
mdp.c	stdio.h
mdp.c	stdlib.h
mdp.c	string.h
mdp.c	unistd.h
menu.c	ctype.h
menu.c	lkc.h
menu.c	stdarg.h
menu.c	stdlib.h
menu.c	string.h
menubox.c	dialog.h
mk_elfconfig.c	elf.h
mk_elfconfig.c	stdio.h
mk_elfconfig.c	stdlib.h
mk_elfconfig.c	string.h
ml403-ac97cr.c	ac97_codec.h
ml403-ac97cr.c	core.h
ml403-ac97cr.c	init.h
ml403-ac97cr.c	initval.h
ml403-ac97cr.c	interrupt.h
ml403-ac97cr.c	io.h
ml403-ac97cr.c	ioport.h
ml403-ac97cr.c	jiffies.h
ml403-ac97cr.c	module.h
ml403-ac97cr.c	mutex.h
ml403-ac97cr.c	param.h
ml403-ac97cr.c	pcm-indirect2.h
ml403-ac97cr.c	pcm.h
ml403-ac97cr.c	pcm_params.h
ml403-ac97cr.c	platform_device.h
ml403-ac97cr.c	sched.h
ml403-ac97cr.c	slab.h
ml403-ac97cr.c	spinlock.h
modpost.c	autoconf.h
modpost.c	compiler.h>\n
modpost.c	ctype.h
modpost.c	license.h
modpost.c	modpost.h
modpost.c	module.h>\n
modpost.c	stdio.h
modpost.c	string.h
modpost.c	vermagic.h>\n
modpost.h	elf.h
modpost.h	elfconfig.h
modpost.h	fcntl.h
modpost.h	mman.h
modpost.h	stat.h
modpost.h	stdarg.h
modpost.h	stdio.h
modpost.h	stdlib.h
modpost.h	string.h
modpost.h	types.h
modpost.h	unistd.h
mpu401.c	core.h
mpu401.c	err.h
mpu401.c	init.h
mpu401.c	initval.h
mpu401.c	module.h
mpu401.c	mpu401.h
mpu401.c	platform_device.h
mpu401.c	pnp.h
mpu401_uart.c	core.h
mpu401_uart.c	delay.h
mpu401_uart.c	errno.h
mpu401_uart.c	init.h
mpu401_uart.c	interrupt.h
mpu401_uart.c	io.h
mpu401_uart.c	ioport.h
mpu401_uart.c	module.h
mpu401_uart.c	mpu401.h
mpu401_uart.c	slab.h
mtpav.c	core.h
mtpav.c	delay.h
mtpav.c	err.h
mtpav.c	init.h
mtpav.c	initval.h
mtpav.c	interrupt.h
mtpav.c	io.h
mtpav.c	ioport.h
mtpav.c	module.h
mtpav.c	moduleparam.h
mtpav.c	platform_device.h
mtpav.c	rawmidi.h
mts64.c	control.h
mts64.c	core.h
mts64.c	delay.h
mts64.c	init.h
mts64.c	initval.h
mts64.c	module.h
mts64.c	parport.h
mts64.c	platform_device.h
mts64.c	rawmidi.h
mts64.c	slab.h
mts64.c	spinlock.h
nconf.c	ctype.h
nconf.c	lkc.h
nconf.c	nconf.h
nconf.c	string.h
nconf.gui.c	nconf.h
nconf.h	ctype.h
nconf.h	curses.h
nconf.h	errno.h
nconf.h	fcntl.h
nconf.h	form.h
nconf.h	limits.h
nconf.h	locale.h
nconf.h	menu.h
nconf.h	ncurses.h
nconf.h	panel.h
nconf.h	stdarg.h
nconf.h	stdio.h
nconf.h	stdlib.h
nconf.h	string.h
nconf.h	time.h
nconf.h	time.h
nconf.h	unistd.h
omap-hdmi.c	module.h
omap-hdmi.c	soc.h
opl3_drums.c	opl3_voice.h
opl3_lib.c	delay.h
opl3_lib.c	init.h
opl3_lib.c	io.h
opl3_lib.c	ioport.h
opl3_lib.c	minors.h
opl3_lib.c	module.h
opl3_lib.c	opl3.h
opl3_lib.c	slab.h
opl3_midi.c	asoundef.h
opl3_midi.c	opl3_voice.h
opl3_oss.c	export.h
opl3_oss.c	opl3_voice.h
opl3_seq.c	init.h
opl3_seq.c	initval.h
opl3_seq.c	module.h
opl3_seq.c	moduleparam.h
opl3_seq.c	opl3_voice.h
opl3_synth.c	asound_fm.h
opl3_synth.c	export.h
opl3_synth.c	opl3.h
opl3_synth.c	slab.h
opl3_voice.h	opl3.h
opl4_lib.c	init.h
opl4_lib.c	initval.h
opl4_lib.c	io.h
opl4_lib.c	ioport.h
opl4_lib.c	module.h
opl4_lib.c	opl4_local.h
opl4_lib.c	slab.h
opl4_local.h	opl4.h
opl4_mixer.c	control.h
opl4_mixer.c	opl4_local.h
opl4_proc.c	export.h
opl4_proc.c	info.h
opl4_proc.c	opl4_local.h
opl4_proc.c	vmalloc.h
opl4_seq.c	init.h
opl4_seq.c	initval.h
opl4_seq.c	module.h
opl4_seq.c	moduleparam.h
opl4_seq.c	opl4_local.h
opl4_synth.c	asoundef.h
opl4_synth.c	delay.h
opl4_synth.c	io.h
opl4_synth.c	opl4_local.h
packets-buffer.c	export.h
packets-buffer.c	firewire.h
packets-buffer.c	packets-buffer.h
packets-buffer.c	slab.h
packets-buffer.h	dma-mapping.h
packets-buffer.h	firewire.h
pcm-indirect2.c	core.h
pcm-indirect2.c	jiffies.h
pcm-indirect2.c	pcm-indirect2.h
pcm-indirect2.c	pcm.h
pcm-indirect2.h	pcm.h
pcm3008.c	core.h
pcm3008.c	device.h
pcm3008.c	gpio.h
pcm3008.c	init.h
pcm3008.c	initval.h
pcm3008.c	kernel.h
pcm3008.c	module.h
pcm3008.c	pcm.h
pcm3008.c	pcm3008.h
pcm3008.c	slab.h
pcm3008.c	soc.h
pcsp.c	bitops.h
pcsp.c	core.h
pcsp.c	delay.h
pcsp.c	init.h
pcsp.c	initval.h
pcsp.c	input.h
pcsp.c	module.h
pcsp.c	pcm.h
pcsp.c	pcsp.h
pcsp.c	pcsp_input.h
pcsp.c	platform_device.h
pcsp.h	hrtimer.h
pcsp.h	i8253.h
pcsp.h	timex.h
pcsp_input.c	init.h
pcsp_input.c	input.h
pcsp_input.c	io.h
pcsp_input.c	pcsp.h
pcsp_lib.c	gfp.h
pcsp_lib.c	interrupt.h
pcsp_lib.c	io.h
pcsp_lib.c	module.h
pcsp_lib.c	moduleparam.h
pcsp_lib.c	pcm.h
pcsp_lib.c	pcsp.h
pcsp_mixer.c	control.h
pcsp_mixer.c	core.h
pcsp_mixer.c	pcsp.h
pnmtologo.c	ctype.h
pnmtologo.c	errno.h
pnmtologo.c	linux_logo.h>\n\n
pnmtologo.c	stdarg.h
pnmtologo.c	stdio.h
pnmtologo.c	stdlib.h
pnmtologo.c	string.h
pnmtologo.c	unistd.h
portman2x4.c	control.h
portman2x4.c	core.h
portman2x4.c	delay.h
portman2x4.c	init.h
portman2x4.c	initval.h
portman2x4.c	module.h
portman2x4.c	parport.h
portman2x4.c	platform_device.h
portman2x4.c	rawmidi.h
portman2x4.c	slab.h
portman2x4.c	spinlock.h
qconf.h	q3listview.h
qconf.h	qlistview.h
qconf.h	qsettings.h
recordmcount.c	elf.h
recordmcount.c	fcntl.h
recordmcount.c	getopt.h
recordmcount.c	mman.h
recordmcount.c	recordmcount.h
recordmcount.c	recordmcount.h
recordmcount.c	setjmp.h
recordmcount.c	stat.h
recordmcount.c	stdio.h
recordmcount.c	stdlib.h
recordmcount.c	string.h
recordmcount.c	types.h
recordmcount.c	unistd.h
rt5631.c	core.h
rt5631.c	delay.h
rt5631.c	i2c.h
rt5631.c	init.h
rt5631.c	initval.h
rt5631.c	module.h
rt5631.c	moduleparam.h
rt5631.c	pcm.h
rt5631.c	pcm_params.h
rt5631.c	pm.h
rt5631.c	regmap.h
rt5631.c	rt5631.h
rt5631.c	soc-dapm.h
rt5631.c	soc.h
rt5631.c	tlv.h
scs1x.c	core.h
scs1x.c	device.h
scs1x.c	firewire-constants.h
scs1x.c	firewire.h
scs1x.c	initval.h
scs1x.c	interrupt.h
scs1x.c	lib.h
scs1x.c	mod_devicetable.h
scs1x.c	module.h
scs1x.c	rawmidi.h
scs1x.c	slab.h
scs1x.c	string.h
scs1x.c	wait.h
serial-u16550.c	core.h
serial-u16550.c	err.h
serial-u16550.c	init.h
serial-u16550.c	initval.h
serial-u16550.c	interrupt.h
serial-u16550.c	io.h
serial-u16550.c	ioport.h
serial-u16550.c	jiffies.h
serial-u16550.c	module.h
serial-u16550.c	platform_device.h
serial-u16550.c	rawmidi.h
serial-u16550.c	serial_reg.h
serial-u16550.c	slab.h
sgtl5000.c	clk.h
sgtl5000.c	consumer.h
sgtl5000.c	core.h
sgtl5000.c	delay.h
sgtl5000.c	driver.h
sgtl5000.c	i2c.h
sgtl5000.c	init.h
sgtl5000.c	initval.h
sgtl5000.c	machine.h
sgtl5000.c	module.h
sgtl5000.c	moduleparam.h
sgtl5000.c	of_device.h
sgtl5000.c	pcm.h
sgtl5000.c	pcm_params.h
sgtl5000.c	pm.h
sgtl5000.c	sgtl5000.h
sgtl5000.c	slab.h
sgtl5000.c	soc-dapm.h
sgtl5000.c	soc.h
sgtl5000.c	tlv.h
si476x.c	i2c.h
si476x.c	initval.h
si476x.c	module.h
si476x.c	pcm.h
si476x.c	pcm_params.h
si476x.c	si476x-core.h
si476x.c	slab.h
si476x.c	soc.h
sigmadsp.c	crc32.h
sigmadsp.c	delay.h
sigmadsp.c	firmware.h
sigmadsp.c	i2c.h
sigmadsp.c	kernel.h
sigmadsp.c	module.h
sigmadsp.c	regmap.h
sigmadsp.c	sigmadsp.h
sigmadsp.h	device.h
sigmadsp.h	regmap.h
sn95031.c	delay.h
sn95031.c	initval.h
sn95031.c	intel_scu_ipc.h
sn95031.c	jack.h
sn95031.c	module.h
sn95031.c	pcm.h
sn95031.c	pcm_params.h
sn95031.c	platform_device.h
sn95031.c	slab.h
sn95031.c	sn95031.h
sn95031.c	soc-dapm.h
sn95031.c	soc.h
sn95031.c	tlv.h
soc-pcm.c	core.h
soc-pcm.c	debugfs.h
soc-pcm.c	delay.h
soc-pcm.c	export.h
soc-pcm.c	init.h
soc-pcm.c	initval.h
soc-pcm.c	kernel.h
soc-pcm.c	pcm.h
soc-pcm.c	pcm_params.h
soc-pcm.c	pm_runtime.h
soc-pcm.c	slab.h
soc-pcm.c	soc-dpcm.h
soc-pcm.c	soc.h
soc-pcm.c	workqueue.h
sortextable.c	be_byteshift.h
sortextable.c	elf.h
sortextable.c	fcntl.h
sortextable.c	getopt.h
sortextable.c	le_byteshift.h
sortextable.c	mman.h
sortextable.c	setjmp.h
sortextable.c	sortextable.h
sortextable.c	sortextable.h
sortextable.c	stat.h
sortextable.c	stdio.h
sortextable.c	stdlib.h
sortextable.c	string.h
sortextable.c	types.h
sortextable.c	unistd.h
spdif_transciever.c	initval.h
spdif_transciever.c	module.h
spdif_transciever.c	moduleparam.h
spdif_transciever.c	pcm.h
spdif_transciever.c	slab.h
spdif_transciever.c	soc.h
speakers.c	amdtp.h
speakers.c	cmp.h
speakers.c	control.h
speakers.c	core.h
speakers.c	device.h
speakers.c	fcp.h
speakers.c	firewire-constants.h
speakers.c	firewire.h
speakers.c	initval.h
speakers.c	lib.h
speakers.c	mod_devicetable.h
speakers.c	module.h
speakers.c	mutex.h
speakers.c	pcm.h
speakers.c	pcm_params.h
speakers.c	slab.h
srcpos.c	dtc.h
srcpos.c	srcpos.h
srcpos.c	stdio.h
srcpos.h	stdio.h
sta529.c	clk.h
sta529.c	core.h
sta529.c	i2c.h
sta529.c	init.h
sta529.c	initval.h
sta529.c	io.h
sta529.c	module.h
sta529.c	moduleparam.h
sta529.c	pcm.h
sta529.c	pcm_params.h
sta529.c	pm.h
sta529.c	regmap.h
sta529.c	slab.h
sta529.c	soc-dapm.h
sta529.c	soc.h
sta529.c	tlv.h
sumversion.c	ctype.h
sumversion.c	errno.h
sumversion.c	in.h
sumversion.c	inttypes.h
sumversion.c	limits.h
sumversion.c	modpost.h
sumversion.c	stdint.h
sumversion.c	string.h
symbol.c	ctype.h
symbol.c	lkc.h
symbol.c	regex.h
symbol.c	stdlib.h
symbol.c	string.h
symbol.c	utsname.h
textbox.c	dialog.h
tlv320aic26.c	core.h
tlv320aic26.c	delay.h
tlv320aic26.c	device.h
tlv320aic26.c	init.h
tlv320aic26.c	initval.h
tlv320aic26.c	module.h
tlv320aic26.c	moduleparam.h
tlv320aic26.c	pcm.h
tlv320aic26.c	pcm_params.h
tlv320aic26.c	pm.h
tlv320aic26.c	slab.h
tlv320aic26.c	soc.h
tlv320aic26.c	spi.h
tlv320aic26.c	sysfs.h
tlv320aic26.c	tlv320aic26.h
tlv320aic32x4.c	cdev.h
tlv320aic32x4.c	core.h
tlv320aic32x4.c	delay.h
tlv320aic32x4.c	gpio.h
tlv320aic32x4.c	i2c.h
tlv320aic32x4.c	init.h
tlv320aic32x4.c	initval.h
tlv320aic32x4.c	module.h
tlv320aic32x4.c	moduleparam.h
tlv320aic32x4.c	pcm.h
tlv320aic32x4.c	pcm_params.h
tlv320aic32x4.c	pm.h
tlv320aic32x4.c	slab.h
tlv320aic32x4.c	soc-dapm.h
tlv320aic32x4.c	soc.h
tlv320aic32x4.c	tlv.h
tlv320aic32x4.c	tlv320aic32x4.h
tlv320aic32x4.c	tlv320aic32x4.h
tlv320aic3x.c	consumer.h
tlv320aic3x.c	core.h
tlv320aic3x.c	delay.h
tlv320aic3x.c	gpio.h
tlv320aic3x.c	i2c.h
tlv320aic3x.c	init.h
tlv320aic3x.c	initval.h
tlv320aic3x.c	module.h
tlv320aic3x.c	moduleparam.h
tlv320aic3x.c	of_gpio.h
tlv320aic3x.c	pcm.h
tlv320aic3x.c	pcm_params.h
tlv320aic3x.c	pm.h
tlv320aic3x.c	slab.h
tlv320aic3x.c	soc.h
tlv320aic3x.c	tlv.h
tlv320aic3x.c	tlv320aic3x.h
tlv320aic3x.c	tlv320aic3x.h
tlv320dac33.c	consumer.h
tlv320dac33.c	core.h
tlv320dac33.c	delay.h
tlv320dac33.c	gpio.h
tlv320dac33.c	i2c.h
tlv320dac33.c	init.h
tlv320dac33.c	initval.h
tlv320dac33.c	interrupt.h
tlv320dac33.c	module.h
tlv320dac33.c	moduleparam.h
tlv320dac33.c	pcm.h
tlv320dac33.c	pcm_params.h
tlv320dac33.c	pm.h
tlv320dac33.c	slab.h
tlv320dac33.c	soc.h
tlv320dac33.c	tlv.h
tlv320dac33.c	tlv320dac33-plat.h
tlv320dac33.c	tlv320dac33.h
tpa6130a2.c	consumer.h
tpa6130a2.c	device.h
tpa6130a2.c	errno.h
tpa6130a2.c	gpio.h
tpa6130a2.c	i2c.h
tpa6130a2.c	module.h
tpa6130a2.c	slab.h
tpa6130a2.c	soc.h
tpa6130a2.c	tlv.h
tpa6130a2.c	tpa6130a2-plat.h
tpa6130a2.c	tpa6130a2.h
treesource.c	dtc.h
treesource.c	srcpos.h
twl4030.c	core.h
twl4030.c	delay.h
twl4030.c	gpio.h
twl4030.c	i2c.h
twl4030.c	init.h
twl4030.c	initval.h
twl4030.c	module.h
twl4030.c	moduleparam.h
twl4030.c	of.h
twl4030.c	of_gpio.h
twl4030.c	pcm.h
twl4030.c	pcm_params.h
twl4030.c	platform_device.h
twl4030.c	pm.h
twl4030.c	slab.h
twl4030.c	soc.h
twl4030.c	tlv.h
twl4030.c	twl.h
twl4030.c	twl4030-audio.h
twl6040.c	core.h
twl6040.c	delay.h
twl6040.c	init.h
twl6040.c	initval.h
twl6040.c	module.h
twl6040.c	moduleparam.h
twl6040.c	pcm.h
twl6040.c	pcm_params.h
twl6040.c	platform_device.h
twl6040.c	pm.h
twl6040.c	slab.h
twl6040.c	soc-dapm.h
twl6040.c	soc.h
twl6040.c	tlv.h
twl6040.c	twl6040.h
twl6040.c	twl6040.h
uda1380.c	control.h
uda1380.c	core.h
uda1380.c	delay.h
uda1380.c	errno.h
uda1380.c	gpio.h
uda1380.c	i2c.h
uda1380.c	init.h
uda1380.c	initval.h
uda1380.c	module.h
uda1380.c	slab.h
uda1380.c	soc.h
uda1380.c	tlv.h
uda1380.c	types.h
uda1380.c	uda1380.h
uda1380.c	uda1380.h
uda1380.c	workqueue.h
unifdef.c	ctype.h
unifdef.c	err.h
unifdef.c	errno.h
unifdef.c	stat.h
unifdef.c	stdarg.h
unifdef.c	stdbool.h
unifdef.c	stdio.h
unifdef.c	stdlib.h
unifdef.c	string.h
unifdef.c	types.h
unifdef.c	unistd.h
util.c	assert.h
util.c	assert.h
util.c	assert.h
util.c	ctype.h
util.c	ctype.h
util.c	ctype.h
util.c	errno.h
util.c	errno.h
util.c	errno.h
util.c	fcntl.h
util.c	fcntl.h
util.c	fcntl.h
util.c	libfdt.h
util.c	libfdt.h
util.c	libfdt.h
util.c	stdarg.h
util.c	stdarg.h
util.c	stdarg.h
util.c	stdio.h
util.c	stdio.h
util.c	stdio.h
util.c	stdlib.h
util.c	stdlib.h
util.c	stdlib.h
util.c	string.h
util.c	string.h
util.c	string.h
util.c	unistd.h
util.c	unistd.h
util.c	unistd.h
util.c	util.h
util.c	util.h
util.c	util.h
util.h	stdarg.h
virmidi.c	core.h
virmidi.c	err.h
virmidi.c	init.h
virmidi.c	initval.h
virmidi.c	module.h
virmidi.c	platform_device.h
virmidi.c	seq_kernel.h
virmidi.c	seq_virmidi.h
virmidi.c	wait.h
vx_cmd.c	core.h
vx_cmd.c	pcm.h
vx_cmd.c	vx_cmd.h
vx_cmd.c	vx_core.h
vx_core.c	asoundef.h
vx_core.c	core.h
vx_core.c	delay.h
vx_core.c	device.h
vx_core.c	firmware.h
vx_core.c	info.h
vx_core.c	init.h
vx_core.c	interrupt.h
vx_core.c	io.h
vx_core.c	module.h
vx_core.c	pcm.h
vx_core.c	slab.h
vx_core.c	vx_cmd.h
vx_core.c	vx_core.h
vx_hwdep.c	core.h
vx_hwdep.c	device.h
vx_hwdep.c	firmware.h
vx_hwdep.c	hwdep.h
vx_hwdep.c	module.h
vx_hwdep.c	slab.h
vx_hwdep.c	vmalloc.h
vx_hwdep.c	vx_core.h
vx_mixer.c	control.h
vx_mixer.c	core.h
vx_mixer.c	tlv.h
vx_mixer.c	vx_cmd.h
vx_mixer.c	vx_core.h
vx_pcm.c	asoundef.h
vx_pcm.c	core.h
vx_pcm.c	delay.h
vx_pcm.c	pcm.h
vx_pcm.c	slab.h
vx_pcm.c	vx_cmd.h
vx_pcm.c	vx_core.h
vx_uer.c	core.h
vx_uer.c	delay.h
vx_uer.c	vx_cmd.h
vx_uer.c	vx_core.h
wl1273.c	initval.h
wl1273.c	module.h
wl1273.c	pcm.h
wl1273.c	pcm_params.h
wl1273.c	slab.h
wl1273.c	soc.h
wl1273.c	wl1273-core.h
wl1273.c	wl1273.h
wm2000.c	consumer.h
wm2000.c	core.h
wm2000.c	debugfs.h
wm2000.c	delay.h
wm2000.c	firmware.h
wm2000.c	i2c.h
wm2000.c	init.h
wm2000.c	initval.h
wm2000.c	kernel.h
wm2000.c	module.h
wm2000.c	moduleparam.h
wm2000.c	pcm.h
wm2000.c	pcm_params.h
wm2000.c	pm.h
wm2000.c	regmap.h
wm2000.c	slab.h
wm2000.c	soc.h
wm2000.c	tlv.h
wm2000.c	wm2000.h
wm2000.c	wm2000.h
wm5100.h	regmap.h
wm5100.h	soc.h
wm5102.c	arizona.h
wm5102.c	core.h
wm5102.c	core.h
wm5102.c	delay.h
wm5102.c	init.h
wm5102.c	initval.h
wm5102.c	jack.h
wm5102.c	module.h
wm5102.c	moduleparam.h
wm5102.c	pcm.h
wm5102.c	pcm_params.h
wm5102.c	pm.h
wm5102.c	pm_runtime.h
wm5102.c	registers.h
wm5102.c	regmap.h
wm5102.c	slab.h
wm5102.c	soc.h
wm5102.c	tlv.h
wm5102.c	wm5102.h
wm5102.c	wm_adsp.h
wm5102.h	arizona.h
wm5110.c	arizona.h
wm5110.c	core.h
wm5110.c	core.h
wm5110.c	delay.h
wm5110.c	init.h
wm5110.c	initval.h
wm5110.c	jack.h
wm5110.c	module.h
wm5110.c	moduleparam.h
wm5110.c	pcm.h
wm5110.c	pcm_params.h
wm5110.c	pm.h
wm5110.c	pm_runtime.h
wm5110.c	registers.h
wm5110.c	regmap.h
wm5110.c	slab.h
wm5110.c	soc.h
wm5110.c	tlv.h
wm5110.c	wm5110.h
wm8350.c	asoc.h
wm8350.c	audio.h
wm8350.c	consumer.h
wm8350.c	core.h
wm8350.c	core.h
wm8350.c	delay.h
wm8350.c	init.h
wm8350.c	initval.h
wm8350.c	module.h
wm8350.c	moduleparam.h
wm8350.c	pcm.h
wm8350.c	pcm_params.h
wm8350.c	platform_device.h
wm8350.c	pm.h
wm8350.c	slab.h
wm8350.c	soc.h
wm8350.c	tlv.h
wm8350.c	wm8350.h
wm8400.c	consumer.h
wm8400.c	core.h
wm8400.c	core.h
wm8400.c	delay.h
wm8400.c	init.h
wm8400.c	initval.h
wm8400.c	kernel.h
wm8400.c	module.h
wm8400.c	moduleparam.h
wm8400.c	pcm.h
wm8400.c	pcm_params.h
wm8400.c	platform_device.h
wm8400.c	pm.h
wm8400.c	slab.h
wm8400.c	soc.h
wm8400.c	tlv.h
wm8400.c	wm8400-audio.h
wm8400.c	wm8400-private.h
wm8400.c	wm8400.h
wm8510.c	core.h
wm8510.c	delay.h
wm8510.c	i2c.h
wm8510.c	init.h
wm8510.c	initval.h
wm8510.c	kernel.h
wm8510.c	module.h
wm8510.c	moduleparam.h
wm8510.c	of_device.h
wm8510.c	pcm.h
wm8510.c	pcm_params.h
wm8510.c	pm.h
wm8510.c	regmap.h
wm8510.c	slab.h
wm8510.c	soc.h
wm8510.c	spi.h
wm8510.c	wm8510.h
wm8580.c	consumer.h
wm8580.c	core.h
wm8580.c	delay.h
wm8580.c	div64.h
wm8580.c	i2c.h
wm8580.c	init.h
wm8580.c	initval.h
wm8580.c	kernel.h
wm8580.c	module.h
wm8580.c	moduleparam.h
wm8580.c	of_device.h
wm8580.c	pcm.h
wm8580.c	pcm_params.h
wm8580.c	pm.h
wm8580.c	regmap.h
wm8580.c	slab.h
wm8580.c	soc.h
wm8580.c	tlv.h
wm8580.c	wm8580.h
wm8728.c	core.h
wm8728.c	delay.h
wm8728.c	i2c.h
wm8728.c	init.h
wm8728.c	initval.h
wm8728.c	module.h
wm8728.c	moduleparam.h
wm8728.c	of_device.h
wm8728.c	pcm.h
wm8728.c	pcm_params.h
wm8728.c	platform_device.h
wm8728.c	pm.h
wm8728.c	regmap.h
wm8728.c	slab.h
wm8728.c	soc.h
wm8728.c	spi.h
wm8728.c	tlv.h
wm8728.c	wm8728.h
wm8741.c	consumer.h
wm8741.c	core.h
wm8741.c	delay.h
wm8741.c	i2c.h
wm8741.c	init.h
wm8741.c	initval.h
wm8741.c	module.h
wm8741.c	moduleparam.h
wm8741.c	of_device.h
wm8741.c	pcm.h
wm8741.c	pcm_params.h
wm8741.c	pm.h
wm8741.c	regmap.h
wm8741.c	slab.h
wm8741.c	soc.h
wm8741.c	spi.h
wm8741.c	tlv.h
wm8741.c	wm8741.h
wm8750.c	core.h
wm8750.c	delay.h
wm8750.c	i2c.h
wm8750.c	init.h
wm8750.c	initval.h
wm8750.c	module.h
wm8750.c	moduleparam.h
wm8750.c	of_device.h
wm8750.c	pcm.h
wm8750.c	pcm_params.h
wm8750.c	pm.h
wm8750.c	regmap.h
wm8750.c	slab.h
wm8750.c	soc.h
wm8750.c	spi.h
wm8750.c	wm8750.h
wm8753.c	core.h
wm8753.c	delay.h
wm8753.c	div64.h
wm8753.c	i2c.h
wm8753.c	init.h
wm8753.c	initval.h
wm8753.c	kernel.h
wm8753.c	module.h
wm8753.c	moduleparam.h
wm8753.c	of_device.h
wm8753.c	pcm.h
wm8753.c	pcm_params.h
wm8753.c	pm.h
wm8753.c	regmap.h
wm8753.c	slab.h
wm8753.c	soc.h
wm8753.c	spi.h
wm8753.c	tlv.h
wm8753.c	wm8753.h
wm8782.c	ac97_codec.h
wm8782.c	core.h
wm8782.c	device.h
wm8782.c	init.h
wm8782.c	initval.h
wm8782.c	kernel.h
wm8782.c	module.h
wm8782.c	pcm.h
wm8782.c	slab.h
wm8782.c	soc.h
wm8903.c	asoc.h
wm8903.c	completion.h
wm8903.c	core.h
wm8903.c	delay.h
wm8903.c	gpio.h
wm8903.c	i2c.h
wm8903.c	init.h
wm8903.c	initval.h
wm8903.c	irq.h
wm8903.c	jack.h
wm8903.c	module.h
wm8903.c	moduleparam.h
wm8903.c	pcm.h
wm8903.c	pcm_params.h
wm8903.c	pm.h
wm8903.c	regmap.h
wm8903.c	slab.h
wm8903.c	soc.h
wm8903.c	tlv.h
wm8903.c	wm8903.h
wm8903.c	wm8903.h
wm8940.c	core.h
wm8940.c	delay.h
wm8940.c	i2c.h
wm8940.c	init.h
wm8940.c	initval.h
wm8940.c	kernel.h
wm8940.c	module.h
wm8940.c	moduleparam.h
wm8940.c	pcm.h
wm8940.c	pcm_params.h
wm8940.c	pm.h
wm8940.c	slab.h
wm8940.c	soc.h
wm8940.c	spi.h
wm8940.c	tlv.h
wm8940.c	wm8940.h
wm8958-dsp2.c	asoc.h
wm8958-dsp2.c	core.h
wm8958-dsp2.c	delay.h
wm8958-dsp2.c	gpio.h
wm8958-dsp2.c	i2c.h
wm8958-dsp2.c	init.h
wm8958-dsp2.c	initval.h
wm8958-dsp2.c	module.h
wm8958-dsp2.c	moduleparam.h
wm8958-dsp2.c	pdata.h
wm8958-dsp2.c	platform_device.h
wm8958-dsp2.c	pm.h
wm8958-dsp2.c	registers.h
wm8958-dsp2.c	slab.h
wm8958-dsp2.c	soc.h
wm8958-dsp2.c	tlv.h
wm8958-dsp2.c	wm8994.h
wm8961.c	core.h
wm8961.c	delay.h
wm8961.c	i2c.h
wm8961.c	init.h
wm8961.c	initval.h
wm8961.c	module.h
wm8961.c	moduleparam.h
wm8961.c	pcm.h
wm8961.c	pcm_params.h
wm8961.c	pm.h
wm8961.c	regmap.h
wm8961.c	slab.h
wm8961.c	soc.h
wm8961.c	tlv.h
wm8961.c	wm8961.h
wm8961.h	soc.h
wm8971.c	core.h
wm8971.c	delay.h
wm8971.c	i2c.h
wm8971.c	init.h
wm8971.c	initval.h
wm8971.c	module.h
wm8971.c	moduleparam.h
wm8971.c	pcm.h
wm8971.c	pcm_params.h
wm8971.c	pm.h
wm8971.c	regmap.h
wm8971.c	slab.h
wm8971.c	soc.h
wm8971.c	wm8971.h
wm8978.c	core.h
wm8978.c	delay.h
wm8978.c	div64.h
wm8978.c	i2c.h
wm8978.c	init.h
wm8978.c	initval.h
wm8978.c	kernel.h
wm8978.c	module.h
wm8978.c	moduleparam.h
wm8978.c	pcm.h
wm8978.c	pcm_params.h
wm8978.c	pm.h
wm8978.c	regmap.h
wm8978.c	slab.h
wm8978.c	soc.h
wm8978.c	tlv.h
wm8978.c	wm8978.h
wm8983.c	core.h
wm8983.c	delay.h
wm8983.c	i2c.h
wm8983.c	init.h
wm8983.c	initval.h
wm8983.c	module.h
wm8983.c	moduleparam.h
wm8983.c	pcm.h
wm8983.c	pcm_params.h
wm8983.c	pm.h
wm8983.c	regmap.h
wm8983.c	slab.h
wm8983.c	soc.h
wm8983.c	spi.h
wm8983.c	tlv.h
wm8983.c	wm8983.h
wm8985.c	consumer.h
wm8985.c	core.h
wm8985.c	delay.h
wm8985.c	i2c.h
wm8985.c	init.h
wm8985.c	initval.h
wm8985.c	module.h
wm8985.c	moduleparam.h
wm8985.c	pcm.h
wm8985.c	pcm_params.h
wm8985.c	pm.h
wm8985.c	regmap.h
wm8985.c	slab.h
wm8985.c	soc.h
wm8985.c	spi.h
wm8985.c	tlv.h
wm8985.c	wm8985.h
wm8988.c	core.h
wm8988.c	delay.h
wm8988.c	i2c.h
wm8988.c	init.h
wm8988.c	initval.h
wm8988.c	module.h
wm8988.c	moduleparam.h
wm8988.c	pcm.h
wm8988.c	pcm_params.h
wm8988.c	pm.h
wm8988.c	slab.h
wm8988.c	soc.h
wm8988.c	spi.h
wm8988.c	tlv.h
wm8988.c	wm8988.h
wm8990.c	core.h
wm8990.c	delay.h
wm8990.c	div64.h
wm8990.c	i2c.h
wm8990.c	init.h
wm8990.c	initval.h
wm8990.c	kernel.h
wm8990.c	module.h
wm8990.c	moduleparam.h
wm8990.c	pcm.h
wm8990.c	pcm_params.h
wm8990.c	pm.h
wm8990.c	slab.h
wm8990.c	soc.h
wm8990.c	tlv.h
wm8990.c	wm8990.h
wm8994.c	asoc.h
wm8994.c	consumer.h
wm8994.c	core.h
wm8994.c	core.h
wm8994.c	delay.h
wm8994.c	gpio.h
wm8994.c	i2c.h
wm8994.c	init.h
wm8994.c	initval.h
wm8994.c	jack.h
wm8994.c	module.h
wm8994.c	moduleparam.h
wm8994.c	pcm.h
wm8994.c	pcm_params.h
wm8994.c	pdata.h
wm8994.c	platform_device.h
wm8994.c	pm.h
wm8994.c	pm_runtime.h
wm8994.c	registers.h
wm8994.c	slab.h
wm8994.c	soc.h
wm8994.c	tlv.h
wm8994.c	wm8994.h
wm8994.c	wm_hubs.h
wm8995.h	types.h
wm8996.c	asoc.h
wm8996.c	completion.h
wm8996.c	consumer.h
wm8996.c	core.h
wm8996.c	delay.h
wm8996.c	gcd.h
wm8996.c	gpio.h
wm8996.c	i2c.h
wm8996.c	init.h
wm8996.c	initval.h
wm8996.c	jack.h
wm8996.c	module.h
wm8996.c	moduleparam.h
wm8996.c	pcm.h
wm8996.c	pcm_params.h
wm8996.c	pm.h
wm8996.c	regmap.h
wm8996.c	slab.h
wm8996.c	soc.h
wm8996.c	tlv.h
wm8996.c	wm8996.h
wm8996.c	wm8996.h
wm8996.c	workqueue.h
wm9705.c	ac97_codec.h
wm9705.c	core.h
wm9705.c	device.h
wm9705.c	init.h
wm9705.c	initval.h
wm9705.c	kernel.h
wm9705.c	module.h
wm9705.c	pcm.h
wm9705.c	slab.h
wm9705.c	soc.h
wm9705.c	wm9705.h
wm9712.c	ac97_codec.h
wm9712.c	core.h
wm9712.c	device.h
wm9712.c	init.h
wm9712.c	initval.h
wm9712.c	kernel.h
wm9712.c	module.h
wm9712.c	pcm.h
wm9712.c	slab.h
wm9712.c	soc.h
wm9712.c	tlv.h
wm9712.c	wm9712.h
wm9713.c	ac97_codec.h
wm9713.c	core.h
wm9713.c	device.h
wm9713.c	init.h
wm9713.c	initval.h
wm9713.c	module.h
wm9713.c	pcm.h
wm9713.c	pcm_params.h
wm9713.c	slab.h
wm9713.c	soc.h
wm9713.c	tlv.h
wm9713.c	wm9713.h
wm_adsp.c	consumer.h
wm_adsp.c	core.h
wm_adsp.c	delay.h
wm_adsp.c	firmware.h
wm_adsp.c	init.h
wm_adsp.c	initval.h
wm_adsp.c	jack.h
wm_adsp.c	module.h
wm_adsp.c	moduleparam.h
wm_adsp.c	pcm.h
wm_adsp.c	pcm_params.h
wm_adsp.c	pm.h
wm_adsp.c	pm_runtime.h
wm_adsp.c	registers.h
wm_adsp.c	regmap.h
wm_adsp.c	slab.h
wm_adsp.c	soc.h
wm_adsp.c	tlv.h
wm_adsp.c	wm_adsp.h
wm_hubs.h	completion.h
wm_hubs.h	control.h
wm_hubs.h	interrupt.h
wm_hubs.h	list.h
yesno.c	dialog.h
yrw801.c	opl4_local.h
