ab8500-codec.c	ab8500-codec.h
ab8500-codec.c	ab8500-codec.h
ab8500-codec.c	ab8500-sysctrl.h
ab8500-codec.c	ab8500.h
ab8500-codec.c	abx500.h
ab8500-codec.c	consumer.h
ab8500-codec.c	core.h
ab8500-codec.c	delay.h
ab8500-codec.c	device.h
ab8500-codec.c	init.h
ab8500-codec.c	initval.h
ab8500-codec.c	kernel.h
ab8500-codec.c	module.h
ab8500-codec.c	moduleparam.h
ab8500-codec.c	mutex.h
ab8500-codec.c	of.h
ab8500-codec.c	pcm.h
ab8500-codec.c	pcm_params.h
ab8500-codec.c	platform_device.h
ab8500-codec.c	pm.h
ab8500-codec.c	slab.h
ab8500-codec.c	soc-dapm.h
ab8500-codec.c	soc.h
ab8500-codec.c	tlv.h
ac97.c	ac97_codec.h
ac97.c	ac97_codec.h
ac97.c	core.h
ac97.c	core.h
ac97.c	device.h
ac97.c	device.h
ac97.c	init.h
ac97.c	init.h
ac97.c	initval.h
ac97.c	initval.h
ac97.c	kernel.h
ac97.c	kernel.h
ac97.c	module.h
ac97.c	module.h
ac97.c	pcm.h
ac97.c	pcm.h
ac97.c	slab.h
ac97.c	slab.h
ac97.c	soc.h
ac97.c	soc.h
ac97c.c	au1000.h
ac97c.c	core.h
ac97c.c	delay.h
ac97c.c	device.h
ac97c.c	init.h
ac97c.c	initval.h
ac97c.c	module.h
ac97c.c	mutex.h
ac97c.c	pcm.h
ac97c.c	platform_device.h
ac97c.c	psc.h
ac97c.c	slab.h
ac97c.c	soc.h
ac97c.c	suspend.h
ad1836.c	ad1836.h
ad1836.c	core.h
ad1836.c	device.h
ad1836.c	init.h
ad1836.c	initval.h
ad1836.c	kernel.h
ad1836.c	module.h
ad1836.c	pcm.h
ad1836.c	pcm_params.h
ad1836.c	regmap.h
ad1836.c	slab.h
ad1836.c	soc.h
ad1836.c	spi.h
ad1836.c	tlv.h
ad193x.c	ad193x.h
ad193x.c	core.h
ad193x.c	device.h
ad193x.c	i2c.h
ad193x.c	init.h
ad193x.c	initval.h
ad193x.c	kernel.h
ad193x.c	module.h
ad193x.c	pcm.h
ad193x.c	pcm_params.h
ad193x.c	slab.h
ad193x.c	soc.h
ad193x.c	spi.h
ad193x.c	tlv.h
ad1980.c	ac97_codec.h
ad1980.c	ad1980.h
ad1980.c	core.h
ad1980.c	device.h
ad1980.c	init.h
ad1980.c	initval.h
ad1980.c	kernel.h
ad1980.c	module.h
ad1980.c	pcm.h
ad1980.c	slab.h
ad1980.c	soc.h
ads117x.c	core.h
ads117x.c	device.h
ads117x.c	init.h
ads117x.c	initval.h
ads117x.c	kernel.h
ads117x.c	module.h
ads117x.c	pcm.h
ads117x.c	slab.h
ads117x.c	soc.h
ak4104.c	asoundef.h
ak4104.c	core.h
ak4104.c	initval.h
ak4104.c	module.h
ak4104.c	of_device.h
ak4104.c	of_gpio.h
ak4104.c	slab.h
ak4104.c	soc.h
ak4104.c	spi.h
ak4535.c	ak4535.h
ak4535.c	core.h
ak4535.c	delay.h
ak4535.c	i2c.h
ak4535.c	init.h
ak4535.c	initval.h
ak4535.c	module.h
ak4535.c	moduleparam.h
ak4535.c	pcm.h
ak4535.c	pcm_params.h
ak4535.c	pm.h
ak4535.c	regmap.h
ak4535.c	slab.h
ak4535.c	soc.h
ak4641.c	ak4641.h
ak4641.c	ak4641.h
ak4641.c	core.h
ak4641.c	delay.h
ak4641.c	gpio.h
ak4641.c	i2c.h
ak4641.c	init.h
ak4641.c	initval.h
ak4641.c	module.h
ak4641.c	pcm.h
ak4641.c	pcm_params.h
ak4641.c	pm.h
ak4641.c	slab.h
ak4641.c	soc.h
ak4641.c	tlv.h
am3517evm.c	asoc-ti-mcbsp.h
am3517evm.c	clk.h
am3517evm.c	core.h
am3517evm.c	mach-types.h
am3517evm.c	module.h
am3517evm.c	omap-mcbsp.h
am3517evm.c	omap-pcm.h
am3517evm.c	pcm.h
am3517evm.c	platform_device.h
am3517evm.c	soc.h
am3517evm.c	tlv320aic23.h
ams-delta.c	asoc-ti-mcbsp.h
ams-delta.c	board-ams-delta.h
ams-delta.c	cx20442.h
ams-delta.c	gpio.h
ams-delta.c	jack.h
ams-delta.c	mach-types.h
ams-delta.c	module.h
ams-delta.c	omap-mcbsp.h
ams-delta.c	omap-pcm.h
ams-delta.c	soc.h
ams-delta.c	spinlock.h
ams-delta.c	tty.h
arizona.c	arizona.h
arizona.c	core.h
arizona.c	gcd.h
arizona.c	module.h
arizona.c	pcm.h
arizona.c	pcm_params.h
arizona.c	pm_runtime.h
arizona.c	registers.h
arizona.c	tlv.h
atmel-pcm.c	atmel-pcm.h
atmel-pcm.c	dma-mapping.h
atmel-pcm.c	module.h
atmel-pcm.c	pcm.h
atmel-pcm.c	soc.h
atmel_ssc_dai.h	atmel-pcm.h
atmel_ssc_dai.h	atmel-ssc.h
atmel_ssc_dai.h	types.h
bells.c	gpio.h
bells.c	jack.h
bells.c	module.h
bells.c	soc-dapm.h
bells.c	soc.h
bells.c	wm5102.h
bells.c	wm9081.h
bf5xx-ac97-pcm.c	bf5xx-ac97-pcm.h
bf5xx-ac97-pcm.c	bf5xx-ac97.h
bf5xx-ac97-pcm.c	bf5xx-sport.h
bf5xx-ac97-pcm.c	core.h
bf5xx-ac97-pcm.c	dma-mapping.h
bf5xx-ac97-pcm.c	dma.h
bf5xx-ac97-pcm.c	gfp.h
bf5xx-ac97-pcm.c	init.h
bf5xx-ac97-pcm.c	module.h
bf5xx-ac97-pcm.c	pcm.h
bf5xx-ac97-pcm.c	pcm_params.h
bf5xx-ac97-pcm.c	platform_device.h
bf5xx-ac97-pcm.c	soc.h
bf5xx-ac97.c	ac97_codec.h
bf5xx-ac97.c	bf5xx-ac97.h
bf5xx-ac97.c	bf5xx-sport.h
bf5xx-ac97.c	core.h
bf5xx-ac97.c	delay.h
bf5xx-ac97.c	gpio.h
bf5xx-ac97.c	init.h
bf5xx-ac97.c	initval.h
bf5xx-ac97.c	interrupt.h
bf5xx-ac97.c	irq.h
bf5xx-ac97.c	module.h
bf5xx-ac97.c	mutex.h
bf5xx-ac97.c	pcm.h
bf5xx-ac97.c	platform_device.h
bf5xx-ac97.c	portmux.h
bf5xx-ac97.c	slab.h
bf5xx-ac97.c	soc.h
bf5xx-ac97.c	wait.h
bf5xx-ad1836.c	ad1836.h
bf5xx-ad1836.c	bf5xx-tdm-pcm.h
bf5xx-ad1836.c	bf5xx-tdm.h
bf5xx-ad1836.c	blackfin.h
bf5xx-ad1836.c	cacheflush.h
bf5xx-ad1836.c	core.h
bf5xx-ad1836.c	device.h
bf5xx-ad1836.c	dma.h
bf5xx-ad1836.c	irq.h
bf5xx-ad1836.c	module.h
bf5xx-ad1836.c	moduleparam.h
bf5xx-ad1836.c	pcm.h
bf5xx-ad1836.c	pcm_params.h
bf5xx-ad1836.c	portmux.h
bf5xx-ad1836.c	soc.h
bf5xx-ad193x.c	ad193x.h
bf5xx-ad193x.c	bf5xx-tdm-pcm.h
bf5xx-ad193x.c	bf5xx-tdm.h
bf5xx-ad193x.c	blackfin.h
bf5xx-ad193x.c	cacheflush.h
bf5xx-ad193x.c	core.h
bf5xx-ad193x.c	device.h
bf5xx-ad193x.c	dma.h
bf5xx-ad193x.c	irq.h
bf5xx-ad193x.c	module.h
bf5xx-ad193x.c	moduleparam.h
bf5xx-ad193x.c	pcm.h
bf5xx-ad193x.c	pcm_params.h
bf5xx-ad193x.c	portmux.h
bf5xx-ad193x.c	soc.h
bf5xx-ad1980.c	ad1980.h
bf5xx-ad1980.c	bf5xx-ac97-pcm.h
bf5xx-ad1980.c	bf5xx-ac97.h
bf5xx-ad1980.c	core.h
bf5xx-ad1980.c	device.h
bf5xx-ad1980.c	dma.h
bf5xx-ad1980.c	gpio.h
bf5xx-ad1980.c	module.h
bf5xx-ad1980.c	moduleparam.h
bf5xx-ad1980.c	pcm.h
bf5xx-ad1980.c	portmux.h
bf5xx-ad1980.c	soc.h
bf5xx-ad73311.c	ad73311.h
bf5xx-ad73311.c	bf5xx-i2s-pcm.h
bf5xx-ad73311.c	bf5xx-sport.h
bf5xx-ad73311.c	blackfin.h
bf5xx-ad73311.c	cacheflush.h
bf5xx-ad73311.c	core.h
bf5xx-ad73311.c	delay.h
bf5xx-ad73311.c	device.h
bf5xx-ad73311.c	dma.h
bf5xx-ad73311.c	gpio.h
bf5xx-ad73311.c	irq.h
bf5xx-ad73311.c	module.h
bf5xx-ad73311.c	moduleparam.h
bf5xx-ad73311.c	pcm.h
bf5xx-ad73311.c	pcm_params.h
bf5xx-ad73311.c	portmux.h
bf5xx-ad73311.c	soc.h
bf5xx-i2s-pcm.c	bf5xx-i2s-pcm.h
bf5xx-i2s-pcm.c	bf5xx-sport.h
bf5xx-i2s-pcm.c	core.h
bf5xx-i2s-pcm.c	dma-mapping.h
bf5xx-i2s-pcm.c	dma.h
bf5xx-i2s-pcm.c	gfp.h
bf5xx-i2s-pcm.c	init.h
bf5xx-i2s-pcm.c	module.h
bf5xx-i2s-pcm.c	pcm.h
bf5xx-i2s-pcm.c	pcm_params.h
bf5xx-i2s-pcm.c	platform_device.h
bf5xx-i2s-pcm.c	soc.h
bf5xx-i2s.c	bf5xx-sport.h
bf5xx-i2s.c	core.h
bf5xx-i2s.c	delay.h
bf5xx-i2s.c	device.h
bf5xx-i2s.c	gpio.h
bf5xx-i2s.c	init.h
bf5xx-i2s.c	initval.h
bf5xx-i2s.c	irq.h
bf5xx-i2s.c	module.h
bf5xx-i2s.c	mutex.h
bf5xx-i2s.c	pcm.h
bf5xx-i2s.c	pcm_params.h
bf5xx-i2s.c	portmux.h
bf5xx-i2s.c	soc.h
bf5xx-sport.c	bf5xx-sport.h
bf5xx-sport.c	blackfin.h
bf5xx-sport.c	bug.h
bf5xx-sport.c	cacheflush.h
bf5xx-sport.c	delay.h
bf5xx-sport.c	dma-mapping.h
bf5xx-sport.c	dma.h
bf5xx-sport.c	gpio.h
bf5xx-sport.c	kernel.h
bf5xx-sport.c	module.h
bf5xx-sport.c	portmux.h
bf5xx-sport.c	slab.h
bf5xx-sport.h	bfin_sport.h
bf5xx-sport.h	dma.h
bf5xx-sport.h	platform_device.h
bf5xx-sport.h	types.h
bf5xx-sport.h	wait.h
bf5xx-sport.h	workqueue.h
bf5xx-ssm2602.c	bf5xx-i2s-pcm.h
bf5xx-ssm2602.c	bf5xx-sport.h
bf5xx-ssm2602.c	core.h
bf5xx-ssm2602.c	device.h
bf5xx-ssm2602.c	dma.h
bf5xx-ssm2602.c	gpio.h
bf5xx-ssm2602.c	module.h
bf5xx-ssm2602.c	moduleparam.h
bf5xx-ssm2602.c	pcm.h
bf5xx-ssm2602.c	pcm_params.h
bf5xx-ssm2602.c	portmux.h
bf5xx-ssm2602.c	soc.h
bf5xx-ssm2602.c	ssm2602.h
bf5xx-tdm-pcm.c	bf5xx-sport.h
bf5xx-tdm-pcm.c	bf5xx-tdm-pcm.h
bf5xx-tdm-pcm.c	bf5xx-tdm.h
bf5xx-tdm-pcm.c	core.h
bf5xx-tdm-pcm.c	dma-mapping.h
bf5xx-tdm-pcm.c	dma.h
bf5xx-tdm-pcm.c	gfp.h
bf5xx-tdm-pcm.c	init.h
bf5xx-tdm-pcm.c	module.h
bf5xx-tdm-pcm.c	pcm.h
bf5xx-tdm-pcm.c	pcm_params.h
bf5xx-tdm-pcm.c	platform_device.h
bf5xx-tdm-pcm.c	soc.h
bf5xx-tdm.c	bf5xx-sport.h
bf5xx-tdm.c	bf5xx-tdm.h
bf5xx-tdm.c	core.h
bf5xx-tdm.c	device.h
bf5xx-tdm.c	gpio.h
bf5xx-tdm.c	init.h
bf5xx-tdm.c	initval.h
bf5xx-tdm.c	irq.h
bf5xx-tdm.c	module.h
bf5xx-tdm.c	mutex.h
bf5xx-tdm.c	pcm.h
bf5xx-tdm.c	pcm_params.h
bf5xx-tdm.c	portmux.h
bf5xx-tdm.c	soc.h
bf6xx-i2s.c	bf6xx-sport.h
bf6xx-i2s.c	device.h
bf6xx-i2s.c	init.h
bf6xx-i2s.c	module.h
bf6xx-i2s.c	pcm.h
bf6xx-i2s.c	pcm_params.h
bf6xx-i2s.c	platform_device.h
bf6xx-i2s.c	soc-dai.h
bf6xx-i2s.c	soc.h
bf6xx-sport.c	bf6xx-sport.h
bf6xx-sport.c	blackfin.h
bf6xx-sport.c	device.h
bf6xx-sport.c	dma-mapping.h
bf6xx-sport.c	dma.h
bf6xx-sport.c	interrupt.h
bf6xx-sport.c	module.h
bf6xx-sport.c	platform_device.h
bf6xx-sport.c	portmux.h
bf6xx-sport.c	slab.h
bf6xx-sport.h	bfin_sport3.h
bf6xx-sport.h	platform_device.h
bfin-eval-adau1373.c	adau1373.h
bfin-eval-adau1373.c	core.h
bfin-eval-adau1373.c	device.h
bfin-eval-adau1373.c	module.h
bfin-eval-adau1373.c	pcm.h
bfin-eval-adau1373.c	pcm_params.h
bfin-eval-adau1373.c	soc.h
bfin-eval-adau1701.c	adau1701.h
bfin-eval-adau1701.c	core.h
bfin-eval-adau1701.c	device.h
bfin-eval-adau1701.c	module.h
bfin-eval-adau1701.c	pcm.h
bfin-eval-adau1701.c	pcm_params.h
bfin-eval-adau1701.c	soc.h
bfin-eval-adav80x.c	adav80x.h
bfin-eval-adav80x.c	core.h
bfin-eval-adav80x.c	init.h
bfin-eval-adav80x.c	module.h
bfin-eval-adav80x.c	pcm.h
bfin-eval-adav80x.c	platform_device.h
bfin-eval-adav80x.c	soc.h
brownstone.c	core.h
brownstone.c	jack.h
brownstone.c	mmp-sspa.h
brownstone.c	module.h
brownstone.c	pcm.h
brownstone.c	soc.h
brownstone.c	wm8994.h
corgi.c	audio.h
corgi.c	core.h
corgi.c	corgi.h
corgi.c	gpio.h
corgi.c	i2c.h
corgi.c	interrupt.h
corgi.c	mach-types.h
corgi.c	module.h
corgi.c	moduleparam.h
corgi.c	pcm.h
corgi.c	platform_device.h
corgi.c	pxa2xx-i2s.h
corgi.c	soc.h
corgi.c	timer.h
corgi.c	wm8731.h
cs4270.c	consumer.h
cs4270.c	core.h
cs4270.c	delay.h
cs4270.c	i2c.h
cs4270.c	initval.h
cs4270.c	module.h
cs4270.c	of_device.h
cs4270.c	of_gpio.h
cs4270.c	slab.h
cs4270.c	soc.h
cs4271.c	cs4271.h
cs4271.c	delay.h
cs4271.c	gpio.h
cs4271.c	i2c.h
cs4271.c	module.h
cs4271.c	of_device.h
cs4271.c	of_gpio.h
cs4271.c	pcm.h
cs4271.c	slab.h
cs4271.c	soc.h
cs4271.c	spi.h
cs4271.c	tlv.h
cs42l51.c	core.h
cs42l51.c	cs42l51.h
cs42l51.c	i2c.h
cs42l51.c	initval.h
cs42l51.c	module.h
cs42l51.c	pcm.h
cs42l51.c	pcm_params.h
cs42l51.c	slab.h
cs42l51.c	soc.h
cs42l51.c	tlv.h
cs42l52.c	core.h
cs42l52.c	cs42l52.h
cs42l52.c	cs42l52.h
cs42l52.c	delay.h
cs42l52.c	i2c.h
cs42l52.c	init.h
cs42l52.c	initval.h
cs42l52.c	input.h
cs42l52.c	kernel.h
cs42l52.c	module.h
cs42l52.c	moduleparam.h
cs42l52.c	pcm.h
cs42l52.c	pcm_params.h
cs42l52.c	platform_device.h
cs42l52.c	pm.h
cs42l52.c	regmap.h
cs42l52.c	slab.h
cs42l52.c	soc-dapm.h
cs42l52.c	soc.h
cs42l52.c	tlv.h
cs42l52.c	workqueue.h
cx20442.c	consumer.h
cx20442.c	core.h
cx20442.c	cx20442.h
cx20442.c	initval.h
cx20442.c	module.h
cx20442.c	slab.h
cx20442.c	soc.h
cx20442.c	tty.h
davinci-evm.c	core.h
davinci-evm.c	davinci-i2s.h
davinci-evm.c	davinci-mcasp.h
davinci-evm.c	davinci-pcm.h
davinci-evm.c	dma.h
davinci-evm.c	i2c.h
davinci-evm.c	interrupt.h
davinci-evm.c	mach-types.h
davinci-evm.c	module.h
davinci-evm.c	moduleparam.h
davinci-evm.c	pcm.h
davinci-evm.c	platform_device.h
davinci-evm.c	soc.h
davinci-evm.c	timer.h
davinci-i2s.c	clk.h
davinci-i2s.c	core.h
davinci-i2s.c	davinci-i2s.h
davinci-i2s.c	davinci-pcm.h
davinci-i2s.c	davinci_asp.h
davinci-i2s.c	delay.h
davinci-i2s.c	device.h
davinci-i2s.c	init.h
davinci-i2s.c	initval.h
davinci-i2s.c	io.h
davinci-i2s.c	module.h
davinci-i2s.c	pcm.h
davinci-i2s.c	pcm_params.h
davinci-i2s.c	slab.h
davinci-i2s.c	soc.h
davinci-mcasp.c	core.h
davinci-mcasp.c	davinci-mcasp.h
davinci-mcasp.c	davinci-pcm.h
davinci-mcasp.c	delay.h
davinci-mcasp.c	device.h
davinci-mcasp.c	init.h
davinci-mcasp.c	initval.h
davinci-mcasp.c	io.h
davinci-mcasp.c	module.h
davinci-mcasp.c	of.h
davinci-mcasp.c	of_device.h
davinci-mcasp.c	of_platform.h
davinci-mcasp.c	pcm.h
davinci-mcasp.c	pcm_params.h
davinci-mcasp.c	pm_runtime.h
davinci-mcasp.c	slab.h
davinci-mcasp.c	soc.h
davinci-mcasp.h	davinci-pcm.h
davinci-mcasp.h	davinci_asp.h
davinci-mcasp.h	io.h
davinci-pcm.c	core.h
davinci-pcm.c	davinci-pcm.h
davinci-pcm.c	dma-mapping.h
davinci-pcm.c	dma.h
davinci-pcm.c	genalloc.h
davinci-pcm.c	init.h
davinci-pcm.c	kernel.h
davinci-pcm.c	module.h
davinci-pcm.c	pcm.h
davinci-pcm.c	pcm_params.h
davinci-pcm.c	platform_device.h
davinci-pcm.c	slab.h
davinci-pcm.c	soc.h
davinci-pcm.h	davinci_asp.h
davinci-pcm.h	edma.h
davinci-pcm.h	genalloc.h
davinci-sffsdr.c	core.h
davinci-sffsdr.c	davinci-i2s.h
davinci-sffsdr.c	davinci-pcm.h
davinci-sffsdr.c	dma.h
davinci-sffsdr.c	edma.h
davinci-sffsdr.c	gpio.h
davinci-sffsdr.c	interrupt.h
davinci-sffsdr.c	mach-types.h
davinci-sffsdr.c	module.h
davinci-sffsdr.c	moduleparam.h
davinci-sffsdr.c	pcm.h
davinci-sffsdr.c	pcm3008.h
davinci-sffsdr.c	platform_device.h
davinci-sffsdr.c	sffsdr-fpga.h
davinci-sffsdr.c	soc.h
davinci-sffsdr.c	timer.h
davinci-vcif.c	core.h
davinci-vcif.c	davinci-i2s.h
davinci-vcif.c	davinci-pcm.h
davinci-vcif.c	davinci_voicecodec.h
davinci-vcif.c	delay.h
davinci-vcif.c	device.h
davinci-vcif.c	init.h
davinci-vcif.c	initval.h
davinci-vcif.c	io.h
davinci-vcif.c	module.h
davinci-vcif.c	pcm.h
davinci-vcif.c	pcm_params.h
davinci-vcif.c	slab.h
davinci-vcif.c	soc.h
db1000.c	au1000.h
db1000.c	bcsr.h
db1000.c	core.h
db1000.c	interrupt.h
db1000.c	module.h
db1000.c	moduleparam.h
db1000.c	pcm.h
db1000.c	platform_device.h
db1000.c	psc.h
db1000.c	soc.h
db1000.c	timer.h
db1200.c	au1000.h
db1200.c	au1xxx_dbdma.h
db1200.c	au1xxx_psc.h
db1200.c	bcsr.h
db1200.c	core.h
db1200.c	interrupt.h
db1200.c	module.h
db1200.c	moduleparam.h
db1200.c	pcm.h
db1200.c	platform_device.h
db1200.c	psc.h
db1200.c	soc.h
db1200.c	timer.h
db1200.c	wm8731.h
dbdma2.c	au1000.h
dbdma2.c	au1xxx_dbdma.h
dbdma2.c	au1xxx_psc.h
dbdma2.c	core.h
dbdma2.c	dma-mapping.h
dbdma2.c	init.h
dbdma2.c	module.h
dbdma2.c	pcm.h
dbdma2.c	pcm_params.h
dbdma2.c	platform_device.h
dbdma2.c	psc.h
dbdma2.c	slab.h
dbdma2.c	soc.h
designware_i2s.c	clk.h
designware_i2s.c	designware_i2s.h
designware_i2s.c	device.h
designware_i2s.c	init.h
designware_i2s.c	interrupt.h
designware_i2s.c	io.h
designware_i2s.c	module.h
designware_i2s.c	pcm.h
designware_i2s.c	pcm_params.h
designware_i2s.c	slab.h
designware_i2s.c	soc.h
dma.c	dma-mapping.h
dma.c	dma-mapping.h
dma.c	dma.h
dma.c	dma.h
dma.c	dma.h
dma.c	dma.h
dma.c	dma.h
dma.c	dma.h
dma.c	hardware.h
dma.c	hardware.h
dma.c	module.h
dma.c	module.h
dma.c	pcm_params.h
dma.c	pcm_params.h
dma.c	slab.h
dma.c	slab.h
dma.c	soc.h
dma.c	soc.h
dmic.c	core.h
dmic.c	module.h
dmic.c	pcm.h
dmic.c	platform_device.h
dmic.c	slab.h
dmic.c	soc-dapm.h
dmic.c	soc.h
e740_wm9705.c	audio.h
e740_wm9705.c	core.h
e740_wm9705.c	eseries-gpio.h
e740_wm9705.c	gpio.h
e740_wm9705.c	mach-types.h
e740_wm9705.c	module.h
e740_wm9705.c	moduleparam.h
e740_wm9705.c	pcm.h
e740_wm9705.c	pxa2xx-ac97.h
e740_wm9705.c	soc.h
e740_wm9705.c	wm9705.h
e750_wm9705.c	audio.h
e750_wm9705.c	core.h
e750_wm9705.c	eseries-gpio.h
e750_wm9705.c	gpio.h
e750_wm9705.c	mach-types.h
e750_wm9705.c	module.h
e750_wm9705.c	moduleparam.h
e750_wm9705.c	pcm.h
e750_wm9705.c	pxa2xx-ac97.h
e750_wm9705.c	soc.h
e750_wm9705.c	wm9705.h
e800_wm9712.c	audio.h
e800_wm9712.c	core.h
e800_wm9712.c	eseries-gpio.h
e800_wm9712.c	gpio.h
e800_wm9712.c	mach-types.h
e800_wm9712.c	module.h
e800_wm9712.c	moduleparam.h
e800_wm9712.c	pcm.h
e800_wm9712.c	pxa2xx-ac97.h
e800_wm9712.c	soc.h
e800_wm9712.c	wm9712.h
edb93xx.c	core.h
edb93xx.c	ep93xx-pcm.h
edb93xx.c	gpio.h
edb93xx.c	hardware.h
edb93xx.c	mach-types.h
edb93xx.c	module.h
edb93xx.c	pcm.h
edb93xx.c	platform_device.h
edb93xx.c	soc.h
efika-audio-fabric.c	core.h
efika-audio-fabric.c	delay.h
efika-audio-fabric.c	device.h
efika-audio-fabric.c	dma-mapping.h
efika-audio-fabric.c	init.h
efika-audio-fabric.c	initval.h
efika-audio-fabric.c	interrupt.h
efika-audio-fabric.c	module.h
efika-audio-fabric.c	mpc5200_dma.h
efika-audio-fabric.c	mpc5200_psc_ac97.h
efika-audio-fabric.c	of_device.h
efika-audio-fabric.c	of_platform.h
efika-audio-fabric.c	pcm.h
efika-audio-fabric.c	pcm_params.h
efika-audio-fabric.c	soc.h
efika-audio-fabric.c	stac9766.h
em-x270.c	audio.h
em-x270.c	core.h
em-x270.c	device.h
em-x270.c	mach-types.h
em-x270.c	module.h
em-x270.c	moduleparam.h
em-x270.c	pcm.h
em-x270.c	pxa2xx-ac97.h
em-x270.c	soc.h
em-x270.c	wm9712.h
ep93xx-ac97.c	ac97_codec.h
ep93xx-ac97.c	core.h
ep93xx-ac97.c	delay.h
ep93xx-ac97.c	dma-ep93xx.h
ep93xx-ac97.c	ep93xx-pcm.h
ep93xx-ac97.c	init.h
ep93xx-ac97.c	io.h
ep93xx-ac97.c	module.h
ep93xx-ac97.c	platform_device.h
ep93xx-ac97.c	slab.h
ep93xx-ac97.c	soc.h
ep93xx-i2s.c	clk.h
ep93xx-i2s.c	core.h
ep93xx-i2s.c	dma-ep93xx.h
ep93xx-i2s.c	ep93xx-pcm.h
ep93xx-i2s.c	ep93xx-regs.h
ep93xx-i2s.c	hardware.h
ep93xx-i2s.c	init.h
ep93xx-i2s.c	initval.h
ep93xx-i2s.c	io.h
ep93xx-i2s.c	module.h
ep93xx-i2s.c	pcm.h
ep93xx-i2s.c	pcm_params.h
ep93xx-i2s.c	slab.h
ep93xx-i2s.c	soc.h
ep93xx-pcm.c	core.h
ep93xx-pcm.c	device.h
ep93xx-pcm.c	dma-ep93xx.h
ep93xx-pcm.c	dma-mapping.h
ep93xx-pcm.c	dmaengine.h
ep93xx-pcm.c	dmaengine_pcm.h
ep93xx-pcm.c	ep93xx-pcm.h
ep93xx-pcm.c	ep93xx-regs.h
ep93xx-pcm.c	hardware.h
ep93xx-pcm.c	init.h
ep93xx-pcm.c	module.h
ep93xx-pcm.c	pcm.h
ep93xx-pcm.c	pcm_params.h
ep93xx-pcm.c	slab.h
ep93xx-pcm.c	soc.h
eukrea-tlv320.c	core.h
eukrea-tlv320.c	device.h
eukrea-tlv320.c	i2c.h
eukrea-tlv320.c	imx-audmux.h
eukrea-tlv320.c	imx-ssi.h
eukrea-tlv320.c	mach-types.h
eukrea-tlv320.c	module.h
eukrea-tlv320.c	moduleparam.h
eukrea-tlv320.c	pcm.h
eukrea-tlv320.c	soc.h
eukrea-tlv320.c	tlv320aic23.h
fsl_dma.c	core.h
fsl_dma.c	delay.h
fsl_dma.c	dma-mapping.h
fsl_dma.c	fsl_dma.h
fsl_dma.c	fsl_ssi.h
fsl_dma.c	gfp.h
fsl_dma.c	init.h
fsl_dma.c	interrupt.h
fsl_dma.c	io.h
fsl_dma.c	list.h
fsl_dma.c	module.h
fsl_dma.c	of_platform.h
fsl_dma.c	pcm.h
fsl_dma.c	pcm_params.h
fsl_dma.c	platform_device.h
fsl_dma.c	slab.h
fsl_dma.c	soc.h
fsl_ssi.c	clk.h
fsl_ssi.c	core.h
fsl_ssi.c	delay.h
fsl_ssi.c	device.h
fsl_ssi.c	fsl_ssi.h
fsl_ssi.c	imx-pcm.h
fsl_ssi.c	init.h
fsl_ssi.c	initval.h
fsl_ssi.c	interrupt.h
fsl_ssi.c	io.h
fsl_ssi.c	module.h
fsl_ssi.c	of_address.h
fsl_ssi.c	of_irq.h
fsl_ssi.c	of_platform.h
fsl_ssi.c	pcm.h
fsl_ssi.c	pcm_params.h
fsl_ssi.c	slab.h
fsl_ssi.c	soc.h
fsl_utils.c	fsl_utils.h
fsl_utils.c	module.h
fsl_utils.c	of_address.h
fsl_utils.c	soc.h
goni_wm8994.c	gpio.h
goni_wm8994.c	jack.h
goni_wm8994.c	mach-types.h
goni_wm8994.c	module.h
goni_wm8994.c	soc.h
goni_wm8994.c	wm8994.h
h1940_uda1380.c	gpio.h
h1940_uda1380.c	h1940-latch.h
h1940_uda1380.c	jack.h
h1940_uda1380.c	mach-types.h
h1940_uda1380.c	module.h
h1940_uda1380.c	regs-iis.h
h1940_uda1380.c	s3c24xx-i2s.h
h1940_uda1380.c	soc.h
h1940_uda1380.c	types.h
hx4700.c	ak4641.h
hx4700.c	core.h
hx4700.c	delay.h
hx4700.c	gpio.h
hx4700.c	hx4700.h
hx4700.c	interrupt.h
hx4700.c	jack.h
hx4700.c	mach-types.h
hx4700.c	module.h
hx4700.c	pcm.h
hx4700.c	pcm_params.h
hx4700.c	platform_device.h
hx4700.c	pxa2xx-i2s.h
hx4700.c	soc.h
hx4700.c	timer.h
i2s.c	asoc-s3c.h
i2s.c	clk.h
i2s.c	delay.h
i2s.c	dma.h
i2s.c	i2s-regs.h
i2s.c	i2s.h
i2s.c	idma.h
i2s.c	io.h
i2s.c	module.h
i2s.c	pcm_params.h
i2s.c	pm_runtime.h
i2s.c	slab.h
i2s.c	soc.h
i2sc.c	au1000.h
i2sc.c	core.h
i2sc.c	init.h
i2sc.c	initval.h
i2sc.c	module.h
i2sc.c	pcm.h
i2sc.c	psc.h
i2sc.c	slab.h
i2sc.c	soc.h
i2sc.c	suspend.h
idma.c	dma-mapping.h
idma.c	dma.h
idma.c	i2s-regs.h
idma.c	i2s.h
idma.c	idma.h
idma.c	interrupt.h
idma.c	module.h
idma.c	pcm.h
idma.c	pcm_params.h
idma.c	platform_device.h
idma.c	slab.h
idma.c	soc.h
imote2.c	mach-types.h
imote2.c	module.h
imote2.c	pxa2xx-i2s.h
imote2.c	soc.h
imote2.c	wm8940.h
imx-audmux.c	clk.h
imx-audmux.c	consumer.h
imx-audmux.c	debugfs.h
imx-audmux.c	err.h
imx-audmux.c	imx-audmux.h
imx-audmux.c	io.h
imx-audmux.c	module.h
imx-audmux.c	of.h
imx-audmux.c	of_device.h
imx-audmux.c	platform_device.h
imx-audmux.c	slab.h
imx-mc13783.c	core.h
imx-mc13783.c	device.h
imx-mc13783.c	imx-audmux.h
imx-mc13783.c	imx-ssi.h
imx-mc13783.c	mach-types.h
imx-mc13783.c	mc13783.h
imx-mc13783.c	module.h
imx-mc13783.c	moduleparam.h
imx-mc13783.c	pcm.h
imx-mc13783.c	soc-dapm.h
imx-mc13783.c	soc.h
imx-pcm-dma.c	clk.h
imx-pcm-dma.c	core.h
imx-pcm-dma.c	delay.h
imx-pcm-dma.c	device.h
imx-pcm-dma.c	dma-imx.h
imx-pcm-dma.c	dma-mapping.h
imx-pcm-dma.c	dmaengine.h
imx-pcm-dma.c	dmaengine_pcm.h
imx-pcm-dma.c	imx-pcm.h
imx-pcm-dma.c	init.h
imx-pcm-dma.c	initval.h
imx-pcm-dma.c	interrupt.h
imx-pcm-dma.c	module.h
imx-pcm-dma.c	pcm.h
imx-pcm-dma.c	pcm_params.h
imx-pcm-dma.c	platform_device.h
imx-pcm-dma.c	slab.h
imx-pcm-dma.c	soc.h
imx-pcm-dma.c	types.h
imx-pcm-fiq.c	asoc-imx-ssi.h
imx-pcm-fiq.c	clk.h
imx-pcm-fiq.c	core.h
imx-pcm-fiq.c	delay.h
imx-pcm-fiq.c	device.h
imx-pcm-fiq.c	dma-mapping.h
imx-pcm-fiq.c	fiq.h
imx-pcm-fiq.c	imx-ssi.h
imx-pcm-fiq.c	init.h
imx-pcm-fiq.c	initval.h
imx-pcm-fiq.c	interrupt.h
imx-pcm-fiq.c	module.h
imx-pcm-fiq.c	pcm.h
imx-pcm-fiq.c	pcm_params.h
imx-pcm-fiq.c	platform_device.h
imx-pcm-fiq.c	slab.h
imx-pcm-fiq.c	soc.h
imx-pcm.c	dma-mapping.h
imx-pcm.c	imx-pcm.h
imx-pcm.c	module.h
imx-pcm.c	pcm.h
imx-pcm.c	soc.h
imx-sgtl5000.c	clk.h
imx-sgtl5000.c	imx-audmux.h
imx-sgtl5000.c	module.h
imx-sgtl5000.c	of.h
imx-sgtl5000.c	of_i2c.h
imx-sgtl5000.c	of_platform.h
imx-sgtl5000.c	sgtl5000.h
imx-sgtl5000.c	soc.h
imx-ssi.c	asoc-imx-ssi.h
imx-ssi.c	clk.h
imx-ssi.c	core.h
imx-ssi.c	delay.h
imx-ssi.c	device.h
imx-ssi.c	dma-mapping.h
imx-ssi.c	imx-ssi.h
imx-ssi.c	init.h
imx-ssi.c	initval.h
imx-ssi.c	interrupt.h
imx-ssi.c	module.h
imx-ssi.c	pcm.h
imx-ssi.c	pcm_params.h
imx-ssi.c	platform_device.h
imx-ssi.c	slab.h
imx-ssi.c	soc.h
imx-ssi.h	dma-imx.h
imx-ssi.h	dmaengine.h
imx-ssi.h	imx-pcm.h
jive_wm8750.c	mach-types.h
jive_wm8750.c	module.h
jive_wm8750.c	s3c2412-i2s.h
jive_wm8750.c	soc.h
jive_wm8750.c	wm8750.h
jz4740-i2s.c	clk.h
jz4740-i2s.c	core.h
jz4740-i2s.c	delay.h
jz4740-i2s.c	dma-mapping.h
jz4740-i2s.c	init.h
jz4740-i2s.c	initval.h
jz4740-i2s.c	io.h
jz4740-i2s.c	jz4740-i2s.h
jz4740-i2s.c	jz4740-pcm.h
jz4740-i2s.c	kernel.h
jz4740-i2s.c	module.h
jz4740-i2s.c	pcm.h
jz4740-i2s.c	pcm_params.h
jz4740-i2s.c	platform_device.h
jz4740-i2s.c	slab.h
jz4740-i2s.c	soc.h
jz4740-pcm.c	core.h
jz4740-pcm.c	dma-mapping.h
jz4740-pcm.c	dma.h
jz4740-pcm.c	init.h
jz4740-pcm.c	interrupt.h
jz4740-pcm.c	jz4740-pcm.h
jz4740-pcm.c	kernel.h
jz4740-pcm.c	module.h
jz4740-pcm.c	pcm.h
jz4740-pcm.c	pcm_params.h
jz4740-pcm.c	platform_device.h
jz4740-pcm.c	slab.h
jz4740-pcm.c	soc.h
jz4740-pcm.h	dma-mapping.h
jz4740-pcm.h	dma.h
l3.c	delay.h
l3.c	kernel.h
l3.c	l3.h
l3.c	module.h
littlemill.c	gpio.h
littlemill.c	jack.h
littlemill.c	module.h
littlemill.c	soc-dapm.h
littlemill.c	soc.h
littlemill.c	wm8994.h
lm49453.h	bitops.h
ln2440sbc_alc650.c	module.h
ln2440sbc_alc650.c	soc.h
lowland.c	gpio.h
lowland.c	jack.h
lowland.c	module.h
lowland.c	soc-dapm.h
lowland.c	soc.h
lowland.c	wm5100.h
lowland.c	wm9081.h
magician.c	core.h
magician.c	delay.h
magician.c	gpio.h
magician.c	i2c.h
magician.c	interrupt.h
magician.c	mach-types.h
magician.c	magician.h
magician.c	module.h
magician.c	pcm.h
magician.c	pcm_params.h
magician.c	platform_device.h
magician.c	pxa-ssp.h
magician.c	pxa2xx-i2s.h
magician.c	soc.h
magician.c	timer.h
magician.c	uda1380.h
magician.c	uda1380.h
max9768.c	core.h
max9768.c	gpio.h
max9768.c	i2c.h
max9768.c	init.h
max9768.c	max9768.h
max9768.c	module.h
max9768.c	regmap.h
max9768.c	slab.h
max9768.c	soc.h
max9768.c	tlv.h
max98090.c	i2c.h
max98090.c	module.h
max98090.c	regmap.h
max98090.c	soc.h
max98090.c	tlv.h
mcbsp.c	asoc-ti-mcbsp.h
mcbsp.c	clk.h
mcbsp.c	delay.h
mcbsp.c	device.h
mcbsp.c	err.h
mcbsp.c	init.h
mcbsp.c	interrupt.h
mcbsp.c	io.h
mcbsp.c	mcbsp.h
mcbsp.c	module.h
mcbsp.c	platform_device.h
mcbsp.c	pm_runtime.h
mcbsp.c	slab.h
mcbsp.h	omap-pcm.h
mfld_machine.c	device.h
mfld_machine.c	init.h
mfld_machine.c	io.h
mfld_machine.c	jack.h
mfld_machine.c	module.h
mfld_machine.c	pcm.h
mfld_machine.c	pcm_params.h
mfld_machine.c	slab.h
mfld_machine.c	sn95031.h
mfld_machine.c	soc.h
mioa701_wm9713.c	ac97_codec.h
mioa701_wm9713.c	audio.h
mioa701_wm9713.c	core.h
mioa701_wm9713.c	initval.h
mioa701_wm9713.c	mach-types.h
mioa701_wm9713.c	module.h
mioa701_wm9713.c	moduleparam.h
mioa701_wm9713.c	pcm.h
mioa701_wm9713.c	platform_device.h
mioa701_wm9713.c	pxa2xx-ac97.h
mioa701_wm9713.c	soc.h
mioa701_wm9713.c	wm9713.h
ml26124.c	core.h
ml26124.c	delay.h
ml26124.c	i2c.h
ml26124.c	init.h
ml26124.c	ml26124.h
ml26124.c	module.h
ml26124.c	moduleparam.h
ml26124.c	pcm.h
ml26124.c	pcm_params.h
ml26124.c	platform_device.h
ml26124.c	pm.h
ml26124.c	regmap.h
ml26124.c	slab.h
ml26124.c	soc.h
ml26124.c	tlv.h
mmp-pcm.c	core.h
mmp-pcm.c	dma-mapping.h
mmp-pcm.c	dma-mmp_tdma.h
mmp-pcm.c	dmaengine.h
mmp-pcm.c	dmaengine_pcm.h
mmp-pcm.c	init.h
mmp-pcm.c	mmp_audio.h
mmp-pcm.c	module.h
mmp-pcm.c	pcm.h
mmp-pcm.c	pcm_params.h
mmp-pcm.c	platform_device.h
mmp-pcm.c	pxa2xx-lib.h
mmp-pcm.c	slab.h
mmp-pcm.c	soc.h
mmp-sspa.c	clk.h
mmp-sspa.c	core.h
mmp-sspa.c	delay.h
mmp-sspa.c	init.h
mmp-sspa.c	initval.h
mmp-sspa.c	io.h
mmp-sspa.c	mmp-sspa.h
mmp-sspa.c	module.h
mmp-sspa.c	pcm.h
mmp-sspa.c	pcm_params.h
mmp-sspa.c	platform_device.h
mmp-sspa.c	pxa2xx-lib.h
mmp-sspa.c	pxa2xx_ssp.h
mmp-sspa.c	slab.h
mmp-sspa.c	soc.h
mpc5200_dma.c	bestcomm.h
mpc5200_dma.c	dma-mapping.h
mpc5200_dma.c	gen_bd.h
mpc5200_dma.c	module.h
mpc5200_dma.c	mpc5200_dma.h
mpc5200_dma.c	mpc52xx_psc.h
mpc5200_dma.c	of_device.h
mpc5200_dma.c	of_platform.h
mpc5200_dma.c	slab.h
mpc5200_dma.c	soc.h
mpc5200_psc_ac97.c	delay.h
mpc5200_psc_ac97.c	delay.h
mpc5200_psc_ac97.c	module.h
mpc5200_psc_ac97.c	mpc5200_dma.h
mpc5200_psc_ac97.c	mpc5200_psc_ac97.h
mpc5200_psc_ac97.c	mpc52xx.h
mpc5200_psc_ac97.c	mpc52xx_psc.h
mpc5200_psc_ac97.c	of_device.h
mpc5200_psc_ac97.c	of_platform.h
mpc5200_psc_ac97.c	pcm.h
mpc5200_psc_ac97.c	pcm_params.h
mpc5200_psc_ac97.c	soc.h
mpc5200_psc_ac97.c	time.h
mpc5200_psc_i2s.c	module.h
mpc5200_psc_i2s.c	mpc5200_dma.h
mpc5200_psc_i2s.c	mpc52xx_psc.h
mpc5200_psc_i2s.c	of_device.h
mpc5200_psc_i2s.c	of_platform.h
mpc5200_psc_i2s.c	pcm.h
mpc5200_psc_i2s.c	pcm_params.h
mpc5200_psc_i2s.c	soc.h
mpc8610_hpcd.c	fsl_dma.h
mpc8610_hpcd.c	fsl_guts.h
mpc8610_hpcd.c	fsl_ssi.h
mpc8610_hpcd.c	fsl_utils.h
mpc8610_hpcd.c	interrupt.h
mpc8610_hpcd.c	module.h
mpc8610_hpcd.c	of_device.h
mpc8610_hpcd.c	slab.h
mpc8610_hpcd.c	soc.h
mx27vis-aic32x4.c	asoc-mx27vis.h
mx27vis-aic32x4.c	core.h
mx27vis-aic32x4.c	device.h
mx27vis-aic32x4.c	gpio.h
mx27vis-aic32x4.c	i2c.h
mx27vis-aic32x4.c	imx-audmux.h
mx27vis-aic32x4.c	imx-ssi.h
mx27vis-aic32x4.c	mach-types.h
mx27vis-aic32x4.c	module.h
mx27vis-aic32x4.c	moduleparam.h
mx27vis-aic32x4.c	pcm.h
mx27vis-aic32x4.c	soc-dapm.h
mx27vis-aic32x4.c	soc.h
mx27vis-aic32x4.c	tlv.h
mx27vis-aic32x4.c	tlv320aic32x4.h
mxs-pcm.c	clk.h
mxs-pcm.c	core.h
mxs-pcm.c	delay.h
mxs-pcm.c	device.h
mxs-pcm.c	dma-mapping.h
mxs-pcm.c	dmaengine.h
mxs-pcm.c	dmaengine_pcm.h
mxs-pcm.c	init.h
mxs-pcm.c	initval.h
mxs-pcm.c	interrupt.h
mxs-pcm.c	module.h
mxs-pcm.c	mxs-dma.h
mxs-pcm.c	mxs-pcm.h
mxs-pcm.c	pcm.h
mxs-pcm.c	pcm_params.h
mxs-pcm.c	platform_device.h
mxs-pcm.c	slab.h
mxs-pcm.c	soc.h
mxs-saif.c	clk.h
mxs-saif.c	consumer.h
mxs-saif.c	core.h
mxs-saif.c	delay.h
mxs-saif.c	dma-mapping.h
mxs-saif.c	hardware.h
mxs-saif.c	init.h
mxs-saif.c	mach-types.h
mxs-saif.c	module.h
mxs-saif.c	mxs-dma.h
mxs-saif.c	mxs-saif.h
mxs-saif.c	mxs.h
mxs-saif.c	of.h
mxs-saif.c	of_device.h
mxs-saif.c	pcm.h
mxs-saif.c	pcm_params.h
mxs-saif.c	platform_device.h
mxs-saif.c	saif.h
mxs-saif.c	slab.h
mxs-saif.c	soc.h
mxs-saif.c	time.h
mxs-saif.h	mxs-pcm.h
mxs-sgtl5000.c	core.h
mxs-sgtl5000.c	device.h
mxs-sgtl5000.c	jack.h
mxs-sgtl5000.c	mach-types.h
mxs-sgtl5000.c	module.h
mxs-sgtl5000.c	mxs-saif.h
mxs-sgtl5000.c	of.h
mxs-sgtl5000.c	of_device.h
mxs-sgtl5000.c	pcm.h
mxs-sgtl5000.c	sgtl5000.h
mxs-sgtl5000.c	soc-dapm.h
mxs-sgtl5000.c	soc.h
n810.c	asoc-ti-mcbsp.h
n810.c	clk.h
n810.c	core.h
n810.c	gpio.h
n810.c	i2c.h
n810.c	mach-types.h
n810.c	module.h
n810.c	omap-mcbsp.h
n810.c	omap-pcm.h
n810.c	pcm.h
n810.c	platform_device.h
n810.c	soc.h
neo1973_wm8753.c	gpio.h
neo1973_wm8753.c	gta02.h
neo1973_wm8753.c	mach-types.h
neo1973_wm8753.c	module.h
neo1973_wm8753.c	platform_device.h
neo1973_wm8753.c	regs-iis.h
neo1973_wm8753.c	s3c24xx-i2s.h
neo1973_wm8753.c	soc.h
neo1973_wm8753.c	wm8753.h
nuc900-ac97.c	clk.h
nuc900-ac97.c	core.h
nuc900-ac97.c	delay.h
nuc900-ac97.c	device.h
nuc900-ac97.c	init.h
nuc900-ac97.c	initval.h
nuc900-ac97.c	mfp.h
nuc900-ac97.c	module.h
nuc900-ac97.c	mutex.h
nuc900-ac97.c	nuc900-audio.h
nuc900-ac97.c	pcm.h
nuc900-ac97.c	slab.h
nuc900-ac97.c	soc.h
nuc900-ac97.c	suspend.h
nuc900-audio.c	core.h
nuc900-audio.c	interrupt.h
nuc900-audio.c	module.h
nuc900-audio.c	moduleparam.h
nuc900-audio.c	nuc900-audio.h
nuc900-audio.c	pcm.h
nuc900-audio.c	platform_device.h
nuc900-audio.c	soc.h
nuc900-audio.c	timer.h
nuc900-audio.h	io.h
nuc900-pcm.c	core.h
nuc900-pcm.c	dma-mapping.h
nuc900-pcm.c	hardware.h
nuc900-pcm.c	init.h
nuc900-pcm.c	io.h
nuc900-pcm.c	module.h
nuc900-pcm.c	nuc900-audio.h
nuc900-pcm.c	pcm.h
nuc900-pcm.c	pcm_params.h
nuc900-pcm.c	platform_device.h
nuc900-pcm.c	slab.h
nuc900-pcm.c	soc.h
omap-abe-twl6040.c	clk.h
omap-abe-twl6040.c	core.h
omap-abe-twl6040.c	jack.h
omap-abe-twl6040.c	module.h
omap-abe-twl6040.c	of.h
omap-abe-twl6040.c	omap-abe-twl6040.h
omap-abe-twl6040.c	omap-dmic.h
omap-abe-twl6040.c	omap-mcpdm.h
omap-abe-twl6040.c	omap-pcm.h
omap-abe-twl6040.c	pcm.h
omap-abe-twl6040.c	platform_device.h
omap-abe-twl6040.c	soc.h
omap-abe-twl6040.c	twl6040.h
omap-abe-twl6040.c	twl6040.h
omap-dmic.c	clk.h
omap-dmic.c	core.h
omap-dmic.c	err.h
omap-dmic.c	init.h
omap-dmic.c	initval.h
omap-dmic.c	io.h
omap-dmic.c	module.h
omap-dmic.c	of_device.h
omap-dmic.c	omap-dmic.h
omap-dmic.c	omap-pcm.h
omap-dmic.c	pcm.h
omap-dmic.c	pcm_params.h
omap-dmic.c	platform_device.h
omap-dmic.c	pm_runtime.h
omap-dmic.c	slab.h
omap-dmic.c	soc.h
omap-hdmi-card.c	mach-types.h
omap-hdmi-card.c	module.h
omap-hdmi-card.c	omapdss.h
omap-hdmi-card.c	pcm.h
omap-hdmi-card.c	soc.h
omap-hdmi.c	asound.h
omap-hdmi.c	asoundef.h
omap-hdmi.c	core.h
omap-hdmi.c	device.h
omap-hdmi.c	init.h
omap-hdmi.c	initval.h
omap-hdmi.c	module.h
omap-hdmi.c	omap-hdmi.h
omap-hdmi.c	omap-pcm.h
omap-hdmi.c	omapdss.h
omap-hdmi.c	pcm.h
omap-hdmi.c	pcm_params.h
omap-hdmi.c	soc.h
omap-mcbsp.c	asoc-ti-mcbsp.h
omap-mcbsp.c	core.h
omap-mcbsp.c	device.h
omap-mcbsp.c	init.h
omap-mcbsp.c	initval.h
omap-mcbsp.c	mcbsp.h
omap-mcbsp.c	module.h
omap-mcbsp.c	of.h
omap-mcbsp.c	of_device.h
omap-mcbsp.c	omap-mcbsp.h
omap-mcbsp.c	omap-pcm.h
omap-mcbsp.c	pcm.h
omap-mcbsp.c	pcm_params.h
omap-mcbsp.c	pm_runtime.h
omap-mcbsp.c	soc.h
omap-mcpdm.c	core.h
omap-mcpdm.c	err.h
omap-mcpdm.c	init.h
omap-mcpdm.c	interrupt.h
omap-mcpdm.c	io.h
omap-mcpdm.c	irq.h
omap-mcpdm.c	module.h
omap-mcpdm.c	of_device.h
omap-mcpdm.c	omap-mcpdm.h
omap-mcpdm.c	omap-pcm.h
omap-mcpdm.c	pcm.h
omap-mcpdm.c	pcm_params.h
omap-mcpdm.c	platform_device.h
omap-mcpdm.c	pm_runtime.h
omap-mcpdm.c	slab.h
omap-mcpdm.c	soc.h
omap-pcm.c	core.h
omap-pcm.c	dma-mapping.h
omap-pcm.c	dmaengine_pcm.h
omap-pcm.c	module.h
omap-pcm.c	omap-dma.h
omap-pcm.c	omap-pcm.h
omap-pcm.c	pcm.h
omap-pcm.c	pcm_params.h
omap-pcm.c	slab.h
omap-pcm.c	soc.h
omap-twl4030.c	core.h
omap-twl4030.c	module.h
omap-twl4030.c	of.h
omap-twl4030.c	omap-mcbsp.h
omap-twl4030.c	omap-pcm.h
omap-twl4030.c	omap-twl4030.h
omap-twl4030.c	pcm.h
omap-twl4030.c	platform_device.h
omap-twl4030.c	soc.h
omap3pandora.c	asoc-ti-mcbsp.h
omap3pandora.c	clk.h
omap3pandora.c	consumer.h
omap3pandora.c	core.h
omap3pandora.c	delay.h
omap3pandora.c	gpio.h
omap3pandora.c	mach-types.h
omap3pandora.c	module.h
omap3pandora.c	omap-mcbsp.h
omap3pandora.c	omap-pcm.h
omap3pandora.c	pcm.h
omap3pandora.c	platform_device.h
omap3pandora.c	soc.h
osk5912.c	asoc-ti-mcbsp.h
osk5912.c	clk.h
osk5912.c	core.h
osk5912.c	gpio.h
osk5912.c	mach-types.h
osk5912.c	module.h
osk5912.c	omap-mcbsp.h
osk5912.c	omap-pcm.h
osk5912.c	pcm.h
osk5912.c	platform_device.h
osk5912.c	soc.h
osk5912.c	tlv320aic23.h
p1022_ds.c	fsl_dma.h
p1022_ds.c	fsl_guts.h
p1022_ds.c	fsl_ssi.h
p1022_ds.c	fsl_utils.h
p1022_ds.c	interrupt.h
p1022_ds.c	module.h
p1022_ds.c	of_device.h
p1022_ds.c	slab.h
p1022_ds.c	soc.h
p1022_rdk.c	fsl_dma.h
p1022_rdk.c	fsl_guts.h
p1022_rdk.c	fsl_ssi.h
p1022_rdk.c	fsl_utils.h
p1022_rdk.c	interrupt.h
p1022_rdk.c	module.h
p1022_rdk.c	of_device.h
p1022_rdk.c	slab.h
p1022_rdk.c	soc.h
palm27x.c	asoc-palm27x.h
palm27x.c	audio.h
palm27x.c	core.h
palm27x.c	device.h
palm27x.c	gpio.h
palm27x.c	jack.h
palm27x.c	mach-types.h
palm27x.c	module.h
palm27x.c	moduleparam.h
palm27x.c	pcm.h
palm27x.c	pxa2xx-ac97.h
palm27x.c	soc.h
palm27x.c	wm9712.h
pcm.c	asoc-s3c.h
pcm.c	clk.h
pcm.c	dma.h
pcm.c	dma.h
pcm.c	io.h
pcm.c	module.h
pcm.c	pcm.h
pcm.c	pcm_params.h
pcm.c	pm_runtime.h
pcm.c	soc.h
pcm030-audio-fabric.c	device.h
pcm030-audio-fabric.c	init.h
pcm030-audio-fabric.c	module.h
pcm030-audio-fabric.c	mpc5200_dma.h
pcm030-audio-fabric.c	of_device.h
pcm030-audio-fabric.c	of_platform.h
pcm030-audio-fabric.c	soc.h
phycore-ac97.c	core.h
phycore-ac97.c	device.h
phycore-ac97.c	i2c.h
phycore-ac97.c	imx-audmux.h
phycore-ac97.c	mach-types.h
phycore-ac97.c	module.h
phycore-ac97.c	moduleparam.h
phycore-ac97.c	pcm.h
phycore-ac97.c	soc.h
poodle.c	audio.h
poodle.c	core.h
poodle.c	i2c.h
poodle.c	interrupt.h
poodle.c	locomo.h
poodle.c	mach-types.h
poodle.c	module.h
poodle.c	moduleparam.h
poodle.c	pcm.h
poodle.c	platform_device.h
poodle.c	poodle.h
poodle.c	pxa2xx-i2s.h
poodle.c	soc.h
poodle.c	timer.h
poodle.c	wm8731.h
psc-ac97.c	au1000.h
psc-ac97.c	au1xxx_psc.h
psc-ac97.c	core.h
psc-ac97.c	delay.h
psc-ac97.c	device.h
psc-ac97.c	init.h
psc-ac97.c	initval.h
psc-ac97.c	module.h
psc-ac97.c	mutex.h
psc-ac97.c	pcm.h
psc-ac97.c	psc.h
psc-ac97.c	slab.h
psc-ac97.c	soc.h
psc-ac97.c	suspend.h
psc-i2s.c	au1000.h
psc-i2s.c	au1xxx_psc.h
psc-i2s.c	core.h
psc-i2s.c	init.h
psc-i2s.c	initval.h
psc-i2s.c	module.h
psc-i2s.c	pcm.h
psc-i2s.c	psc.h
psc-i2s.c	slab.h
psc-i2s.c	soc.h
psc-i2s.c	suspend.h
pxa-ssp.c	clk.h
pxa-ssp.c	core.h
pxa-ssp.c	dma.h
pxa-ssp.c	hardware.h
pxa-ssp.c	init.h
pxa-ssp.c	initval.h
pxa-ssp.c	io.h
pxa-ssp.c	irq.h
pxa-ssp.c	module.h
pxa-ssp.c	pcm.h
pxa-ssp.c	pcm_params.h
pxa-ssp.c	platform_device.h
pxa-ssp.c	pxa-ssp.h
pxa-ssp.c	pxa2xx-lib.h
pxa-ssp.c	pxa2xx-pcm.h
pxa-ssp.c	pxa2xx_ssp.h
pxa-ssp.c	slab.h
pxa-ssp.c	soc.h
pxa2xx-ac97.c	ac97_codec.h
pxa2xx-ac97.c	audio.h
pxa2xx-ac97.c	core.h
pxa2xx-ac97.c	dma.h
pxa2xx-ac97.c	hardware.h
pxa2xx-ac97.c	init.h
pxa2xx-ac97.c	io.h
pxa2xx-ac97.c	module.h
pxa2xx-ac97.c	platform_device.h
pxa2xx-ac97.c	pxa2xx-ac97.h
pxa2xx-ac97.c	pxa2xx-lib.h
pxa2xx-ac97.c	regs-ac97.h
pxa2xx-ac97.c	soc.h
pxa2xx-i2s.c	audio.h
pxa2xx-i2s.c	clk.h
pxa2xx-i2s.c	core.h
pxa2xx-i2s.c	delay.h
pxa2xx-i2s.c	device.h
pxa2xx-i2s.c	dma.h
pxa2xx-i2s.c	hardware.h
pxa2xx-i2s.c	init.h
pxa2xx-i2s.c	initval.h
pxa2xx-i2s.c	io.h
pxa2xx-i2s.c	module.h
pxa2xx-i2s.c	pcm.h
pxa2xx-i2s.c	platform_device.h
pxa2xx-i2s.c	pxa2xx-i2s.h
pxa2xx-i2s.c	pxa2xx-lib.h
pxa2xx-i2s.c	soc.h
pxa2xx-pcm.c	core.h
pxa2xx-pcm.c	dma-mapping.h
pxa2xx-pcm.c	module.h
pxa2xx-pcm.c	pxa2xx-lib.h
pxa2xx-pcm.c	pxa2xx-pcm.h
pxa2xx-pcm.c	soc.h
qi_lb60.c	core.h
qi_lb60.c	gpio.h
qi_lb60.c	interrupt.h
qi_lb60.c	module.h
qi_lb60.c	moduleparam.h
qi_lb60.c	pcm.h
qi_lb60.c	platform_device.h
qi_lb60.c	soc.h
qi_lb60.c	timer.h
raumfeld.c	delay.h
raumfeld.c	gpio.h
raumfeld.c	i2c.h
raumfeld.c	mach-types.h
raumfeld.c	module.h
raumfeld.c	pcm.h
raumfeld.c	pxa-ssp.h
raumfeld.c	soc.h
rx1950_uda1380.c	gpio.h
rx1950_uda1380.c	jack.h
rx1950_uda1380.c	mach-types.h
rx1950_uda1380.c	module.h
rx1950_uda1380.c	regs-iis.h
rx1950_uda1380.c	s3c24xx-i2s.h
rx1950_uda1380.c	soc.h
rx1950_uda1380.c	types.h
rx51.c	asoc-ti-mcbsp.h
rx51.c	core.h
rx51.c	delay.h
rx51.c	gpio.h
rx51.c	jack.h
rx51.c	mach-types.h
rx51.c	module.h
rx51.c	omap-mcbsp.h
rx51.c	omap-pcm.h
rx51.c	pcm.h
rx51.c	platform_device.h
rx51.c	soc.h
rx51.c	tpa6130a2.h
s3c-i2s-v2.c	clk.h
s3c-i2s-v2.c	delay.h
s3c-i2s-v2.c	dma.h
s3c-i2s-v2.c	dma.h
s3c-i2s-v2.c	io.h
s3c-i2s-v2.c	module.h
s3c-i2s-v2.c	pcm_params.h
s3c-i2s-v2.c	regs-i2s-v2.h
s3c-i2s-v2.c	s3c-i2s-v2.h
s3c-i2s-v2.c	soc.h
s3c2412-i2s.c	clk.h
s3c2412-i2s.c	delay.h
s3c2412-i2s.c	dma.h
s3c2412-i2s.c	dma.h
s3c2412-i2s.c	gpio.h
s3c2412-i2s.c	io.h
s3c2412-i2s.c	module.h
s3c2412-i2s.c	pcm_params.h
s3c2412-i2s.c	regs-i2s-v2.h
s3c2412-i2s.c	s3c2412-i2s.h
s3c2412-i2s.c	soc.h
s3c2412-i2s.h	s3c-i2s-v2.h
s3c24xx-i2s.c	clk.h
s3c24xx-i2s.c	delay.h
s3c24xx-i2s.c	dma.h
s3c24xx-i2s.c	dma.h
s3c24xx-i2s.c	gpio.h
s3c24xx-i2s.c	io.h
s3c24xx-i2s.c	module.h
s3c24xx-i2s.c	pcm_params.h
s3c24xx-i2s.c	regs-iis.h
s3c24xx-i2s.c	s3c24xx-i2s.h
s3c24xx-i2s.c	soc.h
s3c24xx_simtec.c	asoc-s3c24xx_simtec.h
s3c24xx_simtec.c	clk.h
s3c24xx_simtec.c	gpio.h
s3c24xx_simtec.c	module.h
s3c24xx_simtec.c	s3c24xx-i2s.h
s3c24xx_simtec.c	s3c24xx_simtec.h
s3c24xx_simtec.c	soc.h
s3c24xx_simtec_hermes.c	module.h
s3c24xx_simtec_hermes.c	s3c24xx_simtec.h
s3c24xx_simtec_hermes.c	soc.h
s3c24xx_simtec_tlv320aic23.c	module.h
s3c24xx_simtec_tlv320aic23.c	s3c24xx_simtec.h
s3c24xx_simtec_tlv320aic23.c	soc.h
s3c24xx_uda134x.c	clk.h
s3c24xx_uda134x.c	gpio.h
s3c24xx_uda134x.c	module.h
s3c24xx_uda134x.c	regs-iis.h
s3c24xx_uda134x.c	s3c24xx-i2s.h
s3c24xx_uda134x.c	s3c24xx_uda134x.h
s3c24xx_uda134x.c	soc.h
s6000-i2s.c	clk.h
s6000-i2s.c	core.h
s6000-i2s.c	delay.h
s6000-i2s.c	device.h
s6000-i2s.c	init.h
s6000-i2s.c	initval.h
s6000-i2s.c	interrupt.h
s6000-i2s.c	io.h
s6000-i2s.c	module.h
s6000-i2s.c	pcm.h
s6000-i2s.c	pcm_params.h
s6000-i2s.c	s6000-i2s.h
s6000-i2s.c	s6000-pcm.h
s6000-i2s.c	slab.h
s6000-i2s.c	soc.h
s6000-pcm.c	core.h
s6000-pcm.c	dma-mapping.h
s6000-pcm.c	dma.h
s6000-pcm.c	dmac.h
s6000-pcm.c	init.h
s6000-pcm.c	interrupt.h
s6000-pcm.c	module.h
s6000-pcm.c	pcm.h
s6000-pcm.c	pcm_params.h
s6000-pcm.c	platform_device.h
s6000-pcm.c	s6000-pcm.h
s6000-pcm.c	slab.h
s6000-pcm.c	soc.h
s6105-ipcam.c	core.h
s6105-ipcam.c	dmac.h
s6105-ipcam.c	i2c.h
s6105-ipcam.c	interrupt.h
s6105-ipcam.c	module.h
s6105-ipcam.c	moduleparam.h
s6105-ipcam.c	pcm.h
s6105-ipcam.c	platform_device.h
s6105-ipcam.c	s6000-i2s.h
s6105-ipcam.c	s6000-pcm.h
s6105-ipcam.c	soc.h
s6105-ipcam.c	timer.h
saarb.c	88pm860x-codec.h
saarb.c	clk.h
saarb.c	core.h
saarb.c	device.h
saarb.c	i2c.h
saarb.c	jack.h
saarb.c	mach-types.h
saarb.c	module.h
saarb.c	moduleparam.h
saarb.c	pcm.h
saarb.c	pcm_params.h
saarb.c	pxa-ssp.h
saarb.c	soc.h
sdp3430.c	asoc-ti-mcbsp.h
sdp3430.c	clk.h
sdp3430.c	core.h
sdp3430.c	gpio-omap.h
sdp3430.c	jack.h
sdp3430.c	mach-types.h
sdp3430.c	module.h
sdp3430.c	omap-mcbsp.h
sdp3430.c	omap-pcm.h
sdp3430.c	pcm.h
sdp3430.c	platform_device.h
sdp3430.c	soc.h
sdp3430.c	twl.h
sdp3430.c	twl4030-audio.h
simone.c	core.h
simone.c	ep93xx-pcm.h
simone.c	hardware.h
simone.c	init.h
simone.c	mach-types.h
simone.c	module.h
simone.c	pcm.h
simone.c	platform_device.h
simone.c	soc.h
smartq_wm8987.c	gpio.h
smartq_wm8987.c	i2s.h
smartq_wm8987.c	jack.h
smartq_wm8987.c	mach-types.h
smartq_wm8987.c	module.h
smartq_wm8987.c	soc.h
smartq_wm8987.c	wm8750.h
smdk2443_wm9710.c	module.h
smdk2443_wm9710.c	soc.h
smdk_spdif.c	clk.h
smdk_spdif.c	module.h
smdk_spdif.c	soc.h
smdk_spdif.c	spdif.h
smdk_wm8580.c	i2s.h
smdk_wm8580.c	mach-types.h
smdk_wm8580.c	module.h
smdk_wm8580.c	pcm_params.h
smdk_wm8580.c	soc.h
smdk_wm8580.c	wm8580.h
smdk_wm8580pcm.c	dma.h
smdk_wm8580pcm.c	mach-types.h
smdk_wm8580pcm.c	module.h
smdk_wm8580pcm.c	pcm.h
smdk_wm8580pcm.c	pcm.h
smdk_wm8580pcm.c	pcm_params.h
smdk_wm8580pcm.c	soc.h
smdk_wm8580pcm.c	wm8580.h
smdk_wm8994.c	module.h
smdk_wm8994.c	pcm_params.h
smdk_wm8994.c	wm8994.h
smdk_wm8994pcm.c	dma.h
smdk_wm8994pcm.c	module.h
smdk_wm8994pcm.c	pcm.h
smdk_wm8994pcm.c	pcm.h
smdk_wm8994pcm.c	pcm_params.h
smdk_wm8994pcm.c	soc.h
smdk_wm8994pcm.c	wm8994.h
smdk_wm9713.c	module.h
smdk_wm9713.c	soc.h
snappercl15.c	core.h
snappercl15.c	ep93xx-pcm.h
snappercl15.c	hardware.h
snappercl15.c	mach-types.h
snappercl15.c	module.h
snappercl15.c	pcm.h
snappercl15.c	platform_device.h
snappercl15.c	soc.h
snappercl15.c	tlv320aic23.h
soc-cache.c	asoc.h
soc-cache.c	bitmap.h
soc-cache.c	export.h
soc-cache.c	i2c.h
soc-cache.c	rbtree.h
soc-cache.c	soc.h
soc-cache.c	spi.h
soc-compress.c	compress_driver.h
soc-compress.c	compress_params.h
soc-compress.c	core.h
soc-compress.c	delay.h
soc-compress.c	init.h
soc-compress.c	initval.h
soc-compress.c	kernel.h
soc-compress.c	slab.h
soc-compress.c	soc.h
soc-compress.c	workqueue.h
soc-dapm.c	asoc.h
soc-dapm.c	async.h
soc-dapm.c	bitops.h
soc-dapm.c	clk.h
soc-dapm.c	consumer.h
soc-dapm.c	core.h
soc-dapm.c	debugfs.h
soc-dapm.c	delay.h
soc-dapm.c	init.h
soc-dapm.c	initval.h
soc-dapm.c	jiffies.h
soc-dapm.c	module.h
soc-dapm.c	moduleparam.h
soc-dapm.c	pcm.h
soc-dapm.c	pcm_params.h
soc-dapm.c	platform_device.h
soc-dapm.c	pm.h
soc-dapm.c	pm_runtime.h
soc-dapm.c	slab.h
soc-dapm.c	soc.h
soc-dmaengine-pcm.c	dmaengine.h
soc-dmaengine-pcm.c	dmaengine_pcm.h
soc-dmaengine-pcm.c	init.h
soc-dmaengine-pcm.c	module.h
soc-dmaengine-pcm.c	pcm.h
soc-dmaengine-pcm.c	pcm_params.h
soc-dmaengine-pcm.c	slab.h
soc-dmaengine-pcm.c	soc.h
soc-jack.c	asoc.h
soc-jack.c	delay.h
soc-jack.c	export.h
soc-jack.c	gpio.h
soc-jack.c	interrupt.h
soc-jack.c	jack.h
soc-jack.c	soc.h
soc-jack.c	workqueue.h
soc-utils.c	core.h
soc-utils.c	export.h
soc-utils.c	pcm.h
soc-utils.c	pcm_params.h
soc-utils.c	platform_device.h
soc-utils.c	soc.h
spdif.c	asoc-s3c.h
spdif.c	clk.h
spdif.c	dma.h
spdif.c	dma.h
spdif.c	io.h
spdif.c	module.h
spdif.c	pcm_params.h
spdif.c	soc.h
spdif.c	spdif.h
spdif_in.c	clk.h
spdif_in.c	delay.h
spdif_in.c	device.h
spdif_in.c	init.h
spdif_in.c	io.h
spdif_in.c	ioport.h
spdif_in.c	kernel.h
spdif_in.c	module.h
spdif_in.c	pcm.h
spdif_in.c	pcm_params.h
spdif_in.c	platform_device.h
spdif_in.c	soc.h
spdif_in.c	spdif_in_regs.h
spdif_in.c	spear_dma.h
spdif_in.c	spear_spdif.h
spdif_out.c	clk.h
spdif_out.c	delay.h
spdif_out.c	device.h
spdif_out.c	init.h
spdif_out.c	io.h
spdif_out.c	ioport.h
spdif_out.c	kernel.h
spdif_out.c	module.h
spdif_out.c	platform_device.h
spdif_out.c	soc.h
spdif_out.c	spdif_out_regs.h
spdif_out.c	spear_dma.h
spdif_out.c	spear_spdif.h
spdif_receiver.c	initval.h
spdif_receiver.c	module.h
spdif_receiver.c	moduleparam.h
spdif_receiver.c	pcm.h
spdif_receiver.c	slab.h
spdif_receiver.c	soc.h
spear_pcm.c	core.h
spear_pcm.c	dma-mapping.h
spear_pcm.c	dmaengine.h
spear_pcm.c	dmaengine_pcm.h
spear_pcm.c	init.h
spear_pcm.c	module.h
spear_pcm.c	pcm.h
spear_pcm.c	pcm_params.h
spear_pcm.c	platform_device.h
spear_pcm.c	scatterlist.h
spear_pcm.c	slab.h
spear_pcm.c	soc.h
spear_pcm.c	spear_dma.h
speyside.c	gpio.h
speyside.c	jack.h
speyside.c	module.h
speyside.c	soc-dapm.h
speyside.c	soc.h
speyside.c	wm8996.h
speyside.c	wm9081.h
spitz.c	core.h
spitz.c	gpio.h
spitz.c	interrupt.h
spitz.c	mach-types.h
spitz.c	module.h
spitz.c	moduleparam.h
spitz.c	pcm.h
spitz.c	platform_device.h
spitz.c	pxa2xx-i2s.h
spitz.c	soc.h
spitz.c	spitz.h
spitz.c	timer.h
spitz.c	wm8750.h
ssm2602.c	core.h
ssm2602.c	delay.h
ssm2602.c	i2c.h
ssm2602.c	init.h
ssm2602.c	initval.h
ssm2602.c	module.h
ssm2602.c	moduleparam.h
ssm2602.c	pcm.h
ssm2602.c	pcm_params.h
ssm2602.c	pm.h
ssm2602.c	regmap.h
ssm2602.c	slab.h
ssm2602.c	soc.h
ssm2602.c	spi.h
ssm2602.c	ssm2602.h
ssm2602.c	tlv.h
sst_platform.c	compress_driver.h
sst_platform.c	core.h
sst_platform.c	io.h
sst_platform.c	module.h
sst_platform.c	pcm.h
sst_platform.c	pcm_params.h
sst_platform.c	slab.h
sst_platform.c	soc.h
sst_platform.c	sst_platform.h
sst_platform.h	sst_dsp.h
sta32x.c	consumer.h
sta32x.c	core.h
sta32x.c	delay.h
sta32x.c	i2c.h
sta32x.c	init.h
sta32x.c	initval.h
sta32x.c	module.h
sta32x.c	moduleparam.h
sta32x.c	pcm.h
sta32x.c	pcm_params.h
sta32x.c	pm.h
sta32x.c	regmap.h
sta32x.c	slab.h
sta32x.c	soc-dapm.h
sta32x.c	soc.h
sta32x.c	sta32x.h
sta32x.c	sta32x.h
sta32x.c	tlv.h
sta32x.c	workqueue.h
stac9766.c	ac97_codec.h
stac9766.c	core.h
stac9766.c	device.h
stac9766.c	init.h
stac9766.c	initval.h
stac9766.c	module.h
stac9766.c	pcm.h
stac9766.c	pcm_params.h
stac9766.c	slab.h
stac9766.c	soc.h
stac9766.c	stac9766.h
stac9766.c	tlv.h
tavorevb3.c	88pm860x-codec.h
tavorevb3.c	clk.h
tavorevb3.c	core.h
tavorevb3.c	device.h
tavorevb3.c	i2c.h
tavorevb3.c	jack.h
tavorevb3.c	mach-types.h
tavorevb3.c	module.h
tavorevb3.c	moduleparam.h
tavorevb3.c	pcm.h
tavorevb3.c	pcm_params.h
tavorevb3.c	pxa-ssp.h
tavorevb3.c	soc.h
tegra20_das.c	device.h
tegra20_das.c	io.h
tegra20_das.c	module.h
tegra20_das.c	platform_device.h
tegra20_das.c	regmap.h
tegra20_das.c	slab.h
tegra20_das.c	soc.h
tegra20_das.c	tegra20_das.h
tegra20_i2s.c	clk.h
tegra20_i2s.c	core.h
tegra20_i2s.c	device.h
tegra20_i2s.c	io.h
tegra20_i2s.c	module.h
tegra20_i2s.c	of.h
tegra20_i2s.c	pcm.h
tegra20_i2s.c	pcm_params.h
tegra20_i2s.c	platform_device.h
tegra20_i2s.c	pm_runtime.h
tegra20_i2s.c	regmap.h
tegra20_i2s.c	slab.h
tegra20_i2s.c	soc.h
tegra20_i2s.c	tegra20_i2s.h
tegra20_i2s.h	tegra_pcm.h
tegra20_spdif.c	clk.h
tegra20_spdif.c	core.h
tegra20_spdif.c	device.h
tegra20_spdif.c	io.h
tegra20_spdif.c	module.h
tegra20_spdif.c	pcm.h
tegra20_spdif.c	pcm_params.h
tegra20_spdif.c	platform_device.h
tegra20_spdif.c	pm_runtime.h
tegra20_spdif.c	regmap.h
tegra20_spdif.c	slab.h
tegra20_spdif.c	soc.h
tegra20_spdif.c	tegra20_spdif.h
tegra20_spdif.h	tegra_pcm.h
tegra30_ahub.c	clk.h
tegra30_ahub.c	clk.h
tegra30_ahub.c	device.h
tegra30_ahub.c	io.h
tegra30_ahub.c	module.h
tegra30_ahub.c	of_platform.h
tegra30_ahub.c	platform_device.h
tegra30_ahub.c	pm_runtime.h
tegra30_ahub.c	regmap.h
tegra30_ahub.c	slab.h
tegra30_ahub.c	soc.h
tegra30_ahub.c	tegra30_ahub.h
tegra30_i2s.c	clk.h
tegra30_i2s.c	core.h
tegra30_i2s.c	device.h
tegra30_i2s.c	io.h
tegra30_i2s.c	module.h
tegra30_i2s.c	of.h
tegra30_i2s.c	pcm.h
tegra30_i2s.c	pcm_params.h
tegra30_i2s.c	platform_device.h
tegra30_i2s.c	pm_runtime.h
tegra30_i2s.c	regmap.h
tegra30_i2s.c	slab.h
tegra30_i2s.c	soc.h
tegra30_i2s.c	tegra30_ahub.h
tegra30_i2s.c	tegra30_i2s.h
tegra30_i2s.h	tegra_pcm.h
tegra_alc5632.c	alc5632.h
tegra_alc5632.c	core.h
tegra_alc5632.c	gpio.h
tegra_alc5632.c	jack.h
tegra_alc5632.c	mach-types.h
tegra_alc5632.c	module.h
tegra_alc5632.c	of_gpio.h
tegra_alc5632.c	pcm.h
tegra_alc5632.c	pcm_params.h
tegra_alc5632.c	platform_device.h
tegra_alc5632.c	slab.h
tegra_alc5632.c	soc.h
tegra_alc5632.c	tegra_asoc_utils.h
tegra_asoc_utils.c	clk.h
tegra_asoc_utils.c	device.h
tegra_asoc_utils.c	err.h
tegra_asoc_utils.c	kernel.h
tegra_asoc_utils.c	module.h
tegra_asoc_utils.c	of.h
tegra_asoc_utils.c	tegra_asoc_utils.h
tegra_pcm.c	core.h
tegra_pcm.c	dma-mapping.h
tegra_pcm.c	dmaengine_pcm.h
tegra_pcm.c	module.h
tegra_pcm.c	pcm.h
tegra_pcm.c	pcm_params.h
tegra_pcm.c	slab.h
tegra_pcm.c	soc.h
tegra_pcm.c	tegra_pcm.h
tegra_wm8753.c	core.h
tegra_wm8753.c	gpio.h
tegra_wm8753.c	jack.h
tegra_wm8753.c	mach-types.h
tegra_wm8753.c	module.h
tegra_wm8753.c	of_gpio.h
tegra_wm8753.c	pcm.h
tegra_wm8753.c	pcm_params.h
tegra_wm8753.c	platform_device.h
tegra_wm8753.c	slab.h
tegra_wm8753.c	soc.h
tegra_wm8753.c	tegra_asoc_utils.h
tegra_wm8753.c	wm8753.h
tegra_wm8903.c	core.h
tegra_wm8903.c	gpio.h
tegra_wm8903.c	jack.h
tegra_wm8903.c	module.h
tegra_wm8903.c	of_gpio.h
tegra_wm8903.c	pcm.h
tegra_wm8903.c	pcm_params.h
tegra_wm8903.c	platform_device.h
tegra_wm8903.c	slab.h
tegra_wm8903.c	soc.h
tegra_wm8903.c	tegra_asoc_utils.h
tegra_wm8903.c	tegra_wm8903.h
tegra_wm8903.c	wm8903.h
tlv320aic23.c	core.h
tlv320aic23.c	delay.h
tlv320aic23.c	i2c.h
tlv320aic23.c	init.h
tlv320aic23.c	initval.h
tlv320aic23.c	module.h
tlv320aic23.c	moduleparam.h
tlv320aic23.c	pcm.h
tlv320aic23.c	pcm_params.h
tlv320aic23.c	pm.h
tlv320aic23.c	slab.h
tlv320aic23.c	soc.h
tlv320aic23.c	tlv.h
tlv320aic23.c	tlv320aic23.h
tobermory.c	gpio.h
tobermory.c	jack.h
tobermory.c	module.h
tobermory.c	soc-dapm.h
tobermory.c	soc.h
tobermory.c	wm8962.h
tosa.c	audio.h
tosa.c	core.h
tosa.c	device.h
tosa.c	gpio.h
tosa.c	mach-types.h
tosa.c	module.h
tosa.c	moduleparam.h
tosa.c	pcm.h
tosa.c	pxa2xx-ac97.h
tosa.c	soc.h
tosa.c	tosa.h
tosa.c	wm9712.h
trimslice.c	core.h
trimslice.c	jack.h
trimslice.c	mach-types.h
trimslice.c	module.h
trimslice.c	of.h
trimslice.c	pcm.h
trimslice.c	pcm_params.h
trimslice.c	platform_device.h
trimslice.c	slab.h
trimslice.c	soc.h
trimslice.c	tegra_asoc_utils.h
trimslice.c	tlv320aic23.h
ttc-dkb.c	88pm860x-codec.h
ttc-dkb.c	core.h
ttc-dkb.c	jack.h
ttc-dkb.c	mach-types.h
ttc-dkb.c	module.h
ttc-dkb.c	moduleparam.h
ttc-dkb.c	pcm.h
ttc-dkb.c	pcm_params.h
ttc-dkb.c	soc.h
txx9aclc-ac97.c	core.h
txx9aclc-ac97.c	delay.h
txx9aclc-ac97.c	gfp.h
txx9aclc-ac97.c	init.h
txx9aclc-ac97.c	interrupt.h
txx9aclc-ac97.c	io.h
txx9aclc-ac97.c	module.h
txx9aclc-ac97.c	pcm.h
txx9aclc-ac97.c	soc.h
txx9aclc-ac97.c	txx9aclc.h
txx9aclc-generic.c	core.h
txx9aclc-generic.c	module.h
txx9aclc-generic.c	pcm.h
txx9aclc-generic.c	platform_device.h
txx9aclc-generic.c	soc.h
txx9aclc-generic.c	txx9aclc.h
txx9aclc.c	core.h
txx9aclc.c	init.h
txx9aclc.c	module.h
txx9aclc.c	pcm.h
txx9aclc.c	pcm_params.h
txx9aclc.c	platform_device.h
txx9aclc.c	scatterlist.h
txx9aclc.c	slab.h
txx9aclc.c	soc.h
txx9aclc.c	txx9aclc.h
txx9aclc.h	dmac.h
txx9aclc.h	interrupt.h
uda134x.c	delay.h
uda134x.c	initval.h
uda134x.c	l3.h
uda134x.c	module.h
uda134x.c	pcm.h
uda134x.c	pcm_params.h
uda134x.c	slab.h
uda134x.c	soc.h
uda134x.c	uda134x.h
uda134x.c	uda134x.h
wm0010.c	consumer.h
wm0010.c	delay.h
wm0010.c	firmware.h
wm0010.c	fs.h
wm0010.c	gpio.h
wm0010.c	init.h
wm0010.c	irqreturn.h
wm0010.c	miscdevice.h
wm0010.c	module.h
wm0010.c	moduleparam.h
wm0010.c	mutex.h
wm0010.c	soc.h
wm0010.c	spi.h
wm0010.c	wm0010.h
wm0010.c	workqueue.h
wm1133-ev1.c	clk.h
wm1133-ev1.c	core.h
wm1133-ev1.c	imx-audmux.h
wm1133-ev1.c	imx-ssi.h
wm1133-ev1.c	jack.h
wm1133-ev1.c	module.h
wm1133-ev1.c	pcm.h
wm1133-ev1.c	pcm_params.h
wm1133-ev1.c	platform_device.h
wm1133-ev1.c	soc.h
wm1133-ev1.c	wm8350.h
wm1250-ev1.c	gpio.h
wm1250-ev1.c	i2c.h
wm1250-ev1.c	init.h
wm1250-ev1.c	module.h
wm1250-ev1.c	slab.h
wm1250-ev1.c	soc-dapm.h
wm1250-ev1.c	soc.h
wm1250-ev1.c	wm1250-ev1.h
wm2200.c	consumer.h
wm2200.c	core.h
wm2200.c	delay.h
wm2200.c	firmware.h
wm2200.c	fixed.h
wm2200.c	gcd.h
wm2200.c	gpio.h
wm2200.c	i2c.h
wm2200.c	init.h
wm2200.c	initval.h
wm2200.c	jack.h
wm2200.c	module.h
wm2200.c	moduleparam.h
wm2200.c	pcm.h
wm2200.c	pcm_params.h
wm2200.c	pm.h
wm2200.c	pm_runtime.h
wm2200.c	slab.h
wm2200.c	soc.h
wm2200.c	tlv.h
wm2200.c	wm2200.h
wm2200.c	wm2200.h
wm2200.c	wm_adsp.h
wm2200.c	wmfw.h
wm5100-tables.c	wm5100.h
wm5100.c	consumer.h
wm5100.c	core.h
wm5100.c	delay.h
wm5100.c	fixed.h
wm5100.c	gcd.h
wm5100.c	gpio.h
wm5100.c	i2c.h
wm5100.c	init.h
wm5100.c	initval.h
wm5100.c	jack.h
wm5100.c	module.h
wm5100.c	moduleparam.h
wm5100.c	pcm.h
wm5100.c	pcm_params.h
wm5100.c	pm.h
wm5100.c	pm_runtime.h
wm5100.c	slab.h
wm5100.c	soc.h
wm5100.c	tlv.h
wm5100.c	wm5100.h
wm5100.c	wm5100.h
wm5110.h	arizona.h
wm8350.h	audio.h
wm8350.h	soc.h
wm8523.c	consumer.h
wm8523.c	core.h
wm8523.c	delay.h
wm8523.c	i2c.h
wm8523.c	init.h
wm8523.c	initval.h
wm8523.c	module.h
wm8523.c	moduleparam.h
wm8523.c	of_device.h
wm8523.c	pcm.h
wm8523.c	pcm_params.h
wm8523.c	pm.h
wm8523.c	regmap.h
wm8523.c	slab.h
wm8523.c	soc.h
wm8523.c	tlv.h
wm8523.c	wm8523.h
wm8711.c	core.h
wm8711.c	delay.h
wm8711.c	i2c.h
wm8711.c	init.h
wm8711.c	initval.h
wm8711.c	module.h
wm8711.c	moduleparam.h
wm8711.c	of_device.h
wm8711.c	pcm.h
wm8711.c	pcm_params.h
wm8711.c	pm.h
wm8711.c	regmap.h
wm8711.c	slab.h
wm8711.c	soc.h
wm8711.c	spi.h
wm8711.c	tlv.h
wm8711.c	wm8711.h
wm8727.c	ac97_codec.h
wm8727.c	core.h
wm8727.c	device.h
wm8727.c	init.h
wm8727.c	initval.h
wm8727.c	kernel.h
wm8727.c	module.h
wm8727.c	pcm.h
wm8727.c	slab.h
wm8727.c	soc.h
wm8731.c	consumer.h
wm8731.c	core.h
wm8731.c	delay.h
wm8731.c	i2c.h
wm8731.c	init.h
wm8731.c	initval.h
wm8731.c	module.h
wm8731.c	moduleparam.h
wm8731.c	of_device.h
wm8731.c	pcm.h
wm8731.c	pcm_params.h
wm8731.c	pm.h
wm8731.c	regmap.h
wm8731.c	slab.h
wm8731.c	soc.h
wm8731.c	spi.h
wm8731.c	tlv.h
wm8731.c	wm8731.h
wm8737.c	consumer.h
wm8737.c	core.h
wm8737.c	delay.h
wm8737.c	i2c.h
wm8737.c	init.h
wm8737.c	initval.h
wm8737.c	module.h
wm8737.c	moduleparam.h
wm8737.c	of_device.h
wm8737.c	pcm.h
wm8737.c	pcm_params.h
wm8737.c	pm.h
wm8737.c	regmap.h
wm8737.c	slab.h
wm8737.c	soc-dapm.h
wm8737.c	soc.h
wm8737.c	spi.h
wm8737.c	tlv.h
wm8737.c	wm8737.h
wm8770.c	consumer.h
wm8770.c	core.h
wm8770.c	delay.h
wm8770.c	init.h
wm8770.c	initval.h
wm8770.c	module.h
wm8770.c	moduleparam.h
wm8770.c	of_device.h
wm8770.c	pcm.h
wm8770.c	pcm_params.h
wm8770.c	pm.h
wm8770.c	regmap.h
wm8770.c	slab.h
wm8770.c	soc.h
wm8770.c	spi.h
wm8770.c	tlv.h
wm8770.c	wm8770.h
wm8776.c	core.h
wm8776.c	delay.h
wm8776.c	i2c.h
wm8776.c	init.h
wm8776.c	initval.h
wm8776.c	module.h
wm8776.c	moduleparam.h
wm8776.c	of_device.h
wm8776.c	pcm.h
wm8776.c	pcm_params.h
wm8776.c	pm.h
wm8776.c	regmap.h
wm8776.c	slab.h
wm8776.c	soc.h
wm8776.c	spi.h
wm8776.c	tlv.h
wm8776.c	wm8776.h
wm8804.c	consumer.h
wm8804.c	core.h
wm8804.c	delay.h
wm8804.c	i2c.h
wm8804.c	init.h
wm8804.c	initval.h
wm8804.c	module.h
wm8804.c	moduleparam.h
wm8804.c	of_device.h
wm8804.c	pcm.h
wm8804.c	pcm_params.h
wm8804.c	pm.h
wm8804.c	regmap.h
wm8804.c	slab.h
wm8804.c	soc.h
wm8804.c	spi.h
wm8804.c	tlv.h
wm8804.c	wm8804.h
wm8900.c	core.h
wm8900.c	delay.h
wm8900.c	i2c.h
wm8900.c	init.h
wm8900.c	initval.h
wm8900.c	kernel.h
wm8900.c	module.h
wm8900.c	moduleparam.h
wm8900.c	pcm.h
wm8900.c	pcm_params.h
wm8900.c	pm.h
wm8900.c	regmap.h
wm8900.c	slab.h
wm8900.c	soc.h
wm8900.c	spi.h
wm8900.c	tlv.h
wm8900.c	wm8900.h
wm8903.h	i2c.h
wm8904.c	consumer.h
wm8904.c	core.h
wm8904.c	delay.h
wm8904.c	i2c.h
wm8904.c	init.h
wm8904.c	initval.h
wm8904.c	module.h
wm8904.c	moduleparam.h
wm8904.c	pcm.h
wm8904.c	pcm_params.h
wm8904.c	pm.h
wm8904.c	regmap.h
wm8904.c	slab.h
wm8904.c	soc.h
wm8904.c	tlv.h
wm8904.c	wm8904.h
wm8904.c	wm8904.h
wm8955.c	consumer.h
wm8955.c	core.h
wm8955.c	delay.h
wm8955.c	i2c.h
wm8955.c	init.h
wm8955.c	initval.h
wm8955.c	module.h
wm8955.c	moduleparam.h
wm8955.c	pcm.h
wm8955.c	pcm_params.h
wm8955.c	pm.h
wm8955.c	regmap.h
wm8955.c	slab.h
wm8955.c	soc.h
wm8955.c	tlv.h
wm8955.c	wm8955.h
wm8955.c	wm8955.h
wm8960.c	core.h
wm8960.c	delay.h
wm8960.c	i2c.h
wm8960.c	init.h
wm8960.c	initval.h
wm8960.c	module.h
wm8960.c	moduleparam.h
wm8960.c	pcm.h
wm8960.c	pcm_params.h
wm8960.c	pm.h
wm8960.c	slab.h
wm8960.c	soc.h
wm8960.c	tlv.h
wm8960.c	wm8960.h
wm8960.c	wm8960.h
wm8962.c	asoc.h
wm8962.c	consumer.h
wm8962.c	core.h
wm8962.c	delay.h
wm8962.c	gcd.h
wm8962.c	gpio.h
wm8962.c	i2c.h
wm8962.c	init.h
wm8962.c	initval.h
wm8962.c	input.h
wm8962.c	jack.h
wm8962.c	module.h
wm8962.c	moduleparam.h
wm8962.c	pcm.h
wm8962.c	pcm_params.h
wm8962.c	pm.h
wm8962.c	pm_runtime.h
wm8962.c	regmap.h
wm8962.c	slab.h
wm8962.c	soc.h
wm8962.c	tlv.h
wm8962.c	wm8962.h
wm8962.c	wm8962.h
wm8962.c	workqueue.h
wm8962.h	soc.h
wm8962.h	types.h
wm8974.c	core.h
wm8974.c	delay.h
wm8974.c	i2c.h
wm8974.c	init.h
wm8974.c	initval.h
wm8974.c	kernel.h
wm8974.c	module.h
wm8974.c	moduleparam.h
wm8974.c	pcm.h
wm8974.c	pcm_params.h
wm8974.c	pm.h
wm8974.c	slab.h
wm8974.c	soc.h
wm8974.c	tlv.h
wm8974.c	wm8974.h
wm8991.c	core.h
wm8991.c	delay.h
wm8991.c	div64.h
wm8991.c	i2c.h
wm8991.c	init.h
wm8991.c	initval.h
wm8991.c	kernel.h
wm8991.c	module.h
wm8991.c	moduleparam.h
wm8991.c	pcm.h
wm8991.c	pcm_params.h
wm8991.c	pm.h
wm8991.c	slab.h
wm8991.c	soc-dapm.h
wm8991.c	soc.h
wm8991.c	tlv.h
wm8991.c	wm8991.h
wm8993.c	consumer.h
wm8993.c	core.h
wm8993.c	delay.h
wm8993.c	i2c.h
wm8993.c	init.h
wm8993.c	initval.h
wm8993.c	module.h
wm8993.c	moduleparam.h
wm8993.c	pcm.h
wm8993.c	pcm_params.h
wm8993.c	pm.h
wm8993.c	regmap.h
wm8993.c	slab.h
wm8993.c	soc.h
wm8993.c	spi.h
wm8993.c	tlv.h
wm8993.c	wm8993.h
wm8993.c	wm8993.h
wm8993.c	wm_hubs.h
wm8994.h	completion.h
wm8994.h	firmware.h
wm8994.h	soc.h
wm8994.h	wm_hubs.h
wm8994.h	workqueue.h
wm8995.c	consumer.h
wm8995.c	core.h
wm8995.c	delay.h
wm8995.c	i2c.h
wm8995.c	init.h
wm8995.c	initval.h
wm8995.c	module.h
wm8995.c	moduleparam.h
wm8995.c	pcm.h
wm8995.c	pcm_params.h
wm8995.c	pm.h
wm8995.c	regmap.h
wm8995.c	slab.h
wm8995.c	soc-dapm.h
wm8995.c	soc.h
wm8995.c	spi.h
wm8995.c	tlv.h
wm8995.c	wm8995.h
wm9081.c	core.h
wm9081.c	delay.h
wm9081.c	device.h
wm9081.c	i2c.h
wm9081.c	init.h
wm9081.c	initval.h
wm9081.c	module.h
wm9081.c	moduleparam.h
wm9081.c	pcm.h
wm9081.c	pcm_params.h
wm9081.c	pm.h
wm9081.c	regmap.h
wm9081.c	slab.h
wm9081.c	soc.h
wm9081.c	tlv.h
wm9081.c	wm9081.h
wm9081.c	wm9081.h
wm9081.h	soc.h
wm9090.c	delay.h
wm9090.c	device.h
wm9090.c	errno.h
wm9090.c	i2c.h
wm9090.c	initval.h
wm9090.c	module.h
wm9090.c	regmap.h
wm9090.c	slab.h
wm9090.c	soc.h
wm9090.c	tlv.h
wm9090.c	wm9090.h
wm9090.c	wm9090.h
wm_adsp.h	soc-dapm.h
wm_adsp.h	soc.h
wm_adsp.h	wmfw.h
wm_hubs.c	core.h
wm_hubs.c	delay.h
wm_hubs.c	i2c.h
wm_hubs.c	init.h
wm_hubs.c	initval.h
wm_hubs.c	module.h
wm_hubs.c	moduleparam.h
wm_hubs.c	pcm.h
wm_hubs.c	pcm_params.h
wm_hubs.c	pm.h
wm_hubs.c	registers.h
wm_hubs.c	soc.h
wm_hubs.c	tlv.h
wm_hubs.c	wm8993.h
wm_hubs.c	wm_hubs.h
wmfw.h	types.h
z2.c	audio.h
z2.c	core.h
z2.c	gpio.h
z2.c	hardware.h
z2.c	interrupt.h
z2.c	jack.h
z2.c	mach-types.h
z2.c	module.h
z2.c	moduleparam.h
z2.c	pcm.h
z2.c	platform_device.h
z2.c	pxa2xx-i2s.h
z2.c	soc.h
z2.c	timer.h
z2.c	wm8750.h
z2.c	z2.h
zoom2.c	asoc-ti-mcbsp.h
zoom2.c	clk.h
zoom2.c	core.h
zoom2.c	gpio-omap.h
zoom2.c	gpio.h
zoom2.c	mach-types.h
zoom2.c	module.h
zoom2.c	omap-mcbsp.h
zoom2.c	omap-pcm.h
zoom2.c	pcm.h
zoom2.c	platform_device.h
zoom2.c	soc.h
zoom2.c	twl4030-audio.h
zylonite.c	clk.h
zylonite.c	core.h
zylonite.c	device.h
zylonite.c	i2c.h
zylonite.c	module.h
zylonite.c	moduleparam.h
zylonite.c	pcm.h
zylonite.c	pcm_params.h
zylonite.c	pxa-ssp.h
zylonite.c	pxa2xx-ac97.h
zylonite.c	soc.h
zylonite.c	wm9713.h
