68328fb.c	MC68328.h
68328fb.c	MC68EZ328.h
68328fb.c	MC68VZ328.h
68328fb.c	delay.h
68328fb.c	errno.h
68328fb.c	fb.h
68328fb.c	init.h
68328fb.c	interrupt.h
68328fb.c	kernel.h
68328fb.c	mm.h
68328fb.c	module.h
68328fb.c	string.h
68328fb.c	uaccess.h
68328fb.c	vmalloc.h
88pm860x_bl.c	88pm860x.h
88pm860x_bl.c	backlight.h
88pm860x_bl.c	fb.h
88pm860x_bl.c	i2c.h
88pm860x_bl.c	init.h
88pm860x_bl.c	kernel.h
88pm860x_bl.c	module.h
88pm860x_bl.c	of.h
88pm860x_bl.c	platform_device.h
88pm860x_bl.c	slab.h
STG4000InitDevice.c	STG4000Interface.h
STG4000InitDevice.c	STG4000Reg.h
STG4000InitDevice.c	errno.h
STG4000InitDevice.c	kernel.h
STG4000InitDevice.c	pci.h
STG4000InitDevice.c	types.h
STG4000Interface.h	kyro.h
STG4000Interface.h	pci.h
STG4000OverlayDevice.c	STG4000Interface.h
STG4000OverlayDevice.c	STG4000Reg.h
STG4000OverlayDevice.c	errno.h
STG4000OverlayDevice.c	kernel.h
STG4000OverlayDevice.c	types.h
STG4000Ramdac.c	STG4000Interface.h
STG4000Ramdac.c	STG4000Reg.h
STG4000Ramdac.c	errno.h
STG4000Ramdac.c	kernel.h
STG4000Ramdac.c	kyro.h
STG4000Ramdac.c	types.h
STG4000Reg.h	io.h
STG4000Reg.h	page.h
STG4000VTG.c	STG4000Interface.h
STG4000VTG.c	STG4000Reg.h
STG4000VTG.c	kyro.h
STG4000VTG.c	types.h
aat2870_bl.c	aat2870.h
aat2870_bl.c	backlight.h
aat2870_bl.c	delay.h
aat2870_bl.c	fb.h
aat2870_bl.c	init.h
aat2870_bl.c	kernel.h
aat2870_bl.c	module.h
aat2870_bl.c	mutex.h
aat2870_bl.c	platform_device.h
accel.c	global.h
accel.c	via-core.h
acornfb.c	acornfb.h
acornfb.c	acornfb.h
acornfb.c	ctype.h
acornfb.c	dma-mapping.h
acornfb.c	errno.h
acornfb.c	fb.h
acornfb.c	gfp.h
acornfb.c	hardware.h
acornfb.c	init.h
acornfb.c	io.h
acornfb.c	irq.h
acornfb.c	kernel.h
acornfb.c	mach-types.h
acornfb.c	mm.h
acornfb.c	module.h
acornfb.c	pgtable.h
acornfb.c	platform_device.h
acornfb.c	string.h
adp5520_bl.c	adp5520.h
adp5520_bl.c	backlight.h
adp5520_bl.c	fb.h
adp5520_bl.c	init.h
adp5520_bl.c	kernel.h
adp5520_bl.c	module.h
adp5520_bl.c	platform_device.h
adp5520_bl.c	slab.h
adp8860_bl.c	adp8860.h
adp8860_bl.c	backlight.h
adp8860_bl.c	errno.h
adp8860_bl.c	fb.h
adp8860_bl.c	i2c.h
adp8860_bl.c	init.h
adp8860_bl.c	leds.h
adp8860_bl.c	module.h
adp8860_bl.c	platform_device.h
adp8860_bl.c	pm.h
adp8860_bl.c	slab.h
adp8860_bl.c	workqueue.h
adp8870_bl.c	adp8870.h
adp8870_bl.c	backlight.h
adp8870_bl.c	errno.h
adp8870_bl.c	fb.h
adp8870_bl.c	i2c.h
adp8870_bl.c	init.h
adp8870_bl.c	leds.h
adp8870_bl.c	module.h
adp8870_bl.c	platform_device.h
adp8870_bl.c	pm.h
adp8870_bl.c	slab.h
adp8870_bl.c	workqueue.h
ams369fg06.c	backlight.h
ams369fg06.c	delay.h
ams369fg06.c	fb.h
ams369fg06.c	gpio.h
ams369fg06.c	lcd.h
ams369fg06.c	module.h
ams369fg06.c	spi.h
ams369fg06.c	wait.h
apple_bl.c	acpi.h
apple_bl.c	apple_bl.h
apple_bl.c	atomic.h
apple_bl.c	backlight.h
apple_bl.c	err.h
apple_bl.c	init.h
apple_bl.c	io.h
apple_bl.c	kernel.h
apple_bl.c	module.h
apple_bl.c	pci.h
arkfb.c	console.h
arkfb.c	delay.h
arkfb.c	errno.h
arkfb.c	fb.h
arkfb.c	init.h
arkfb.c	kernel.h
arkfb.c	mm.h
arkfb.c	module.h
arkfb.c	mtrr.h
arkfb.c	pci.h
arkfb.c	slab.h
arkfb.c	string.h
arkfb.c	svga.h
arkfb.c	tty.h
arkfb.c	vga.h
asiliantfb.c	delay.h
asiliantfb.c	errno.h
asiliantfb.c	fb.h
asiliantfb.c	init.h
asiliantfb.c	interrupt.h
asiliantfb.c	io.h
asiliantfb.c	kernel.h
asiliantfb.c	mm.h
asiliantfb.c	module.h
asiliantfb.c	pci.h
asiliantfb.c	string.h
asiliantfb.c	vmalloc.h
atafb_iplan2p2.c	atafb.h
atafb_iplan2p2.c	atafb_utils.h
atafb_iplan2p2.c	fb.h
atafb_iplan2p2.c	module.h
atafb_iplan2p2.c	setup.h
atafb_iplan2p2.c	string.h
atafb_iplan2p8.c	atafb.h
atafb_iplan2p8.c	atafb_utils.h
atafb_iplan2p8.c	fb.h
atafb_iplan2p8.c	module.h
atafb_iplan2p8.c	setup.h
atafb_iplan2p8.c	string.h
atafb_mfb.c	atafb.h
atafb_mfb.c	atafb_utils.h
atafb_mfb.c	fb.h
atafb_mfb.c	module.h
atafb_mfb.c	string.h
atmel-pwm-bl.c	atmel-pwm-bl.h
atmel-pwm-bl.c	atmel_pwm.h
atmel-pwm-bl.c	backlight.h
atmel-pwm-bl.c	clk.h
atmel-pwm-bl.c	fb.h
atmel-pwm-bl.c	gpio.h
atmel-pwm-bl.c	init.h
atmel-pwm-bl.c	kernel.h
atmel-pwm-bl.c	module.h
atmel-pwm-bl.c	platform_device.h
atmel-pwm-bl.c	slab.h
au1100fb.c	au1000.h
au1100fb.c	au1100fb.h
au1100fb.c	ctype.h
au1100fb.c	dma-mapping.h
au1100fb.c	errno.h
au1100fb.c	fb.h
au1100fb.c	init.h
au1100fb.c	interrupt.h
au1100fb.c	kernel.h
au1100fb.c	mm.h
au1100fb.c	module.h
au1100fb.c	platform_device.h
au1100fb.c	slab.h
au1100fb.c	string.h
au1100fb.h	au1000.h
auo_k1901fb.c	auo_k190x.h
auo_k1901fb.c	auo_k190xfb.h
auo_k1901fb.c	delay.h
auo_k1901fb.c	errno.h
auo_k1901fb.c	fb.h
auo_k1901fb.c	firmware.h
auo_k1901fb.c	gpio.h
auo_k1901fb.c	init.h
auo_k1901fb.c	interrupt.h
auo_k1901fb.c	kernel.h
auo_k1901fb.c	list.h
auo_k1901fb.c	mm.h
auo_k1901fb.c	module.h
auo_k1901fb.c	platform_device.h
auo_k1901fb.c	pm_runtime.h
auo_k1901fb.c	slab.h
auo_k1901fb.c	string.h
backlight.c	backlight.h
backlight.c	backlight.h
backlight.c	ctype.h
backlight.c	device.h
backlight.c	err.h
backlight.c	fb.h
backlight.c	init.h
backlight.c	module.h
backlight.c	notifier.h
backlight.c	slab.h
bf537-lq035.c	backlight.h
bf537-lq035.c	blackfin.h
bf537-lq035.c	delay.h
bf537-lq035.c	device.h
bf537-lq035.c	dma-mapping.h
bf537-lq035.c	dma.h
bf537-lq035.c	dpmc.h
bf537-lq035.c	errno.h
bf537-lq035.c	fb.h
bf537-lq035.c	gpio.h
bf537-lq035.c	i2c.h
bf537-lq035.c	init.h
bf537-lq035.c	interrupt.h
bf537-lq035.c	ioport.h
bf537-lq035.c	irq.h
bf537-lq035.c	kernel.h
bf537-lq035.c	lcd.h
bf537-lq035.c	mm.h
bf537-lq035.c	module.h
bf537-lq035.c	platform_device.h
bf537-lq035.c	portmux.h
bf537-lq035.c	sched.h
bf537-lq035.c	slab.h
bf537-lq035.c	spinlock.h
bf537-lq035.c	string.h
bf537-lq035.c	timer.h
bf537-lq035.c	types.h
bf54x-lq043fb.c	backlight.h
bf54x-lq043fb.c	bf54x-lq043.h
bf54x-lq043fb.c	blackfin.h
bf54x-lq043fb.c	delay.h
bf54x-lq043fb.c	device.h
bf54x-lq043fb.c	dma-mapping.h
bf54x-lq043fb.c	dma-mapping.h
bf54x-lq043fb.c	dma.h
bf54x-lq043fb.c	dpmc.h
bf54x-lq043fb.c	errno.h
bf54x-lq043fb.c	fb.h
bf54x-lq043fb.c	gpio.h
bf54x-lq043fb.c	init.h
bf54x-lq043fb.c	interrupt.h
bf54x-lq043fb.c	ioport.h
bf54x-lq043fb.c	irq.h
bf54x-lq043fb.c	kernel.h
bf54x-lq043fb.c	lcd.h
bf54x-lq043fb.c	mm.h
bf54x-lq043fb.c	module.h
bf54x-lq043fb.c	platform_device.h
bf54x-lq043fb.c	portmux.h
bf54x-lq043fb.c	sched.h
bf54x-lq043fb.c	slab.h
bf54x-lq043fb.c	spinlock.h
bf54x-lq043fb.c	string.h
bf54x-lq043fb.c	timer.h
bf54x-lq043fb.c	tty.h
bf54x-lq043fb.c	types.h
bfin-lq035q1-fb.c	backlight.h
bfin-lq035q1-fb.c	bfin-lq035q1.h
bfin-lq035q1-fb.c	blackfin.h
bfin-lq035q1-fb.c	device.h
bfin-lq035q1-fb.c	dma-mapping.h
bfin-lq035q1-fb.c	dma.h
bfin-lq035q1-fb.c	errno.h
bfin-lq035q1-fb.c	fb.h
bfin-lq035q1-fb.c	gpio.h
bfin-lq035q1-fb.c	gptimers.h
bfin-lq035q1-fb.c	init.h
bfin-lq035q1-fb.c	interrupt.h
bfin-lq035q1-fb.c	irq.h
bfin-lq035q1-fb.c	kernel.h
bfin-lq035q1-fb.c	lcd.h
bfin-lq035q1-fb.c	module.h
bfin-lq035q1-fb.c	platform_device.h
bfin-lq035q1-fb.c	portmux.h
bfin-lq035q1-fb.c	slab.h
bfin-lq035q1-fb.c	spi.h
bfin-lq035q1-fb.c	string.h
bfin-lq035q1-fb.c	types.h
bfin_adv7393fb.c	bfin_adv7393fb.h
bfin_adv7393fb.c	blackfin.h
bfin_adv7393fb.c	delay.h
bfin_adv7393fb.c	dma-mapping.h
bfin_adv7393fb.c	dma.h
bfin_adv7393fb.c	errno.h
bfin_adv7393fb.c	fb.h
bfin_adv7393fb.c	gpio.h
bfin_adv7393fb.c	i2c.h
bfin_adv7393fb.c	init.h
bfin_adv7393fb.c	interrupt.h
bfin_adv7393fb.c	ioport.h
bfin_adv7393fb.c	irq.h
bfin_adv7393fb.c	kernel.h
bfin_adv7393fb.c	mm.h
bfin_adv7393fb.c	module.h
bfin_adv7393fb.c	platform_device.h
bfin_adv7393fb.c	portmux.h
bfin_adv7393fb.c	proc_fs.h
bfin_adv7393fb.c	sched.h
bfin_adv7393fb.c	slab.h
bfin_adv7393fb.c	string.h
bfin_adv7393fb.c	tty.h
bfin_adv7393fb.c	types.h
bfin_adv7393fb.c	uaccess.h
broadsheetfb.c	broadsheetfb.h
broadsheetfb.c	delay.h
broadsheetfb.c	errno.h
broadsheetfb.c	fb.h
broadsheetfb.c	firmware.h
broadsheetfb.c	init.h
broadsheetfb.c	interrupt.h
broadsheetfb.c	kernel.h
broadsheetfb.c	list.h
broadsheetfb.c	mm.h
broadsheetfb.c	module.h
broadsheetfb.c	platform_device.h
broadsheetfb.c	slab.h
broadsheetfb.c	string.h
broadsheetfb.c	uaccess.h
broadsheetfb.c	vmalloc.h
bt455.h	types.h
bw2.c	delay.h
bw2.c	errno.h
bw2.c	fb.h
bw2.c	fbio.h
bw2.c	init.h
bw2.c	io.h
bw2.c	kernel.h
bw2.c	mm.h
bw2.c	module.h
bw2.c	of_device.h
bw2.c	sbuslib.h
bw2.c	string.h
c2p.h	types.h
c2p_iplan2.c	c2p.h
c2p_iplan2.c	c2p_core.h
c2p_iplan2.c	module.h
c2p_iplan2.c	string.h
c2p_iplan2.c	unaligned.h
c2p_planar.c	c2p.h
c2p_planar.c	c2p_core.h
c2p_planar.c	module.h
c2p_planar.c	string.h
c2p_planar.c	unaligned.h
cfbfillrect.c	fb.h
cfbfillrect.c	fb_draw.h
cfbfillrect.c	module.h
cfbfillrect.c	string.h
cfbfillrect.c	types.h
cg6.c	delay.h
cg6.c	errno.h
cg6.c	fb.h
cg6.c	fbio.h
cg6.c	init.h
cg6.c	io.h
cg6.c	kernel.h
cg6.c	mm.h
cg6.c	module.h
cg6.c	of_device.h
cg6.c	sbuslib.h
cg6.c	string.h
chip.h	global.h
clps711xfb.c	delay.h
clps711xfb.c	fb.h
clps711xfb.c	hardware.h
clps711xfb.c	init.h
clps711xfb.c	kernel.h
clps711xfb.c	mach-types.h
clps711xfb.c	mm.h
clps711xfb.c	module.h
clps711xfb.c	slab.h
clps711xfb.c	uaccess.h
cobalt_lcdfb.c	delay.h
cobalt_lcdfb.c	fb.h
cobalt_lcdfb.c	init.h
cobalt_lcdfb.c	io.h
cobalt_lcdfb.c	ioport.h
cobalt_lcdfb.c	module.h
cobalt_lcdfb.c	platform_device.h
cobalt_lcdfb.c	uaccess.h
corgi_lcd.c	corgi_lcd.h
corgi_lcd.c	delay.h
corgi_lcd.c	fb.h
corgi_lcd.c	gpio.h
corgi_lcd.c	init.h
corgi_lcd.c	kernel.h
corgi_lcd.c	lcd.h
corgi_lcd.c	module.h
corgi_lcd.c	sharpsl_param.h
corgi_lcd.c	slab.h
corgi_lcd.c	spi.h
cr_bllcd.c	backlight.h
cr_bllcd.c	fb.h
cr_bllcd.c	init.h
cr_bllcd.c	kernel.h
cr_bllcd.c	lcd.h
cr_bllcd.c	module.h
cr_bllcd.c	mutex.h
cr_bllcd.c	pci.h
cr_bllcd.c	platform_device.h
cr_bllcd.c	slab.h
cr_pll.c	errno.h
cr_pll.c	fb.h
cr_pll.c	kernel.h
cr_pll.c	module.h
cr_pll.c	pci.h
cr_pll.c	vermilion.h
da8xx-fb.c	clk.h
da8xx-fb.c	console.h
da8xx-fb.c	cpufreq.h
da8xx-fb.c	da8xx-fb.h
da8xx-fb.c	delay.h
da8xx-fb.c	device.h
da8xx-fb.c	div64.h
da8xx-fb.c	dma-mapping.h
da8xx-fb.c	fb.h
da8xx-fb.c	interrupt.h
da8xx-fb.c	kernel.h
da8xx-fb.c	lcm.h
da8xx-fb.c	module.h
da8xx-fb.c	platform_device.h
da8xx-fb.c	pm_runtime.h
da8xx-fb.c	slab.h
da8xx-fb.c	spinlock.h
da8xx-fb.c	uaccess.h
da8xx-fb.c	wait.h
da903x_bl.c	backlight.h
da903x_bl.c	da903x.h
da903x_bl.c	fb.h
da903x_bl.c	init.h
da903x_bl.c	kernel.h
da903x_bl.c	module.h
da903x_bl.c	platform_device.h
da903x_bl.c	slab.h
da9052_bl.c	backlight.h
da9052_bl.c	da9052.h
da9052_bl.c	delay.h
da9052_bl.c	fb.h
da9052_bl.c	module.h
da9052_bl.c	platform_device.h
da9052_bl.c	reg.h
display_gx.c	cs5535.h
display_gx.c	delay.h
display_gx.c	delay.h
display_gx.c	div64.h
display_gx.c	fb.h
display_gx.c	gxfb.h
display_gx.c	io.h
display_gx.c	spinlock.h
display_gx1.c	delay.h
display_gx1.c	delay.h
display_gx1.c	display_gx1.h
display_gx1.c	div64.h
display_gx1.c	fb.h
display_gx1.c	geodefb.h
display_gx1.c	io.h
display_gx1.c	spinlock.h
dnfb.c	amigahw.h
dnfb.c	amigaints.h
dnfb.c	apollohw.h
dnfb.c	delay.h
dnfb.c	errno.h
dnfb.c	fb.h
dnfb.c	interrupt.h
dnfb.c	irq.h
dnfb.c	kernel.h
dnfb.c	mm.h
dnfb.c	module.h
dnfb.c	platform_device.h
dnfb.c	setup.h
dnfb.c	string.h
dvi.c	global.h
dvi.c	via-core.h
dvi.c	via_i2c.h
efifb.c	dmi.h
efifb.c	errno.h
efifb.c	fb.h
efifb.c	kernel.h
efifb.c	module.h
efifb.c	pci.h
efifb.c	platform_device.h
efifb.c	screen_info.h
efifb.c	vga.h
ep93xx_bl.c	backlight.h
ep93xx_bl.c	fb.h
ep93xx_bl.c	io.h
ep93xx_bl.c	module.h
ep93xx_bl.c	platform_device.h
exynos_dp_core.c	clk.h
exynos_dp_core.c	delay.h
exynos_dp_core.c	err.h
exynos_dp_core.c	exynos_dp.h
exynos_dp_core.c	exynos_dp_core.h
exynos_dp_core.c	interrupt.h
exynos_dp_core.c	io.h
exynos_dp_core.c	module.h
exynos_dp_core.c	of.h
exynos_dp_core.c	platform_device.h
exynos_dp_core.c	slab.h
exynos_dp_reg.c	delay.h
exynos_dp_reg.c	device.h
exynos_dp_reg.c	exynos_dp.h
exynos_dp_reg.c	exynos_dp_core.h
exynos_dp_reg.c	exynos_dp_reg.h
exynos_dp_reg.c	io.h
exynos_mipi_dsi.c	clk.h
exynos_mipi_dsi.c	consumer.h
exynos_mipi_dsi.c	ctype.h
exynos_mipi_dsi.c	delay.h
exynos_mipi_dsi.c	errno.h
exynos_mipi_dsi.c	exynos_mipi_dsi_common.h
exynos_mipi_dsi.c	exynos_mipi_dsi_lowlevel.h
exynos_mipi_dsi.c	exynos_mipi_dsim.h
exynos_mipi_dsi.c	fb.h
exynos_mipi_dsi.c	fb.h
exynos_mipi_dsi.c	fs.h
exynos_mipi_dsi.c	interrupt.h
exynos_mipi_dsi.c	io.h
exynos_mipi_dsi.c	irq.h
exynos_mipi_dsi.c	kernel.h
exynos_mipi_dsi.c	kthread.h
exynos_mipi_dsi.c	memory.h
exynos_mipi_dsi.c	mm.h
exynos_mipi_dsi.c	module.h
exynos_mipi_dsi.c	mutex.h
exynos_mipi_dsi.c	notifier.h
exynos_mipi_dsi.c	platform_device.h
exynos_mipi_dsi.c	pm_runtime.h
exynos_mipi_dsi.c	wait.h
exynos_mipi_dsi_common.c	ctype.h
exynos_mipi_dsi_common.c	delay.h
exynos_mipi_dsi_common.c	errno.h
exynos_mipi_dsi_common.c	exynos_mipi_dsi_common.h
exynos_mipi_dsi_common.c	exynos_mipi_dsi_lowlevel.h
exynos_mipi_dsi_common.c	exynos_mipi_dsi_regs.h
exynos_mipi_dsi_common.c	exynos_mipi_dsim.h
exynos_mipi_dsi_common.c	fb.h
exynos_mipi_dsi_common.c	fs.h
exynos_mipi_dsi_common.c	io.h
exynos_mipi_dsi_common.c	kernel.h
exynos_mipi_dsi_common.c	kthread.h
exynos_mipi_dsi_common.c	map.h
exynos_mipi_dsi_common.c	memory.h
exynos_mipi_dsi_common.c	mipi_display.h
exynos_mipi_dsi_common.c	mm.h
exynos_mipi_dsi_common.c	module.h
exynos_mipi_dsi_common.c	mutex.h
exynos_mipi_dsi_common.c	platform_device.h
exynos_mipi_dsi_common.c	wait.h
exynos_mipi_dsi_lowlevel.c	ctype.h
exynos_mipi_dsi_lowlevel.c	delay.h
exynos_mipi_dsi_lowlevel.c	errno.h
exynos_mipi_dsi_lowlevel.c	exynos_mipi_dsi_regs.h
exynos_mipi_dsi_lowlevel.c	exynos_mipi_dsim.h
exynos_mipi_dsi_lowlevel.c	fs.h
exynos_mipi_dsi_lowlevel.c	io.h
exynos_mipi_dsi_lowlevel.c	kernel.h
exynos_mipi_dsi_lowlevel.c	map.h
exynos_mipi_dsi_lowlevel.c	mm.h
exynos_mipi_dsi_lowlevel.c	module.h
exynos_mipi_dsi_lowlevel.c	mutex.h
exynos_mipi_dsi_lowlevel.c	wait.h
fb-puv3.c	clk.h
fb-puv3.c	console.h
fb-puv3.c	errno.h
fb-puv3.c	fb.h
fb-puv3.c	hardware.h
fb-puv3.c	init.h
fb-puv3.c	kernel.h
fb-puv3.c	module.h
fb-puv3.c	platform_device.h
fb-puv3.c	sizes.h
fb_defio.c	delay.h
fb_defio.c	errno.h
fb_defio.c	fb.h
fb_defio.c	interrupt.h
fb_defio.c	kernel.h
fb_defio.c	list.h
fb_defio.c	mm.h
fb_defio.c	module.h
fb_defio.c	pagemap.h
fb_defio.c	rmap.h
fb_defio.c	string.h
fb_defio.c	vmalloc.h
fb_draw.h	bug.h
fb_draw.h	fb.h
fb_draw.h	types.h
fb_notify.c	export.h
fb_notify.c	fb.h
fb_notify.c	notifier.h
fb_sys_fops.c	fb.h
fb_sys_fops.c	module.h
fb_sys_fops.c	uaccess.h
fbcmap.c	fb.h
fbcmap.c	module.h
fbcmap.c	slab.h
fbcmap.c	string.h
fbcmap.c	uaccess.h
fbcvt.c	fb.h
fbcvt.c	slab.h
fbdev.c	STG4000Interface.h
fbdev.c	STG4000Reg.h
fbdev.c	delay.h
fbdev.c	errno.h
fbdev.c	fb.h
fbdev.c	init.h
fbdev.c	io.h
fbdev.c	ioctl.h
fbdev.c	kernel.h
fbdev.c	kyro.h
fbdev.c	mm.h
fbdev.c	module.h
fbdev.c	mtrr.h
fbdev.c	pci.h
fbdev.c	string.h
fbdev.c	types.h
fbdev.c	uaccess.h
fbmem.c	compat.h
fbmem.c	console.h
fbmem.c	device.h
fbmem.c	efi.h
fbmem.c	err.h
fbmem.c	errno.h
fbmem.c	fb.h
fbmem.c	fb.h
fbmem.c	init.h
fbmem.c	kernel.h
fbmem.c	kmod.h
fbmem.c	linux_logo.h
fbmem.c	major.h
fbmem.c	mm.h
fbmem.c	mman.h
fbmem.c	module.h
fbmem.c	proc_fs.h
fbmem.c	seq_file.h
fbmem.c	slab.h
fbmem.c	types.h
fbmem.c	vt.h
fbsysfs.c	console.h
fbsysfs.c	fb.h
fbsysfs.c	kernel.h
fbsysfs.c	module.h
fbsysfs.c	slab.h
ffb.c	delay.h
ffb.c	errno.h
ffb.c	fb.h
ffb.c	fbio.h
ffb.c	init.h
ffb.c	io.h
ffb.c	kernel.h
ffb.c	mm.h
ffb.c	module.h
ffb.c	of_device.h
ffb.c	sbuslib.h
ffb.c	string.h
ffb.c	timer.h
ffb.c	upa.h
fm2fb.c	fb.h
fm2fb.c	init.h
fm2fb.c	io.h
fm2fb.c	mm.h
fm2fb.c	module.h
fm2fb.c	zorro.h
fsl-diu-fb.c	clk.h
fsl-diu-fb.c	dma-mapping.h
fsl-diu-fb.c	edid.h
fsl-diu-fb.c	errno.h
fsl-diu-fb.c	fb.h
fsl-diu-fb.c	fsl-diu-fb.h
fsl-diu-fb.c	fsl_soc.h
fsl-diu-fb.c	init.h
fsl-diu-fb.c	interrupt.h
fsl-diu-fb.c	kernel.h
fsl-diu-fb.c	module.h
fsl-diu-fb.c	platform_device.h
fsl-diu-fb.c	slab.h
fsl-diu-fb.c	spinlock.h
fsl-diu-fb.c	string.h
fsl-diu-fb.c	uaccess.h
fsl-diu-fb.c	vmalloc.h
g364fb.c	console.h
g364fb.c	delay.h
g364fb.c	errno.h
g364fb.c	fb.h
g364fb.c	init.h
g364fb.c	interrupt.h
g364fb.c	io.h
g364fb.c	jazz.h
g364fb.c	kernel.h
g364fb.c	mm.h
g364fb.c	module.h
g364fb.c	string.h
g364fb.c	vmalloc.h
g450_pll.c	g450_pll.h
g450_pll.c	matroxfb_DAC1064.h
g450_pll.h	matroxfb_base.h
gbefb.c	addrspace.h
gbefb.c	byteorder.h
gbefb.c	delay.h
gbefb.c	dma-mapping.h
gbefb.c	errno.h
gbefb.c	fb.h
gbefb.c	gbe.h
gbefb.c	gfp.h
gbefb.c	init.h
gbefb.c	interrupt.h
gbefb.c	io.h
gbefb.c	kernel.h
gbefb.c	mm.h
gbefb.c	module.h
gbefb.c	mtrr.h
gbefb.c	platform_device.h
gbefb.c	tlbflush.h
generic_bl.c	backlight.h
generic_bl.c	fb.h
generic_bl.c	init.h
generic_bl.c	kernel.h
generic_bl.c	module.h
generic_bl.c	mutex.h
generic_bl.c	platform_device.h
global.c	global.h
global.h	accel.h
global.h	chip.h
global.h	console.h
global.h	debug.h
global.h	delay.h
global.h	dvi.h
global.h	fb.h
global.h	hw.h
global.h	init.h
global.h	io.h
global.h	ioctl.h
global.h	ioport.h
global.h	lcd.h
global.h	pci.h
global.h	proc_fs.h
global.h	share.h
global.h	tblDPASetting.h
global.h	timer.h
global.h	uaccess.h
global.h	via_utility.h
global.h	viafbdev.h
global.h	viamode.h
global.h	vt1636.h
grvga.c	delay.h
grvga.c	dma-mapping.h
grvga.c	errno.h
grvga.c	fb.h
grvga.c	init.h
grvga.c	io.h
grvga.c	kernel.h
grvga.c	mm.h
grvga.c	module.h
grvga.c	of_device.h
grvga.c	of_platform.h
grvga.c	platform_device.h
grvga.c	slab.h
grvga.c	string.h
grvga.c	tty.h
gx1fb_core.c	delay.h
gx1fb_core.c	display_gx1.h
gx1fb_core.c	errno.h
gx1fb_core.c	fb.h
gx1fb_core.c	geodefb.h
gx1fb_core.c	init.h
gx1fb_core.c	kernel.h
gx1fb_core.c	mm.h
gx1fb_core.c	module.h
gx1fb_core.c	pci.h
gx1fb_core.c	string.h
gx1fb_core.c	video_cs5530.h
gxfb.h	io.h
gxfb_core.c	console.h
gxfb_core.c	cs5535.h
gxfb_core.c	delay.h
gxfb_core.c	errno.h
gxfb_core.c	fb.h
gxfb_core.c	gxfb.h
gxfb_core.c	init.h
gxfb_core.c	kernel.h
gxfb_core.c	mm.h
gxfb_core.c	module.h
gxfb_core.c	olpc.h
gxfb_core.c	pci.h
gxfb_core.c	string.h
gxfb_core.c	suspend.h
gxt4500.c	console.h
gxt4500.c	delay.h
gxt4500.c	fb.h
gxt4500.c	kernel.h
gxt4500.c	module.h
gxt4500.c	pci.h
gxt4500.c	pci_ids.h
gxt4500.c	string.h
hitfb.c	dac.h
hitfb.c	delay.h
hitfb.c	errno.h
hitfb.c	fb.h
hitfb.c	hd64461.h
hitfb.c	init.h
hitfb.c	io.h
hitfb.c	kernel.h
hitfb.c	machvec.h
hitfb.c	mm.h
hitfb.c	module.h
hitfb.c	pgtable.h
hitfb.c	platform_device.h
hitfb.c	string.h
hitfb.c	uaccess.h
hp680_bl.c	backlight.h
hp680_bl.c	dac.h
hp680_bl.c	fb.h
hp680_bl.c	hd64461.h
hp680_bl.c	hp6xx.h
hp680_bl.c	init.h
hp680_bl.c	kernel.h
hp680_bl.c	module.h
hp680_bl.c	platform_device.h
hp680_bl.c	spinlock.h
hw.c	global.h
hw.c	olpc.h
hw.c	via-core.h
hw.c	via_clock.h
hw.h	global.h
hw.h	seq_file.h
hw.h	via_modesetting.h
hw.h	viamode.h
hwa742.c	clk.h
hwa742.c	delay.h
hwa742.c	fb.h
hwa742.c	interrupt.h
hwa742.c	mm.h
hwa742.c	module.h
hwa742.c	omapfb.h
i2c-matroxfb.c	i2c-algo-bit.h
i2c-matroxfb.c	i2c.h
i2c-matroxfb.c	matroxfb_base.h
i2c-matroxfb.c	matroxfb_maven.h
i2c-matroxfb.c	slab.h
i740fb.c	console.h
i740fb.c	delay.h
i740fb.c	errno.h
i740fb.c	fb.h
i740fb.c	i2c-algo-bit.h
i740fb.c	i2c.h
i740fb.c	i740_reg.h
i740fb.c	init.h
i740fb.c	kernel.h
i740fb.c	mm.h
i740fb.c	module.h
i740fb.c	mtrr.h
i740fb.c	pci.h
i740fb.c	pci_ids.h
i740fb.c	slab.h
i740fb.c	string.h
i740fb.c	vga.h
i810-i2c.c	delay.h
i810-i2c.c	edid.h
i810-i2c.c	fb.h
i810-i2c.c	gfp.h
i810-i2c.c	i810.h
i810-i2c.c	i810_main.h
i810-i2c.c	i810_regs.h
i810-i2c.c	kernel.h
i810-i2c.c	module.h
i810-i2c.c	pci.h
i810.h	agp_backend.h
i810.h	fb.h
i810.h	i2c-algo-bit.h
i810.h	i2c.h
i810.h	list.h
i810.h	vga.h
i810_accel.c	fb.h
i810_accel.c	i810.h
i810_accel.c	i810_main.h
i810_accel.c	i810_regs.h
i810_accel.c	kernel.h
i810_accel.c	string.h
i810_dvt.c	i810.h
i810_dvt.c	i810_regs.h
i810_dvt.c	kernel.h
i810_gtf.c	i810.h
i810_gtf.c	i810_main.h
i810_gtf.c	i810_regs.h
i810_gtf.c	kernel.h
i810_main.c	console.h
i810_main.c	div64.h
i810_main.c	errno.h
i810_main.c	fb.h
i810_main.c	i810.h
i810_main.c	i810_main.h
i810_main.c	i810_regs.h
i810_main.c	init.h
i810_main.c	io.h
i810_main.c	kernel.h
i810_main.c	mm.h
i810_main.c	module.h
i810_main.c	page.h
i810_main.c	pci.h
i810_main.c	pci_ids.h
i810_main.c	resource.h
i810_main.c	slab.h
i810_main.c	string.h
i810_main.c	unistd.h
i810_main.h	mtrr.h
igafb.c	delay.h
igafb.c	errno.h
igafb.c	fb.h
igafb.c	iga.h
igafb.c	init.h
igafb.c	interrupt.h
igafb.c	io.h
igafb.c	kernel.h
igafb.c	mm.h
igafb.c	module.h
igafb.c	nvram.h
igafb.c	pci.h
igafb.c	pcic.h
igafb.c	prom.h
igafb.c	slab.h
igafb.c	string.h
igafb.c	vmalloc.h
ili9320.c	delay.h
ili9320.c	err.h
ili9320.c	fb.h
ili9320.c	ili9320.h
ili9320.c	ili9320.h
ili9320.c	init.h
ili9320.c	lcd.h
ili9320.c	module.h
ili9320.c	slab.h
ili9320.c	spi.h
imxfb.c	clk.h
imxfb.c	cpufreq.h
imxfb.c	delay.h
imxfb.c	dma-mapping.h
imxfb.c	errno.h
imxfb.c	fb.h
imxfb.c	init.h
imxfb.c	interrupt.h
imxfb.c	io.h
imxfb.c	ioport.h
imxfb.c	kernel.h
imxfb.c	math64.h
imxfb.c	mm.h
imxfb.c	module.h
imxfb.c	platform_device.h
imxfb.c	slab.h
imxfb.c	string.h
imxfb.c	video-imxfb.h
init.c	300vtbl.h
init.c	310vtbl.h
init.c	init.h
init.h	fb.h
init.h	initdef.h
init.h	io.h
init.h	sis.h
init.h	sisfb.h
init.h	types.h
init.h	vgatypes.h
init.h	vstruct.h
init301.c	init301.h
init301.c	oem300.h
init301.c	oem310.h
init301.h	fb.h
init301.h	initdef.h
init301.h	io.h
init301.h	sis.h
init301.h	sisfb.h
init301.h	types.h
init301.h	vgatypes.h
init301.h	vstruct.h
initextlfb.c	fb.h
initextlfb.c	initdef.h
initextlfb.c	types.h
initextlfb.c	vgatypes.h
initextlfb.c	vstruct.h
intelfb.h	agp_backend.h
intelfb.h	fb.h
intelfb.h	i2c-algo-bit.h
intelfb.h	i2c.h
intelfb_i2c.c	delay.h
intelfb_i2c.c	fb.h
intelfb_i2c.c	i2c-algo-bit.h
intelfb_i2c.c	i2c.h
intelfb_i2c.c	intelfb.h
intelfb_i2c.c	intelfbhw.h
intelfb_i2c.c	io.h
intelfb_i2c.c	kernel.h
intelfb_i2c.c	module.h
intelfb_i2c.c	pci.h
intelfbdrv.c	delay.h
intelfbdrv.c	edid.h
intelfbdrv.c	errno.h
intelfbdrv.c	fb.h
intelfbdrv.c	init.h
intelfbdrv.c	intelfb.h
intelfbdrv.c	intelfbhw.h
intelfbdrv.c	io.h
intelfbdrv.c	ioport.h
intelfbdrv.c	kernel.h
intelfbdrv.c	mm.h
intelfbdrv.c	module.h
intelfbdrv.c	mtrr.h
intelfbdrv.c	pagemap.h
intelfbdrv.c	pci.h
intelfbdrv.c	screen_info.h
intelfbdrv.c	slab.h
intelfbdrv.c	string.h
intelfbdrv.c	vmalloc.h
intelfbhw.c	delay.h
intelfbhw.c	errno.h
intelfbhw.c	fb.h
intelfbhw.c	init.h
intelfbhw.c	intelfb.h
intelfbhw.c	intelfbhw.h
intelfbhw.c	interrupt.h
intelfbhw.c	io.h
intelfbhw.c	ioport.h
intelfbhw.c	kernel.h
intelfbhw.c	mm.h
intelfbhw.c	module.h
intelfbhw.c	pagemap.h
intelfbhw.c	pci.h
intelfbhw.c	string.h
intelfbhw.c	vmalloc.h
ioctl.c	global.h
jornada720_bl.c	backlight.h
jornada720_bl.c	device.h
jornada720_bl.c	fb.h
jornada720_bl.c	hardware.h
jornada720_bl.c	jornada720.h
jornada720_bl.c	kernel.h
jornada720_bl.c	module.h
jornada720_bl.c	platform_device.h
jornada720_bl.c	s1d13xxxfb.h
jornada720_lcd.c	delay.h
jornada720_lcd.c	device.h
jornada720_lcd.c	fb.h
jornada720_lcd.c	hardware.h
jornada720_lcd.c	jornada720.h
jornada720_lcd.c	kernel.h
jornada720_lcd.c	lcd.h
jornada720_lcd.c	module.h
jornada720_lcd.c	platform_device.h
jornada720_lcd.c	s1d13xxxfb.h
jz4740_fb.c	clk.h
jz4740_fb.c	console.h
jz4740_fb.c	delay.h
jz4740_fb.c	dma-mapping.h
jz4740_fb.c	fb.h
jz4740_fb.c	gpio.h
jz4740_fb.c	jz4740_fb.h
jz4740_fb.c	kernel.h
jz4740_fb.c	module.h
jz4740_fb.c	mutex.h
jz4740_fb.c	platform_device.h
kb3886_bl.c	backlight.h
kb3886_bl.c	delay.h
kb3886_bl.c	dmi.h
kb3886_bl.c	fb.h
kb3886_bl.c	init.h
kb3886_bl.c	kernel.h
kb3886_bl.c	module.h
kb3886_bl.c	mutex.h
kb3886_bl.c	platform_device.h
l4f00242t03.c	consumer.h
l4f00242t03.c	delay.h
l4f00242t03.c	device.h
l4f00242t03.c	gpio.h
l4f00242t03.c	kernel.h
l4f00242t03.c	l4f00242t03.h
l4f00242t03.c	lcd.h
l4f00242t03.c	module.h
l4f00242t03.c	slab.h
l4f00242t03.c	spi.h
lcd.c	ctype.h
lcd.c	ctype.h
lcd.c	device.h
lcd.c	device.h
lcd.c	err.h
lcd.c	err.h
lcd.c	fb.h
lcd.c	fb.h
lcd.c	init.h
lcd.c	init.h
lcd.c	lcd.h
lcd.c	lcd.h
lcd.c	module.h
lcd.c	module.h
lcd.c	notifier.h
lcd.c	notifier.h
lcd.c	slab.h
lcd.c	slab.h
lcd_ams_delta.c	board-ams-delta.h
lcd_ams_delta.c	delay.h
lcd_ams_delta.c	gpio.h
lcd_ams_delta.c	io.h
lcd_ams_delta.c	lcd.h
lcd_ams_delta.c	module.h
lcd_ams_delta.c	omapfb.h
lcd_ams_delta.c	platform_device.h
lcd_h3.c	gpio.h
lcd_h3.c	module.h
lcd_h3.c	omapfb.h
lcd_h3.c	platform_device.h
lcd_h3.c	tps65010.h
lcd_htcherald.c	module.h
lcd_htcherald.c	omapfb.h
lcd_htcherald.c	platform_device.h
lcd_inn1510.c	hardware.h
lcd_inn1510.c	io.h
lcd_inn1510.c	module.h
lcd_inn1510.c	omapfb.h
lcd_inn1510.c	platform_device.h
lcd_inn1610.c	gpio.h
lcd_inn1610.c	module.h
lcd_inn1610.c	omapfb.h
lcd_inn1610.c	platform_device.h
lcd_mipid.c	delay.h
lcd_mipid.c	device.h
lcd_mipid.c	lcd-mipid.h
lcd_mipid.c	module.h
lcd_mipid.c	omapfb.h
lcd_mipid.c	slab.h
lcd_mipid.c	spi.h
lcd_mipid.c	workqueue.h
lcd_osk.c	gpio.h
lcd_osk.c	module.h
lcd_osk.c	mux.h
lcd_osk.c	omapfb.h
lcd_osk.c	platform_device.h
lcd_palmte.c	io.h
lcd_palmte.c	module.h
lcd_palmte.c	omapfb.h
lcd_palmte.c	platform_device.h
lcd_palmtt.c	gpio.h
lcd_palmtt.c	io.h
lcd_palmtt.c	module.h
lcd_palmtt.c	omapfb.h
lcd_palmtt.c	platform_device.h
lcd_palmz71.c	io.h
lcd_palmz71.c	module.h
lcd_palmz71.c	omapfb.h
lcd_palmz71.c	platform_device.h
lcdc.c	clk.h
lcdc.c	device.h
lcdc.c	dma-mapping.h
lcdc.c	err.h
lcdc.c	fb.h
lcdc.c	gfp.h
lcdc.c	interrupt.h
lcdc.c	lcdc.h
lcdc.c	lcdc.h
lcdc.c	mach-types.h
lcdc.c	mm.h
lcdc.c	module.h
lcdc.c	omap-dma.h
lcdc.c	omapfb.h
lcdc.c	spinlock.h
lcdc.c	vmalloc.h
ld9040.c	backlight.h
ld9040.c	consumer.h
ld9040.c	delay.h
ld9040.c	fb.h
ld9040.c	gpio.h
ld9040.c	interrupt.h
ld9040.c	irq.h
ld9040.c	kernel.h
ld9040.c	lcd.h
ld9040.c	ld9040_gamma.h
ld9040.c	module.h
ld9040.c	spi.h
ld9040.c	wait.h
leo.c	delay.h
leo.c	errno.h
leo.c	fb.h
leo.c	fbio.h
leo.c	init.h
leo.c	io.h
leo.c	kernel.h
leo.c	mm.h
leo.c	module.h
leo.c	of_device.h
leo.c	sbuslib.h
leo.c	string.h
lm3533_bl.c	backlight.h
lm3533_bl.c	fb.h
lm3533_bl.c	init.h
lm3533_bl.c	lm3533.h
lm3533_bl.c	module.h
lm3533_bl.c	platform_device.h
lm3533_bl.c	slab.h
lm3630_bl.c	backlight.h
lm3630_bl.c	delay.h
lm3630_bl.c	err.h
lm3630_bl.c	i2c.h
lm3630_bl.c	interrupt.h
lm3630_bl.c	lm3630_bl.h
lm3630_bl.c	module.h
lm3630_bl.c	regmap.h
lm3630_bl.c	slab.h
lm3630_bl.c	uaccess.h
lm3639_bl.c	backlight.h
lm3639_bl.c	delay.h
lm3639_bl.c	err.h
lm3639_bl.c	i2c.h
lm3639_bl.c	interrupt.h
lm3639_bl.c	leds.h
lm3639_bl.c	lm3639_bl.h
lm3639_bl.c	module.h
lm3639_bl.c	regmap.h
lm3639_bl.c	slab.h
lm3639_bl.c	uaccess.h
lms283gf05.c	delay.h
lms283gf05.c	device.h
lms283gf05.c	gpio.h
lms283gf05.c	kernel.h
lms283gf05.c	lcd.h
lms283gf05.c	lms283gf05.h
lms283gf05.c	module.h
lms283gf05.c	slab.h
lms283gf05.c	spi.h
locomolcd.c	backlight.h
locomolcd.c	delay.h
locomolcd.c	device.h
locomolcd.c	fb.h
locomolcd.c	generic.h
locomolcd.c	init.h
locomolcd.c	interrupt.h
locomolcd.c	irq.h
locomolcd.c	locomo.h
locomolcd.c	mach-types.h
locomolcd.c	module.h
locomolcd.c	sharpsl_param.h
logo.c	bootinfo.h
logo.c	linux_logo.h
logo.c	module.h
logo.c	setup.h
logo.c	stddef.h
lp855x_bl.c	backlight.h
lp855x_bl.c	err.h
lp855x_bl.c	i2c.h
lp855x_bl.c	lp855x.h
lp855x_bl.c	module.h
lp855x_bl.c	pwm.h
lp855x_bl.c	slab.h
ltv350qv.c	delay.h
ltv350qv.c	err.h
ltv350qv.c	fb.h
ltv350qv.c	init.h
ltv350qv.c	lcd.h
ltv350qv.c	ltv350qv.h
ltv350qv.c	module.h
ltv350qv.c	slab.h
ltv350qv.c	spi.h
lxfb.h	fb.h
lxfb_core.c	console.h
lxfb_core.c	delay.h
lxfb_core.c	errno.h
lxfb_core.c	fb.h
lxfb_core.c	init.h
lxfb_core.c	kernel.h
lxfb_core.c	lxfb.h
lxfb_core.c	mm.h
lxfb_core.c	module.h
lxfb_core.c	olpc.h
lxfb_core.c	pci.h
lxfb_core.c	string.h
lxfb_core.c	suspend.h
lxfb_core.c	uaccess.h
lxfb_ops.c	cs5535.h
lxfb_ops.c	delay.h
lxfb_ops.c	errno.h
lxfb_ops.c	fb.h
lxfb_ops.c	kernel.h
lxfb_ops.c	lxfb.h
lxfb_ops.c	uaccess.h
macfb.c	bootinfo.h
macfb.c	delay.h
macfb.c	errno.h
macfb.c	fb.h
macfb.c	init.h
macfb.c	io.h
macfb.c	kernel.h
macfb.c	macintosh.h
macfb.c	mm.h
macfb.c	module.h
macfb.c	nubus.h
macfb.c	setup.h
macfb.c	string.h
matroxfb_DAC1064.c	g450_pll.h
matroxfb_DAC1064.c	matroxfb.h
matroxfb_DAC1064.c	matroxfb_DAC1064.h
matroxfb_DAC1064.c	matroxfb_accel.h
matroxfb_DAC1064.c	matroxfb_misc.h
matroxfb_DAC1064.h	matroxfb_base.h
matroxfb_Ti3026.c	matroxfb.h
matroxfb_Ti3026.c	matroxfb_Ti3026.h
matroxfb_Ti3026.c	matroxfb_accel.h
matroxfb_Ti3026.c	matroxfb_misc.h
matroxfb_Ti3026.h	matroxfb_base.h
matroxfb_accel.c	matroxfb_DAC1064.h
matroxfb_accel.c	matroxfb_Ti3026.h
matroxfb_accel.c	matroxfb_accel.h
matroxfb_accel.c	matroxfb_misc.h
matroxfb_accel.h	matroxfb_base.h
matroxfb_base.c	interrupt.h
matroxfb_base.c	machdep.h
matroxfb_base.c	matroxfb.h
matroxfb_base.c	matroxfb_DAC1064.h
matroxfb_base.c	matroxfb_Ti3026.h
matroxfb_base.c	matroxfb_accel.h
matroxfb_base.c	matroxfb_base.h
matroxfb_base.c	matroxfb_crtc2.h
matroxfb_base.c	matroxfb_g450.h
matroxfb_base.c	matroxfb_maven.h
matroxfb_base.c	matroxfb_misc.h
matroxfb_base.c	slab.h
matroxfb_base.c	uaccess.h
matroxfb_base.c	version.h
matroxfb_base.h	console.h
matroxfb_base.h	delay.h
matroxfb_base.h	errno.h
matroxfb_base.h	fb.h
matroxfb_base.h	init.h
matroxfb_base.h	io.h
matroxfb_base.h	ioport.h
matroxfb_base.h	kd.h
matroxfb_base.h	kernel.h
matroxfb_base.h	macmodes.h
matroxfb_base.h	mm.h
matroxfb_base.h	module.h
matroxfb_base.h	mtrr.h
matroxfb_base.h	pci-bridge.h
matroxfb_base.h	pci.h
matroxfb_base.h	prom.h
matroxfb_base.h	selection.h
matroxfb_base.h	slab.h
matroxfb_base.h	spinlock.h
matroxfb_base.h	string.h
matroxfb_base.h	timer.h
matroxfb_base.h	unaligned.h
matroxfb_crtc2.c	matroxfb.h
matroxfb_crtc2.c	matroxfb_DAC1064.h
matroxfb_crtc2.c	matroxfb_crtc2.h
matroxfb_crtc2.c	matroxfb_maven.h
matroxfb_crtc2.c	matroxfb_misc.h
matroxfb_crtc2.c	slab.h
matroxfb_crtc2.c	uaccess.h
matroxfb_crtc2.h	ioctl.h
matroxfb_crtc2.h	matroxfb_base.h
matroxfb_g450.c	div64.h
matroxfb_g450.c	g450_pll.h
matroxfb_g450.c	matroxfb.h
matroxfb_g450.c	matroxfb_DAC1064.h
matroxfb_g450.c	matroxfb_base.h
matroxfb_g450.c	matroxfb_g450.h
matroxfb_g450.c	matroxfb_misc.h
matroxfb_g450.h	matroxfb_base.h
matroxfb_maven.c	div64.h
matroxfb_maven.c	i2c.h
matroxfb_maven.c	matroxfb.h
matroxfb_maven.c	matroxfb_DAC1064.h
matroxfb_maven.c	matroxfb_maven.h
matroxfb_maven.c	matroxfb_misc.h
matroxfb_maven.c	slab.h
matroxfb_maven.h	i2c-algo-bit.h
matroxfb_maven.h	i2c.h
matroxfb_maven.h	ioctl.h
matroxfb_maven.h	matroxfb_base.h
matroxfb_misc.c	interrupt.h
matroxfb_misc.c	matroxfb.h
matroxfb_misc.c	matroxfb_misc.h
matroxfb_misc.h	matroxfb_base.h
max8925_bl.c	backlight.h
max8925_bl.c	fb.h
max8925_bl.c	i2c.h
max8925_bl.c	init.h
max8925_bl.c	kernel.h
max8925_bl.c	max8925.h
max8925_bl.c	module.h
max8925_bl.c	platform_device.h
max8925_bl.c	slab.h
maxinefb.c	bootinfo.h
maxinefb.c	delay.h
maxinefb.c	errno.h
maxinefb.c	fb.h
maxinefb.c	init.h
maxinefb.c	kernel.h
maxinefb.c	maxinefb.h
maxinefb.c	mm.h
maxinefb.c	module.h
maxinefb.c	string.h
mb862xx-i2c.c	delay.h
mb862xx-i2c.c	export.h
mb862xx-i2c.c	fb.h
mb862xx-i2c.c	i2c.h
mb862xx-i2c.c	io.h
mb862xx-i2c.c	mb862xx_reg.h
mb862xx-i2c.c	mb862xxfb.h
mb862xxfb_accel.c	delay.h
mb862xxfb_accel.c	fb.h
mb862xxfb_accel.c	init.h
mb862xxfb_accel.c	interrupt.h
mb862xxfb_accel.c	mb862xx_reg.h
mb862xxfb_accel.c	mb862xxfb.h
mb862xxfb_accel.c	mb862xxfb_accel.h
mb862xxfb_accel.c	module.h
mb862xxfb_accel.c	of_platform.h
mb862xxfb_accel.c	pci.h
mb862xxfb_accel.c	slab.h
mb862xxfbdrv.c	delay.h
mb862xxfbdrv.c	fb.h
mb862xxfbdrv.c	init.h
mb862xxfbdrv.c	interrupt.h
mb862xxfbdrv.c	mb862xx_reg.h
mb862xxfbdrv.c	mb862xxfb.h
mb862xxfbdrv.c	module.h
mb862xxfbdrv.c	of_platform.h
mb862xxfbdrv.c	pci.h
mb862xxfbdrv.c	uaccess.h
metronomefb.c	delay.h
metronomefb.c	dma-mapping.h
metronomefb.c	errno.h
metronomefb.c	fb.h
metronomefb.c	firmware.h
metronomefb.c	init.h
metronomefb.c	interrupt.h
metronomefb.c	irq.h
metronomefb.c	kernel.h
metronomefb.c	list.h
metronomefb.c	metronomefb.h
metronomefb.c	mm.h
metronomefb.c	module.h
metronomefb.c	platform_device.h
metronomefb.c	string.h
metronomefb.c	uaccess.h
metronomefb.c	unaligned.h
metronomefb.c	vmalloc.h
modedb.c	fb.h
modedb.c	kernel.h
modedb.c	module.h
modedb.c	slab.h
mx3fb.c	clk.h
mx3fb.c	console.h
mx3fb.c	delay.h
mx3fb.c	dma-imx.h
mx3fb.c	dma-mapping.h
mx3fb.c	dmaengine.h
mx3fb.c	errno.h
mx3fb.c	fb.h
mx3fb.c	init.h
mx3fb.c	interrupt.h
mx3fb.c	io.h
mx3fb.c	ioport.h
mx3fb.c	ipu-dma.h
mx3fb.c	kernel.h
mx3fb.c	module.h
mx3fb.c	mutex.h
mx3fb.c	platform_device.h
mx3fb.c	sched.h
mx3fb.c	slab.h
mx3fb.c	string.h
mx3fb.c	uaccess.h
mx3fb.c	video-mx3fb.h
mxsfb.c	clk.h
mxsfb.c	consumer.h
mxsfb.c	dma-mapping.h
mxsfb.c	io.h
mxsfb.c	kernel.h
mxsfb.c	module.h
mxsfb.c	mxsfb.h
mxsfb.c	of_device.h
mxsfb.c	of_gpio.h
mxsfb.c	platform_device.h
n411.c	delay.h
n411.c	errno.h
n411.c	fb.h
n411.c	hecubafb.h
n411.c	init.h
n411.c	interrupt.h
n411.c	irq.h
n411.c	kernel.h
n411.c	list.h
n411.c	module.h
n411.c	platform_device.h
n411.c	string.h
n411.c	uaccess.h
neofb.c	delay.h
neofb.c	errno.h
neofb.c	fb.h
neofb.c	init.h
neofb.c	io.h
neofb.c	irq.h
neofb.c	kernel.h
neofb.c	mm.h
neofb.c	module.h
neofb.c	mtrr.h
neofb.c	neomagic.h
neofb.c	pci.h
neofb.c	pgtable.h
neofb.c	slab.h
neofb.c	string.h
neofb.c	toshiba.h
neofb.c	vga.h
nuc900fb.c	clk.h
nuc900fb.c	cpufreq.h
nuc900fb.c	delay.h
nuc900fb.c	device.h
nuc900fb.c	dma-mapping.h
nuc900fb.c	err.h
nuc900fb.c	errno.h
nuc900fb.c	fb.h
nuc900fb.c	init.h
nuc900fb.c	interrupt.h
nuc900fb.c	io.h
nuc900fb.c	kernel.h
nuc900fb.c	map.h
nuc900fb.c	mm.h
nuc900fb.c	module.h
nuc900fb.c	nuc900fb.h
nuc900fb.c	platform_device.h
nuc900fb.c	pm.h
nuc900fb.c	regs-clock.h
nuc900fb.c	regs-ldm.h
nuc900fb.c	slab.h
nuc900fb.c	string.h
nuc900fb.c	tty.h
nuc900fb.c	video-nuc900fb.h
nuc900fb.c	wait.h
nuc900fb.c	workqueue.h
offb.c	bootx.h
offb.c	delay.h
offb.c	errno.h
offb.c	fb.h
offb.c	init.h
offb.c	interrupt.h
offb.c	io.h
offb.c	ioport.h
offb.c	kernel.h
offb.c	macmodes.h
offb.c	mm.h
offb.c	module.h
offb.c	of.h
offb.c	of_address.h
offb.c	pci-bridge.h
offb.c	pci.h
offb.c	string.h
offb.c	vmalloc.h
omap1_bl.c	backlight.h
omap1_bl.c	fb.h
omap1_bl.c	hardware.h
omap1_bl.c	init.h
omap1_bl.c	kernel.h
omap1_bl.c	module.h
omap1_bl.c	mux.h
omap1_bl.c	omap1_bl.h
omap1_bl.c	platform_device.h
omap1_bl.c	slab.h
omapfb-ioctl.c	device.h
omapfb-ioctl.c	export.h
omapfb-ioctl.c	fb.h
omapfb-ioctl.c	mm.h
omapfb-ioctl.c	omapdss.h
omapfb-ioctl.c	omapfb.h
omapfb-ioctl.c	omapfb.h
omapfb-ioctl.c	omapvrfb.h
omapfb-ioctl.c	platform_device.h
omapfb-ioctl.c	sizes.h
omapfb-ioctl.c	uaccess.h
omapfb-ioctl.c	vmalloc.h
omapfb-main.c	delay.h
omapfb-main.c	device.h
omapfb-main.c	dma-mapping.h
omapfb-main.c	fb.h
omapfb-main.c	module.h
omapfb-main.c	omapdss.h
omapfb-main.c	omapfb.h
omapfb-main.c	omapfb.h
omapfb-main.c	omapvrfb.h
omapfb-main.c	platform_device.h
omapfb-main.c	slab.h
omapfb-main.c	vmalloc.h
omapfb-sysfs.c	device.h
omapfb-sysfs.c	fb.h
omapfb-sysfs.c	kernel.h
omapfb-sysfs.c	mm.h
omapfb-sysfs.c	omapdss.h
omapfb-sysfs.c	omapfb.h
omapfb-sysfs.c	omapfb.h
omapfb-sysfs.c	omapvrfb.h
omapfb-sysfs.c	platform_device.h
omapfb-sysfs.c	sysfs.h
omapfb-sysfs.c	uaccess.h
omapfb.h	fb.h
omapfb.h	mutex.h
omapfb.h	omapfb.h
omapfb_main.c	lcdc.h
omapfb_main.c	mm.h
omapfb_main.c	module.h
omapfb_main.c	omap-dma.h
omapfb_main.c	omapfb.h
omapfb_main.c	platform_device.h
omapfb_main.c	slab.h
omapfb_main.c	uaccess.h
ot200_bl.c	backlight.h
ot200_bl.c	cs5535.h
ot200_bl.c	fb.h
ot200_bl.c	gpio.h
ot200_bl.c	module.h
p9100.c	delay.h
p9100.c	errno.h
p9100.c	fb.h
p9100.c	fbio.h
p9100.c	init.h
p9100.c	io.h
p9100.c	kernel.h
p9100.c	mm.h
p9100.c	module.h
p9100.c	of_device.h
p9100.c	sbuslib.h
p9100.c	string.h
pandora_bl.c	backlight.h
pandora_bl.c	delay.h
pandora_bl.c	err.h
pandora_bl.c	fb.h
pandora_bl.c	kernel.h
pandora_bl.c	module.h
pandora_bl.c	platform_device.h
pandora_bl.c	twl.h
panel-acx565akm.c	backlight.h
panel-acx565akm.c	delay.h
panel-acx565akm.c	fb.h
panel-acx565akm.c	jiffies.h
panel-acx565akm.c	kernel.h
panel-acx565akm.c	module.h
panel-acx565akm.c	omapdss.h
panel-acx565akm.c	platform_device.h
panel-acx565akm.c	sched.h
panel-acx565akm.c	spi.h
panel-generic-dpi.c	delay.h
panel-generic-dpi.c	module.h
panel-generic-dpi.c	omap-panel-generic-dpi.h
panel-generic-dpi.c	omapdss.h
panel-generic-dpi.c	slab.h
panel-lgphilips-lb035q02.c	delay.h
panel-lgphilips-lb035q02.c	module.h
panel-lgphilips-lb035q02.c	mutex.h
panel-lgphilips-lb035q02.c	omapdss.h
panel-lgphilips-lb035q02.c	spi.h
panel-n8x0.c	backlight.h
panel-n8x0.c	delay.h
panel-n8x0.c	fb.h
panel-n8x0.c	gpio.h
panel-n8x0.c	module.h
panel-n8x0.c	omap-panel-n8x0.h
panel-n8x0.c	omapdss.h
panel-n8x0.c	slab.h
panel-n8x0.c	spi.h
panel-nec-nl8048hl11-01b.c	backlight.h
panel-nec-nl8048hl11-01b.c	delay.h
panel-nec-nl8048hl11-01b.c	fb.h
panel-nec-nl8048hl11-01b.c	module.h
panel-nec-nl8048hl11-01b.c	omapdss.h
panel-nec-nl8048hl11-01b.c	spi.h
panel-picodlp.c	delay.h
panel-picodlp.c	firmware.h
panel-picodlp.c	gpio.h
panel-picodlp.c	i2c.h
panel-picodlp.c	input.h
panel-picodlp.c	interrupt.h
panel-picodlp.c	module.h
panel-picodlp.c	mutex.h
panel-picodlp.c	omap-panel-picodlp.h
panel-picodlp.c	omapdss.h
panel-picodlp.c	panel-picodlp.h
panel-picodlp.c	platform_device.h
panel-picodlp.c	slab.h
panel-sharp-ls037v7dw01.c	backlight.h
panel-sharp-ls037v7dw01.c	delay.h
panel-sharp-ls037v7dw01.c	device.h
panel-sharp-ls037v7dw01.c	err.h
panel-sharp-ls037v7dw01.c	fb.h
panel-sharp-ls037v7dw01.c	module.h
panel-sharp-ls037v7dw01.c	omapdss.h
panel-sharp-ls037v7dw01.c	slab.h
panel-taal.c	backlight.h
panel-taal.c	delay.h
panel-taal.c	err.h
panel-taal.c	fb.h
panel-taal.c	gpio.h
panel-taal.c	interrupt.h
panel-taal.c	jiffies.h
panel-taal.c	mipi_display.h
panel-taal.c	module.h
panel-taal.c	mutex.h
panel-taal.c	omap-panel-nokia-dsi.h
panel-taal.c	omapdss.h
panel-taal.c	sched.h
panel-taal.c	slab.h
panel-taal.c	workqueue.h
panel-tfp410.c	drm_edid.h
panel-tfp410.c	gpio.h
panel-tfp410.c	i2c.h
panel-tfp410.c	module.h
panel-tfp410.c	omap-panel-tfp410.h
panel-tfp410.c	omapdss.h
panel-tfp410.c	slab.h
panel-tpo-td043mtea1.c	consumer.h
panel-tpo-td043mtea1.c	delay.h
panel-tpo-td043mtea1.c	err.h
panel-tpo-td043mtea1.c	gpio.h
panel-tpo-td043mtea1.c	module.h
panel-tpo-td043mtea1.c	omapdss.h
panel-tpo-td043mtea1.c	slab.h
panel-tpo-td043mtea1.c	spi.h
pcf50633-backlight.c	backlight.h
pcf50633-backlight.c	backlight.h
pcf50633-backlight.c	core.h
pcf50633-backlight.c	fb.h
pcf50633-backlight.c	kernel.h
pcf50633-backlight.c	module.h
pcf50633-backlight.c	platform_device.h
pcf50633-backlight.c	slab.h
platform_lcd.c	backlight.h
platform_lcd.c	fb.h
platform_lcd.c	lcd.h
platform_lcd.c	module.h
platform_lcd.c	of.h
platform_lcd.c	platform_device.h
platform_lcd.c	platform_lcd.h
platform_lcd.c	slab.h
pm2fb.c	cvisionppc.h
pm2fb.c	delay.h
pm2fb.c	errno.h
pm2fb.c	fb.h
pm2fb.c	init.h
pm2fb.c	kernel.h
pm2fb.c	mm.h
pm2fb.c	module.h
pm2fb.c	moduleparam.h
pm2fb.c	mtrr.h
pm2fb.c	pci.h
pm2fb.c	permedia2.h
pm2fb.c	slab.h
pm2fb.c	string.h
pmag-aa-fb.c	bootinfo.h
pmag-aa-fb.c	bt431.h
pmag-aa-fb.c	bt455.h
pmag-aa-fb.c	console.h
pmag-aa-fb.c	delay.h
pmag-aa-fb.c	errno.h
pmag-aa-fb.c	fb.h
pmag-aa-fb.c	fbcon-cfb8.h
pmag-aa-fb.c	fbcon.h
pmag-aa-fb.c	init.h
pmag-aa-fb.c	kernel.h
pmag-aa-fb.c	machtype.h
pmag-aa-fb.c	mm.h
pmag-aa-fb.c	module.h
pmag-aa-fb.c	string.h
pmag-aa-fb.c	tc.h
pmag-aa-fb.c	timer.h
pmag-ba-fb.c	compiler.h
pmag-ba-fb.c	errno.h
pmag-ba-fb.c	fb.h
pmag-ba-fb.c	init.h
pmag-ba-fb.c	io.h
pmag-ba-fb.c	kernel.h
pmag-ba-fb.c	module.h
pmag-ba-fb.c	pmag-ba-fb.h
pmag-ba-fb.c	tc.h
pmag-ba-fb.c	types.h
pmagb-b-fb.c	compiler.h
pmagb-b-fb.c	delay.h
pmagb-b-fb.c	errno.h
pmagb-b-fb.c	fb.h
pmagb-b-fb.c	init.h
pmagb-b-fb.c	io.h
pmagb-b-fb.c	kernel.h
pmagb-b-fb.c	module.h
pmagb-b-fb.c	pmagb-b-fb.h
pmagb-b-fb.c	tc.h
pmagb-b-fb.c	types.h
pwm_bl.c	backlight.h
pwm_bl.c	err.h
pwm_bl.c	fb.h
pwm_bl.c	init.h
pwm_bl.c	kernel.h
pwm_bl.c	module.h
pwm_bl.c	platform_device.h
pwm_bl.c	pwm.h
pwm_bl.c	pwm_backlight.h
pwm_bl.c	slab.h
pxa3xx-gcu.h	types.h
pxafb.c	bitfield.h
pxafb.c	clk.h
pxafb.c	completion.h
pxafb.c	console.h
pxafb.c	cpufreq.h
pxafb.c	delay.h
pxafb.c	div64.h
pxafb.c	dma-mapping.h
pxafb.c	err.h
pxafb.c	errno.h
pxafb.c	fb.h
pxafb.c	freezer.h
pxafb.c	hardware.h
pxafb.c	init.h
pxafb.c	interrupt.h
pxafb.c	io.h
pxafb.c	ioport.h
pxafb.c	irq.h
pxafb.c	kernel.h
pxafb.c	kthread.h
pxafb.c	mm.h
pxafb.c	module.h
pxafb.c	moduleparam.h
pxafb.c	mutex.h
pxafb.c	platform_device.h
pxafb.c	pxafb.h
pxafb.c	sched.h
pxafb.c	slab.h
pxafb.c	string.h
pxafb.c	video-pxafb.h
s1d13xxxfb.c	delay.h
s1d13xxxfb.c	errno.h
s1d13xxxfb.c	fb.h
s1d13xxxfb.c	io.h
s1d13xxxfb.c	mm.h
s1d13xxxfb.c	mman.h
s1d13xxxfb.c	module.h
s1d13xxxfb.c	platform_device.h
s1d13xxxfb.c	s1d13xxxfb.h
s1d13xxxfb.c	slab.h
s1d13xxxfb.c	spinlock.h
s1d13xxxfb.c	spinlock_types.h
s1d13xxxfb.c	types.h
s3c-fb.c	clk.h
s3c-fb.c	dma-mapping.h
s3c-fb.c	fb.h
s3c-fb.c	fb.h
s3c-fb.c	init.h
s3c-fb.c	interrupt.h
s3c-fb.c	io.h
s3c-fb.c	kernel.h
s3c-fb.c	map.h
s3c-fb.c	module.h
s3c-fb.c	platform_device.h
s3c-fb.c	pm_runtime.h
s3c-fb.c	samsung_fimd.h
s3c-fb.c	slab.h
s3c-fb.c	uaccess.h
s3c2410fb.c	clk.h
s3c2410fb.c	cpufreq.h
s3c2410fb.c	delay.h
s3c2410fb.c	div64.h
s3c2410fb.c	dma-mapping.h
s3c2410fb.c	err.h
s3c2410fb.c	errno.h
s3c2410fb.c	fb.h
s3c2410fb.c	fb.h
s3c2410fb.c	init.h
s3c2410fb.c	interrupt.h
s3c2410fb.c	io.h
s3c2410fb.c	kernel.h
s3c2410fb.c	map.h
s3c2410fb.c	mm.h
s3c2410fb.c	module.h
s3c2410fb.c	platform_device.h
s3c2410fb.c	pm.h
s3c2410fb.c	regs-gpio.h
s3c2410fb.c	regs-lcd.h
s3c2410fb.c	s3c2410fb.h
s3c2410fb.c	slab.h
s3c2410fb.c	string.h
s3fb.c	console.h
s3fb.c	delay.h
s3fb.c	errno.h
s3fb.c	fb.h
s3fb.c	i2c-algo-bit.h
s3fb.c	i2c.h
s3fb.c	init.h
s3fb.c	kernel.h
s3fb.c	mm.h
s3fb.c	module.h
s3fb.c	mtrr.h
s3fb.c	pci.h
s3fb.c	string.h
s3fb.c	svga.h
s3fb.c	tty.h
s3fb.c	vga.h
s6e63m0.c	backlight.h
s6e63m0.c	delay.h
s6e63m0.c	fb.h
s6e63m0.c	gpio.h
s6e63m0.c	interrupt.h
s6e63m0.c	irq.h
s6e63m0.c	kernel.h
s6e63m0.c	lcd.h
s6e63m0.c	module.h
s6e63m0.c	s6e63m0_gamma.h
s6e63m0.c	spi.h
s6e63m0.c	wait.h
s6e8ax0.c	backlight.h
s6e8ax0.c	consumer.h
s6e8ax0.c	ctype.h
s6e8ax0.c	delay.h
s6e8ax0.c	errno.h
s6e8ax0.c	exynos_mipi_dsim.h
s6e8ax0.c	fb.h
s6e8ax0.c	interrupt.h
s6e8ax0.c	io.h
s6e8ax0.c	irq.h
s6e8ax0.c	kernel.h
s6e8ax0.c	lcd.h
s6e8ax0.c	mipi_display.h
s6e8ax0.c	module.h
s6e8ax0.c	mutex.h
s6e8ax0.c	wait.h
sa1100fb.c	cpufreq.h
sa1100fb.c	delay.h
sa1100fb.c	dma-mapping.h
sa1100fb.c	errno.h
sa1100fb.c	fb.h
sa1100fb.c	gpio.h
sa1100fb.c	hardware.h
sa1100fb.c	init.h
sa1100fb.c	interrupt.h
sa1100fb.c	io.h
sa1100fb.c	ioport.h
sa1100fb.c	kernel.h
sa1100fb.c	mach-types.h
sa1100fb.c	mm.h
sa1100fb.c	module.h
sa1100fb.c	mutex.h
sa1100fb.c	platform_device.h
sa1100fb.c	sa1100fb.h
sa1100fb.c	sa1100fb.h
sa1100fb.c	sched.h
sa1100fb.c	shannon.h
sa1100fb.c	slab.h
sa1100fb.c	string.h
savagefb-i2c.c	delay.h
savagefb-i2c.c	fb.h
savagefb-i2c.c	gfp.h
savagefb-i2c.c	io.h
savagefb-i2c.c	kernel.h
savagefb-i2c.c	module.h
savagefb-i2c.c	pci.h
savagefb-i2c.c	savagefb.h
savagefb.h	edid.h
savagefb.h	i2c-algo-bit.h
savagefb.h	i2c.h
savagefb.h	mutex.h
savagefb.h	vga.h
savagefb_accel.c	fb.h
savagefb_accel.c	kernel.h
savagefb_accel.c	module.h
savagefb_accel.c	savagefb.h
savagefb_accel.c	string.h
savagefb_driver.c	console.h
savagefb_driver.c	delay.h
savagefb_driver.c	errno.h
savagefb_driver.c	fb.h
savagefb_driver.c	init.h
savagefb_driver.c	io.h
savagefb_driver.c	irq.h
savagefb_driver.c	kernel.h
savagefb_driver.c	mm.h
savagefb_driver.c	module.h
savagefb_driver.c	mtrr.h
savagefb_driver.c	pci.h
savagefb_driver.c	pgtable.h
savagefb_driver.c	savagefb.h
savagefb_driver.c	slab.h
savagefb_driver.c	string.h
sh7760fb.c	completion.h
sh7760fb.c	delay.h
sh7760fb.c	dma-mapping.h
sh7760fb.c	fb.h
sh7760fb.c	interrupt.h
sh7760fb.c	io.h
sh7760fb.c	kernel.h
sh7760fb.c	module.h
sh7760fb.c	platform_device.h
sh7760fb.c	sh7760fb.h
sh7760fb.c	slab.h
sh_mobile_hdmi.c	clk.h
sh_mobile_hdmi.c	console.h
sh_mobile_hdmi.c	delay.h
sh_mobile_hdmi.c	err.h
sh_mobile_hdmi.c	init.h
sh_mobile_hdmi.c	initval.h
sh_mobile_hdmi.c	interrupt.h
sh_mobile_hdmi.c	io.h
sh_mobile_hdmi.c	module.h
sh_mobile_hdmi.c	platform_device.h
sh_mobile_hdmi.c	pm_runtime.h
sh_mobile_hdmi.c	sh_mobile_hdmi.h
sh_mobile_hdmi.c	sh_mobile_lcdc.h
sh_mobile_hdmi.c	sh_mobile_lcdcfb.h
sh_mobile_hdmi.c	slab.h
sh_mobile_hdmi.c	soc-dapm.h
sh_mobile_hdmi.c	soc.h
sh_mobile_hdmi.c	types.h
sh_mobile_hdmi.c	workqueue.h
sh_mobile_lcdcfb.c	atomic.h
sh_mobile_lcdcfb.c	backlight.h
sh_mobile_lcdcfb.c	clk.h
sh_mobile_lcdcfb.c	console.h
sh_mobile_lcdcfb.c	ctype.h
sh_mobile_lcdcfb.c	delay.h
sh_mobile_lcdcfb.c	dma-mapping.h
sh_mobile_lcdcfb.c	gpio.h
sh_mobile_lcdcfb.c	init.h
sh_mobile_lcdcfb.c	interrupt.h
sh_mobile_lcdcfb.c	ioctl.h
sh_mobile_lcdcfb.c	kernel.h
sh_mobile_lcdcfb.c	mm.h
sh_mobile_lcdcfb.c	module.h
sh_mobile_lcdcfb.c	platform_device.h
sh_mobile_lcdcfb.c	pm_runtime.h
sh_mobile_lcdcfb.c	sh_mobile_lcdc.h
sh_mobile_lcdcfb.c	sh_mobile_lcdcfb.h
sh_mobile_lcdcfb.c	sh_mobile_meram.h
sh_mobile_lcdcfb.c	slab.h
sh_mobile_lcdcfb.c	videodev2.h
sh_mobile_lcdcfb.c	vmalloc.h
share.h	via_modesetting.h
sis.h	sisfb.h
sis.h	spinlock.h
sis.h	vgatypes.h
sis.h	vstruct.h
sis_accel.c	fb.h
sis_accel.c	io.h
sis_accel.c	ioport.h
sis_accel.c	kernel.h
sis_accel.c	module.h
sis_accel.c	sis.h
sis_accel.c	sis_accel.h
sis_accel.c	types.h
sis_accel.h	spinlock.h
sis_main.c	capability.h
sis_main.c	errno.h
sis_main.c	fb.h
sis_main.c	fs.h
sis_main.c	init.h
sis_main.c	io.h
sis_main.c	ioport.h
sis_main.c	kernel.h
sis_main.c	mm.h
sis_main.c	module.h
sis_main.c	moduleparam.h
sis_main.c	mtrr.h
sis_main.c	pci.h
sis_main.c	screen_info.h
sis_main.c	selection.h
sis_main.c	sis.h
sis_main.c	sis_main.h
sis_main.c	slab.h
sis_main.c	spinlock.h
sis_main.c	string.h
sis_main.c	types.h
sis_main.c	uaccess.h
sis_main.c	vmalloc.h
sis_main.h	sis.h
sis_main.h	vstruct.h
skeletonfb.c	delay.h
skeletonfb.c	errno.h
skeletonfb.c	fb.h
skeletonfb.c	init.h
skeletonfb.c	kernel.h
skeletonfb.c	mm.h
skeletonfb.c	module.h
skeletonfb.c	pci.h
skeletonfb.c	platform_device.h
skeletonfb.c	slab.h
skeletonfb.c	string.h
sm501fb.c	clk.h
sm501fb.c	console.h
sm501fb.c	delay.h
sm501fb.c	div64.h
sm501fb.c	dma-mapping.h
sm501fb.c	edid.h
sm501fb.c	errno.h
sm501fb.c	fb.h
sm501fb.c	init.h
sm501fb.c	interrupt.h
sm501fb.c	io.h
sm501fb.c	kernel.h
sm501fb.c	mm.h
sm501fb.c	module.h
sm501fb.c	platform_device.h
sm501fb.c	pm.h
sm501fb.c	slab.h
sm501fb.c	sm501-regs.h
sm501fb.c	sm501.h
sm501fb.c	string.h
sm501fb.c	tty.h
sm501fb.c	uaccess.h
sm501fb.c	vmalloc.h
sm501fb.c	wait.h
sm501fb.c	workqueue.h
sossi.c	clk.h
sossi.c	interrupt.h
sossi.c	io.h
sossi.c	irq.h
sossi.c	lcdc.h
sossi.c	mm.h
sossi.c	module.h
sossi.c	omap-dma.h
sossi.c	omapfb.h
sstfb.c	delay.h
sstfb.c	fb.h
sstfb.c	init.h
sstfb.c	io.h
sstfb.c	kernel.h
sstfb.c	module.h
sstfb.c	pci.h
sstfb.c	sstfb.h
sstfb.c	string.h
sstfb.c	uaccess.h
sticore.h	io.h
sunxvr2500.c	fb.h
sunxvr2500.c	init.h
sunxvr2500.c	io.h
sunxvr2500.c	kernel.h
sunxvr2500.c	module.h
sunxvr2500.c	of_device.h
sunxvr2500.c	pci.h
suspend_gx.c	cs5535.h
suspend_gx.c	delay.h
suspend_gx.c	fb.h
suspend_gx.c	gxfb.h
suspend_gx.c	io.h
suspend_gx.c	msr.h
sysfillrect.c	fb.h
sysfillrect.c	fb_draw.h
sysfillrect.c	module.h
sysfillrect.c	string.h
sysfillrect.c	types.h
tblDPASetting.c	global.h
tblDPASetting.h	global.h
tcx.c	delay.h
tcx.c	errno.h
tcx.c	fb.h
tcx.c	fbio.h
tcx.c	init.h
tcx.c	io.h
tcx.c	kernel.h
tcx.c	mm.h
tcx.c	module.h
tcx.c	of_device.h
tcx.c	sbuslib.h
tcx.c	string.h
tdfxfb.c	errno.h
tdfxfb.c	fb.h
tdfxfb.c	init.h
tdfxfb.c	io.h
tdfxfb.c	kernel.h
tdfxfb.c	mm.h
tdfxfb.c	module.h
tdfxfb.c	mtrr.h
tdfxfb.c	pci.h
tdfxfb.c	slab.h
tdfxfb.c	string.h
tdfxfb.c	tdfx.h
tdo24m.c	device.h
tdo24m.c	fb.h
tdo24m.c	init.h
tdo24m.c	kernel.h
tdo24m.c	lcd.h
tdo24m.c	module.h
tdo24m.c	slab.h
tdo24m.c	spi.h
tdo24m.c	tdo24m.h
tosa_bl.c	backlight.h
tosa_bl.c	device.h
tosa_bl.c	fb.h
tosa_bl.c	gpio.h
tosa_bl.c	i2c.h
tosa_bl.c	kernel.h
tosa_bl.c	module.h
tosa_bl.c	sharpsl_param.h
tosa_bl.c	slab.h
tosa_bl.c	spi.h
tosa_bl.c	tosa.h
tosa_lcd.c	delay.h
tosa_lcd.c	device.h
tosa_lcd.c	fb.h
tosa_lcd.c	gpio.h
tosa_lcd.c	i2c.h
tosa_lcd.c	kernel.h
tosa_lcd.c	lcd.h
tosa_lcd.c	module.h
tosa_lcd.c	sharpsl_param.h
tosa_lcd.c	slab.h
tosa_lcd.c	spi.h
tosa_lcd.c	tosa.h
tps65217_bl.c	backlight.h
tps65217_bl.c	err.h
tps65217_bl.c	fb.h
tps65217_bl.c	kernel.h
tps65217_bl.c	module.h
tps65217_bl.c	platform_device.h
tps65217_bl.c	slab.h
tps65217_bl.c	tps65217.h
udlfb.c	delay.h
udlfb.c	edid.h
udlfb.c	fb.h
udlfb.c	init.h
udlfb.c	kernel.h
udlfb.c	mm.h
udlfb.c	module.h
udlfb.c	prefetch.h
udlfb.c	slab.h
udlfb.c	uaccess.h
udlfb.c	udlfb.h
udlfb.c	usb.h
udlfb.c	vmalloc.h
uvesafb.c	completion.h
uvesafb.c	connector.h
uvesafb.c	edid.h
uvesafb.c	edid.h
uvesafb.c	fb.h
uvesafb.c	init.h
uvesafb.c	io.h
uvesafb.c	limits.h
uvesafb.c	module.h
uvesafb.c	moduleparam.h
uvesafb.c	mtrr.h
uvesafb.c	mutex.h
uvesafb.c	platform_device.h
uvesafb.c	random.h
uvesafb.c	skbuff.h
uvesafb.c	slab.h
uvesafb.c	timer.h
uvesafb.c	uvesafb.h
uvesafb.c	vga.h
valkyriefb.c	adb.h
valkyriefb.c	bootinfo.h
valkyriefb.c	cuda.h
valkyriefb.c	delay.h
valkyriefb.c	errno.h
valkyriefb.c	fb.h
valkyriefb.c	init.h
valkyriefb.c	interrupt.h
valkyriefb.c	io.h
valkyriefb.c	kernel.h
valkyriefb.c	macintosh.h
valkyriefb.c	macmodes.h
valkyriefb.c	mm.h
valkyriefb.c	module.h
valkyriefb.c	nvram.h
valkyriefb.c	pgtable.h
valkyriefb.c	prom.h
valkyriefb.c	selection.h
valkyriefb.c	slab.h
valkyriefb.c	string.h
valkyriefb.c	valkyriefb.h
valkyriefb.c	vmalloc.h
vermilion.c	cacheflush.h
vermilion.c	delay.h
vermilion.c	errno.h
vermilion.c	fb.h
vermilion.c	kernel.h
vermilion.c	mm.h
vermilion.c	mmzone.h
vermilion.c	module.h
vermilion.c	pci.h
vermilion.c	slab.h
vermilion.c	string.h
vermilion.c	tlbflush.h
vermilion.c	vermilion.h
vermilion.h	atomic.h
vermilion.h	kernel.h
vermilion.h	mutex.h
vermilion.h	pci.h
vesafb.c	delay.h
vesafb.c	errno.h
vesafb.c	fb.h
vesafb.c	init.h
vesafb.c	io.h
vesafb.c	ioport.h
vesafb.c	kernel.h
vesafb.c	mm.h
vesafb.c	module.h
vesafb.c	mtrr.h
vesafb.c	platform_device.h
vesafb.c	screen_info.h
vesafb.c	string.h
vesafb.c	vga.h
vfb.c	delay.h
vfb.c	errno.h
vfb.c	fb.h
vfb.c	init.h
vfb.c	interrupt.h
vfb.c	kernel.h
vfb.c	mm.h
vfb.c	module.h
vfb.c	platform_device.h
vfb.c	string.h
vfb.c	vmalloc.h
vga16fb.c	delay.h
vga16fb.c	errno.h
vga16fb.c	fb.h
vga16fb.c	init.h
vga16fb.c	io.h
vga16fb.c	ioport.h
vga16fb.c	kernel.h
vga16fb.c	mm.h
vga16fb.c	module.h
vga16fb.c	platform_device.h
vga16fb.c	screen_info.h
vga16fb.c	string.h
vga16fb.c	vga.h
vgastate.c	fb.h
vgastate.c	module.h
vgastate.c	slab.h
vgastate.c	vga.h
vgastate.c	vmalloc.h
vgatypes.h	types.h
vgg2432a4.c	delay.h
vgg2432a4.c	err.h
vgg2432a4.c	fb.h
vgg2432a4.c	ili9320.h
vgg2432a4.c	ili9320.h
vgg2432a4.c	init.h
vgg2432a4.c	lcd.h
vgg2432a4.c	module.h
vgg2432a4.c	spi.h
via-core.c	global.h
via-core.c	interrupt.h
via-core.c	list.h
via-core.c	module.h
via-core.c	olpc.h
via-core.c	platform_device.h
via-core.c	pm.h
via-core.c	via-core.h
via-core.c	via-gpio.h
via-core.c	via_i2c.h
via-gpio.c	export.h
via-gpio.c	gpio.h
via-gpio.c	platform_device.h
via-gpio.c	spinlock.h
via-gpio.c	via-core.h
via-gpio.c	via-gpio.h
via_aux.c	slab.h
via_aux.c	via_aux.h
via_aux.h	fb.h
via_aux.h	i2c.h
via_aux.h	list.h
via_aux_ch7301.c	slab.h
via_aux_ch7301.c	via_aux.h
via_aux_edid.c	edid.h
via_aux_edid.c	fb.h
via_aux_edid.c	slab.h
via_aux_edid.c	via_aux.h
via_aux_sii164.c	slab.h
via_aux_sii164.c	via_aux.h
via_aux_vt1621.c	slab.h
via_aux_vt1621.c	via_aux.h
via_aux_vt1622.c	slab.h
via_aux_vt1622.c	via_aux.h
via_aux_vt1625.c	slab.h
via_aux_vt1625.c	via_aux.h
via_aux_vt1631.c	slab.h
via_aux_vt1631.c	via_aux.h
via_aux_vt1632.c	slab.h
via_aux_vt1632.c	via_aux.h
via_aux_vt1636.c	slab.h
via_aux_vt1636.c	via_aux.h
via_clock.c	debug.h
via_clock.c	global.h
via_clock.c	kernel.h
via_clock.c	olpc.h
via_clock.c	via-core.h
via_clock.c	via_clock.h
via_clock.h	types.h
via_i2c.c	delay.h
via_i2c.c	module.h
via_i2c.c	platform_device.h
via_i2c.c	spinlock.h
via_i2c.c	via-core.h
via_i2c.c	via_i2c.h
via_modesetting.c	debug.h
via_modesetting.c	kernel.h
via_modesetting.c	share.h
via_modesetting.c	via-core.h
via_modesetting.c	via_modesetting.h
via_modesetting.h	types.h
via_utility.c	global.h
via_utility.c	via-core.h
viafbdev.c	global.h
viafbdev.c	module.h
viafbdev.c	olpc.h
viafbdev.c	seq_file.h
viafbdev.c	slab.h
viafbdev.c	stat.h
viafbdev.c	via-core.h
viafbdev.c	via_i2c.h
viafbdev.h	chip.h
viafbdev.h	fb.h
viafbdev.h	hw.h
viafbdev.h	ioctl.h
viafbdev.h	proc_fs.h
viafbdev.h	share.h
viafbdev.h	spinlock.h
viafbdev.h	via_aux.h
viamode.c	global.h
viamode.c	via-core.h
viamode.h	global.h
video_cs5530.c	delay.h
video_cs5530.c	delay.h
video_cs5530.c	fb.h
video_cs5530.c	geodefb.h
video_cs5530.c	io.h
video_cs5530.c	video_cs5530.h
video_gx.c	cs5535.h
video_gx.c	delay.h
video_gx.c	delay.h
video_gx.c	fb.h
video_gx.c	gxfb.h
video_gx.c	io.h
video_gx.c	msr.h
vrfb.c	bitops.h
vrfb.c	io.h
vrfb.c	ioport.h
vrfb.c	kernel.h
vrfb.c	module.h
vrfb.c	mutex.h
vrfb.c	omapvrfb.h
vrfb.c	platform_device.h
vt1636.c	global.h
vt1636.c	via-core.h
vt1636.c	via_i2c.h
vt1636.h	chip.h
vt8500lcdfb.c	delay.h
vt8500lcdfb.c	dma-mapping.h
vt8500lcdfb.c	errno.h
vt8500lcdfb.c	fb.h
vt8500lcdfb.c	init.h
vt8500lcdfb.c	interrupt.h
vt8500lcdfb.c	io.h
vt8500lcdfb.c	kernel.h
vt8500lcdfb.c	memblock.h
vt8500lcdfb.c	mm.h
vt8500lcdfb.c	module.h
vt8500lcdfb.c	of.h
vt8500lcdfb.c	of_fdt.h
vt8500lcdfb.c	platform_device.h
vt8500lcdfb.c	slab.h
vt8500lcdfb.c	string.h
vt8500lcdfb.c	video-vt8500lcdfb.h
vt8500lcdfb.c	vt8500lcdfb.h
vt8500lcdfb.c	wait.h
vt8500lcdfb.c	wmt_ge_rops.h
vt8623fb.c	console.h
vt8623fb.c	delay.h
vt8623fb.c	errno.h
vt8623fb.c	fb.h
vt8623fb.c	init.h
vt8623fb.c	kernel.h
vt8623fb.c	mm.h
vt8623fb.c	module.h
vt8623fb.c	mtrr.h
vt8623fb.c	pci.h
vt8623fb.c	string.h
vt8623fb.c	svga.h
vt8623fb.c	tty.h
vt8623fb.c	vga.h
w100fb.c	delay.h
w100fb.c	fb.h
w100fb.c	init.h
w100fb.c	io.h
w100fb.c	kernel.h
w100fb.c	mm.h
w100fb.c	module.h
w100fb.c	platform_device.h
w100fb.c	slab.h
w100fb.c	string.h
w100fb.c	uaccess.h
w100fb.c	vmalloc.h
w100fb.c	w100fb.h
w100fb.c	w100fb.h
wm831x_bl.c	backlight.h
wm831x_bl.c	core.h
wm831x_bl.c	fb.h
wm831x_bl.c	init.h
wm831x_bl.c	kernel.h
wm831x_bl.c	module.h
wm831x_bl.c	pdata.h
wm831x_bl.c	platform_device.h
wm831x_bl.c	regulator.h
wm831x_bl.c	slab.h
wm8505fb.c	delay.h
wm8505fb.c	dma-mapping.h
wm8505fb.c	errno.h
wm8505fb.c	fb.h
wm8505fb.c	init.h
wm8505fb.c	interrupt.h
wm8505fb.c	io.h
wm8505fb.c	kernel.h
wm8505fb.c	memblock.h
wm8505fb.c	mm.h
wm8505fb.c	module.h
wm8505fb.c	of.h
wm8505fb.c	of_fdt.h
wm8505fb.c	platform_device.h
wm8505fb.c	slab.h
wm8505fb.c	string.h
wm8505fb.c	video-vt8500lcdfb.h
wm8505fb.c	wait.h
wm8505fb.c	wm8505fb_regs.h
wm8505fb.c	wmt_ge_rops.h
wmt_ge_rops.c	fb.h
wmt_ge_rops.c	fb_draw.h
wmt_ge_rops.c	module.h
wmt_ge_rops.c	platform_device.h
xen-fbfront.c	console.h
xen-fbfront.c	errno.h
xen-fbfront.c	events.h
xen-fbfront.c	fb.h
xen-fbfront.c	fbif.h
xen-fbfront.c	hypervisor.h
xen-fbfront.c	kernel.h
xen-fbfront.c	mm.h
xen-fbfront.c	module.h
xen-fbfront.c	page.h
xen-fbfront.c	protocols.h
xen-fbfront.c	slab.h
xen-fbfront.c	vmalloc.h
xen-fbfront.c	xen.h
xen-fbfront.c	xenbus.h
xilinxfb.c	dcr.h
xilinxfb.c	device.h
xilinxfb.c	dma-mapping.h
xilinxfb.c	errno.h
xilinxfb.c	fb.h
xilinxfb.c	init.h
xilinxfb.c	io.h
xilinxfb.c	kernel.h
xilinxfb.c	mm.h
xilinxfb.c	module.h
xilinxfb.c	of_address.h
xilinxfb.c	of_device.h
xilinxfb.c	of_platform.h
xilinxfb.c	slab.h
xilinxfb.c	string.h
xilinxfb.c	xilinxfb.h
