(@alignment),	<stdin>
(@enter()	<stdin>
(@min_io_size	<stdin>
(@prepare_late(),	<stdin>
(dhowells@redhat.com)	<stdin>
(dhowells@redhat.com)	<stdin>
(dhowells@redhat.com)	<stdin>
(dhowells@redhat.com)	<stdin>
(dhowells@redhat.com)	<stdin>
(dhowells@redhat.com)	<stdin>
(dhowells@redhat.com)	<stdin>
(gerg@snapgear.com)	<stdin>
(jonathan@buzzard.org.uk)	<stdin>
(mdharm-usb@one-eyed-alien.net)	<stdin>
(michael@linuxspecific.com)	<stdin>
(mvw@planets.elm.net)	<stdin>
(sfrench@us.ibm.com)	<stdin>
(tom.l.nguyen@intel.com)	<stdin>
(wang840925@gmail.com)	<stdin>
<74604.152@compuserve.com>	<stdin>
<D.Murphy@motorola.com>	<stdin>
<Hiroshi.DOYU@nokia.com>	<stdin>
<James.Bottomley@HansenPartnership.com>	<stdin>
<James.Bottomley@steeleye.com>	<stdin>
<Matt_Domsch@dell.com>	<stdin>
<a.gruenbacher@computer.org>	<stdin>
<acme@conectiva.com.br>	<stdin>
<acme@conectiva.com.br>	<stdin>
<acme@conectiva.com.br>	<stdin>
<agx@sigxcpu.org>	<stdin>
<alan@lxorguk.ukuu.org.uk>	<stdin>
<ambx1@neo.rr.com>	<stdin>
<amit.kachhap@linaro.org>	<stdin>
<aris@cathedrallabs.org>	<stdin>
<avorontsov@ru.mvista.com>	<stdin>
<bdschuym@pandora.be>	<stdin>
<becker@super.org>	<stdin>
<ben@simtec.co.uk>	<stdin>
<ben@simtec.co.uk>	<stdin>
<ben@simtec.co.uk>	<stdin>
<bill@thedirks.org>	<stdin>
<bjorn.helgaas@hp.com>	<stdin>
<bof@bof.de>	<stdin>
<calle@calle.de>	<stdin>
<calle@calle.de>	<stdin>
<cbouatmailru@gmail.com>	<stdin>
<cel@netapp.com>	<stdin>
<dahinds@users.sourceforge.net>.	<stdin>
<davidel@xmailserver.org>	<stdin>
<dg77.kim@samsung.com>	<stdin>
<dvelarde@us.ibm.com>	<stdin>
<dwalker@mvista.com>	<stdin>
<dwmw2@infradead.org>	<stdin>
<dwmw2@infradead.org>	<stdin>
<dwmw2@infradead.org>	<stdin>
<dwmw2@infradead.org>	<stdin>
<dwmw2@infradead.org>	<stdin>
<dwmw2@infradead.org>	<stdin>
<dwmw2@infradead.org>	<stdin>
<dwmw2@infradead.org>	<stdin>
<dwmw2@infradead.org>	<stdin>
<dwmw2@infradead.org>	<stdin>
<dwmw2@infradead.org>	<stdin>
<eparis@redhat.com>	<stdin>
<eranian@hpl.hp.com>	<stdin>
<etienne.basset@ensta.org>	<stdin>
<etienne.basset@ensta.org>	<stdin>
<fisaksen@bewan.com>	<stdin>
<frodol@dds.nl>	<stdin>
<g.liakhovetski@gmx.de>	<stdin>
<galak@kernel.crashing.org>	<stdin>
<gandalf@wlug.westbo.se>	<stdin>
<genek@compuserve.com>	<stdin>
<genek@compuserve.com>	<stdin>
<gerg@snapgear.com>	<stdin>
<gozem@linux.nu>	<stdin>
<greg@kroah.com>	<stdin>
<gregkh@suse.de>	<stdin>
<gw4pts@gw4pts.ampr.org>	<stdin>
<gw7rrm@eeshack3.swan.ac.uk>	<stdin>
<hverkuil@xs4all.nl>	<stdin>
<inaky.perez-gonzalez@intel.com>	<stdin>
<inaky.perez-gonzalez@intel.com>	<stdin>
<inaky.perez-gonzalez@intel.com>.	<stdin>
<ivan.djelic@parrot.com>	<stdin>
<iwamatsu.nobuhiro@renesas.com>	<stdin>
<jbaron@redhat.com>	<stdin>
<jeremy.kerr@canonical.com>	<stdin>
<jeremy.kerr@canonical.com>	<stdin>
<jim.cromie@gmail.com>	<stdin>
<jmorris@redhat.com>	<stdin>
<jpirko@redhat.com>	<stdin>
<jt@hpl.hp.com>	<stdin>
<juergen@monocerus.demon.co.uk>	<stdin>
<juha.yrjola@nokia.com>	<stdin>
<kadlec@blackhole.kfki.hu>	<stdin>
<kadlec@blackhole.kfki.hu>	<stdin>
<kai.germaschewski@gmx.de>	<stdin>
<kees.cook@canonical.com>	<stdin>
<keescook@chromium.org>	<stdin>
<keil@b1-systems.de>	<stdin>
<keithp@keithp.com>	<stdin>
<ketuzsezr@darnok.org>	<stdin>
<kjhall@us.ibm.com>	<stdin>
<kkeil@novell.com>	<stdin>
<kkeil@novell.com>	<stdin>
<klemets@it.kth.se>	<stdin>
<kmalkki@cc.hut.fi>	<stdin>
<konradr@linux.vnet.ibm.com>	<stdin>
<kyungmin.park@samsung.com>	<stdin>
<kyungmin.park@samsung.com>	<stdin>
<kyungmin.park@samsung.com>	<stdin>
<lee.jones@linaro.org>	<stdin>
<leendert@watson.ibm.com>	<stdin>
<levinsasha928@gmail.com>	<stdin>
<lockwood@android.com>	<stdin>
<m.szyprowski@samsung.com>	<stdin>
<marco.stornelli@gmail.com>	<stdin>
<mattias.wallin@stericsson.com>	<stdin>
<max_mk@yahoo.com>	<stdin>
<mgross@linux.intel.com>	<stdin>
<micah@navi.cx>)	<stdin>
<mina86@mina86.com>	<stdin>
<mingo@redhat.com>	<stdin>
<minyard@mvista.com>	<stdin>
<mk7.kang@samsung.com>	<stdin>
<mochel@osdl.org>	<stdin>
<mochel@osdl.org>	<stdin>
<mporter@kernel.crashing.org>	<stdin>
<mturquette@linaro.org>	<stdin>
<mturquette@linaro.org>	<stdin>
<mturquette@linaro.org>	<stdin>
<mvw@planets.elm.net>	<stdin>
<myungjoo.ham@samsung.com>	<stdin>
<nico@fluxnic.net>	<stdin>
<oakad@yahoo.com>	<stdin>
<okir@monad.swb.de>	<stdin>
<okir@monad.swb.de>	<stdin>
<okir@monad.swb.de>	<stdin>
<okir@monad.swb.de>	<stdin>
<oleg@tv-sign.ru>	<stdin>
<oskar@scara.com>	<stdin>
<paul.s.diefenbaugh@intel.com>	<stdin>
<pavan_savoy@ti.com>	<stdin>
<peppe.cavallaro@st.com>	<stdin>
<pjones@redhat.com>	<stdin>
<pzijlstr@redhat.com>	<stdin>
<raisch@de.ibm.com>	<stdin>
<rjw@sisk.pl>	<stdin>
<rjw@sisk.pl>,	<stdin>
<rkaiser@sysgo.de>	<stdin>
<rongkai.zhan@windriver.com>	<stdin>
<roque@di.fc.ul.pt>	<stdin>
<rzsfl@rz.uni-sb.de>	<stdin>
<safford@watson.ibm.com>	<stdin>
<sailer@watson.ibm.com>	<stdin>
<sct@redhat.com>	<stdin>
<sds@epoch.ncsc.mil>	<stdin>
<shiraz.hashim@st.com>	<stdin>
<shreshthakumar.sahu@stericsson.com>	<stdin>
<sjhill@realitydiluted.com>	<stdin>
<sjhill@realitydiluted.com>	<stdin>
<source@mvista.com>	<stdin>
<stefani@lkg.dec.com>	<stdin>
<stud11@cc4.kuleuven.ac.be>	<stdin>
<tglx@linutronix.de>	<stdin>
<tglx@linutronix.de>	<stdin>
<tglx@linutronix.de>	<stdin>
<tglx@linutronix.de>	<stdin>
<tglx@linuxtronix.de>	<stdin>
<themann@de.ibm.com>	<stdin>
<tomita@cinet.co.jp>	<stdin>
<tpmdd_devel@lists.sourceforge.net>	<stdin>
<vbordug@ru.mvista.com>	<stdin>
<vince@simtec.co.uk>	<stdin>
<vipin.kumar@st.com>	<stdin>
<vojtech@suse.cz>,	<stdin>
<waltje@uWalt.NL.Mugnet.ORG>	<stdin>
<wolfgang@iksw-muees.de>	<stdin>
<ying.huang@intel.com>	<stdin>
<zaitcev@redhat.com>	<stdin>
<zhaojingmin@users.sourceforge.net>	<stdin>
<zhaojingmin@users.sourceforge.net>	<stdin>
<zohar@us.ibm.com>	<stdin>
@...:	<stdin>
@BlockEraseTime	<stdin>
@BufSizeShift	<stdin>
@DevId	<stdin>
@DevSizeShift	<stdin>
@HWPartsNum	<stdin>
@IO_ADDR_R:	<stdin>
@IO_ADDR_W:	<stdin>
@ManufactId	<stdin>
@ProgBufferTime	<stdin>
@RINGBUF_TYPE_DATA_TYPE_LEN_MAX:	<stdin>
@RINGBUF_TYPE_PADDING:	<stdin>
@RINGBUF_TYPE_TIME_EXTEND:	<stdin>
@RINGBUF_TYPE_TIME_STAMP:	<stdin>
@RPROC_CRASHED:	<stdin>
@RPROC_LAST	<stdin>
@RPROC_LAST:	<stdin>
@RPROC_MMUFAULT:	<stdin>
@RPROC_OFFLINE:	<stdin>
@RPROC_RUNNING:	<stdin>
@RPROC_SUSPENDED:	<stdin>
@RSC_CARVEOUT:	<stdin>
@RSC_DEVMEM:	<stdin>
@RSC_LAST	<stdin>
@RSC_LAST:	<stdin>
@RSC_TRACE:	<stdin>
@RSC_VDEV:	<stdin>
@SingleWordProgTime	<stdin>
@SuspEraseSupp	<stdin>
@TotalBlocksNum	<stdin>
@UBI_VOLUME_ADDED:	<stdin>
@UBI_VOLUME_REMOVED:	<stdin>
@UBI_VOLUME_RENAMED:	<stdin>
@UBI_VOLUME_RESIZED:	<stdin>
@UBI_VOLUME_UPDATED:	<stdin>
@UniformBlockSizeShift	<stdin>
@__driver:	<stdin>
@__prio:	<stdin>
@__register:	<stdin>
@__serio_driver:	<stdin>
@__unregister:	<stdin>
@_skb_refdst:	<stdin>
@acked:	<stdin>
@acpi_match_table:	<stdin>
@acpi_node:	<stdin>
@action:	<stdin>
@action:	<stdin>
@active:	<stdin>
@active:	<stdin>
@active_count:	<stdin>
@add_dev:	<stdin>
@add_entry:	<stdin>
@add_inb_buffer:	<stdin>
@add_outb_message:	<stdin>
@addend:	<stdin>
@addr	<stdin>
@addr	<stdin>
@addr	<stdin>
@addr	<stdin>
@addr:	<stdin>
@alias:	<stdin>
@alias_dev_name:	<stdin>
@align:	<stdin>
@align:	<stdin>
@alignment),	<stdin>
@alignment:	<stdin>
@als1_resistor_sel:	<stdin>
@als2_resistor_sel:	<stdin>
@als_avrg_time:	<stdin>
@als_input_mode:	<stdin>
@als_vmax:	<stdin>
@als_vmin:	<stdin>
@ap	<stdin>
@ap:	<stdin>
@ap:	<stdin>
@archdata:	<stdin>
@asm_did:	<stdin>
@asm_did:	<stdin>
@asm_rev:	<stdin>
@asm_vid:	<stdin>
@asm_vid:	<stdin>
@attr:	<stdin>
@attr:	<stdin>
@attr_g:	<stdin>
@attr_name:	<stdin>
@attr_state:	<stdin>
@attrs:	<stdin>
@attrs:	<stdin>
@attrs:	<stdin>
@axis_x:	<stdin>
@axis_y:	<stdin>
@axis_z:	<stdin>
@badblock_pattern:	<stdin>
@badblock_pattern:	<stdin>
@badblockbits:	<stdin>
@badblockpos:	<stdin>
@badblockpos:	<stdin>
@bank:	<stdin>
@bar:	<stdin>
@base:	<stdin>
@baud_rate:	<stdin>
@bbm:	<stdin>
@bbt:	<stdin>
@bbt:	<stdin>
@bbt_erase_shift:	<stdin>
@bbt_erase_shift:	<stdin>
@bbt_md:	<stdin>
@bbt_options:	<stdin>
@bbt_options:	<stdin>
@bbt_td:	<stdin>
@bbt_wait:	<stdin>
@begin()	<stdin>
@begin()	<stdin>
@begin()	<stdin>
@begin()	<stdin>
@begin()	<stdin>
@begin()	<stdin>
@begin().	<stdin>
@begin().	<stdin>
@begin().	<stdin>
@begin:	<stdin>
@begin:	<stdin>
@bit:	<stdin>
@bit:	<stdin>
@bit_idx:	<stdin>
@bits:	<stdin>
@bkt:	<stdin>
@bkt:	<stdin>
@bkt:	<stdin>
@block_bad:	<stdin>
@block_markbad:	<stdin>
@block_markbad:	<stdin>
@blockpage:	<stdin>
@bootaddr:	<stdin>
@boundary:	<stdin>
@bridge:	<stdin>
@bridge_list:	<stdin>
@brt_ramp_fall:	<stdin>
@brt_ramp_law:	<stdin>
@brt_ramp_rise:	<stdin>
@brt_val:	<stdin>
@bufferram:	<stdin>
@bufferram_index:	<stdin>
@buffers:	<stdin>
@bus:	<stdin>
@bus:	<stdin>
@bus_attrs:	<stdin>
@bus_id:	<stdin>
@bus_name:	<stdin>
@bytes:	<stdin>
@bytes_per_line:	<stdin>
@cable_index:	<stdin>
@cable_index:	<stdin>
@cables:	<stdin>
@cache:	<stdin>
@calculate:	<stdin>
@cap_id:	<stdin>
@cap_id:	<stdin>
@carveouts:	<stdin>
@cb:	<stdin>
@cctl_memcpy:	<stdin>
@cdev:	<stdin>
@cdev:	<stdin>
@cdev:	<stdin>
@cellinfo:	<stdin>
@channels:	<stdin>
@child	<stdin>
@child.	<stdin>
@child:	<stdin>
@chip:	<stdin>
@chip_asleep:	<stdin>
@chip_awake:	<stdin>
@chip_delay:	<stdin>
@chip_delay:	<stdin>
@chip_disable:	<stdin>
@chip_enable:	<stdin>
@chip_lock:	<stdin>
@chip_offset:	<stdin>
@chip_probe:	<stdin>
@chip_shift:	<stdin>
@chips	<stdin>
@chipshift	<stdin>
@chipsize:	<stdin>
@chipsize:	<stdin>
@chipsize:	<stdin>
@chnl_id:	<stdin>
@class:	<stdin>
@class_attrs:	<stdin>
@class_release:	<stdin>
@cleanup:	<stdin>
@click_flags:	<stdin>
@click_latency:	<stdin>
@click_thresh_x:	<stdin>
@click_thresh_y:	<stdin>
@click_thresh_z:	<stdin>
@click_time_limit:	<stdin>
@click_window:	<stdin>
@clip_cpus:	<stdin>
@clk	<stdin>
@clk	<stdin>
@clk.	<stdin>
@clk:	<stdin>
@clk:	<stdin>
@clk:	<stdin>
@clk:	<stdin>
@clk:	<stdin>
@clk:	<stdin>
@clk:	<stdin>
@clk:	<stdin>
@clk:	<stdin>
@clk:	<stdin>
@clk:	<stdin>
@clk:	<stdin>
@clk:	<stdin>
@clk:	<stdin>
@clk:	<stdin>
@clk:	<stdin>
@clock	<stdin>
@cloned:	<stdin>
@close_inb_mbox:	<stdin>
@close_outb_mbox:	<stdin>
@clr_table:	<stdin>
@cmd:	<stdin>
@cmd:	<stdin>
@cmd_ctrl:	<stdin>
@cmd_ctrl:	<stdin>
@cmdfunc:	<stdin>
@code	<stdin>
@code:	<stdin>
@code:	<stdin>
@coherent_dma_mask:	<stdin>
@command:	<stdin>
@comp_tag:	<stdin>
@con_id	<stdin>
@con_id:	<stdin>
@condition	<stdin>
@condition	<stdin>
@condition	<stdin>
@condition	<stdin>
@condition	<stdin>
@condition	<stdin>
@condition	<stdin>
@condition	<stdin>
@condition	<stdin>
@condition	<stdin>
@condition	<stdin>
@condition	<stdin>
@condition	<stdin>
@condition	<stdin>
@condition	<stdin>
@condition	<stdin>
@condition	<stdin>
@condition	<stdin>
@condition	<stdin>
@condition	<stdin>
@condition	<stdin>
@condition	<stdin>
@condition	<stdin>
@condition	<stdin>
@condition	<stdin>
@condition	<stdin>
@condition	<stdin>
@condition	<stdin>
@condition	<stdin>
@condition	<stdin>
@condition	<stdin>
@condition	<stdin>
@condition	<stdin>
@condition	<stdin>
@condition	<stdin>
@condition	<stdin>
@condition	<stdin>
@condition	<stdin>
@condition:	<stdin>
@condition:	<stdin>
@condition:	<stdin>
@condition:	<stdin>
@condition:	<stdin>
@condition:	<stdin>
@condition:	<stdin>
@condition:	<stdin>
@condition:	<stdin>
@condition:	<stdin>
@condition:	<stdin>
@condition:	<stdin>
@condition:	<stdin>
@config_len	<stdin>
@config_len.	<stdin>
@context:	<stdin>
@context:	<stdin>
@controller:	<stdin>
@cookie:	<stdin>
@cookie:	<stdin>
@cookie:	<stdin>
@cookie:	<stdin>
@cookie:	<stdin>
@cookie:	<stdin>
@cookie:	<stdin>
@cookie:	<stdin>
@cookie:	<stdin>
@cookie:	<stdin>
@cookie:	<stdin>
@cookie:	<stdin>
@cookie:	<stdin>
@cookie:	<stdin>
@cookie:	<stdin>
@cookie:	<stdin>
@cookie:	<stdin>
@core_data:	<stdin>
@correct:	<stdin>
@corrupted	<stdin>
@corrupted	<stdin>
@corrupted	<stdin>
@corrupted	<stdin>
@corrupted:	<stdin>
@count	<stdin>
@count:	<stdin>
@counter_width:	<stdin>
@cpu:	<stdin>
@cpus:	<stdin>
@cpus:	<stdin>
@crash_cnt:	<stdin>
@crash_comp:	<stdin>
@crash_handler:	<stdin>
@cread:	<stdin>
@csum:	<stdin>
@csum_offset:	<stdin>
@csum_start:	<stdin>
@ctrl:	<stdin>
@current	<stdin>
@cwrite:	<stdin>
@da	<stdin>
@da	<stdin>
@da	<stdin>
@da	<stdin>
@da	<stdin>
@da	<stdin>
@da	<stdin>
@da:	<stdin>
@da:	<stdin>
@da:	<stdin>
@da:	<stdin>
@da:	<stdin>
@da:	<stdin>
@data:	<stdin>
@data:	<stdin>
@data:	<stdin>
@data:	<stdin>
@data:	<stdin>
@data_len:	<stdin>
@data_present:	<stdin>
@data_read:	<stdin>
@databuf:	<stdin>
@datbuf:	<stdin>
@dbells:	<stdin>
@dbg_dir:	<stdin>
@dccps_awh	<stdin>
@dccps_awl	<stdin>
@dccps_featneg	<stdin>
@dccps_gar	<stdin>
@dccps_gsr	<stdin>
@dccps_gss	<stdin>
@dccps_hc_rx_ackvec	<stdin>
@dccps_hc_rx_ccid	<stdin>
@dccps_hc_rx_insert_options	<stdin>
@dccps_hc_tx_ccid	<stdin>
@dccps_hc_tx_insert_options	<stdin>
@dccps_isr	<stdin>
@dccps_iss	<stdin>
@dccps_l_ack_ratio	<stdin>
@dccps_l_seq_win	<stdin>
@dccps_mss_cache	<stdin>
@dccps_ndp_count	<stdin>
@dccps_options_received	<stdin>
@dccps_osr	<stdin>
@dccps_pcrlen	<stdin>
@dccps_pcslen	<stdin>
@dccps_qpolicy	<stdin>
@dccps_r_ack_ratio	<stdin>
@dccps_r_seq_win	<stdin>
@dccps_rate_last	<stdin>
@dccps_role	<stdin>
@dccps_send_ndp_count	<stdin>
@dccps_server_timewait	<stdin>
@dccps_service	<stdin>
@dccps_service_list	<stdin>
@dccps_swh	<stdin>
@dccps_swl	<stdin>
@dccps_syn_rtt	<stdin>
@dccps_sync_scheduled	<stdin>
@dccps_timestamp_echo	<stdin>
@dccps_timestamp_echo	<stdin>
@dccps_timestamp_time	<stdin>
@dccps_tx_qlen	<stdin>
@dccps_xmit_timer	<stdin>
@dccps_xmitlet	<stdin>
@def:	<stdin>
@default_rate:	<stdin>
@del_vqs:	<stdin>
@density_mask:	<stdin>
@desc	<stdin>
@descriptor_elements:	<stdin>
@descriptors:	<stdin>
@destid:	<stdin>
@destid_table:	<stdin>
@destructor:	<stdin>
@dev	<stdin>
@dev	<stdin>
@dev	<stdin>
@dev,	<stdin>
@dev,	<stdin>
@dev.)	<stdin>
@dev.)	<stdin>
@dev:	<stdin>
@dev:	<stdin>
@dev:	<stdin>
@dev:	<stdin>
@dev:	<stdin>
@dev:	<stdin>
@dev:	<stdin>
@dev:	<stdin>
@dev:	<stdin>
@dev:	<stdin>
@dev:	<stdin>
@dev:	<stdin>
@dev:	<stdin>
@dev:	<stdin>
@dev:	<stdin>
@dev_attrs:	<stdin>
@dev_attrs:	<stdin>
@dev_bin_attrs:	<stdin>
@dev_id	<stdin>
@dev_id:	<stdin>
@dev_id:	<stdin>
@dev_kobj:	<stdin>
@dev_name:	<stdin>
@dev_name:	<stdin>
@dev_ready:	<stdin>
@dev_ready:	<stdin>
@dev_release:	<stdin>
@dev_root:	<stdin>
@dev_uevent:	<stdin>
@device.	<stdin>
@device_id:	<stdin>
@device_rev:	<stdin>
@devices:	<stdin>
@devices:	<stdin>
@devnode:	<stdin>
@devres_head:	<stdin>
@devres_lock:	<stdin>
@devt:	<stdin>
@dfeatures	<stdin>
@dfeatures:	<stdin>
@di:	<stdin>
@did:	<stdin>
@did:	<stdin>
@did:	<stdin>
@dies:	<stdin>
@diesize:	<stdin>
@dinb:	<stdin>
@dir:	<stdin>
@disable:	<stdin>
@disable_unused:	<stdin>
@div:	<stdin>
@dma:	<stdin>
@dma:	<stdin>
@dma:	<stdin>
@dma_cookie:	<stdin>
@dma_mask:	<stdin>
@dma_mask:	<stdin>
@dma_mem:	<stdin>
@dma_parms:	<stdin>
@dma_pools:	<stdin>
@domain:	<stdin>
@dpmbase	<stdin>
@dpmsize	<stdin>
@dreq_featneg:	<stdin>
@dreq_gsr:	<stdin>
@dreq_gss:	<stdin>
@dreq_inet_rsk:	<stdin>
@dreq_isr:	<stdin>
@dreq_iss:	<stdin>
@dreq_service:	<stdin>
@dreq_timestamp_echo	<stdin>
@dreq_timestamp_echo:	<stdin>
@dreq_timestamp_echo:	<stdin>
@driver:	<stdin>
@driver:	<stdin>
@driver:	<stdin>
@driver_features:	<stdin>
@dropcount:	<stdin>
@drv_attrs:	<stdin>
@drv_list:	<stdin>
@dsend:	<stdin>
@dst:	<stdin>
@dst_ops:	<stdin>
@duration1:	<stdin>
@duration2:	<stdin>
@ecc:	<stdin>
@ecccalc:	<stdin>
@ecccode:	<stdin>
@ecclayout:	<stdin>
@ecclayout:	<stdin>
@ecclayout:	<stdin>
@edev:	<stdin>
@edev:	<stdin>
@efptr:	<stdin>
@em_efptr:	<stdin>
@em_handle:	<stdin>
@em_init:	<stdin>
@enable:	<stdin>
@enable_wake:	<stdin>
@end()	<stdin>
@end()	<stdin>
@end:	<stdin>
@end:	<stdin>
@end:	<stdin>
@end_io_func:	<stdin>
@end_io_func:	<stdin>
@enter()	<stdin>
@enter()	<stdin>
@enter()	<stdin>
@enter(),	<stdin>
@enter(),	<stdin>
@enter().	<stdin>
@enter:	<stdin>
@enter:	<stdin>
@entry:	<stdin>
@entry:	<stdin>
@entryinfo:	<stdin>
@entryinfo:	<stdin>
@erase_cmd:	<stdin>
@erase_shift:	<stdin>
@erasesize:	<stdin>
@error:	<stdin>
@errstat:	<stdin>
@event	<stdin>
@event	<stdin>
@event	<stdin>
@event	<stdin>
@event:	<stdin>
@event:	<stdin>
@event_count:	<stdin>
@expire_count:	<stdin>
@extcon_dev_type:	<stdin>
@f'th	<stdin>
@f'th	<stdin>
@f'th	<stdin>
@f:	<stdin>
@f:	<stdin>
@f:	<stdin>
@family:	<stdin>
@fbit:	<stdin>
@fbit:	<stdin>
@fclone:	<stdin>
@finalize_features:	<stdin>
@find_vqs:	<stdin>
@finish	<stdin>
@finish()	<stdin>
@finish:	<stdin>
@finish:	<stdin>
@firmware:	<stdin>
@firmware_loading_complete:	<stdin>
@fixed_rate:	<stdin>
@flags	<stdin>
@flags	<stdin>
@flags	<stdin>
@flags	<stdin>
@flags	<stdin>
@flags:	<stdin>
@flags:	<stdin>
@flags:	<stdin>
@flags:	<stdin>
@flags:	<stdin>
@flow_cntrl:	<stdin>
@fn	<stdin>
@fn()	<stdin>
@fn()	<stdin>
@fn()	<stdin>
@fn()	<stdin>
@fn:	<stdin>
@fn:	<stdin>
@frag	<stdin>
@frag	<stdin>
@frag.	<stdin>
@frag.	<stdin>
@frag.	<stdin>
@frag.	<stdin>
@frag.	<stdin>
@frag:	<stdin>
@frag:	<stdin>
@frag:	<stdin>
@frag:	<stdin>
@frag:	<stdin>
@frag:	<stdin>
@frag:	<stdin>
@fragoff:	<stdin>
@frags:	<stdin>
@fw_entry:	<stdin>
@fw_ops:	<stdin>
@fwid	<stdin>
@get:	<stdin>
@get_domain:	<stdin>
@get_entry:	<stdin>
@get_features:	<stdin>
@get_inb_message:	<stdin>
@get_parent:	<stdin>
@get_signal:	<stdin>
@get_status:	<stdin>
@gfeatures	<stdin>
@gfeatures:	<stdin>
@gfp:	<stdin>
@gfp:	<stdin>
@gfp:	<stdin>
@gfp:	<stdin>
@gfp:	<stdin>
@gfp_mask:	<stdin>
@gfp_mask:	<stdin>
@gfp_mask:	<stdin>
@global_list:	<stdin>
@gpio_base	<stdin>
@groups:	<stdin>
@groups:	<stdin>
@h:	<stdin>
@h_aborted:	<stdin>
@h_buffer_credits:	<stdin>
@h_err:	<stdin>
@h_jdata:	<stdin>
@h_ref:	<stdin>
@h_sync:	<stdin>
@h_transaction:	<stdin>
@has_timeout:	<stdin>
@hashtable:	<stdin>
@hashtable:	<stdin>
@hashtable:	<stdin>
@hashtable:	<stdin>
@hdr_flags:	<stdin>
@hdr_len:	<stdin>
@hdr_len:	<stdin>
@head	<stdin>
@head.	<stdin>
@head:	<stdin>
@head:	<stdin>
@head:	<stdin>
@head:	<stdin>
@head:	<stdin>
@head:	<stdin>
@head:	<stdin>
@head:	<stdin>
@head:	<stdin>
@head:	<stdin>
@head:	<stdin>
@head:	<stdin>
@head:	<stdin>
@head:	<stdin>
@head:	<stdin>
@head:	<stdin>
@head:	<stdin>
@head:	<stdin>
@head:	<stdin>
@head:	<stdin>
@head:	<stdin>
@head:	<stdin>
@head:	<stdin>
@head:	<stdin>
@headroom	<stdin>
@headroom:	<stdin>
@headroom:	<stdin>
@highest_zoneidx	<stdin>
@highest_zoneidx	<stdin>
@highidx	<stdin>
@highidx	<stdin>
@hipass_ctrl:	<stdin>
@hook:	<stdin>
@hook_mask:	<stdin>
@hopcount:	<stdin>
@host_deviceid:	<stdin>
@hotdrop:	<stdin>
@hport:	<stdin>
@hugetlb_entry	<stdin>
@hugetlb_entry:	<stdin>
@hw:	<stdin>
@hw:	<stdin>
@hw:	<stdin>
@hw:	<stdin>
@hw:	<stdin>
@hw:	<stdin>
@hwcontrol:	<stdin>
@hwcontrol:	<stdin>
@hwctl:	<stdin>
@hwtstamp:	<stdin>
@hwtstamps:	<stdin>
@hwtstamps:	<stdin>
@i	<stdin>
@i'th	<stdin>
@i'th	<stdin>
@i:	<stdin>
@i:	<stdin>
@i_size:	<stdin>
@i_size:	<stdin>
@id	<stdin>
@id	<stdin>
@id	<stdin>
@id	<stdin>
@id:	<stdin>
@id:	<stdin>
@id:	<stdin>
@id:	<stdin>
@id:	<stdin>
@id:	<stdin>
@id:	<stdin>
@id:	<stdin>
@id:	<stdin>
@id:	<stdin>
@id_data	<stdin>
@id_str	<stdin>
@id_table:	<stdin>
@in:	<stdin>
@inb_msg:	<stdin>
@index:	<stdin>
@index:	<stdin>
@index:	<stdin>
@index:	<stdin>
@index:	<stdin>
@info	<stdin>
@info:	<stdin>
@info:	<stdin>
@info:	<stdin>
@init:	<stdin>
@init:	<stdin>
@init_hook:	<stdin>
@init_name:	<stdin>
@init_size:	<stdin>
@inner_network_header:	<stdin>
@inner_transport_header:	<stdin>
@inode:	<stdin>
@internal_nb:	<stdin>
@iomem:	<stdin>
@iommu_ops:	<stdin>
@iores:	<stdin>
@ip_summed:	<stdin>
@ipvs_property:	<stdin>
@irq	<stdin>
@irq	<stdin>
@irq2:	<stdin>
@irq:	<stdin>
@irq:	<stdin>
@irq_base	<stdin>
@irq_cfg:	<stdin>
@irq_flags1:	<stdin>
@irq_flags2:	<stdin>
@is_enabled:	<stdin>
@isbad_bbt:	<stdin>
@j_barrier:	<stdin>
@j_barrier_count:	<stdin>
@j_blk_offset:	<stdin>
@j_blocksize:	<stdin>
@j_checkpoint_mutex:	<stdin>
@j_checkpoint_transactions:	<stdin>
@j_commit_interval:	<stdin>
@j_commit_request:	<stdin>
@j_commit_sequence:	<stdin>
@j_commit_timer:	<stdin>
@j_committing_transaction:	<stdin>
@j_dev:	<stdin>
@j_errno:	<stdin>
@j_first:	<stdin>
@j_flags:	<stdin>
@j_format_version:	<stdin>
@j_free:	<stdin>
@j_fs_dev:	<stdin>
@j_head:	<stdin>
@j_history:	<stdin>
@j_history_cur:	<stdin>
@j_history_lock:	<stdin>
@j_history_max:	<stdin>
@j_inode:	<stdin>
@j_last:	<stdin>
@j_last_sync_writer:	<stdin>
@j_list_lock:	<stdin>
@j_max_transaction_buffers:	<stdin>
@j_maxlen:	<stdin>
@j_private:	<stdin>
@j_proc_entry:	<stdin>
@j_revoke:	<stdin>
@j_revoke_lock:	<stdin>
@j_revoke_table:	<stdin>
@j_running_transaction:	<stdin>
@j_sb_buffer:	<stdin>
@j_state_lock:	<stdin>
@j_stats:	<stdin>
@j_superblock:	<stdin>
@j_tail:	<stdin>
@j_tail_sequence:	<stdin>
@j_task:	<stdin>
@j_transaction_sequence:	<stdin>
@j_uuid:	<stdin>
@j_wait_checkpoint:	<stdin>
@j_wait_commit:	<stdin>
@j_wait_done_commit:	<stdin>
@j_wait_logspace:	<stdin>
@j_wait_transaction_locked:	<stdin>
@j_wait_updates:	<stdin>
@j_wbuf:	<stdin>
@j_wbufsize:	<stdin>
@ka:	<stdin>
@key:	<stdin>
@key:	<stdin>
@key:	<stdin>
@key:	<stdin>
@key:	<stdin>
@kick:	<stdin>
@kim_data:	<stdin>
@kim_pdev:	<stdin>
@kim_rcvd:	<stdin>
@knode_class:	<stdin>
@kobj:	<stdin>
@kref:	<stdin>
@kref:	<stdin>
@kref:	<stdin>
@kref:	<stdin>
@kref:	<stdin>
@l4_rxhash:	<stdin>
@last_time:	<stdin>
@layout:	<stdin>
@lcread:	<stdin>
@lcwrite:	<stdin>
@ldisc_installed:	<stdin>
@leave:	<stdin>
@leb_size	<stdin>
@leb_size:	<stdin>
@leb_start:	<stdin>
@len	<stdin>
@len	<stdin>
@len:	<stdin>
@len:	<stdin>
@len:	<stdin>
@len:	<stdin>
@len:	<stdin>
@len:	<stdin>
@len:	<stdin>
@len:	<stdin>
@len:	<stdin>
@len:	<stdin>
@len:	<stdin>
@len:	<stdin>
@len:	<stdin>
@len:	<stdin>
@len:	<stdin>
@len_size:	<stdin>
@length:	<stdin>
@link	<stdin>
@link	<stdin>
@link	<stdin>
@link	<stdin>
@link	<stdin>
@link.	<stdin>
@link:	<stdin>
@list	<stdin>
@list	<stdin>
@list	<stdin>
@list	<stdin>
@list:	<stdin>
@list:	<stdin>
@list:	<stdin>
@list:	<stdin>
@list:	<stdin>
@list:	<stdin>
@list:	<stdin>
@list:	<stdin>
@list:	<stdin>
@list:	<stdin>
@list:	<stdin>
@list:	<stdin>
@list:	<stdin>
@list:	<stdin>
@list:	<stdin>
@list:	<stdin>
@list:	<stdin>
@list:	<stdin>
@list_:	<stdin>
@list_:	<stdin>
@list_:	<stdin>
@list_:	<stdin>
@ll_state:	<stdin>
@lli_buses:	<stdin>
@locaddr	<stdin>
@local_df:	<stdin>
@lock:	<stdin>
@lock:	<stdin>
@lock:	<stdin>
@lock:	<stdin>
@lock:	<stdin>
@lock:	<stdin>
@lock:	<stdin>
@lock:	<stdin>
@lock:	<stdin>
@lock:	<stdin>
@lock:	<stdin>
@lock:	<stdin>
@lro_mgr:	<stdin>
@lro_mgr:	<stdin>
@m:	<stdin>
@mac_header:	<stdin>
@mac_len:	<stdin>
@major	<stdin>
@major	<stdin>
@map_inb:	<stdin>
@mapping:	<stdin>
@mappings:	<stdin>
@mark:	<stdin>
@match:	<stdin>
@match:	<stdin>
@match:	<stdin>
@match:	<stdin>
@match_data:	<stdin>
@match_packet:	<stdin>
@matchinfo:	<stdin>
@matchinfo:	<stdin>
@max:	<stdin>
@max_current:	<stdin>
@max_frame_size:	<stdin>
@max_notifyid:	<stdin>
@max_signal:	<stdin>
@max_supported:	<stdin>
@max_time:	<stdin>
@max_write_size	<stdin>
@max_write_size	<stdin>
@max_write_size	<stdin>
@max_write_size	<stdin>
@max_write_size	<stdin>
@max_write_size:	<stdin>
@maxblocks:	<stdin>
@mcback:	<stdin>
@mem:	<stdin>
@mem_address	<stdin>
@mem_buses:	<stdin>
@mem_size	<stdin>
@member:	<stdin>
@member:	<stdin>
@member:	<stdin>
@member:	<stdin>
@member:	<stdin>
@member:	<stdin>
@member:	<stdin>
@member:	<stdin>
@member:	<stdin>
@member:	<stdin>
@member:	<stdin>
@member:	<stdin>
@member:	<stdin>
@member:	<stdin>
@member:	<stdin>
@member:	<stdin>
@member:	<stdin>
@member:	<stdin>
@message	<stdin>
@message:	<stdin>
@min_io_size	<stdin>
@min_io_size	<stdin>
@min_io_size	<stdin>
@min_io_size.	<stdin>
@min_io_size.	<stdin>
@min_io_size:	<stdin>
@min_signal:	<stdin>
@mmcontrol:	<stdin>
@mod_name:	<stdin>
@mode.	<stdin>
@mode:	<stdin>
@mode:	<stdin>
@mode:	<stdin>
@mode:	<stdin>
@mode:	<stdin>
@movableflags:	<stdin>
@mports:	<stdin>
@mult:	<stdin>
@mutex:	<stdin>
@mutex:	<stdin>
@mutually_exclusive:	<stdin>
@muxval:	<stdin>
@n	<stdin>
@n	<stdin>
@n	<stdin>
@n2	<stdin>
@n2win	<stdin>
@n3win	<stdin>
@n:	<stdin>
@n:	<stdin>
@n:	<stdin>
@n:	<stdin>
@n:	<stdin>
@n:	<stdin>
@n:	<stdin>
@n:	<stdin>
@n_pages:	<stdin>
@n_pages:	<stdin>
@name	<stdin>
@name	<stdin>
@name	<stdin>
@name:	<stdin>
@name:	<stdin>
@name:	<stdin>
@name:	<stdin>
@name:	<stdin>
@name:	<stdin>
@name:	<stdin>
@name:	<stdin>
@name:	<stdin>
@name:	<stdin>
@name:	<stdin>
@name:	<stdin>
@name:	<stdin>
@name:	<stdin>
@name:	<stdin>
@name:	<stdin>
@name:	<stdin>
@name:	<stdin>
@name:	<stdin>
@name:	<stdin>
@name:	<stdin>
@name:	<stdin>
@name:	<stdin>
@name:	<stdin>
@name_len:	<stdin>
@namespace:	<stdin>
@ndisc_nodetype:	<stdin>
@net:	<stdin>
@net:	<stdin>
@net_list:	<stdin>
@netfs:	<stdin>
@netfs:	<stdin>
@netfs_data:	<stdin>
@network_header:	<stdin>
@new	<stdin>
@new	<stdin>
@new	<stdin>
@new	<stdin>
@new	<stdin>
@new	<stdin>
@new:	<stdin>
@new:	<stdin>
@new_rate:	<stdin>
@newsk:	<stdin>
@newsk:	<stdin>
@newsk:	<stdin>
@next:	<stdin>
@next:	<stdin>
@nextdev:	<stdin>
@nf_bridge:	<stdin>
@nf_trace:	<stdin>
@nfct:	<stdin>
@nfct_reasm:	<stdin>
@nfctinfo:	<stdin>
@nh:	<stdin>
@nnode:	<stdin>
@no_fcs:	<stdin>
@node:	<stdin>
@node:	<stdin>
@node:	<stdin>
@node:	<stdin>
@node:	<stdin>
@node:	<stdin>
@node:	<stdin>
@node:	<stdin>
@node:	<stdin>
@node:	<stdin>
@node:	<stdin>
@node:	<stdin>
@node:	<stdin>
@node:	<stdin>
@node:	<stdin>
@node:	<stdin>
@node:	<stdin>
@node:	<stdin>
@node:	<stdin>
@node:	<stdin>
@node:	<stdin>
@node:	<stdin>
@node:	<stdin>
@node:	<stdin>
@node:	<stdin>
@nodemask	<stdin>
@nodes	<stdin>
@nodes	<stdin>
@nohdr:	<stdin>
@notifier_head.	<stdin>
@notifier_head:	<stdin>
@notifyid	<stdin>
@notifyid	<stdin>
@notifyid:	<stdin>
@notifyids:	<stdin>
@np:	<stdin>
@np:	<stdin>
@np:	<stdin>
@np:	<stdin>
@npvc	<stdin>
@nr_channels:	<stdin>
@nr_chips:	<stdin>
@nr_pages:	<stdin>
@nr_partitions:	<stdin>
@nr_partitions:	<stdin>
@nr_pins	<stdin>
@ns_type:	<stdin>
@nshutdown_gpio:	<stdin>
@num:	<stdin>
@num:	<stdin>
@num:	<stdin>
@num_clks:	<stdin>
@num_devices:	<stdin>
@num_of_vrings	<stdin>
@num_of_vrings	<stdin>
@num_parents:	<stdin>
@num_traces:	<stdin>
@numa_node:	<stdin>
@numchips	<stdin>
@numchips:	<stdin>
@nvc	<stdin>
@obj:	<stdin>
@obj:	<stdin>
@obj:	<stdin>
@obj:	<stdin>
@obj:	<stdin>
@obj:	<stdin>
@object:	<stdin>
@object:	<stdin>
@object:	<stdin>
@of_match_table:	<stdin>
@of_node:	<stdin>
@of_node:	<stdin>
@off	<stdin>
@off	<stdin>
@off:	<stdin>
@off:	<stdin>
@offs:	<stdin>
@offset:	<stdin>
@offset:	<stdin>
@offset:	<stdin>
@offset_len_in_hdr:	<stdin>
@old	<stdin>
@old	<stdin>
@old	<stdin>
@old	<stdin>
@old	<stdin>
@old_rate:	<stdin>
@onfi_get_features:	<stdin>
@onfi_params:	<stdin>
@onfi_set_features:	<stdin>
@onfi_version:	<stdin>
@oob_buf:	<stdin>
@oob_poi:	<stdin>
@oobbuf:	<stdin>
@ooblen:	<stdin>
@ooboffs:	<stdin>
@oobretlen:	<stdin>
@ooo_okay:	<stdin>
@op:	<stdin>
@op:	<stdin>
@op:	<stdin>
@op:	<stdin>
@op:	<stdin>
@op:	<stdin>
@open_inb_mbox:	<stdin>
@open_outb_mbox:	<stdin>
@ops:	<stdin>
@ops:	<stdin>
@ops:	<stdin>
@ops:	<stdin>
@ops:	<stdin>
@options:	<stdin>
@options:	<stdin>
@options:	<stdin>
@options:	<stdin>
@options:	<stdin>
@options:	<stdin>
@options:	<stdin>
@order:	<stdin>
@orig_skb:	<stdin>
@origin:	<stdin>
@out:	<stdin>
@outb_msg:	<stdin>
@owner:	<stdin>
@owner:	<stdin>
@p:	<stdin>
@p:	<stdin>
@p:	<stdin>
@p:	<stdin>
@p:	<stdin>
@p:	<stdin>
@p:	<stdin>
@p:	<stdin>
@pa	<stdin>
@pa	<stdin>
@pa:	<stdin>
@pa:	<stdin>
@page	<stdin>
@page	<stdin>
@page.	<stdin>
@page.	<stdin>
@page.	<stdin>
@page.	<stdin>
@page:	<stdin>
@page:	<stdin>
@page:	<stdin>
@page:	<stdin>
@page:	<stdin>
@page:	<stdin>
@page:	<stdin>
@page:	<stdin>
@page:	<stdin>
@page:	<stdin>
@page:	<stdin>
@page:	<stdin>
@page:	<stdin>
@page_buf:	<stdin>
@page_mask:	<stdin>
@page_shift:	<stdin>
@page_shift:	<stdin>
@pagebuf:	<stdin>
@pagebuf_bitflips:	<stdin>
@pagemask:	<stdin>
@pages:	<stdin>
@pages:	<stdin>
@pagesize:	<stdin>
@parent:	<stdin>
@parent:	<stdin>
@parent:	<stdin>
@parent_names:	<stdin>
@part_probe_types:	<stdin>
@partitions:	<stdin>
@partitions:	<stdin>
@pattern:	<stdin>
@pdev:	<stdin>
@peeked:	<stdin>
@pef:	<stdin>
@periph_buses:	<stdin>
@pgd_entry:	<stdin>
@pgdat	<stdin>
@phy_type:	<stdin>
@phys_efptr:	<stdin>
@phys_efptr:	<stdin>
@phys_erase_shift:	<stdin>
@pkt_type:	<stdin>
@pktlen	<stdin>
@platform_data:	<stdin>
@pm:	<stdin>
@pm:	<stdin>
@pm:	<stdin>
@pm_domain:	<stdin>
@pmd_entry:	<stdin>
@port_ok:	<stdin>
@pos:	<stdin>
@pos:	<stdin>
@pos:	<stdin>
@pos:	<stdin>
@pos:	<stdin>
@pos:	<stdin>
@pos:	<stdin>
@pos:	<stdin>
@pos:	<stdin>
@pos:	<stdin>
@pos:	<stdin>
@pos:	<stdin>
@postpad:	<stdin>
@power:	<stdin>
@power:	<stdin>
@pre_restore:	<stdin>
@pre_snapshot:	<stdin>
@prepad:	<stdin>
@prepare	<stdin>
@prepare()	<stdin>
@prepare(),	<stdin>
@prepare().	<stdin>
@prepare.	<stdin>
@prepare:	<stdin>
@prepare:	<stdin>
@prepare:	<stdin>
@prepare_late	<stdin>
@prepare_late	<stdin>
@prepare_late().	<stdin>
@prepare_late:	<stdin>
@prev:	<stdin>
@prev:	<stdin>
@prev:	<stdin>
@prev:	<stdin>
@prevent_sleep_time:	<stdin>
@previous_value:	<stdin>
@pri	<stdin>
@pri:	<stdin>
@pri:	<stdin>
@print_name:	<stdin>
@print_state:	<stdin>
@prio:	<stdin>
@priority:	<stdin>
@priv:	<stdin>
@priv:	<stdin>
@priv:	<stdin>
@priv:	<stdin>
@priv:	<stdin>
@priv:	<stdin>
@priv:	<stdin>
@priv:	<stdin>
@priv:	<stdin>
@priv:	<stdin>
@priv:	<stdin>
@priv_data:	<stdin>
@probe:	<stdin>
@probe:	<stdin>
@probe:	<stdin>
@probe:	<stdin>
@propname:	<stdin>
@protocol:	<stdin>
@protos_registered:	<stdin>
@pte_entry:	<stdin>
@pte_hole:	<stdin>
@ptr	<stdin>
@ptr.	<stdin>
@ptr:	<stdin>
@ptr:	<stdin>
@ptr:	<stdin>
@ptr:	<stdin>
@ptrace	<stdin>
@ptrace:	<stdin>
@pud_entry:	<stdin>
@put_signal:	<stdin>
@pwcback:	<stdin>
@pwenable:	<stdin>
@pwm_data:	<stdin>
@pwm_pol_hi:	<stdin>
@q->root_rl	<stdin>
@q->root_rl	<stdin>
@qinfo	<stdin>
@queue_mapping:	<stdin>
@rate:	<stdin>
@rate:	<stdin>
@read:	<stdin>
@read_buf:	<stdin>
@read_buf:	<stdin>
@read_bufferram:	<stdin>
@read_byte:	<stdin>
@read_byte:	<stdin>
@read_oob:	<stdin>
@read_oob_raw:	<stdin>
@read_page:	<stdin>
@read_page_raw:	<stdin>
@read_subpage:	<stdin>
@read_word:	<stdin>
@read_word:	<stdin>
@readw:	<stdin>
@recalc_rate	<stdin>
@recover(),	<stdin>
@recover:	<stdin>
@recover:	<stdin>
@recovery_disabled:	<stdin>
@recv:	<stdin>
@reg:	<stdin>
@reg:	<stdin>
@reg:	<stdin>
@reg_complete_cb:	<stdin>
@regs	<stdin>
@regs	<stdin>
@regs:	<stdin>
@regs:	<stdin>
@regs:	<stdin>
@regs:	<stdin>
@regs:	<stdin>
@relax_count:	<stdin>
@release:	<stdin>
@release:	<stdin>
@release:	<stdin>
@release:	<stdin>
@release_resources:	<stdin>
@remaddr	<stdin>
@remove:	<stdin>
@remove:	<stdin>
@remove:	<stdin>
@remove:	<stdin>
@remove_dev:	<stdin>
@request,	<stdin>
@res:	<stdin>
@res:	<stdin>
@reserve:	<stdin>
@reserved	<stdin>
@reserved:	<stdin>
@reserved:	<stdin>
@reserved:	<stdin>
@reserved:	<stdin>
@reserved:	<stdin>
@reserved:	<stdin>
@reserved_block_code:	<stdin>
@reset:	<stdin>
@resource:	<stdin>
@resp_buffer:	<stdin>
@restore_cleanup:	<stdin>
@resume:	<stdin>
@resume:	<stdin>
@resume:	<stdin>
@resume:	<stdin>
@resume:	<stdin>
@retire:	<stdin>
@retlen:	<stdin>
@riores:	<stdin>
@riores:	<stdin>
@ro_mode:	<stdin>
@round_rate:	<stdin>
@route_table:	<stdin>
@rproc	<stdin>
@rproc:	<stdin>
@rswitch:	<stdin>
@rvdev:	<stdin>
@rvdevs:	<stdin>
@rx:	<stdin>
@rx_chnl:	<stdin>
@rx_count:	<stdin>
@rx_count:	<stdin>
@rx_skb:	<stdin>
@rx_skb:	<stdin>
@rx_state:	<stdin>
@rx_state:	<stdin>
@rxhash:	<stdin>
@s:	<stdin>
@s:	<stdin>
@s:	<stdin>
@s:	<stdin>
@s:	<stdin>
@s:	<stdin>
@scan_bbt:	<stdin>
@scan_bbt:	<stdin>
@sched_in:	<stdin>
@sched_out:	<stdin>
@secmark:	<stdin>
@select_bank:	<stdin>
@select_chip:	<stdin>
@select_chip:	<stdin>
@set:	<stdin>
@set_domain:	<stdin>
@set_parent:	<stdin>
@set_rate:	<stdin>
@set_status:	<stdin>
@set_target()	<stdin>
@set_vq_affinity:	<stdin>
@setup_resources:	<stdin>
@shift:	<stdin>
@shift:	<stdin>
@shutdown:	<stdin>
@shutdown:	<stdin>
@sig:	<stdin>
@single:	<stdin>
@size*@usable_leb_size,	<stdin>
@size.	<stdin>
@size:	<stdin>
@size:	<stdin>
@size:	<stdin>
@size:	<stdin>
@size:	<stdin>
@sk:	<stdin>
@skb	<stdin>
@skb	<stdin>
@skb	<stdin>
@skb	<stdin>
@skb	<stdin>
@skb	<stdin>
@skb	<stdin>
@skb.	<stdin>
@skb.	<stdin>
@skb.	<stdin>
@skb.	<stdin>
@skb:	<stdin>
@skb:	<stdin>
@skb:	<stdin>
@skb:	<stdin>
@skb:	<stdin>
@skb:	<stdin>
@skb:	<stdin>
@skb:	<stdin>
@skb:	<stdin>
@skb:	<stdin>
@skb:	<stdin>
@skb:	<stdin>
@skb:	<stdin>
@skb:	<stdin>
@skb:	<stdin>
@skb:	<stdin>
@skb:	<stdin>
@skb:	<stdin>
@skb:	<stdin>
@skb:	<stdin>
@skb:	<stdin>
@skb:	<stdin>
@skb:	<stdin>
@skb:	<stdin>
@skb:	<stdin>
@skb:	<stdin>
@skb:	<stdin>
@skb:	<stdin>
@skb:	<stdin>
@skb:	<stdin>
@skb:	<stdin>
@skb:	<stdin>
@skb:	<stdin>
@skb:	<stdin>
@skb:	<stdin>
@skb:	<stdin>
@skb:	<stdin>
@skb:	<stdin>
@skb:	<stdin>
@skb:	<stdin>
@skb:	<stdin>
@skb:	<stdin>
@skb:	<stdin>
@skb:	<stdin>
@skb:	<stdin>
@skb:	<stdin>
@skb_iif:	<stdin>
@slave_channels:	<stdin>
@soc:	<stdin>
@soc_plat_dev_attr:	<stdin>
@sp:	<stdin>
@speed	<stdin>
@src_ops:	<stdin>
@st_max_limits[3]:	<stdin>
@st_min_limits[3]:	<stdin>
@st_state:	<stdin>
@stacksize	<stdin>
@stamp:	<stdin>
@start:	<stdin>
@start:	<stdin>
@start:	<stdin>
@start:	<stdin>
@state:	<stdin>
@state:	<stdin>
@state:	<stdin>
@state:	<stdin>
@status	<stdin>
@step	<stdin>
@step:	<stdin>
@stepping:	<stdin>
@steps:	<stdin>
@stop:	<stdin>
@strength:	<stdin>
@subpagesize:	<stdin>
@subpagesize:	<stdin>
@subsys:	<stdin>
@supported_cable:	<stdin>
@suppress_bind_attrs:	<stdin>
@suspend:	<stdin>
@suspend:	<stdin>
@suspend:	<stdin>
@suspend:	<stdin>
@suspend:	<stdin>
@suspend_again:	<stdin>
@sw_sysfs:	<stdin>
@switches:	<stdin>
@switchid:	<stdin>
@swpinfo:	<stdin>
@sync:	<stdin>
@sys_size:	<stdin>
@syststamp:	<stdin>
@t1	<stdin>
@t2	<stdin>
@t21	<stdin>
@t23	<stdin>
@table:	<stdin>
@table:	<stdin>
@tag:	<stdin>
@tail:	<stdin>
@target:	<stdin>
@targetinfo:	<stdin>
@task	<stdin>
@task	<stdin>
@task	<stdin>
@task	<stdin>
@task	<stdin>
@task,	<stdin>
@task,	<stdin>
@task,	<stdin>
@task.	<stdin>
@task:	<stdin>
@task:	<stdin>
@task:	<stdin>
@task:	<stdin>
@task:	<stdin>
@task:	<stdin>
@task:	<stdin>
@tc_index:	<stdin>
@tc_verd:	<stdin>
@tcb_config:	<stdin>
@thoff:	<stdin>
@timeout	<stdin>
@timeout	<stdin>
@timeout:	<stdin>
@timeout:	<stdin>
@tmp:	<stdin>
@tmp:	<stdin>
@total:	<stdin>
@total_time:	<stdin>
@tpos:	<stdin>
@tpos:	<stdin>
@tpos:	<stdin>
@tpos:	<stdin>
@tpos:	<stdin>
@tpos:	<stdin>
@traces:	<stdin>
@transport_header:	<stdin>
@true_size:	<stdin>
@truesize:	<stdin>
@tstamp:	<stdin>
@tty:	<stdin>
@tx_skb:	<stdin>
@tx_state:	<stdin>
@tx_waitq:	<stdin>
@txq:	<stdin>
@type.	<stdin>
@type:	<stdin>
@type:	<stdin>
@type:	<stdin>
@type:	<stdin>
@type:	<stdin>
@type:	<stdin>
@type:	<stdin>
@ubi_num:	<stdin>
@ubi_num:	<stdin>
@uevent:	<stdin>
@uim_pid:	<stdin>
@umc_dev:	<stdin>
@umc_dev:	<stdin>
@umc_dev:	<stdin>
@umc_dev:	<stdin>
@umc_dev:	<stdin>
@umc_drv:	<stdin>
@unlock_all:	<stdin>
@unmap_inb:	<stdin>
@unprepare:	<stdin>
@upd_marker	<stdin>
@upd_marker	<stdin>
@upd_marker	<stdin>
@upd_marker	<stdin>
@upd_marker:	<stdin>
@usable_leb_size	<stdin>
@usable_leb_size:	<stdin>
@used_bytes	<stdin>
@used_bytes	<stdin>
@used_bytes:	<stdin>
@used_ebs	<stdin>
@used_ebs	<stdin>
@used_ebs:	<stdin>
@user_nb:	<stdin>
@users:	<stdin>
@v:	<stdin>
@va:	<stdin>
@va:	<stdin>
@vaddr:	<stdin>
@vaddr:	<stdin>
@valid:	<stdin>
@value	<stdin>
@value	<stdin>
@vdev:	<stdin>
@vdev:	<stdin>
@vdev:	<stdin>
@ver:	<stdin>
@veroffs:	<stdin>
@version:	<stdin>
@version:	<stdin>
@version:	<stdin>
@verstion_id:	<stdin>
@vi:	<stdin>
@vid:	<stdin>
@vid:	<stdin>
@vid:	<stdin>
@vlan_tci:	<stdin>
@vma:	<stdin>
@vma:	<stdin>
@vol_id:	<stdin>
@vol_type:	<stdin>
@vq:	<stdin>
@vq:	<stdin>
@vring	<stdin>
@vring:	<stdin>
@wait:	<stdin>
@waitfunc:	<stdin>
@wake()	<stdin>
@wake(),	<stdin>
@wake:	<stdin>
@wakeup_count:	<stdin>
@wakeup_flags2:	<stdin>
@wakeup_flags:	<stdin>
@wakeup_thresh2:	<stdin>
@wakeup_thresh:	<stdin>
@width:	<stdin>
@width:	<stdin>
@width:	<stdin>
@wifi_acked:	<stdin>
@wifi_acked_valid:	<stdin>
@word:	<stdin>
@word:	<stdin>
@wq	<stdin>
@wq	<stdin>
@wq	<stdin>
@wq	<stdin>
@wq	<stdin>
@wq	<stdin>
@wq	<stdin>
@wq	<stdin>
@wq	<stdin>
@wq	<stdin>
@wq	<stdin>
@wq	<stdin>
@wq	<stdin>
@wq:	<stdin>
@wq:	<stdin>
@wq:	<stdin>
@wq:	<stdin>
@wq:	<stdin>
@wq:	<stdin>
@wq:	<stdin>
@wq:	<stdin>
@wq:	<stdin>
@wq:	<stdin>
@wq:	<stdin>
@wq:	<stdin>
@wq:	<stdin>
@wq:	<stdin>
@wq:	<stdin>
@write:	<stdin>
@write_buf:	<stdin>
@write_buf:	<stdin>
@write_bufferram:	<stdin>
@write_oob:	<stdin>
@write_oob_raw:	<stdin>
@write_page:	<stdin>
@write_page:	<stdin>
@write_page_raw:	<stdin>
@write_word:	<stdin>
@writesize:	<stdin>
@writew:	<stdin>
@x	<stdin>
@z	<stdin>
@z	<stdin>
@z	<stdin>
@zlist	<stdin>
@zlist	<stdin>
@zone	<stdin>
@zone	<stdin>
@zone	<stdin>
@zone	<stdin>
@zone	<stdin>
@zone	<stdin>
@zonelist	<stdin>
jloup@gzip.org	<stdin>
jsun@junsun.net	<stdin>
jsun@mvista.com	<stdin>
madler@alumni.caltech.edu	<stdin>
simon@ncm.com,	<stdin>
source@mvista.com	<stdin>
