(@layout->olo_comps	<stdin>
(@len	<stdin>
(bob_jenkins@burtleburtle.net)	<stdin>
(calle@calle.in-berlin.de)	<stdin>
(davem@redhat.com)	<stdin>
(davem@redhat.com)	<stdin>
(davem@redhat.com)	<stdin>
(dhowells@redhat.com)	<stdin>
(dhowells@redhat.com)	<stdin>
(dhowells@redhat.com)	<stdin>
(dhowells@redhat.com)	<stdin>
(ecd@skynet.be)	<stdin>
(eli.kupermann@intel.com,	<stdin>
(greg@kroah.com)	<stdin>
(jacob.jun.pan@intel.com)	<stdin>
(kadlec@blackhole.kfki.hu)	<stdin>
(thockin@sun.com)	<stdin>
(tom.l.nguyen@intel.com)	<stdin>
<FlorianSchandinat@gmx.de>	<stdin>
<James.Bottomley@steeleye.com>	<stdin>
<James.Bottomley@steeleye.com>	<stdin>
<Jes.Sorensen@cern.ch>	<stdin>
<a.gruenbacher@computer.org>	<stdin>
<agruen@suse.de>	<stdin>
<airlied@redhat.com>	<stdin>
<alan@lxorguk.ukuu.org.uk>	<stdin>
<alan@lxorguk.ukuu.org.uk>	<stdin>
<alan@redhat.com>	<stdin>
<alex@digriz.org.uk>	<stdin>
<alior@marvell.com>	<stdin>
<amit.shah@redhat.com>,	<stdin>
<amitkale@linsyssoft.com>	<stdin>
<andrea@suse.de>	<stdin>
<anil.s.keshavamurthy@intel.com>	<stdin>
<anil.s.keshavamurthy@intel.com>	<stdin>
<arjan@linux.intel.com>	<stdin>
<arnd@arndb.de>,	<stdin>
<ashok.raj@intel.com>	<stdin>
<astor@guardian.no>	<stdin>
<axboe@suse.de>	<stdin>
<b.spranger@linutronix.de>	<stdin>
<becker@super.org>	<stdin>
<ben@simtec.co.uk>	<stdin>
<ben@simtec.co.uk>	<stdin>
<bentson@grieg.seaslug.org>	<stdin>
<bernhard.walle@gmx.de>	<stdin>
<bgardner@wabtec.com>	<stdin>
<bhalevy@panasas.com>	<stdin>
<bharrosh@panasas.com>	<stdin>
<buytenh@gnu.org>	<stdin>
<ccross@android.com>	<stdin>
<corbet@lwn.net>	<stdin>
<daniel@ffwll.ch>	<stdin>
<davidm@hpl.hp.com>	<stdin>
<dipankar@in.ibm.com>	<stdin>
<dmitry.baryshkov@siemens.com>	<stdin>
<donari75@gmail.com>	<stdin>
<drummond@valinux.com>	<stdin>
<eis@baty.hanse.de>	<stdin>
<eranian@hpl.hp.com>	<stdin>
<eranian@hpl.hp.com>	<stdin>
<erazor_de@users.sourceforge.net>	<stdin>
<faith@redhat.com>	<stdin>
<frodol@dds.nl>	<stdin>
<frodol@dds.nl>	<stdin>
<g.liakhovetski@gmx.de>	<stdin>
<giometti@linux.it>	<stdin>
<greearb@candelatech.com>	<stdin>
<greg@kroah.com>	<stdin>
<gregory.clement@free-electrons.com>	<stdin>
<gw4pts@gw4pts.ampr.org>	<stdin>
<gw4pts@gw4pts.ampr.org>	<stdin>
<gw4pts@gw4pts.ampr.org>	<stdin>
<gw7rrm@eeshack3.swan.ac.uk>	<stdin>
<hjk@hansjkoch.de>	<stdin>
<imre.deak@nokia.com>	<stdin>
<info@addi-data.com>	<stdin>
<info@eurotech.it>	<stdin>
<ivan.djelic@parrot.com>	<stdin>
<ivan@cyclades.com>.	<stdin>
<jack@suse.cz>	<stdin>
<jamesnuss@nanometrics.ca>	<stdin>
<jason.wessel@windriver.com>	<stdin>
<jens.axboe@oracle.com>	<stdin>
<jgarzik@pobox.com>	<stdin>
<jgrimm@us.ibm.com>	<stdin>
<jochen@scram.de>	<stdin>
<jochen@scram.de>	<stdin>
<karl@athena.chicago.il.us>	<stdin>
<kevin.gao@intel.com>	<stdin>
<khollis@bitgate.com>	<stdin>
<kmalkki@cc.hut.fi>	<stdin>
<kmalkki@cc.hut.fi>	<stdin>
<kristen.c.accardi@intel.com>	<stdin>
<lars.ellenberg@linbit.com>.	<stdin>
<lars.ellenberg@linbit.com>.	<stdin>
<lg@denx.de>	<stdin>
<linux@brodo.de>	<stdin>
<lksctp-developerst@lists.sourceforge.net>	<stdin>
<maramaopercheseimorto@gmail.com>	<stdin>
<marek.vasut@gmail.com>	<stdin>
<maxime.ripard@free-electrons.com>	<stdin>
<mdsxyz123@yahoo.com>	<stdin>
<mec@duracef.shout.net>	<stdin>
<morgan@kernel.org>	<stdin>
<mporter@kernel.crashing.org>	<stdin>
<nab@linux-iscsi.org>	<stdin>
<oakad@yahoo.com>	<stdin>
<ospite@studenti.unina.it>	<stdin>
<paulius.zaleckas@teltonika.lt>	<stdin>
<paulmck@us.ibm.com>	<stdin>
<philipp.reisner@linbit.com>.	<stdin>
<philipp.reisner@linbit.com>.	<stdin>
<piggy@acm.org>	<stdin>
<plagnioj@jcrosoft.com>	<stdin>
<pmaydell@chiark.greenend.org.uk>	<stdin>
<pzijlstr@redhat.com>	<stdin>
<raven@themaw.net>	<stdin>
<rob@ti.com>	<stdin>
<rth@tamu.edu>	<stdin>
<rui.zhang@intel.com>	<stdin>
<simon.kagstrom@netinsight.net>	<stdin>
<skylark@linux-mips.org>	<stdin>
<sri@us.ibm.com>	<stdin>
<stefani@lkg.dec.com>	<stdin>
<steffen.klassert@secunet.com>	<stdin>
<sujith.thomas@intel.com>	<stdin>
<sumit.semwal@ti.com>	<stdin>
<tglx@linutronix.de>	<stdin>
<tglx@linutronix.de>	<stdin>
<thomas.petazzoni@free-electrons.com>	<stdin>
<trini@kernel.crashing.org>	<stdin>
<trini@mvista.com>	<stdin>
<viresh.linux@gmail.com>	<stdin>
<vma@iol.unh.edu>	<stdin>
<waltje@uWalt.NL.Mugnet.ORG>	<stdin>
<waltje@uWalt.NL.Mugnet.ORG>	<stdin>
<waltje@uWalt.NL.Mugnet.ORG>	<stdin>
<warlord@MIT.EDU>	<stdin>
<xemul@openvz.org>	<stdin>
<xingang.guo@intel.com>	<stdin>
<xyzzy@speakeasy.org>	<stdin>
<ying.huang@intel.com>	<stdin>
@4k	<stdin>
@4k	<stdin>
@AOP_TRUNCATED_PAGE:	<stdin>
@AOP_WRITEPAGE_ACTIVATE:	<stdin>
@DRBD_F_INVARIANT:	<stdin>
@DRBD_F_REQUIRED:	<stdin>
@DRBD_F_SENSITIVE:	<stdin>
@DRBD_GENLA_F_MANDATORY:	<stdin>
@ETHTOOL_ID_ACTIVE:	<stdin>
@ETHTOOL_ID_INACTIVE:	<stdin>
@ETHTOOL_ID_OFF:	<stdin>
@ETHTOOL_ID_ON:	<stdin>
@IRQ_HANDLED	<stdin>
@IRQ_NONE	<stdin>
@IRQ_WAKE_THREAD	<stdin>
@PWM_POLARITY_INVERSED:	<stdin>
@PWM_POLARITY_NORMAL:	<stdin>
@__i2c_driver:	<stdin>
@__spi_driver:	<stdin>
@__usb_driver:	<stdin>
@_softexpires:	<stdin>
@a	<stdin>
@a:	<stdin>
@a:	<stdin>
@a:	<stdin>
@a_log_tab:	<stdin>
@a_pow_tab:	<stdin>
@acpi_node:	<stdin>
@actconfig:	<stdin>
@action:	<stdin>
@active:	<stdin>
@active_bases:	<stdin>
@active_duration:	<stdin>
@actual_length:	<stdin>
@actual_length:	<stdin>
@adapter:	<stdin>
@adapter_status:	<stdin>
@addr1:	<stdin>
@addr1:	<stdin>
@addr1:	<stdin>
@addr2:	<stdin>
@addr2:	<stdin>
@addr2:	<stdin>
@addr:	<stdin>
@addr:	<stdin>
@addr:	<stdin>
@addr:	<stdin>
@addr:	<stdin>
@addr:	<stdin>
@addr:	<stdin>
@addr:	<stdin>
@addr:	<stdin>
@addr:	<stdin>
@addr:	<stdin>
@addr:	<stdin>
@addr:	<stdin>
@addr:	<stdin>
@addr:	<stdin>
@addr:	<stdin>
@address	<stdin>
@address_list	<stdin>
@address_list:	<stdin>
@adjfreq:	<stdin>
@adjtime:	<stdin>
@adv:	<stdin>
@adv:	<stdin>
@adv:	<stdin>
@adv:	<stdin>
@adv:	<stdin>
@adv:	<stdin>
@affinity_hint:	<stdin>
@affinity_notify:	<stdin>
@alert:	<stdin>
@altsetting:	<stdin>
@altsetting:	<stdin>
@anchor:	<stdin>
@anchor_list:	<stdin>
@archdata:	<stdin>
@archdata:	<stdin>
@args:	<stdin>
@args:	<stdin>
@attach:	<stdin>
@attach_adapter:	<stdin>
@attachments:	<stdin>
@attention_status:	<stdin>
@authenticated:	<stdin>
@authorized:	<stdin>
@avg.	<stdin>
@avg:	<stdin>
@b:	<stdin>
@balanced_dirty_ratelimit	<stdin>
@base:	<stdin>
@base:	<stdin>
@base_bus_num:	<stdin>
@baudwidth:	<stdin>
@begin.	<stdin>
@begin:	<stdin>
@begin_cpu_access:	<stdin>
@bits_per_word:	<stdin>
@bits_per_word:	<stdin>
@bits_per_word:	<stdin>
@bootstatus:	<stdin>
@bos:	<stdin>
@buf:	<stdin>
@buf:	<stdin>
@buf:	<stdin>
@buf:	<stdin>
@buffer_length:	<stdin>
@buffer_length:	<stdin>
@buffer_length:	<stdin>
@bus:	<stdin>
@bus_count:	<stdin>
@bus_info	<stdin>
@bus_info	<stdin>
@bus_lock_flag:	<stdin>
@bus_lock_mutex:	<stdin>
@bus_lock_spinlock:	<stdin>
@bus_mA:	<stdin>
@bus_num:	<stdin>
@bus_num:	<stdin>
@busy:	<stdin>
@bytes:	<stdin>
@c:	<stdin>
@c:	<stdin>
@c:	<stdin>
@c:	<stdin>
@c:	<stdin>
@c:	<stdin>
@c:	<stdin>
@c:	<stdin>
@c:	<stdin>
@c:	<stdin>
@c:	<stdin>
@c:	<stdin>
@c:	<stdin>
@c:	<stdin>
@c:	<stdin>
@c:	<stdin>
@cable_detect:	<stdin>
@cache:	<stdin>
@can_submit:	<stdin>
@cap:	<stdin>
@cb:	<stdin>
@cb_cpu:	<stdin>
@cbcpu	<stdin>
@cbcpu:	<stdin>
@cc:	<stdin>
@cc:	<stdin>
@cc:	<stdin>
@cdev:	<stdin>
@chattr	<stdin>
@child:	<stdin>
@chip_select:	<stdin>
@chip_select:	<stdin>
@cl:	<stdin>
@cl:	<stdin>
@cl:	<stdin>
@cl:	<stdin>
@cl:	<stdin>
@class	<stdin>
@class:	<stdin>
@cleanup:	<stdin>
@clear_irq:	<stdin>
@clients:	<stdin>
@clock_base:	<stdin>
@clock_was_set:	<stdin>
@clockid:	<stdin>
@close:	<stdin>
@cmd	<stdin>
@cmd:	<stdin>
@cmd:	<stdin>
@cnt.	<stdin>
@cnt:	<stdin>
@cnt:	<stdin>
@command:	<stdin>
@comp	<stdin>
@complete:	<stdin>
@complete:	<stdin>
@complete:	<stdin>
@complete_fn:	<stdin>
@complete_fn:	<stdin>
@complete_fn:	<stdin>
@condition:	<stdin>
@condition:	<stdin>
@conf:	<stdin>
@conf:	<stdin>
@conf:	<stdin>
@conf:	<stdin>
@conf:	<stdin>
@conf:	<stdin>
@config:	<stdin>
@config:	<stdin>
@connect_time:	<stdin>
@consumed:	<stdin>
@context:	<stdin>
@context:	<stdin>
@context:	<stdin>
@context:	<stdin>
@context:	<stdin>
@controller_data:	<stdin>
@controller_data:	<stdin>
@controller_state:	<stdin>
@core_internal_state__do_not_mess_with_it:	<stdin>
@correct_hw_break:	<stdin>
@count	<stdin>
@counter.	<stdin>
@counter:	<stdin>
@counter:	<stdin>
@counter:	<stdin>
@cpu_base:	<stdin>
@cpu_index:	<stdin>
@cpu_notifier:	<stdin>
@cpumask:	<stdin>
@cpumask:	<stdin>
@cpumask_change_notifier:	<stdin>
@cs_change:	<stdin>
@cur_altsetting:	<stdin>
@cur_msg:	<stdin>
@cycle_last:	<stdin>
@cycle_last:	<stdin>
@cycle_tstamp:	<stdin>
@cycles:	<stdin>
@cycles:	<stdin>
@dac_clk:	<stdin>
@data:	<stdin>
@data:	<stdin>
@dbg_show:	<stdin>
@decs:	<stdin>
@delay_usecs:	<stdin>
@depth:	<stdin>
@desc:	<stdin>
@desc:	<stdin>
@descriptor:	<stdin>
@destroy:	<stdin>
@detach:	<stdin>
@detach_adapter:	<stdin>
@detect	<stdin>
@detect	<stdin>
@detect	<stdin>
@detect:	<stdin>
@detected:	<stdin>
@dev	<stdin>
@dev,	<stdin>
@dev:	<stdin>
@dev:	<stdin>
@dev:	<stdin>
@dev:	<stdin>
@dev:	<stdin>
@dev:	<stdin>
@dev:	<stdin>
@dev:	<stdin>
@dev:	<stdin>
@dev:	<stdin>
@dev:	<stdin>
@dev:	<stdin>
@dev:	<stdin>
@dev:	<stdin>
@dev:	<stdin>
@dev:	<stdin>
@dev:	<stdin>
@dev_addr:	<stdin>
@dev_id:	<stdin>
@dev_type:	<stdin>
@deviceaddr	<stdin>
@deviceaddr	<stdin>
@devices:	<stdin>
@devnode:	<stdin>
@devnum:	<stdin>
@devpath:	<stdin>
@dir	<stdin>
@dir	<stdin>
@dir:	<stdin>
@dir:	<stdin>
@dirty_ratelimit	<stdin>
@disable:	<stdin>
@disable:	<stdin>
@disable_hub_initiated_lpm:	<stdin>
@disable_hw_break:	<stdin>
@disable_slot:	<stdin>
@disconnect:	<stdin>
@disconnect:	<stdin>
@div:	<stdin>
@dma_alignment:	<stdin>
@dmabuf:	<stdin>
@dmabuf:	<stdin>
@do_remote_wakeup:	<stdin>
@drive_data:	<stdin>
@driver	<stdin>
@driver,	<stdin>
@driver-data:Pointer	<stdin>
@driver:	<stdin>
@driver:	<stdin>
@driver:	<stdin>
@driver:	<stdin>
@drv:	<stdin>
@drv:	<stdin>
@drv:	<stdin>
@drv:	<stdin>
@drvwrap:	<stdin>
@drvwrap:	<stdin>
@dst:	<stdin>
@dump:	<stdin>
@duplex_lock:	<stdin>
@dynids:	<stdin>
@ecc_bits:	<stdin>
@ecc_buf2:	<stdin>
@ecc_buf:	<stdin>
@ecc_bytes:	<stdin>
@element:	<stdin>
@elp:	<stdin>
@enable:	<stdin>
@enable:	<stdin>
@enable:	<stdin>
@enable_nmi:	<stdin>
@enable_slot:	<stdin>
@enabled:	<stdin>
@end_cpu_access:	<stdin>
@entry:	<stdin>
@ep0:	<stdin>
@ep:	<stdin>
@ep_dev:	<stdin>
@ep_devs_created:	<stdin>
@ep_in:	<stdin>
@ep_out:	<stdin>
@err_code:	<stdin>
@error_count:	<stdin>
@ethadv:	<stdin>
@ethadv:	<stdin>
@ethadv:	<stdin>
@event:	<stdin>
@exception:	<stdin>
@expires_next:	<stdin>
@extra:	<stdin>
@extra:	<stdin>
@extralen:	<stdin>
@extralen:	<stdin>
@file:	<stdin>
@filelist:	<stdin>
@find:	<stdin>
@finish:	<stdin>
@flags:	<stdin>
@flags:	<stdin>
@flags:	<stdin>
@flags:	<stdin>
@flags:	<stdin>
@flags:	<stdin>
@flags:	<stdin>
@flags:	<stdin>
@flags:	<stdin>
@flags:	<stdin>
@flags:	<stdin>
@flags:	<stdin>
@flags:	<stdin>
@flash_device:	<stdin>
@flush:	<stdin>
@fmt	<stdin>
@fmt	<stdin>
@fmt:	<stdin>
@fmt:	<stdin>
@fops:	<stdin>
@for_devices:	<stdin>
@free:	<stdin>
@freq:	<stdin>
@from:	<stdin>
@func:	<stdin>
@func:	<stdin>
@func:	<stdin>
@function:	<stdin>
@fw_version	<stdin>
@gdb_bpt_instr:	<stdin>
@gdb_regs	<stdin>
@gdb_regs	<stdin>
@gdb_regs.	<stdin>
@gdb_regs:	<stdin>
@gdb_regs:	<stdin>
@gdb_regs:	<stdin>
@genpool_algo_t	<stdin>
@geo:	<stdin>
@geo:	<stdin>
@geo:	<stdin>
@geo:	<stdin>
@geo:	<stdin>
@geo:	<stdin>
@geo:	<stdin>
@get_adapter_status:	<stdin>
@get_attention_status:	<stdin>
@get_channels:	<stdin>
@get_coalesce:	<stdin>
@get_drvinfo:	<stdin>
@get_dump_data:	<stdin>
@get_dump_flag:	<stdin>
@get_eee:	<stdin>
@get_eeprom:	<stdin>
@get_ethtool_stats:	<stdin>
@get_latch_status:	<stdin>
@get_link:	<stdin>
@get_module_eeprom:	<stdin>
@get_module_info:	<stdin>
@get_msglevel:	<stdin>
@get_next_block:	<stdin>
@get_pattern:	<stdin>
@get_pattern_len:	<stdin>
@get_pauseparam:	<stdin>
@get_power_status:	<stdin>
@get_priv_flags:	<stdin>
@get_regs	<stdin>
@get_regs:	<stdin>
@get_regs_len:	<stdin>
@get_ringparam:	<stdin>
@get_rxfh_indir:	<stdin>
@get_rxfh_indir_size	<stdin>
@get_rxfh_indir_size	<stdin>
@get_rxfh_indir_size:	<stdin>
@get_rxnfc:	<stdin>
@get_settings:	<stdin>
@get_sset_count:	<stdin>
@get_strings	<stdin>
@get_strings:	<stdin>
@get_time:	<stdin>
@get_timeleft:The	<stdin>
@get_ts_info:	<stdin>
@get_wol:	<stdin>
@gettime:	<stdin>
@gfp:	<stdin>
@gfp:	<stdin>
@gfp_mask:	<stdin>
@gid:	<stdin>
@gpio:	<stdin>
@gpio_cs:	<stdin>
@gpio_cs_count:	<stdin>
@h_dest:	<stdin>
@h_source:	<stdin>
@h_vlan_TCI:	<stdin>
@h_vlan_TCI:	<stdin>
@h_vlan_encapsulated_proto:	<stdin>
@h_vlan_encapsulated_proto:	<stdin>
@h_vlan_proto:	<stdin>
@handle_irq:	<stdin>
@handler:	<stdin>
@handler:	<stdin>
@hang_detected:	<stdin>
@hardware_test:	<stdin>
@have_langid:	<stdin>
@hcpriv:	<stdin>
@hdev:	<stdin>
@head:	<stdin>
@head:	<stdin>
@head:	<stdin>
@head:	<stdin>
@head:	<stdin>
@head:	<stdin>
@head:	<stdin>
@head:	<stdin>
@head:	<stdin>
@head:	<stdin>
@head:	<stdin>
@head:	<stdin>
@head:	<stdin>
@head:	<stdin>
@head:	<stdin>
@head:	<stdin>
@height:	<stdin>
@hi:	<stdin>
@hint:	<stdin>
@hres_active:	<stdin>
@hz:	<stdin>
@i2o_dev:	<stdin>
@i2o_dev:	<stdin>
@id:	<stdin>
@id:	<stdin>
@id:	<stdin>
@id_table:	<stdin>
@id_table:	<stdin>
@id_table:	<stdin>
@idp:	<stdin>
@iface:	<stdin>
@incs/@decs	<stdin>
@incs:	<stdin>
@index	<stdin>
@index:	<stdin>
@index:	<stdin>
@index:	<stdin>
@index:	<stdin>
@info:	<stdin>
@info:	<stdin>
@info:	<stdin>
@info:	<stdin>
@init:	<stdin>
@init:	<stdin>
@init_dev:	<stdin>
@initval:	<stdin>
@initval:	<stdin>
@inode:	<stdin>
@input:	<stdin>
@interface:	<stdin>
@internal_addr:	<stdin>
@interval:	<stdin>
@interval:	<stdin>
@intf_assoc:	<stdin>
@intf_assoc:	<stdin>
@intf_cache:	<stdin>
@ioctl:	<stdin>
@irq:	<stdin>
@irq:	<stdin>
@irq:	<stdin>
@irq:	<stdin>
@irq:	<stdin>
@irq:	<stdin>
@irq:	<stdin>
@irq_count:	<stdin>
@irq_data:	<stdin>
@irq_flags:	<stdin>
@irqcontrol:	<stdin>
@irqs_unhandled:	<stdin>
@is_console:	<stdin>
@is_dma_mapped:	<stdin>
@iso_frame_desc:	<stdin>
@iter	<stdin>
@k:	<stdin>
@k:	<stdin>
@key	<stdin>
@key	<stdin>
@key,	<stdin>
@key:	<stdin>
@key:	<stdin>
@key:	<stdin>
@key:	<stdin>
@key:	<stdin>
@key:	<stdin>
@khz:	<stdin>
@kiocb:	<stdin>
@kmap:	<stdin>
@kmap_atomic:	<stdin>
@kobj:	<stdin>
@kref:	<stdin>
@kstat_irqs:	<stdin>
@kunmap:	<stdin>
@kunmap_atomic:	<stdin>
@kworker:	<stdin>
@kworker_task:	<stdin>
@label:	<stdin>
@last_unhandled:	<stdin>
@latch_status:	<stdin>
@layout	<stdin>
@lc,	<stdin>
@lc:	<stdin>
@lc:	<stdin>
@lc:	<stdin>
@lcladv:	<stdin>
@len:	<stdin>
@len:	<stdin>
@len:	<stdin>
@len:	<stdin>
@length:	<stdin>
@length:	<stdin>
@level:	<stdin>
@list:	<stdin>
@list:	<stdin>
@list:	<stdin>
@list:	<stdin>
@list:	<stdin>
@list:	<stdin>
@little_endian:	<stdin>
@lo:	<stdin>
@lock:	<stdin>
@lock:	<stdin>
@lock:	<stdin>
@lock:	<stdin>
@lock:	<stdin>
@lock:	<stdin>
@lpm_capable:	<stdin>
@lpm_disable_count:	<stdin>
@m:	<stdin>
@m:	<stdin>
@m:	<stdin>
@m:	<stdin>
@manufacturer:	<stdin>
@map:	<stdin>
@map:	<stdin>
@map_dma_buf:	<stdin>
@mask:	<stdin>
@mask:	<stdin>
@maskproc:	<stdin>
@master.	<stdin>
@master:	<stdin>
@max_active	<stdin>
@max_active:	<stdin>
@max_adj:	<stdin>
@max_hang_time:	<stdin>
@max_idle_ns:	<stdin>
@max_reason:	<stdin>
@max_seq_nr:	<stdin>
@max_speed_hz:	<stdin>
@max_speed_hz:	<stdin>
@max_timeout:The	<stdin>
@maxadj:	<stdin>
@maxchild:	<stdin>
@mdma_filter:	<stdin>
@mem:	<stdin>
@member:	<stdin>
@member:	<stdin>
@member:	<stdin>
@member:	<stdin>
@mempool:	<stdin>
@mempool:	<stdin>
@memtype:	<stdin>
@mfa:	<stdin>
@min_timeout:The	<stdin>
@minor:	<stdin>
@minor:	<stdin>
@minor_base:	<stdin>
@miso:	<stdin>
@mmap:	<stdin>
@mmap:	<stdin>
@mod8_tab:	<stdin>
@mod_name:	<stdin>
@modalias:	<stdin>
@modalias:	<stdin>
@mode:	<stdin>
@mode:	<stdin>
@mode_bits:	<stdin>
@mosi:	<stdin>
@msg:	<stdin>
@msg:	<stdin>
@msg:	<stdin>
@msg_enable	<stdin>
@mult:	<stdin>
@mult:	<stdin>
@mult:	<stdin>
@mult:	<stdin>
@n:	<stdin>
@n:	<stdin>
@n_alarm:	<stdin>
@n_ext_ts:	<stdin>
@n_per_out:	<stdin>
@n_rx_rings:	<stdin>
@name:	<stdin>
@name:	<stdin>
@name:	<stdin>
@name:	<stdin>
@name:	<stdin>
@name:	<stdin>
@name:	<stdin>
@name:	<stdin>
@name:	<stdin>
@name:	<stdin>
@name:	<stdin>
@name:	<stdin>
@name:	<stdin>
@name:	<stdin>
@nbytes:	<stdin>
@near:	<stdin>
@needs_altsetting0:	<stdin>
@needs_binding:	<stdin>
@needs_remote_wakeup:	<stdin>
@negotiated:	<stdin>
@negotiated:	<stdin>
@nets	<stdin>
@new:	<stdin>
@next	<stdin>
@next:	<stdin>
@nid:	<stdin>
@no_dynamic_id:	<stdin>
@node:	<stdin>
@node:	<stdin>
@node:	<stdin>
@node:	<stdin>
@node:	<stdin>
@node:	<stdin>
@notify:	<stdin>
@npwm:	<stdin>
@nr:	<stdin>
@nr_events:	<stdin>
@nr_hangs:	<stdin>
@nr_parts:	<stdin>
@nr_retries:	<stdin>
@nsec:	<stdin>
@num:	<stdin>
@num_altsetting:	<stdin>
@num_altsetting:	<stdin>
@num_chipselect:	<stdin>
@num_chipselect:	<stdin>
@num_chipselect:	<stdin>
@num_devices:	<stdin>
@num_mapped_sgs:	<stdin>
@num_obj:	<stdin>
@num_sgs:	<stdin>
@number_of_packets:	<stdin>
@nway_reset:	<stdin>
@obj:	<stdin>
@of_node:	<stdin>
@offset:	<stdin>
@offset:	<stdin>
@old:	<stdin>
@open:	<stdin>
@open:	<stdin>
@ops:	<stdin>
@ops:	<stdin>
@ops:	<stdin>
@ops:	<stdin>
@ops:	<stdin>
@owner:	<stdin>
@owner:	<stdin>
@owner:	<stdin>
@owner:	<stdin>
@owner:	<stdin>
@p	<stdin>
@p	<stdin>
@p.	<stdin>
@p:	<stdin>
@p:	<stdin>
@p:	<stdin>
@p:	<stdin>
@p:	<stdin>
@p:	<stdin>
@p:	<stdin>
@p:	<stdin>
@p:	<stdin>
@p:	<stdin>
@p:	<stdin>
@p:	<stdin>
@page:	<stdin>
@parallel:	<stdin>
@parallel:	<stdin>
@parent:	<stdin>
@parent:	<stdin>
@parent:	<stdin>
@parent_bus_num:	<stdin>
@parts:	<stdin>
@path:	<stdin>
@pc:	<stdin>
@pcpu	<stdin>
@pcpu:	<stdin>
@pd:	<stdin>
@pd:	<stdin>
@pd:	<stdin>
@pd:	<stdin>
@pending_mask:	<stdin>
@percpu_dev_id:	<stdin>
@persist_enabled:	<stdin>
@pinctrl_state_idle:	<stdin>
@pinctrl_states	<stdin>
@pinctrl_states:	<stdin>
@ping:	<stdin>
@pinst:	<stdin>
@pipe.	<stdin>
@pipe:	<stdin>
@pipe:	<stdin>
@pipe:	<stdin>
@pipe:	<stdin>
@platform_data:	<stdin>
@platform_data:	<stdin>
@pm_usage_cnt:	<stdin>
@poll:	<stdin>
@poll_interval.	<stdin>
@poll_interval:	<stdin>
@poll_interval_max:	<stdin>
@poll_interval_min:	<stdin>
@poly_2t:	<stdin>
@pool:	<stdin>
@pool_data:	<stdin>
@pool_data:	<stdin>
@port1:	<stdin>
@port:	<stdin>
@port_is_suspended:	<stdin>
@portio:	<stdin>
@portnum:	<stdin>
@porttype:	<stdin>
@pos:	<stdin>
@pos:	<stdin>
@pos:	<stdin>
@pos:	<stdin>
@post_exception:	<stdin>
@post_reset:	<stdin>
@power_status:	<stdin>
@pps:	<stdin>
@pps_times:	<stdin>
@pqueue:	<stdin>
@pr:	<stdin>
@pr:	<stdin>
@pr:	<stdin>
@pr:	<stdin>
@pr:	<stdin>
@pre_exception:	<stdin>
@pre_reset:	<stdin>
@pre_reset:	<stdin>
@prefix:	<stdin>
@prefix?	<stdin>
@preflow_handler:	<stdin>
@prepare_transfer_hardware:	<stdin>
@priv:	<stdin>
@priv:	<stdin>
@priv:	<stdin>
@private:	<stdin>
@private:	<stdin>
@probe:	<stdin>
@probe:	<stdin>
@probe:	<stdin>
@probe:	<stdin>
@processed:	<stdin>
@prod:	<stdin>
@prod:	<stdin>
@prod:	<stdin>
@prod:	<stdin>
@prod:	<stdin>
@prod:	<stdin>
@product:	<stdin>
@projid:	<stdin>
@ptp:	<stdin>
@ptp:	<stdin>
@ptp:	<stdin>
@ptr.	<stdin>
@ptr:	<stdin>
@ptr:	<stdin>
@pump_messages:	<stdin>
@pwms:	<stdin>
@pwork:	<stdin>
@qid:	<stdin>
@queue:	<stdin>
@queue:	<stdin>
@queue_lock:	<stdin>
@queued:	<stdin>
@quirkproc:	<stdin>
@quirks:	<stdin>
@rating:	<stdin>
@rawdescriptors:	<stdin>
@rcu_head:	<stdin>
@read:	<stdin>
@read:	<stdin>
@read_char:	<stdin>
@recur:	<stdin>
@ref:	<stdin>
@ref:	<stdin>
@refcnt:	<stdin>
@refcount:	<stdin>
@reg_chip_select:	<stdin>
@reg_data_clock:	<stdin>
@reg_data_in:	<stdin>
@reg_data_out:	<stdin>
@register_read(struct	<stdin>
@register_write(struct	<stdin>
@registered:	<stdin>
@regs	<stdin>
@regs.	<stdin>
@regs:	<stdin>
@regs:	<stdin>
@regs:	<stdin>
@regs:	<stdin>
@regs:	<stdin>
@release:	<stdin>
@release:	<stdin>
@release:	<stdin>
@release:	<stdin>
@remcom_in_buffer:	<stdin>
@remcom_out_buffer:	<stdin>
@removable:	<stdin>
@remove:	<stdin>
@remove:	<stdin>
@remove_all_hw_break:	<stdin>
@remove_breakpoint:	<stdin>
@remove_hw_breakpoint:	<stdin>
@reorder:	<stdin>
@reorder_objects:	<stdin>
@request:	<stdin>
@reset:	<stdin>
@reset_poll:	<stdin>
@reset_resume:	<stdin>
@reset_resume:	<stdin>
@reset_running:	<stdin>
@reset_ws:	<stdin>
@resetproc:	<stdin>
@resetting_device:	<stdin>
@resolution:	<stdin>
@resume:	<stdin>
@resume:	<stdin>
@resume:	<stdin>
@resume:	<stdin>
@resume:	<stdin>
@ret_code:	<stdin>
@rmtadv:	<stdin>
@route:	<stdin>
@rt:	<stdin>
@running:	<stdin>
@rx_buf	<stdin>
@rx_buf.	<stdin>
@rx_buf:	<stdin>
@rx_dma:	<stdin>
@s:	<stdin>
@sb:	<stdin>
@sb:	<stdin>
@sb:	<stdin>
@sb:	<stdin>
@sb:	<stdin>
@sb:	<stdin>
@sc:	<stdin>
@sc:	<stdin>
@sc:	<stdin>
@sc:	<stdin>
@sck:	<stdin>
@sdrv:	<stdin>
@seed:	<stdin>
@self_test:	<stdin>
@seq_nr:	<stdin>
@serial:	<stdin>
@serial:	<stdin>
@serial:	<stdin>
@serial:	<stdin>
@set_attention_status:	<stdin>
@set_breakpoint:	<stdin>
@set_channels:	<stdin>
@set_coalesce:	<stdin>
@set_dma_mode:	<stdin>
@set_dump:	<stdin>
@set_eee:	<stdin>
@set_eeprom:	<stdin>
@set_hw_breakpoint:	<stdin>
@set_msglevel:	<stdin>
@set_pauseparam:	<stdin>
@set_phys_id:	<stdin>
@set_pio_mode:	<stdin>
@set_polarity:	<stdin>
@set_priv_flags:	<stdin>
@set_ringparam:	<stdin>
@set_rxfh_indir:	<stdin>
@set_rxnfc:	<stdin>
@set_settings:	<stdin>
@set_timeout:The	<stdin>
@set_wol:	<stdin>
@settime:	<stdin>
@setup:	<stdin>
@setup_dma:	<stdin>
@setup_packet:	<stdin>
@setup_packet:	<stdin>
@sg:	<stdin>
@shift:	<stdin>
@shift:	<stdin>
@shift:	<stdin>
@shift:	<stdin>
@shift:	<stdin>
@shift:	<stdin>
@shift:	<stdin>
@shift:	<stdin>
@shift:	<stdin>
@shift:	<stdin>
@shift:	<stdin>
@shift_constant:	<stdin>
@shift_constant:	<stdin>
@shortname:	<stdin>
@shutdown:	<stdin>
@shutdown:	<stdin>
@signo:	<stdin>
@size:	<stdin>
@size:	<stdin>
@size:	<stdin>
@size:	<stdin>
@size:	<stdin>
@size:	<stdin>
@size:	<stdin>
@size:	<stdin>
@size:	<stdin>
@skb	<stdin>
@skb	<stdin>
@skb	<stdin>
@skb	<stdin>
@skb->cb[]	<stdin>
@skb->vlan_tci	<stdin>
@skb->vlan_tci	<stdin>
@skb:	<stdin>
@skb:	<stdin>
@skb:	<stdin>
@skb:	<stdin>
@skb:	<stdin>
@skb:	<stdin>
@skb:	<stdin>
@skb:	<stdin>
@slot_id:	<stdin>
@soft_unbind:	<stdin>
@softirq_time:	<stdin>
@speed:	<stdin>
@speed_hz:	<stdin>
@spi:	<stdin>
@spi:	<stdin>
@spi:	<stdin>
@spi:	<stdin>
@spi:	<stdin>
@spi_device	<stdin>
@spi_device	<stdin>
@spi_device)	<stdin>
@spi_device)	<stdin>
@spi_message	<stdin>
@spi_message.	<stdin>
@spi_message.is_dma_mapped	<stdin>
@spi_message.is_dma_mapped	<stdin>
@spi_message.transfers	<stdin>
@squeue:	<stdin>
@ss_ep_comp:	<stdin>
@ssc_id:	<stdin>
@start:	<stdin>
@start:	<stdin>
@start:	<stdin>
@start:	<stdin>
@start_comm:	<stdin>
@start_frame:	<stdin>
@start_pid:	<stdin>
@start_site:	<stdin>
@start_tstamp:	<stdin>
@state:	<stdin>
@state:	<stdin>
@state:	<stdin>
@state:	<stdin>
@state:	<stdin>
@state:	<stdin>
@state:	<stdin>
@state:	<stdin>
@status	<stdin>
@status:	<stdin>
@status:	<stdin>
@status:	<stdin>
@status:	<stdin>
@status:	<stdin>
@status:	<stdin>
@stop:	<stdin>
@str	<stdin>
@str:	<stdin>
@stream_id:	<stdin>
@string:	<stdin>
@string_langid:	<stdin>
@supports_autosuspend:	<stdin>
@supports_autosuspend:	<stdin>
@suspend:	<stdin>
@suspend:	<stdin>
@suspend:	<stdin>
@suspend:	<stdin>
@suspend:	<stdin>
@swork:	<stdin>
@syn:	<stdin>
@sysfs_files_created:	<stdin>
@t:	<stdin>
@target	<stdin>
@target	<stdin>
@target.	<stdin>
@target:	<stdin>
@task:	<stdin>
@tc:	<stdin>
@tc:	<stdin>
@tc:	<stdin>
@thread	<stdin>
@thread	<stdin>
@thread:	<stdin>
@thread_flags:	<stdin>
@thread_fn:	<stdin>
@thread_mask:	<stdin>
@threads_active:	<stdin>
@threads_oneshot:	<stdin>
@timeout:	<stdin>
@timeout:	<stdin>
@timer:	<stdin>
@timer:	<stdin>
@timestamp:	<stdin>
@toggle:	<stdin>
@transfer:	<stdin>
@transfer_buffer:	<stdin>
@transfer_buffer:	<stdin>
@transfer_buffer:	<stdin>
@transfer_buffer:	<stdin>
@transfer_buffer_length:	<stdin>
@transfer_dma:	<stdin>
@transfer_flags:	<stdin>
@transfer_list:	<stdin>
@transfer_one_message:	<stdin>
@transfers:	<stdin>
@tt:	<stdin>
@ttport:	<stdin>
@tx_buf.	<stdin>
@tx_buf:	<stdin>
@tx_dma:	<stdin>
@type:	<stdin>
@type:	<stdin>
@type:	<stdin>
@type:	<stdin>
@type:	<stdin>
@type:	<stdin>
@type:	<stdin>
@u,	<stdin>
@u.	<stdin>
@u1_params:	<stdin>
@u2_params:	<stdin>
@u:	<stdin>
@udma_filter:	<stdin>
@uid:	<stdin>
@uio_dev:	<stdin>
@unlocked_ioctl:	<stdin>
@unmap_dma_buf:	<stdin>
@unprepare_transfer_hardware:	<stdin>
@unref:	<stdin>
@unregistering:	<stdin>
@urb	<stdin>
@urb	<stdin>
@urb:	<stdin>
@urb:	<stdin>
@urb:	<stdin>
@urb:	<stdin>
@urb:	<stdin>
@urb_list:	<stdin>
@urb_list:	<stdin>
@urbnum:	<stdin>
@usb2_hw_lpm_capable:	<stdin>
@usb2_hw_lpm_enabled:	<stdin>
@usb_classdev:	<stdin>
@usb_dev:	<stdin>
@usbfs_dentry:	<stdin>
@used:	<stdin>
@v	<stdin>
@v	<stdin>
@v	<stdin>
@v	<stdin>
@v	<stdin>
@v,	<stdin>
@v:	<stdin>
@v:	<stdin>
@v:	<stdin>
@v:	<stdin>
@v:	<stdin>
@val:	<stdin>
@val:	<stdin>
@val:	<stdin>
@val:	<stdin>
@value:	<stdin>
@value:	<stdin>
@vector:	<stdin>
@vend:	<stdin>
@vend:	<stdin>
@vend:	<stdin>
@vend:	<stdin>
@vend:	<stdin>
@vend:	<stdin>
@vend:	<stdin>
@version,	<stdin>
@version:	<stdin>
@victim	<stdin>
@victim	<stdin>
@victim:	<stdin>
@vlan_tci:	<stdin>
@vlan_tci:	<stdin>
@vlan_tci:	<stdin>
@vlan_tci:	<stdin>
@vlan_tci:	<stdin>
@vlan_tci:	<stdin>
@vlan_tci:	<stdin>
@vmap:	<stdin>
@volume:	<stdin>
@vunmap:	<stdin>
@wait_for_threads:	<stdin>
@wake_depth:	<stdin>
@width:	<stdin>
@word	<stdin>
@word:	<stdin>
@word:	<stdin>
@word:	<stdin>
@word:	<stdin>
@word:	<stdin>
@word:	<stdin>
@word:	<stdin>
@word:	<stdin>
@word:	<stdin>
@word:	<stdin>
@word:	<stdin>
@work:	<stdin>
@work:	<stdin>
@work:	<stdin>
@work:	<stdin>
@work:	<stdin>
@work:	<stdin>
@wq:	<stdin>
@write_char:	<stdin>
@wusb:	<stdin>
@wusb_dev:	<stdin>
@x	<stdin>
@x	<stdin>
@x	<stdin>
@x	<stdin>
@x	<stdin>
@x	<stdin>
@x.	<stdin>
@x.	<stdin>
@x:	<stdin>
@x:	<stdin>
@x:	<stdin>
@xi_tab:	<stdin>
christopher.leech@intel.com,	<stdin>
jim.houston@ccur.com	<stdin>
kmorneau@cisco.com	<stdin>
q<muvarov@ru.mvista.com>	<stdin>
qxie1@email.mot.com	<stdin>
randall@sctp.chicago.il.us	<stdin>
rmk@arm.uk.linux.org	<stdin>
scott.feldman@intel.com)	<stdin>
