(@NL80211_CMD_NEW_STATION).	<stdin>
(Michael.Hipp@student.uni-tuebingen.de)	<stdin>
(calle@calle.in-berlin.de)	<stdin>
(calle@calle.in-berlin.de)	<stdin>
(fritz@isdn4linux.de)	<stdin>
(fritz@isdn4linux.de)	<stdin>
(jonathan@buzzard.org.uk)	<stdin>
(kai@germaschewski.name)	<stdin>
(marc@mbsi.ca).	<stdin>
(mvw@planets.elm.net)	<stdin>
(sfr@canb.auug.org.au)	<stdin>
(werner@titro.de)	<stdin>
(werner@titro.de)	<stdin>
<Matt_Domsch@dell.com>	<stdin>
<a.gruenbacher@computer.org>	<stdin>
<ad@convergence.de>	<stdin>
<adilger@sun.com>	<stdin>
<alan@lxorguk.ukuu.org.uk>	<stdin>
<alex.williamson@redhat.com>	<stdin>
<andros@umich.edu>	<stdin>
<aris@cathedrallabs.org>	<stdin>
<axboe@suse.de>	<stdin>
<balbir@linux.vnet.ibm.com>	<stdin>
<bart.de.schuymer@pandora.be>	<stdin>
<bcrl@kvack.org>	<stdin>
<bdschuym@pandora.be>	<stdin>
<becker@super.org>	<stdin>
<becker@super.org>	<stdin>
<ben.williamson@greyinnovation.com>	<stdin>
<bill@thedirks.org>	<stdin>
<bof@bof.de>	<stdin>
<calle@calle.de>	<stdin>
<colin@cozybit.com>	<stdin>
<davidel@xmailserver.org>	<stdin>
<davidm@snapgear.com>	<stdin>
<derhart@quicknet.net>	<stdin>
<dz@debian.org>	<stdin>
<eokerson@quicknet.net>	<stdin>
<eranian@hpl.hp.com>	<stdin>
<ext-timo.teras@nokia.com>	<stdin>
<flamingice@sourmilk.net>	<stdin>
<fventuri@mediaone.net>	<stdin>
<gandalf@wlug.westbo.se>	<stdin>
<gherlein@quicknet.net>	<stdin>
<giometti@linux.it>	<stdin>
<gozem@linux.nu>	<stdin>
<grant@torque.net>	<stdin>
<gregkh@suse.de>	<stdin>
<grzes@gnu.univ.gda.pl>	<stdin>
<gw7rrm@eeshack3.swan.ac.uk>	<stdin>
<hans.verkuil@cisco.com>	<stdin>
<hno@marasystems.com>	<stdin>
<holger@convergence.de>	<stdin>
<holger@convergence.de>	<stdin>
<hverkuil@xs4all.nl>	<stdin>
<hverkuil@xs4all.nl>	<stdin>
<ian@iarmst.demon.co.uk>	<stdin>
<inaky.perez-gonzalez@intel.com>	<stdin>
<j@w1.fi>)	<stdin>
<jchapman@katalix.com>	<stdin>
<jirislaby@gmail.com>	<stdin>
<jlayton@redhat.com>	<stdin>
<jmorris@redhat.com>	<stdin>
<jmorris@redhat.com>	<stdin>
<jmorris@redhat.com>	<stdin>
<johannes@sipsolutions.net>	<stdin>
<johnpol@2ka.mxt.ru>	<stdin>
<jouni.malinen@atheros.com>	<stdin>
<jpirko@redhat.com>	<stdin>
<jschlst@samba.org>	<stdin>
<jsellers@quicknet.net>	<stdin>
<jt@hpl.hp.com>	<stdin>
<juergen@monocerus.demon.co.uk>	<stdin>
<jun1m@mars.dti.ne.jp>	<stdin>
<kadlec@blackhole.kfki.hu>	<stdin>
<kalpak.shah@sun.com>	<stdin>
<kaz@cafe.net>	<stdin>
<khc@pm.waw.pl>	<stdin>
<kjahds@kjahds.com>	<stdin>
<kmsmith@umich.edu>	<stdin>
<krh@bitplanet.net>	<stdin>
<kuo-lang.tseng@intel.com>	<stdin>
<laforge@gnumonks.org>	<stdin>
<laforge@gnumonks.org>	<stdin>
<laforge@gnumonks.org>	<stdin>
<laforge@gnumonks.org>	<stdin>
<laforge@gnumonks.org>	<stdin>
<laforge@gnumonks.org>	<stdin>
<laforge@gnumonks.org>	<stdin>
<laforge@netfilter.org>	<stdin>
<laforge@netfilter.org>	<stdin>
<laurent.pinchart@ideasonboard.com>	<stdin>
<linux-wimax@intel.com>	<stdin>
<lrodriguez@atheros.com>	<stdin>
<luciano.coelho@nokia.com>	<stdin>
<luciano.coelho@nokia.com>	<stdin>
<luisca@cozybit.com>	<stdin>
<m.ashley@unsw.edu.au>	<stdin>
<m@bues.ch>	<stdin>
<manohar.r.castelino@intel.com>	<stdin>
<marcus@convergence.de>	<stdin>
<marcus@convergence.de>	<stdin>
<marcus@convergence.de>	<stdin>
<marcus@convergence.de>	<stdin>
<marcus@convergence.de>	<stdin>
<marcus@convergence.de>	<stdin>
<marcus@convergence.de>	<stdin>
<marcus@convergence.de>	<stdin>
<marcus@convergence.de>	<stdin>
<marcus@convergence.de>	<stdin>
<max_mk@yahoo.com>	<stdin>
<mfasheh@suse.com>	<stdin>
<mgm@paktronix.com>	<stdin>
<mhopf@innominate.com>	<stdin>
<micah@navi.cx>)	<stdin>
<mike.mclagan@linux.org>	<stdin>
<minyard@mvista.com>	<stdin>
<mj@ucw.cz>	<stdin>
<mj@ucw.cz>	<stdin>
<mpreston@quicknet.net>	<stdin>
<mst@redhat.com>	<stdin>
<nars@kadamba.org>	<stdin>
<ncorbic@sangoma.com>	<stdin>
<neilb@cse.unsw.edu.au>	<stdin>
<okir@monad.swb.de>	<stdin>
<okir@monad.swb.de>	<stdin>
<okir@monad.swb.de>	<stdin>
<okir@monad.swb.de>	<stdin>
<oliver.hartkopp@volkswagen.de>	<stdin>
<patrick.ohly@intel.com>	<stdin>
<petero2@telia.com>	<stdin>
<ralph@convergence.de>	<stdin>
<ralph@convergence.de>	<stdin>
<ralph@convergence.de>	<stdin>
<ralph@convergence.de>	<stdin>
<ralph@convergence.de>	<stdin>
<ralph@convergence.de>	<stdin>
<ralph@convergence.de>	<stdin>
<ralph@convergence.de>	<stdin>
<ralph@convergence.de>	<stdin>
<ralph@convergence.de>	<stdin>
<roque@di.fc.ul.pt>	<stdin>
<sakari.ailus@iki.fi>	<stdin>
<stefani@lkg.dec.com>	<stdin>
<stelian@popies.net>	<stdin>
<stelian@popies.net>	<stdin>
<stud11@cc4.kuleuven.ac.be>	<stdin>
<stud11@cc4.kuleuven.ac.be>	<stdin>
<t-kinjo@tc4.so-net.ne.jp>	<stdin>
<tglx@linutronix.de>	<stdin>
<tgraf@redhat.com>	<stdin>
<tigran@veritas.com>	<stdin>
<tridge@valinux.com>	<stdin>
<tridge@valinux.com>	<stdin>
<urs.thuermann@volkswagen.de>	<stdin>
<vma@iol.unh.edu>	<stdin>
<vojtech@suse.cz>,	<stdin>
<vojtech@suse.cz>,	<stdin>
<waltje@uWalt.NL.Mugnet.ORG>	<stdin>
<waltje@uWalt.NL.Mugnet.ORG>	<stdin>
<waltje@uWalt.NL.Mugnet.ORG>	<stdin>
<waltje@uWalt.NL.Mugnet.ORG>	<stdin>
<waltje@uWalt.NL.Mugnet.ORG>	<stdin>
<waltje@uWalt.NL.Mugnet.ORG>	<stdin>
<ying.huang@intel.com>	<stdin>
<yoshfuji@linux-ipv6.org>	<stdin>
@FE_HAS_CARRIER:	<stdin>
@FE_HAS_LOCK:	<stdin>
@FE_HAS_SIGNAL:	<stdin>
@FE_HAS_SYNC:	<stdin>
@FE_HAS_VITERBI:	<stdin>
@FE_REINIT:	<stdin>
@FE_TIMEDOUT:	<stdin>
@MAX_NL80211_IFACE_COMB:	<stdin>
@MAX_NL80211_IFACE_LIMIT:	<stdin>
@MAX_NL80211_PLINK_STATES:	<stdin>
@MAX_NL80211_PMKSA_CANDIDATE:	<stdin>
@MAX_NL80211_REKEY_DATA:	<stdin>
@MAX_NL80211_WOWLAN_PKTPAT:	<stdin>
@MAX_NL80211_WOWLAN_TRIG:	<stdin>
@NL80211_ATTR_4ADDR:	<stdin>
@NL80211_ATTR_ACK:	<stdin>
@NL80211_ATTR_AKM_SUITES:	<stdin>
@NL80211_ATTR_AP_ISOLATE:	<stdin>
@NL80211_ATTR_AUTH_TYPE:	<stdin>
@NL80211_ATTR_BEACON_HEAD:	<stdin>
@NL80211_ATTR_BEACON_INTERVAL:	<stdin>
@NL80211_ATTR_BEACON_TAIL:	<stdin>
@NL80211_ATTR_BG_SCAN_PERIOD:	<stdin>
@NL80211_ATTR_BSS:	<stdin>
@NL80211_ATTR_BSS_BASIC_RATES:	<stdin>
@NL80211_ATTR_BSS_CTS_PROT:	<stdin>
@NL80211_ATTR_BSS_HT_OPMODE:	<stdin>
@NL80211_ATTR_BSS_SHORT_PREAMBLE:	<stdin>
@NL80211_ATTR_BSS_SHORT_SLOT_TIME:	<stdin>
@NL80211_ATTR_CENTER_FREQ1:	<stdin>
@NL80211_ATTR_CENTER_FREQ2:	<stdin>
@NL80211_ATTR_CHANNEL_WIDTH:	<stdin>
@NL80211_ATTR_CIPHERS_PAIRWISE:	<stdin>
@NL80211_ATTR_CIPHER_GROUP:	<stdin>
@NL80211_ATTR_CIPHER_SUITES:	<stdin>
@NL80211_ATTR_CIPHER_SUITES_PAIRWISE:	<stdin>
@NL80211_ATTR_CIPHER_SUITE_GROUP:	<stdin>
@NL80211_ATTR_CONN_FAILED_REASON:	<stdin>
@NL80211_ATTR_CONTROL_PORT:	<stdin>
@NL80211_ATTR_CONTROL_PORT_ETHERTYPE:	<stdin>
@NL80211_ATTR_CONTROL_PORT_NO_ENCRYPT:	<stdin>
@NL80211_ATTR_COOKIE:	<stdin>
@NL80211_ATTR_CQM:	<stdin>
@NL80211_ATTR_CQM_MAX:	<stdin>
@NL80211_ATTR_CQM_PKT_LOSS_EVENT:	<stdin>
@NL80211_ATTR_CQM_RSSI_HYST:	<stdin>
@NL80211_ATTR_CQM_RSSI_THOLD:	<stdin>
@NL80211_ATTR_CQM_RSSI_THRESHOLD_EVENT:	<stdin>
@NL80211_ATTR_CQM_TXE_INTVL:	<stdin>
@NL80211_ATTR_CQM_TXE_PKTS:	<stdin>
@NL80211_ATTR_CQM_TXE_RATE:	<stdin>
@NL80211_ATTR_DEVICE_AP_SME:	<stdin>
@NL80211_ATTR_DFS_REGION:	<stdin>
@NL80211_ATTR_DISABLE_HT:	<stdin>
@NL80211_ATTR_DISCONNECTED_BY_AP:	<stdin>
@NL80211_ATTR_DONT_WAIT_FOR_ACK:	<stdin>
@NL80211_ATTR_DTIM_PERIOD:	<stdin>
@NL80211_ATTR_DURATION:	<stdin>
@NL80211_ATTR_FEATURE_FLAGS:	<stdin>
@NL80211_ATTR_FRAME:	<stdin>
@NL80211_ATTR_FRAME_MATCH:	<stdin>
@NL80211_ATTR_FRAME_TYPE:	<stdin>
@NL80211_ATTR_FREQ_AFTER:	<stdin>
@NL80211_ATTR_FREQ_BEFORE:	<stdin>
@NL80211_ATTR_FREQ_FIXED:	<stdin>
@NL80211_ATTR_FREQ_RANGE_END:	<stdin>
@NL80211_ATTR_FREQ_RANGE_MAX_BW:	<stdin>
@NL80211_ATTR_FREQ_RANGE_START:	<stdin>
@NL80211_ATTR_GENERATION:	<stdin>
@NL80211_ATTR_HIDDEN_SSID:	<stdin>
@NL80211_ATTR_HT_CAPABILITY:	<stdin>
@NL80211_ATTR_HT_CAPABILITY_MASK:	<stdin>
@NL80211_ATTR_IE:	<stdin>
@NL80211_ATTR_IE_ASSOC_RESP:	<stdin>
@NL80211_ATTR_IE_PROBE_RESP:	<stdin>
@NL80211_ATTR_IFINDEX:	<stdin>
@NL80211_ATTR_IFNAME:	<stdin>
@NL80211_ATTR_IFTYPE:	<stdin>
@NL80211_ATTR_INACTIVITY_TIMEOUT:	<stdin>
@NL80211_ATTR_INTERFACE_COMBINATIONS:	<stdin>
@NL80211_ATTR_KEY:	<stdin>
@NL80211_ATTR_KEYS:	<stdin>
@NL80211_ATTR_KEY_CIPHER:	<stdin>
@NL80211_ATTR_KEY_DATA:	<stdin>
@NL80211_ATTR_KEY_DEFAULT:	<stdin>
@NL80211_ATTR_KEY_DEFAULT_MGMT:	<stdin>
@NL80211_ATTR_KEY_DEFAULT_TYPES:	<stdin>
@NL80211_ATTR_KEY_IDX:	<stdin>
@NL80211_ATTR_KEY_SEQ:	<stdin>
@NL80211_ATTR_KEY_TYPE:	<stdin>
@NL80211_ATTR_LOCAL_STATE_CHANGE:	<stdin>
@NL80211_ATTR_MAC:	<stdin>
@NL80211_ATTR_MAX:	<stdin>
@NL80211_ATTR_MAX_MATCH_SETS:	<stdin>
@NL80211_ATTR_MAX_NUM_PMKIDS:	<stdin>
@NL80211_ATTR_MAX_NUM_SCAN_SSIDS:	<stdin>
@NL80211_ATTR_MAX_NUM_SCHED_SCAN_SSIDS:	<stdin>
@NL80211_ATTR_MAX_REMAIN_ON_CHANNEL_DURATION:	<stdin>
@NL80211_ATTR_MAX_SCAN_IE_LEN:	<stdin>
@NL80211_ATTR_MAX_SCHED_SCAN_IE_LEN:	<stdin>
@NL80211_ATTR_MCAST_RATE:	<stdin>
@NL80211_ATTR_MESH_CONFIG:	<stdin>
@NL80211_ATTR_MESH_ID:	<stdin>
@NL80211_ATTR_MESH_SETUP:	<stdin>
@NL80211_ATTR_MGMT_SUBTYPE:	<stdin>
@NL80211_ATTR_MNTR_FLAGS:	<stdin>
@NL80211_ATTR_MPATH_INFO:	<stdin>
@NL80211_ATTR_MPATH_NEXT_HOP:	<stdin>
@NL80211_ATTR_NOACK_MAP:	<stdin>
@NL80211_ATTR_OFFCHANNEL_TX_OK:	<stdin>
@NL80211_ATTR_P2P_CTWINDOW:	<stdin>
@NL80211_ATTR_P2P_OPPPS:	<stdin>
@NL80211_ATTR_PID:	<stdin>
@NL80211_ATTR_PMKID:	<stdin>
@NL80211_ATTR_PMKSA_CANDIDATE:	<stdin>
@NL80211_ATTR_POWER_RULE_MAX_ANT_GAIN:	<stdin>
@NL80211_ATTR_POWER_RULE_MAX_EIRP:	<stdin>
@NL80211_ATTR_PREV_BSSID:	<stdin>
@NL80211_ATTR_PRIVACY:	<stdin>
@NL80211_ATTR_PROBE_RESP:	<stdin>
@NL80211_ATTR_PROBE_RESP_OFFLOAD:	<stdin>
@NL80211_ATTR_PS_STATE:	<stdin>
@NL80211_ATTR_REASON_CODE:	<stdin>
@NL80211_ATTR_REG_ALPHA2:	<stdin>
@NL80211_ATTR_REG_INITIATOR:	<stdin>
@NL80211_ATTR_REG_RULES:	<stdin>
@NL80211_ATTR_REG_RULE_FLAGS:	<stdin>
@NL80211_ATTR_REG_TYPE:	<stdin>
@NL80211_ATTR_REKEY_DATA:	<stdin>
@NL80211_ATTR_REQ_IE:	<stdin>
@NL80211_ATTR_RESP_IE:	<stdin>
@NL80211_ATTR_ROAM_SUPPORT:	<stdin>
@NL80211_ATTR_RX_FRAME_TYPES:	<stdin>
@NL80211_ATTR_RX_SIGNAL_DBM:	<stdin>
@NL80211_ATTR_SAE_DATA:	<stdin>
@NL80211_ATTR_SCAN_FLAGS:	<stdin>
@NL80211_ATTR_SCAN_FREQUENCIES:	<stdin>
@NL80211_ATTR_SCAN_SSIDS	<stdin>
@NL80211_ATTR_SCAN_SSIDS:	<stdin>
@NL80211_ATTR_SCAN_SUPP_RATES:	<stdin>
@NL80211_ATTR_SCHED_SCAN_INTERVAL:	<stdin>
@NL80211_ATTR_SCHED_SCAN_MATCH,	<stdin>
@NL80211_ATTR_SCHED_SCAN_MATCH:	<stdin>
@NL80211_ATTR_SOFTWARE_IFTYPES:	<stdin>
@NL80211_ATTR_SSID:	<stdin>
@NL80211_ATTR_STATUS_CODE:	<stdin>
@NL80211_ATTR_STA_AID:	<stdin>
@NL80211_ATTR_STA_FLAGS2:	<stdin>
@NL80211_ATTR_STA_FLAGS:	<stdin>
@NL80211_ATTR_STA_INFO:	<stdin>
@NL80211_ATTR_STA_LISTEN_INTERVAL:	<stdin>
@NL80211_ATTR_STA_PLINK_ACTION:	<stdin>
@NL80211_ATTR_STA_PLINK_STATE:	<stdin>
@NL80211_ATTR_STA_SUPPORTED_RATES:	<stdin>
@NL80211_ATTR_STA_VLAN:	<stdin>
@NL80211_ATTR_STA_WME:	<stdin>
@NL80211_ATTR_SUPPORTED_COMMANDS:	<stdin>
@NL80211_ATTR_SUPPORTED_IFTYPES:	<stdin>
@NL80211_ATTR_SUPPORT_AP_UAPSD:	<stdin>
@NL80211_ATTR_SUPPORT_IBSS_RSN:	<stdin>
@NL80211_ATTR_SUPPORT_MESH_AUTH:	<stdin>
@NL80211_ATTR_SURVEY_INFO:	<stdin>
@NL80211_ATTR_TDLS_ACTION:	<stdin>
@NL80211_ATTR_TDLS_DIALOG_TOKEN:	<stdin>
@NL80211_ATTR_TDLS_EXTERNAL_SETUP:	<stdin>
@NL80211_ATTR_TDLS_OPERATION:	<stdin>
@NL80211_ATTR_TDLS_SUPPORT:	<stdin>
@NL80211_ATTR_TESTDATA:	<stdin>
@NL80211_ATTR_TIMED_OUT:	<stdin>
@NL80211_ATTR_TX_FRAME_TYPES:	<stdin>
@NL80211_ATTR_TX_NO_CCK_RATE:	<stdin>
@NL80211_ATTR_TX_RATES	<stdin>
@NL80211_ATTR_TX_RATES:	<stdin>
@NL80211_ATTR_UNSPEC:	<stdin>
@NL80211_ATTR_USER_REG_HINT_TYPE:	<stdin>
@NL80211_ATTR_USE_MFP:	<stdin>
@NL80211_ATTR_VHT_CAPABILITY:	<stdin>
@NL80211_ATTR_WDEV:	<stdin>
@NL80211_ATTR_WIPHY:	<stdin>
@NL80211_ATTR_WIPHY_ANTENNA_AVAIL_RX:	<stdin>
@NL80211_ATTR_WIPHY_ANTENNA_AVAIL_TX:	<stdin>
@NL80211_ATTR_WIPHY_ANTENNA_RX:	<stdin>
@NL80211_ATTR_WIPHY_ANTENNA_TX.	<stdin>
@NL80211_ATTR_WIPHY_ANTENNA_TX:	<stdin>
@NL80211_ATTR_WIPHY_BANDS:	<stdin>
@NL80211_ATTR_WIPHY_CHANNEL_TYPE:	<stdin>
@NL80211_ATTR_WIPHY_COVERAGE_CLASS:	<stdin>
@NL80211_ATTR_WIPHY_FRAG_THRESHOLD:	<stdin>
@NL80211_ATTR_WIPHY_FREQ:	<stdin>
@NL80211_ATTR_WIPHY_NAME:	<stdin>
@NL80211_ATTR_WIPHY_RETRY_LONG:	<stdin>
@NL80211_ATTR_WIPHY_RETRY_SHORT:	<stdin>
@NL80211_ATTR_WIPHY_RTS_THRESHOLD:	<stdin>
@NL80211_ATTR_WIPHY_TXQ_PARAMS:	<stdin>
@NL80211_ATTR_WIPHY_TX_POWER_LEVEL:	<stdin>
@NL80211_ATTR_WIPHY_TX_POWER_SETTING	<stdin>
@NL80211_ATTR_WIPHY_TX_POWER_SETTING:	<stdin>
@NL80211_ATTR_WOWLAN_TRIGGERS:	<stdin>
@NL80211_ATTR_WOWLAN_TRIGGERS_SUPPORTED:	<stdin>
@NL80211_ATTR_WPA_VERSIONS:	<stdin>
@NL80211_AUTHTYPE_AUTOMATIC:	<stdin>
@NL80211_AUTHTYPE_FT:	<stdin>
@NL80211_AUTHTYPE_MAX:	<stdin>
@NL80211_AUTHTYPE_NETWORK_EAP:	<stdin>
@NL80211_AUTHTYPE_OPEN_SYSTEM:	<stdin>
@NL80211_AUTHTYPE_SAE:	<stdin>
@NL80211_AUTHTYPE_SHARED_KEY:	<stdin>
@NL80211_BAND_2GHZ:	<stdin>
@NL80211_BAND_5GHZ:	<stdin>
@NL80211_BAND_60GHZ:	<stdin>
@NL80211_BAND_ATTR_FREQS:	<stdin>
@NL80211_BAND_ATTR_HT_AMPDU_DENSITY:	<stdin>
@NL80211_BAND_ATTR_HT_AMPDU_FACTOR:	<stdin>
@NL80211_BAND_ATTR_HT_CAPA:	<stdin>
@NL80211_BAND_ATTR_HT_MCS_SET:	<stdin>
@NL80211_BAND_ATTR_MAX:	<stdin>
@NL80211_BAND_ATTR_RATES:	<stdin>
@NL80211_BAND_ATTR_VHT_CAPA:	<stdin>
@NL80211_BAND_ATTR_VHT_MCS_SET:	<stdin>
@NL80211_BITRATE_ATTR_2GHZ_SHORTPREAMBLE:	<stdin>
@NL80211_BITRATE_ATTR_MAX:	<stdin>
@NL80211_BITRATE_ATTR_RATE:	<stdin>
@NL80211_BSS_BEACON_IES:	<stdin>
@NL80211_BSS_BEACON_INTERVAL:	<stdin>
@NL80211_BSS_BSSID:	<stdin>
@NL80211_BSS_CAPABILITY:	<stdin>
@NL80211_BSS_FREQUENCY:	<stdin>
@NL80211_BSS_INFORMATION_ELEMENTS:	<stdin>
@NL80211_BSS_MAX:	<stdin>
@NL80211_BSS_SEEN_MS_AGO:	<stdin>
@NL80211_BSS_SIGNAL_MBM:	<stdin>
@NL80211_BSS_SIGNAL_UNSPEC:	<stdin>
@NL80211_BSS_STATUS:	<stdin>
@NL80211_BSS_STATUS_ASSOCIATED:	<stdin>
@NL80211_BSS_STATUS_AUTHENTICATED:	<stdin>
@NL80211_BSS_STATUS_IBSS_JOINED:	<stdin>
@NL80211_BSS_TSF:	<stdin>
@NL80211_CHAN_HT20:	<stdin>
@NL80211_CHAN_HT40MINUS:	<stdin>
@NL80211_CHAN_HT40PLUS:	<stdin>
@NL80211_CHAN_NO_HT:	<stdin>
@NL80211_CHAN_WIDTH_160:	<stdin>
@NL80211_CHAN_WIDTH_20:	<stdin>
@NL80211_CHAN_WIDTH_20_NOHT:	<stdin>
@NL80211_CHAN_WIDTH_40:	<stdin>
@NL80211_CHAN_WIDTH_80:	<stdin>
@NL80211_CHAN_WIDTH_80P80:	<stdin>
@NL80211_CMD_ACTION:	<stdin>
@NL80211_CMD_ACTION_TX_STATUS:	<stdin>
@NL80211_CMD_ASSOCIATE:	<stdin>
@NL80211_CMD_AUTHENTICATE:	<stdin>
@NL80211_CMD_CANCEL_REMAIN_ON_CHANNEL:	<stdin>
@NL80211_CMD_CH_SWITCH_NOTIFY:	<stdin>
@NL80211_CMD_CONNECT:	<stdin>
@NL80211_CMD_CONN_FAILED:	<stdin>
@NL80211_CMD_DEAUTHENTICATE:	<stdin>
@NL80211_CMD_DEL_BEACON:	<stdin>
@NL80211_CMD_DEL_INTERFACE:	<stdin>
@NL80211_CMD_DEL_KEY:	<stdin>
@NL80211_CMD_DEL_MPATH:	<stdin>
@NL80211_CMD_DEL_PATH:	<stdin>
@NL80211_CMD_DEL_PMKSA:	<stdin>
@NL80211_CMD_DEL_STATION:	<stdin>
@NL80211_CMD_DEL_WIPHY:	<stdin>
@NL80211_CMD_DISASSOCIATE:	<stdin>
@NL80211_CMD_DISCONNECT:	<stdin>
@NL80211_CMD_FLUSH_PMKSA:	<stdin>
@NL80211_CMD_FRAME	<stdin>
@NL80211_CMD_FRAME)	<stdin>
@NL80211_CMD_FRAME:	<stdin>
@NL80211_CMD_FRAME_TX_STATUS	<stdin>
@NL80211_CMD_FRAME_TX_STATUS:	<stdin>
@NL80211_CMD_FRAME_WAIT_CANCEL:	<stdin>
@NL80211_CMD_GET_BEACON:	<stdin>
@NL80211_CMD_GET_INTERFACE:	<stdin>
@NL80211_CMD_GET_KEY:	<stdin>
@NL80211_CMD_GET_MESH_CONFIG:	<stdin>
@NL80211_CMD_GET_MPATH:	<stdin>
@NL80211_CMD_GET_POWER_SAVE:	<stdin>
@NL80211_CMD_GET_REG:	<stdin>
@NL80211_CMD_GET_SCAN:	<stdin>
@NL80211_CMD_GET_STATION:	<stdin>
@NL80211_CMD_GET_SURVEY:	<stdin>
@NL80211_CMD_GET_WIPHY:	<stdin>
@NL80211_CMD_GET_WOWLAN:	<stdin>
@NL80211_CMD_JOIN_IBSS:	<stdin>
@NL80211_CMD_JOIN_MESH:	<stdin>
@NL80211_CMD_LEAVE_IBSS:	<stdin>
@NL80211_CMD_LEAVE_MESH:	<stdin>
@NL80211_CMD_MAX:	<stdin>
@NL80211_CMD_MICHAEL_MIC_FAILURE:	<stdin>
@NL80211_CMD_NEW_BEACON:	<stdin>
@NL80211_CMD_NEW_INTERFACE:	<stdin>
@NL80211_CMD_NEW_KEY:	<stdin>
@NL80211_CMD_NEW_MPATH:	<stdin>
@NL80211_CMD_NEW_PATH:	<stdin>
@NL80211_CMD_NEW_PEER_CANDIDATE:	<stdin>
@NL80211_CMD_NEW_SCAN_RESULTS:	<stdin>
@NL80211_CMD_NEW_STATION:	<stdin>
@NL80211_CMD_NEW_SURVEY_RESULTS:	<stdin>
@NL80211_CMD_NEW_WIPHY:	<stdin>
@NL80211_CMD_NOTIFY_CQM:	<stdin>
@NL80211_CMD_PMKSA_CANDIDATE:	<stdin>
@NL80211_CMD_PROBE_CLIENT:	<stdin>
@NL80211_CMD_REGISTER_ACTION:	<stdin>
@NL80211_CMD_REGISTER_BEACONS:	<stdin>
@NL80211_CMD_REGISTER_FRAME	<stdin>
@NL80211_CMD_REGISTER_FRAME	<stdin>
@NL80211_CMD_REGISTER_FRAME.	<stdin>
@NL80211_CMD_REGISTER_FRAME:	<stdin>
@NL80211_CMD_REG_BEACON_HINT:	<stdin>
@NL80211_CMD_REG_CHANGE:	<stdin>
@NL80211_CMD_REMAIN_ON_CHANNEL:	<stdin>
@NL80211_CMD_REQ_SET_REG:	<stdin>
@NL80211_CMD_ROAM:	<stdin>
@NL80211_CMD_SCAN_ABORTED:	<stdin>
@NL80211_CMD_SCHED_SCAN_RESULTS:	<stdin>
@NL80211_CMD_SCHED_SCAN_STOPPED:	<stdin>
@NL80211_CMD_SET_BEACON:	<stdin>
@NL80211_CMD_SET_BSS:	<stdin>
@NL80211_CMD_SET_CHANNEL:	<stdin>
@NL80211_CMD_SET_CQM:	<stdin>
@NL80211_CMD_SET_INTERFACE:	<stdin>
@NL80211_CMD_SET_KEY:	<stdin>
@NL80211_CMD_SET_MCAST_RATE:	<stdin>
@NL80211_CMD_SET_MESH_CONFIG:	<stdin>
@NL80211_CMD_SET_MGMT_EXTRA_IE:	<stdin>
@NL80211_CMD_SET_MPATH:	<stdin>
@NL80211_CMD_SET_NOACK_MAP:	<stdin>
@NL80211_CMD_SET_PMKSA:	<stdin>
@NL80211_CMD_SET_POWER_SAVE:	<stdin>
@NL80211_CMD_SET_REG:	<stdin>
@NL80211_CMD_SET_REKEY_OFFLOAD:	<stdin>
@NL80211_CMD_SET_STATION:	<stdin>
@NL80211_CMD_SET_TX_BITRATE_MASK:	<stdin>
@NL80211_CMD_SET_WDS_PEER:	<stdin>
@NL80211_CMD_SET_WIPHY:	<stdin>
@NL80211_CMD_SET_WIPHY_NETNS:	<stdin>
@NL80211_CMD_SET_WOWLAN:	<stdin>
@NL80211_CMD_START_AP:	<stdin>
@NL80211_CMD_START_P2P_DEVICE:	<stdin>
@NL80211_CMD_START_SCHED_SCAN:	<stdin>
@NL80211_CMD_STOP_AP:	<stdin>
@NL80211_CMD_STOP_P2P_DEVICE:	<stdin>
@NL80211_CMD_STOP_SCHED_SCAN:	<stdin>
@NL80211_CMD_TDLS_MGMT:	<stdin>
@NL80211_CMD_TDLS_OPER:	<stdin>
@NL80211_CMD_TESTMODE:	<stdin>
@NL80211_CMD_TRIGGER_SCAN:	<stdin>
@NL80211_CMD_UNEXPECTED_4ADDR_FRAME:	<stdin>
@NL80211_CMD_UNEXPECTED_FRAME:	<stdin>
@NL80211_CMD_UNPROT_DEAUTHENTICATE:	<stdin>
@NL80211_CMD_UNPROT_DISASSOCIATE:	<stdin>
@NL80211_CMD_UNSPEC:	<stdin>
@NL80211_CONN_FAIL_BLOCKED_CLIENT:	<stdin>
@NL80211_CONN_FAIL_MAX_CLIENTS:	<stdin>
@NL80211_CQM_RSSI_BEACON_LOSS_EVENT:	<stdin>
@NL80211_CQM_RSSI_THRESHOLD_EVENT_HIGH:	<stdin>
@NL80211_CQM_RSSI_THRESHOLD_EVENT_LOW:	<stdin>
@NL80211_DFS_ETSI:	<stdin>
@NL80211_DFS_FCC:	<stdin>
@NL80211_DFS_JP:	<stdin>
@NL80211_DFS_UNSET:	<stdin>
@NL80211_FEATURE_AP_SCAN:	<stdin>
@NL80211_FEATURE_CELL_BASE_REG_HINTS:	<stdin>
@NL80211_FEATURE_HT_IBSS:	<stdin>
@NL80211_FEATURE_INACTIVITY_TIMER:	<stdin>
@NL80211_FEATURE_LOW_PRIORITY_SCAN:	<stdin>
@NL80211_FEATURE_NEED_OBSS_SCAN:	<stdin>
@NL80211_FEATURE_P2P_DEVICE_NEEDS_CHANNEL:	<stdin>
@NL80211_FEATURE_P2P_GO_CTWIN:	<stdin>
@NL80211_FEATURE_P2P_GO_OPPPS:	<stdin>
@NL80211_FEATURE_SAE:	<stdin>
@NL80211_FEATURE_SCAN_FLUSH:	<stdin>
@NL80211_FEATURE_SK_TX_STATUS:	<stdin>
@NL80211_FEATURE_VIF_TXPOWER:	<stdin>
@NL80211_FREQUENCY_ATTR_DISABLED:	<stdin>
@NL80211_FREQUENCY_ATTR_FREQ:	<stdin>
@NL80211_FREQUENCY_ATTR_MAX:	<stdin>
@NL80211_FREQUENCY_ATTR_MAX_TX_POWER:	<stdin>
@NL80211_FREQUENCY_ATTR_NO_IBSS:	<stdin>
@NL80211_FREQUENCY_ATTR_PASSIVE_SCAN:	<stdin>
@NL80211_FREQUENCY_ATTR_RADAR:	<stdin>
@NL80211_HIDDEN_SSID_NOT_IN_USE:	<stdin>
@NL80211_HIDDEN_SSID_ZERO_CONTENTS:	<stdin>
@NL80211_HIDDEN_SSID_ZERO_LEN:	<stdin>
@NL80211_IFACE_COMB_LIMITS:	<stdin>
@NL80211_IFACE_COMB_MAXNUM:	<stdin>
@NL80211_IFACE_COMB_NUM_CHANNELS:	<stdin>
@NL80211_IFACE_COMB_STA_AP_BI_MATCH:	<stdin>
@NL80211_IFACE_COMB_UNSPEC:	<stdin>
@NL80211_IFACE_LIMIT_MAX:	<stdin>
@NL80211_IFACE_LIMIT_TYPES:	<stdin>
@NL80211_IFACE_LIMIT_UNSPEC:	<stdin>
@NL80211_IFTYPE_ADHOC:	<stdin>
@NL80211_IFTYPE_AP:	<stdin>
@NL80211_IFTYPE_AP_VLAN:	<stdin>
@NL80211_IFTYPE_MAX:	<stdin>
@NL80211_IFTYPE_MESH_POINT:	<stdin>
@NL80211_IFTYPE_MONITOR:	<stdin>
@NL80211_IFTYPE_P2P_CLIENT:	<stdin>
@NL80211_IFTYPE_P2P_DEVICE:	<stdin>
@NL80211_IFTYPE_P2P_GO:	<stdin>
@NL80211_IFTYPE_STATION:	<stdin>
@NL80211_IFTYPE_UNSPECIFIED:	<stdin>
@NL80211_IFTYPE_WDS:	<stdin>
@NL80211_KEYTYPE_GROUP:	<stdin>
@NL80211_KEYTYPE_PAIRWISE:	<stdin>
@NL80211_KEYTYPE_PEERKEY:	<stdin>
@NL80211_KEY_CIPHER:	<stdin>
@NL80211_KEY_DATA:	<stdin>
@NL80211_KEY_DEFAULT:	<stdin>
@NL80211_KEY_DEFAULT_MGMT:	<stdin>
@NL80211_KEY_DEFAULT_TYPES:	<stdin>
@NL80211_KEY_DEFAULT_TYPE_MULTICAST:	<stdin>
@NL80211_KEY_DEFAULT_TYPE_UNICAST:	<stdin>
@NL80211_KEY_IDX:	<stdin>
@NL80211_KEY_MAX:	<stdin>
@NL80211_KEY_SEQ:	<stdin>
@NL80211_KEY_TYPE:	<stdin>
@NL80211_MESHCONF_ATTR_MAX:	<stdin>
@NL80211_MESHCONF_AUTO_OPEN_PLINKS:	<stdin>
@NL80211_MESHCONF_CONFIRM_TIMEOUT:	<stdin>
@NL80211_MESHCONF_ELEMENT_TTL:	<stdin>
@NL80211_MESHCONF_FORWARDING:	<stdin>
@NL80211_MESHCONF_GATE_ANNOUNCEMENTS:	<stdin>
@NL80211_MESHCONF_HOLDING_TIMEOUT:	<stdin>
@NL80211_MESHCONF_HT_OPMODE:	<stdin>
@NL80211_MESHCONF_HWMP_ACTIVE_PATH_TIMEOUT:	<stdin>
@NL80211_MESHCONF_HWMP_CONFIRMATION_INTERVAL:	<stdin>
@NL80211_MESHCONF_HWMP_MAX_PREQ_RETRIES:	<stdin>
@NL80211_MESHCONF_HWMP_NET_DIAM_TRVS_TIME:	<stdin>
@NL80211_MESHCONF_HWMP_PATH_TO_ROOT_TIMEOUT:	<stdin>
@NL80211_MESHCONF_HWMP_PERR_MIN_INTERVAL:	<stdin>
@NL80211_MESHCONF_HWMP_PREQ_MIN_INTERVAL:	<stdin>
@NL80211_MESHCONF_HWMP_RANN_INTERVAL:	<stdin>
@NL80211_MESHCONF_HWMP_ROOTMODE:	<stdin>
@NL80211_MESHCONF_HWMP_ROOT_INTERVAL:	<stdin>
@NL80211_MESHCONF_MAX_PEER_LINKS:	<stdin>
@NL80211_MESHCONF_MAX_RETRIES:	<stdin>
@NL80211_MESHCONF_MIN_DISCOVERY_TIMEOUT:	<stdin>
@NL80211_MESHCONF_PATH_REFRESH_TIME:	<stdin>
@NL80211_MESHCONF_RETRY_TIMEOUT:	<stdin>
@NL80211_MESHCONF_RSSI_THRESHOLD:	<stdin>
@NL80211_MESHCONF_SYNC_OFFSET_MAX_NEIGHBOR:	<stdin>
@NL80211_MESHCONF_TTL:	<stdin>
@NL80211_MESH_SETUP_ATTR_MAX:	<stdin>
@NL80211_MESH_SETUP_ENABLE_VENDOR_METRIC:	<stdin>
@NL80211_MESH_SETUP_ENABLE_VENDOR_PATH_SEL:	<stdin>
@NL80211_MESH_SETUP_ENABLE_VENDOR_SYNC:	<stdin>
@NL80211_MESH_SETUP_IE:	<stdin>
@NL80211_MESH_SETUP_USERSPACE_AMPE	<stdin>
@NL80211_MESH_SETUP_USERSPACE_AMPE:	<stdin>
@NL80211_MESH_SETUP_USERSPACE_AUTH	<stdin>
@NL80211_MESH_SETUP_USERSPACE_AUTH	<stdin>
@NL80211_MESH_SETUP_USERSPACE_AUTH:	<stdin>
@NL80211_MFP_NO:	<stdin>
@NL80211_MFP_REQUIRED:	<stdin>
@NL80211_MNTR_FLAG_CONTROL:	<stdin>
@NL80211_MNTR_FLAG_COOK_FRAMES:	<stdin>
@NL80211_MNTR_FLAG_FCSFAIL:	<stdin>
@NL80211_MNTR_FLAG_MAX:	<stdin>
@NL80211_MNTR_FLAG_OTHER_BSS:	<stdin>
@NL80211_MNTR_FLAG_PLCPFAIL:	<stdin>
@NL80211_MPATH_FLAG_ACTIVE:	<stdin>
@NL80211_MPATH_FLAG_FIXED:	<stdin>
@NL80211_MPATH_FLAG_RESOLVED:	<stdin>
@NL80211_MPATH_FLAG_RESOLVING:	<stdin>
@NL80211_MPATH_FLAG_SN_VALID:	<stdin>
@NL80211_MPATH_INFO_DISCOVERY_RETRIES:	<stdin>
@NL80211_MPATH_INFO_DISCOVERY_TIMEOUT:	<stdin>
@NL80211_MPATH_INFO_EXPTIME:	<stdin>
@NL80211_MPATH_INFO_FLAGS:	<stdin>
@NL80211_MPATH_INFO_FRAME_QLEN:	<stdin>
@NL80211_MPATH_INFO_MAX:	<stdin>
@NL80211_MPATH_INFO_METRIC:	<stdin>
@NL80211_MPATH_INFO_SN:	<stdin>
@NL80211_PLINK_BLOCKED:	<stdin>
@NL80211_PLINK_CNF_RCVD:	<stdin>
@NL80211_PLINK_ESTAB:	<stdin>
@NL80211_PLINK_HOLDING:	<stdin>
@NL80211_PLINK_LISTEN:	<stdin>
@NL80211_PLINK_OPN_RCVD:	<stdin>
@NL80211_PLINK_OPN_SNT:	<stdin>
@NL80211_PMKSA_CANDIDATE_BSSID:	<stdin>
@NL80211_PMKSA_CANDIDATE_INDEX:	<stdin>
@NL80211_PMKSA_CANDIDATE_PREAUTH:	<stdin>
@NL80211_PROBE_RESP_OFFLOAD_SUPPORT_80211U:	<stdin>
@NL80211_PROBE_RESP_OFFLOAD_SUPPORT_P2P:	<stdin>
@NL80211_PROBE_RESP_OFFLOAD_SUPPORT_WPS2:	<stdin>
@NL80211_PROBE_RESP_OFFLOAD_SUPPORT_WPS:	<stdin>
@NL80211_PS_DISABLED:	<stdin>
@NL80211_PS_ENABLED:	<stdin>
@NL80211_RATE_INFO_160_MHZ_WIDTH:	<stdin>
@NL80211_RATE_INFO_40_MHZ_WIDTH:	<stdin>
@NL80211_RATE_INFO_80P80_MHZ_WIDTH:	<stdin>
@NL80211_RATE_INFO_80_MHZ_WIDTH:	<stdin>
@NL80211_RATE_INFO_BITRATE32:	<stdin>
@NL80211_RATE_INFO_BITRATE:	<stdin>
@NL80211_RATE_INFO_MAX:	<stdin>
@NL80211_RATE_INFO_MCS:	<stdin>
@NL80211_RATE_INFO_SHORT_GI:	<stdin>
@NL80211_RATE_INFO_VHT_MCS:	<stdin>
@NL80211_RATE_INFO_VHT_NSS:	<stdin>
@NL80211_REGDOM_SET_BY_CORE:	<stdin>
@NL80211_REGDOM_SET_BY_COUNTRY_IE:	<stdin>
@NL80211_REGDOM_SET_BY_DRIVER:	<stdin>
@NL80211_REGDOM_SET_BY_USER:	<stdin>
@NL80211_REGDOM_TYPE_COUNTRY:	<stdin>
@NL80211_REGDOM_TYPE_CUSTOM_WORLD:	<stdin>
@NL80211_REGDOM_TYPE_INTERSECTION:	<stdin>
@NL80211_REGDOM_TYPE_WORLD:	<stdin>
@NL80211_REG_RULE_ATTR_MAX:	<stdin>
@NL80211_REKEY_DATA_KCK:	<stdin>
@NL80211_REKEY_DATA_KEK:	<stdin>
@NL80211_REKEY_DATA_REPLAY_CTR:	<stdin>
@NL80211_RRF_DFS:	<stdin>
@NL80211_RRF_NO_CCK:	<stdin>
@NL80211_RRF_NO_IBSS:	<stdin>
@NL80211_RRF_NO_INDOOR:	<stdin>
@NL80211_RRF_NO_OFDM:	<stdin>
@NL80211_RRF_NO_OUTDOOR:	<stdin>
@NL80211_RRF_PASSIVE_SCAN:	<stdin>
@NL80211_RRF_PTMP_ONLY:	<stdin>
@NL80211_RRF_PTP_ONLY:	<stdin>
@NL80211_SCAN_FLAG_AP:	<stdin>
@NL80211_SCAN_FLAG_FLUSH:	<stdin>
@NL80211_SCAN_FLAG_LOW_PRIORITY:	<stdin>
@NL80211_SCHED_SCAN_MATCH_ATTR_MAX:	<stdin>
@NL80211_SCHED_SCAN_MATCH_ATTR_RSSI:	<stdin>
@NL80211_SCHED_SCAN_MATCH_ATTR_SSID:	<stdin>
@NL80211_STA_BSS_PARAM_BEACON_INTERVAL:	<stdin>
@NL80211_STA_BSS_PARAM_CTS_PROT:	<stdin>
@NL80211_STA_BSS_PARAM_DTIM_PERIOD:	<stdin>
@NL80211_STA_BSS_PARAM_MAX:	<stdin>
@NL80211_STA_BSS_PARAM_SHORT_PREAMBLE:	<stdin>
@NL80211_STA_BSS_PARAM_SHORT_SLOT_TIME:	<stdin>
@NL80211_STA_FLAG_AUTHENTICATED:	<stdin>
@NL80211_STA_FLAG_AUTHORIZED:	<stdin>
@NL80211_STA_FLAG_MAX:	<stdin>
@NL80211_STA_FLAG_MFP:	<stdin>
@NL80211_STA_FLAG_SHORT_PREAMBLE:	<stdin>
@NL80211_STA_FLAG_TDLS_PEER:	<stdin>
@NL80211_STA_FLAG_WME:	<stdin>
@NL80211_STA_INFO_BEACON_LOSS:	<stdin>
@NL80211_STA_INFO_BSS_PARAM:	<stdin>
@NL80211_STA_INFO_CONNECTED_TIME:	<stdin>
@NL80211_STA_INFO_INACTIVE_TIME:	<stdin>
@NL80211_STA_INFO_LLID:	<stdin>
@NL80211_STA_INFO_MAX:	<stdin>
@NL80211_STA_INFO_PLID:	<stdin>
@NL80211_STA_INFO_PLINK_STATE:	<stdin>
@NL80211_STA_INFO_RX_BITRATE:	<stdin>
@NL80211_STA_INFO_RX_BYTES:	<stdin>
@NL80211_STA_INFO_RX_PACKETS:	<stdin>
@NL80211_STA_INFO_SIGNAL:	<stdin>
@NL80211_STA_INFO_SIGNAL_AVG:	<stdin>
@NL80211_STA_INFO_STA_FLAGS:	<stdin>
@NL80211_STA_INFO_TX_BITRATE:	<stdin>
@NL80211_STA_INFO_TX_BYTES:	<stdin>
@NL80211_STA_INFO_TX_FAILED:	<stdin>
@NL80211_STA_INFO_TX_PACKETS:	<stdin>
@NL80211_STA_INFO_TX_RETRIES:	<stdin>
@NL80211_STA_INFO_T_OFFSET:	<stdin>
@NL80211_STA_WME_MAX:	<stdin>
@NL80211_STA_WME_MAX_SP:	<stdin>
@NL80211_STA_WME_UAPSD_QUEUES:	<stdin>
@NL80211_SURVEY_INFO_CHANNEL_TIME:	<stdin>
@NL80211_SURVEY_INFO_CHANNEL_TIME_BUSY:	<stdin>
@NL80211_SURVEY_INFO_CHANNEL_TIME_EXT_BUSY:	<stdin>
@NL80211_SURVEY_INFO_CHANNEL_TIME_RX:	<stdin>
@NL80211_SURVEY_INFO_CHANNEL_TIME_TX:	<stdin>
@NL80211_SURVEY_INFO_FREQUENCY:	<stdin>
@NL80211_SURVEY_INFO_IN_USE:	<stdin>
@NL80211_SURVEY_INFO_MAX:	<stdin>
@NL80211_SURVEY_INFO_NOISE:	<stdin>
@NL80211_TDLS_DISABLE_LINK:	<stdin>
@NL80211_TDLS_DISCOVERY_REQ:	<stdin>
@NL80211_TDLS_ENABLE_LINK:	<stdin>
@NL80211_TDLS_SETUP:	<stdin>
@NL80211_TDLS_TEARDOWN:	<stdin>
@NL80211_TXQ_ATTR_AC:	<stdin>
@NL80211_TXQ_ATTR_AIFS:	<stdin>
@NL80211_TXQ_ATTR_CWMAX:	<stdin>
@NL80211_TXQ_ATTR_CWMIN:	<stdin>
@NL80211_TXQ_ATTR_MAX:	<stdin>
@NL80211_TXQ_ATTR_TXOP:	<stdin>
@NL80211_TXRATE_LEGACY:	<stdin>
@NL80211_TXRATE_MAX:	<stdin>
@NL80211_TXRATE_MCS:	<stdin>
@NL80211_TX_POWER_AUTOMATIC:	<stdin>
@NL80211_TX_POWER_FIXED:	<stdin>
@NL80211_TX_POWER_LIMITED:	<stdin>
@NL80211_USER_REG_HINT_CELL_BASE:	<stdin>
@NL80211_USER_REG_HINT_USER:	<stdin>
@NL80211_WOWLAN_PKTPAT_MASK:	<stdin>
@NL80211_WOWLAN_PKTPAT_PATTERN:	<stdin>
@NL80211_WOWLAN_TRIG_4WAY_HANDSHAKE:	<stdin>
@NL80211_WOWLAN_TRIG_ANY:	<stdin>
@NL80211_WOWLAN_TRIG_DISCONNECT:	<stdin>
@NL80211_WOWLAN_TRIG_EAP_IDENT_REQUEST:	<stdin>
@NL80211_WOWLAN_TRIG_GTK_REKEY_FAILURE:	<stdin>
@NL80211_WOWLAN_TRIG_GTK_REKEY_SUPPORTED:	<stdin>
@NL80211_WOWLAN_TRIG_MAGIC_PKT:	<stdin>
@NL80211_WOWLAN_TRIG_PKT_PATTERN:	<stdin>
@NL80211_WOWLAN_TRIG_RFKILL_RELEASE:	<stdin>
@NUM_NL80211_IFACE_COMB:	<stdin>
@NUM_NL80211_IFACE_LIMIT:	<stdin>
@NUM_NL80211_IFTYPES:	<stdin>
@NUM_NL80211_KEYTYPES:	<stdin>
@NUM_NL80211_KEY_DEFAULT_TYPES:	<stdin>
@NUM_NL80211_PLINK_STATES:	<stdin>
@NUM_NL80211_PMKSA_CANDIDATE:	<stdin>
@NUM_NL80211_REKEY_DATA:	<stdin>
@NUM_NL80211_WOWLAN_PKTPAT:	<stdin>
@NUM_NL80211_WOWLAN_TRIG:	<stdin>
@V4L2_SUBDEV_FORMAT_ACTIVE:	<stdin>
@V4L2_SUBDEV_FORMAT_TRY:	<stdin>
@WIMAX_ST_CONNECTED:	<stdin>
@WIMAX_ST_CONNECTING:	<stdin>
@WIMAX_ST_DOWN:	<stdin>
@WIMAX_ST_RADIO_OFF:	<stdin>
@WIMAX_ST_READY:	<stdin>
@WIMAX_ST_SCANNING:	<stdin>
@WIMAX_ST_UNINITIALIZED:	<stdin>
@__NL80211_ATTR_AFTER_LAST:	<stdin>
@__NL80211_ATTR_CQM_AFTER_LAST:	<stdin>
@__NL80211_ATTR_CQM_INVALID:	<stdin>
@__NL80211_AUTHTYPE_NUM:	<stdin>
@__NL80211_BAND_ATTR_AFTER_LAST:	<stdin>
@__NL80211_BAND_ATTR_INVALID:	<stdin>
@__NL80211_BITRATE_ATTR_AFTER_LAST:	<stdin>
@__NL80211_BITRATE_ATTR_INVALID:	<stdin>
@__NL80211_BSS_AFTER_LAST:	<stdin>
@__NL80211_BSS_INVALID:	<stdin>
@__NL80211_CMD_AFTER_LAST:	<stdin>
@__NL80211_FREQUENCY_ATTR_AFTER_LAST:	<stdin>
@__NL80211_FREQUENCY_ATTR_INVALID:	<stdin>
@__NL80211_KEY_AFTER_LAST:	<stdin>
@__NL80211_KEY_DEFAULT_TYPE_INVALID:	<stdin>
@__NL80211_KEY_INVALID:	<stdin>
@__NL80211_MESHCONF_ATTR_AFTER_LAST:	<stdin>
@__NL80211_MESHCONF_INVALID:	<stdin>
@__NL80211_MESH_SETUP_ATTR_AFTER_LAST:	<stdin>
@__NL80211_MESH_SETUP_INVALID:	<stdin>
@__NL80211_MNTR_FLAG_AFTER_LAST:	<stdin>
@__NL80211_MNTR_FLAG_INVALID:	<stdin>
@__NL80211_MPATH_INFO_AFTER_LAST:	<stdin>
@__NL80211_MPATH_INFO_INVALID:	<stdin>
@__NL80211_PMKSA_CANDIDATE_INVALID:	<stdin>
@__NL80211_RATE_INFO_AFTER_LAST:	<stdin>
@__NL80211_RATE_INFO_INVALID:	<stdin>
@__NL80211_REG_RULE_ATTR_AFTER_LAST:	<stdin>
@__NL80211_REG_RULE_ATTR_INVALID:	<stdin>
@__NL80211_REKEY_DATA_INVALID:	<stdin>
@__NL80211_SCHED_SCAN_MATCH_ATTR_AFTER_LAST:	<stdin>
@__NL80211_SCHED_SCAN_MATCH_ATTR_INVALID:	<stdin>
@__NL80211_STA_BSS_PARAM_AFTER_LAST:	<stdin>
@__NL80211_STA_BSS_PARAM_INVALID:	<stdin>
@__NL80211_STA_FLAG_AFTER_LAST:	<stdin>
@__NL80211_STA_FLAG_INVALID:	<stdin>
@__NL80211_STA_INFO_AFTER_LAST:	<stdin>
@__NL80211_STA_INFO_INVALID:	<stdin>
@__NL80211_STA_WME_AFTER_LAST:	<stdin>
@__NL80211_STA_WME_INVALID:	<stdin>
@__NL80211_SURVEY_INFO_AFTER_LAST:	<stdin>
@__NL80211_SURVEY_INFO_INVALID:	<stdin>
@__NL80211_TXQ_ATTR_AFTER_LAST:	<stdin>
@__NL80211_TXQ_ATTR_INVALID:	<stdin>
@__NL80211_TXRATE_AFTER_LAST:	<stdin>
@__NL80211_TXRATE_INVALID:	<stdin>
@__NL80211_WOWLAN_PKTPAT_INVALID:	<stdin>
@__NL80211_WOWLAN_TRIG_INVALID:	<stdin>
@__WIMAX_ST_INVALID:	<stdin>
@__WIMAX_ST_NULL:	<stdin>
@__WIMAX_ST_QUIESCING:	<stdin>
@__res0:	<stdin>
@__res1:	<stdin>
@arch:	<stdin>
@args:	<stdin>
@attack_length:	<stdin>
@attack_level	<stdin>
@attack_level:	<stdin>
@bRequest:	<stdin>
@bRequestType:	<stdin>
@bt:	<stdin>
@bt:	<stdin>
@bus_info:	<stdin>
@button:	<stdin>
@bytesperline:	<stdin>
@bytesused:	<stdin>
@bytesused:	<stdin>
@can_addr:	<stdin>
@can_dlc:	<stdin>
@can_family:	<stdin>
@can_id:	<stdin>
@can_id:	<stdin>
@can_id:	<stdin>
@can_ifindex:	<stdin>
@can_mask:	<stdin>
@capabilities:	<stdin>
@capabilities:	<stdin>
@card:	<stdin>
@center:	<stdin>
@code:	<stdin>
@code:	<stdin>
@code:	<stdin>
@colorspace:	<stdin>
@count:	<stdin>
@custom_data:	<stdin>
@custom_len:	<stdin>
@data	<stdin>
@data:	<stdin>
@data:	<stdin>
@data_head	<stdin>
@data_offset:	<stdin>
@data_tail	<stdin>
@dccph_ccval	<stdin>
@dccph_checksum	<stdin>
@dccph_cscov	<stdin>
@dccph_doff	<stdin>
@dccph_dport	<stdin>
@dccph_req_service	<stdin>
@dccph_reset_ack	<stdin>
@dccph_reset_code	<stdin>
@dccph_reset_data	<stdin>
@dccph_resp_ack	<stdin>
@dccph_resp_ack_nr_high	<stdin>
@dccph_resp_ack_nr_low	<stdin>
@dccph_resp_service	<stdin>
@dccph_seq	<stdin>
@dccph_seq_low	<stdin>
@dccph_sport	<stdin>
@dccph_type	<stdin>
@dccph_x	<stdin>
@deadband:	<stdin>
@delay:	<stdin>
@device_caps:	<stdin>
@direction:	<stdin>
@driver:	<stdin>
@end_level:	<stdin>
@envelope:	<stdin>
@envelope:	<stdin>
@envelope:	<stdin>
@epd's	<stdin>
@epd's	<stdin>
@epd's	<stdin>
@epd:	<stdin>
@epd:	<stdin>
@epd:	<stdin>
@epd:	<stdin>
@epd:	<stdin>
@epd:	<stdin>
@epd:	<stdin>
@epd:	<stdin>
@epd:	<stdin>
@epd:	<stdin>
@epd:	<stdin>
@epd:	<stdin>
@epd:	<stdin>
@epd:	<stdin>
@epd:	<stdin>
@fade_length:	<stdin>
@fade_level	<stdin>
@fade_level:	<stdin>
@fd:	<stdin>
@fd:	<stdin>
@fd:	<stdin>
@field:	<stdin>
@field:	<stdin>
@flags:	<stdin>
@flags:	<stdin>
@flags:	<stdin>
@flags:	<stdin>
@flags:	<stdin>
@flags:	<stdin>
@flags:	<stdin>
@flags:	<stdin>
@flat:	<stdin>
@format:	<stdin>
@format:	<stdin>
@fuzz:	<stdin>
@hbackporch:	<stdin>
@height:	<stdin>
@height:	<stdin>
@height:	<stdin>
@hfrontporch:Horizontal	<stdin>
@hsync:	<stdin>
@id	<stdin>
@id	<stdin>
@id:	<stdin>
@il_vbackporch:Vertical	<stdin>
@il_vfrontporch:Vertical	<stdin>
@il_vsync:	<stdin>
@index	<stdin>
@index	<stdin>
@index:	<stdin>
@index:	<stdin>
@index:	<stdin>
@index:	<stdin>
@index:	<stdin>
@index:	<stdin>
@index:	<stdin>
@index:	<stdin>
@input:	<stdin>
@instruction_pointer:	<stdin>
@interlaced:	<stdin>
@interval:	<stdin>
@interval:	<stdin>
@interval:	<stdin>
@keycode:	<stdin>
@l2tp_addr:	<stdin>
@l2tp_addr:	<stdin>
@l2tp_conn_id:	<stdin>
@l2tp_conn_id:	<stdin>
@l2tp_family:	<stdin>
@l2tp_family:	<stdin>
@left_coeff:	<stdin>
@left_saturation:	<stdin>
@len:	<stdin>
@len:	<stdin>
@len:	<stdin>
@length:	<stdin>
@length:	<stdin>
@length:	<stdin>
@level:	<stdin>
@magnitude:	<stdin>
@mask:	<stdin>
@max_height:	<stdin>
@max_pattern_len:	<stdin>
@max_patterns:	<stdin>
@max_pixelclock:	<stdin>
@max_width:	<stdin>
@maximum:	<stdin>
@mem_offset:	<stdin>
@memory:	<stdin>
@memory:	<stdin>
@min_height:	<stdin>
@min_pattern_len:	<stdin>
@min_pixelclock:	<stdin>
@min_width:	<stdin>
@minimum:	<stdin>
@nr:	<stdin>
@num_planes:	<stdin>
@offset:	<stdin>
@offset:	<stdin>
@p:	<stdin>
@p:	<stdin>
@p:	<stdin>
@p:	<stdin>
@p:	<stdin>
@p:	<stdin>
@p:	<stdin>
@p:	<stdin>
@p:	<stdin>
@p:	<stdin>
@pad:	<stdin>
@pad:	<stdin>
@pad:	<stdin>
@pad:	<stdin>
@pad:	<stdin>
@pad:	<stdin>
@pad:	<stdin>
@period:	<stdin>
@phase:	<stdin>
@pix:	<stdin>
@pix_mp:	<stdin>
@pixelclock:	<stdin>
@pixelformat:	<stdin>
@plane:	<stdin>
@plane_fmt:	<stdin>
@planes:	<stdin>
@polarities:	<stdin>
@r:	<stdin>
@r:	<stdin>
@raw_data:	<stdin>
@rect:	<stdin>
@replay:	<stdin>
@reserved:	<stdin>
@reserved:	<stdin>
@reserved:	<stdin>
@reserved:	<stdin>
@reserved:	<stdin>
@reserved:	<stdin>
@reserved:	<stdin>
@resolution:	<stdin>
@right_coeff:	<stdin>
@right_saturation:	<stdin>
@rx_type:	<stdin>
@scancode	<stdin>
@scancode	<stdin>
@scancode	<stdin>
@scancode:	<stdin>
@sequence:	<stdin>
@set:	<stdin>
@sizeimage:	<stdin>
@sliced:	<stdin>
@standards:	<stdin>
@standards:	<stdin>
@start_level:	<stdin>
@strong_magnitude:	<stdin>
@target:	<stdin>
@target:	<stdin>
@timecode:	<stdin>
@timestamp:	<stdin>
@timings:	<stdin>
@trigger:	<stdin>
@tx_type:	<stdin>
@type:	<stdin>
@type:	<stdin>
@type:	<stdin>
@type:	<stdin>
@type:	<stdin>
@type:	<stdin>
@type:	<stdin>
@u:	<stdin>
@userptr:	<stdin>
@userptr:	<stdin>
@value:	<stdin>
@vbackporch:	<stdin>
@vbi:	<stdin>
@version:	<stdin>
@vfrontporch:Vertical	<stdin>
@vsync:	<stdin>
@wIndex:	<stdin>
@wLength:	<stdin>
@wValue:	<stdin>
@waveform:	<stdin>
@weak_magnitude:	<stdin>
@which:	<stdin>
@which:	<stdin>
@which:	<stdin>
@width:	<stdin>
@width:	<stdin>
@width:	<stdin>
@win:	<stdin>
@x:	<stdin>
@x:	<stdin>
@x:	<stdin>
@x:	<stdin>
@x:	<stdin>
andersee@debian.org	<stdin>
axboe@suse.de	<stdin>
david@tm.tno.nl	<stdin>
emoenke@gwdg.de	<stdin>
rafetmad@oxy.edu	<stdin>
simon@ncm.com,	<stdin>
source@mvista.com	<stdin>
