((pshilovsky@samba.org)	<stdin>
(0x%llx@0x%llx)	<stdin>
(0x%lx@0x%llx)\n",	<stdin>
(0x%zx@0x%llx)	<stdin>
(0x%zx@0x%llx):	<stdin>
(0x%zx@0x%llx):	<stdin>
(@ilistp).	<stdin>
(@offset	<stdin>
(arne@knoware.nl),	<stdin>
(arne@knoware.nl),	<stdin>
(avishay@gmail.com)	<stdin>
(avishay@gmail.com)	<stdin>
(avishay@gmail.com)	<stdin>
(avishay@gmail.com)	<stdin>
(avishay@gmail.com)	<stdin>
(avishay@gmail.com)	<stdin>
(avishay@gmail.com)	<stdin>
(avishay@gmail.com)	<stdin>
(avishay@gmail.com)	<stdin>
(avishay@gmail.com)	<stdin>
(avishay@gmail.com)	<stdin>
(avishay@gmail.com)	<stdin>
(avishay@gmail.com)	<stdin>
(avishay@gmail.com)	<stdin>
(avishay@gmail.com)	<stdin>
(avishay@gmail.com)	<stdin>
(avishay@gmail.com)	<stdin>
(avishay@gmail.com)	<stdin>
(avishay@gmail.com)	<stdin>
(avishay@gmail.com)	<stdin>
(avishay@gmail.com)	<stdin>
(avishay@gmail.com)	<stdin>
(avishay@gmail.com)	<stdin>
(avishay@gmail.com)	<stdin>
(avishay@gmail.com)	<stdin>
(avishay@gmail.com)	<stdin>
(avishay@gmail.com)	<stdin>
(avishay@gmail.com)	<stdin>
(avishay@gmail.com)	<stdin>
(avishay@gmail.com)	<stdin>
(avishay@gmail.com)	<stdin>
(avishay@gmail.com)	<stdin>
(avishay@gmail.com)	<stdin>
(avishay@gmail.com)	<stdin>
(avishay@gmail.com)	<stdin>
(avishay@gmail.com)	<stdin>
(avishay@gmail.com)	<stdin>
(avishay@gmail.com)	<stdin>
(avishay@gmail.com)	<stdin>
(avishay@gmail.com)	<stdin>
(avishay@gmail.com)	<stdin>
(avishay@gmail.com)	<stdin>
(avishay@gmail.com)	<stdin>
(card@masi.ibp.fr)	<stdin>
(card@masi.ibp.fr)	<stdin>
(card@masi.ibp.fr)	<stdin>
(card@masi.ibp.fr)	<stdin>
(card@masi.ibp.fr)	<stdin>
(card@masi.ibp.fr)	<stdin>
(card@masi.ibp.fr)	<stdin>
(card@masi.ibp.fr)	<stdin>
(card@masi.ibp.fr)	<stdin>
(card@masi.ibp.fr)	<stdin>
(card@masi.ibp.fr)	<stdin>
(card@masi.ibp.fr)	<stdin>
(card@masi.ibp.fr)	<stdin>
(card@masi.ibp.fr)	<stdin>
(card@masi.ibp.fr)	<stdin>
(card@masi.ibp.fr)	<stdin>
(card@masi.ibp.fr)	<stdin>
(card@masi.ibp.fr)	<stdin>
(card@masi.ibp.fr)	<stdin>
(card@masi.ibp.fr)	<stdin>
(card@masi.ibp.fr)	<stdin>
(card@masi.ibp.fr)	<stdin>
(card@masi.ibp.fr)	<stdin>
(card@masi.ibp.fr)	<stdin>
(card@masi.ibp.fr)	<stdin>
(card@masi.ibp.fr)	<stdin>
(card@masi.ibp.fr)	<stdin>
(card@masi.ibp.fr)	<stdin>
(card@masi.ibp.fr)	<stdin>
(card@masi.ibp.fr)	<stdin>
(card@masi.ibp.fr)	<stdin>
(card@masi.ibp.fr)	<stdin>
(card@masi.ibp.fr)	<stdin>
(card@masi.ibp.fr)	<stdin>
(card@masi.ibp.fr)	<stdin>
(card@masi.ibp.fr)	<stdin>
(card@masi.ibp.fr)	<stdin>
(card@masi.ibp.fr)	<stdin>
(card@masi.ibp.fr)	<stdin>
(card@masi.ibp.fr)	<stdin>
(card@masi.ibp.fr)	<stdin>
(card@masi.ibp.fr)	<stdin>
(card@masi.ibp.fr)	<stdin>
(card@masi.ibp.fr)	<stdin>
(card@masi.ibp.fr)	<stdin>
(card@masi.ibp.fr)	<stdin>
(card@masi.ibp.fr)	<stdin>
(card@masi.ibp.fr)	<stdin>
(card@masi.ibp.fr)	<stdin>
(card@masi.ibp.fr)	<stdin>
(davem@caip.rutgers.edu)	<stdin>
(davem@caip.rutgers.edu),	<stdin>
(davem@caip.rutgers.edu),	<stdin>
(davem@caip.rutgers.edu),	<stdin>
(davem@caip.rutgers.edu),	<stdin>
(davem@caip.rutgers.edu),	<stdin>
(dhowells@redhat.com)	<stdin>
(dhowells@redhat.com)	<stdin>
(dhowells@redhat.com)	<stdin>
(dhowells@redhat.com)	<stdin>
(dhowells@redhat.com)	<stdin>
(dhowells@redhat.com)	<stdin>
(dhowells@redhat.com)	<stdin>
(dhowells@redhat.com)	<stdin>
(dhowells@redhat.com)	<stdin>
(gerg@snapgear.com)	<stdin>
(jlayton@redhat.com)	<stdin>
(jlayton@redhat.com)	<stdin>
(jra@samba.org)	<stdin>
(jra@samba.org)	<stdin>
(jra@samba.org)	<stdin>
(jra@samba.org)	<stdin>
(mikulas@artax.karlin.mff.cuni.cz),	<stdin>
(mikulas@artax.karlin.mff.cuni.cz),	<stdin>
(mikulas@artax.karlin.mff.cuni.cz),	<stdin>
(mikulas@artax.karlin.mff.cuni.cz),	<stdin>
(mikulas@artax.karlin.mff.cuni.cz),	<stdin>
(mikulas@artax.karlin.mff.cuni.cz),	<stdin>
(mikulas@artax.karlin.mff.cuni.cz),	<stdin>
(mikulas@artax.karlin.mff.cuni.cz),	<stdin>
(niallain@gmail.com)	<stdin>
(niallain@gmail.com)	<stdin>
(okir@monad.swb.de)	<stdin>
(pshilovsky@samba.org)	<stdin>
(pshilovsky@samba.org)	<stdin>
(pshilovsky@samba.org)	<stdin>
(pshilovsky@samba.org)	<stdin>
(pshilovsky@samba.org)	<stdin>
(pshilovsky@samba.org)	<stdin>
(pshilovsky@samba.org),	<stdin>
(sct@redhat.com)	<stdin>
(sct@redhat.com),	<stdin>
(sct@redhat.com),	<stdin>
(sct@redhat.com),	<stdin>
(sct@redhat.com),	<stdin>
(sfrench@us.ibm.com)	<stdin>
(sfrench@us.ibm.com)	<stdin>
(sfrench@us.ibm.com)	<stdin>
(sfrench@us.ibm.com)	<stdin>
(sfrench@us.ibm.com)	<stdin>
(sfrench@us.ibm.com)	<stdin>
(sfrench@us.ibm.com)	<stdin>
(sfrench@us.ibm.com)	<stdin>
(sfrench@us.ibm.com)	<stdin>
(sfrench@us.ibm.com)	<stdin>
(sfrench@us.ibm.com)	<stdin>
(sfrench@us.ibm.com)	<stdin>
(sfrench@us.ibm.com)	<stdin>
(sfrench@us.ibm.com)	<stdin>
(sfrench@us.ibm.com)	<stdin>
(sfrench@us.ibm.com)	<stdin>
(sfrench@us.ibm.com)	<stdin>
(sfrench@us.ibm.com)	<stdin>
(sfrench@us.ibm.com)	<stdin>
(sfrench@us.ibm.com)	<stdin>
(sfrench@us.ibm.com)	<stdin>
(sfrench@us.ibm.com)	<stdin>
(sfrench@us.ibm.com)	<stdin>
(sfrench@us.ibm.com)	<stdin>
(sfrench@us.ibm.com)	<stdin>
(sfrench@us.ibm.com)	<stdin>
(sfrench@us.ibm.com)	<stdin>
(sfrench@us.ibm.com)	<stdin>
(sfrench@us.ibm.com)	<stdin>
(sfrench@us.ibm.com)	<stdin>
(sfrench@us.ibm.com)	<stdin>
(sfrench@us.ibm.com)	<stdin>
(sfrench@us.ibm.com)	<stdin>
(sfrench@us.ibm.com)	<stdin>
(sfrench@us.ibm.com)	<stdin>
(sfrench@us.ibm.com)	<stdin>
(sfrench@us.ibm.com)	<stdin>
(sfrench@us.ibm.com)	<stdin>
(sfrench@us.ibm.com)	<stdin>
(sfrench@us.ibm.com)	<stdin>
(sfrench@us.ibm.com)	<stdin>
(sfrench@us.ibm.com),	<stdin>
(sjayaraman@suse.de>	<stdin>
(sjayaraman@suse.de>	<stdin>
(wang840925@gmail.com)	<stdin>
0x%lx@0x%llx,	<stdin>
2**@blocksize_bits)	<stdin>
<a.gruenbacher@computer.org>	<stdin>
<a.gruenbacher@computer.org>	<stdin>
<a.gruenbacher@computer.org>	<stdin>
<abartlet@samba.org>	<stdin>
<adilger@clusterfs.com>	<stdin>
<agruen@suse.de>	<stdin>
<agruen@suse.de>	<stdin>
<andrea@suse.de>	<stdin>
<andros@citi.umich.edu>	<stdin>
<andros@umich.edu>	<stdin>
<andros@umich.edu>	<stdin>
<andros@umich.edu>	<stdin>
<andros@umich.edu>	<stdin>
<andros@umich.edu>	<stdin>
<avishay@gmail.com>");	<stdin>
<avishay@gmail.com>");	<stdin>
<avishay@gmail.com>");	<stdin>
<avishay@gmail.com>");	<stdin>
<avishay@gmail.com>");	<stdin>
<avishay@gmail.com>");	<stdin>
<ben@simtec.co.uk>	<stdin>
<bfields@umich.edu>	<stdin>
<bharrosh@panasas.com>	<stdin>
<bharrosh@panasas.com>	<stdin>
<bharrosh@panasas.com>	<stdin>
<bharrosh@panasas.com>	<stdin>
<bharrosh@panasas.com>	<stdin>
<bharrosh@panasas.com>	<stdin>
<bharrosh@panasas.com>	<stdin>
<bharrosh@panasas.com>	<stdin>
<bharrosh@panasas.com>	<stdin>
<bharrosh@panasas.com>	<stdin>
<bharrosh@panasas.com>	<stdin>
<bharrosh@panasas.com>	<stdin>
<bharrosh@panasas.com>	<stdin>
<bharrosh@panasas.com>	<stdin>
<bharrosh@panasas.com>	<stdin>
<bharrosh@panasas.com>	<stdin>
<bharrosh@panasas.com>	<stdin>
<bharrosh@panasas.com>	<stdin>
<bharrosh@panasas.com>	<stdin>
<bharrosh@panasas.com>	<stdin>
<bharrosh@panasas.com>	<stdin>
<bharrosh@panasas.com>	<stdin>
<bharrosh@panasas.com>	<stdin>
<bharrosh@panasas.com>	<stdin>
<bharrosh@panasas.com>	<stdin>
<bharrosh@panasas.com>	<stdin>
<bharrosh@panasas.com>	<stdin>
<bharrosh@panasas.com>	<stdin>
<bharrosh@panasas.com>	<stdin>
<bharrosh@panasas.com>	<stdin>
<bharrosh@panasas.com>	<stdin>
<bharrosh@panasas.com>	<stdin>
<bharrosh@panasas.com>	<stdin>
<bharrosh@panasas.com>	<stdin>
<bharrosh@panasas.com>	<stdin>
<bharrosh@panasas.com>	<stdin>
<bharrosh@panasas.com>	<stdin>
<bharrosh@panasas.com>	<stdin>
<bharrosh@panasas.com>	<stdin>
<bharrosh@panasas.com>	<stdin>
<bharrosh@panasas.com>	<stdin>
<bharrosh@panasas.com>	<stdin>
<bharrosh@panasas.com>	<stdin>
<bharrosh@panasas.com>	<stdin>
<bharrosh@panasas.com>");	<stdin>
<bjschuma@netapp.com>	<stdin>
<davidel@xmailserver.org>	<stdin>
<davidm@lineo.com>	<stdin>
<davidm@snapgear.com>	<stdin>
<dwmw2@infradead.org>	<stdin>
<dwmw2@infradead.org>	<stdin>
<dwmw2@infradead.org>	<stdin>
<dwmw2@infradead.org>	<stdin>
<dwmw2@infradead.org>	<stdin>
<dwmw2@infradead.org>	<stdin>
<dwmw2@infradead.org>	<stdin>
<dwmw2@infradead.org>	<stdin>
<dwmw2@infradead.org>	<stdin>
<gam3@acm.org>	<stdin>
<gerg@snapgear.com>	<stdin>
<havasi@inf.u-szeged.hu>,	<stdin>
<havasi@inf.u-szeged.hu>,	<stdin>
<hirofumi@mail.parknet.co.jp>	<stdin>
<info@fsf.org>"	<stdin>
<jeremy@sw.oz.au>	<stdin>
<jlayton@redhat.com>	<stdin>
<jlayton@redhat.com>	<stdin>
<jlayton@redhat.com>	<stdin>
<jlayton@redhat.com>	<stdin>
<jsedlak@umich.edu>	<stdin>
<kandros@umich.edu>	<stdin>
<keescook@chromium.org>	<stdin>
<kjahds@kjahds.com>	<stdin>
<kmsmith@umich.edu>	<stdin>
<kmsmith@umich.edu>	<stdin>
<kmsmith@umich.edu>	<stdin>
<kmsmith@umich.edu>	<stdin>
<kmsmith@umich.edu>	<stdin>
<kmsmith@umich.edu>	<stdin>
<levon@movementarian.org>	<stdin>
<mahalcro@us.ibm.com>	<stdin>
<mahalcro@us.ibm.com>	<stdin>
<mahalcro@us.ibm.com>	<stdin>
<mahalcro@us.ibm.com>	<stdin>
<mahalcro@us.ibm.com>	<stdin>
<mahalcro@us.ibm.com>	<stdin>
<marco.stornelli@gmail.com>	<stdin>
<marco.stornelli@gmail.com>");	<stdin>
<marius@umich.edu>	<stdin>
<marius@umich.edu>	<stdin>
<marius@umich.edu>	<stdin>
<mcthomps@us.ibm.com>	<stdin>
<mcthomps@us.ibm.com>	<stdin>
<mhalcrow@us.ibm.com>	<stdin>
<mhalcrow@us.ibm.com>	<stdin>
<mhalcrow@us.ibm.com>	<stdin>
<neilb@cse.unsw.edu.au>	<stdin>
<neilb@cse.unsw.edu.au>	<stdin>
<okir@monad.swb.de>	<stdin>
<okir@monad.swb.de>	<stdin>
<okir@monad.swb.de>	<stdin>
<okir@monad.swb.de>	<stdin>
<okir@monad.swb.de>	<stdin>
<okir@monad.swb.de>	<stdin>
<okir@monad.swb.de>	<stdin>
<okir@monad.swb.de>	<stdin>
<okir@monad.swb.de>	<stdin>
<okir@monad.swb.de>	<stdin>
<okir@monad.swb.de>	<stdin>
<okir@monad.swb.de>	<stdin>
<okir@monad.swb.de>	<stdin>
<okir@monad.swb.de>	<stdin>
<okir@monad.swb.de>	<stdin>
<okir@monad.swb.de>	<stdin>
<okir@monad.swb.de>	<stdin>
<okir@monad.swb.de>	<stdin>
<okir@monad.swb.de>");	<stdin>
<pajko@halom.u-szeged.hu>,	<stdin>
<pauli@snapgear.com>	<stdin>
<sct@redhat.com>,	<stdin>
<sfrench@us.ibm.com>");	<stdin>
<sjayaraman@suse.de>	<stdin>
<taka@valinux.co.jp>	<stdin>
<tony.luck@intel.com>	<stdin>
<trevor.highland@gmail.com>	<stdin>
<trevor.highland@gmail.com>	<stdin>
<tyhicks@ou.edu>	<stdin>
<tyhicks@ou.edu>	<stdin>
<weth@inf.u-szeged.hu>,	<stdin>
@0x%08x(%d),	<stdin>
@0x%08x.	<stdin>
@access	<stdin>
@access:	<stdin>
@addr:	<stdin>
@ai:	<stdin>
@ai:	<stdin>
@ai:	<stdin>
@ai:	<stdin>
@arg_a:	<stdin>
@arg_b:	<stdin>
@argp:	<stdin>
@args:	<stdin>
@assertion	<stdin>
@assertion	<stdin>
@auth_tok	<stdin>
@auth_tok:	<stdin>
@auth_tok:	<stdin>
@auth_tok:	<stdin>
@auth_tok:	<stdin>
@auth_tok:	<stdin>
@auth_tok:	<stdin>
@auth_tok_key:	<stdin>
@auth_tok_key:	<stdin>
@auth_tok_list:	<stdin>
@auth_tok_list:	<stdin>
@available:	<stdin>
@available:	<stdin>
@available:	<stdin>
@available:	<stdin>
@bc	<stdin>
@bd:	<stdin>
@bdev	<stdin>
@bdev	<stdin>
@bdev	<stdin>
@bdev	<stdin>
@bdev	<stdin>
@bdev	<stdin>
@bdev	<stdin>
@bdev	<stdin>
@bdev	<stdin>
@bdev	<stdin>
@bdev	<stdin>
@bdev	<stdin>
@bdev	<stdin>
@bdev	<stdin>
@bdev	<stdin>
@bdev	<stdin>
@bdev	<stdin>
@bdev	<stdin>
@bdev	<stdin>
@bdev	<stdin>
@bdev	<stdin>
@bdev	<stdin>
@bdev	<stdin>
@bdev	<stdin>
@bdev,	<stdin>
@bdev,	<stdin>
@bdev.	<stdin>
@bdev:	<stdin>
@bdev:	<stdin>
@bdev:	<stdin>
@bdev:	<stdin>
@bdev:	<stdin>
@bdev:	<stdin>
@bdev:	<stdin>
@bdev:	<stdin>
@bdev:	<stdin>
@bdev:	<stdin>
@bdev:	<stdin>
@bh:	<stdin>
@bh:	<stdin>
@bh:	<stdin>
@bh:	<stdin>
@bh:	<stdin>
@bh:	<stdin>
@bh:	<stdin>
@bh:	<stdin>
@bh:	<stdin>
@bh:	<stdin>
@bh:	<stdin>
@bh:	<stdin>
@bh:	<stdin>
@bh:	<stdin>
@bh:	<stdin>
@bh:	<stdin>
@bh:	<stdin>
@bh:	<stdin>
@bh:	<stdin>
@bh:	<stdin>
@bh:	<stdin>
@bh_map:	<stdin>
@bh_map:	<stdin>
@bh_result:	<stdin>
@bhp:	<stdin>
@bhp:	<stdin>
@bhp:	<stdin>
@bhp:	<stdin>
@bhp:	<stdin>
@bhp:	<stdin>
@bio:	<stdin>
@bio:	<stdin>
@bitmap_bh:	<stdin>
@bitmap_bh:	<stdin>
@bitmap_bh:	<stdin>
@bitmap_bh:	<stdin>
@bitmap_bh:	<stdin>
@bitmap_bh:	<stdin>
@blen:	<stdin>
@blen:	<stdin>
@blen:	<stdin>
@blen:	<stdin>
@blk:	<stdin>
@blk:	<stdin>
@blk:	<stdin>
@blk:	<stdin>
@blkno:	<stdin>
@blkno:	<stdin>
@blkno:	<stdin>
@blkno:	<stdin>
@blkno:	<stdin>
@blks:	<stdin>
@blks:	<stdin>
@block	<stdin>
@block	<stdin>
@block	<stdin>
@block:	<stdin>
@block:	<stdin>
@block:	<stdin>
@block:	<stdin>
@block:	<stdin>
@block:	<stdin>
@block:	<stdin>
@block:	<stdin>
@block:	<stdin>
@block:	<stdin>
@block:	<stdin>
@block:	<stdin>
@block:	<stdin>
@block:	<stdin>
@block:	<stdin>
@block:	<stdin>
@block_group:	<stdin>
@block_group:	<stdin>
@block_group:	<stdin>
@block_group:	<stdin>
@blocksize_bits:	<stdin>
@bn:	<stdin>
@bottom:	<stdin>
@bp	<stdin>
@bp:	<stdin>
@bsize:	<stdin>
@bstart:	<stdin>
@bstart:	<stdin>
@bstart:	<stdin>
@bstart:	<stdin>
@bucket:	<stdin>
@bucket:	<stdin>
@buf	<stdin>
@buf	<stdin>
@buf	<stdin>
@buf	<stdin>
@buf	<stdin>
@buf	<stdin>
@buf	<stdin>
@buf	<stdin>
@buf	<stdin>
@buf	<stdin>
@buf	<stdin>
@buf	<stdin>
@buf	<stdin>
@buf	<stdin>
@buf	<stdin>
@buf	<stdin>
@buf:	<stdin>
@buf:	<stdin>
@buf:	<stdin>
@buf:	<stdin>
@buffer	<stdin>
@buffer)	<stdin>
@buffer:	<stdin>
@buffer:	<stdin>
@buffer:	<stdin>
@buffer:	<stdin>
@buffer:	<stdin>
@buffer:	<stdin>
@buffer:	<stdin>
@buffer:	<stdin>
@buffer:	<stdin>
@buflen:	<stdin>
@bufp	<stdin>
@bufp:	<stdin>
@bvec:	<stdin>
@bytes:	<stdin>
@bytes:	<stdin>
@bytes:	<stdin>
@bytes_read:	<stdin>
@c:	<stdin>
@c:	<stdin>
@caller:	<stdin>
@change:	<stdin>
@checksum/M	<stdin>
@checksum/M	<stdin>
@cifs_sb:	<stdin>
@cipher_code:	<stdin>
@cipher_name	<stdin>
@cipher_name.	<stdin>
@cipher_name:	<stdin>
@cipher_name:	<stdin>
@cipher_name:	<stdin>
@cipher_name:	<stdin>
@cipher_name:	<stdin>
@codepage	<stdin>
@codepage	<stdin>
@codepage	<stdin>
@codepage	<stdin>
@contents:	<stdin>
@contents:	<stdin>
@contents_length:	<stdin>
@copied:	<stdin>
@copied:	<stdin>
@copied:	<stdin>
@count	<stdin>
@count	<stdin>
@count	<stdin>
@count	<stdin>
@count:	<stdin>
@count:	<stdin>
@count:	<stdin>
@count:	<stdin>
@count:	<stdin>
@count:	<stdin>
@count:	<stdin>
@count:	<stdin>
@count:	<stdin>
@count:	<stdin>
@count:	<stdin>
@count:	<stdin>
@count:	<stdin>
@count:	<stdin>
@count:	<stdin>
@countp	<stdin>
@cp	<stdin>
@cp	<stdin>
@create:	<stdin>
@create:	<stdin>
@create:	<stdin>
@create:	<stdin>
@create:	<stdin>
@crypt_stat:	<stdin>
@crypt_stat:	<stdin>
@crypt_stat:	<stdin>
@crypt_stat:	<stdin>
@crypt_stat:	<stdin>
@crypt_stat:	<stdin>
@crypt_stat:	<stdin>
@crypt_stat:	<stdin>
@crypt_stat:	<stdin>
@crypt_stat:	<stdin>
@crypt_stat:	<stdin>
@crypt_stat:	<stdin>
@crypt_stat:	<stdin>
@crypt_stat:	<stdin>
@crypt_stat:	<stdin>
@crypt_stat:	<stdin>
@crypt_stat:	<stdin>
@crypt_stat:	<stdin>
@crypt_stat:	<stdin>
@crypt_stat:	<stdin>
@crypt_stat:	<stdin>
@crypt_stat:	<stdin>
@crypt_stat:	<stdin>
@crypt_stat:	<stdin>
@crypt_stat:	<stdin>
@crypt_stat:	<stdin>
@crypt_stats	<stdin>
@daemon:	<stdin>
@daemon:	<stdin>
@daemon:	<stdin>
@data	<stdin>
@data	<stdin>
@data	<stdin>
@data	<stdin>
@data	<stdin>
@data.	<stdin>
@data:	<stdin>
@data:	<stdin>
@data:	<stdin>
@data:	<stdin>
@data:	<stdin>
@data:	<stdin>
@data:	<stdin>
@data:	<stdin>
@data:	<stdin>
@data:	<stdin>
@data:	<stdin>
@data:	<stdin>
@data:	<stdin>
@data:	<stdin>
@data:	<stdin>
@data:	<stdin>
@data:	<stdin>
@data:	<stdin>
@data:	<stdin>
@data_blocks:	<stdin>
@data_len:	<stdin>
@data_len:	<stdin>
@data_size:	<stdin>
@data_size:	<stdin>
@datasync:	<stdin>
@dblock:	<stdin>
@delta	<stdin>
@delta	<stdin>
@dentry.	<stdin>
@dentry:	<stdin>
@dentry:	<stdin>
@dentry:	<stdin>
@dentry:	<stdin>
@dentry:	<stdin>
@dentry:	<stdin>
@dentry:	<stdin>
@dentry:	<stdin>
@dentry:	<stdin>
@dentry:	<stdin>
@dentry:	<stdin>
@dest,	<stdin>
@dest:	<stdin>
@dest:	<stdin>
@dest:	<stdin>
@dest:	<stdin>
@dest_base:	<stdin>
@dest_sg:	<stdin>
@dest_sg:	<stdin>
@dev	<stdin>
@dev.	<stdin>
@dev:	<stdin>
@dev_name:	<stdin>
@devname:	<stdin>
@dibh:	<stdin>
@dibh:	<stdin>
@dibh:	<stdin>
@dibh:	<stdin>
@din:	<stdin>
@din:	<stdin>
@din:	<stdin>
@din:	<stdin>
@dinode:	<stdin>
@dinode:	<stdin>
@dip.	<stdin>
@dip.	<stdin>
@dip:	<stdin>
@dip:	<stdin>
@disk	<stdin>
@disk	<stdin>
@disk	<stdin>
@disk:	<stdin>
@disk:	<stdin>
@disk:	<stdin>
@disk:	<stdin>
@do_clone:	<stdin>
@dout:	<stdin>
@dout:	<stdin>
@dout:	<stdin>
@dout:	<stdin>
@dp	<stdin>
@dp	<stdin>
@dp.	<stdin>
@dp.	<stdin>
@dp:	<stdin>
@dp:	<stdin>
@dp:	<stdin>
@dp:	<stdin>
@dp:	<stdin>
@dst	<stdin>
@dst	<stdin>
@dst	<stdin>
@dst:	<stdin>
@dst:	<stdin>
@dst:	<stdin>
@dst:	<stdin>
@dst:	<stdin>
@dst_offset:	<stdin>
@dst_offset:	<stdin>
@dst_page:	<stdin>
@dst_page:	<stdin>
@dst_size	<stdin>
@dst_size:	<stdin>
@dst_size:	<stdin>
@dst_size:	<stdin>
@ea:	<stdin>
@ea:	<stdin>
@ea:	<stdin>
@ea:	<stdin>
@ea:	<stdin>
@ea:	<stdin>
@ea:	<stdin>
@ea:	<stdin>
@ea:	<stdin>
@ea:	<stdin>
@ea:	<stdin>
@ea:	<stdin>
@ecryptfs_dentry:	<stdin>
@ecryptfs_dentry:	<stdin>
@ecryptfs_dentry:	<stdin>
@ecryptfs_dentry:	<stdin>
@ecryptfs_dentry:	<stdin>
@ecryptfs_dir_dentry:	<stdin>
@ecryptfs_inode:	<stdin>
@ecryptfs_inode:	<stdin>
@ecryptfs_inode:	<stdin>
@ecryptfs_inode:	<stdin>
@ecryptfs_inode:	<stdin>
@ecryptfs_inode:	<stdin>
@ecryptfs_inode:	<stdin>
@ecryptfs_inode:	<stdin>
@enc_extent_page:	<stdin>
@encoded_name:	<stdin>
@end:	<stdin>
@eob:	<stdin>
@er:	<stdin>
@er:	<stdin>
@er:	<stdin>
@er:	<stdin>
@er:	<stdin>
@er:	<stdin>
@er:	<stdin>
@er:	<stdin>
@er:	<stdin>
@er:	<stdin>
@er:	<stdin>
@er:	<stdin>
@error:	<stdin>
@error:	<stdin>
@error:	<stdin>
@error:	<stdin>
@errp:	<stdin>
@errp:	<stdin>
@errp:	<stdin>
@errp:	<stdin>
@exact:	<stdin>
@examiner:	<stdin>
@extent.	<stdin>
@extent:	<stdin>
@extent_offset:	<stdin>
@extlen:	<stdin>
@fdq:	<stdin>
@fh_len:	<stdin>
@fh_len:	<stdin>
@fh_type:	<stdin>
@fh_type:	<stdin>
@fhp	<stdin>
@fhp	<stdin>
@fhp:	<stdin>
@fid	<stdin>
@fid	<stdin>
@fid:	<stdin>
@fid:	<stdin>
@file,	<stdin>
@file:	<stdin>
@file:	<stdin>
@file:	<stdin>
@file:	<stdin>
@file:	<stdin>
@file:	<stdin>
@file:	<stdin>
@file:	<stdin>
@file:	<stdin>
@file:	<stdin>
@file:	<stdin>
@file:	<stdin>
@file:	<stdin>
@file:	<stdin>
@file:	<stdin>
@file:	<stdin>
@file:	<stdin>
@filename:	<stdin>
@filename:	<stdin>
@filename_size:	<stdin>
@filler.	<stdin>
@filler:	<stdin>
@filp:	<stdin>
@first	<stdin>
@first:	<stdin>
@flags:	<stdin>
@flags:	<stdin>
@flags:	<stdin>
@flags:	<stdin>
@flags:	<stdin>
@flags:	<stdin>
@flags:	<stdin>
@flags:	<stdin>
@flags:	<stdin>
@flags:	<stdin>
@flags:	<stdin>
@flags:	<stdin>
@flags:	<stdin>
@flags:	<stdin>
@flags:	<stdin>
@flags:	<stdin>
@flags:	<stdin>
@flags:	<stdin>
@flags:	<stdin>
@flags:	<stdin>
@fn:	<stdin>
@fn:	<stdin>
@fop:	<stdin>
@forward:	<stdin>
@fp	<stdin>
@fp:	<stdin>
@from	<stdin>
@from	<stdin>
@from	<stdin>
@from	<stdin>
@from	<stdin>
@from:	<stdin>
@from:	<stdin>
@from:	<stdin>
@fromlen	<stdin>
@fs_type:	<stdin>
@fscb_dev	<stdin>
@fscb_dev	<stdin>
@fscb_dev	<stdin>
@fscb_dev	<stdin>
@fscb_dev	<stdin>
@fscb_dev	<stdin>
@fsdata:	<stdin>
@fsdata:	<stdin>
@fsdata:	<stdin>
@fsync:	<stdin>
@fullpath:	<stdin>
@fullpath:	<stdin>
@gdp:	<stdin>
@gdp:	<stdin>
@generation:	<stdin>
@get_inode	<stdin>
@get_inode	<stdin>
@get_inode:	<stdin>
@get_inode:	<stdin>
@gfp_mask:	<stdin>
@gh:	<stdin>
@gh:	<stdin>
@gh:	<stdin>
@gh:	<stdin>
@gh:	<stdin>
@gh:	<stdin>
@gh:	<stdin>
@gh:	<stdin>
@gh:	<stdin>
@gh:	<stdin>
@gh:	<stdin>
@gh:	<stdin>
@gh:	<stdin>
@gh:	<stdin>
@gh:	<stdin>
@ghs:	<stdin>
@ghs:	<stdin>
@ghs:	<stdin>
@ghs:	<stdin>
@gl:	<stdin>
@gl:	<stdin>
@gl:	<stdin>
@gl:	<stdin>
@gl:	<stdin>
@gl:	<stdin>
@gl:	<stdin>
@gl:	<stdin>
@gl:	<stdin>
@gl:	<stdin>
@gl:	<stdin>
@gl:	<stdin>
@gl:	<stdin>
@gl:	<stdin>
@gl:	<stdin>
@gl:	<stdin>
@gl:	<stdin>
@gl:	<stdin>
@gl:	<stdin>
@gl:	<stdin>
@gl:	<stdin>
@gl:	<stdin>
@gl:	<stdin>
@gl:	<stdin>
@gl:	<stdin>
@gl:	<stdin>
@gl:	<stdin>
@gl:	<stdin>
@gl:	<stdin>
@gl:	<stdin>
@gl:	<stdin>
@gl:	<stdin>
@gl:	<stdin>
@gl:	<stdin>
@gl:	<stdin>
@gl:	<stdin>
@gl:	<stdin>
@gl:	<stdin>
@gl:	<stdin>
@gl:	<stdin>
@gl:	<stdin>
@gl:	<stdin>
@gl:	<stdin>
@global_auth_tok:	<stdin>
@global_auth_tok_key:	<stdin>
@glops:	<stdin>
@glops:	<stdin>
@glp:	<stdin>
@goal	<stdin>
@goal:	<stdin>
@goal:	<stdin>
@goal:	<stdin>
@goal:	<stdin>
@goal:	<stdin>
@group:	<stdin>
@group:	<stdin>
@group:	<stdin>
@group:	<stdin>
@group:	<stdin>
@group:	<stdin>
@group:	<stdin>
@group:	<stdin>
@group:	<stdin>
@group:	<stdin>
@group:	<stdin>
@group:	<stdin>
@group:	<stdin>
@group:	<stdin>
@grp_goal:	<stdin>
@grp_goal:	<stdin>
@grp_goal:	<stdin>
@grp_goal:	<stdin>
@grp_goal:	<stdin>
@grp_goal:	<stdin>
@grp_goal:	<stdin>
@grp_goal:	<stdin>
@gt:	<stdin>
@handle:	<stdin>
@handle:	<stdin>
@handle:	<stdin>
@handle:	<stdin>
@handle:	<stdin>
@handle:	<stdin>
@handle:	<stdin>
@handle:	<stdin>
@handle:	<stdin>
@handle:	<stdin>
@head:	<stdin>
@head:	<stdin>
@head:	<stdin>
@height	<stdin>
@height:	<stdin>
@height:	<stdin>
@height:	<stdin>
@height:	<stdin>
@height:	<stdin>
@height:	<stdin>
@holder	<stdin>
@holder	<stdin>
@holder	<stdin>
@holder.	<stdin>
@holder.	<stdin>
@holder:	<stdin>
@holder:	<stdin>
@holder:	<stdin>
@holder:	<stdin>
@holder:	<stdin>
@holder:	<stdin>
@iattr:	<stdin>
@iblock:	<stdin>
@iblock:	<stdin>
@iblock:	<stdin>
@iblock:	<stdin>
@idx:	<stdin>
@ignored:	<stdin>
@ilistp:	<stdin>
@ind_blocks:	<stdin>
@indir	<stdin>
@indir:	<stdin>
@ino	<stdin>
@ino	<stdin>
@ino	<stdin>
@ino	<stdin>
@ino:	<stdin>
@ino:	<stdin>
@ino:	<stdin>
@ino:	<stdin>
@inode.	<stdin>
@inode:	<stdin>
@inode:	<stdin>
@inode:	<stdin>
@inode:	<stdin>
@inode:	<stdin>
@inode:	<stdin>
@inode:	<stdin>
@inode:	<stdin>
@inode:	<stdin>
@inode:	<stdin>
@inode:	<stdin>
@inode:	<stdin>
@inode:	<stdin>
@inode:	<stdin>
@inode:	<stdin>
@inode:	<stdin>
@inode:	<stdin>
@inode:	<stdin>
@inode:	<stdin>
@inode:	<stdin>
@inode:	<stdin>
@inode:	<stdin>
@inode:	<stdin>
@inode:	<stdin>
@iov:	<stdin>
@iov:	<stdin>
@iov:	<stdin>
@ip	<stdin>
@ip	<stdin>
@ip	<stdin>
@ip	<stdin>
@ip.	<stdin>
@ip:	<stdin>
@ip:	<stdin>
@ip:	<stdin>
@ip:	<stdin>
@ip:	<stdin>
@ip:	<stdin>
@ip:	<stdin>
@ip:	<stdin>
@ip:	<stdin>
@ip:	<stdin>
@ip:	<stdin>
@ip:	<stdin>
@ip:	<stdin>
@ip:	<stdin>
@ip:	<stdin>
@ip:	<stdin>
@ip:	<stdin>
@ip:	<stdin>
@ip:	<stdin>
@ip:	<stdin>
@ip:	<stdin>
@ip:	<stdin>
@ip:	<stdin>
@ip:	<stdin>
@ip:	<stdin>
@ip:	<stdin>
@ip:	<stdin>
@ip:	<stdin>
@ip:	<stdin>
@ip:	<stdin>
@ip:	<stdin>
@ip:	<stdin>
@ip:	<stdin>
@ip:	<stdin>
@ip:	<stdin>
@ip:	<stdin>
@ip:	<stdin>
@ip:	<stdin>
@ip:	<stdin>
@ip:	<stdin>
@ip:	<stdin>
@ip:	<stdin>
@ip:	<stdin>
@ip:	<stdin>
@ip:	<stdin>
@ip:	<stdin>
@ip:	<stdin>
@ip:	<stdin>
@ip:	<stdin>
@ip:	<stdin>
@ip:	<stdin>
@ip:	<stdin>
@ip:	<stdin>
@ip:	<stdin>
@ip:	<stdin>
@ip:	<stdin>
@ip:	<stdin>
@ip:	<stdin>
@ip:	<stdin>
@ip:	<stdin>
@ip:	<stdin>
@ip:	<stdin>
@ip:	<stdin>
@ip:	<stdin>
@ip:	<stdin>
@ip:	<stdin>
@ip:	<stdin>
@ip:	<stdin>
@ip:	<stdin>
@ip:	<stdin>
@ip:	<stdin>
@ip:	<stdin>
@ip:	<stdin>
@ip:	<stdin>
@ip_addr:	<stdin>
@is_unicode	<stdin>
@iv:	<stdin>
@iv:	<stdin>
@iv:	<stdin>
@iv:	<stdin>
@iv:	<stdin>
@jd:	<stdin>
@jd:	<stdin>
@jd:	<stdin>
@jd:	<stdin>
@jd:	<stdin>
@jd:	<stdin>
@ji_gh:	<stdin>
@key_bytes:	<stdin>
@key_rec:	<stdin>
@key_rec:	<stdin>
@key_size:	<stdin>
@key_size:	<stdin>
@key_tfm	<stdin>
@key_tfm	<stdin>
@key_tfm:	<stdin>
@key_tfm:	<stdin>
@key_tfm:	<stdin>
@key_tfm_list:	<stdin>
@key_tfm_mutex:	<stdin>
@kill_dirty:	<stdin>
@last_block:	<stdin>
@last_block:	<stdin>
@last_unlinked:	<stdin>
@lblock:	<stdin>
@lblock:	<stdin>
@lblock:	<stdin>
@lblock:	<stdin>
@len:	<stdin>
@len:	<stdin>
@len:	<stdin>
@len:	<stdin>
@len:	<stdin>
@len:	<stdin>
@len:	<stdin>
@len:	<stdin>
@len:	<stdin>
@len:	<stdin>
@len:	<stdin>
@len:	<stdin>
@len:	<stdin>
@len:	<stdin>
@len:	<stdin>
@len:	<stdin>
@len:	<stdin>
@len:	<stdin>
@length	<stdin>
@length)	<stdin>
@length:	<stdin>
@length:	<stdin>
@length=~0	<stdin>
@length_size:	<stdin>
@lh:	<stdin>
@lh:	<stdin>
@limit:	<stdin>
@list:	<stdin>
@loc:	<stdin>
@lock:	<stdin>
@lock:	<stdin>
@lock:	<stdin>
@loops	<stdin>
@loops:	<stdin>
@lower_dentry:	<stdin>
@lower_file:	<stdin>
@lower_mnt:	<stdin>
@mapchar	<stdin>
@mapchar	<stdin>
@mapping).	<stdin>
@mapping,	<stdin>
@mapping:	<stdin>
@mapping:	<stdin>
@mapping:	<stdin>
@mapping:	<stdin>
@mapping:	<stdin>
@mapping:	<stdin>
@mapping:	<stdin>
@mapping:	<stdin>
@mapping:	<stdin>
@mapping:	<stdin>
@mask:	<stdin>
@max:	<stdin>
@max:	<stdin>
@max:	<stdin>
@max:	<stdin>
@max_contents_bytes:	<stdin>
@max_packet_size:	<stdin>
@max_packet_size:	<stdin>
@max_packet_size:	<stdin>
@max_packet_size:	<stdin>
@maxblocks:	<stdin>
@maxblocks:	<stdin>
@maxblocks:	<stdin>
@maxblocks:	<stdin>
@maxbytes	<stdin>
@maxbytes	<stdin>
@maxlen	<stdin>
@maxlen	<stdin>
@maxlen:	<stdin>
@meta:	<stdin>
@meta:	<stdin>
@meta:	<stdin>
@minblocks:	<stdin>
@minblocks:	<stdin>
@minext:	<stdin>
@minext:	<stdin>
@minlen:	<stdin>
@minlen:	<stdin>
@minsize:	<stdin>
@mnt:	<stdin>
@mode	<stdin>
@mode	<stdin>
@mode	<stdin>
@mode	<stdin>
@mode.	<stdin>
@mode:	<stdin>
@mode:	<stdin>
@mode:	<stdin>
@mode:	<stdin>
@mount_crypt_stat:	<stdin>
@mount_crypt_stat:	<stdin>
@mount_crypt_stat:	<stdin>
@mount_crypt_stat_list:	<stdin>
@mp:	<stdin>
@mp:	<stdin>
@mp:	<stdin>
@mp:	<stdin>
@mp:	<stdin>
@msecs:	<stdin>
@msg	<stdin>
@msg:	<stdin>
@msg:	<stdin>
@msg_ctx:	<stdin>
@msg_ctx:	<stdin>
@msg_ctx:	<stdin>
@msg_ctx:	<stdin>
@msg_ctx:	<stdin>
@msg_ctx:	<stdin>
@msg_ctx:	<stdin>
@msg_flags:	<stdin>
@msg_type:	<stdin>
@mv:	<stdin>
@my_rsv:	<stdin>
@my_rsv:	<stdin>
@my_rsv:	<stdin>
@my_rsv:	<stdin>
@my_rsv:	<stdin>
@my_rsv:	<stdin>
@my_rsv:	<stdin>
@my_rsv:	<stdin>
@my_rsv:	<stdin>
@my_rsv:	<stdin>
@n	<stdin>
@n:	<stdin>
@n:	<stdin>
@n_unaligned:	<stdin>
@n_vec:	<stdin>
@name:	<stdin>
@name:	<stdin>
@name:	<stdin>
@name:	<stdin>
@name:	<stdin>
@name:	<stdin>
@name:	<stdin>
@name:	<stdin>
@name:	<stdin>
@name:	<stdin>
@name:	<stdin>
@name:	<stdin>
@name:	<stdin>
@name:	<stdin>
@name:	<stdin>
@name_size:	<stdin>
@nblocks:	<stdin>
@nd:	<stdin>
@new:	<stdin>
@new:	<stdin>
@new_auth_tok:	<stdin>
@new_auth_tok:	<stdin>
@new_state	<stdin>
@new_state	<stdin>
@new_state:	<stdin>
@new_state:	<stdin>
@newer:	<stdin>
@newsize:	<stdin>
@newsize:	<stdin>
@newsize:	<stdin>
@nlink:	<stdin>
@no_addr:	<stdin>
@node_name:	<stdin>
@nonblock:	<stdin>
@nowrap:	<stdin>
@np:	<stdin>
@nr:	<stdin>
@nr:	<stdin>
@nr_pages:	<stdin>
@nr_segs:	<stdin>
@nstruct:	<stdin>
@num:	<stdin>
@num_blocks	<stdin>
@num_blocks:	<stdin>
@num_gh:	<stdin>
@num_gh:	<stdin>
@num_gh:	<stdin>
@num_gh:	<stdin>
@number:	<stdin>
@number:	<stdin>
@odi	<stdin>
@odi	<stdin>
@odi	<stdin>
@odi	<stdin>
@odi	<stdin>
@odi	<stdin>
@offset	<stdin>
@offset	<stdin>
@offset	<stdin>
@offset:	<stdin>
@offset:	<stdin>
@offset:	<stdin>
@offset:	<stdin>
@offset:	<stdin>
@offset:	<stdin>
@offset:	<stdin>
@offset:	<stdin>
@offset_in_page:	<stdin>
@offset_in_page:	<stdin>
@older:	<stdin>
@oldsize:	<stdin>
@oldsize:	<stdin>
@optarg:	<stdin>
@options:	<stdin>
@optopt:	<stdin>
@opts:	<stdin>
@packet_length:	<stdin>
@packet_size:	<stdin>
@packet_size:	<stdin>
@packet_size:	<stdin>
@packet_size:	<stdin>
@packet_size:	<stdin>
@packet_size:	<stdin>
@packet_size_length:	<stdin>
@page	<stdin>
@page	<stdin>
@page	<stdin>
@page	<stdin>
@page	<stdin>
@page	<stdin>
@page:	<stdin>
@page:	<stdin>
@page:	<stdin>
@page:	<stdin>
@page:	<stdin>
@page:	<stdin>
@page:	<stdin>
@page:	<stdin>
@page:	<stdin>
@page:	<stdin>
@page:	<stdin>
@page:	<stdin>
@page:	<stdin>
@page:	<stdin>
@page:	<stdin>
@page:	<stdin>
@page:	<stdin>
@page:	<stdin>
@page:	<stdin>
@page:	<stdin>
@page:	<stdin>
@page:	<stdin>
@page_for_ecryptfs	<stdin>
@page_for_ecryptfs	<stdin>
@page_for_ecryptfs	<stdin>
@page_for_ecryptfs:	<stdin>
@page_for_lower	<stdin>
@page_for_lower	<stdin>
@page_for_lower	<stdin>
@page_for_lower:	<stdin>
@page_virt:	<stdin>
@page_virt:	<stdin>
@page_virt:	<stdin>
@page_virt:	<stdin>
@page_virt:	<stdin>
@pagep:	<stdin>
@par_dev	<stdin>
@path.	<stdin>
@path:	<stdin>
@pathname	<stdin>
@pathname:	<stdin>
@pdquot_freed_blocks:	<stdin>
@pdquot_freed_blocks:	<stdin>
@plaintext_name:	<stdin>
@plaintext_name_size:	<stdin>
@pos:	<stdin>
@pos:	<stdin>
@pos:	<stdin>
@pos:	<stdin>
@pos:	<stdin>
@pp	<stdin>
@ppos	<stdin>
@ppos	<stdin>
@ppos	<stdin>
@ppos	<stdin>
@ppos	<stdin>
@ppos.	<stdin>
@ppos:	<stdin>
@ppos:	<stdin>
@ppos:	<stdin>
@ppos:	<stdin>
@ppos:	<stdin>
@ppp	<stdin>
@ppp:	<stdin>
@prev:	<stdin>
@prev:	<stdin>
@prev:	<stdin>
@prev:	<stdin>
@prio:	<stdin>
@private:	<stdin>
@private:	<stdin>
@private:	<stdin>
@private:	<stdin>
@pt:	<stdin>
@ptr:	<stdin>
@ptr:	<stdin>
@pvec:	<stdin>
@qd:	<stdin>
@rb_root:	<stdin>
@rb_root:	<stdin>
@rb_root:	<stdin>
@rb_root:	<stdin>
@rbm	<stdin>
@rbm:	<stdin>
@rbm:	<stdin>
@rbm:	<stdin>
@rbm:	<stdin>
@rbm:	<stdin>
@rbm:	<stdin>
@rbm:	<stdin>
@rbm:	<stdin>
@rbm:	<stdin>
@ref:	<stdin>
@ref:	<stdin>
@remaining_bytes:	<stdin>
@remaining_bytes:	<stdin>
@remaining_bytes:	<stdin>
@remap	<stdin>
@requested:	<stdin>
@requested:	<stdin>
@ret:	<stdin>
@ret:	<stdin>
@retp	<stdin>
@retp:	<stdin>
@retries	<stdin>
@retries	<stdin>
@rgd:	<stdin>
@rgd:	<stdin>
@rgd:	<stdin>
@rgd:	<stdin>
@rgd:	<stdin>
@rgd:	<stdin>
@rgd:	<stdin>
@rgd:	<stdin>
@rgd:	<stdin>
@rgd:	<stdin>
@rgd:	<stdin>
@rlist:	<stdin>
@rlist:	<stdin>
@rqst:	<stdin>
@rqstp:	<stdin>
@rs:	<stdin>
@rs:	<stdin>
@rs:	<stdin>
@rs:	<stdin>
@rsv:	<stdin>
@rsv:	<stdin>
@rsv:	<stdin>
@rsv:	<stdin>
@rsv:	<stdin>
@rsv:	<stdin>
@rsv:	<stdin>
@rsv:	<stdin>
@rw:	<stdin>
@rw:	<stdin>
@sample:	<stdin>
@sb.	<stdin>
@sb:	<stdin>
@sb:	<stdin>
@sb:	<stdin>
@sb:	<stdin>
@sb:	<stdin>
@sb:	<stdin>
@sb:	<stdin>
@sb:	<stdin>
@sb:	<stdin>
@sb:	<stdin>
@sb:	<stdin>
@sb:	<stdin>
@sb:	<stdin>
@sb:	<stdin>
@sb:	<stdin>
@sb:	<stdin>
@sb:	<stdin>
@sb:	<stdin>
@sb:	<stdin>
@sb:	<stdin>
@sb:	<stdin>
@sb:	<stdin>
@sb:	<stdin>
@sb:	<stdin>
@sb:	<stdin>
@sb:	<stdin>
@sb:	<stdin>
@sb:	<stdin>
@sb:	<stdin>
@sb:	<stdin>
@sb:	<stdin>
@sb:	<stdin>
@sb:	<stdin>
@sb:	<stdin>
@sb:	<stdin>
@sb:	<stdin>
@sb:	<stdin>
@sb:	<stdin>
@sb:	<stdin>
@sb:	<stdin>
@sb:	<stdin>
@sb:	<stdin>
@sb_mountdata:	<stdin>
@sbi:	<stdin>
@sbi:	<stdin>
@sbp	<stdin>
@sbp	<stdin>
@sbp	<stdin>
@sbp	<stdin>
@sbp->s_lock.	<stdin>
@sbp.	<stdin>
@sbp:	<stdin>
@sbp:	<stdin>
@sbp:	<stdin>
@sbp:	<stdin>
@sbp:	<stdin>
@sbp:	<stdin>
@sbp:	<stdin>
@sbp:	<stdin>
@sbp:	<stdin>
@sdp:	<stdin>
@sdp:	<stdin>
@sdp:	<stdin>
@sdp:	<stdin>
@sdp:	<stdin>
@sdp:	<stdin>
@sdp:	<stdin>
@sdp:	<stdin>
@sdp:	<stdin>
@sdp:	<stdin>
@sdp:	<stdin>
@sdp:	<stdin>
@sdp:	<stdin>
@sdp:	<stdin>
@sdp:	<stdin>
@sdp:	<stdin>
@sdp:	<stdin>
@sdp:	<stdin>
@sdp:	<stdin>
@sdp:	<stdin>
@sdp:	<stdin>
@sdp:	<stdin>
@sdp:	<stdin>
@sdp:	<stdin>
@sdp:	<stdin>
@sdp:	<stdin>
@sdp:	<stdin>
@sdp:	<stdin>
@sdp:	<stdin>
@sdp:	<stdin>
@sdp:	<stdin>
@sdp:	<stdin>
@sdp:	<stdin>
@sdp:	<stdin>
@sdp:	<stdin>
@sdp:	<stdin>
@sdp:	<stdin>
@sdp:	<stdin>
@sdp:	<stdin>
@sdp:	<stdin>
@sdp:	<stdin>
@sdp:	<stdin>
@sdp:	<stdin>
@sdp:	<stdin>
@sdp:	<stdin>
@sdp:	<stdin>
@sdp:	<stdin>
@sdp:	<stdin>
@sdp:	<stdin>
@sdp:	<stdin>
@sdp:	<stdin>
@sdp:	<stdin>
@search_head:	<stdin>
@search_head:	<stdin>
@sector:	<stdin>
@sent:	<stdin>
@sep,	<stdin>
@sep.	<stdin>
@seq:	<stdin>
@seq:	<stdin>
@seq:	<stdin>
@seq:	<stdin>
@seq:	<stdin>
@seq:	<stdin>
@server:	<stdin>
@sg:	<stdin>
@sg_size:	<stdin>
@sheight:	<stdin>
@sig:	<stdin>
@sig:	<stdin>
@silent:	<stdin>
@silent:	<stdin>
@silent:	<stdin>
@silent:	<stdin>
@silent:	<stdin>
@size	<stdin>
@size	<stdin>
@size	<stdin>
@size:	<stdin>
@size:	<stdin>
@size:	<stdin>
@size:	<stdin>
@size:	<stdin>
@size:	<stdin>
@size:	<stdin>
@size:	<stdin>
@size:	<stdin>
@size:	<stdin>
@size:	<stdin>
@size:	<stdin>
@size:	<stdin>
@size:	<stdin>
@size:	<stdin>
@size:	<stdin>
@size:	<stdin>
@size:	<stdin>
@size:	<stdin>
@size:	<stdin>
@size:	<stdin>
@size:	<stdin>
@size:	<stdin>
@size:	<stdin>
@size:	<stdin>
@size:	<stdin>
@size:	<stdin>
@size:	<stdin>
@size:	<stdin>
@size:	<stdin>
@size:	<stdin>
@size:	<stdin>
@size:	<stdin>
@size:	<stdin>
@size:	<stdin>
@skip:	<stdin>
@sm:	<stdin>
@src	<stdin>
@src	<stdin>
@src	<stdin>
@src	<stdin>
@src	<stdin>
@src:	<stdin>
@src:	<stdin>
@src:	<stdin>
@src:	<stdin>
@src:	<stdin>
@src:	<stdin>
@src_char	<stdin>
@src_offset:	<stdin>
@src_offset:	<stdin>
@src_page:	<stdin>
@src_page:	<stdin>
@src_sg:	<stdin>
@src_sg:	<stdin>
@src_size:	<stdin>
@src_size:	<stdin>
@src_size:	<stdin>
@ssize:	<stdin>
@start:	<stdin>
@start:	<stdin>
@start:	<stdin>
@start:	<stdin>
@start:	<stdin>
@start:	<stdin>
@start:	<stdin>
@start:	<stdin>
@start:	<stdin>
@start:	<stdin>
@start_block:	<stdin>
@start_block:	<stdin>
@state:	<stdin>
@state:	<stdin>
@state:	<stdin>
@state:	<stdin>
@state:	<stdin>
@state:	<stdin>
@state:	<stdin>
@state:	<stdin>
@state:	<stdin>
@state:	<stdin>
@state:	<stdin>
@str:	<stdin>
@tag_11_contents_size:	<stdin>
@target	<stdin>
@target:	<stdin>
@tfm	<stdin>
@tfm:	<stdin>
@tfm_mutex	<stdin>
@tfm_mutex:	<stdin>
@to	<stdin>
@to	<stdin>
@to.	<stdin>
@to.	<stdin>
@to:	<stdin>
@to:	<stdin>
@to:	<stdin>
@tolen	<stdin>
@top:	<stdin>
@tr:	<stdin>
@type	<stdin>
@type:	<stdin>
@type:	<stdin>
@type:	<stdin>
@type:	<stdin>
@type:	<stdin>
@type:	<stdin>
@type:	<stdin>
@type:	<stdin>
@type:	<stdin>
@type:	<stdin>
@type:	<stdin>
@type:	<stdin>
@type:	<stdin>
@type:	<stdin>
@unc:	<stdin>
@utf16	<stdin>
@utf16_len	<stdin>
@validate_header_size:	<stdin>
@value	<stdin>
@value	<stdin>
@value	<stdin>
@value	<stdin>
@value:	<stdin>
@value:	<stdin>
@value:	<stdin>
@value:	<stdin>
@value:	<stdin>
@var	<stdin>
@verbose:	<stdin>
@verbose:	<stdin>
@version:	<stdin>
@vip.	<stdin>
@vip:	<stdin>
@vip:	<stdin>
@vip:	<stdin>
@wait:	<stdin>
@wbc:	<stdin>
@wbc:	<stdin>
@wbc:	<stdin>
@wbc:	<stdin>
@wbc:	<stdin>
@wbc:	<stdin>
@wbc:	<stdin>
@wbc:	<stdin>
@wbc:	<stdin>
@wbc:	<stdin>
@which:	<stdin>
@whole:	<stdin>
@whole:	<stdin>
@word:	<stdin>
@writepage:	<stdin>
@writepage:	<stdin>
@written:	<stdin>
hch@infradead.org\n");	<stdin>
janetinc@us.ibm.com	<stdin>
nathans@sgi.com	<stdin>
okir@monad.swb.de).\n");	<stdin>
osd-dev@open-osd.org\n",	<stdin>
osd-dev@open-osd.org\n",	<stdin>
osd-dev@open-osd.org\n",	<stdin>
osd-dev@open-osd.org\n",	<stdin>
osd-dev@open-osd.org\n",	<stdin>
osd-dev@open-osd.org\n",	<stdin>
pbadari@us.ibm.com	<stdin>
pbadari@us.ibm.com	<stdin>
rhys@sucs.swan.ac.uk	<stdin>
vandrove@vc.cvut.cz	<stdin>
