"afs@CAMBRIDGE.REDHAT.COM>	<stdin>
(@s)	<stdin>
(@s).	<stdin>
(@s).	<stdin>
(alan@lxorguk.ukuu.org.uk)	<stdin>
(alan@lxorguk.ukuu.org.uk)	<stdin>
(alan@lxorguk.ukuu.org.uk)	<stdin>
(alan@lxorguk.ukuu.org.uk)	<stdin>
(alan@lxorguk.ukuu.org.uk)	<stdin>
(alan@lxorguk.ukuu.org.uk)	<stdin>
(alan@lxorguk.ukuu.org.uk)	<stdin>
(alan@lxorguk.ukuu.org.uk)	<stdin>
(davem@caip.rutgers.edu)	<stdin>
(dd8ne@bnv-bamberg.de)	<stdin>
(dd8ne@bnv-bamberg.de)	<stdin>
(dd8ne@bnv-bamberg.de)	<stdin>
(dd8ne@bnv-bamberg.de)	<stdin>
(dhowells@redhat.com)	<stdin>
(dhowells@redhat.com)	<stdin>
(dhowells@redhat.com)	<stdin>
(dhowells@redhat.com)	<stdin>
(dhowells@redhat.com)	<stdin>
(dhowells@redhat.com)	<stdin>
(dhowells@redhat.com)	<stdin>
(dhowells@redhat.com)	<stdin>
(dhowells@redhat.com)	<stdin>
(dhowells@redhat.com)	<stdin>
(dhowells@redhat.com)	<stdin>
(dhowells@redhat.com)	<stdin>
(dhowells@redhat.com)	<stdin>
(dhowells@redhat.com)	<stdin>
(dhowells@redhat.com)	<stdin>
(dhowells@redhat.com)	<stdin>
(dhowells@redhat.com)	<stdin>
(dhowells@redhat.com)	<stdin>
(dhowells@redhat.com)	<stdin>
(dlm@g7led.demon.co.uk)	<stdin>
(dlm@g7led.demon.co.uk)	<stdin>
(dlstevens@us.ibm.com)	<stdin>
(frible@teaser.fr)	<stdin>
(frible@teaser.fr)	<stdin>
(frible@teaser.fr)	<stdin>
(frible@teaser.fr)	<stdin>
(frible@teaser.fr)	<stdin>
(g4klx@g4klx.demon.co.uk)	<stdin>
(g4klx@g4klx.demon.co.uk)	<stdin>
(g4klx@g4klx.demon.co.uk)	<stdin>
(g4klx@g4klx.demon.co.uk)	<stdin>
(g4klx@g4klx.demon.co.uk)	<stdin>
(g4klx@g4klx.demon.co.uk)	<stdin>
(g4klx@g4klx.demon.co.uk)	<stdin>
(g4klx@g4klx.demon.co.uk)	<stdin>
(g4klx@g4klx.demon.co.uk)	<stdin>
(g4klx@g4klx.demon.co.uk)	<stdin>
(g4klx@g4klx.demon.co.uk)	<stdin>
(g4klx@g4klx.demon.co.uk)	<stdin>
(g4klx@g4klx.demon.co.uk)	<stdin>
(g4klx@g4klx.demon.co.uk)	<stdin>
(g4klx@g4klx.demon.co.uk)	<stdin>
(g4klx@g4klx.demon.co.uk)	<stdin>
(g4klx@g4klx.demon.co.uk)	<stdin>
(hans@esrac.ele.tue.nl)	<stdin>
(jreuter@yaina.de)	<stdin>
(jreuter@yaina.de)	<stdin>
(jreuter@yaina.de)	<stdin>
(jreuter@yaina.de)	<stdin>
(jreuter@yaina.de)	<stdin>
(jreuter@yaina.de)	<stdin>
(jreuter@yaina.de)	<stdin>
(jreuter@yaina.de)	<stdin>
(jreuter@yaina.de)	<stdin>
(jreuter@yaina.de)	<stdin>
(jreuter@yaina.de)	<stdin>
(oh2bns@sral.fi)	<stdin>
(ralf@gnu.org)	<stdin>
(shaver@zeroknowledge.com)	<stdin>
(stevew@acm.org)	<stdin>
(stevew@acm.org)	<stdin>
(vince@cs.stanford.edu)	<stdin>
(xeb@mail.ru)	<stdin>
(xeb@mail.ru)");	<stdin>
<I.P.Morris@soton.ac.uk>	<stdin>
<aage@cs.uit.no>	<stdin>
<abhinav.pathak@hiit.fi>	<stdin>
<acme@conectiva.com.br>	<stdin>
<acme@conectiva.com.br>	<stdin>
<acme@conectiva.com.br>	<stdin>
<acme@conectiva.com.br>	<stdin>
<acme@conectiva.com.br>	<stdin>
<acme@conectiva.com.br>	<stdin>
<acme@conectiva.com.br>	<stdin>
<acme@conectiva.com.br>	<stdin>
<acme@conectiva.com.br>	<stdin>
<acme@conectiva.com.br>	<stdin>
<acme@conectiva.com.br>	<stdin>
<acme@conectiva.com.br>	<stdin>
<acme@conectiva.com.br>	<stdin>
<acme@conectiva.com.br>	<stdin>
<acme@conectiva.com.br>	<stdin>
<acme@conectiva.com.br>	<stdin>
<acme@conectiva.com.br>	<stdin>
<acme@mandriva.com>	<stdin>
<acme@redhat.com>	<stdin>
<ahrenholz@gmail.com>	<stdin>
<ak@muc.de>	<stdin>
<aloisio.almeida@openbossa.org>	<stdin>
<aloisio.almeida@openbossa.org>	<stdin>
<aloisio.almeida@openbossa.org>	<stdin>
<aloisio.almeida@openbossa.org>	<stdin>
<andreas.herrmann3@amd.com>	<stdin>
<andrew.grover@intel.com>	<stdin>
<bdschuym@pandora.be>	<stdin>
<bdschuym@pandora.be>	<stdin>
<bdschuym@pandora.be>	<stdin>
<bdschuym@pandora.be>	<stdin>
<bdschuym@pandora.be>	<stdin>
<bdschuym@pandora.be>	<stdin>
<bdschuym@pandora.be>	<stdin>
<bdschuym@pandora.be>	<stdin>
<bdschuym@pandora.be>	<stdin>
<bdschuym@pandora.be>	<stdin>
<bdschuym@pandora.be>	<stdin>
<bdschuym@pandora.be>	<stdin>
<bdschuym@pandora.be>	<stdin>
<bdschuym@pandora.be>	<stdin>
<bdschuym@pandora.be>	<stdin>
<bdschuym@pandora.be>	<stdin>
<bdschuym@pandora.be>	<stdin>
<bdschuym@pandora.be>	<stdin>
<bdschuym@pandora.be>	<stdin>
<bdschuym@pandora.be>	<stdin>
<bdschuym@pandora.be>");	<stdin>
<becker@CESDIS.gsfc.nasa.gov>	<stdin>
<becker@CESDIS.gsfc.nasa.gov>	<stdin>
<becker@CESDIS.gsfc.nasa.gov>	<stdin>
<buytenh@gnu.org>	<stdin>
<buytenh@gnu.org>	<stdin>
<buytenh@gnu.org>	<stdin>
<buytenh@gnu.org>	<stdin>
<buytenh@gnu.org>	<stdin>
<buytenh@gnu.org>	<stdin>
<buytenh@gnu.org>	<stdin>
<buytenh@gnu.org>	<stdin>
<buytenh@gnu.org>	<stdin>
<buytenh@gnu.org>	<stdin>
<buytenh@gnu.org>	<stdin>
<buytenh@gnu.org>	<stdin>
<buytenh@gnu.org>	<stdin>
<buytenh@gnu.org>	<stdin>
<buytenh@gnu.org>	<stdin>
<chexum@bankinf.banki.hu>	<stdin>
<ckornacker@suse.de>	<stdin>
<ckornacker@suse.de>	<stdin>
<ckornacker@suse.de>	<stdin>
<ckornacker@suse.de>	<stdin>
<ckornacker@suse.de>	<stdin>
<ckornacker@suse.de>	<stdin>
<ckornacker@suse.de>	<stdin>
<ckornacker@suse.de>	<stdin>
<coreteam@netfilter.org>	<stdin>
<coreteam@netfilter.org>	<stdin>
<coreteam@netfilter.org>	<stdin>
<coreteam@netfilter.org>	<stdin>
<coreteam@netfilter.org>");	<stdin>
<coreteam@netfilter.org>");	<stdin>
<coreteam@netfilter.org>");	<stdin>
<dag@brattli.net>	<stdin>
<dag@brattli.net>	<stdin>
<dag@brattli.net>	<stdin>
<dag@brattli.net>");	<stdin>
<dag@brattli.net>,	<stdin>
<dagb@cs.uit.no>	<stdin>
<dagb@cs.uit.no>	<stdin>
<dagb@cs.uit.no>	<stdin>
<dagb@cs.uit.no>	<stdin>
<dagb@cs.uit.no>	<stdin>
<dagb@cs.uit.no>	<stdin>
<dagb@cs.uit.no>	<stdin>
<dagb@cs.uit.no>	<stdin>
<dagb@cs.uit.no>	<stdin>
<dagb@cs.uit.no>	<stdin>
<dagb@cs.uit.no>	<stdin>
<dagb@cs.uit.no>	<stdin>
<dagb@cs.uit.no>	<stdin>
<dagb@cs.uit.no>	<stdin>
<dagb@cs.uit.no>	<stdin>
<dagb@cs.uit.no>	<stdin>
<dagb@cs.uit.no>	<stdin>
<dagb@cs.uit.no>	<stdin>
<dagb@cs.uit.no>	<stdin>
<dagb@cs.uit.no>	<stdin>
<dagb@cs.uit.no>	<stdin>
<dagb@cs.uit.no>	<stdin>
<dagb@cs.uit.no>	<stdin>
<dagb@cs.uit.no>	<stdin>
<dagb@cs.uit.no>	<stdin>
<dagb@cs.uit.no>	<stdin>
<dagb@cs.uit.no>	<stdin>
<dagb@cs.uit.no>	<stdin>
<dagb@cs.uit.no>	<stdin>
<dagb@cs.uit.no>	<stdin>
<dagb@cs.uit.no>	<stdin>
<dagb@cs.uit.no>	<stdin>
<dagb@cs.uit.no>	<stdin>
<dagb@cs.uit.no>	<stdin>
<dagb@cs.uit.no>	<stdin>
<dagb@cs.uit.no>	<stdin>
<dagb@cs.uit.no>	<stdin>
<dagb@cs.uit.no>	<stdin>
<dagb@cs.uit.no>	<stdin>
<dagb@cs.uit.no>	<stdin>
<dagb@cs.uit.no>	<stdin>
<dagb@cs.uit.no>	<stdin>
<dagb@cs.uit.no>	<stdin>
<dagb@cs.uit.no>	<stdin>
<dagb@cs.uit.no>	<stdin>
<dagb@cs.uit.no>	<stdin>
<dagb@cs.uit.no>	<stdin>
<dagb@cs.uit.no>	<stdin>
<dagb@cs.uit.no>	<stdin>
<dagb@cs.uit.no>	<stdin>
<dagb@cs.uit.no>	<stdin>
<dagb@cs.uit.no>	<stdin>
<dagb@cs.uit.no>	<stdin>
<dagb@cs.uit.no>	<stdin>
<dagb@cs.uit.no>	<stdin>
<dagb@cs.uit.no>	<stdin>
<dagb@cs.uit.no>	<stdin>
<dagb@cs.uit.no>	<stdin>
<dagb@cs.uit.no>	<stdin>
<dagb@cs.uit.no>	<stdin>
<dagb@cs.uit.no>	<stdin>
<dagb@cs.uit.no>	<stdin>
<dagb@cs.uit.no>	<stdin>
<dagb@cs.uit.no>	<stdin>
<dagb@cs.uit.no>	<stdin>
<dagb@cs.uit.no>	<stdin>
<dagb@cs.uit.no>	<stdin>
<dagb@cs.uit.no>	<stdin>
<dagb@cs.uit.no>	<stdin>
<dagb@cs.uit.no>	<stdin>
<dagb@cs.uit.no>	<stdin>
<dagb@cs.uit.no>	<stdin>
<dagb@cs.uit.no>	<stdin>
<dagb@cs.uit.no>	<stdin>
<dagb@cs.uit.no>");	<stdin>
<dagb@cs.uit.no>");	<stdin>
<dagb@cs.uit.no>,	<stdin>
<dagb@cs.uit.no>,	<stdin>
<dagb@cs.uit.no>,	<stdin>
<dagb@cs.uit.no>,	<stdin>
<dagb@cs.uit.no>,	<stdin>
<dagb@cs.uit.no>,	<stdin>
<dagb@cs.uit.no>,	<stdin>
<dagb@cs.uit.no>,	<stdin>
<dagb@cs.uit.no>,	<stdin>
<dagb@cs.uit.no>,	<stdin>
<dagb@cs.uit.no>,	<stdin>
<dagb@cs.uit.no>,	<stdin>
<dagb@cs.uit.no>,	<stdin>
<dagb@cs.uit.no>,	<stdin>
<daisyc@us.ibm.com>	<stdin>
<diego.beltrami@gmail.com>	<stdin>
<dlstevens@us.ibm.com>:	<stdin>
<dlstevens@us.ibm.com>:	<stdin>
<ducrot@poupinou.org>	<stdin>
<fengguang.wu@intel.com>	<stdin>
<fred.l.templin@boeing.com>:	<stdin>
<fw@strlen.de>	<stdin>
<fw@strlen.de>");	<stdin>
<g4klx@g4klx.demon.co.uk>");	<stdin>
<g4klx@g4klx.demon.co.uk>");	<stdin>
<gerrit@erg.abdn.ac.uk>	<stdin>
<ggriffin.kernel@gmail.com>	<stdin>
<grzes@gnu.univ.gda.pl>	<stdin>
<grzes@gnu.univ.gda.pl>	<stdin>
<herbert@gondor.apana.org.au>	<stdin>
<herbert@gondor.apana.org.au>	<stdin>
<herbert@gondor.apana.org.au>	<stdin>
<herbert@gondor.apana.org.au>	<stdin>
<herbert@gondor.apana.org.au>	<stdin>
<hoerdt@clarinet.u-strasbg.fr>	<stdin>
<ilane@ti.com>	<stdin>
<ilane@ti.com>	<stdin>
<ilane@ti.com>	<stdin>
<ilane@ti.com>	<stdin>
<ilane@ti.com>	<stdin>
<ilane@ti.com>	<stdin>
<ilane@ti.com>	<stdin>
<jean-philippe.andriot@6WIND.com>	<stdin>
<jengelh@medozas.de>	<stdin>
<jgrimm@us.ibm.com>	<stdin>
<johannes@sipsolutions.net>	<stdin>
<jschlst@samba.org>	<stdin>
<jschlst@samba.org>	<stdin>
<jt@hpl.hp.com>	<stdin>
<jt@hpl.hp.com>	<stdin>
<jt@hpl.hp.com>	<stdin>
<jt@hpl.hp.com>	<stdin>
<jt@hpl.hp.com>	<stdin>
<jt@hpl.hp.com>	<stdin>
<jt@hpl.hp.com>	<stdin>
<jt@hpl.hp.com>	<stdin>
<jt@hpl.hp.com>	<stdin>
<jt@hpl.hp.com>	<stdin>
<jt@hpl.hp.com>	<stdin>
<jt@hpl.hp.com>	<stdin>
<jt@hpl.hp.com>	<stdin>
<jt@hpl.hp.com>	<stdin>
<jt@hpl.hp.com>	<stdin>
<jt@hpl.hp.com>	<stdin>
<jt@hpl.hp.com>	<stdin>
<jt@hpl.hp.com>	<stdin>
<jt@hpl.hp.com>	<stdin>
<jt@hpl.hp.com>	<stdin>
<jt@hpl.hp.com>	<stdin>
<jt@hpl.hp.com>	<stdin>
<jt@hpl.hp.com>	<stdin>
<jt@hpl.hp.com>	<stdin>
<jt@hpl.hp.com>	<stdin>
<jt@hpl.hp.com>	<stdin>
<jt@hpl.hp.com>");	<stdin>
<jt@hpl.hp.com>");	<stdin>
<kaber@trash.net>	<stdin>
<kaber@trash.net>	<stdin>
<kaber@trash.net>	<stdin>
<kaber@trash.net>	<stdin>
<kaber@trash.net>	<stdin>
<kaber@trash.net>	<stdin>
<kaber@trash.net>");	<stdin>
<kaber@trash.net>");	<stdin>
<kadlec@blackhole.kfki.hu>	<stdin>
<karl@athena.chicago.il.us>	<stdin>
<kisza@sch.bme.hu>	<stdin>
<kisza@sch.bme.hu>	<stdin>
<kisza@sch.bme.hu>	<stdin>
<kisza@sch.bme.hu>	<stdin>
<kisza@sch.bme.hu>	<stdin>
<kisza@sch.bme.hu>	<stdin>
<kisza@sch.bme.hu>	<stdin>
<kisza@sch.bme.hu>");	<stdin>
<kisza@sch.bme.hu>");	<stdin>
<kisza@sch.bme.hu>");	<stdin>
<kisza@sch.bme.hu>");	<stdin>
<kisza@sch.bme.hu>");	<stdin>
<kisza@sch.bme.hu>");	<stdin>
<kozakai@linux-ipv6.org>	<stdin>
<ksrinivasan@novell.com>	<stdin>
<kunihiro@ipinfusion.com>	<stdin>
<kunihiro@ipinfusion.com>	<stdin>
<kunihiro@ipinfusion.com>	<stdin>
<kunihiro@ipinfusion.com>	<stdin>
<kunihiro@ipinfusion.com>	<stdin>
<kuo-lang.tseng@intel.com>	<stdin>
<kuo-lang.tseng@intel.com>");	<stdin>
<kuznet@ms2.inr.ac.ru>	<stdin>
<kuznet@ms2.inr.ac.ru>	<stdin>
<kuznet@ms2.inr.ac.ru>	<stdin>
<kuznet@ms2.inr.ac.ru>	<stdin>
<laforge@gnumonks.org>	<stdin>
<laforge@netfilter.org>	<stdin>
<laforge@netfilter.org>	<stdin>
<laforge@netfilter.org>	<stdin>
<lauro.venancio@openbossa.org>	<stdin>
<lauro.venancio@openbossa.org>	<stdin>
<lauro.venancio@openbossa.org>	<stdin>
<lauro.venancio@openbossa.org>	<stdin>
<len.brown@intel.com>	<stdin>
<len.brown@intel.com>	<stdin>
<lenb@kernel.org>	<stdin>
<lenb@kernel.org>	<stdin>
<lenb@kernel.org>	<stdin>
<lenb@kernel.org>\n");	<stdin>
<lenb@kernel.org>\n");	<stdin>
<linux@dominikbrodowski.de>	<stdin>
<linux@dominikbrodowski.de>	<stdin>
<linux@dominikbrodowski.de>	<stdin>
<linux@dominikbrodowski.de>	<stdin>
<linux@dominikbrodowski.de>	<stdin>
<linux@dominikbrodowski.de>	<stdin>
<linux@dominikbrodowski.de>	<stdin>
<linux@dominikbrodowski.de>	<stdin>
<linux@dominikbrodowski.de>	<stdin>
<lksctp-developers@lists.sourceforge.net>	<stdin>
<loz@holmes.demon.co.uk>	<stdin>
<loz@holmes.demon.co.uk>	<stdin>
<loz@holmes.demon.co.uk>	<stdin>
<manohar.r.castelino@intel.com>	<stdin>
<masahide.nakamura.cz@hitachi.com>	<stdin>
<matz@suse.de>	<stdin>
<mhopf@innominate.com>	<stdin>
<miika@iki.fi>	<stdin>
<mina86@mina86.com>	<stdin>
<mina86@mina86.com>	<stdin>
<mingo@redhat.com>	<stdin>
<mitake@dcl.info.waseda.ac.jp>	<stdin>
<mitake@dcl.info.waseda.ac.jp>	<stdin>
<mitake@dcl.info.waseda.ac.jp>	<stdin>
<mk@linux-ipv6.org>	<stdin>
<mk@linux-ipv6.org>	<stdin>
<mk@linux-ipv6.org>	<stdin>
<mk@linux-ipv6.org>");	<stdin>
<mzyngier@freesurf.fr>	<stdin>
<nate@thebog.net>:	<stdin>
<nick@fedchik.org.ua>	<stdin>
<nick@fedchik.org.ua>");	<stdin>
<peter@endian.com>	<stdin>
<peter@endian.com>");	<stdin>
<piggy@acm.org>	<stdin>
<r.venning@telstra.com>:	<stdin>
<ratbert@radiks.net>	<stdin>
<ratbert@radiks.net>	<stdin>
<ratbert@radiks.net>,	<stdin>
<roque@di.fc.ul.pt>	<stdin>
<roque@di.fc.ul.pt>	<stdin>
<roque@di.fc.ul.pt>	<stdin>
<roque@di.fc.ul.pt>	<stdin>
<roque@di.fc.ul.pt>	<stdin>
<roque@di.fc.ul.pt>	<stdin>
<roque@di.fc.ul.pt>	<stdin>
<roque@di.fc.ul.pt>	<stdin>
<roque@di.fc.ul.pt>	<stdin>
<roque@di.fc.ul.pt>	<stdin>
<roque@di.fc.ul.pt>	<stdin>
<roque@di.fc.ul.pt>	<stdin>
<roque@di.fc.ul.pt>	<stdin>
<roque@di.fc.ul.pt>	<stdin>
<roque@di.fc.ul.pt>	<stdin>
<roque@di.fc.ul.pt>	<stdin>
<roque@di.fc.ul.pt>	<stdin>
<rusty@rustcorp.com.au>	<stdin>
<sakari.ailus@nokia.com>	<stdin>
<sakari.ailus@nokia.com>	<stdin>
<sakari.ailus@nokia.com>	<stdin>
<sakari.ailus@nokia.com>	<stdin>
<sakari.ailus@nokia.com>	<stdin>
<sakari.ailus@nokia.com>	<stdin>
<sakari.ailus@nokia.com>	<stdin>
<samuel@sortiz.org>	<stdin>
<shaver@ingenia.com>	<stdin>
<shemminger@osdl.org>	<stdin>
<shemminger@osdl.org>	<stdin>
<shemminger@osdl.org>	<stdin>
<shemminger@osdl.org>	<stdin>
<srostedt@redhat.com>	<stdin>
<srostedt@redhat.com>	<stdin>
<srostedt@redhat.com>	<stdin>
<srostedt@redhat.com>	<stdin>
<srostedt@redhat.com>	<stdin>
<tgraf@suug.ch>	<stdin>
<timg@tpi.com>	<stdin>
<tommy@home.tig-grr.com>	<stdin>
<trenn@suse.de>	<stdin>
<trenn@suse.de>,	<stdin>
<trenn@suse.de>,	<stdin>
<trenn@suse.de>,	<stdin>
<trenn@suse.de>,	<stdin>
<trenn@suse.de>,	<stdin>
<trenn@suse.de>,	<stdin>
<trenn@suse.de>,	<stdin>
<trenn@suse.de>,	<stdin>
<trenn@suse.de>,	<stdin>
<trenn@suse.de>,	<stdin>
<trenn@suse.de>,	<stdin>
<trenn@suse.de>,	<stdin>
<trenn@suse.de>,	<stdin>
<tzanussi@gmail.com>	<stdin>
<tzanussi@gmail.com>	<stdin>
<vnuorval@tcs.hut.fi>	<stdin>
<vnuorval@tcs.hut.fi>	<stdin>
<vonbrand@sleipnir.valparaiso.cl>	<stdin>
<vonbrand@sleipnir.valparaiso.cl>	<stdin>
<waltje@uwalt.nl.mugnet.org>	<stdin>
<waltje@uwalt.nl.mugnet.org>	<stdin>
<waltje@uwalt.nl.mugnet.org>	<stdin>
<yasuyuki.kozakai@toshiba.co.jp>	<stdin>
<yasuyuki.kozakai@toshiba.co.jp>	<stdin>
<yasuyuki.kozakai@toshiba.co.jp>	<stdin>
<yasuyuki.kozakai@toshiba.co.jp>	<stdin>
<yasuyuki.kozakai@toshiba.co.jp>");	<stdin>
<yasuyuki.kozakai@toshiba.co.jp>");	<stdin>
<yoshfuji@linux-ipv6.org>	<stdin>
<yoshfuji@linux-ipv6.org>	<stdin>
<yoshfuji@linux-ipv6.org>	<stdin>
<yoshfuji@linux-ipv6.org>	<stdin>
<yoshfuji@linux-ipv6.org>	<stdin>
@USAGI	<stdin>
@USAGI	<stdin>
@USAGI	<stdin>
@USAGI	<stdin>
@USAGI	<stdin>
@USAGI	<stdin>
@USAGI	<stdin>
@USAGI	<stdin>
@USAGI	<stdin>
@USAGI	<stdin>
@USAGI	<stdin>
@USAGI	<stdin>
@USAGI	<stdin>
@USAGI	<stdin>
@USAGI	<stdin>
@USAGI	<stdin>
@USAGI	<stdin>
@USAGI	<stdin>
@USAGI	<stdin>
@USAGI	<stdin>
@USAGI	<stdin>
@USAGI	<stdin>
@USAGI	<stdin>
@USAGI	<stdin>
@USAGI	<stdin>
@USAGI	<stdin>
@USAGI	<stdin>
@USAGI	<stdin>
@USAGI	<stdin>
@USAGI	<stdin>
@USAGI	<stdin>
@USAGI	<stdin>
@USAGI	<stdin>
@USAGI	<stdin>
@USAGI	<stdin>
@USAGI	<stdin>
@USAGI	<stdin>
@USAGI:	<stdin>
@USAGI:	<stdin>
@USAGI:	<stdin>
@USAGI:	<stdin>
@USAGI:	<stdin>
@USAGI:	<stdin>
@USAGI:	<stdin>
@USAGI:	<stdin>
@USAGI:	<stdin>
@USAGI:	<stdin>
@USAGI:	<stdin>
@USAGI:	<stdin>
@a:	<stdin>
@abort_code:	<stdin>
@addr:	<stdin>
@addr:	<stdin>
@addr:	<stdin>
@addr:	<stdin>
@addr:	<stdin>
@addr:	<stdin>
@addr:	<stdin>
@addrlen:	<stdin>
@addrlen:	<stdin>
@arg:	<stdin>
@arphrd:	<stdin>
@b:	<stdin>
@backlog:	<stdin>
@bit_value:	<stdin>
@buf	<stdin>
@buf	<stdin>
@buf	<stdin>
@buf	<stdin>
@buf	<stdin>
@buf:	<stdin>
@buf:	<stdin>
@buf:	<stdin>
@buf:	<stdin>
@buf:	<stdin>
@c:	<stdin>
@call:	<stdin>
@call:	<stdin>
@call:	<stdin>
@can_sleep:	<stdin>
@can_sleep:	<stdin>
@cmd:	<stdin>
@cmd:	<stdin>
@comm:	<stdin>
@context:	<stdin>
@create	<stdin>
@create:	<stdin>
@da:	<stdin>
@daddr:	<stdin>
@data	<stdin>
@data:	<stdin>
@data_size:	<stdin>
@dest	<stdin>
@dest	<stdin>
@destopt:	<stdin>
@dev:	<stdin>
@dev:	<stdin>
@dev:	<stdin>
@dev:	<stdin>
@dev:	<stdin>
@dev:	<stdin>
@dev:	<stdin>
@dev:	<stdin>
@dev:	<stdin>
@dev:	<stdin>
@dev:	<stdin>
@dev:	<stdin>
@dev:	<stdin>
@dev:	<stdin>
@dev:	<stdin>
@dev:	<stdin>
@dmac:	<stdin>
@dmac:	<stdin>
@dmac:	<stdin>
@dmac:	<stdin>
@dsap:	<stdin>
@dsap:	<stdin>
@dsap:	<stdin>
@dsap:	<stdin>
@dscp_ecn_decapsulate:	<stdin>
@dsfield:	<stdin>
@dst:	<stdin>
@encap_limit:	<stdin>
@err:	<stdin>
@err:	<stdin>
@err:	<stdin>
@err:	<stdin>
@err:	<stdin>
@error_str	<stdin>
@error_str:	<stdin>
@ev_type:	<stdin>
@event	<stdin>
@event:	<stdin>
@event:	<stdin>
@event:	<stdin>
@event:	<stdin>
@event:	<stdin>
@event:	<stdin>
@event:	<stdin>
@event:	<stdin>
@event:	<stdin>
@event:	<stdin>
@event:	<stdin>
@event_id	<stdin>
@event_id	<stdin>
@event_id:	<stdin>
@event_id:	<stdin>
@event_id:	<stdin>
@event_id:	<stdin>
@event_name	<stdin>
@event_name:	<stdin>
@f_bit:	<stdin>
@f_bit:	<stdin>
@f_bit:	<stdin>
@f_bit:	<stdin>
@f_bit:	<stdin>
@f_bit:	<stdin>
@family:	<stdin>
@field:	<stdin>
@filter.	<stdin>
@filter1	<stdin>
@filter1:	<stdin>
@filter2	<stdin>
@filter2:	<stdin>
@filter:	<stdin>
@filter:	<stdin>
@filter:	<stdin>
@filter:	<stdin>
@filter:	<stdin>
@filter:	<stdin>
@filter:	<stdin>
@filter:	<stdin>
@filter_str:	<stdin>
@final_dst:	<stdin>
@final_dst:	<stdin>
@first_f_bit:	<stdin>
@first_p_bit:	<stdin>
@fl6:	<stdin>
@fl6:	<stdin>
@fl6:	<stdin>
@fl6:	<stdin>
@fl:	<stdin>
@flags:	<stdin>
@flags:	<stdin>
@flags:	<stdin>
@fmt	<stdin>
@fmt:	<stdin>
@fmt:	<stdin>
@fmt:	<stdin>
@fmt:	<stdin>
@func	<stdin>
@func	<stdin>
@func:	<stdin>
@func:	<stdin>
@func:	<stdin>
@function:	<stdin>
@hdr:	<stdin>
@hdr:	<stdin>
@how:	<stdin>
@id	<stdin>
@id.	<stdin>
@id:	<stdin>
@id:	<stdin>
@ifr:	<stdin>
@interceptor	<stdin>
@interceptor	<stdin>
@interceptor:	<stdin>
@iph	<stdin>
@iph	<stdin>
@iph:	<stdin>
@iph:	<stdin>
@kern:	<stdin>
@key.	<stdin>
@key:	<stdin>
@keyname:	<stdin>
@laddr:	<stdin>
@laddr:	<stdin>
@laddr:	<stdin>
@laddr:	<stdin>
@len	<stdin>
@len.	<stdin>
@len:	<stdin>
@len:	<stdin>
@len:	<stdin>
@len:	<stdin>
@level:	<stdin>
@level:	<stdin>
@lmac:	<stdin>
@local:	<stdin>
@long_size:	<stdin>
@lsap:	<stdin>
@mod:	<stdin>
@msg,	<stdin>
@msg:	<stdin>
@msg:	<stdin>
@msg:	<stdin>
@name	<stdin>
@name	<stdin>
@name.	<stdin>
@name.	<stdin>
@name.	<stdin>
@name:	<stdin>
@name:	<stdin>
@name:	<stdin>
@name:	<stdin>
@name:	<stdin>
@name:	<stdin>
@name:	<stdin>
@name:	<stdin>
@name:	<stdin>
@name:	<stdin>
@ndev:	<stdin>
@ndev:	<stdin>
@ndev:	<stdin>
@net:	<stdin>
@new_mtu:	<stdin>
@newsock:	<stdin>
@noblock:	<stdin>
@nr:	<stdin>
@nr:	<stdin>
@nr:	<stdin>
@nr:	<stdin>
@nr:	<stdin>
@nr:	<stdin>
@nr:	<stdin>
@nr:	<stdin>
@nr:	<stdin>
@nr:	<stdin>
@ns:	<stdin>
@ns:	<stdin>
@offset:	<stdin>
@ops:	<stdin>
@ops:	<stdin>
@ops:	<stdin>
@opt:	<stdin>
@optlen:	<stdin>
@optlen:	<stdin>
@optname:	<stdin>
@optname:	<stdin>
@optval:	<stdin>
@optval:	<stdin>
@orig:	<stdin>
@p.	<stdin>
@p:	<stdin>
@p:	<stdin>
@p:	<stdin>
@p:	<stdin>
@p_bit:	<stdin>
@p_bit:	<stdin>
@p_bit:	<stdin>
@p_bit:	<stdin>
@p_bit:	<stdin>
@p_bit:	<stdin>
@param	<stdin>
@param	<stdin>
@param	<stdin>
@param	<stdin>
@param	<stdin>
@param	<stdin>
@param	<stdin>
@param	<stdin>
@param	<stdin>
@param	<stdin>
@param	<stdin>
@parameters	<stdin>
@parameters:	<stdin>
@parms.	<stdin>
@pause"	<stdin>
@pdu:	<stdin>
@pdu_frame:	<stdin>
@peer:	<stdin>
@pevent:	<stdin>
@pevent:	<stdin>
@pevent:	<stdin>
@pevent:	<stdin>
@pevent:	<stdin>
@pevent:	<stdin>
@pevent:	<stdin>
@pevent:	<stdin>
@pevent:	<stdin>
@pevent:	<stdin>
@pevent:	<stdin>
@pevent:	<stdin>
@pevent:	<stdin>
@pevent:	<stdin>
@pevent:	<stdin>
@pevent:	<stdin>
@pevent:	<stdin>
@pevent:	<stdin>
@pevent:	<stdin>
@pevent:	<stdin>
@pevent:	<stdin>
@pevent:	<stdin>
@pf_bit:	<stdin>
@pid.	<stdin>
@pid:	<stdin>
@pid:	<stdin>
@pid:	<stdin>
@pmtu:	<stdin>
@prev_pdu:	<stdin>
@priority:	<stdin>
@protocol:	<stdin>
@protocol:	<stdin>
@pt:	<stdin>
@pt:	<stdin>
@ptr:	<stdin>
@rec.	<stdin>
@rec:	<stdin>
@rec:	<stdin>
@record	<stdin>
@record	<stdin>
@record's	<stdin>
@record:	<stdin>
@record:	<stdin>
@record:	<stdin>
@record:	<stdin>
@record:	<stdin>
@record:	<stdin>
@record:	<stdin>
@record:	<stdin>
@remote:	<stdin>
@ret_type:	<stdin>
@retval	<stdin>
@retval	<stdin>
@retval	<stdin>
@retval	<stdin>
@retval	<stdin>
@retval	<stdin>
@retval	<stdin>
@retval	<stdin>
@retval	<stdin>
@retval	<stdin>
@retval	<stdin>
@retval	<stdin>
@retval	<stdin>
@retval	<stdin>
@retval	<stdin>
@retval	<stdin>
@rthdr	<stdin>
@rthdr:	<stdin>
@rw:	<stdin>
@s:	<stdin>
@s:	<stdin>
@s:	<stdin>
@s:	<stdin>
@s:	<stdin>
@s:	<stdin>
@s:	<stdin>
@s:	<stdin>
@s:	<stdin>
@s:	<stdin>
@s:	<stdin>
@s:	<stdin>
@sa:	<stdin>
@sap:	<stdin>
@sap:	<stdin>
@sap:	<stdin>
@sap:	<stdin>
@sap:	<stdin>
@sap:	<stdin>
@sap:	<stdin>
@sap:	<stdin>
@sap:	<stdin>
@sap:	<stdin>
@sap:	<stdin>
@sap:	<stdin>
@sap:	<stdin>
@sap:	<stdin>
@sap:	<stdin>
@sap:	<stdin>
@sap:	<stdin>
@sap:	<stdin>
@sap:	<stdin>
@sap:	<stdin>
@sap:	<stdin>
@sap:	<stdin>
@sap:	<stdin>
@sap:	<stdin>
@sap:	<stdin>
@sap_value:	<stdin>
@sec:	<stdin>
@sec:	<stdin>
@size:	<stdin>
@size:	<stdin>
@size:	<stdin>
@size:	<stdin>
@size:	<stdin>
@size:	<stdin>
@sk	<stdin>
@sk	<stdin>
@sk:	<stdin>
@sk:	<stdin>
@sk:	<stdin>
@sk:	<stdin>
@sk:	<stdin>
@sk:	<stdin>
@sk:	<stdin>
@sk:	<stdin>
@sk:	<stdin>
@sk:	<stdin>
@sk:	<stdin>
@sk:	<stdin>
@sk:	<stdin>
@sk:	<stdin>
@sk:	<stdin>
@sk:	<stdin>
@sk:	<stdin>
@sk:	<stdin>
@sk:	<stdin>
@sk:	<stdin>
@sk:	<stdin>
@sk:	<stdin>
@sk:	<stdin>
@sk:	<stdin>
@sk:	<stdin>
@sk:	<stdin>
@sk:	<stdin>
@sk:	<stdin>
@sk:	<stdin>
@sk:	<stdin>
@sk:	<stdin>
@sk:	<stdin>
@sk:	<stdin>
@sk:	<stdin>
@sk:	<stdin>
@sk:	<stdin>
@sk:	<stdin>
@sk:	<stdin>
@sk:	<stdin>
@skb:	<stdin>
@skb:	<stdin>
@skb:	<stdin>
@skb:	<stdin>
@skb:	<stdin>
@skb:	<stdin>
@skb:	<stdin>
@skb:	<stdin>
@skb:	<stdin>
@skb:	<stdin>
@skb:	<stdin>
@skb:	<stdin>
@skb:	<stdin>
@skb:	<stdin>
@skb:	<stdin>
@skb:	<stdin>
@skb:	<stdin>
@skb:	<stdin>
@skb:	<stdin>
@skb:	<stdin>
@skb:	<stdin>
@skb:	<stdin>
@skb:	<stdin>
@skb:	<stdin>
@skb:	<stdin>
@skb:	<stdin>
@skb:	<stdin>
@skb:	<stdin>
@skb:	<stdin>
@skb:	<stdin>
@skb:	<stdin>
@skb:	<stdin>
@skb:	<stdin>
@skb:	<stdin>
@skb:	<stdin>
@skb:	<stdin>
@skb:	<stdin>
@skb:	<stdin>
@skb:	<stdin>
@skb:	<stdin>
@skb:	<stdin>
@skb:	<stdin>
@skb:	<stdin>
@skb:	<stdin>
@skb:	<stdin>
@skb:	<stdin>
@skb:	<stdin>
@skb:	<stdin>
@skb:	<stdin>
@skb:	<stdin>
@skb:	<stdin>
@skb:	<stdin>
@skb:	<stdin>
@skb:	<stdin>
@skb:	<stdin>
@skb:	<stdin>
@skb:	<stdin>
@skb:	<stdin>
@skb:	<stdin>
@skb:	<stdin>
@skb:	<stdin>
@skb:	<stdin>
@skb:	<stdin>
@skb:	<stdin>
@skb:	<stdin>
@skb:	<stdin>
@skb:	<stdin>
@skb:	<stdin>
@skb:	<stdin>
@skb:	<stdin>
@skb:	<stdin>
@skb:	<stdin>
@sock:	<stdin>
@sock:	<stdin>
@sock:	<stdin>
@sock:	<stdin>
@sock:	<stdin>
@sock:	<stdin>
@sock:	<stdin>
@sock:	<stdin>
@sock:	<stdin>
@sock:	<stdin>
@sock:	<stdin>
@sock:	<stdin>
@sock:	<stdin>
@sock:	<stdin>
@sock:	<stdin>
@sock:	<stdin>
@sock:	<stdin>
@sock:	<stdin>
@source	<stdin>
@source	<stdin>
@srx	<stdin>
@srx:	<stdin>
@state:	<stdin>
@state:	<stdin>
@state:	<stdin>
@str:	<stdin>
@supported_protocols:	<stdin>
@supported_protocols:	<stdin>
@supported_protocols:	<stdin>
@sys	<stdin>
@sys.	<stdin>
@sys:	<stdin>
@sys:	<stdin>
@sys:	<stdin>
@sys:	<stdin>
@sys_name	<stdin>
@sys_name:	<stdin>
@t:	<stdin>
@t:	<stdin>
@t:	<stdin>
@t:	<stdin>
@t:	<stdin>
@tok:	<stdin>
@token:	<stdin>
@trans:	<stdin>
@trans:	<stdin>
@type	<stdin>
@type	<stdin>
@type:	<stdin>
@type:	<stdin>
@type:	<stdin>
@type:	<stdin>
@type:	<stdin>
@type;	<stdin>
@uaddr:	<stdin>
@uaddr:	<stdin>
@uaddr:	<stdin>
@uaddrlen:	<stdin>
@user_call_ID:	<stdin>
@user_call_ID:	<stdin>
@val:	<stdin>
@val:	<stdin>
@val:	<stdin>
@value.	<stdin>
@value:	<stdin>
@vr:	<stdin>
@vr:	<stdin>
@vs:	<stdin>
@vzyxw:	<stdin>
YOSHIFUJI,H.@USAGI	<stdin>
cpufreq@vger.kernel.org	<stdin>
csv@bluetail.com	<stdin>
jreuter@yaina.de\n",	<stdin>
sekiya@USAGI	<stdin>
yoshfuji@USAGI	<stdin>
