"nfs@serverhostname"	<stdin>
"nfs@serverhostname"	<stdin>
(@file)	<stdin>
(@pbn	<stdin>
(Thomas.Meckel@mni.fh-giessen.de)	<stdin>
(andy@lysaker.kvaerner.no),	<stdin>
(andy@lysaker.kvaerner.no),	<stdin>
(andy@lysaker.kvaerner.no),	<stdin>
(andy@lysaker.kvaerner.no),	<stdin>
(andy@lysaker.kvaerner.no),	<stdin>
(andy@lysaker.kvaerner.no),	<stdin>
(andy@lysaker.kvaerner.no),	<stdin>
(andy@lysaker.kvaerner.no),	<stdin>
(andy@lysaker.kvaerner.no),	<stdin>
(andy@lysaker.kvaerner.no),	<stdin>
(andy@lysaker.kvaerner.no),	<stdin>
(andy@lysaker.kvaerner.no),	<stdin>
(andy@lysaker.kvaerner.no),	<stdin>
(andy@lysaker.kvaerner.no),	<stdin>
(card@masi.ibp.fr)	<stdin>
(coda@cs.cmu.edu).	<stdin>
(dhowells@redhat.com)	<stdin>
(dhowells@redhat.com)	<stdin>
(dhowells@redhat.com)	<stdin>
(dhowells@redhat.com)	<stdin>
(dhowells@redhat.com)	<stdin>
(dhowells@redhat.com)	<stdin>
(dhowells@redhat.com)	<stdin>
(dhowells@redhat.com)	<stdin>
(dhowells@redhat.com)	<stdin>
(dhowells@redhat.com)	<stdin>
(dhowells@redhat.com)	<stdin>
(dhowells@redhat.com)	<stdin>
(dhowells@redhat.com)	<stdin>
(dhowells@redhat.com)	<stdin>
(dhowells@redhat.com)	<stdin>
(dhowells@redhat.com)	<stdin>
(dhowells@redhat.com)	<stdin>
(dhowells@redhat.com)	<stdin>
(dhowells@redhat.com)	<stdin>
(dhowells@redhat.com)	<stdin>
(dhowells@redhat.com)	<stdin>
(dhowells@redhat.com)	<stdin>
(dhowells@redhat.com)	<stdin>
(dhowells@redhat.com)	<stdin>
(dje@spiff.uucp),	<stdin>
(eggert@twinsun.com).	<stdin>
(m_kato@ga2.so-net.ne.jp)	<stdin>
(m_kato@ga2.so-net.ne.jp)	<stdin>
(m_kato@ga2.so-net.ne.jp)	<stdin>
(m_kato@ga2.so-net.ne.jp)	<stdin>
(okir@monad.swb.de)	<stdin>
(okir@monad.swb.de),	<stdin>
(pageone@netcom.com),	<stdin>
(pgmdsg@ibi.com),	<stdin>
(torbjorn.lindh@gopta.se),	<stdin>
(torbjorn.lindh@gopta.se),	<stdin>
(torbjorn.lindh@gopta.se),	<stdin>
(torbjorn.lindh@gopta.se),	<stdin>
(torbjorn.lindh@gopta.se),	<stdin>
(torbjorn.lindh@gopta.se),	<stdin>
(torbjorn.lindh@gopta.se),	<stdin>
(torbjorn.lindh@gopta.se),	<stdin>
(will@cs.earlham.edu)	<stdin>
(wpp@marie.physik.tu-berlin.de),	<stdin>
*@destlen	<stdin>
*@keylen	<stdin>
*@keylen	<stdin>
*@keyp	<stdin>
*@node	<stdin>
*@node	<stdin>
*@node	<stdin>
*@node	<stdin>
*@pages	<stdin>
*@pp	<stdin>
*@pp	<stdin>
*@sup	<stdin>
*@sup	<stdin>
*@valp	<stdin>
*@value	<stdin>
*@value	<stdin>
*@wbc->nr_to_write	<stdin>
<A.Cox@swansea.ac.uk>	<stdin>
<A.Cox@swansea.ac.uk>	<stdin>
<Garth.Goodson@netapp.com>	<stdin>
<Garth.Goodson@netapp.com>	<stdin>
<Trond.Myklebust@netapp.com>	<stdin>
<Trond.Myklebust@netapp.com>	<stdin>
<Trond.Myklebust@netapp.com>	<stdin>
<Trond.Myklebust@netapp.com>	<stdin>
<Trond.Myklebust@netapp.com>	<stdin>
<Trond.Myklebust@netapp.com>	<stdin>
<Trond.Myklebust@netapp.com>	<stdin>
<Trond.Myklebust@netapp.com>	<stdin>
<Trond.Myklebust@netapp.com>	<stdin>
<a.gruenbacher@computer.org>	<stdin>
<a.gruenbacher@computer.org>");	<stdin>
<adc@coe.neu.edu>	<stdin>
<alan@lxorguk.ukuu.org.uk>	<stdin>
<albert@ccs.neu.edu>	<stdin>
<amagai@osrg.net>	<stdin>
<amagai@osrg.net>,	<stdin>
<amagai@osrg.net>.	<stdin>
<amagai@osrg.net>.	<stdin>
<amagai@osrg.net>.	<stdin>
<andros@citi.umich.edu>	<stdin>
<andros@citi.umich.edu>	<stdin>
<andros@citi.umich.edu>	<stdin>
<andros@citi.umich.edu>	<stdin>
<andros@citi.umich.edu>	<stdin>
<andros@citi.umich.edu>");	<stdin>
<andros@umich.edu>	<stdin>
<andros@umich.edu>	<stdin>
<bcrl@kvack.org>	<stdin>
<bfennema@falcon.csc.calpoly.edu>	<stdin>
<bfennema@falcon.csc.calpoly.edu>	<stdin>
<bhalevy@panasas.com>	<stdin>
<bhalevy@panasas.com>	<stdin>
<bhalevy@panasas.com>	<stdin>
<bhalevy@panasas.com>	<stdin>
<bhalevy@panasas.com>");	<stdin>
<bharrosh@panasas.com>	<stdin>
<bharrosh@panasas.com>	<stdin>
<bharrosh@panasas.com>	<stdin>
<bharrosh@panasas.com>	<stdin>
<bjschuma@netapp.com>	<stdin>
<braam@maths.ox.ac.uk>	<stdin>
<braam@maths.ox.ac.uk>,	<stdin>
<callahan@maths.ox.ac.uk>	<stdin>
<cel@netapp.com>	<stdin>
<cel@netapp.com>	<stdin>
<cel@netapp.com>	<stdin>
<chaffee@cs.berkeley.edu>.	<stdin>
<chan.jeong@lge.com>	<stdin>
<coda@cs.cmu.edu>	<stdin>
<coda@cs.cmu.edu>.	<stdin>
<coda@cs.cmu.edu>.	<stdin>
<davidel@xmailserver.org>	<stdin>
<davidel@xmailserver.org>	<stdin>
<dhildebz@umich.edu>	<stdin>
<dhildebz@umich.edu>	<stdin>
<dhildebz@umich.edu>	<stdin>
<dhildebz@umich.edu>	<stdin>
<dhildebz@umich.edu>	<stdin>
<dhildebz@umich.edu>	<stdin>
<dhildebz@umich.edu>");	<stdin>
<dhowells@redhat.com>	<stdin>
<dhowells@redhat.com>	<stdin>
<dhowells@redhat.com>	<stdin>
<gero@gkminix.han.de>	<stdin>
<hirofumi@mail.parknet.co.jp>	<stdin>
<iisaman@umich.edu>	<stdin>
<iisaman@umich.edu>	<stdin>
<iisaman@umich.edu>	<stdin>
<iisaman@umich.edu>	<stdin>
<iisaman@umich.edu>	<stdin>
<ionut@cs.columbia.edu>	<stdin>
<jelson@circlemud.org>	<stdin>
<jeremy@goop.org>	<stdin>
<jeremy@goop.org>	<stdin>
<joern@logfs.org>	<stdin>
<joern@logfs.org>	<stdin>
<joern@logfs.org>	<stdin>
<joern@logfs.org>	<stdin>
<joern@logfs.org>	<stdin>
<joern@logfs.org>	<stdin>
<joern@logfs.org>	<stdin>
<joern@logfs.org>	<stdin>
<joern@logfs.org>	<stdin>
<kaber@trash.net>	<stdin>
<kihara@osrg.net>	<stdin>
<kihara@osrg.net>	<stdin>
<kihara@osrg.net>,	<stdin>
<kihara@osrg.net>.	<stdin>
<kihara@osrg.net>.	<stdin>
<kmsmith@umich.edu>	<stdin>
<kmsmith@umich.edu>	<stdin>
<kmsmith@umich.edu>	<stdin>
<kmsmith@umich.edu>	<stdin>
<koji@osrg.net>	<stdin>
<koji@osrg.net>.	<stdin>
<koji@osrg.net>.	<stdin>
<koji@osrg.net>.	<stdin>
<koji@osrg.net>.	<stdin>
<koji@osrg.net>.	<stdin>
<koji@osrg.net>.	<stdin>
<koji@osrg.net>.	<stdin>
<koji@osrg.net>.	<stdin>
<koji@osrg.net>.	<stdin>
<koji@osrg.net>.	<stdin>
<koji@osrg.net>.	<stdin>
<m_kato@ga2.so-net.ne.jp>	<stdin>
<manfred@colorfullife.com>	<stdin>
<marius@umich.edu>	<stdin>
<miklos@szeredi.hu>	<stdin>
<miklos@szeredi.hu>	<stdin>
<miklos@szeredi.hu>	<stdin>
<mjc@emmy.smith.edu>	<stdin>
<okir@monad.swb.de>	<stdin>
<okir@monad.swb.de>	<stdin>
<okir@monad.swb.de>	<stdin>
<okir@monad.swb.de>	<stdin>
<okir@monad.swb.de>	<stdin>
<okir@monad.swb.de>	<stdin>
<okir@monad.swb.de>	<stdin>
<okir@monad.swb.de>	<stdin>
<okir@monad.swb.de>	<stdin>
<okir@monad.swb.de>	<stdin>
<okir@monad.swb.de>	<stdin>
<okir@monad.swb.de>	<stdin>
<okir@monad.swb.de>	<stdin>
<okir@monad.swb.de>	<stdin>
<okir@monad.swb.de>	<stdin>
<okir@monad.swb.de>");	<stdin>
<phillip@squashfs.org.uk>	<stdin>
<phillip@squashfs.org.uk>	<stdin>
<phillip@squashfs.org.uk>	<stdin>
<phillip@squashfs.org.uk>	<stdin>
<phillip@squashfs.org.uk>	<stdin>
<phillip@squashfs.org.uk>	<stdin>
<phillip@squashfs.org.uk>	<stdin>
<phillip@squashfs.org.uk>	<stdin>
<phillip@squashfs.org.uk>	<stdin>
<phillip@squashfs.org.uk>	<stdin>
<phillip@squashfs.org.uk>	<stdin>
<phillip@squashfs.org.uk>	<stdin>
<phillip@squashfs.org.uk>	<stdin>
<phillip@squashfs.org.uk>	<stdin>
<phillip@squashfs.org.uk>	<stdin>
<raven@themaw.net>	<stdin>
<raven@themaw.net>	<stdin>
<raven@themaw.net>	<stdin>
<raven@themaw.net>	<stdin>
<raven@themaw.net>	<stdin>
<rgooch@atnf.csiro.au>,	<stdin>
<rgooch@atnf.csiro.au>,	<stdin>
<rgooch@atnf.csiro.au>,	<stdin>
<rgooch@atnf.csiro.au>,	<stdin>
<rgooch@atnf.csiro.au>,	<stdin>
<rgooch@atnf.csiro.au>,	<stdin>
<rgooch@atnf.csiro.au>,	<stdin>
<rgooch@atnf.csiro.au>,	<stdin>
<ryusuke@osrg.net>	<stdin>
<ryusuke@osrg.net>	<stdin>
<ryusuke@osrg.net>	<stdin>
<ryusuke@osrg.net>	<stdin>
<ryusuke@osrg.net>	<stdin>
<ryusuke@osrg.net>	<stdin>
<ryusuke@osrg.net>	<stdin>
<ryusuke@osrg.net>	<stdin>
<ryusuke@osrg.net>	<stdin>
<ryusuke@osrg.net>	<stdin>
<ryusuke@osrg.net>	<stdin>
<ryusuke@osrg.net>	<stdin>
<ryusuke@osrg.net>	<stdin>
<ryusuke@osrg.net>	<stdin>
<ryusuke@osrg.net>	<stdin>
<ryusuke@osrg.net>,	<stdin>
<ryusuke@osrg.net>,	<stdin>
<ryusuke@osrg.net>,	<stdin>
<ryusuke@osrg.net>,	<stdin>
<ryusuke@osrg.net>.	<stdin>
<ryusuke@osrg.net>.	<stdin>
<ryusuke@osrg.net>.	<stdin>
<ryusuke@osrg.net>.	<stdin>
<sct@redhat.com>,	<stdin>
<sct@redhat.com>,	<stdin>
<sct@redhat.com>,	<stdin>
<sct@redhat.com>,	<stdin>
<sfr@canb.auug.org.au>,	<stdin>
<tigran@veritas.com>	<stdin>
<tj@kernel.org>	<stdin>
<tj@kernel.org>");	<stdin>
<trond.myklebust@fys.uio.no>	<stdin>
<trond.myklebust@fys.uio.no>	<stdin>
<will_dyson@pobox.com	<stdin>
<will_dyson@pobox.com	<stdin>
<will_dyson@pobox.com>	<stdin>
<will_dyson@pobox.com>	<stdin>
<will_dyson@pobox.com>	<stdin>
<will_dyson@pobox.com>	<stdin>
<will_dyson@pobox.com>	<stdin>
<willy@debian.org>,	<stdin>
<willy@debian.org>,	<stdin>
<wp@bszh.de>	<stdin>
@_pos:	<stdin>
@a_erase_count:	<stdin>
@a_is_open:	<stdin>
@a_level:	<stdin>
@a_ops:	<stdin>
@a_sb:	<stdin>
@a_segno:	<stdin>
@a_used_bytes:	<stdin>
@a_written_bytes:	<stdin>
@allocmax:	<stdin>
@allocmin:	<stdin>
@arg:	<stdin>
@arg:	<stdin>
@arg:	<stdin>
@arg:	<stdin>
@arg:	<stdin>
@arg:	<stdin>
@arg:	<stdin>
@arg:	<stdin>
@arg:	<stdin>
@arg:	<stdin>
@arg:	<stdin>
@arg:	<stdin>
@arg:	<stdin>
@arg:	<stdin>
@arg:	<stdin>
@arg:	<stdin>
@arg:	<stdin>
@arg:	<stdin>
@arg:	<stdin>
@arg:	<stdin>
@arg:	<stdin>
@arg:	<stdin>
@arg:	<stdin>
@atomic	<stdin>
@atomic	<stdin>
@atomic:	<stdin>
@attr:	<stdin>
@attr:	<stdin>
@attr:	<stdin>
@attr:	<stdin>
@attr:	<stdin>
@attr:	<stdin>
@attr:	<stdin>
@attr:	<stdin>
@attr:	<stdin>
@attr:	<stdin>
@attr:	<stdin>
@attr:	<stdin>
@attr:	<stdin>
@authflavor	<stdin>
@authflavor	<stdin>
@authflavor:	<stdin>
@authflavor:	<stdin>
@b_inode:	<stdin>
@b_last_allocated_key:	<stdin>
@b_last_allocated_ptr:	<stdin>
@b_nchildren_per_block:	<stdin>
@b_ops:	<stdin>
@b_ptr_type:	<stdin>
@b_sem:	<stdin>
@b_state:	<stdin>
@b_u:	<stdin>
@base	<stdin>
@base	<stdin>
@bdev:	<stdin>
@bdev:	<stdin>
@bdev:	<stdin>
@bdev:	<stdin>
@bdev:	<stdin>
@bdev:	<stdin>
@bdev:	<stdin>
@bdev:	<stdin>
@bdev:	<stdin>
@bdev:	<stdin>
@bdev:	<stdin>
@bdev:	<stdin>
@bdev:	<stdin>
@bdev:	<stdin>
@bdev:	<stdin>
@bdev:	<stdin>
@bdev:	<stdin>
@bdev:	<stdin>
@bdev:	<stdin>
@bdev:	<stdin>
@bdev:	<stdin>
@bdev:	<stdin>
@bdev:	<stdin>
@bdev:	<stdin>
@bdev:	<stdin>
@bdev:	<stdin>
@bdev:	<stdin>
@bdev:	<stdin>
@bdev:	<stdin>
@bh	<stdin>
@bh	<stdin>
@bh	<stdin>
@bh.	<stdin>
@bh:	<stdin>
@bh:	<stdin>
@bh:	<stdin>
@bh:	<stdin>
@bh:	<stdin>
@bh:	<stdin>
@bh:	<stdin>
@bh:	<stdin>
@bh:	<stdin>
@bh:	<stdin>
@bh:	<stdin>
@bh:	<stdin>
@bh:	<stdin>
@bh:	<stdin>
@bh:	<stdin>
@bh_sum:	<stdin>
@bh_sum:	<stdin>
@bhp,	<stdin>
@bhp:	<stdin>
@bhp:	<stdin>
@bhp:	<stdin>
@bhp:	<stdin>
@bhp:	<stdin>
@bhs:	<stdin>
@bhs:	<stdin>
@binfo,	<stdin>
@binfo:	<stdin>
@bitmap:	<stdin>
@bix	<stdin>
@bix:	<stdin>
@bix:	<stdin>
@bix:	<stdin>
@bix:	<stdin>
@blkoff	<stdin>
@blkoff	<stdin>
@blkoff.	<stdin>
@blkoff:	<stdin>
@blkoff:	<stdin>
@blkoff:	<stdin>
@block:	<stdin>
@block:	<stdin>
@block:	<stdin>
@block:	<stdin>
@blocknr	<stdin>
@blocknr.	<stdin>
@blocknr:	<stdin>
@blocknr:	<stdin>
@blocknrp.	<stdin>
@blocknrp:	<stdin>
@blocks_count:	<stdin>
@bmap	<stdin>
@bmap	<stdin>
@bmap.	<stdin>
@bmap.	<stdin>
@bmap.	<stdin>
@bmap.	<stdin>
@bmap.	<stdin>
@bmap.	<stdin>
@bmap:	<stdin>
@bmap:	<stdin>
@bmap:	<stdin>
@bmap:	<stdin>
@bmap:	<stdin>
@bmap:	<stdin>
@bmap:	<stdin>
@bmap:	<stdin>
@bmap:	<stdin>
@bmap:	<stdin>
@bmap:	<stdin>
@bmap:	<stdin>
@bmap_store:	<stdin>
@bpr_ptr:	<stdin>
@bpr_req:	<stdin>
@bs_nblocks:	<stdin>
@bsize:	<stdin>
@bsize:	<stdin>
@bt_super:	<stdin>
@bt_super:	<stdin>
@bucket_bits:	<stdin>
@buf.	<stdin>
@buf.	<stdin>
@buf.	<stdin>
@buf.	<stdin>
@buf:	<stdin>
@buf:	<stdin>
@buf:	<stdin>
@buf:	<stdin>
@buf:	<stdin>
@buf:	<stdin>
@buf:	<stdin>
@buf:	<stdin>
@buf:	<stdin>
@buf:	<stdin>
@buf:	<stdin>
@buf:	<stdin>
@buf:	<stdin>
@buf:	<stdin>
@buf:	<stdin>
@buf:	<stdin>
@buf:	<stdin>
@buf:	<stdin>
@buf:	<stdin>
@buf:	<stdin>
@buf:	<stdin>
@buf:	<stdin>
@buf:	<stdin>
@buf:	<stdin>
@buf:	<stdin>
@buf:	<stdin>
@buf:	<stdin>
@buf:	<stdin>
@buf:	<stdin>
@buf:	<stdin>
@buf:	<stdin>
@buf:	<stdin>
@buf:	<stdin>
@buf:	<stdin>
@buf:	<stdin>
@buf:	<stdin>
@buf:	<stdin>
@buf:	<stdin>
@buf:	<stdin>
@buf:	<stdin>
@buf:	<stdin>
@buf:	<stdin>
@buf:	<stdin>
@buf:	<stdin>
@buf:	<stdin>
@buf:	<stdin>
@buf:	<stdin>
@buf:	<stdin>
@buf:	<stdin>
@buffer	<stdin>
@buffer	<stdin>
@buffer->page	<stdin>
@buffer->page	<stdin>
@buffer->page	<stdin>
@buffer->page	<stdin>
@buffer->page	<stdin>
@buffer->page	<stdin>
@buffer->page	<stdin>
@buffer->page	<stdin>
@buffer->page	<stdin>
@buffer->page	<stdin>
@buffer->page	<stdin>
@buffer->page	<stdin>
@buffer->page	<stdin>
@buffer->page,	<stdin>
@buffer->page,	<stdin>
@buffer->page,	<stdin>
@buffer->page,	<stdin>
@buffer->page,	<stdin>
@buffer->page,	<stdin>
@buffer->page,	<stdin>
@buffer->page,	<stdin>
@buffer->page,	<stdin>
@buffer->page,	<stdin>
@buffer->page,	<stdin>
@buffer->page,	<stdin>
@buffer->page,	<stdin>
@buffer:	<stdin>
@buffer:	<stdin>
@buffer:	<stdin>
@buffer:	<stdin>
@buffer:	<stdin>
@buffer:	<stdin>
@buffer:	<stdin>
@buffer:	<stdin>
@buffer:	<stdin>
@buffer:	<stdin>
@buffer:	<stdin>
@buffer:	<stdin>
@buffer:	<stdin>
@buffer:	<stdin>
@buffer:	<stdin>
@buffer:	<stdin>
@buffer:	<stdin>
@buffer:	<stdin>
@buffer:	<stdin>
@buffer:	<stdin>
@buffer:	<stdin>
@buffer:	<stdin>
@buffer:	<stdin>
@buffer:	<stdin>
@buffer:	<stdin>
@buffer:	<stdin>
@buffer:	<stdin>
@buffer:	<stdin>
@buffer:	<stdin>
@buffer:	<stdin>
@buffer:	<stdin>
@buffer:	<stdin>
@buffer:	<stdin>
@buffer:	<stdin>
@buffer:	<stdin>
@buffer:	<stdin>
@buffer:	<stdin>
@buffer:	<stdin>
@buffer:	<stdin>
@buflen	<stdin>
@buflen	<stdin>
@bufsize:	<stdin>
@bufsize:	<stdin>
@bytes:	<stdin>
@bytes:	<stdin>
@bytes:	<stdin>
@bytes:	<stdin>
@cache:	<stdin>
@call_nests:	<stdin>
@calldata:	<stdin>
@calldata:	<stdin>
@can_write_buf:	<stdin>
@cdev	<stdin>
@check:	<stdin>
@check:	<stdin>
@check_bytes:	<stdin>
@check_bytes:	<stdin>
@ci:	<stdin>
@cinfo:	<stdin>
@cinfo:	<stdin>
@cinfo:	<stdin>
@cinfo:	<stdin>
@cinfo:	<stdin>
@cinfo:	<stdin>
@clp	<stdin>
@clp	<stdin>
@clp:	<stdin>
@clp:	<stdin>
@clp:	<stdin>
@clp:	<stdin>
@clp:	<stdin>
@clp:	<stdin>
@clp:	<stdin>
@clp:	<stdin>
@clp:	<stdin>
@clp:	<stdin>
@clp:	<stdin>
@clp:	<stdin>
@clp:	<stdin>
@clp:	<stdin>
@clp:	<stdin>
@clp:	<stdin>
@clp:	<stdin>
@clp:	<stdin>
@cmd	<stdin>
@cmd:	<stdin>
@cmd:	<stdin>
@cmd:	<stdin>
@cmd:	<stdin>
@cmd:	<stdin>
@cno	<stdin>
@cno	<stdin>
@cno.	<stdin>
@cno.	<stdin>
@cno.	<stdin>
@cno.	<stdin>
@cno:	<stdin>
@cno:	<stdin>
@cno:	<stdin>
@cno:	<stdin>
@cno:	<stdin>
@cno:	<stdin>
@cno:	<stdin>
@cno:	<stdin>
@cno:	<stdin>
@cnt:	<stdin>
@cnt:	<stdin>
@compr:	<stdin>
@conf	<stdin>
@conf:	<stdin>
@conflock:	<stdin>
@cookie:	<stdin>
@cookie:	<stdin>
@copy_dirty:	<stdin>
@count:	<stdin>
@count:	<stdin>
@count:	<stdin>
@count:	<stdin>
@count:	<stdin>
@count:	<stdin>
@count:	<stdin>
@count:	<stdin>
@count:	<stdin>
@count:	<stdin>
@count:	<stdin>
@count:	<stdin>
@count:	<stdin>
@count:	<stdin>
@count:	<stdin>
@count:	<stdin>
@count:	<stdin>
@count:	<stdin>
@count:	<stdin>
@count:	<stdin>
@count:	<stdin>
@count:	<stdin>
@count:	<stdin>
@count:	<stdin>
@count:	<stdin>
@count:	<stdin>
@count:	<stdin>
@count:	<stdin>
@count:	<stdin>
@count:	<stdin>
@count:	<stdin>
@count:	<stdin>
@count:	<stdin>
@count:	<stdin>
@count:	<stdin>
@count:	<stdin>
@count:	<stdin>
@count:	<stdin>
@count:	<stdin>
@count:	<stdin>
@count:	<stdin>
@count:	<stdin>
@count:	<stdin>
@count:	<stdin>
@count:	<stdin>
@count:	<stdin>
@count:	<stdin>
@count:	<stdin>
@count:	<stdin>
@count:	<stdin>
@count:	<stdin>
@count:	<stdin>
@count:	<stdin>
@count:	<stdin>
@count:	<stdin>
@count:	<stdin>
@count:	<stdin>
@count:	<stdin>
@cpfile:	<stdin>
@cpfile:	<stdin>
@cpfile:	<stdin>
@cpfile:	<stdin>
@cpfile:	<stdin>
@cpfile:	<stdin>
@cpfile:	<stdin>
@cpfile:	<stdin>
@cpp	<stdin>
@cpp:	<stdin>
@cpsize:	<stdin>
@crc:	<stdin>
@crc:	<stdin>
@create	<stdin>
@create	<stdin>
@create	<stdin>
@create:	<stdin>
@create:	<stdin>
@create:	<stdin>
@create:	<stdin>
@create:	<stdin>
@create:	<stdin>
@cred:	<stdin>
@cred:	<stdin>
@cred:	<stdin>
@cred:	<stdin>
@cred:	<stdin>
@cred:	<stdin>
@cred:	<stdin>
@cred:	<stdin>
@cred:	<stdin>
@ctime:	<stdin>
@ctx:	<stdin>
@ctx:	<stdin>
@ctx:	<stdin>
@ctx:	<stdin>
@ctx:	<stdin>
@ctx:	<stdin>
@ctx:	<stdin>
@curr:	<stdin>
@d	<stdin>
@da_data:	<stdin>
@da_last_ino:	<stdin>
@da_size:	<stdin>
@da_used_bytes:	<stdin>
@dat:	<stdin>
@dat:	<stdin>
@dat:	<stdin>
@dat:	<stdin>
@data:	<stdin>
@data:	<stdin>
@data:	<stdin>
@data:	<stdin>
@data:	<stdin>
@data:	<stdin>
@data:	<stdin>
@data:	<stdin>
@data:	<stdin>
@data:	<stdin>
@data:	<stdin>
@data:	<stdin>
@data:	<stdin>
@data:	<stdin>
@data:	<stdin>
@data:	<stdin>
@data:	<stdin>
@data:	<stdin>
@data:	<stdin>
@data:	<stdin>
@data:	<stdin>
@data_crc:	<stdin>
@dbh:	<stdin>
@delegation:	<stdin>
@dentry	<stdin>
@dentry	<stdin>
@dentry	<stdin>
@dentry	<stdin>
@dentry	<stdin>
@dentry	<stdin>
@dentry:	<stdin>
@dentry:	<stdin>
@dentry:	<stdin>
@dentry:	<stdin>
@dentry:	<stdin>
@dentry:	<stdin>
@dentry:	<stdin>
@dentry:	<stdin>
@dentry:	<stdin>
@dentry:	<stdin>
@dentry:	<stdin>
@dentry:	<stdin>
@dentry:	<stdin>
@dentry:	<stdin>
@dentry:	<stdin>
@dentry:	<stdin>
@dentry:	<stdin>
@dentry:	<stdin>
@dentry:	<stdin>
@dentry:	<stdin>
@dentry:	<stdin>
@dentry:	<stdin>
@dentry:	<stdin>
@dentry:	<stdin>
@dentry:	<stdin>
@dentry:	<stdin>
@dentry:	<stdin>
@dentry:	<stdin>
@dentry:	<stdin>
@dentry:	<stdin>
@dentry:	<stdin>
@dentry:	<stdin>
@dentry:	<stdin>
@dentry:	<stdin>
@dentry:	<stdin>
@dentry:	<stdin>
@dentry:	<stdin>
@dentry:	<stdin>
@dentry:	<stdin>
@dentry:	<stdin>
@dentry:	<stdin>
@depth:	<stdin>
@desc:	<stdin>
@desc:	<stdin>
@desc:	<stdin>
@desc:	<stdin>
@desc:	<stdin>
@desc:	<stdin>
@desc:	<stdin>
@dest	<stdin>
@dest	<stdin>
@dest.	<stdin>
@dest:	<stdin>
@destlen:	<stdin>
@devinfo	<stdin>
@devinfo	<stdin>
@devinfo.	<stdin>
@devinfo:	<stdin>
@di_ctime:	<stdin>
@di_data:	<stdin>
@di_flags:	<stdin>
@di_generation:	<stdin>
@di_gid:	<stdin>
@di_mode:	<stdin>
@di_mtime:	<stdin>
@di_pad:	<stdin>
@di_refcount:	<stdin>
@di_size:	<stdin>
@di_uid:	<stdin>
@di_used_bytes:	<stdin>
@dir:	<stdin>
@dir:	<stdin>
@dir:	<stdin>
@dirty_file_ptr:	<stdin>
@dist:	<stdin>
@dmap:	<stdin>
@dn_flags:	<stdin>
@dn_pad:	<stdin>
@dofunc	<stdin>
@dofunc	<stdin>
@dofunc:	<stdin>
@doio:	<stdin>
@ds	<stdin>
@ds	<stdin>
@ds:	<stdin>
@ds:	<stdin>
@ds:	<stdin>
@ds:	<stdin>
@ds:	<stdin>
@ds:	<stdin>
@ds:	<stdin>
@ds:	<stdin>
@ds:	<stdin>
@ds:	<stdin>
@ds:	<stdin>
@ds:	<stdin>
@ds:	<stdin>
@ds_bad_seg_reserve:	<stdin>
@ds_block_shift:	<stdin>
@ds_crc:	<stdin>
@ds_data_levels:	<stdin>
@ds_feature_compat:	<stdin>
@ds_feature_incompat:	<stdin>
@ds_feature_ro_compat:	<stdin>
@ds_flags:	<stdin>
@ds_gec:	<stdin>
@ds_iblock_levels:	<stdin>
@ds_ifile_levels:	<stdin>
@ds_journal_seg:	<stdin>
@ds_magic:	<stdin>
@ds_rename_dir:	<stdin>
@ds_rename_pos:	<stdin>
@ds_root_reserve:	<stdin>
@ds_segment_shift:	<stdin>
@ds_speed_reserve:	<stdin>
@ds_sweeper:	<stdin>
@ds_used_bytes:	<stdin>
@ds_victim_ino:	<stdin>
@ds_victim_ino:	<stdin>
@ds_write_shift:	<stdin>
@dst	<stdin>
@dst:	<stdin>
@dst:	<stdin>
@dst:	<stdin>
@dst:	<stdin>
@dst:	<stdin>
@dst:	<stdin>
@ec:	<stdin>
@ec:	<stdin>
@ec_level:	<stdin>
@end	<stdin>
@end	<stdin>
@end,	<stdin>
@end:	<stdin>
@end:	<stdin>
@end:	<stdin>
@end:	<stdin>
@end:	<stdin>
@end:	<stdin>
@entry:	<stdin>
@entry:	<stdin>
@entry:	<stdin>
@entry_nrs	<stdin>
@entry_nrs:	<stdin>
@entry_size:	<stdin>
@entry_size:	<stdin>
@ep	<stdin>
@ep	<stdin>
@ep)	<stdin>
@ep:	<stdin>
@ep:	<stdin>
@ep:	<stdin>
@ep:	<stdin>
@ep_call_nested()	<stdin>
@ep_call_nested()	<stdin>
@erase:	<stdin>
@erase:	<stdin>
@erase_count:	<stdin>
@erase_segment:	<stdin>
@err:	<stdin>
@err:	<stdin>
@esc	<stdin>
@esc	<stdin>
@esc:	<stdin>
@esc:	<stdin>
@esc:	<stdin>
@events:	<stdin>
@exppath.	<stdin>
@f:	<stdin>
@f:	<stdin>
@f:	<stdin>
@f:	<stdin>
@f:	<stdin>
@f:	<stdin>
@f:	<stdin>
@f:	<stdin>
@f:	<stdin>
@f:	<stdin>
@f:	<stdin>
@f:	<stdin>
@f:	<stdin>
@f:	<stdin>
@f:	<stdin>
@f:	<stdin>
@fattr	<stdin>
@fattr	<stdin>
@fattr:	<stdin>
@fattr:	<stdin>
@fattr:	<stdin>
@fd	<stdin>
@fd	<stdin>
@fd	<stdin>
@fd:	<stdin>
@fd:	<stdin>
@fd:	<stdin>
@fd:	<stdin>
@fh	<stdin>
@fh	<stdin>
@fhandle:	<stdin>
@fieinfo:	<stdin>
@fieinfo:	<stdin>
@fieinfo:	<stdin>
@fieinfo:	<stdin>
@fieinfo:	<stdin>
@fieinfo:	<stdin>
@fieinfo:	<stdin>
@fieinfo:	<stdin>
@file	<stdin>
@file	<stdin>
@file,	<stdin>
@file:	<stdin>
@file:	<stdin>
@file:	<stdin>
@file:	<stdin>
@file:	<stdin>
@file:	<stdin>
@file:	<stdin>
@file:	<stdin>
@file:	<stdin>
@file:	<stdin>
@file:	<stdin>
@file:	<stdin>
@file:	<stdin>
@file:	<stdin>
@file:	<stdin>
@file:	<stdin>
@file:	<stdin>
@file:	<stdin>
@file:	<stdin>
@file:	<stdin>
@file:	<stdin>
@file:	<stdin>
@file:	<stdin>
@file:	<stdin>
@file:	<stdin>
@file:	<stdin>
@file:	<stdin>
@file:	<stdin>
@file:	<stdin>
@file:	<stdin>
@file:	<stdin>
@file:	<stdin>
@file:	<stdin>
@file:	<stdin>
@filp:	<stdin>
@filp:	<stdin>
@filp:	<stdin>
@filp:	<stdin>
@filp:	<stdin>
@filp:	<stdin>
@filp:	<stdin>
@filp:	<stdin>
@filp:	<stdin>
@filp:	<stdin>
@filp:	<stdin>
@filp:	<stdin>
@filp:	<stdin>
@filp:	<stdin>
@fl:	<stdin>
@fl:	<stdin>
@fl:	<stdin>
@fl:	<stdin>
@fl:	<stdin>
@fl:	<stdin>
@fl:	<stdin>
@flags	<stdin>
@flags	<stdin>
@flags:	<stdin>
@flags:	<stdin>
@flags:	<stdin>
@flags:	<stdin>
@flags:	<stdin>
@flags:	<stdin>
@flags:	<stdin>
@flags:	<stdin>
@flags:	<stdin>
@flags:	<stdin>
@flags:	<stdin>
@flags:	<stdin>
@flags:	<stdin>
@flags:	<stdin>
@flags:	<stdin>
@flags:	<stdin>
@flags:	<stdin>
@flags:	<stdin>
@flags:	<stdin>
@flags:	<stdin>
@flags:	<stdin>
@flags:	<stdin>
@flags:	<stdin>
@flags:	<stdin>
@flags:	<stdin>
@flags:	<stdin>
@flags:	<stdin>
@flags:	<stdin>
@flags:	<stdin>
@flags:	<stdin>
@flags:	<stdin>
@flags:	<stdin>
@flags:	<stdin>
@flp:	<stdin>
@force:	<stdin>
@force:	<stdin>
@force:	<stdin>
@force:	<stdin>
@force:	<stdin>
@force:	<stdin>
@force:	<stdin>
@force:	<stdin>
@frozen_btnodes:	<stdin>
@frozen_buffers:	<stdin>
@frozen_data:	<stdin>
@fs_flags:	<stdin>
@fs_flags:	<stdin>
@full:	<stdin>
@gc_inode_ptr:	<stdin>
@gc_level:	<stdin>
@gec:	<stdin>
@gen:	<stdin>
@get_block:	<stdin>
@get_block:	<stdin>
@get_block:	<stdin>
@get_block:	<stdin>
@get_block:	<stdin>
@get_block:	<stdin>
@get_erase_count:	<stdin>
@get_free_segment:	<stdin>
@gfp_mask:	<stdin>
@goal:	<stdin>
@group->cg_list,	<stdin>
@group->cg_subsys->su_mtx.	<stdin>
@group:	<stdin>
@group:	<stdin>
@group:	<stdin>
@group:	<stdin>
@group:	<stdin>
@group:	<stdin>
@group:	<stdin>
@group:	<stdin>
@group:	<stdin>
@group:	<stdin>
@group_name:	<stdin>
@h_compr:	<stdin>
@h_crc:	<stdin>
@h_datalen:	<stdin>
@h_len:	<stdin>
@h_pad:	<stdin>
@h_type:	<stdin>
@handle:	<stdin>
@handle:	<stdin>
@handle:	<stdin>
@handle:	<stdin>
@handle:	<stdin>
@handle:	<stdin>
@handle:	<stdin>
@handle:	<stdin>
@head	<stdin>
@head	<stdin>
@head:	<stdin>
@head:	<stdin>
@head:	<stdin>
@head:	<stdin>
@head:	<stdin>
@head:	<stdin>
@head:	<stdin>
@head:	<stdin>
@host:	<stdin>
@host:	<stdin>
@host:	<stdin>
@host:	<stdin>
@host:	<stdin>
@host:	<stdin>
@hostname	<stdin>
@hostname:	<stdin>
@hostname:	<stdin>
@hostname:	<stdin>
@hostname_len:	<stdin>
@hostname_len:	<stdin>
@i_bh:	<stdin>
@i_bmap:	<stdin>
@i_bmap_data:	<stdin>
@i_btnode_cache:	<stdin>
@i_cno:	<stdin>
@i_dir_start_lookup:	<stdin>
@i_dirty:	<stdin>
@i_flags:	<stdin>
@i_root:	<stdin>
@i_state:	<stdin>
@i_xattr:	<stdin>
@id	<stdin>
@id	<stdin>
@id	<stdin>
@ifile:	<stdin>
@ifile:	<stdin>
@ifile:	<stdin>
@incoming	<stdin>
@incoming.	<stdin>
@index	<stdin>
@index	<stdin>
@index	<stdin>
@index:	<stdin>
@index:	<stdin>
@index:	<stdin>
@info:	<stdin>
@info:	<stdin>
@info:	<stdin>
@info:	<stdin>
@info:	<stdin>
@init_block:	<stdin>
@ino	<stdin>
@ino	<stdin>
@ino,	<stdin>
@ino:	<stdin>
@ino:	<stdin>
@ino:	<stdin>
@ino:	<stdin>
@ino:	<stdin>
@ino:	<stdin>
@ino:	<stdin>
@ino:	<stdin>
@inode	<stdin>
@inode	<stdin>
@inode->i_size,	<stdin>
@inode->i_size,	<stdin>
@inode:	<stdin>
@inode:	<stdin>
@inode:	<stdin>
@inode:	<stdin>
@inode:	<stdin>
@inode:	<stdin>
@inode:	<stdin>
@inode:	<stdin>
@inode:	<stdin>
@inode:	<stdin>
@inode:	<stdin>
@inode:	<stdin>
@inode:	<stdin>
@inode:	<stdin>
@inode:	<stdin>
@inode:	<stdin>
@inode:	<stdin>
@inode:	<stdin>
@inode:	<stdin>
@inode:	<stdin>
@inode:	<stdin>
@inode:	<stdin>
@inode:	<stdin>
@inode:	<stdin>
@inode:	<stdin>
@inode:	<stdin>
@inode:	<stdin>
@inode:	<stdin>
@inode:	<stdin>
@inode:	<stdin>
@inode:	<stdin>
@inode:	<stdin>
@inode:	<stdin>
@inode:	<stdin>
@inode:	<stdin>
@inode:	<stdin>
@inode:	<stdin>
@inode:	<stdin>
@inode:	<stdin>
@inode:	<stdin>
@inode:	<stdin>
@inode:	<stdin>
@inode:	<stdin>
@inode:	<stdin>
@inode:	<stdin>
@inode:	<stdin>
@inode:	<stdin>
@inode:	<stdin>
@inode:	<stdin>
@inode:	<stdin>
@inode:	<stdin>
@inode:	<stdin>
@inode:	<stdin>
@inode:	<stdin>
@inode:	<stdin>
@inode:	<stdin>
@inode:	<stdin>
@inode:	<stdin>
@inode:	<stdin>
@inode:	<stdin>
@inode:	<stdin>
@inode:	<stdin>
@inode:	<stdin>
@inode:	<stdin>
@inode:	<stdin>
@inode:	<stdin>
@inode:	<stdin>
@inode_size:	<stdin>
@inodep:	<stdin>
@inodep:	<stdin>
@inodep:	<stdin>
@inodep:	<stdin>
@inodes_count:	<stdin>
@io_flags:	<stdin>
@iocb:	<stdin>
@iocb:	<stdin>
@iocb:	<stdin>
@iocb:	<stdin>
@iocb:	<stdin>
@iocb:	<stdin>
@iov:	<stdin>
@iov:	<stdin>
@iov:	<stdin>
@iov:	<stdin>
@iov:	<stdin>
@iov:	<stdin>
@ip_addr:	<stdin>
@ip_addr:	<stdin>
@item->ci_name	<stdin>
@item->ci_namebuf	<stdin>
@item:	<stdin>
@item:	<stdin>
@item:	<stdin>
@item:	<stdin>
@item:	<stdin>
@item:	<stdin>
@item:	<stdin>
@item:	<stdin>
@item:	<stdin>
@item:	<stdin>
@item:	<stdin>
@item:	<stdin>
@item:	<stdin>
@item:	<stdin>
@item:	<stdin>
@item:	<stdin>
@item:	<stdin>
@item:	<stdin>
@item:	<stdin>
@item:	<stdin>
@item:	<stdin>
@item:	<stdin>
@item:	<stdin>
@item:	<stdin>
@item:	<stdin>
@item:	<stdin>
@item:	<stdin>
@item:	<stdin>
@item:	<stdin>
@item:	<stdin>
@item:	<stdin>
@item:	<stdin>
@item:	<stdin>
@item:	<stdin>
@item:	<stdin>
@item:	<stdin>
@item:	<stdin>
@item:	<stdin>
@journal:	<stdin>
@journal:	<stdin>
@journal:	<stdin>
@journal:	<stdin>
@journal:	<stdin>
@journal:	<stdin>
@k:	<stdin>
@kaddr:	<stdin>
@kaddr:	<stdin>
@kaddr:	<stdin>
@kelen2:	<stdin>
@kelen2:	<stdin>
@key	<stdin>
@key	<stdin>
@key	<stdin>
@key	<stdin>
@key	<stdin>
@key	<stdin>
@key	<stdin>
@key	<stdin>
@key	<stdin>
@key	<stdin>
@key	<stdin>
@key	<stdin>
@key	<stdin>
@key	<stdin>
@key1	<stdin>
@key1	<stdin>
@key1	<stdin>
@key1	<stdin>
@key1:	<stdin>
@key1:	<stdin>
@key2	<stdin>
@key2	<stdin>
@key2	<stdin>
@key2	<stdin>
@key2:	<stdin>
@key2:	<stdin>
@key:	<stdin>
@key:	<stdin>
@key:	<stdin>
@key:	<stdin>
@key:	<stdin>
@key:	<stdin>
@key:	<stdin>
@key:	<stdin>
@key:	<stdin>
@key:	<stdin>
@key:	<stdin>
@key:	<stdin>
@key_no:	<stdin>
@key_no:	<stdin>
@keybuf:	<stdin>
@keybuf:	<stdin>
@keylen1:	<stdin>
@keylen1:	<stdin>
@keylen:	<stdin>
@keylen:	<stdin>
@keyp:	<stdin>
@keysize:	<stdin>
@keysize:	<stdin>
@last_allocated_key:	<stdin>
@last_allocated_ptr:	<stdin>
@lease:	<stdin>
@len:	<stdin>
@len:	<stdin>
@len:	<stdin>
@len:	<stdin>
@len:	<stdin>
@len:	<stdin>
@len:	<stdin>
@len:	<stdin>
@len:	<stdin>
@len:	<stdin>
@len:	<stdin>
@len:	<stdin>
@len:	<stdin>
@level	<stdin>
@level	<stdin>
@level	<stdin>
@level	<stdin>
@level	<stdin>
@level	<stdin>
@level	<stdin>
@level	<stdin>
@level	<stdin>
@level	<stdin>
@level	<stdin>
@level:	<stdin>
@level:	<stdin>
@level:	<stdin>
@level:	<stdin>
@level:	<stdin>
@level:	<stdin>
@level:	<stdin>
@level:	<stdin>
@level:	<stdin>
@level:	<stdin>
@level:	<stdin>
@level:	<stdin>
@li_data:	<stdin>
@li_flags:	<stdin>
@li_freeing_list:	<stdin>
@li_refcount:	<stdin>
@li_used_bytes:	<stdin>
@list:	<stdin>
@listp:	<stdin>
@lm:	<stdin>
@lm:	<stdin>
@locations	<stdin>
@lock:	<stdin>
@lock:	<stdin>
@logical:	<stdin>
@logical:	<stdin>
@logs:	<stdin>
@m:	<stdin>
@m:	<stdin>
@map_data:	<stdin>
@mapping:	<stdin>
@mapping:	<stdin>
@max:	<stdin>
@max_nests:	<stdin>
@maxevents:	<stdin>
@mi:	<stdin>
@mi:	<stdin>
@mi:	<stdin>
@mi_bgl:	<stdin>
@mi_blocks_per_desc_block:	<stdin>
@mi_blocks_per_group:	<stdin>
@mi_entries_per_block:	<stdin>
@mi_entry_size:	<stdin>
@mi_first_entry_offset:	<stdin>
@mi_palloc_cache:	<stdin>
@mi_sem:	<stdin>
@mi_shadow:	<stdin>
@mode	<stdin>
@mode:	<stdin>
@mode:	<stdin>
@mode:	<stdin>
@mode:	<stdin>
@mode:	<stdin>
@modtime:	<stdin>
@n	<stdin>
@n	<stdin>
@n:	<stdin>
@n:	<stdin>
@n:	<stdin>
@name:	<stdin>
@name:	<stdin>
@name:	<stdin>
@name:	<stdin>
@name:	<stdin>
@namelen:	<stdin>
@namsesz:	<stdin>
@nblock:	<stdin>
@nblock:	<stdin>
@nblocks:	<stdin>
@nblocks:	<stdin>
@nblocks:	<stdin>
@nblocks:	<stdin>
@nblocks:	<stdin>
@ncalls:	<stdin>
@nci:	<stdin>
@ncleansegs:	<stdin>
@ndone	<stdin>
@ndone	<stdin>
@ndone:	<stdin>
@ndone:	<stdin>
@ndone:	<stdin>
@new	<stdin>
@new:	<stdin>
@new:	<stdin>
@new:	<stdin>
@new_dentry:	<stdin>
@new_dir:	<stdin>
@new_len:	<stdin>
@new_ofs:	<stdin>
@newbh:	<stdin>
@newkey:	<stdin>
@newnsegs:	<stdin>
@next:	<stdin>
@nfileblk:	<stdin>
@nfinfo:	<stdin>
@nilfs:	<stdin>
@nilfs:	<stdin>
@nilfs:	<stdin>
@nilfs:	<stdin>
@nilfs:	<stdin>
@nilfs:	<stdin>
@nilfs:	<stdin>
@nilfs:	<stdin>
@nilfs:	<stdin>
@nilfs:	<stdin>
@nilfs:	<stdin>
@nilfs:	<stdin>
@nilfs:	<stdin>
@nilfs:	<stdin>
@nilfs:	<stdin>
@nilfs:	<stdin>
@nilfs:	<stdin>
@nilfs:	<stdin>
@nilfs:	<stdin>
@nilfs:	<stdin>
@nilfs:	<stdin>
@nilfs:	<stdin>
@nilfs:	<stdin>
@nilfs:	<stdin>
@nilfs:	<stdin>
@nilfs:	<stdin>
@nilfs:	<stdin>
@nilfs:	<stdin>
@nilfs:	<stdin>
@nilfs:	<stdin>
@nitems.	<stdin>
@nitems:	<stdin>
@nitems:	<stdin>
@nlm_init:	<stdin>
@no_shadowed_segment:	<stdin>
@no_wait	<stdin>
@no_wait	<stdin>
@no_wait:	<stdin>
@node	<stdin>
@node	<stdin>
@node:	<stdin>
@node:	<stdin>
@node:	<stdin>
@node:	<stdin>
@node:	<stdin>
@node:	<stdin>
@node:	<stdin>
@node:	<stdin>
@node:	<stdin>
@node:	<stdin>
@node:	<stdin>
@node:	<stdin>
@node:	<stdin>
@node:	<stdin>
@node_off,	<stdin>
@node_off,	<stdin>
@node_off:	<stdin>
@node_off:	<stdin>
@node_off:	<stdin>
@node_off:	<stdin>
@noresvport:	<stdin>
@nproc	<stdin>
@nproc	<stdin>
@nproc:	<stdin>
@nr:	<stdin>
@nr:	<stdin>
@nr:	<stdin>
@nr:	<stdin>
@nr:	<stdin>
@nr_pages:	<stdin>
@nr_segs:	<stdin>
@nr_segs:	<stdin>
@nr_segs:	<stdin>
@nr_segs:	<stdin>
@nr_segs:	<stdin>
@nr_segs:	<stdin>
@nr_vecs:	<stdin>
@ns_bdev:	<stdin>
@ns_blocks_per_segment:	<stdin>
@ns_blocksize:	<stdin>
@ns_blocksize_bits:	<stdin>
@ns_cno:	<stdin>
@ns_cpfile:	<stdin>
@ns_cptree	<stdin>
@ns_cptree:	<stdin>
@ns_cptree_lock:	<stdin>
@ns_crc_seed:	<stdin>
@ns_ctime:	<stdin>
@ns_dat:	<stdin>
@ns_dirty_files	<stdin>
@ns_dirty_files:	<stdin>
@ns_first_data_block:	<stdin>
@ns_first_ino:	<stdin>
@ns_flags:	<stdin>
@ns_gc_inodes:	<stdin>
@ns_inode_lock:	<stdin>
@ns_inode_size:	<stdin>
@ns_interval:	<stdin>
@ns_last_cno:	<stdin>
@ns_last_pseg:	<stdin>
@ns_last_segment_lock:	<stdin>
@ns_last_seq:	<stdin>
@ns_mount_opt:	<stdin>
@ns_mount_state:	<stdin>
@ns_ndirtyblks:	<stdin>
@ns_next_gen_lock:	<stdin>
@ns_next_generation	<stdin>
@ns_next_generation:	<stdin>
@ns_nextnum:	<stdin>
@ns_nongc_ctime:	<stdin>
@ns_nrsvsegs:	<stdin>
@ns_nsegments:	<stdin>
@ns_prev_seq:	<stdin>
@ns_prot_seq:	<stdin>
@ns_pseg_offset:	<stdin>
@ns_r_segments_percentage:	<stdin>
@ns_resgid:	<stdin>
@ns_resuid:	<stdin>
@ns_sbh:	<stdin>
@ns_sbp:	<stdin>
@ns_sbsize:	<stdin>
@ns_sbwcount:	<stdin>
@ns_sbwtime:	<stdin>
@ns_seg_seq:	<stdin>
@ns_segctor_sem:	<stdin>
@ns_segnum:	<stdin>
@ns_sem:	<stdin>
@ns_snapshot_mount_mutex:	<stdin>
@ns_sufile:	<stdin>
@ns_watermark:	<stdin>
@ns_writer:	<stdin>
@nsegs:	<stdin>
@nsegs:	<stdin>
@nsegs:	<stdin>
@nsegs:	<stdin>
@nsi:	<stdin>
@nsm:	<stdin>
@nsumblk:	<stdin>
@off	<stdin>
@off,	<stdin>
@off:	<stdin>
@offset:	<stdin>
@offset:	<stdin>
@offset:	<stdin>
@offset:	<stdin>
@offset:	<stdin>
@offset:	<stdin>
@offset:	<stdin>
@offset:	<stdin>
@offset:	<stdin>
@offset:	<stdin>
@offset:	<stdin>
@offset:	<stdin>
@ofs	<stdin>
@oir	<stdin>
@old:	<stdin>
@old_dentry:	<stdin>
@old_dir:	<stdin>
@old_len:	<stdin>
@old_ofs:	<stdin>
@oldkey:	<stdin>
@op->next()	<stdin>
@op->show()	<stdin>
@op->start()	<stdin>
@op->stop()	<stdin>
@op.	<stdin>
@op:	<stdin>
@out_bh	<stdin>
@out_bh	<stdin>
@out_bh	<stdin>
@out_bh	<stdin>
@out_bh:	<stdin>
@out_bh:	<stdin>
@out_ino:	<stdin>
@owner_name:	<stdin>
@p	<stdin>
@p	<stdin>
@p	<stdin>
@p	<stdin>
@p:	<stdin>
@p:	<stdin>
@pad0:	<stdin>
@pad1:	<stdin>
@pad2:	<stdin>
@pad3:	<stdin>
@pad:	<stdin>
@page:	<stdin>
@page:	<stdin>
@page:	<stdin>
@page:	<stdin>
@page:	<stdin>
@pages->next	<stdin>
@pages->prev	<stdin>
@pages->prev	<stdin>
@pages:	<stdin>
@palloc_cache:	<stdin>
@palloc_cache:	<stdin>
@parent_gen:	<stdin>
@parent_ino:	<stdin>
@partial:	<stdin>
@path	<stdin>
@path	<stdin>
@path:	<stdin>
@pbh:	<stdin>
@pbh:	<stdin>
@pbh:	<stdin>
@pbh:	<stdin>
@pbh:	<stdin>
@pbh:	<stdin>
@pbn	<stdin>
@pbn	<stdin>
@pbn	<stdin>
@pbn	<stdin>
@pbn	<stdin>
@phys:	<stdin>
@phys:	<stdin>
@pipe:	<stdin>
@pipe:	<stdin>
@pipe:	<stdin>
@pipe:	<stdin>
@pipe:	<stdin>
@plus:	<stdin>
@plus:	<stdin>
@plus:	<stdin>
@port:	<stdin>
@pos:	<stdin>
@pos:	<stdin>
@pos:	<stdin>
@pos:	<stdin>
@pos:	<stdin>
@pos:	<stdin>
@pos:	<stdin>
@pos:	<stdin>
@pos:	<stdin>
@pos:	<stdin>
@pos:	<stdin>
@pos:	<stdin>
@pp:	<stdin>
@ppos:	<stdin>
@ppos:	<stdin>
@ppos:	<stdin>
@ppos:	<stdin>
@ppos:	<stdin>
@ppos:	<stdin>
@ppos:	<stdin>
@ppos:	<stdin>
@ppos:	<stdin>
@ppos:	<stdin>
@ppos:	<stdin>
@ppos:	<stdin>
@ppos:	<stdin>
@ppos:	<stdin>
@ppos:	<stdin>
@ppos:	<stdin>
@ppos:	<stdin>
@ppos:	<stdin>
@ppos:	<stdin>
@ppos:	<stdin>
@ppos:	<stdin>
@ppos:	<stdin>
@ppos:	<stdin>
@ppos:	<stdin>
@ppos:	<stdin>
@ppos:	<stdin>
@ppos:	<stdin>
@ppos:	<stdin>
@ppos:	<stdin>
@pr_bitmap_bh:	<stdin>
@pr_desc_bh:	<stdin>
@pr_entry_bh:	<stdin>
@pr_entry_nr:	<stdin>
@prev:	<stdin>
@prev:	<stdin>
@prev:	<stdin>
@prev_bitmap:	<stdin>
@prev_desc:	<stdin>
@prev_entry:	<stdin>
@priv:	<stdin>
@priv:	<stdin>
@priv:	<stdin>
@program:	<stdin>
@protocol:	<stdin>
@ptrp.	<stdin>
@ptrp:	<stdin>
@raw_inode.	<stdin>
@raw_inode:	<stdin>
@raw_inode:	<stdin>
@raw_inode:	<stdin>
@raw_inode:	<stdin>
@raw_inode:	<stdin>
@raw_inode:	<stdin>
@rb_node:	<stdin>
@read:	<stdin>
@read_write:	<stdin>
@readpage:	<stdin>
@rec	<stdin>
@rec:	<stdin>
@req:	<stdin>
@req:	<stdin>
@req:	<stdin>
@req:	<stdin>
@req:	<stdin>
@req:	<stdin>
@req:	<stdin>
@req:	<stdin>
@req:	<stdin>
@req:	<stdin>
@req:	<stdin>
@req:	<stdin>
@req:	<stdin>
@req:	<stdin>
@req:	<stdin>
@req:	<stdin>
@req:	<stdin>
@req:	<stdin>
@res:	<stdin>
@res:	<stdin>
@res:	<stdin>
@res:	<stdin>
@resmap:	<stdin>
@result:	<stdin>
@result:	<stdin>
@result:	<stdin>
@result:	<stdin>
@result:	<stdin>
@ret	<stdin>
@ret	<stdin>
@retref:	<stdin>
@return	<stdin>
@return	<stdin>
@return	<stdin>
@return	<stdin>
@return	<stdin>
@return	<stdin>
@return	<stdin>
@return	<stdin>
@return	<stdin>
@return	<stdin>
@return	<stdin>
@ri:	<stdin>
@ri:	<stdin>
@ri:	<stdin>
@ri:	<stdin>
@ri:	<stdin>
@ri:	<stdin>
@ri_lseg_start_seq:	<stdin>
@ri_lsegs_end:	<stdin>
@ri_lsegs_start:	<stdin>
@ri_need_recovery:	<stdin>
@ri_nextnum:	<stdin>
@ri_pseg_start:	<stdin>
@ri_ri_cno:	<stdin>
@ri_segnum:	<stdin>
@ri_seq:	<stdin>
@ri_super_root:	<stdin>
@ri_used_segments:	<stdin>
@root:	<stdin>
@root:	<stdin>
@root:	<stdin>
@root_data	<stdin>
@root_data:	<stdin>
@root_device	<stdin>
@root_device:	<stdin>
@rqstp:	<stdin>
@rw:	<stdin>
@rw:	<stdin>
@s,	<stdin>
@s,	<stdin>
@s:	<stdin>
@s:	<stdin>
@s:	<stdin>
@s:	<stdin>
@s:	<stdin>
@s:	<stdin>
@s:	<stdin>
@s:	<stdin>
@s:	<stdin>
@s:	<stdin>
@s:	<stdin>
@s:	<stdin>
@s:	<stdin>
@s:	<stdin>
@s:	<stdin>
@s:	<stdin>
@s:	<stdin>
@s:	<stdin>
@s:	<stdin>
@s:	<stdin>
@s:	<stdin>
@s:	<stdin>
@s:	<stdin>
@s:	<stdin>
@s:	<stdin>
@s:	<stdin>
@s:	<stdin>
@s:	<stdin>
@s:	<stdin>
@s:	<stdin>
@s:	<stdin>
@s:	<stdin>
@s:	<stdin>
@s:	<stdin>
@salen:	<stdin>
@salen:	<stdin>
@sap	<stdin>
@sap:	<stdin>
@sap:	<stdin>
@sb	<stdin>
@sb:	<stdin>
@sb:	<stdin>
@sb:	<stdin>
@sb:	<stdin>
@sb:	<stdin>
@sb:	<stdin>
@sb:	<stdin>
@sb:	<stdin>
@sb:	<stdin>
@sb:	<stdin>
@sb:	<stdin>
@sb:	<stdin>
@sb:	<stdin>
@sb:	<stdin>
@sb:	<stdin>
@sb:	<stdin>
@sb:	<stdin>
@sb:	<stdin>
@sb:	<stdin>
@sb:	<stdin>
@sb:	<stdin>
@sb:	<stdin>
@sb:	<stdin>
@sb:	<stdin>
@sb:	<stdin>
@sb:	<stdin>
@sb:	<stdin>
@sb:	<stdin>
@sb:	<stdin>
@sb:	<stdin>
@sb:	<stdin>
@sb:	<stdin>
@sb:	<stdin>
@sb:	<stdin>
@sb:	<stdin>
@sb:	<stdin>
@sb:	<stdin>
@sb:	<stdin>
@sb:	<stdin>
@sb:	<stdin>
@sb:	<stdin>
@sb:	<stdin>
@sb:	<stdin>
@sb:	<stdin>
@sb:	<stdin>
@sb:	<stdin>
@sb:	<stdin>
@sb:	<stdin>
@sb:	<stdin>
@sb:	<stdin>
@sb:	<stdin>
@sb:	<stdin>
@sb:	<stdin>
@sb:	<stdin>
@sb:	<stdin>
@sb:	<stdin>
@sb:	<stdin>
@sb:	<stdin>
@sb:	<stdin>
@sb:	<stdin>
@sb:	<stdin>
@sb:	<stdin>
@sb:	<stdin>
@sb:	<stdin>
@sb:	<stdin>
@sb:	<stdin>
@sb:	<stdin>
@sb:	<stdin>
@sb:	<stdin>
@sb:	<stdin>
@sb:	<stdin>
@sb:	<stdin>
@sb:	<stdin>
@sb:	<stdin>
@sb:	<stdin>
@sb:	<stdin>
@sb:	<stdin>
@sb:	<stdin>
@sb:	<stdin>
@sb:	<stdin>
@sb:	<stdin>
@sb:	<stdin>
@sb:	<stdin>
@sb:	<stdin>
@sb:	<stdin>
@sb:	<stdin>
@sb:	<stdin>
@sb:	<stdin>
@sb:	<stdin>
@sb:	<stdin>
@sb:	<stdin>
@sb:	<stdin>
@sb:	<stdin>
@sb:	<stdin>
@sb:	<stdin>
@sb:	<stdin>
@sb:	<stdin>
@sb:	<stdin>
@sb:	<stdin>
@sb:	<stdin>
@sb_bio_event:	<stdin>
@sb_err:	<stdin>
@sb_fseg_end:	<stdin>
@sb_fseg_start:	<stdin>
@sb_list:	<stdin>
@sb_nbio:	<stdin>
@sb_nextnum:	<stdin>
@sb_payload_buffers:	<stdin>
@sb_pseg_start:	<stdin>
@sb_rest_blocks:	<stdin>
@sb_segnum:	<stdin>
@sb_segsum_buffers:	<stdin>
@sb_sum:	<stdin>
@sb_super:	<stdin>
@sb_super_root:	<stdin>
@sbh:	<stdin>
@sbp:	<stdin>
@sc:	<stdin>
@sc_binfo_ptr:	<stdin>
@sc_blk_cnt:	<stdin>
@sc_cno:	<stdin>
@sc_curseg:	<stdin>
@sc_datablk_cnt:	<stdin>
@sc_dirty_files:	<stdin>
@sc_dsync_end:	<stdin>
@sc_dsync_inode:	<stdin>
@sc_dsync_start:	<stdin>
@sc_finfo_ptr:	<stdin>
@sc_flags:	<stdin>
@sc_flush_request:	<stdin>
@sc_freesegs	<stdin>
@sc_freesegs:	<stdin>
@sc_gc_inodes:	<stdin>
@sc_interval:	<stdin>
@sc_lseg_stime:	<stdin>
@sc_mjcp_freq:	<stdin>
@sc_nblk_inc:	<stdin>
@sc_nblk_this_inc:	<stdin>
@sc_nfreesegs:	<stdin>
@sc_root:	<stdin>
@sc_seg_ctime:	<stdin>
@sc_segbuf_nblocks:	<stdin>
@sc_segbufs:	<stdin>
@sc_seq_accept:	<stdin>
@sc_seq_done:	<stdin>
@sc_seq_request:	<stdin>
@sc_stage:	<stdin>
@sc_state:	<stdin>
@sc_state_lock:	<stdin>
@sc_super:	<stdin>
@sc_sync:	<stdin>
@sc_task:	<stdin>
@sc_timer:	<stdin>
@sc_wait_daemon:	<stdin>
@sc_wait_request:	<stdin>
@sc_wait_task:	<stdin>
@sc_watermark:	<stdin>
@sc_write_logs:	<stdin>
@sci:	<stdin>
@sci:	<stdin>
@sci:	<stdin>
@sci:	<stdin>
@sci:	<stdin>
@sci:	<stdin>
@sci:	<stdin>
@sci:	<stdin>
@sci:	<stdin>
@sci:	<stdin>
@sci:	<stdin>
@sci:	<stdin>
@sci:	<stdin>
@sci:	<stdin>
@scnt:	<stdin>
@sd	<stdin>
@sd	<stdin>
@sd	<stdin>
@sd	<stdin>
@sd	<stdin>
@sd	<stdin>
@sd	<stdin>
@sd	<stdin>
@sd	<stdin>
@sd	<stdin>
@sd	<stdin>
@sd	<stdin>
@sd	<stdin>
@sd	<stdin>
@sd	<stdin>
@sd	<stdin>
@sd	<stdin>
@sd	<stdin>
@sd	<stdin>
@sd	<stdin>
@sd	<stdin>
@sd	<stdin>
@seed:	<stdin>
@seg_seq:	<stdin>
@seg_seq:	<stdin>
@seg_seq:	<stdin>
@segbuf:	<stdin>
@segbuf:	<stdin>
@segbuf:	<stdin>
@segment_map:	<stdin>
@segno:	<stdin>
@segno:	<stdin>
@segno:	<stdin>
@segnum	<stdin>
@segnum:	<stdin>
@segnum:	<stdin>
@segnum:	<stdin>
@segnum:	<stdin>
@segnum:	<stdin>
@segnum:	<stdin>
@segnump.	<stdin>
@segnump:	<stdin>
@segnumv	<stdin>
@segnumv	<stdin>
@segnumv	<stdin>
@segnumv	<stdin>
@segnumv:	<stdin>
@segnumv:	<stdin>
@segnumv:	<stdin>
@seq:	<stdin>
@server:	<stdin>
@server:	<stdin>
@server:	<stdin>
@server:	<stdin>
@server:	<stdin>
@server_addr:	<stdin>
@set:	<stdin>
@set:	<stdin>
@set:	<stdin>
@set:	<stdin>
@set:	<stdin>
@set:	<stdin>
@set:	<stdin>
@set:	<stdin>
@shadow:	<stdin>
@shadow:	<stdin>
@shadow:	<stdin>
@shadow_tree:	<stdin>
@shrink:	<stdin>
@sisz:	<stdin>
@size:	<stdin>
@smap:	<stdin>
@so_segment:	<stdin>
@sp:	<stdin>
@sproc	<stdin>
@sproc	<stdin>
@sproc:	<stdin>
@sr_block:	<stdin>
@sr_block:	<stdin>
@src,	<stdin>
@src:	<stdin>
@src:	<stdin>
@srclen:	<stdin>
@stable	<stdin>
@stable	<stdin>
@start	<stdin>
@start:	<stdin>
@start:	<stdin>
@start:	<stdin>
@start:	<stdin>
@start:	<stdin>
@start:	<stdin>
@start:	<stdin>
@start:	<stdin>
@start:	<stdin>
@start:	<stdin>
@start:	<stdin>
@start:	<stdin>
@start:	<stdin>
@start:	<stdin>
@start_blk.	<stdin>
@start_blk:	<stdin>
@start_blocknr:	<stdin>
@start_blocknr:	<stdin>
@start_blocknr:	<stdin>
@start_blocknr:	<stdin>
@stat.	<stdin>
@stat.	<stdin>
@stat:	<stdin>
@stat:	<stdin>
@state:	<stdin>
@state:	<stdin>
@state:	<stdin>
@stateid:	<stdin>
@stateid:	<stdin>
@stateid:	<stdin>
@status:	<stdin>
@status:	<stdin>
@status:	<stdin>
@sufile:	<stdin>
@sufile:	<stdin>
@sufile:	<stdin>
@sufile:	<stdin>
@sufile:	<stdin>
@sufile:	<stdin>
@sufile:	<stdin>
@sufile:	<stdin>
@sufile:	<stdin>
@sufile:	<stdin>
@sufile:	<stdin>
@sufile:	<stdin>
@sufile:	<stdin>
@sufile:	<stdin>
@sufile:	<stdin>
@sum:	<stdin>
@sum:	<stdin>
@sum:	<stdin>
@sum:	<stdin>
@sum:	<stdin>
@sum:	<stdin>
@sum:	<stdin>
@sum:	<stdin>
@sumbytes:	<stdin>
@sup:	<stdin>
@sup:	<stdin>
@susize:	<stdin>
@target:	<stdin>
@task:	<stdin>
@task:	<stdin>
@task:	<stdin>
@test:	<stdin>
@test:	<stdin>
@test:	<stdin>
@test:	<stdin>
@test:	<stdin>
@test:	<stdin>
@test:	<stdin>
@test:	<stdin>
@this_node:	<stdin>
@this_node:	<stdin>
@ti,	<stdin>
@ti,	<stdin>
@ti:	<stdin>
@ti:	<stdin>
@ti_count:	<stdin>
@ti_flags:	<stdin>
@ti_garbage:	<stdin>
@ti_magic:	<stdin>
@ti_save:	<stdin>
@time:	<stdin>
@timeout	<stdin>
@timeout	<stdin>
@timeout:	<stdin>
@timeparms:	<stdin>
@timeparms:	<stdin>
@type:	<stdin>
@type:	<stdin>
@type:	<stdin>
@type:	<stdin>
@type:	<stdin>
@type:	<stdin>
@type:	<stdin>
@type:	<stdin>
@type:	<stdin>
@type:	<stdin>
@type:	<stdin>
@type:	<stdin>
@type:	<stdin>
@type:	<stdin>
@type:	<stdin>
@type:	<stdin>
@type:	<stdin>
@type:	<stdin>
@type:	<stdin>
@type:	<stdin>
@type:	<stdin>
@type:	<stdin>
@type:	<stdin>
@type:	<stdin>
@type:	<stdin>
@type:	<stdin>
@type:	<stdin>
@type:	<stdin>
@type:	<stdin>
@used:	<stdin>
@used_bytes:	<stdin>
@userbuf.	<stdin>
@userbuf.	<stdin>
@userbuf.	<stdin>
@userbuf.	<stdin>
@userbuf.	<stdin>
@userbuf.	<stdin>
@userbuf.	<stdin>
@userbuf.	<stdin>
@userbuf.	<stdin>
@userbuf.	<stdin>
@userbuf.	<stdin>
@userbuf.	<stdin>
@userbuf.	<stdin>
@v:	<stdin>
@v:	<stdin>
@vacancy_check	<stdin>
@vacancy_check	<stdin>
@vacancy_check:	<stdin>
@vacancy_check:	<stdin>
@valid:	<stdin>
@valid:	<stdin>
@valp:	<stdin>
@value:	<stdin>
@value:	<stdin>
@value:	<stdin>
@value:	<stdin>
@value:	<stdin>
@value:	<stdin>
@vblocknr	<stdin>
@vblocknr	<stdin>
@vblocknr	<stdin>
@vblocknr	<stdin>
@vblocknr:	<stdin>
@vblocknr:	<stdin>
@vblocknr:	<stdin>
@vblocknrs	<stdin>
@vblocknrs:	<stdin>
@vbn	<stdin>
@vbn	<stdin>
@vbn	<stdin>
@vbn	<stdin>
@vbn	<stdin>
@version:	<stdin>
@version:	<stdin>
@vfs_inode:	<stdin>
@vfs_inode:	<stdin>
@vim:	<stdin>
@vllist:	<stdin>
@wait:	<stdin>
@waiter:	<stdin>
@wbc:	<stdin>
@whence:	<stdin>
@writeseg:	<stdin>
@xattr_sem:	<stdin>
@xdr:	<stdin>
@xdr:	<stdin>
@xdr:	<stdin>
axboe@suse.de	<stdin>
okir@monad.swb.de	<stdin>
