!@ptrace:	<stdin>
(@wg	<stdin>
(balbir@in.ibm.com).	<stdin>
(guenther@pool.informatik.rwth-aachen.de)	<stdin>
(me@bobcopeland.com)	<stdin>
(menage@google.com)	<stdin>
(ralf@gnu.org)	<stdin>
(schwab@ls5.informatik.uni-dortmund.de)	<stdin>
*@devt.	<stdin>
<Christian.Limpach@cl.cam.ac.uk>	<stdin>
<Doi.Tsunehisa@jp.fujitsu.com>	<stdin>
<Holger.Smolinski@de.ibm.com>	<stdin>
<Linux390@de.ibm.com>	<stdin>
<Martin.Wilck@Fujitsu-Siemens.com>	<stdin>
<Matt_Domsch@dell.com>	<stdin>
<Matt_Domsch@dell.com>	<stdin>
<Matt_Domsch@dell.com>	<stdin>
<Matt_Domsch@dell.com>	<stdin>
<Matt_Domsch@dell.com>	<stdin>
<Matt_Domsch@dell.com>	<stdin>
<Matt_Domsch@dell.com>	<stdin>
<Matt_Domsch@dell.com>	<stdin>
<Matt_Domsch@dell.com>	<stdin>
<Matt_Domsch@dell.com>	<stdin>
<Matt_Domsch@dell.com>	<stdin>
<Matt_Domsch@dell.com>	<stdin>
<Matt_Domsch@dell.com>	<stdin>
<Matt_Domsch@dell.com>	<stdin>
<Matt_Domsch@dell.com>	<stdin>
<alex.williamson@hp.com>	<stdin>
<alex.williamson@hp.com>	<stdin>
<anandk@wiproge.med.ge.com>	<stdin>
<andrea@cpushare.com>	<stdin>
<andrea@suse.de>	<stdin>
<andrea@suse.de>	<stdin>
<anil.s.keshavamurthy@intel.com>	<stdin>
<anil.s.keshavamurthy@intel.com>	<stdin>
<anthony.xu@intel.com>	<stdin>
<arun.sharma@intel.com>	<stdin>
<arun.sharma@intel.com>	<stdin>
<asit.k.mallick@intel.com>	<stdin>
<asit.k.mallick@intel.com>	<stdin>
<asit.k.mallick@intel.com>	<stdin>
<asit.k.mallick@intel.com>	<stdin>
<asit.k.mallick@intel.com>	<stdin>
<asit.k.mallick@intel.com>	<stdin>
<axboe@kernel.dk>	<stdin>
<axboe@kernel.dk>	<stdin>
<axboe@kernel.dk>	<stdin>
<axboe@kernel.dk>	<stdin>
<axboe@kernel.dk>	<stdin>
<axboe@suse.de>	<stdin>
<axboe@suse.de>	<stdin>
<axboe@suse.de>	<stdin>
<axboe@suse.de>	<stdin>
<bjorn.helgaas@hp.com>	<stdin>
<bjorn.helgaas@hp.com>	<stdin>
<bjorn.helgaas@hp.com>	<stdin>
<chrisw@sous-sol.org>	<stdin>
<clameter@sgi.com>	<stdin>
<dan.magenheimer@hp.com>	<stdin>
<dan.magenheimer@hp.com>	<stdin>
<davej@suse.de>	<stdin>
<davem@davemloft.net>	<stdin>
<davidm@hpl.hp.com>	<stdin>
<davidm@hpl.hp.com>	<stdin>
<davidm@hpl.hp.com>	<stdin>
<davidm@hpl.hp.com>	<stdin>
<davidm@hpl.hp.com>	<stdin>
<davidm@hpl.hp.com>	<stdin>
<davidm@hpl.hp.com>	<stdin>
<davidm@hpl.hp.com>	<stdin>
<davidm@hpl.hp.com>	<stdin>
<davidm@hpl.hp.com>	<stdin>
<davidm@hpl.hp.com>	<stdin>
<davidm@hpl.hp.com>	<stdin>
<davidm@hpl.hp.com>	<stdin>
<davidm@hpl.hp.com>	<stdin>
<davidm@hpl.hp.com>	<stdin>
<davidm@hpl.hp.com>	<stdin>
<davidm@hpl.hp.com>	<stdin>
<davidm@hpl.hp.com>	<stdin>
<davidm@hpl.hp.com>	<stdin>
<davidm@hpl.hp.com>	<stdin>
<davidm@hpl.hp.com>	<stdin>
<davidm@hpl.hp.com>	<stdin>
<davidm@hpl.hp.com>	<stdin>
<davidm@hpl.hp.com>	<stdin>
<davidm@hpl.hp.com>	<stdin>
<davidm@hpl.hp.com>	<stdin>
<davidm@hpl.hp.com>	<stdin>
<davidm@hpl.hp.com>	<stdin>
<davidm@hpl.hp.com>	<stdin>
<davidm@hpl.hp.com>	<stdin>
<davidm@hpl.hp.com>	<stdin>
<davidm@hpl.hp.com>	<stdin>
<davidm@hpl.hp.com>	<stdin>
<davidm@hpl.hp.com>	<stdin>
<davidm@hpl.hp.com>	<stdin>
<davidm@hpl.hp.com>	<stdin>
<davidm@hpl.hp.com>	<stdin>
<davidm@hpl.hp.com>	<stdin>
<davidm@hpl.hp.com>	<stdin>
<davidm@hpl.hp.com>	<stdin>
<davidm@hpl.hp.com>	<stdin>
<davidm@hpl.hp.com>	<stdin>
<davidm@hpl.hp.com>	<stdin>
<davidm@hpl.hp.com>,	<stdin>
<davidm@hpl.hp.com>,	<stdin>
<davidm@hpl.hp.com>,	<stdin>
<davidm@hpl.hp.com>,	<stdin>
<davidm@hpl.hp.com>,	<stdin>
<davidm@hpl.hp.com>,	<stdin>
<davidm@hpl.hp.com>,	<stdin>
<davidm@hpl.hp.com>,	<stdin>
<davidm@hpl.hp.com>,	<stdin>
<davidm@hpl.hp.com>,	<stdin>
<davidm@hpl.hp.com>,	<stdin>
<davidm@hpl.hp.com>,	<stdin>
<davidm@hpl.hp.com>,	<stdin>
<davidm@hpl.hp.com>,	<stdin>
<davidm@hpl.hp.com>,	<stdin>
<davidm@hpl.hp.com>,	<stdin>
<davidm@hpl.hp.com>,	<stdin>
<davidm@hpl.hp.com>,	<stdin>
<davidm@hpl.hp.com>,	<stdin>
<davidm@hpl.hp.com>,	<stdin>
<dcinege@psychosis.com>	<stdin>
<dietmar.hahn@fujitsu-siemens.com>	<stdin>
<dmitry.adamushko@gmail.com>	<stdin>
<don.dugger@intel.com>	<stdin>
<don.dugger@intel.com>	<stdin>
<don.dugger@intel.com>	<stdin>
<don.dugger@intel.com>	<stdin>
<don.dugger@intel.com>	<stdin>
<drummond@valinux.com>	<stdin>
<drummond@valinux.com>	<stdin>
<drummond@valinux.com>	<stdin>
<dwmw2@infradead.org>	<stdin>
<eddie.dong@intel.com>	<stdin>
<efault@gmx.de>	<stdin>
<efocht@ess.nec.de>	<stdin>
<efocht@ess.nec.de>	<stdin>
<efocht@ess.nec.de>	<stdin>
<efocht@ess.nec.de>	<stdin>
<eranian@hpl.hp.com>	<stdin>
<eranian@hpl.hp.com>	<stdin>
<eranian@hpl.hp.com>	<stdin>
<eranian@hpl.hp.com>	<stdin>
<eranian@hpl.hp.com>	<stdin>
<eranian@hpl.hp.com>	<stdin>
<eranian@hpl.hp.com>	<stdin>
<fabio@gandalf.sssup.it>	<stdin>
<fabio@gandalf.sssup.it>	<stdin>
<fenghua.yu@intel.com>	<stdin>
<fenghua.yu@intel.com>	<stdin>
<frankeh@us.ibm.com>	<stdin>
<frankeh@us.ibm.com>	<stdin>
<fred.yang@intel.com>	<stdin>
<frederick.v.lewis@intel.com>	<stdin>
<ghaskins@novell.com>	<stdin>
<goutham.rao@intel.com>	<stdin>
<grif@acm.org>	<stdin>
<guichaz@gmail.com>	<stdin>
<hollisb@us.ibm.com>	<stdin>
<hollisb@us.ibm.com>,	<stdin>
<hongjiu.lu@intel.com>	<stdin>
<jaharkes@cs.cmu.edu>	<stdin>
<jakob.kemi@telia.com>	<stdin>
<jakob.kemi@telia.com>	<stdin>
<jbeulich@novell.com>	<stdin>
<jean-paul.saman@nxp.com>	<stdin>
<jenna.s.hall@intel.com>	<stdin>
<jenna.s.hall@intel.com>	<stdin>
<john.levon@sun.com>	<stdin>
<jonsmirl@gmail.com>	<stdin>
<jun.nakajima@intel.com>	<stdin>
<jun.nakajima@intel.com>	<stdin>
<jun.nakajima@intel.com>	<stdin>
<jun.nakajima@intel.com>	<stdin>
<k-suganuma@da.jp.nec.com>	<stdin>
<k-suganuma@da.jp.nec.com>	<stdin>
<kanno.masaki@jp.fujitsu.com>	<stdin>
<kaos@sgi.com>	<stdin>
<kaos@sgi.com>.	<stdin>
<kay.sievers@vrfy.org>	<stdin>
<kaz@jp.fujitsu.com>	<stdin>
<keir.fraser@citrix.com>	<stdin>
<kenneth.w.chen@intel.com>	<stdin>
<kenneth.w.chen@intel.com>	<stdin>
<kevin.tian@intel.com>	<stdin>
<kouya@jp.fujitsu.com>	<stdin>
<ldm@flatcap.org>	<stdin>
<ldm@flatcap.org>	<stdin>
<manfred@colorfullife.com>	<stdin>
<markgw@sgi.com>	<stdin>
<martin.petersen@oracle.com>	<stdin>
<matthewc@hp.com>	<stdin>
<matthewc@hp.com>	<stdin>
<mingo@redhat.com>	<stdin>
<mingo@redhat.com>	<stdin>
<mingo@redhat.com>	<stdin>
<mingo@redhat.com>	<stdin>
<mingo@redhat.com>	<stdin>
<mj@ucw.cz>	<stdin>
<nauman@google.com>	<stdin>
<nauman@google.com>	<stdin>
<neilb@cse.unsw.edu.au>	<stdin>
<nhinds@us.ibm.com>	<stdin>
<nhinds@us.ibm.com>	<stdin>
<oberpar@linux.vnet.ibm.com>	<stdin>
<oberpar@linux.vnet.ibm.com>	<stdin>
<oberpar@linux.vnet.ibm.com>	<stdin>
<oberpar@linux.vnet.ibm.com>	<stdin>
<oberpar@linux.vnet.ibm.com>	<stdin>
<oberpar@linux.vnet.ibm.com>	<stdin>
<paolo.valente@unimore.it>	<stdin>
<paolo.valente@unimore.it>	<stdin>
<phdm@macqel.be>	<stdin>
<pjones@redhat.com>	<stdin>
<pzijlstr@redhat.com>	<stdin>
<pzijlstr@redhat.com>	<stdin>
<rajancr@us.ibm.com>	<stdin>
<rajancr@us.ibm.com>	<stdin>
<rajeevvp@yahoo.com>	<stdin>
<rja@sgi.com>	<stdin>
<rjw@sisk.pl>,	<stdin>
<rostedt@goodmis.org>	<stdin>
<rusty.lynch@intel.com>	<stdin>
<rusty.lynch@intel.com>	<stdin>
<sameske@de.ibm.com>	<stdin>
<samuel.thibault@eu.citrix.com>	<stdin>
<seto.hidetoshi@jp.fujitsu.com>	<stdin>
<shaohua.li@intel.com>	<stdin>
<sprasad@engr.sgi.com>	<stdin>
<sprasad@engr.sgi.com>	<stdin>
<sprasad@engr.sgi.com>	<stdin>
<sprasad@sprasad.engr.sgi.com>	<stdin>
<sprasad@sprasad.engr.sgi.com>	<stdin>
<srostedt@redhat.com>	<stdin>
<suresh.b.siddha@intel.com>	<stdin>
<suresh.b.siddha@intel.com>	<stdin>
<suresh.b.siddha@intel.com>	<stdin>
<suresh.b.siddha@intel.com>	<stdin>
<suresh.b.siddha@intel.com>	<stdin>
<suresh.b.siddha@intel.com>	<stdin>
<t.horikoshi@jp.fujitsu.com>	<stdin>
<tgingold@free.fr>	<stdin>
<tglx@linutronix.de>	<stdin>
<tglx@timesys.com>	<stdin>
<tglx@timesys.com>	<stdin>
<tim@cyberelk.demon.co.uk>	<stdin>
<tj@kernel.org>	<stdin>
<tristan.gingold@bull.net>,	<stdin>
<vatsa@linux.vnet.ibm.com>	<stdin>
<vgoyal@redhat.com>	<stdin>
<vgoyal@redhat.com>	<stdin>
<vgoyal@redhat.com>	<stdin>
<vijay@engr.sgi.com>	<stdin>
<vijay@engr.sgi.com>	<stdin>
<vijay@engr.sgi.com>	<stdin>
<wad@chromium.org>	<stdin>
<xiantao.zhang@intel.com>	<stdin>
<xiantao.zhang@intel.com>	<stdin>
<xiantao.zhang@intel.com>	<stdin>
<xing.z.zhang@intel.com>	<stdin>
<yamahata@valinux.co.jp>	<stdin>
<yutaka.ezaki@jp.fujitsu.com>	<stdin>
@...:	<stdin>
@0x%p\n",	<stdin>
@0x%p\n",	<stdin>
@0x%p\n",	<stdin>
@act:	<stdin>
@act:	<stdin>
@act:	<stdin>
@act:	<stdin>
@addr	<stdin>
@addr	<stdin>
@addr	<stdin>
@addr:	<stdin>
@addr:	<stdin>
@addr:	<stdin>
@addr:	<stdin>
@addr:	<stdin>
@addr:	<stdin>
@addr:	<stdin>
@addr:	<stdin>
@addr:	<stdin>
@addr:	<stdin>
@addr:	<stdin>
@addr:	<stdin>
@addr:	<stdin>
@addr:	<stdin>
@addr:	<stdin>
@addr:	<stdin>
@addr:	<stdin>
@agpt	<stdin>
@all:	<stdin>
@at_head:	<stdin>
@at_head:	<stdin>
@b:	<stdin>
@b:	<stdin>
@balance:	<stdin>
@balance:	<stdin>
@balance:	<stdin>
@banbuf:	<stdin>
@banlen:	<stdin>
@base:	<stdin>
@base:	<stdin>
@base:	<stdin>
@base:	<stdin>
@bd_disk:	<stdin>
@bd_disk:	<stdin>
@bdev	<stdin>
@bdev	<stdin>
@bdev,	<stdin>
@bdev:	<stdin>
@bdev:	<stdin>
@bdev:	<stdin>
@bdev:	<stdin>
@bdev:	<stdin>
@bdev:	<stdin>
@bdev:	<stdin>
@bdev:	<stdin>
@bdev:	<stdin>
@begin:	<stdin>
@begin:	<stdin>
@bidi_bytes	<stdin>
@bidi_bytes:	<stdin>
@bidi_bytes:	<stdin>
@bio	<stdin>
@bio	<stdin>
@bio.	<stdin>
@bio.	<stdin>
@bio.	<stdin>
@bio:	<stdin>
@bio:	<stdin>
@bio:	<stdin>
@bio:	<stdin>
@bio:	<stdin>
@bio:	<stdin>
@bio:	<stdin>
@bio:	<stdin>
@bio:	<stdin>
@bio:	<stdin>
@bio:	<stdin>
@bio:	<stdin>
@bio_ctr	<stdin>
@bio_ctr:	<stdin>
@blk_run_queue	<stdin>
@blk_run_queue.	<stdin>
@blk_run_queue.	<stdin>
@blkcg	<stdin>
@blkcg	<stdin>
@blkcg	<stdin>
@blkcg:	<stdin>
@blkcg:	<stdin>
@blkcg:	<stdin>
@blkcg:	<stdin>
@blkg	<stdin>
@blkg	<stdin>
@blkg	<stdin>
@blkg	<stdin>
@blkg	<stdin>
@blkg	<stdin>
@blkg	<stdin>
@blkg-@pol	<stdin>
@blkg:	<stdin>
@blkg:	<stdin>
@blkg:	<stdin>
@blkg:	<stdin>
@blkg:	<stdin>
@block:	<stdin>
@block:	<stdin>
@bqt	<stdin>
@bqt.	<stdin>
@bqt:	<stdin>
@bqt:	<stdin>
@bs:	<stdin>
@buf	<stdin>
@buf.	<stdin>
@buf:	<stdin>
@buf:	<stdin>
@buf:	<stdin>
@buf:	<stdin>
@buffer	<stdin>
@buffer	<stdin>
@buffer.	<stdin>
@buffer:	<stdin>
@buffer:	<stdin>
@buffer:	<stdin>
@buffer:	<stdin>
@buffer:	<stdin>
@buffer:	<stdin>
@buffer:	<stdin>
@buffer:	<stdin>
@buffer:	<stdin>
@buflen:	<stdin>
@buflen:	<stdin>
@buflen:	<stdin>
@buflen:	<stdin>
@buflen:	<stdin>
@buflen:	<stdin>
@buflen:	<stdin>
@buflen:	<stdin>
@buflen:	<stdin>
@buflen:	<stdin>
@bus	<stdin>
@bus.	<stdin>
@bus:	<stdin>
@bus:	<stdin>
@bus:	<stdin>
@bus:	<stdin>
@cfqg:	<stdin>
@cgroup	<stdin>
@cgroup.	<stdin>
@cgroup:	<stdin>
@checksum:	<stdin>
@children:	<stdin>
@chip:	<stdin>
@clr:	<stdin>
@clr:	<stdin>
@count	<stdin>
@count:	<stdin>
@count:	<stdin>
@count:	<stdin>
@count:	<stdin>
@count:	<stdin>
@count:	<stdin>
@counts:	<stdin>
@cp:	<stdin>
@cp:	<stdin>
@cp:	<stdin>
@cp:	<stdin>
@cpu	<stdin>
@cpu	<stdin>
@cpu:	<stdin>
@cpu:	<stdin>
@cpu:	<stdin>
@cpu:	<stdin>
@cpu:	<stdin>
@cpu:	<stdin>
@cpu:	<stdin>
@cpu:	<stdin>
@cputime:	<stdin>
@cputime:	<stdin>
@cputime:	<stdin>
@cputime:	<stdin>
@cputime:	<stdin>
@cputime:	<stdin>
@cputime:	<stdin>
@cputime:	<stdin>
@cputime_scaled:	<stdin>
@cputime_scaled:	<stdin>
@cputime_scaled:	<stdin>
@cputime_scaled:	<stdin>
@ctr_mask:	<stdin>
@ctr_type:	<stdin>
@ctx	<stdin>
@ctx->blkg	<stdin>
@ctx->v	<stdin>
@ctx:	<stdin>
@ctx:	<stdin>
@d:	<stdin>
@d:	<stdin>
@d:	<stdin>
@d:	<stdin>
@d:	<stdin>
@d:	<stdin>
@d:	<stdin>
@d:	<stdin>
@d:	<stdin>
@d:	<stdin>
@d:	<stdin>
@data	<stdin>
@data	<stdin>
@data	<stdin>
@data.	<stdin>
@data:	<stdin>
@data:	<stdin>
@data:	<stdin>
@data:	<stdin>
@data:	<stdin>
@data:	<stdin>
@data:	<stdin>
@data:	<stdin>
@data:	<stdin>
@data:	<stdin>
@data:	<stdin>
@data_ptr:	<stdin>
@dd_job_size:	<stdin>
@dead	<stdin>
@dentry:	<stdin>
@depth:	<stdin>
@depth:	<stdin>
@desc:	<stdin>
@desc:	<stdin>
@desc:	<stdin>
@desc:	<stdin>
@desc:	<stdin>
@desc:	<stdin>
@desc:	<stdin>
@desc:	<stdin>
@desc:	<stdin>
@dest	<stdin>
@dest	<stdin>
@dest.	<stdin>
@dest:	<stdin>
@dest:	<stdin>
@detect_deadlock:	<stdin>
@detect_deadlock:	<stdin>
@detect_deadlock:	<stdin>
@detect_deadlock:	<stdin>
@dev	<stdin>
@dev	<stdin>
@dev:	<stdin>
@dev:	<stdin>
@dev:	<stdin>
@dev:	<stdin>
@dev:	<stdin>
@dev_id:	<stdin>
@dev_id:	<stdin>
@dev_id:	<stdin>
@dev_id:	<stdin>
@dev_id:	<stdin>
@dev_id:	<stdin>
@dev_id:	<stdin>
@devname:	<stdin>
@devname:	<stdin>
@devname:	<stdin>
@devt	<stdin>
@devt.	<stdin>
@devt:	<stdin>
@devt:	<stdin>
@devt:	<stdin>
@disk	<stdin>
@disk	<stdin>
@disk	<stdin>
@disk	<stdin>
@disk	<stdin>
@disk,	<stdin>
@disk->ev.	<stdin>
@disk->events	<stdin>
@disk.	<stdin>
@disk.	<stdin>
@disk.	<stdin>
@disk:	<stdin>
@disk:	<stdin>
@disk:	<stdin>
@disk:	<stdin>
@disk:	<stdin>
@disk:	<stdin>
@disk:	<stdin>
@disk:	<stdin>
@disk:	<stdin>
@disk:	<stdin>
@disk:	<stdin>
@disk:	<stdin>
@disk:	<stdin>
@disk:	<stdin>
@disk:	<stdin>
@dma_drain_needed:	<stdin>
@dma_mask.	<stdin>
@dma_mask:	<stdin>
@domain:	<stdin>
@domain:	<stdin>
@domain:	<stdin>
@domain:	<stdin>
@domain:	<stdin>
@domain:	<stdin>
@domain:	<stdin>
@done	<stdin>
@done:	<stdin>
@down	<stdin>
@down	<stdin>
@drain_all	<stdin>
@drain_all:	<stdin>
@dtpmod(sym+add),	<stdin>
@dtpmod(sym+add),	<stdin>
@dtprel(sym+add),	<stdin>
@dtprel(sym+add),	<stdin>
@dtprel(sym+add),	<stdin>
@dtprel(sym+add),	<stdin>
@dtprel(sym+add),	<stdin>
@dtprel(sym+add),	<stdin>
@dtprel(sym+add),	<stdin>
@end:	<stdin>
@end:	<stdin>
@entry:	<stdin>
@env:	<stdin>
@env:	<stdin>
@env:	<stdin>
@env:	<stdin>
@env:	<stdin>
@env:	<stdin>
@env:	<stdin>
@error:	<stdin>
@error:	<stdin>
@error:	<stdin>
@error:	<stdin>
@error:	<stdin>
@error:	<stdin>
@error:	<stdin>
@error:	<stdin>
@error:	<stdin>
@error:	<stdin>
@error:	<stdin>
@error:	<stdin>
@error:	<stdin>
@error_sector:	<stdin>
@f	<stdin>
@f:	<stdin>
@fail_fn:	<stdin>
@fail_fn:	<stdin>
@fail_fn:	<stdin>
@fail_fn:	<stdin>
@file	<stdin>
@file:	<stdin>
@filename:	<stdin>
@filter:	<stdin>
@filter:	<stdin>
@first_hwirq:	<stdin>
@first_irq:	<stdin>
@first_irq:	<stdin>
@fitentry:	<stdin>
@flag:	<stdin>
@flags:	<stdin>
@flags:	<stdin>
@flags:	<stdin>
@flags:	<stdin>
@flen:	<stdin>
@flush:	<stdin>
@fprog:	<stdin>
@fptr(sym+add),	<stdin>
@fptr(sym+add),	<stdin>
@fptr(sym+add),	<stdin>
@fptr(sym+add),	<stdin>
@fptr(sym+add),	<stdin>
@frac_bits:	<stdin>
@frags:	<stdin>
@frags:	<stdin>
@function:	<stdin>
@functions:	<stdin>
@gc:	<stdin>
@gc:	<stdin>
@gd1:	<stdin>
@gd2:	<stdin>
@gfp_flags	<stdin>
@gfp_flags:	<stdin>
@gfp_mask,	<stdin>
@gfp_mask.	<stdin>
@gfp_mask:	<stdin>
@gfp_mask:	<stdin>
@gfp_mask:	<stdin>
@gfp_mask:	<stdin>
@gfp_mask:	<stdin>
@gfp_mask:	<stdin>
@gfp_mask:	<stdin>
@gfp_mask:	<stdin>
@gfp_mask:	<stdin>
@gfp_mask:	<stdin>
@gfp_mask:	<stdin>
@gfp_mask:	<stdin>
@gfp_mask:	<stdin>
@gfp_mask:	<stdin>
@gfp_mask:	<stdin>
@gprel(sym+add),	<stdin>
@gprel(sym+add),	<stdin>
@gprel(sym+add),	<stdin>
@gprel(sym+add),	<stdin>
@gprel(sym+add),	<stdin>
@gprel(sym+add),	<stdin>
@gpt	<stdin>
@gpt	<stdin>
@gpt	<stdin>
@gpt.	<stdin>
@group:	<stdin>
@handler	<stdin>
@handler	<stdin>
@handler	<stdin>
@handler	<stdin>
@handler:	<stdin>
@handler:	<stdin>
@handler:	<stdin>
@handler:	<stdin>
@handler:	<stdin>
@hardirq_offset:	<stdin>
@hd,	<stdin>
@hd.	<stdin>
@host_data:	<stdin>
@host_data:	<stdin>
@host_data:	<stdin>
@host_data:	<stdin>
@hwirq:	<stdin>
@hwirq:	<stdin>
@hwirq:	<stdin>
@hwirq_base:	<stdin>
@icq	<stdin>
@icq	<stdin>
@icq	<stdin>
@icq->q	<stdin>
@icq.	<stdin>
@ident:	<stdin>
@idle:	<stdin>
@idle:	<stdin>
@increment:	<stdin>
@index:	<stdin>
@index:	<stdin>
@info1:	<stdin>
@info2:	<stdin>
@info:	<stdin>
@info:	<stdin>
@info:	<stdin>
@info:	<stdin>
@info:	<stdin>
@input	<stdin>
@input:	<stdin>
@insns:	<stdin>
@interval:	<stdin>
@ioc	<stdin>
@ioc	<stdin>
@ioc	<stdin>
@ioc	<stdin>
@ioc	<stdin>
@ioc	<stdin>
@ioc.	<stdin>
@ioc.	<stdin>
@ioc:	<stdin>
@ioc:	<stdin>
@ioc:	<stdin>
@ioc:	<stdin>
@ioc:	<stdin>
@iop	<stdin>
@iop	<stdin>
@iop	<stdin>
@iop	<stdin>
@iop	<stdin>
@iop.	<stdin>
@iop:	<stdin>
@iop:	<stdin>
@iop:	<stdin>
@iop:	<stdin>
@iop:	<stdin>
@iop:	<stdin>
@iov:	<stdin>
@iov_count:	<stdin>
@irq:	<stdin>
@irq:	<stdin>
@irq:	<stdin>
@irq:	<stdin>
@irq:	<stdin>
@irq:	<stdin>
@irq:	<stdin>
@irq:	<stdin>
@irq:	<stdin>
@irq:	<stdin>
@irq:	<stdin>
@irq:	<stdin>
@irq:	<stdin>
@irq:	<stdin>
@irq:	<stdin>
@irq:	<stdin>
@irq:	<stdin>
@irq:	<stdin>
@irq:	<stdin>
@irq:	<stdin>
@irq:	<stdin>
@irq:	<stdin>
@irq:	<stdin>
@irq:	<stdin>
@irq:	<stdin>
@irq:	<stdin>
@irq:	<stdin>
@irq:	<stdin>
@irq:	<stdin>
@irq:	<stdin>
@irq:	<stdin>
@irq:	<stdin>
@irq:	<stdin>
@irq_base:	<stdin>
@irq_base:	<stdin>
@irqflags:	<stdin>
@irqflags:	<stdin>
@iter:	<stdin>
@iter:	<stdin>
@iter:	<stdin>
@iter:	<stdin>
@iter:	<stdin>
@job:	<stdin>
@job:	<stdin>
@job_fn:	<stdin>
@kbuf:	<stdin>
@key:	<stdin>
@key:	<stdin>
@kobj:	<stdin>
@kparam:	<stdin>
@kparam:	<stdin>
@lastlba	<stdin>
@lastlba	<stdin>
@lba	<stdin>
@lba	<stdin>
@lba	<stdin>
@ldb	<stdin>
@ldb	<stdin>
@ldb	<stdin>
@ldb.	<stdin>
@ldb:	<stdin>
@ldb:	<stdin>
@ldb:	<stdin>
@ldb:	<stdin>
@ldb:	<stdin>
@ldb:	<stdin>
@ldb:	<stdin>
@len	<stdin>
@len:	<stdin>
@len:	<stdin>
@len:	<stdin>
@len:	<stdin>
@len:	<stdin>
@len:	<stdin>
@len:	<stdin>
@len:	<stdin>
@len:	<stdin>
@lh:	<stdin>
@lim:	<stdin>
@lim:	<stdin>
@limits:	<stdin>
@limits:	<stdin>
@limits:	<stdin>
@links:	<stdin>
@list:	<stdin>
@list:	<stdin>
@load_idx:	<stdin>
@loaded_info:	<stdin>
@loads:	<stdin>
@local_group:	<stdin>
@lock:	<stdin>
@lock:	<stdin>
@lock:	<stdin>
@lock:	<stdin>
@lock:	<stdin>
@lock:	<stdin>
@lock:	<stdin>
@lock:	<stdin>
@lock:	<stdin>
@lock:	<stdin>
@lock:	<stdin>
@lock:	<stdin>
@lock:	<stdin>
@lock:	<stdin>
@lock:	<stdin>
@lock:	<stdin>
@lowest_mask:	<stdin>
@ltoff(@dtpmod(s+a)),	<stdin>
@ltoff(@dtprel(s+a)),	<stdin>
@ltoff(@fptr(s+a)),	<stdin>
@ltoff(@fptr(s+a)),	<stdin>
@ltoff(@fptr(s+a)),	<stdin>
@ltoff(@fptr(s+a)),	<stdin>
@ltoff(@fptr(s+a)),	<stdin>
@ltoff(@fptr(s+a)),	<stdin>
@ltoff(@tprel(s+a)),	<stdin>
@ltoff(sym+add),	<stdin>
@ltoff(sym+add),	<stdin>
@major	<stdin>
@major:	<stdin>
@major=0	<stdin>
@major=0,	<stdin>
@map_data:	<stdin>
@map_data:	<stdin>
@mask	<stdin>
@mask	<stdin>
@mask	<stdin>
@mask:	<stdin>
@mask:	<stdin>
@mask:	<stdin>
@mask:	<stdin>
@mask:	<stdin>
@mask:	<stdin>
@mask:	<stdin>
@mask:	<stdin>
@match_state	<stdin>
@max_discard_sectors:	<stdin>
@max_hw_sectors:	<stdin>
@max_hw_sectors:	<stdin>
@max_segments:	<stdin>
@max_size:	<stdin>
@max_write_same_sectors:	<stdin>
@mbfn:	<stdin>
@mbr:	<stdin>
@merge:	<stdin>
@mfn:	<stdin>
@min:	<stdin>
@min:	<stdin>
@minor	<stdin>
@minor:	<stdin>
@mk:	<stdin>
@mod:	<stdin>
@mod:	<stdin>
@mode:	<stdin>
@mode:	<stdin>
@msecs:	<stdin>
@msk:	<stdin>
@msk:	<stdin>
@n:	<stdin>
@n_ctrs:	<stdin>
@n_functions:	<stdin>
@name	<stdin>
@name:	<stdin>
@name:	<stdin>
@name:	<stdin>
@name:	<stdin>
@name:	<stdin>
@name:	<stdin>
@name:	<stdin>
@name:	<stdin>
@name:	<stdin>
@name:	<stdin>
@nasid:	<stdin>
@new_blkg	<stdin>
@new_blkg	<stdin>
@new_depth:	<stdin>
@new_ptbl	<stdin>
@new_ptbl:	<stdin>
@newpri:	<stdin>
@next,	<stdin>
@next:	<stdin>
@next:	<stdin>
@nice:	<stdin>
@node.	<stdin>
@node.	<stdin>
@node:	<stdin>
@node:	<stdin>
@node:	<stdin>
@notifier:	<stdin>
@notifier:	<stdin>
@notify:	<stdin>
@now	<stdin>
@nr	<stdin>
@nr	<stdin>
@nr:	<stdin>
@nr:	<stdin>
@nr:	<stdin>
@nr:	<stdin>
@nr:	<stdin>
@nr:	<stdin>
@nr:	<stdin>
@nr:	<stdin>
@nr:	<stdin>
@nr:	<stdin>
@nr:	<stdin>
@nr:	<stdin>
@nr:	<stdin>
@nr:	<stdin>
@nr:	<stdin>
@nr_bytes	<stdin>
@nr_bytes:	<stdin>
@nr_bytes:	<stdin>
@nr_bytes:	<stdin>
@nr_bytes:	<stdin>
@nr_bytes:	<stdin>
@nr_exclusive:	<stdin>
@nr_exclusive:	<stdin>
@nr_sects:	<stdin>
@nr_sects:	<stdin>
@nr_sects:	<stdin>
@nr_sects:	<stdin>
@ns:	<stdin>
@num:	<stdin>
@num_ct:	<stdin>
@num_loaded:	<stdin>
@num_params:	<stdin>
@num_types:	<stdin>
@of_node:	<stdin>
@of_node:	<stdin>
@of_node:	<stdin>
@of_node:	<stdin>
@of_node:	<stdin>
@off	<stdin>
@off:	<stdin>
@off:	<stdin>
@off:	<stdin>
@offset:	<stdin>
@offset:	<stdin>
@offset:	<stdin>
@offset:	<stdin>
@offset:	<stdin>
@on:	<stdin>
@ops:	<stdin>
@ops:	<stdin>
@ops:	<stdin>
@ops:	<stdin>
@ops:	<stdin>
@opt:	<stdin>
@opt:	<stdin>
@p	<stdin>
@p	<stdin>
@p	<stdin>
@p	<stdin>
@p	<stdin>
@p	<stdin>
@p	<stdin>
@p	<stdin>
@p	<stdin>
@p	<stdin>
@p	<stdin>
@p	<stdin>
@p	<stdin>
@p	<stdin>
@p	<stdin>
@p	<stdin>
@p	<stdin>
@p	<stdin>
@p	<stdin>
@p	<stdin>
@p's	<stdin>
@p's	<stdin>
@p's	<stdin>
@p->sighand->siglock.	<stdin>
@p->state	<stdin>
@p:	<stdin>
@p:	<stdin>
@p:	<stdin>
@p:	<stdin>
@p:	<stdin>
@p:	<stdin>
@p:	<stdin>
@p:	<stdin>
@p:	<stdin>
@p:	<stdin>
@p:	<stdin>
@p:	<stdin>
@p:	<stdin>
@p:	<stdin>
@p:	<stdin>
@p:	<stdin>
@p:	<stdin>
@p:	<stdin>
@p:	<stdin>
@p:	<stdin>
@p:	<stdin>
@p:	<stdin>
@p:	<stdin>
@p:	<stdin>
@paddr:	<stdin>
@page:	<stdin>
@page:	<stdin>
@page_addr:	<stdin>
@param:	<stdin>
@param:	<stdin>
@param:	<stdin>
@param:	<stdin>
@param:	<stdin>
@parent.	<stdin>
@parent:	<stdin>
@part:	<stdin>
@part:	<stdin>
@partno	<stdin>
@partno	<stdin>
@partno	<stdin>
@partno:	<stdin>
@partno:	<stdin>
@partno:	<stdin>
@partno:	<stdin>
@pause\n"	<stdin>
@pause\n"	<stdin>
@pcrel(sym+add),	<stdin>
@pcrel(sym+add),	<stdin>
@pcrel(sym+add),	<stdin>
@pcrel(sym+add),	<stdin>
@pcrel(sym+add),	<stdin>
@pcrel(sym+add),	<stdin>
@pcrel(sym+add),	<stdin>
@pcrel(sym+add),	<stdin>
@pcrel(sym+add),	<stdin>
@pcrel(sym+add),	<stdin>
@pcrel(sym+add),	<stdin>
@pd	<stdin>
@pd	<stdin>
@pd	<stdin>
@pd	<stdin>
@pd	<stdin>
@pd.	<stdin>
@pd.	<stdin>
@pd:	<stdin>
@pd:	<stdin>
@pd:	<stdin>
@pd:	<stdin>
@pd:	<stdin>
@pfn:	<stdin>
@pgpt	<stdin>
@ph	<stdin>
@ph	<stdin>
@ph	<stdin>
@ph1	<stdin>
@ph1:	<stdin>
@ph1:	<stdin>
@ph2.	<stdin>
@ph2:	<stdin>
@ph:	<stdin>
@pid:	<stdin>
@pid:	<stdin>
@pid:	<stdin>
@pid:	<stdin>
@pid:	<stdin>
@pid:	<stdin>
@pid:	<stdin>
@pid:	<stdin>
@piter	<stdin>
@piter	<stdin>
@piter.	<stdin>
@piter:	<stdin>
@piter:	<stdin>
@piter:	<stdin>
@pltoff(sym+add),	<stdin>
@pltoff(sym+add),	<stdin>
@pltoff(sym+add),	<stdin>
@pltoff(sym+add),	<stdin>
@plug:	<stdin>
@pol	<stdin>
@pol	<stdin>
@pol	<stdin>
@pol	<stdin>
@pol	<stdin>
@pol.	<stdin>
@pol:	<stdin>
@pol:	<stdin>
@pol:	<stdin>
@pol:	<stdin>
@pol:	<stdin>
@pol:	<stdin>
@pol:	<stdin>
@policy	<stdin>
@policy:	<stdin>
@policy:	<stdin>
@policy:	<stdin>
@policy:	<stdin>
@policy:	<stdin>
@poll_fn:	<stdin>
@port	<stdin>
@port.	<stdin>
@port:	<stdin>
@port:	<stdin>
@pp:	<stdin>
@preempt:	<stdin>
@prev	<stdin>
@prev	<stdin>
@prev:	<stdin>
@prev:	<stdin>
@prev:	<stdin>
@prev:	<stdin>
@prfill	<stdin>
@prfill	<stdin>
@prfill	<stdin>
@prfill	<stdin>
@prfill:	<stdin>
@prio:	<stdin>
@probe:	<stdin>
@probe:	<stdin>
@probe:	<stdin>
@probe:	<stdin>
@proxy_owner:the	<stdin>
@pte	<stdin>
@ptes	<stdin>
@ptes	<stdin>
@ptrace,	<stdin>
@ptrace:	<stdin>
@ptrace:	<stdin>
@q	<stdin>
@q	<stdin>
@q	<stdin>
@q	<stdin>
@q	<stdin>
@q	<stdin>
@q	<stdin>
@q	<stdin>
@q	<stdin>
@q	<stdin>
@q	<stdin>
@q	<stdin>
@q	<stdin>
@q	<stdin>
@q	<stdin>
@q	<stdin>
@q	<stdin>
@q	<stdin>
@q	<stdin>
@q	<stdin>
@q	<stdin>
@q	<stdin>
@q	<stdin>
@q	<stdin>
@q	<stdin>
@q	<stdin>
@q	<stdin>
@q	<stdin>
@q	<stdin>
@q	<stdin>
@q	<stdin>
@q	<stdin>
@q	<stdin>
@q,	<stdin>
@q->blkg_list	<stdin>
@q->icq_list	<stdin>
@q->queue_lock	<stdin>
@q->queue_lock	<stdin>
@q->queue_lock	<stdin>
@q->queue_lock	<stdin>
@q->queue_lock	<stdin>
@q->queue_lock	<stdin>
@q->queue_lock	<stdin>
@q->queue_lock.	<stdin>
@q->root_rl	<stdin>
@q->root_rl	<stdin>
@q->root_rl,	<stdin>
@q.	<stdin>
@q.	<stdin>
@q.	<stdin>
@q.	<stdin>
@q.	<stdin>
@q.	<stdin>
@q.	<stdin>
@q.	<stdin>
@q.	<stdin>
@q.	<stdin>
@q.	<stdin>
@q.	<stdin>
@q.	<stdin>
@q:	<stdin>
@q:	<stdin>
@q:	<stdin>
@q:	<stdin>
@q:	<stdin>
@q:	<stdin>
@q:	<stdin>
@q:	<stdin>
@q:	<stdin>
@q:	<stdin>
@q:	<stdin>
@q:	<stdin>
@q:	<stdin>
@q:	<stdin>
@q:	<stdin>
@q:	<stdin>
@q:	<stdin>
@q:	<stdin>
@q:	<stdin>
@q:	<stdin>
@q:	<stdin>
@q:	<stdin>
@q:	<stdin>
@q:	<stdin>
@q:	<stdin>
@q:	<stdin>
@q:	<stdin>
@q:	<stdin>
@q:	<stdin>
@q:	<stdin>
@q:	<stdin>
@q:	<stdin>
@q:	<stdin>
@q:	<stdin>
@q:	<stdin>
@q:	<stdin>
@q:	<stdin>
@q:	<stdin>
@q:	<stdin>
@q:	<stdin>
@q:	<stdin>
@q:	<stdin>
@q:	<stdin>
@q:	<stdin>
@q:	<stdin>
@q:	<stdin>
@q:	<stdin>
@q:	<stdin>
@q:	<stdin>
@q:	<stdin>
@q:	<stdin>
@q:	<stdin>
@q:	<stdin>
@q:	<stdin>
@q:	<stdin>
@q:	<stdin>
@q:	<stdin>
@q:	<stdin>
@q:	<stdin>
@q:	<stdin>
@q:	<stdin>
@q:	<stdin>
@q:	<stdin>
@q:	<stdin>
@q:	<stdin>
@q:	<stdin>
@q:	<stdin>
@q:	<stdin>
@q:	<stdin>
@q:	<stdin>
@q:	<stdin>
@q:	<stdin>
@q:	<stdin>
@q:	<stdin>
@q:	<stdin>
@q:	<stdin>
@q:	<stdin>
@q:	<stdin>
@reason:	<stdin>
@record:	<stdin>
@reg_base:	<stdin>
@reply_payload_rcv_len:	<stdin>
@req	<stdin>
@req	<stdin>
@req	<stdin>
@req	<stdin>
@req,	<stdin>
@req:	<stdin>
@req:	<stdin>
@req:	<stdin>
@req:	<stdin>
@req:	<stdin>
@req:	<stdin>
@req:	<stdin>
@req:	<stdin>
@request_count:	<stdin>
@result:	<stdin>
@revmap_type:	<stdin>
@rfn	<stdin>
@rfn	<stdin>
@rfn	<stdin>
@rfn:	<stdin>
@rl	<stdin>
@rl	<stdin>
@rl:	<stdin>
@rl:	<stdin>
@rl:	<stdin>
@rq	<stdin>
@rq	<stdin>
@rq	<stdin>
@rq	<stdin>
@rq	<stdin>
@rq	<stdin>
@rq	<stdin>
@rq	<stdin>
@rq	<stdin>
@rq	<stdin>
@rq	<stdin>
@rq	<stdin>
@rq	<stdin>
@rq	<stdin>
@rq	<stdin>
@rq	<stdin>
@rq	<stdin>
@rq	<stdin>
@rq	<stdin>
@rq	<stdin>
@rq	<stdin>
@rq	<stdin>
@rq	<stdin>
@rq	<stdin>
@rq,	<stdin>
@rq->bio	<stdin>
@rq->bio.	<stdin>
@rq->biotail	<stdin>
@rq->elv.icq	<stdin>
@rq->next_rq	<stdin>
@rq->next_rq	<stdin>
@rq->next_rq.	<stdin>
@rq.	<stdin>
@rq.	<stdin>
@rq.	<stdin>
@rq.	<stdin>
@rq.	<stdin>
@rq.	<stdin>
@rq.	<stdin>
@rq.	<stdin>
@rq:	<stdin>
@rq:	<stdin>
@rq:	<stdin>
@rq:	<stdin>
@rq:	<stdin>
@rq:	<stdin>
@rq:	<stdin>
@rq:	<stdin>
@rq:	<stdin>
@rq:	<stdin>
@rq:	<stdin>
@rq:	<stdin>
@rq:	<stdin>
@rq:	<stdin>
@rq:	<stdin>
@rq:	<stdin>
@rq:	<stdin>
@rq:	<stdin>
@rq:	<stdin>
@rq:	<stdin>
@rq:	<stdin>
@rq:	<stdin>
@rq:	<stdin>
@rq:	<stdin>
@rq:	<stdin>
@rq:	<stdin>
@rq:	<stdin>
@rq:	<stdin>
@rq:	<stdin>
@rq:	<stdin>
@rq:	<stdin>
@rq:	<stdin>
@rq:	<stdin>
@rq:	<stdin>
@rq:	<stdin>
@rq_src	<stdin>
@rq_src	<stdin>
@rq_src	<stdin>
@rq_src.	<stdin>
@rq_src:	<stdin>
@rw.	<stdin>
@rw:	<stdin>
@rw:	<stdin>
@rw_flags	<stdin>
@rw_flags:	<stdin>
@rw_flags:	<stdin>
@rwstat	<stdin>
@rwstat	<stdin>
@rwstat	<stdin>
@rwstat.	<stdin>
@rwstat:	<stdin>
@rwstat:	<stdin>
@rwstat:	<stdin>
@rwstat:	<stdin>
@rwstat:	<stdin>
@scan_delay	<stdin>
@scan_period	<stdin>
@scan_size	<stdin>
@sd:	<stdin>
@sds:	<stdin>
@sds:	<stdin>
@sds:	<stdin>
@sds:	<stdin>
@sds:	<stdin>
@seccomp_mode	<stdin>
@seccomp_mode:	<stdin>
@secrel(sym+add),	<stdin>
@secrel(sym+add),	<stdin>
@secrel(sym+add),	<stdin>
@secrel(sym+add),	<stdin>
@sector	<stdin>
@sector:	<stdin>
@sector:	<stdin>
@sector:	<stdin>
@sector:	<stdin>
@sector:	<stdin>
@segrel(sym+add),	<stdin>
@segrel(sym+add),	<stdin>
@segrel(sym+add),	<stdin>
@segrel(sym+add),	<stdin>
@seq	<stdin>
@seq:	<stdin>
@seq:	<stdin>
@seq:	<stdin>
@seq:	<stdin>
@set:	<stdin>
@set:	<stdin>
@sf	<stdin>
@sf	<stdin>
@sf,	<stdin>
@sf:	<stdin>
@sf:	<stdin>
@sf:	<stdin>
@sf:	<stdin>
@sf:	<stdin>
@sg	<stdin>
@sg:	<stdin>
@sglist:	<stdin>
@sglist:	<stdin>
@sgs:	<stdin>
@sgs:	<stdin>
@shift:	<stdin>
@show_total	<stdin>
@show_total:	<stdin>
@sic	<stdin>
@sic:	<stdin>
@size	<stdin>
@size	<stdin>
@size:	<stdin>
@size:	<stdin>
@size:	<stdin>
@size:	<stdin>
@size:	<stdin>
@size:	<stdin>
@size:	<stdin>
@size:	<stdin>
@size:	<stdin>
@size:	<stdin>
@size_t	<stdin>
@source	<stdin>
@source:	<stdin>
@src:	<stdin>
@src:	<stdin>
@stamp:	<stdin>
@start:	<stdin>
@start:	<stdin>
@stat.	<stdin>
@stat.	<stdin>
@stat:	<stdin>
@stat:	<stdin>
@stat:	<stdin>
@state	<stdin>
@state	<stdin>
@state	<stdin>
@state	<stdin>
@state	<stdin>
@state	<stdin>
@state	<stdin>
@state->bdev	<stdin>
@state->bdev	<stdin>
@state->bdev	<stdin>
@state->bdev	<stdin>
@state->bdev	<stdin>
@state->bdev	<stdin>
@state->bdev	<stdin>
@state->bdev,	<stdin>
@state->bdev,	<stdin>
@state->bdev.	<stdin>
@state:	<stdin>
@state:	<stdin>
@state:	<stdin>
@state:	<stdin>
@state:	<stdin>
@state:	<stdin>
@state:	<stdin>
@state:	<stdin>
@syscall	<stdin>
@syscall:	<stdin>
@syscall:	<stdin>
@t:	<stdin>
@t:	<stdin>
@t:	<stdin>
@tag:	<stdin>
@tags:	<stdin>
@target_cputime64:	<stdin>
@task,	<stdin>
@task.	<stdin>
@task:	<stdin>
@task:	<stdin>
@task:	<stdin>
@template:	<stdin>
@tg	<stdin>
@tg	<stdin>
@tg	<stdin>
@thread_fn.	<stdin>
@thread_fn.	<stdin>
@thread_fn:	<stdin>
@thread_fn:	<stdin>
@ticks:	<stdin>
@ticks:	<stdin>
@timeout:	<stdin>
@timeout:	<stdin>
@timeout:	<stdin>
@timeout:	<stdin>
@timeout:	<stdin>
@tioca_kernel:	<stdin>
@to:	<stdin>
@toc	<stdin>
@toc	<stdin>
@toc	<stdin>
@toc	<stdin>
@toc1	<stdin>
@toc1	<stdin>
@toc1	<stdin>
@toc1.	<stdin>
@toc1:	<stdin>
@toc2.	<stdin>
@toc2:	<stdin>
@toc:	<stdin>
@tprel(sym+add),	<stdin>
@tprel(sym+add),	<stdin>
@tprel(sym+add),	<stdin>
@tprel(sym+add),	<stdin>
@tprel(sym+add),	<stdin>
@tracepoint:	<stdin>
@tsk	<stdin>
@tsk's	<stdin>
@tsk.	<stdin>
@tsk:	<stdin>
@tsk:	<stdin>
@tsk:	<stdin>
@type	<stdin>
@type:	<stdin>
@type:	<stdin>
@type_info:	<stdin>
@ubuf:	<stdin>
@ufn:	<stdin>
@unloaded_info:	<stdin>
@up	<stdin>
@up	<stdin>
@usage).	<stdin>
@usage:	<stdin>
@user_filter:	<stdin>
@user_mask_ptr:	<stdin>
@user_mask_ptr:	<stdin>
@user_tick:	<stdin>
@user_tick:	<stdin>
@uuid	<stdin>
@uuid:	<stdin>
@v	<stdin>
@v:	<stdin>
@v:	<stdin>
@v:	<stdin>
@val	<stdin>
@val	<stdin>
@val	<stdin>
@val	<stdin>
@val.	<stdin>
@val:	<stdin>
@val:	<stdin>
@val:	<stdin>
@val:	<stdin>
@val:	<stdin>
@val:	<stdin>
@values:	<stdin>
@vb	<stdin>
@vb	<stdin>
@vb	<stdin>
@vb	<stdin>
@vb	<stdin>
@vb	<stdin>
@vb	<stdin>
@vb	<stdin>
@vb	<stdin>
@vb	<stdin>
@vb	<stdin>
@vb	<stdin>
@vb	<stdin>
@vb	<stdin>
@vb	<stdin>
@vb	<stdin>
@vb:	<stdin>
@vb:	<stdin>
@vb:	<stdin>
@vb:	<stdin>
@vb:	<stdin>
@vb:	<stdin>
@vb:	<stdin>
@vb:	<stdin>
@version:	<stdin>
@virq:	<stdin>
@vm	<stdin>
@vm	<stdin>
@vm	<stdin>
@vm:	<stdin>
@vma:	<stdin>
@waiter:	<stdin>
@waiter:	<stdin>
@waiter:	<stdin>
@waiter:	<stdin>
@wake_flags:	<stdin>
@weight:	<stdin>
@wg	<stdin>
@wg	<stdin>
@wl	<stdin>
@wl	<stdin>
@wl	<stdin>
@wl	<stdin>
@wl	<stdin>
@wl)	<stdin>
@wo:	<stdin>
@x	<stdin>
@x	<stdin>
@x:	<stdin>
@x:	<stdin>
@x:	<stdin>
@x:	<stdin>
@x:	<stdin>
@x:	<stdin>
@x:	<stdin>
@x:	<stdin>
@x:	<stdin>
@x:	<stdin>
@x:	<stdin>
@x:	<stdin>
@x:	<stdin>
blkcg_policy_register(@pol).	<stdin>
dan.magenheimer@hp.com	<stdin>
ian.pratt@cl.cam.ac.uk	<stdin>
james@bpgc.com:	<stdin>
lankeste@fwi.uva.nl,	<stdin>
michael.fetterman@cl.cam.ac.uk	<stdin>
