"@find=no"	<stdin>
"@find=yes"	<stdin>
&@ops	<stdin>
(@ida)	<stdin>
(@idp)	<stdin>
(@lc	<stdin>
(@lc	<stdin>
(@order)	<stdin>
(@ssid,	<stdin>
(@ssid,	<stdin>
(@ssid,	<stdin>
(@ssid,	<stdin>
(@ssid,	<stdin>
(@ssid,	<stdin>
(@ssid,	<stdin>
(@ssid,	<stdin>
(abbas.mohamed@intel.com)	<stdin>
(alain@knaff.lu)	<stdin>
(dhowells@redhat.com)	<stdin>
(dhowells@redhat.com)	<stdin>
(dhowells@redhat.com)	<stdin>
(dhowells@redhat.com)	<stdin>
(dhowells@redhat.com)	<stdin>
(dhowells@redhat.com)	<stdin>
(dhowells@redhat.com)	<stdin>
(dhowells@redhat.com)	<stdin>
(dhowells@redhat.com)	<stdin>
(dhowells@redhat.com)	<stdin>
(dhowells@redhat.com)	<stdin>
(dhowells@redhat.com)	<stdin>
(dhowells@redhat.com)	<stdin>
(dhowells@redhat.com)	<stdin>
(dhowells@redhat.com)	<stdin>
(dhowells@redhat.com)	<stdin>
(dhowells@redhat.com)	<stdin>
(dhowells@redhat.com)	<stdin>
(dhowells@redhat.com).	<stdin>
(dhowells@redhat.com).	<stdin>
(golbi@mat.uni.torun.pl)	<stdin>
(jseward@acm.org),	<stdin>
(ltcgcw@us.ibm.com)	<stdin>
(manfred@colorfullife.com)	<stdin>
(michal.wronski@gmail.com)	<stdin>
(mjn3@codepoet.org).	<stdin>
(rob@landley.net).	<stdin>
(tglx@linutronix.de)	<stdin>
(tglx@linutronix.de)	<stdin>
(tglx@linutronix.de)	<stdin>
*@Article{castagnoli-crc,	<stdin>
*@callno	<stdin>
*@callno	<stdin>
*@callno	<stdin>
*@callno	<stdin>
*@nel	<stdin>
*@nextidp	<stdin>
*@results	<stdin>
*@results	<stdin>
*@results	<stdin>
*@results	<stdin>
*@results.	<stdin>
*@results.	<stdin>
*@results.	<stdin>
*@results.	<stdin>
*@sids	<stdin>
<Asit.K.Mallick@intel.com>	<stdin>
<Matt_Domsch@dell.com>	<stdin>
<Matt_Domsch@dell.com>	<stdin>
<Matt_Domsch@dell.com>");	<stdin>
<agulbra@nvg.unit.no>	<stdin>
<akinobu.mita@gmail.com>");	<stdin>
<akinobu.mita@gmail.com>");	<stdin>
<akinobu.mita@gmail.com>");	<stdin>
<akinobu.mita@gmail.com>");	<stdin>
<akinobu.mita@gmail.com>");	<stdin>
<akinobu.mita@gmail.com>");	<stdin>
<albin.tonnerre@free-electrons.com>	<stdin>
<andrea@suse.de>	<stdin>
<andrea@suse.de>	<stdin>
<andrea@suse.de>	<stdin>
<aneesh@ti.com>	<stdin>
<arjanv@redhat.com>	<stdin>
<arnd@arndb.de>	<stdin>
<bernie@develer.com>	<stdin>
<chaapala@cisco.com>");	<stdin>
<cr@sap.com>	<stdin>
<cr@sap.com>	<stdin>
<crutcher+kernel@datastacks.com>	<stdin>
<csellers@tresys.com>	<stdin>
<cvance@nai.com>	<stdin>
<cvance@nai.com>	<stdin>
<dave@linux.vnet.ibm.com>	<stdin>
<davidm@hpl.hp.com>	<stdin>
<davidm@hpl.hp.com>	<stdin>
<dgoeddel@trustedcs.com>	<stdin>
<dgoeddel@trustedcs.com>	<stdin>
<dgoeddel@trustedcs.com>	<stdin>
<dgoeddel@trustedcs.com>	<stdin>
<dgoeddel@trustedcs.com>	<stdin>
<dgoeddel@trustedcs.com>	<stdin>
<dgoeddel@trustedcs.com>	<stdin>
<dgoeddel@trustedcs.com>	<stdin>
<dgoeddel@trustedcs.com>	<stdin>
<dgoeddel@trustedcs.com>	<stdin>
<dmitry.kasatkin@intel.com>	<stdin>
<dmitry.kasatkin@nokia.com>	<stdin>
<dragos@iname.com>	<stdin>
<dragos@iname.com>	<stdin>
<dustin.kirkland@us.ibm.com>	<stdin>
<dustin.kirkland@us.ibm.com>	<stdin>
<dwalker@mvista.com>	<stdin>
<dwmw2@infradead.org>	<stdin>
<eparis@redhat.com>	<stdin>
<etienne.basset@ensta.org>	<stdin>
<ftom@netcom.com>	<stdin>
<gnb@melbourne.sgi.com>	<stdin>
<goutham.rao@intel.com>	<stdin>
<greg@kroah.com>	<stdin>
<greg@kroah.com>	<stdin>
<guido@trentalancia.com>	<stdin>
<hannes@saeurebad.de>	<stdin>
<hidave.darkstar@gmail.com>	<stdin>
<htejun@gmail.com>	<stdin>
<inaky.perez-gonzalez@intel.com>.	<stdin>
<ioe@informatik.tu-chemnitz.de>	<stdin>
<ivan.djelic@parrot.com>	<stdin>
<ivan.djelic@parrot.com>");	<stdin>
<jack@suse.cz>	<stdin>
<jaegert@us.ibm.com>	<stdin>
<jaegert@us.ibm.com>	<stdin>
<james.t.kukunas@linux.intel.com>	<stdin>
<jason@topic.com.au>,	<stdin>
<jbaron@redhat.com>	<stdin>
<jean-luc.boyard@siemens.fr>	<stdin>
<jens.axboe@oracle.com>	<stdin>
<jeremy@goop.org>	<stdin>
<jes@trained-monkey.org>	<stdin>
<jmorris@redhat.com>	<stdin>
<jmorris@redhat.com>	<stdin>
<jmorris@redhat.com>	<stdin>
<jmorris@redhat.com>	<stdin>
<jmorris@redhat.com>	<stdin>
<jmorris@redhat.com>	<stdin>
<jmorris@redhat.com>	<stdin>
<jmorris@redhat.com>	<stdin>
<jmorris@redhat.com>	<stdin>
<jmorris@redhat.com>	<stdin>
<jmorris@redhat.com>	<stdin>
<jmorris@redhat.com>	<stdin>
<jmorris@redhat.com>	<stdin>
<jmorris@redhat.com>	<stdin>
<jmorris@redhat.com>	<stdin>
<jmorris@redhat.com>	<stdin>
<jmorris@redhat.com>	<stdin>
<jmorris@redhat.com>	<stdin>
<jmorris@redhat.com>	<stdin>
<jmorris@redhat.com>	<stdin>
<jmorris@redhat.com>	<stdin>
<jmorris@redhat.com>	<stdin>
<jmorris@redhat.com>	<stdin>
<jmorris@redhat.com>	<stdin>
<jmorris@redhat.com>	<stdin>
<jmorris@redhat.com>	<stdin>
<joerg.roedel@amd.com>	<stdin>
<joern@logfs.org>	<stdin>
<joern@logfs.org>");	<stdin>
<johannes@sipsolutions.net>");	<stdin>
<jorge@laser.satlink.net>	<stdin>
<kaigai@ak.jp.nec.com>	<stdin>
<kaigai@ak.jp.nec.com>	<stdin>
<kaigai@ak.jp.nec.com>	<stdin>
<kaigai@ak.jp.nec.com>	<stdin>
<kanoj@sgi.com>	<stdin>
<kay.sievers@vrfy.org>	<stdin>
<kmacmillan@tresys.com>	<stdin>
<kmacmillan@tresys.com>	<stdin>
<kmacmillan@tresys.com>	<stdin>
<kmacmillan@tresys.com>	<stdin>
<kmacmillan@tresys.com>	<stdin>
<kmacmillan@tresys.com>	<stdin>
<kmacmillan@tresys.com>	<stdin>
<kmacmillan@tresys.com>	<stdin>
<kmacmillan@tresys.com>	<stdin>
<kuznet@ms2.inr.ac.ru>	<stdin>
<lars.ellenberg@linbit.com>.	<stdin>
<lars@linbit.com>");	<stdin>
<lasse.collin@tukaani.org>	<stdin>
<lasse.collin@tukaani.org>	<stdin>
<lasse.collin@tukaani.org>	<stdin>
<lasse.collin@tukaani.org>	<stdin>
<lasse.collin@tukaani.org>	<stdin>
<lasse.collin@tukaani.org>	<stdin>
<lasse.collin@tukaani.org>	<stdin>
<lasse.collin@tukaani.org>	<stdin>
<lasse.collin@tukaani.org>	<stdin>
<lasse.collin@tukaani.org>	<stdin>
<lasse.collin@tukaani.org>	<stdin>
<lasse.collin@tukaani.org>");	<stdin>
<mahalcro@us.ibm.com>	<stdin>
<mahalcro@us.ibm.com>	<stdin>
<manfred@colorfullife.com>	<stdin>
<manfred@colorfullife.com>	<stdin>
<markus@oberhumer.com>	<stdin>
<markus@oberhumer.com>	<stdin>
<markus@oberhumer.com>	<stdin>
<markus@oberhumer.com>	<stdin>
<martin.petersen@oracle.com>	<stdin>
<matt@mh.dropbear.id.au>	<stdin>
<mayerf@tresys.com>	<stdin>
<mayerf@tresys.com>	<stdin>
<mayerf@tresys.com>	<stdin>
<mayerf@tresys.com>	<stdin>
<mayerf@tresys.com>	<stdin>
<mayerf@tresys.com>	<stdin>
<mayerf@tresys.com>	<stdin>
<mayerf@tresys.com>	<stdin>
<mingo@redhat.com>	<stdin>
<mingo@redhat.com>	<stdin>
<mingo@redhat.com>	<stdin>
<mochel@osdl.org>	<stdin>
<mpm@selenic.com>	<stdin>
<nico@fluxnic.net>,	<stdin>
<nico@fluxnic.net>,	<stdin>
<nitingupta910@gmail.com>	<stdin>
<nitingupta910@gmail.com>	<stdin>
<nitingupta910@gmail.com>	<stdin>
<oleg@tv-sign.ru>	<stdin>
<oskar@scara.com>	<stdin>
<pablo@eurodev.net>	<stdin>
<pablo@netfilter.org>	<stdin>
<paul@paul-moore.com>	<stdin>
<paul@paul-moore.com>	<stdin>
<paul@paul-moore.com>	<stdin>
<paul@paul-moore.com>	<stdin>
<paul@paul-moore.com>	<stdin>
<paul@paul-moore.com>	<stdin>
<paul@paul-moore.com>	<stdin>
<paul@paul-moore.com>	<stdin>
<paul@paul-moore.com>	<stdin>
<paul@paul-moore.com>	<stdin>
<paul@paul-moore.com>	<stdin>
<paul@paul-moore.com>	<stdin>
<paul@paul-moore.com>	<stdin>
<paul@paul-moore.com>	<stdin>
<paul@paul-moore.com>	<stdin>
<paulus@au1.ibm.com>	<stdin>
<phil@linbit.com>,	<stdin>
<philipp.reisner@linbit.com>.	<stdin>
<pzijlstr@redhat.com>	<stdin>
<pzijlstr@redhat.com>	<stdin>
<quade@hsnr.de>	<stdin>
<rml@novell.com>	<stdin>
<roberto.sassu@polito.it>	<stdin>
<roberto.sassu@polito.it>	<stdin>
<roberto.sassu@polito.it>	<stdin>
<roberto.sassu@polito.it>	<stdin>
<rpurdie@openedhand.com>	<stdin>
<rpurdie@openedhand.com>	<stdin>
<rpurdie@openedhand.com>	<stdin>
<rusty@rustcorp.com.au>	<stdin>
<safford@us.ibm.com>	<stdin>
<schwab@issan.informatik.uni-dortmund.de>	<stdin>
<sds@epoch.ncsc.mil>	<stdin>
<sds@epoch.ncsc.mil>	<stdin>
<sds@epoch.ncsc.mil>	<stdin>
<sds@epoch.ncsc.mil>	<stdin>
<sds@epoch.ncsc.mil>	<stdin>
<sds@epoch.ncsc.mil>	<stdin>
<sds@epoch.ncsc.mil>	<stdin>
<sds@epoch.ncsc.mil>	<stdin>
<sds@epoch.ncsc.mil>	<stdin>
<sds@epoch.ncsc.mil>	<stdin>
<sds@epoch.ncsc.mil>	<stdin>
<sds@epoch.ncsc.mil>	<stdin>
<sds@epoch.ncsc.mil>	<stdin>
<sds@epoch.ncsc.mil>	<stdin>
<sds@epoch.ncsc.mil>	<stdin>
<sds@epoch.ncsc.mil>	<stdin>
<sds@epoch.ncsc.mil>	<stdin>
<sds@epoch.ncsc.mil>	<stdin>
<sds@epoch.ncsc.mil>	<stdin>
<sds@epoch.ncsc.mil>	<stdin>
<sds@epoch.ncsc.mil>	<stdin>
<sds@epoch.ncsc.mil>	<stdin>
<sds@epoch.ncsc.mil>	<stdin>
<sds@epoch.ncsc.mil>	<stdin>
<sds@epoch.ncsc.mil>	<stdin>
<sds@epoch.ncsc.mil>	<stdin>
<sds@epoch.ncsc.mil>	<stdin>
<sergeh@us.ibm.com>	<stdin>
<tabbott@ksplice.com>	<stdin>
<tglx@linutronix.de>	<stdin>
<tglx@linutronix.de>	<stdin>
<tgraf@suug.ch>	<stdin>
<tgraf@suug.ch>	<stdin>
<tgraf@suug.ch>	<stdin>
<tgraf@suug.ch>	<stdin>
<therbert@google.com>	<stdin>
<tinytim@us.ibm.com>	<stdin>
<tinytim@us.ibm.com>	<stdin>
<tinytim@us.ibm.com>	<stdin>
<tyhicks@ou.edu>	<stdin>
<tyhicks@ou.edu>	<stdin>
<vyekkirala@TrustedCS.com>	<stdin>
<vyekkirala@TrustedCS.com>	<stdin>
<walken@google.com>	<stdin>
<wsalamon@nai.com>	<stdin>
<wsalamon@nai.com>	<stdin>
<xemul@openvz.org>	<stdin>
<xemul@openvz.org>	<stdin>
<xemul@openvz.org>	<stdin>
<ying.huang@intel.com>	<stdin>
<ying.huang@intel.com>	<stdin>
<ynakam@hitachisoft.jp>	<stdin>
<ynakam@hitachisoft.jp>	<stdin>
<ynakam@hitachisoft.jp>	<stdin>
<yuanhan.liu@linux.intel.com>	<stdin>
<zohar@us.ibm.com>	<stdin>
<zohar@us.ibm.com>	<stdin>
>=@total,	<stdin>
@...:	<stdin>
@...:	<stdin>
@...:	<stdin>
@...:	<stdin>
@...:	<stdin>
@ABCDEFGHIJKLMNO	<stdin>
@ABCDEFGHIJKLMNO	<stdin>
@_dp:	<stdin>
@_errmsg:	<stdin>
@_len:	<stdin>
@a	<stdin>
@a	<stdin>
@a	<stdin>
@a	<stdin>
@a	<stdin>
@a	<stdin>
@a	<stdin>
@a	<stdin>
@a	<stdin>
@a	<stdin>
@a	<stdin>
@a	<stdin>
@a	<stdin>
@a	<stdin>
@a	<stdin>
@a	<stdin>
@a	<stdin>
@a	<stdin>
@a	<stdin>
@a	<stdin>
@a	<stdin>
@a	<stdin>
@a	<stdin>
@a	<stdin>
@a	<stdin>
@a	<stdin>
@a	<stdin>
@a	<stdin>
@a	<stdin>
@a	<stdin>
@a	<stdin>
@a	<stdin>
@a	<stdin>
@a	<stdin>
@a	<stdin>
@a	<stdin>
@a	<stdin>
@a	<stdin>
@a	<stdin>
@a	<stdin>
@a	<stdin>
@a	<stdin>
@a	<stdin>
@a	<stdin>
@a	<stdin>
@a	<stdin>
@a	<stdin>
@a	<stdin>
@a	<stdin>
@a	<stdin>
@a	<stdin>
@a	<stdin>
@a	<stdin>
@a	<stdin>
@a	<stdin>
@a	<stdin>
@a	<stdin>
@a:	<stdin>
@a:	<stdin>
@a:	<stdin>
@a:	<stdin>
@a:	<stdin>
@a:	<stdin>
@a:	<stdin>
@a:	<stdin>
@a:	<stdin>
@a:	<stdin>
@a:	<stdin>
@a:	<stdin>
@a:	<stdin>
@a:	<stdin>
@a:	<stdin>
@a:	<stdin>
@a:	<stdin>
@a:	<stdin>
@a:	<stdin>
@a:	<stdin>
@a:	<stdin>
@a:	<stdin>
@a:	<stdin>
@a:	<stdin>
@a:	<stdin>
@a:	<stdin>
@a:	<stdin>
@a:	<stdin>
@a:	<stdin>
@a:	<stdin>
@a:	<stdin>
@a:	<stdin>
@a:	<stdin>
@a:	<stdin>
@a:	<stdin>
@a:	<stdin>
@a:	<stdin>
@ab	<stdin>
@ab:	<stdin>
@ab:	<stdin>
@accept	<stdin>
@accept:	<stdin>
@access:	<stdin>
@acct:	<stdin>
@acl:	<stdin>
@action:	<stdin>
@action:	<stdin>
@actx:	<stdin>
@actx:	<stdin>
@ad	<stdin>
@ad	<stdin>
@ad:	<stdin>
@addr	<stdin>
@addr	<stdin>
@addr	<stdin>
@addr.	<stdin>
@addr.	<stdin>
@addr.	<stdin>
@addr.	<stdin>
@addr.	<stdin>
@addr:	<stdin>
@addr:	<stdin>
@addr:	<stdin>
@addr:	<stdin>
@addr:	<stdin>
@addr:	<stdin>
@addr:	<stdin>
@addr:	<stdin>
@addr:	<stdin>
@addr:	<stdin>
@addr:	<stdin>
@addr:	<stdin>
@addr:	<stdin>
@addr:	<stdin>
@addr:	<stdin>
@addr:	<stdin>
@addr:	<stdin>
@addr:	<stdin>
@addr:	<stdin>
@addr:	<stdin>
@addr:	<stdin>
@addr:	<stdin>
@addr:	<stdin>
@addr:	<stdin>
@addr:	<stdin>
@addr_len:	<stdin>
@addr_len:	<stdin>
@addr_len:	<stdin>
@addr_len:	<stdin>
@address	<stdin>
@address	<stdin>
@address:	<stdin>
@address:	<stdin>
@address:	<stdin>
@address:	<stdin>
@address:	<stdin>
@address:	<stdin>
@addrlen:	<stdin>
@addrp:	<stdin>
@affinity:	<stdin>
@algo	<stdin>
@algo	<stdin>
@algo	<stdin>
@algo:	<stdin>
@algo:	<stdin>
@align_mask	<stdin>
@align_mask	<stdin>
@align_mask:	<stdin>
@alloc_fn:	<stdin>
@alloc_size	<stdin>
@alloc_size:	<stdin>
@allow	<stdin>
@allow:	<stdin>
@allowed:	<stdin>
@arg_ptr.	<stdin>
@arg_ptr:	<stdin>
@argc.	<stdin>
@argc:	<stdin>
@argc:	<stdin>
@argcp:	<stdin>
@args	<stdin>
@args	<stdin>
@args	<stdin>
@args	<stdin>
@args	<stdin>
@args	<stdin>
@args.	<stdin>
@args.	<stdin>
@args.	<stdin>
@args.	<stdin>
@args.	<stdin>
@args.	<stdin>
@args.	<stdin>
@args.	<stdin>
@args:	<stdin>
@args:	<stdin>
@args:	<stdin>
@args:	<stdin>
@args:	<stdin>
@args:	<stdin>
@args:	<stdin>
@args:	<stdin>
@args:	<stdin>
@args:	<stdin>
@args:	<stdin>
@args:	<stdin>
@args:	<stdin>
@args:	<stdin>
@args:	<stdin>
@args:	<stdin>
@args:	<stdin>
@argv	<stdin>
@argv.	<stdin>
@argv:	<stdin>
@argv:	<stdin>
@argv:	<stdin>
@argv[@index]	<stdin>
@array:	<stdin>
@ascii:	<stdin>
@ascii:	<stdin>
@attrlen:	<stdin>
@attrlen:	<stdin>
@attrlen:	<stdin>
@attrlen:	<stdin>
@attrlen:	<stdin>
@attrlen:	<stdin>
@attrlen:	<stdin>
@attrlen:	<stdin>
@attrlen:	<stdin>
@attrtype:	<stdin>
@attrtype:	<stdin>
@attrtype:	<stdin>
@attrtype:	<stdin>
@attrtype:	<stdin>
@audit	<stdin>
@audit:	<stdin>
@audit:	<stdin>
@audit:	<stdin>
@audit:	<stdin>
@auditdata:	<stdin>
@authkey:	<stdin>
@authkey:	<stdin>
@aux:	<stdin>
@aux:	<stdin>
@aux:	<stdin>
@av:	<stdin>
@avd->seqno	<stdin>
@avd.	<stdin>
@avd:	<stdin>
@avd:	<stdin>
@avd:	<stdin>
@avd:	<stdin>
@avg.	<stdin>
@avg:	<stdin>
@avg:	<stdin>
@b	<stdin>
@b	<stdin>
@b	<stdin>
@b	<stdin>
@b	<stdin>
@b	<stdin>
@b	<stdin>
@b	<stdin>
@b	<stdin>
@b	<stdin>
@b	<stdin>
@b,	<stdin>
@b,	<stdin>
@b,	<stdin>
@b,	<stdin>
@b,	<stdin>
@b,	<stdin>
@b,	<stdin>
@b,	<stdin>
@b,	<stdin>
@b,	<stdin>
@b,	<stdin>
@b,	<stdin>
@b,	<stdin>
@b,	<stdin>
@b.	<stdin>
@b.	<stdin>
@b.	<stdin>
@b.	<stdin>
@b.	<stdin>
@b.	<stdin>
@b.	<stdin>
@b.	<stdin>
@b.	<stdin>
@b.	<stdin>
@b.	<stdin>
@b:	<stdin>
@b:	<stdin>
@b:	<stdin>
@b:	<stdin>
@b:	<stdin>
@b:	<stdin>
@b:	<stdin>
@b:	<stdin>
@b:	<stdin>
@b:	<stdin>
@b:	<stdin>
@b:	<stdin>
@b:	<stdin>
@b:	<stdin>
@b:	<stdin>
@b:	<stdin>
@b:	<stdin>
@b:	<stdin>
@b:	<stdin>
@b:	<stdin>
@b:	<stdin>
@b:	<stdin>
@b:	<stdin>
@b:	<stdin>
@b:	<stdin>
@b:	<stdin>
@b:	<stdin>
@b:	<stdin>
@b:	<stdin>
@b:	<stdin>
@b:	<stdin>
@b:	<stdin>
@b:	<stdin>
@bar:	<stdin>
@bar:	<stdin>
@base	<stdin>
@base:	<stdin>
@base:	<stdin>
@base:	<stdin>
@base:	<stdin>
@base:	<stdin>
@base:	<stdin>
@base:	<stdin>
@base:	<stdin>
@base:	<stdin>
@base:	<stdin>
@base:	<stdin>
@base:	<stdin>
@base:	<stdin>
@base:	<stdin>
@bch,	<stdin>
@bch:	<stdin>
@bch:	<stdin>
@bch:	<stdin>
@bch;	<stdin>
@behavior:	<stdin>
@bin_buf	<stdin>
@bin_buf.	<stdin>
@bin_buf:	<stdin>
@bin_buf:	<stdin>
@bin_buf:	<stdin>
@bitmap	<stdin>
@bitmap:	<stdin>
@bitmap:	<stdin>
@bitmap:	<stdin>
@bits	<stdin>
@bits	<stdin>
@bits	<stdin>
@bits	<stdin>
@bits	<stdin>
@bits)	<stdin>
@bits)	<stdin>
@bits:	<stdin>
@bits:	<stdin>
@bits:	<stdin>
@bits:	<stdin>
@bits:	<stdin>
@bits:	<stdin>
@bits:	<stdin>
@blob	<stdin>
@blob:	<stdin>
@blob:	<stdin>
@bprm	<stdin>
@bprm	<stdin>
@bprm	<stdin>
@bprm:	<stdin>
@bprm:	<stdin>
@bprm:	<stdin>
@bprm:	<stdin>
@bprm:	<stdin>
@bprm:	<stdin>
@bprm:	<stdin>
@bsize:	<stdin>
@buf	<stdin>
@buf	<stdin>
@buf	<stdin>
@buf	<stdin>
@buf	<stdin>
@buf	<stdin>
@buf	<stdin>
@buf	<stdin>
@buf	<stdin>
@buf	<stdin>
@buf	<stdin>
@buf	<stdin>
@buf	<stdin>
@buf	<stdin>
@buf	<stdin>
@buf	<stdin>
@buf	<stdin>
@buf	<stdin>
@buf,	<stdin>
@buf,	<stdin>
@buf,	<stdin>
@buf,	<stdin>
@buf,	<stdin>
@buf.	<stdin>
@buf.	<stdin>
@buf.	<stdin>
@buf.	<stdin>
@buf.	<stdin>
@buf.	<stdin>
@buf.	<stdin>
@buf.	<stdin>
@buf.	<stdin>
@buf.	<stdin>
@buf.	<stdin>
@buf.	<stdin>
@buf:	<stdin>
@buf:	<stdin>
@buf:	<stdin>
@buf:	<stdin>
@buf:	<stdin>
@buf:	<stdin>
@buf:	<stdin>
@buf:	<stdin>
@buf:	<stdin>
@buf:	<stdin>
@buf:	<stdin>
@buf:	<stdin>
@buf:	<stdin>
@buf:	<stdin>
@buf:	<stdin>
@buf:	<stdin>
@buf:	<stdin>
@buf:	<stdin>
@buf:	<stdin>
@buf:	<stdin>
@buf:	<stdin>
@buf:	<stdin>
@buf:	<stdin>
@buf:	<stdin>
@buf:	<stdin>
@buf:	<stdin>
@buf:	<stdin>
@buf:	<stdin>
@buf:	<stdin>
@buf:	<stdin>
@buf:	<stdin>
@buf:	<stdin>
@buf:	<stdin>
@buf:	<stdin>
@buf:	<stdin>
@buf:	<stdin>
@buf:	<stdin>
@buffer	<stdin>
@buffer	<stdin>
@buffer	<stdin>
@buffer.	<stdin>
@buffer.	<stdin>
@buffer.	<stdin>
@buffer.	<stdin>
@buffer.	<stdin>
@buffer.	<stdin>
@buffer.	<stdin>
@buffer.	<stdin>
@buffer.	<stdin>
@buffer.	<stdin>
@buffer.	<stdin>
@buffer:	<stdin>
@buffer:	<stdin>
@buffer:	<stdin>
@buffer:	<stdin>
@buffer:	<stdin>
@buffer:	<stdin>
@buffer:	<stdin>
@buffer:	<stdin>
@buffer:	<stdin>
@buffer:	<stdin>
@buffer:	<stdin>
@buffer:	<stdin>
@buffer:	<stdin>
@buffer:	<stdin>
@buffer:	<stdin>
@buffer:	<stdin>
@buffer:	<stdin>
@buffer:	<stdin>
@buffer:	<stdin>
@buffer:	<stdin>
@buffer:	<stdin>
@buffer:	<stdin>
@buffer:	<stdin>
@buffer:	<stdin>
@buffer_len	<stdin>
@buffer_len:	<stdin>
@buffer_len:	<stdin>
@buffer_len:	<stdin>
@buffer_len:	<stdin>
@buffer_len:	<stdin>
@buffer_len:	<stdin>
@buflen:	<stdin>
@buflen:	<stdin>
@buflen:	<stdin>
@buflen:	<stdin>
@buflen:	<stdin>
@buflen:	<stdin>
@buflen:	<stdin>
@buflen:	<stdin>
@buflen:	<stdin>
@buflen:	<stdin>
@buflen:	<stdin>
@buflen:	<stdin>
@buflen:	<stdin>
@bufsize:	<stdin>
@bufsize:	<stdin>
@bytes:	<stdin>
@bytes:	<stdin>
@bytes:	<stdin>
@bytes:	<stdin>
@c	<stdin>
@c	<stdin>
@c	<stdin>
@c	<stdin>
@c	<stdin>
@c	<stdin>
@c	<stdin>
@c	<stdin>
@c	<stdin>
@c	<stdin>
@c,	<stdin>
@c,	<stdin>
@c,	<stdin>
@c.	<stdin>
@c1:	<stdin>
@c1:	<stdin>
@c2:	<stdin>
@c2:	<stdin>
@c3:	<stdin>
@c3:	<stdin>
@c:	<stdin>
@c:	<stdin>
@c:	<stdin>
@c:	<stdin>
@c:	<stdin>
@c:	<stdin>
@c:	<stdin>
@c:	<stdin>
@c:	<stdin>
@c:	<stdin>
@c:	<stdin>
@c:	<stdin>
@c:	<stdin>
@c:	<stdin>
@calc_ecc	<stdin>
@calc_ecc	<stdin>
@calc_ecc	<stdin>
@calc_ecc,	<stdin>
@calc_ecc:	<stdin>
@calc_ecc:	<stdin>
@callback:	<stdin>
@callno:	<stdin>
@callno:	<stdin>
@callout_info	<stdin>
@callout_info:	<stdin>
@callout_info:	<stdin>
@callout_info:	<stdin>
@callout_info:	<stdin>
@callout_info:	<stdin>
@callout_len:	<stdin>
@callout_len:	<stdin>
@callout_len:	<stdin>
@callout_len:	<stdin>
@cap	<stdin>
@cap:	<stdin>
@cap:	<stdin>
@cap:	<stdin>
@caps:	<stdin>
@category:	<stdin>
@catmap:	<stdin>
@catmap:	<stdin>
@ch:	<stdin>
@checked:	<stdin>
@checked:	<stdin>
@chunk:	<stdin>
@cmp	<stdin>
@cmp	<stdin>
@cmp	<stdin>
@cmp:	<stdin>
@cmp:	<stdin>
@cmp_func:	<stdin>
@code:	<stdin>
@cond:	<stdin>
@cond:	<stdin>
@cond:	<stdin>
@cond:	<stdin>
@cond:	<stdin>
@conf:	<stdin>
@conf:	<stdin>
@config:	<stdin>
@cons:	<stdin>
@context:	<stdin>
@context:	<stdin>
@context:	<stdin>
@context:	<stdin>
@context:	<stdin>
@copy_size)	<stdin>
@copy_size:	<stdin>
@corr:	<stdin>
@corr:	<stdin>
@count	<stdin>
@count	<stdin>
@count	<stdin>
@count	<stdin>
@count	<stdin>
@count	<stdin>
@count	<stdin>
@count.	<stdin>
@count:	<stdin>
@count:	<stdin>
@count:	<stdin>
@count:	<stdin>
@count:	<stdin>
@count:	<stdin>
@count:	<stdin>
@count:	<stdin>
@count:	<stdin>
@count:	<stdin>
@count:	<stdin>
@count:	<stdin>
@count:	<stdin>
@count:	<stdin>
@count:	<stdin>
@count:	<stdin>
@count:	<stdin>
@count:	<stdin>
@count:	<stdin>
@count:	<stdin>
@count:	<stdin>
@count:	<stdin>
@count:	<stdin>
@cp:	<stdin>
@cp:	<stdin>
@cp:	<stdin>
@cp:	<stdin>
@cpu:	<stdin>
@crc:	<stdin>
@crc:	<stdin>
@crc:	<stdin>
@crc:	<stdin>
@crc:	<stdin>
@crc:	<stdin>
@cred:	<stdin>
@cred:	<stdin>
@cred:	<stdin>
@cs:	<stdin>
@cs:	<stdin>
@cs:	<stdin>
@cs:	<stdin>
@ct:	<stdin>
@ct:	<stdin>
@ct:	<stdin>
@ct:	<stdin>
@ct:	<stdin>
@ctx,	<stdin>
@curr	<stdin>
@curr	<stdin>
@curr	<stdin>
@curr	<stdin>
@curr	<stdin>
@curr	<stdin>
@curr:	<stdin>
@cxt:	<stdin>
@data	<stdin>
@data	<stdin>
@data	<stdin>
@data,	<stdin>
@data.	<stdin>
@data:	<stdin>
@data:	<stdin>
@data:	<stdin>
@data:	<stdin>
@data:	<stdin>
@data:	<stdin>
@data:	<stdin>
@data:	<stdin>
@data:	<stdin>
@data:	<stdin>
@data:	<stdin>
@data:	<stdin>
@data:	<stdin>
@data:	<stdin>
@data:	<stdin>
@data:	<stdin>
@data:	<stdin>
@data:	<stdin>
@data:	<stdin>
@data:	<stdin>
@data:	<stdin>
@data:	<stdin>
@data:	<stdin>
@data:	<stdin>
@data:	<stdin>
@data:	<stdin>
@data:	<stdin>
@data:	<stdin>
@data:	<stdin>
@data:	<stdin>
@data:	<stdin>
@datalen:	<stdin>
@datalen:	<stdin>
@datalen:	<stdin>
@datalen:	<stdin>
@datasize:	<stdin>
@datasize:	<stdin>
@datasize:	<stdin>
@decoder:	<stdin>
@def_sid:	<stdin>
@dentry:	<stdin>
@dentry:	<stdin>
@dentry:	<stdin>
@dentry:	<stdin>
@dentry:	<stdin>
@dentry:	<stdin>
@desc:	<stdin>
@descr:	<stdin>
@descr:	<stdin>
@descr:	<stdin>
@descr:	<stdin>
@descr:	<stdin>
@descr:	<stdin>
@descr:	<stdin>
@descr:	<stdin>
@description:	<stdin>
@description:	<stdin>
@description:	<stdin>
@description:	<stdin>
@description:	<stdin>
@description:	<stdin>
@description:	<stdin>
@description:	<stdin>
@dest	<stdin>
@dest.	<stdin>
@dest:	<stdin>
@dest:	<stdin>
@dest:	<stdin>
@dest:	<stdin>
@dest:	<stdin>
@dest:	<stdin>
@dest:	<stdin>
@dest:	<stdin>
@dest:	<stdin>
@dest:	<stdin>
@dest_keyring:	<stdin>
@detail:	<stdin>
@dev.	<stdin>
@dev:	<stdin>
@dev:	<stdin>
@dev:	<stdin>
@dev:	<stdin>
@dev:	<stdin>
@dev:	<stdin>
@dev:	<stdin>
@dev:	<stdin>
@dev:	<stdin>
@dev_cgroup:	<stdin>
@dev_cgroup:	<stdin>
@dev_cgroup:	<stdin>
@dfa	<stdin>
@dfa	<stdin>
@dfa	<stdin>
@dfa	<stdin>
@dfa	<stdin>
@dfa:	<stdin>
@dfa:	<stdin>
@dfa:	<stdin>
@dfa:	<stdin>
@dfa:	<stdin>
@dfa:	<stdin>
@dfa:	<stdin>
@dfa:	<stdin>
@dfa:	<stdin>
@digest:	<stdin>
@dir:	<stdin>
@dir:	<stdin>
@dir:	<stdin>
@dividend:	<stdin>
@dividend:	<stdin>
@divisor:	<stdin>
@divisor:	<stdin>
@domain:	<stdin>
@domain:	<stdin>
@domain:	<stdin>
@domain:	<stdin>
@domain:	<stdin>
@domain:	<stdin>
@domain:	<stdin>
@domainname	<stdin>
@domainname	<stdin>
@domainname:	<stdin>
@domainname:	<stdin>
@domainname:	<stdin>
@domainname:	<stdin>
@domainname:	<stdin>
@dst	<stdin>
@dst	<stdin>
@dst	<stdin>
@dst	<stdin>
@dst	<stdin>
@dst	<stdin>
@dst	<stdin>
@dst	<stdin>
@dst	<stdin>
@dst	<stdin>
@dst	<stdin>
@dst	<stdin>
@dst	<stdin>
@dst	<stdin>
@dst	<stdin>
@dst	<stdin>
@dst	<stdin>
@dst,	<stdin>
@dst,	<stdin>
@dst,	<stdin>
@dst,	<stdin>
@dst.	<stdin>
@dst.	<stdin>
@dst.	<stdin>
@dst.	<stdin>
@dst.	<stdin>
@dst.	<stdin>
@dst.	<stdin>
@dst:	<stdin>
@dst:	<stdin>
@dst:	<stdin>
@dst:	<stdin>
@dst:	<stdin>
@dst:	<stdin>
@dst:	<stdin>
@dstsize:	<stdin>
@dump:	<stdin>
@dump:	<stdin>
@dump:	<stdin>
@e	<stdin>
@e	<stdin>
@e	<stdin>
@e->enr	<stdin>
@e:	<stdin>
@e:	<stdin>
@e:	<stdin>
@e:	<stdin>
@e:	<stdin>
@e:	<stdin>
@e:	<stdin>
@e:	<stdin>
@e:	<stdin>
@e:	<stdin>
@e:	<stdin>
@e_count:	<stdin>
@e_off:	<stdin>
@e_size:	<stdin>
@ebmap:	<stdin>
@ebmap:	<stdin>
@ecc	<stdin>
@ecc:	<stdin>
@ecc_bits	<stdin>
@ecc_bytes	<stdin>
@ecc_bytes	<stdin>
@ee:	<stdin>
@element	<stdin>
@element	<stdin>
@element:	<stdin>
@element:	<stdin>
@element:	<stdin>
@element:	<stdin>
@element:	<stdin>
@element:	<stdin>
@element:	<stdin>
@element:	<stdin>
@element:	<stdin>
@element:	<stdin>
@element:	<stdin>
@element:	<stdin>
@element:	<stdin>
@element:	<stdin>
@element:	<stdin>
@element:	<stdin>
@element:	<stdin>
@element:	<stdin>
@element:	<stdin>
@element:	<stdin>
@element:	<stdin>
@element:	<stdin>
@element:	<stdin>
@element:	<stdin>
@element:	<stdin>
@element:	<stdin>
@element_nr	<stdin>
@element_nr	<stdin>
@element_nr.	<stdin>
@element_nr:	<stdin>
@element_nr:	<stdin>
@element_nr:	<stdin>
@element_nr:	<stdin>
@element_size:	<stdin>
@end:	<stdin>
@endp:	<stdin>
@endp:	<stdin>
@endp:	<stdin>
@endp:	<stdin>
@enr:	<stdin>
@enr:	<stdin>
@enr:	<stdin>
@enr:	<stdin>
@enr:	<stdin>
@entry	<stdin>
@entry:	<stdin>
@entry:	<stdin>
@env:	<stdin>
@env:	<stdin>
@env_name:	<stdin>
@env_value:	<stdin>
@envc:	<stdin>
@envc:	<stdin>
@envp.	<stdin>
@envp.	<stdin>
@envp:	<stdin>
@envp:	<stdin>
@envp:	<stdin>
@envp[@env_name]	<stdin>
@envp_ext:	<stdin>
@eras_pos:	<stdin>
@eras_pos:	<stdin>
@errloc	<stdin>
@errloc)	<stdin>
@errloc)	<stdin>
@errloc)	<stdin>
@errloc)	<stdin>
@errloc:	<stdin>
@error:	<stdin>
@error:	<stdin>
@error:	<stdin>
@error:	<stdin>
@error:	<stdin>
@error:	<stdin>
@error:	<stdin>
@error:	<stdin>
@event	<stdin>
@events.	<stdin>
@events:	<stdin>
@exec_match	<stdin>
@expect:	<stdin>
@extended:	<stdin>
@f	<stdin>
@f	<stdin>
@f:	<stdin>
@f:	<stdin>
@fa:	<stdin>
@fa:	<stdin>
@fa:	<stdin>
@fa:	<stdin>
@fa:	<stdin>
@fa:	<stdin>
@fa:	<stdin>
@factor:	<stdin>
@family.	<stdin>
@family:	<stdin>
@family:	<stdin>
@family:	<stdin>
@family:	<stdin>
@family:	<stdin>
@family:	<stdin>
@family:	<stdin>
@family:	<stdin>
@family:	<stdin>
@family:	<stdin>
@fcr:	<stdin>
@fcr:	<stdin>
@fcr:	<stdin>
@fcr:	<stdin>
@field:	<stdin>
@field:	<stdin>
@field:	<stdin>
@field:	<stdin>
@field_width:	<stdin>
@file:	<stdin>
@file:	<stdin>
@file:	<stdin>
@file:	<stdin>
@file:	<stdin>
@file:	<stdin>
@file:	<stdin>
@file:	<stdin>
@file:	<stdin>
@file:	<stdin>
@file:	<stdin>
@file:	<stdin>
@file:	<stdin>
@file:	<stdin>
@file:	<stdin>
@file:	<stdin>
@filename	<stdin>
@filename	<stdin>
@filename	<stdin>
@filename	<stdin>
@filename	<stdin>
@filename	<stdin>
@filename	<stdin>
@filename.	<stdin>
@filename.	<stdin>
@filename:	<stdin>
@filename:	<stdin>
@filename:	<stdin>
@filename:	<stdin>
@filename:	<stdin>
@filename:	<stdin>
@filename:	<stdin>
@filename:	<stdin>
@filename:	<stdin>
@filename:	<stdin>
@filename:	<stdin>
@filename:	<stdin>
@filename:	<stdin>
@filename:	<stdin>
@filename_end:	<stdin>
@filename_end:	<stdin>
@filename_end:	<stdin>
@filename_end:	<stdin>
@find	<stdin>
@find	<stdin>
@find,	<stdin>
@find,	<stdin>
@find.	<stdin>
@find.	<stdin>
@find:	<stdin>
@find:	<stdin>
@find:	<stdin>
@find:	<stdin>
@first_index:	<stdin>
@first_index:	<stdin>
@first_index:	<stdin>
@first_index:	<stdin>
@first_indexp:	<stdin>
@flag:	<stdin>
@flag:	<stdin>
@flags:	<stdin>
@flags:	<stdin>
@flags:	<stdin>
@flags:	<stdin>
@flags:	<stdin>
@flags:	<stdin>
@flags:	<stdin>
@flags:	<stdin>
@flags:	<stdin>
@flags:	<stdin>
@flags:	<stdin>
@flags:	<stdin>
@flags:	<stdin>
@flags:	<stdin>
@flags:	<stdin>
@flags:	<stdin>
@flags:	<stdin>
@flags:	<stdin>
@flags:	<stdin>
@flags:	<stdin>
@flags:	<stdin>
@flags:	<stdin>
@flags:	<stdin>
@fmt	<stdin>
@fmt	<stdin>
@fmt	<stdin>
@fmt	<stdin>
@fmt	<stdin>
@fmt	<stdin>
@fmt.	<stdin>
@fmt.	<stdin>
@fmt.	<stdin>
@fmt.	<stdin>
@fmt.	<stdin>
@fmt.	<stdin>
@fmt:	<stdin>
@fmt:	<stdin>
@fmt:	<stdin>
@fmt:	<stdin>
@fmt:	<stdin>
@fmt:	<stdin>
@fmt:	<stdin>
@fmt:	<stdin>
@fmt:	<stdin>
@fmt:	<stdin>
@fmt:	<stdin>
@fmt:	<stdin>
@fmt:	<stdin>
@fmt:	<stdin>
@fmt:	<stdin>
@fmt:	<stdin>
@fmt:	<stdin>
@fmt:	<stdin>
@fmt:	<stdin>
@fmt:	<stdin>
@fmt:	<stdin>
@fmt:	<stdin>
@fmt:	<stdin>
@fmt:	<stdin>
@fmt:	<stdin>
@fmt:	<stdin>
@fmt:	<stdin>
@fmt:	<stdin>
@fn	<stdin>
@fn:	<stdin>
@format:	<stdin>
@fqname	<stdin>
@fqname	<stdin>
@fqname:	<stdin>
@fqname:	<stdin>
@fqname:	<stdin>
@fqname:	<stdin>
@frac/PROP_FRAC_BASE	<stdin>
@free_fn:	<stdin>
@from:	<stdin>
@from:	<stdin>
@fromsid.	<stdin>
@fromsid:	<stdin>
@fs_dir:	<stdin>
@fs_dir:	<stdin>
@fs_file:	<stdin>
@fs_file:	<stdin>
@fstype:	<stdin>
@fstype:	<stdin>
@func	<stdin>
@func	<stdin>
@func	<stdin>
@func:	<stdin>
@func:	<stdin>
@function:	<stdin>
@gateway:	<stdin>
@get:	<stdin>
@gffunc:	<stdin>
@gffunc:	<stdin>
@gffunc:	<stdin>
@gfp:	<stdin>
@gfp:	<stdin>
@gfp_mask:	<stdin>
@gfp_mask:	<stdin>
@gfp_mask:	<stdin>
@gfp_mask:	<stdin>
@gfp_mask:	<stdin>
@gfp_mask:	<stdin>
@gfp_mask:	<stdin>
@gfp_mask:	<stdin>
@gfpoly:	<stdin>
@gfpoly:	<stdin>
@gfpoly:	<stdin>
@gid:	<stdin>
@group	<stdin>
@group	<stdin>
@group	<stdin>
@group,	<stdin>
@group,	<stdin>
@group:	<stdin>
@group:	<stdin>
@group:	<stdin>
@group:	<stdin>
@groupsize:	<stdin>
@groupsize:	<stdin>
@hat:	<stdin>
@hat_magic	<stdin>
@hats	<stdin>
@hats	<stdin>
@hats:	<stdin>
@head	<stdin>
@head	<stdin>
@head	<stdin>
@head	<stdin>
@head	<stdin>
@head	<stdin>
@head	<stdin>
@head	<stdin>
@head->first->next,	<stdin>
@head->first.	<stdin>
@head:	<stdin>
@head:	<stdin>
@head:	<stdin>
@head:	<stdin>
@head:	<stdin>
@head:	<stdin>
@head:	<stdin>
@head:	<stdin>
@head:	<stdin>
@head:	<stdin>
@head:	<stdin>
@head:	<stdin>
@head:	<stdin>
@head:	<stdin>
@head:	<stdin>
@head:	<stdin>
@head:	<stdin>
@head:	<stdin>
@head:	<stdin>
@head:	<stdin>
@head:	<stdin>
@head:	<stdin>
@head:	<stdin>
@head:	<stdin>
@head:	<stdin>
@head:	<stdin>
@head:	<stdin>
@head:	<stdin>
@head:	<stdin>
@head:	<stdin>
@head:	<stdin>
@head:	<stdin>
@head:	<stdin>
@head:	<stdin>
@head:	<stdin>
@head:	<stdin>
@head:	<stdin>
@head:	<stdin>
@head:	<stdin>
@head:	<stdin>
@head:	<stdin>
@head:	<stdin>
@head:	<stdin>
@head:	<stdin>
@head:	<stdin>
@head:	<stdin>
@head:	<stdin>
@head:	<stdin>
@head:	<stdin>
@head:	<stdin>
@head:	<stdin>
@head:	<stdin>
@head:	<stdin>
@head:	<stdin>
@head:	<stdin>
@head:	<stdin>
@head:	<stdin>
@head:	<stdin>
@head:	<stdin>
@head:	<stdin>
@head:	<stdin>
@head:	<stdin>
@head:	<stdin>
@header:	<stdin>
@hname	<stdin>
@hname	<stdin>
@hname	<stdin>
@hname:	<stdin>
@hname:	<stdin>
@hname:	<stdin>
@hname:	<stdin>
@hname:	<stdin>
@i:	<stdin>
@i:	<stdin>
@i:	<stdin>
@i:	<stdin>
@i:	<stdin>
@i:	<stdin>
@id	<stdin>
@id	<stdin>
@id	<stdin>
@id	<stdin>
@id	<stdin>
@id:	<stdin>
@id:	<stdin>
@id:	<stdin>
@id:	<stdin>
@id:	<stdin>
@id:	<stdin>
@id:	<stdin>
@id:	<stdin>
@id:	<stdin>
@ida:	<stdin>
@ida:	<stdin>
@ida:	<stdin>
@ida:	<stdin>
@ida:	<stdin>
@ida:	<stdin>
@ida:	<stdin>
@ida:	<stdin>
@idp:	<stdin>
@idp:	<stdin>
@idp:	<stdin>
@idp:	<stdin>
@idp:	<stdin>
@idp:	<stdin>
@idp:	<stdin>
@idp:	<stdin>
@idp:	<stdin>
@idp:	<stdin>
@idp:	<stdin>
@idx:	<stdin>
@idx:	<stdin>
@idx:	<stdin>
@idx:	<stdin>
@if_sid:	<stdin>
@ifindex	<stdin>
@ifindex.	<stdin>
@ifindex:	<stdin>
@ifindex:	<stdin>
@ifindex:	<stdin>
@ifindex:	<stdin>
@ifindex:	<stdin>
@iftag:	<stdin>
@index	<stdin>
@index	<stdin>
@index	<stdin>
@index	<stdin>
@index	<stdin>
@index.	<stdin>
@index.	<stdin>
@index:	<stdin>
@index:	<stdin>
@index:	<stdin>
@index:	<stdin>
@index:	<stdin>
@index:	<stdin>
@index:	<stdin>
@index:	<stdin>
@index:	<stdin>
@index:	<stdin>
@index:	<stdin>
@index:	<stdin>
@index:	<stdin>
@index:	<stdin>
@index:	<stdin>
@index:	<stdin>
@index:	<stdin>
@index:	<stdin>
@index:	<stdin>
@index:	<stdin>
@indices:	<stdin>
@info:	<stdin>
@info:	<stdin>
@info:	<stdin>
@info:	<stdin>
@inode:	<stdin>
@inode:	<stdin>
@intr:	<stdin>
@ints:	<stdin>
@invmsk:	<stdin>
@invmsk:	<stdin>
@invmsk:	<stdin>
@invmsk:	<stdin>
@io_addr:	<stdin>
@irq:	<stdin>
@is_delete:	<stdin>
@is_delete:	<stdin>
@is_delete:	<stdin>
@is_delete:	<stdin>
@is_delete:	<stdin>
@is_delete:	<stdin>
@is_delete:	<stdin>
@is_delete:	<stdin>
@is_delete:	<stdin>
@is_delete:	<stdin>
@is_delete:	<stdin>
@is_delete:	<stdin>
@is_granted:	<stdin>
@is_granted:	<stdin>
@is_granted:	<stdin>
@is_ipv6:	<stdin>
@is_register:	<stdin>
@is_register:	<stdin>
@is_user:	<stdin>
@is_user:	<stdin>
@item:	<stdin>
@item:	<stdin>
@iter:	<stdin>
@k:	<stdin>
@k:	<stdin>
@k:	<stdin>
@k:	<stdin>
@k:	<stdin>
@k:	<stdin>
@k:	<stdin>
@k:	<stdin>
@key:	<stdin>
@key:	<stdin>
@key:	<stdin>
@key:	<stdin>
@key:	<stdin>
@key:	<stdin>
@key:	<stdin>
@key:	<stdin>
@key:	<stdin>
@key:	<stdin>
@key:	<stdin>
@key:	<stdin>
@key_ref:	<stdin>
@key_ref:	<stdin>
@keyring:	<stdin>
@keyring:	<stdin>
@keyring:	<stdin>
@keyring:	<stdin>
@keyring:	<stdin>
@keyring:	<stdin>
@keyring:	<stdin>
@keyring_ref	<stdin>
@keyring_ref:	<stdin>
@keyring_ref:	<stdin>
@keyword	<stdin>
@keyword	<stdin>
@keyword:	<stdin>
@keyword:	<stdin>
@kill:	<stdin>
@kill:	<stdin>
@kobj	<stdin>
@kobj	<stdin>
@kobj:	<stdin>
@kobj:	<stdin>
@kobj:	<stdin>
@kobj:	<stdin>
@kobj:	<stdin>
@kobj:	<stdin>
@kobj:	<stdin>
@kobj:	<stdin>
@kobj:	<stdin>
@kobj:	<stdin>
@kobj:	<stdin>
@kobj:	<stdin>
@kobj:	<stdin>
@kobj:	<stdin>
@kobj:	<stdin>
@kr:	<stdin>
@kr:	<stdin>
@kr:	<stdin>
@kset->list,	<stdin>
@kset->subsys,	<stdin>
@kset:	<stdin>
@ktype:	<stdin>
@ktype:	<stdin>
@ktype:	<stdin>
@ktype:	<stdin>
@last_index:	<stdin>
@lc	<stdin>
@lc	<stdin>
@lc	<stdin>
@lc:	<stdin>
@lc:	<stdin>
@lc:	<stdin>
@lc:	<stdin>
@lc:	<stdin>
@lc:	<stdin>
@lc:	<stdin>
@lc:	<stdin>
@lc:	<stdin>
@lc:	<stdin>
@lc:	<stdin>
@lc:	<stdin>
@lc:	<stdin>
@lc:	<stdin>
@left:	<stdin>
@left:	<stdin>
@len	<stdin>
@len	<stdin>
@len	<stdin>
@len,	<stdin>
@len,	<stdin>
@len,	<stdin>
@len,	<stdin>
@len:	<stdin>
@len:	<stdin>
@len:	<stdin>
@len:	<stdin>
@len:	<stdin>
@len:	<stdin>
@len:	<stdin>
@len:	<stdin>
@len:	<stdin>
@len:	<stdin>
@len:	<stdin>
@len:	<stdin>
@len:	<stdin>
@len:	<stdin>
@len:	<stdin>
@len:	<stdin>
@len:	<stdin>
@len:	<stdin>
@len:	<stdin>
@len:	<stdin>
@len:	<stdin>
@len:	<stdin>
@len:	<stdin>
@len:	<stdin>
@len:	<stdin>
@len:	<stdin>
@len:	<stdin>
@len:	<stdin>
@len:	<stdin>
@len:	<stdin>
@len:	<stdin>
@len:	<stdin>
@len:	<stdin>
@len:	<stdin>
@len:	<stdin>
@len:	<stdin>
@len:	<stdin>
@len:	<stdin>
@len:	<stdin>
@len:	<stdin>
@length:	<stdin>
@level:	<stdin>
@level:	<stdin>
@limits:	<stdin>
@line:	<stdin>
@linebuf,	<stdin>
@linebuf:	<stdin>
@linebuflen:	<stdin>
@list:	<stdin>
@list:	<stdin>
@list:	<stdin>
@list:	<stdin>
@list:	<stdin>
@list:	<stdin>
@list:	<stdin>
@lock:	<stdin>
@m	<stdin>
@m:	<stdin>
@major:	<stdin>
@manager:	<stdin>
@map	<stdin>
@map	<stdin>
@map	<stdin>
@map	<stdin>
@map:	<stdin>
@map:	<stdin>
@map:	<stdin>
@map:	<stdin>
@map:	<stdin>
@mask	<stdin>
@mask.	<stdin>
@mask.	<stdin>
@mask.	<stdin>
@mask:	<stdin>
@mask:	<stdin>
@mask:	<stdin>
@mask:	<stdin>
@mask:	<stdin>
@mask:	<stdin>
@mask:	<stdin>
@mask:	<stdin>
@mask:	<stdin>
@mask:	<stdin>
@mask:	<stdin>
@mask:	<stdin>
@mask:	<stdin>
@mask:	<stdin>
@mask:	<stdin>
@mask:	<stdin>
@maskp:	<stdin>
@maskp:	<stdin>
@maskp:	<stdin>
@maskp:	<stdin>
@maskp:	<stdin>
@maskp:	<stdin>
@match.	<stdin>
@match:	<stdin>
@match:	<stdin>
@max	<stdin>
@max:	<stdin>
@max_count:	<stdin>
@max_ents	<stdin>
@max_ents,	<stdin>
@max_ents.	<stdin>
@max_ents.	<stdin>
@max_ents:	<stdin>
@max_ents:	<stdin>
@max_frac/FPROP_FRAC_BASE	<stdin>
@max_ip:	<stdin>
@max_ip:	<stdin>
@max_items:	<stdin>
@max_items:	<stdin>
@max_items:	<stdin>
@max_items:	<stdin>
@max_pending_changes:	<stdin>
@max_scan:	<stdin>
@max_scan:	<stdin>
@max_size:	<stdin>
@maxargs	<stdin>
@maxargs	<stdin>
@maxargs	<stdin>
@maxargs	<stdin>
@maxargs:	<stdin>
@maxargs:	<stdin>
@maxlen	<stdin>
@maxlen:	<stdin>
@maxlen:	<stdin>
@maxtype:	<stdin>
@maxtype:	<stdin>
@member_list:	<stdin>
@member_list:	<stdin>
@min	<stdin>
@min:	<stdin>
@min_alloc_order:	<stdin>
@min_ip:	<stdin>
@min_ip:	<stdin>
@minor:	<stdin>
@miter	<stdin>
@miter	<stdin>
@miter	<stdin>
@miter	<stdin>
@miter	<stdin>
@miter->addr	<stdin>
@miter->length	<stdin>
@miter->page,	<stdin>
@miter.	<stdin>
@miter.	<stdin>
@miter:	<stdin>
@miter:	<stdin>
@miter:	<stdin>
@mnt:	<stdin>
@mode:	<stdin>
@mode:	<stdin>
@mode:	<stdin>
@mode:	<stdin>
@mode:	<stdin>
@mode:	<stdin>
@mode:	<stdin>
@mode:	<stdin>
@mode:	<stdin>
@mode:	<stdin>
@msg:	<stdin>
@n	<stdin>
@n	<stdin>
@n)	<stdin>
@n,	<stdin>
@n1	<stdin>
@n1:	<stdin>
@n2	<stdin>
@n2:	<stdin>
@n:	<stdin>
@n:	<stdin>
@n:	<stdin>
@n:	<stdin>
@n:	<stdin>
@n:	<stdin>
@n:	<stdin>
@n:	<stdin>
@n:	<stdin>
@n:	<stdin>
@n:	<stdin>
@n_pages:	<stdin>
@name	<stdin>
@name	<stdin>
@name	<stdin>
@name	<stdin>
@name	<stdin>
@name	<stdin>
@name	<stdin>
@name	<stdin>
@name	<stdin>
@name	<stdin>
@name	<stdin>
@name	<stdin>
@name	<stdin>
@name	<stdin>
@name	<stdin>
@name	<stdin>
@name	<stdin>
@name	<stdin>
@name	<stdin>
@name	<stdin>
@name.	<stdin>
@name.	<stdin>
@name.	<stdin>
@name:	<stdin>
@name:	<stdin>
@name:	<stdin>
@name:	<stdin>
@name:	<stdin>
@name:	<stdin>
@name:	<stdin>
@name:	<stdin>
@name:	<stdin>
@name:	<stdin>
@name:	<stdin>
@name:	<stdin>
@name:	<stdin>
@name:	<stdin>
@name:	<stdin>
@name:	<stdin>
@name:	<stdin>
@name:	<stdin>
@name:	<stdin>
@name:	<stdin>
@name:	<stdin>
@name:	<stdin>
@name:	<stdin>
@name:	<stdin>
@name:	<stdin>
@name:	<stdin>
@name:	<stdin>
@name:	<stdin>
@name:	<stdin>
@name:	<stdin>
@name:	<stdin>
@name:	<stdin>
@name:	<stdin>
@name:	<stdin>
@nbits:	<stdin>
@nbytes:	<stdin>
@nel:	<stdin>
@nents	<stdin>
@nents	<stdin>
@nents:	<stdin>
@nents:	<stdin>
@nents:	<stdin>
@nents:	<stdin>
@nents:	<stdin>
@nents:	<stdin>
@nents:	<stdin>
@nents:	<stdin>
@nents@	<stdin>
@nents@	<stdin>
@netif:	<stdin>
@netif:	<stdin>
@new	<stdin>
@new	<stdin>
@new	<stdin>
@new	<stdin>
@new	<stdin>
@new	<stdin>
@new	<stdin>
@new	<stdin>
@new	<stdin>
@new	<stdin>
@new	<stdin>
@new*/	<stdin>
@new,	<stdin>
@new,	<stdin>
@new.	<stdin>
@new.	<stdin>
@new:	<stdin>
@new:	<stdin>
@new:	<stdin>
@new:	<stdin>
@new:	<stdin>
@new:	<stdin>
@new_first:	<stdin>
@new_last:	<stdin>
@new_name:	<stdin>
@new_parent:	<stdin>
@new_rlim	<stdin>
@newsid	<stdin>
@newsid	<stdin>
@newsid	<stdin>
@next:	<stdin>
@nextidp:	<stdin>
@nid:	<stdin>
@nid:	<stdin>
@nints:	<stdin>
@nla:	<stdin>
@nla:	<stdin>
@nla:	<stdin>
@nlbl_sid	<stdin>
@nlbl_sid:	<stdin>
@nlbl_type:	<stdin>
@nmaskbits	<stdin>
@nmaskbits:	<stdin>
@nmaskbits:	<stdin>
@nmaskbits:	<stdin>
@nmaskbits:	<stdin>
@nmaskbits:	<stdin>
@nmaskbits:	<stdin>
@no_eras:	<stdin>
@no_eras:	<stdin>
@no_state_check:	<stdin>
@node	<stdin>
@node	<stdin>
@node:	<stdin>
@node:	<stdin>
@node:	<stdin>
@node:	<stdin>
@node:	<stdin>
@node:	<stdin>
@noreplace:	<stdin>
@noreplace:	<stdin>
@notify:	<stdin>
@nr	<stdin>
@nr	<stdin>
@nr:	<stdin>
@nr:	<stdin>
@nr:	<stdin>
@nr:	<stdin>
@nr:	<stdin>
@nr:	<stdin>
@nr_elements:	<stdin>
@nr_to_tag:	<stdin>
@nroots:	<stdin>
@nroots:	<stdin>
@nroots:	<stdin>
@nroots:	<stdin>
@ns	<stdin>
@ns	<stdin>
@ns	<stdin>
@ns	<stdin>
@ns	<stdin>
@ns	<stdin>
@ns,	<stdin>
@ns:	<stdin>
@ns:	<stdin>
@ns:	<stdin>
@ns:	<stdin>
@ns:	<stdin>
@ns:	<stdin>
@ns:	<stdin>
@ns:	<stdin>
@ns:	<stdin>
@ns:	<stdin>
@ns:	<stdin>
@ns:	<stdin>
@ns:	<stdin>
@ns:	<stdin>
@ns:	<stdin>
@ns:	<stdin>
@ns:	<stdin>
@ns:	<stdin>
@ns:	<stdin>
@ns:	<stdin>
@ns:	<stdin>
@ns:	<stdin>
@ns:	<stdin>
@ns:	<stdin>
@ns:	<stdin>
@ns_name:	<stdin>
@ns_name:	<stdin>
@ns_name:	<stdin>
@num:	<stdin>
@num:	<stdin>
@number:	<stdin>
@number:	<stdin>
@obj:	<stdin>
@obj:	<stdin>
@offset:	<stdin>
@offset:	<stdin>
@offset:	<stdin>
@offset:	<stdin>
@offset:	<stdin>
@oid:	<stdin>
@old	<stdin>
@old	<stdin>
@old	<stdin>
@old	<stdin>
@old	<stdin>
@old	<stdin>
@old	<stdin>
@old	<stdin>
@old	<stdin>
@old	<stdin>
@old	<stdin>
@old	<stdin>
@old	<stdin>
@old	<stdin>
@old	<stdin>
@old	<stdin>
@old,	<stdin>
@old,	<stdin>
@old:	<stdin>
@old:	<stdin>
@old:	<stdin>
@old:	<stdin>
@old:	<stdin>
@oldbit	<stdin>
@oldbit,	<stdin>
@oldbit:	<stdin>
@oldsid	<stdin>
@oldsid	<stdin>
@oldsid.	<stdin>
@onexec	<stdin>
@onexec:	<stdin>
@onexec:	<stdin>
@op:	<stdin>
@op:	<stdin>
@op:	<stdin>
@op:	<stdin>
@op:	<stdin>
@op:	<stdin>
@op:	<stdin>
@op:	<stdin>
@op:	<stdin>
@op:	<stdin>
@op:	<stdin>
@op:	<stdin>
@op:	<stdin>
@operation	<stdin>
@operation	<stdin>
@operation:	<stdin>
@operation:	<stdin>
@operation:	<stdin>
@operation:	<stdin>
@operation:	<stdin>
@operation:	<stdin>
@operation:	<stdin>
@operation:	<stdin>
@operation:	<stdin>
@ops:	<stdin>
@ops:	<stdin>
@optname:	<stdin>
@ord	<stdin>
@ord	<stdin>
@ord	<stdin>
@ord	<stdin>
@ord	<stdin>
@ord	<stdin>
@ord	<stdin>
@ord:	<stdin>
@order:	<stdin>
@order:	<stdin>
@order:	<stdin>
@orig	<stdin>
@orig	<stdin>
@orig	<stdin>
@orig	<stdin>
@orig	<stdin>
@orig	<stdin>
@orig	<stdin>
@orig	<stdin>
@orig	<stdin>
@orig	<stdin>
@orig	<stdin>
@orig	<stdin>
@orig's.	<stdin>
@orig,	<stdin>
@orig,	<stdin>
@orig,	<stdin>
@orig,	<stdin>
@orig.	<stdin>
@orig:	<stdin>
@orig:	<stdin>
@out_sid:	<stdin>
@out_sid:	<stdin>
@out_sid:	<stdin>
@out_sid:	<stdin>
@out_sid:	<stdin>
@p	<stdin>
@p	<stdin>
@p	<stdin>
@p	<stdin>
@p	<stdin>
@p	<stdin>
@p	<stdin>
@p	<stdin>
@p,	<stdin>
@p,	<stdin>
@p:	<stdin>
@p:	<stdin>
@p:	<stdin>
@p:	<stdin>
@p:	<stdin>
@p:	<stdin>
@p:	<stdin>
@p_id	<stdin>
@p_id	<stdin>
@p_id:	<stdin>
@p_id:	<stdin>
@pages:	<stdin>
@par:	<stdin>
@par:	<stdin>
@par:	<stdin>
@par:	<stdin>
@param:	<stdin>
@param:	<stdin>
@param:	<stdin>
@param:	<stdin>
@param:	<stdin>
@param:	<stdin>
@param:	<stdin>
@param:	<stdin>
@param:	<stdin>
@param:	<stdin>
@param:	<stdin>
@param:	<stdin>
@param:	<stdin>
@param:	<stdin>
@param:	<stdin>
@param:	<stdin>
@param:	<stdin>
@param:	<stdin>
@param:	<stdin>
@param:	<stdin>
@param:	<stdin>
@param:	<stdin>
@param:	<stdin>
@param:	<stdin>
@param:	<stdin>
@param:	<stdin>
@param:	<stdin>
@param:	<stdin>
@param:	<stdin>
@param:	<stdin>
@param:	<stdin>
@params:	<stdin>
@params:	<stdin>
@parent	<stdin>
@parent	<stdin>
@parent	<stdin>
@parent:	<stdin>
@parent:	<stdin>
@parent:	<stdin>
@parent:	<stdin>
@parent:	<stdin>
@parent:	<stdin>
@parent:	<stdin>
@parent:	<stdin>
@parent:	<stdin>
@parent:	<stdin>
@parent:	<stdin>
@parent_kobj:	<stdin>
@parent_kobj:	<stdin>
@path	<stdin>
@path1's	<stdin>
@path1,	<stdin>
@path1:	<stdin>
@path1:	<stdin>
@path2's	<stdin>
@path2,	<stdin>
@path2:	<stdin>
@path2:	<stdin>
@path:	<stdin>
@path:	<stdin>
@path:	<stdin>
@path:	<stdin>
@path:	<stdin>
@path:	<stdin>
@path:	<stdin>
@path:	<stdin>
@path:	<stdin>
@path:	<stdin>
@path:	<stdin>
@path:	<stdin>
@path:	<stdin>
@path:	<stdin>
@path:	<stdin>
@path:	<stdin>
@path:	<stdin>
@path:	<stdin>
@path:	<stdin>
@path_flags:	<stdin>
@pathname	<stdin>
@pathname	<stdin>
@pathname:	<stdin>
@pathname:	<stdin>
@pattern	<stdin>
@pattern	<stdin>
@pattern,	<stdin>
@pattern,	<stdin>
@pattern,	<stdin>
@pattern,	<stdin>
@pattern.	<stdin>
@pattern.	<stdin>
@pattern:	<stdin>
@pattern:	<stdin>
@pattern:	<stdin>
@pattern:	<stdin>
@pattern:	<stdin>
@pattern:	<stdin>
@pattern:	<stdin>
@pattern_end:	<stdin>
@pattern_end:	<stdin>
@pattern_end:	<stdin>
@pattern_end:	<stdin>
@payload.	<stdin>
@payload.	<stdin>
@payload:	<stdin>
@payload:	<stdin>
@pc:	<stdin>
@pc:	<stdin>
@pdev	<stdin>
@pdev:	<stdin>
@pdev:	<stdin>
@pdev:	<stdin>
@pdev:	<stdin>
@pdev:	<stdin>
@pdev:	<stdin>
@peer_sid	<stdin>
@peer_sid	<stdin>
@periods	<stdin>
@perm:	<stdin>
@perm:	<stdin>
@perm:	<stdin>
@perm:	<stdin>
@perm:	<stdin>
@perm:	<stdin>
@perm:	<stdin>
@perm:	<stdin>
@perm:	<stdin>
@perm:	<stdin>
@perm:	<stdin>
@perms	<stdin>
@perms.	<stdin>
@perms:	<stdin>
@permtest:	<stdin>
@permtest:	<stdin>
@phys:	<stdin>
@pint:	<stdin>
@plen:	<stdin>
@plen:	<stdin>
@pnum:	<stdin>
@pnum:	<stdin>
@pnum:	<stdin>
@policy	<stdin>
@policy:	<stdin>
@policy:	<stdin>
@policy:	<stdin>
@policy:	<stdin>
@policy:	<stdin>
@policy:	<stdin>
@policy:	<stdin>
@pool:	<stdin>
@pool:	<stdin>
@pool:	<stdin>
@pool:	<stdin>
@pool:	<stdin>
@pool:	<stdin>
@pool:	<stdin>
@pool:	<stdin>
@pool:	<stdin>
@port:	<stdin>
@port:	<stdin>
@port:	<stdin>
@port:	<stdin>
@port:	<stdin>
@pos	<stdin>
@pos	<stdin>
@pos	<stdin>
@pos	<stdin>
@pos	<stdin>
@pos	<stdin>
@pos	<stdin>
@pos:	<stdin>
@pos:	<stdin>
@pos:	<stdin>
@pos:	<stdin>
@pos:	<stdin>
@pos:	<stdin>
@pos:	<stdin>
@post_audit:	<stdin>
@ppos:	<stdin>
@ppos:	<stdin>
@ppos:	<stdin>
@ppos:	<stdin>
@pre_audit:	<stdin>
@precision:	<stdin>
@prefix:	<stdin>
@prefix:	<stdin>
@prefix_str:	<stdin>
@prefix_str:	<stdin>
@prefix_type:	<stdin>
@prefix_type:	<stdin>
@prim:	<stdin>
@prim:	<stdin>
@prim:	<stdin>
@prim:	<stdin>
@prim_poly,	<stdin>
@prim_poly:	<stdin>
@priv:	<stdin>
@profile	<stdin>
@profile	<stdin>
@profile	<stdin>
@profile	<stdin>
@profile	<stdin>
@profile	<stdin>
@profile	<stdin>
@profile,	<stdin>
@profile,	<stdin>
@profile.	<stdin>
@profile.	<stdin>
@profile:	<stdin>
@profile:	<stdin>
@profile:	<stdin>
@profile:	<stdin>
@profile:	<stdin>
@profile:	<stdin>
@profile:	<stdin>
@profile:	<stdin>
@profile:	<stdin>
@profile:	<stdin>
@profile:	<stdin>
@profile:	<stdin>
@profile:	<stdin>
@profile:	<stdin>
@profile:	<stdin>
@profile:	<stdin>
@profile:	<stdin>
@profile:	<stdin>
@profile:	<stdin>
@profile:	<stdin>
@profile:	<stdin>
@profile:	<stdin>
@profile:	<stdin>
@profile:	<stdin>
@profile:	<stdin>
@profile:	<stdin>
@profile:	<stdin>
@profile:	<stdin>
@profile:	<stdin>
@profiles:	<stdin>
@proto	<stdin>
@proto	<stdin>
@protocol:	<stdin>
@protocol:	<stdin>
@protocol:	<stdin>
@protocol:	<stdin>
@protocol:	<stdin>
@ptr	<stdin>
@ptr	<stdin>
@ptr,	<stdin>
@ptr,	<stdin>
@ptr,	<stdin>
@ptr,	<stdin>
@ptr:	<stdin>
@ptr:	<stdin>
@ptr:	<stdin>
@ptr:	<stdin>
@ptr:	<stdin>
@ptr:	<stdin>
@ptr:	<stdin>
@ptr:	<stdin>
@ptr:	<stdin>
@ptr:	<stdin>
@ptr:	<stdin>
@ptr:	<stdin>
@ptr:	<stdin>
@ptr:	<stdin>
@ptr:	<stdin>
@ptr:	<stdin>
@ptr:	<stdin>
@ptr:	<stdin>
@ptr:	<stdin>
@ptr:	<stdin>
@ptr:	<stdin>
@ptr:	<stdin>
@ptr:	<stdin>
@ptr:	<stdin>
@ptr:	<stdin>
@ptr:	<stdin>
@ptr:	<stdin>
@ptr:	<stdin>
@ptr:	<stdin>
@ptr:	<stdin>
@ptr:	<stdin>
@ptr:	<stdin>
@ptr:	<stdin>
@ptr:	<stdin>
@ptr:	<stdin>
@ptr:	<stdin>
@ptr:	<stdin>
@ptr:	<stdin>
@ptr:	<stdin>
@ptr:	<stdin>
@ptr:	<stdin>
@ptr:	<stdin>
@put:	<stdin>
@qualifier:	<stdin>
@queit	<stdin>
@quiet:	<stdin>
@quiet:	<stdin>
@r:	<stdin>
@r:	<stdin>
@r:	<stdin>
@r:	<stdin>
@r:	<stdin>
@r:	<stdin>
@r:	<stdin>
@r:	<stdin>
@r:	<stdin>
@r:	<stdin>
@r:	<stdin>
@r:	<stdin>
@r:	<stdin>
@r:	<stdin>
@r:	<stdin>
@r:	<stdin>
@r:	<stdin>
@r:	<stdin>
@r:	<stdin>
@r:	<stdin>
@r:	<stdin>
@r:	<stdin>
@r:	<stdin>
@r:	<stdin>
@r:	<stdin>
@r:	<stdin>
@r:	<stdin>
@r:	<stdin>
@r:	<stdin>
@r:	<stdin>
@r:	<stdin>
@r:	<stdin>
@r:	<stdin>
@r:	<stdin>
@r:	<stdin>
@r:	<stdin>
@r:	<stdin>
@r:	<stdin>
@r:	<stdin>
@r:	<stdin>
@r:	<stdin>
@r:	<stdin>
@r:	<stdin>
@r:	<stdin>
@r:	<stdin>
@r:	<stdin>
@r:	<stdin>
@recv_ecc	<stdin>
@recv_ecc	<stdin>
@recv_ecc,	<stdin>
@recv_ecc,	<stdin>
@recv_ecc:	<stdin>
@ref:	<stdin>
@ref:	<stdin>
@refex:	<stdin>
@reject	<stdin>
@reject:	<stdin>
@relmap	<stdin>
@relmap	<stdin>
@relmap	<stdin>
@relmap	<stdin>
@relmap	<stdin>
@relmap	<stdin>
@relmap	<stdin>
@relmap	<stdin>
@relmap	<stdin>
@relmap	<stdin>
@relmap)	<stdin>
@relmap).	<stdin>
@relmap,	<stdin>
@relmap.	<stdin>
@relmap.	<stdin>
@relmap.	<stdin>
@relmap.	<stdin>
@relmap:	<stdin>
@rename:	<stdin>
@replacedby	<stdin>
@replacedby:	<stdin>
@req,	<stdin>
@req:	<stdin>
@req_cap.	<stdin>
@req_cap:	<stdin>
@request:	<stdin>
@requested	<stdin>
@requested	<stdin>
@requested	<stdin>
@requested	<stdin>
@requested:	<stdin>
@requested:	<stdin>
@requested:	<stdin>
@res:	<stdin>
@res:	<stdin>
@res:	<stdin>
@res:	<stdin>
@res:	<stdin>
@res:	<stdin>
@resource	<stdin>
@resource:	<stdin>
@resoure:	<stdin>
@result	<stdin>
@result	<stdin>
@result	<stdin>
@result	<stdin>
@result:	<stdin>
@result:	<stdin>
@result:	<stdin>
@result:	<stdin>
@result:	<stdin>
@result:	<stdin>
@result:	<stdin>
@results:	<stdin>
@results:	<stdin>
@results:	<stdin>
@results:	<stdin>
@retptr:	<stdin>
@return:	<stdin>
@return:	<stdin>
@right:	<stdin>
@right:	<stdin>
@rlimits:	<stdin>
@rmap:	<stdin>
@rmap:	<stdin>
@rmap:	<stdin>
@rmap:	<stdin>
@rmap:	<stdin>
@rmap:	<stdin>
@root	<stdin>
@root.	<stdin>
@root.	<stdin>
@root.	<stdin>
@root:	<stdin>
@root:	<stdin>
@root:	<stdin>
@root:	<stdin>
@root:	<stdin>
@root:	<stdin>
@root:	<stdin>
@root:	<stdin>
@root:	<stdin>
@root:	<stdin>
@root:	<stdin>
@root:	<stdin>
@root:	<stdin>
@root:	<stdin>
@root:	<stdin>
@root:	<stdin>
@root:	<stdin>
@root:	<stdin>
@rowsize:	<stdin>
@rowsize:	<stdin>
@rs->burst	<stdin>
@rs->interval	<stdin>
@rs:	<stdin>
@rs:	<stdin>
@rs:	<stdin>
@rs:	<stdin>
@rs:	<stdin>
@rs:	<stdin>
@rule	<stdin>
@rule	<stdin>
@rule:	<stdin>
@rule:	<stdin>
@rule:	<stdin>
@rule:	<stdin>
@rule:	<stdin>
@rule:	<stdin>
@rule:	<stdin>
@rule:	<stdin>
@rulestr:	<stdin>
@rulestr:	<stdin>
@s	<stdin>
@s	<stdin>
@s	<stdin>
@s	<stdin>
@s	<stdin>
@s	<stdin>
@s.	<stdin>
@s.	<stdin>
@s.	<stdin>
@s.	<stdin>
@s.	<stdin>
@s1:	<stdin>
@s1:	<stdin>
@s1:	<stdin>
@s1:	<stdin>
@s2:	<stdin>
@s2:	<stdin>
@s2:	<stdin>
@s2:	<stdin>
@s:	<stdin>
@s:	<stdin>
@s:	<stdin>
@s:	<stdin>
@s:	<stdin>
@s:	<stdin>
@s:	<stdin>
@s:	<stdin>
@s:	<stdin>
@s:	<stdin>
@s:	<stdin>
@s:	<stdin>
@s:	<stdin>
@s:	<stdin>
@s:	<stdin>
@s:	<stdin>
@s:	<stdin>
@s:	<stdin>
@s:	<stdin>
@s:	<stdin>
@s:	<stdin>
@s:	<stdin>
@s:	<stdin>
@s:	<stdin>
@s:	<stdin>
@sclass:	<stdin>
@scontext	<stdin>
@scontext.	<stdin>
@scontext.	<stdin>
@scontext:	<stdin>
@scontext:	<stdin>
@scontext:	<stdin>
@scontext_len	<stdin>
@scontext_len:	<stdin>
@scontext_len:	<stdin>
@scontext_len:	<stdin>
@secattr	<stdin>
@secattr	<stdin>
@secattr	<stdin>
@secattr	<stdin>
@secattr	<stdin>
@secattr:	<stdin>
@secattr:	<stdin>
@secattr:	<stdin>
@secattr:	<stdin>
@secattr:	<stdin>
@secattr:	<stdin>
@secattr:	<stdin>
@secattr:	<stdin>
@seed:	<stdin>
@seq	<stdin>
@seq:	<stdin>
@seq:	<stdin>
@seqno	<stdin>
@seqno:	<stdin>
@serial:	<stdin>
@settag:	<stdin>
@sg:	<stdin>
@sg:	<stdin>
@sg:	<stdin>
@sg@	<stdin>
@sgl:	<stdin>
@sgl:	<stdin>
@sgl:	<stdin>
@sgl:	<stdin>
@sgl:	<stdin>
@sgl:	<stdin>
@sgl@	<stdin>
@sgl@.	<stdin>
@sgt:	<stdin>
@shift	<stdin>
@shift	<stdin>
@shp:	<stdin>
@sid	<stdin>
@sid	<stdin>
@sid	<stdin>
@sid	<stdin>
@sid	<stdin>
@sid.	<stdin>
@sid:	<stdin>
@sid:	<stdin>
@sid:	<stdin>
@sid:	<stdin>
@sid:	<stdin>
@sid:	<stdin>
@sid:	<stdin>
@sid:	<stdin>
@sid:	<stdin>
@sid:	<stdin>
@sid:	<stdin>
@sid:	<stdin>
@sid:	<stdin>
@sid:	<stdin>
@sid:	<stdin>
@sid:	<stdin>
@sid:	<stdin>
@sid:	<stdin>
@sid:	<stdin>
@sid:	<stdin>
@sid:	<stdin>
@sid:	<stdin>
@sids	<stdin>
@sids:	<stdin>
@sig:	<stdin>
@sigen:	<stdin>
@signature:	<stdin>
@size	<stdin>
@size	<stdin>
@size	<stdin>
@size,	<stdin>
@size,	<stdin>
@size,	<stdin>
@size,	<stdin>
@size.	<stdin>
@size.	<stdin>
@size:	<stdin>
@size:	<stdin>
@size:	<stdin>
@size:	<stdin>
@size:	<stdin>
@size:	<stdin>
@size:	<stdin>
@size:	<stdin>
@size:	<stdin>
@size:	<stdin>
@size:	<stdin>
@size:	<stdin>
@size:	<stdin>
@size:	<stdin>
@size:	<stdin>
@size:	<stdin>
@size:	<stdin>
@size:	<stdin>
@size:	<stdin>
@size:	<stdin>
@size:	<stdin>
@size:	<stdin>
@size:	<stdin>
@size:	<stdin>
@size:	<stdin>
@size:	<stdin>
@size:	<stdin>
@size:	<stdin>
@size:	<stdin>
@size:	<stdin>
@size:	<stdin>
@size:	<stdin>
@size:	<stdin>
@size:	<stdin>
@size:	<stdin>
@size:	<stdin>
@size:	<stdin>
@size:	<stdin>
@size:	<stdin>
@sk,	<stdin>
@sk:	<stdin>
@sk:	<stdin>
@sk:	<stdin>
@sk:	<stdin>
@skb	<stdin>
@skb	<stdin>
@skb	<stdin>
@skb,	<stdin>
@skb:	<stdin>
@skb:	<stdin>
@skb:	<stdin>
@skb:	<stdin>
@skb:	<stdin>
@skb:	<stdin>
@skb:	<stdin>
@skb:	<stdin>
@skb:	<stdin>
@skb:	<stdin>
@skb:	<stdin>
@skb:	<stdin>
@skb:	<stdin>
@skb:	<stdin>
@skb:	<stdin>
@sksec:	<stdin>
@sksec:	<stdin>
@sksec:	<stdin>
@sock:	<stdin>
@sock:	<stdin>
@sock:	<stdin>
@sock:	<stdin>
@sock:	<stdin>
@sock:	<stdin>
@sp:	<stdin>
@sp:	<stdin>
@src	<stdin>
@src	<stdin>
@src	<stdin>
@src	<stdin>
@src	<stdin>
@src	<stdin>
@src	<stdin>
@src	<stdin>
@src	<stdin>
@src	<stdin>
@src	<stdin>
@src	<stdin>
@src	<stdin>
@src	<stdin>
@src	<stdin>
@src	<stdin>
@src,	<stdin>
@src.	<stdin>
@src1p:	<stdin>
@src2p:	<stdin>
@src:	<stdin>
@src:	<stdin>
@src:	<stdin>
@src:	<stdin>
@src:	<stdin>
@src:	<stdin>
@src:	<stdin>
@src:	<stdin>
@src:	<stdin>
@src:	<stdin>
@src:	<stdin>
@src:	<stdin>
@src:	<stdin>
@src:	<stdin>
@src:	<stdin>
@src:	<stdin>
@src:	<stdin>
@ssid,@tsid,@tclass	<stdin>
@ssid:	<stdin>
@ssid:	<stdin>
@ssid:	<stdin>
@ssid:	<stdin>
@ssid:	<stdin>
@ssid:	<stdin>
@ssid:	<stdin>
@ssid:	<stdin>
@ssid:	<stdin>
@ssid:	<stdin>
@stamp:	<stdin>
@stamp:	<stdin>
@start	<stdin>
@start	<stdin>
@start:	<stdin>
@start:	<stdin>
@start:	<stdin>
@start:	<stdin>
@start:	<stdin>
@start:	<stdin>
@start:	<stdin>
@start:	<stdin>
@start:	<stdin>
@start:	<stdin>
@start:	<stdin>
@start:	<stdin>
@start:	<stdin>
@start:	<stdin>
@starting_id	<stdin>
@starting_id	<stdin>
@starting_id.	<stdin>
@starting_id:	<stdin>
@starting_id:	<stdin>
@stat[]	<stdin>
@state:	<stdin>
@state:	<stdin>
@state:	<stdin>
@state:	<stdin>
@str	<stdin>
@str	<stdin>
@str	<stdin>
@str	<stdin>
@str	<stdin>
@str	<stdin>
@str	<stdin>
@str	<stdin>
@str	<stdin>
@str	<stdin>
@str	<stdin>
@str	<stdin>
@str	<stdin>
@str	<stdin>
@str	<stdin>
@str	<stdin>
@str	<stdin>
@str.	<stdin>
@str.	<stdin>
@str.	<stdin>
@str.	<stdin>
@str:	<stdin>
@str:	<stdin>
@str:	<stdin>
@str:	<stdin>
@str:	<stdin>
@str:	<stdin>
@str:	<stdin>
@str:	<stdin>
@str:	<stdin>
@str:	<stdin>
@str:	<stdin>
@str:	<stdin>
@str:	<stdin>
@str:	<stdin>
@str:	<stdin>
@str:	<stdin>
@str:	<stdin>
@str:	<stdin>
@str:	<stdin>
@str_len:	<stdin>
@string	<stdin>
@string	<stdin>
@string	<stdin>
@string	<stdin>
@string	<stdin>
@string	<stdin>
@string	<stdin>
@string	<stdin>
@string	<stdin>
@string,	<stdin>
@string,	<stdin>
@string.	<stdin>
@string.	<stdin>
@string/	<stdin>
@string/	<stdin>
@string:	<stdin>
@string:	<stdin>
@string:	<stdin>
@string:	<stdin>
@string:	<stdin>
@string:	<stdin>
@string:	<stdin>
@string:	<stdin>
@string:	<stdin>
@string:	<stdin>
@string:	<stdin>
@string:	<stdin>
@sub	<stdin>
@sub:	<stdin>
@sub_ns:	<stdin>
@swap_func:	<stdin>
@symsize:	<stdin>
@symsize:	<stdin>
@symsize:	<stdin>
@symsize:	<stdin>
@syn,	<stdin>
@syn:	<stdin>
@syn:	<stdin>
@sz	<stdin>
@sz:	<stdin>
@t:	<stdin>
@table	<stdin>
@table:	<stdin>
@table:	<stdin>
@table:	<stdin>
@table:	<stdin>
@table:	<stdin>
@tag	<stdin>
@tag	<stdin>
@tag:	<stdin>
@tag:	<stdin>
@tag:	<stdin>
@tag:	<stdin>
@tag:	<stdin>
@tag:	<stdin>
@target	<stdin>
@target	<stdin>
@target	<stdin>
@target	<stdin>
@target	<stdin>
@target	<stdin>
@target	<stdin>
@target	<stdin>
@target	<stdin>
@target	<stdin>
@target	<stdin>
@target	<stdin>
@target:	<stdin>
@target:	<stdin>
@target:	<stdin>
@target:	<stdin>
@target:	<stdin>
@task	<stdin>
@task	<stdin>
@task:	<stdin>
@task:	<stdin>
@task:	<stdin>
@task:	<stdin>
@tb:	<stdin>
@tclass	<stdin>
@tclass	<stdin>
@tclass	<stdin>
@tclass	<stdin>
@tclass	<stdin>
@tclass,	<stdin>
@tclass,	<stdin>
@tclass.	<stdin>
@tclass.	<stdin>
@tclass.	<stdin>
@tclass:	<stdin>
@tclass:	<stdin>
@tclass:	<stdin>
@tclass:	<stdin>
@tclass:	<stdin>
@tclass:	<stdin>
@tclass:	<stdin>
@tclass:	<stdin>
@tclass:	<stdin>
@tclass:	<stdin>
@tclass:	<stdin>
@test:	<stdin>
@test:	<stdin>
@time:	<stdin>
@time:	<stdin>
@timeout:	<stdin>
@to:	<stdin>
@to:	<stdin>
@to_buffer:	<stdin>
@to_profile:	<stdin>
@token	<stdin>
@token:	<stdin>
@token:	<stdin>
@token:	<stdin>
@token:	<stdin>
@total	<stdin>
@total:	<stdin>
@tracee:	<stdin>
@tracee:	<stdin>
@tracer:	<stdin>
@tracer:	<stdin>
@tracer_task:	<stdin>
@trans:	<stdin>
@tsid)	<stdin>
@tsid)	<stdin>
@tsid),	<stdin>
@tsid),	<stdin>
@tsid),	<stdin>
@tsid).	<stdin>
@tsid).	<stdin>
@tsid).	<stdin>
@tsid:	<stdin>
@tsid:	<stdin>
@tsid:	<stdin>
@tsid:	<stdin>
@tsid:	<stdin>
@tsid:	<stdin>
@tsid:	<stdin>
@tsid:	<stdin>
@tsid:	<stdin>
@tsid:	<stdin>
@type	<stdin>
@type:	<stdin>
@type:	<stdin>
@type:	<stdin>
@type:	<stdin>
@type:	<stdin>
@type:	<stdin>
@type:	<stdin>
@type:	<stdin>
@type:	<stdin>
@type:	<stdin>
@type:	<stdin>
@type:	<stdin>
@type:	<stdin>
@type:	<stdin>
@type:	<stdin>
@type:	<stdin>
@type:	<stdin>
@type:	<stdin>
@type:	<stdin>
@type:	<stdin>
@ubuf:	<stdin>
@ubuf:	<stdin>
@udata:	<stdin>
@udata:	<stdin>
@uevent_ops:	<stdin>
@uevent_ops:	<stdin>
@uid:	<stdin>
@ulen:	<stdin>
@ulen:	<stdin>
@unconfined:	<stdin>
@units:	<stdin>
@unused:	<stdin>
@unused:	<stdin>
@userbuf:	<stdin>
@username:	<stdin>
@utext:	<stdin>
@va	<stdin>
@val:	<stdin>
@value	<stdin>
@value	<stdin>
@value.	<stdin>
@value.	<stdin>
@value:	<stdin>
@value:	<stdin>
@value:	<stdin>
@value:	<stdin>
@value:	<stdin>
@value:	<stdin>
@value:	<stdin>
@vargs:	<stdin>
@view	<stdin>
@view	<stdin>
@view	<stdin>
@view	<stdin>
@view	<stdin>
@view:	<stdin>
@virt:	<stdin>
@wait:	<stdin>
@wait:	<stdin>
@wait:	<stdin>
@wait:	<stdin>
@wait:	<stdin>
@wait:	<stdin>
@weight:	<stdin>
@word:	<stdin>
@work:	<stdin>
@x:	<stdin>
@x:	<stdin>
@x:	<stdin>
@xbuffer:	<stdin>
@xfrm_sid	<stdin>
@xfrm_sid:	<stdin>
@xindex:	<stdin>
@xindex:	<stdin>
@xindex:	<stdin>
@xmatch:	<stdin>
@xmatch_len:	<stdin>
alain@knaff.lu	<stdin>
argv[@index].	<stdin>
aurel@gnuage.org	<stdin>
aurel@gnuage.org	<stdin>
aurel@gnuage.org	<stdin>
decode_bch(@bch,	<stdin>
decode_bch(@bch,	<stdin>
decode_bch(@bch,	<stdin>
decode_bch(@bch,	<stdin>
jim.houston@ccur.com	<stdin>
kernel@pengutronix.de	<stdin>
linux@horizon.com.	<stdin>
strlen(@strlen)	<stdin>
yanok@emcraft.com	<stdin>
~@b,	<stdin>
~@b,	<stdin>
~@b,	<stdin>
~@b,	<stdin>
~@b,	<stdin>
~@b,	<stdin>
~@b,	<stdin>
~@b,	<stdin>
~@b,	<stdin>
~@b,	<stdin>
