"/hostbridge@f8000000";	<stdin>
"/ht@0/isa@4";	<stdin>
"/ht@0/isa@6";	<stdin>
"/pci@80000000/ide@C,1";	<stdin>
"/pci@80000000/isa@c";	<stdin>
"/pci@ff500000/isa@6";	<stdin>
"/u3@0,f8000000/i2c@f8001000",	<stdin>
"/u3@0,f8000000/i2c@f8001000",	<stdin>
(alexandreb@tundra.com)	<stdin>
(benh@kernel.crashing.org)	<stdin>
(benh@kernel.crashing.org)	<stdin>
(benh@kernel.crashing.org)	<stdin>
(benh@kernel.crashing.org)	<stdin>
(benh@kernel.crashing.org)	<stdin>
(benh@kernel.crashing.org)	<stdin>
(benh@kernel.crashing.org)	<stdin>
(benh@kernel.crashing.org)	<stdin>
(cort@cs.nmt.edu)	<stdin>
(cort@cs.nmt.edu)	<stdin>
(cort@cs.nmt.edu)	<stdin>
(cort@cs.nmt.edu)	<stdin>
(cort@cs.nmt.edu)	<stdin>
(cort@cs.nmt.edu)	<stdin>
(cort@cs.nmt.edu)	<stdin>
(cort@cs.nmt.edu)	<stdin>
(cort@cs.nmt.edu)	<stdin>
(cort@cs.nmt.edu)	<stdin>
(cort@cs.nmt.edu)	<stdin>
(cort@cs.nmt.edu)	<stdin>
(cort@cs.nmt.edu)	<stdin>
(cort@cs.nmt.edu)	<stdin>
(cort@cs.nmt.edu)	<stdin>
(cort@cs.nmt.edu)	<stdin>
(cort@cs.nmt.edu)	<stdin>
(cort@cs.nmt.edu)	<stdin>
(cort@cs.nmt.edu)	<stdin>
(cort@cs.nmt.edu)	<stdin>
(cort@cs.nmt.edu)	<stdin>
(cort@cs.nmt.edu)	<stdin>
(cort@cs.nmt.edu)	<stdin>
(cort@cs.nmt.edu)	<stdin>
(cort@cs.nmt.edu)	<stdin>
(cort@cs.nmt.edu)	<stdin>
(cort@cs.nmt.edu).	<stdin>
(cort@cs.nmt.edu).	<stdin>
(cort@cs.nmt.edu).	<stdin>
(cort@cs.nmt.edu).	<stdin>
(cort@hq.fsmlabs.com)	<stdin>
(cort@hq.fsmlabs.com)	<stdin>
(davem@caip.rutgers.edu)	<stdin>
(davem@caip.rutgers.edu)	<stdin>
(djerb@us.ibm.com)	<stdin>
(dmalek@jlc.net)	<stdin>
(dmalek@jlc.net)	<stdin>
(dmalek@jlc.net)	<stdin>
(dmalek@jlc.net)	<stdin>
(dmalek@jlc.net)	<stdin>
(dmalek@jlc.net)	<stdin>
(engebret@ibm.com)	<stdin>
(engebret@us.ibm.com)	<stdin>
(eric.dumazet@gmail.com)	<stdin>
(frowand@mvista.com)	<stdin>
(galak@kernel.crashing.org)	<stdin>
(gdt@linuxppc.org)	<stdin>
(gdt@linuxppc.org)	<stdin>
(gdt@linuxppc.org)	<stdin>
(gdt@linuxppc.org)	<stdin>
(gdt@linuxppc.org)	<stdin>
(gdt@linuxppc.org)	<stdin>
(gdt@linuxppc.org)	<stdin>
(gdt@linuxppc.org)	<stdin>
(gdt@linuxppc.org)	<stdin>
(gdt@linuxppc.org)	<stdin>
(gdt@linuxppc.org)	<stdin>
(gdt@linuxppc.org)	<stdin>
(gdt@linuxppc.org)	<stdin>
(gdt@linuxppc.org)	<stdin>
(gdt@linuxppc.org)	<stdin>
(gdt@linuxppc.org)	<stdin>
(gdt@linuxppc.org)	<stdin>
(gdt@linuxppc.org)	<stdin>
(gdt@linuxppc.org)	<stdin>
(gdt@linuxppc.org)	<stdin>
(gdt@linuxppc.org)	<stdin>
(gdt@linuxppc.org)	<stdin>
(gdt@linuxppc.org)	<stdin>
(gdt@linuxppc.org)	<stdin>
(gdt@linuxppc.org)	<stdin>
(jj@sunsite.mff.cuni.cz)	<stdin>
(jj@sunsite.mff.cuni.cz)	<stdin>
(mikejc@us.ibm.com)	<stdin>
(mporter@mvista.com)	<stdin>
(mporter@mvista.com)	<stdin>
(mporter@mvista.com)	<stdin>
(paulus@cs.anu.edu.au)	<stdin>
(paulus@cs.anu.edu.au)	<stdin>
(paulus@cs.anu.edu.au)	<stdin>
(paulus@cs.anu.edu.au)	<stdin>
(paulus@cs.anu.edu.au)	<stdin>
(paulus@cs.anu.edu.au)	<stdin>
(paulus@cs.anu.edu.au)	<stdin>
(paulus@cs.anu.edu.au)	<stdin>
(paulus@cs.anu.edu.au)	<stdin>
(paulus@cs.anu.edu.au)	<stdin>
(paulus@cs.anu.edu.au)	<stdin>
(paulus@cs.anu.edu.au)	<stdin>
(paulus@cs.anu.edu.au)	<stdin>
(paulus@cs.anu.edu.au)	<stdin>
(paulus@cs.anu.edu.au)	<stdin>
(paulus@cs.anu.edu.au)	<stdin>
(paulus@cs.anu.edu.au)	<stdin>
(paulus@cs.anu.edu.au).	<stdin>
(paulus@samba.org)	<stdin>
(paulus@samba.org)	<stdin>
(paulus@samba.org)	<stdin>
(paulus@samba.org)	<stdin>
(paulus@samba.org).	<stdin>
(paulus@samba.org).	<stdin>
(samuel@ibrium.se)	<stdin>
(source@mvista.com)	<stdin>
(source@mvista.com)	<stdin>
(tesch@cs.wisc.edu)	<stdin>
(tie-fei.zang@freescale.com)	<stdin>
(tilmann@bitterberg.de)	<stdin>
(vgallardo@apm.com)	<stdin>
/pci@80000000/ide@C,1	<stdin>
/pci@80000000/ide@C,1	<stdin>
/pci@80000000/ide@C,1	<stdin>
/pci@80000000/isa@C/serial@i2F8	<stdin>
/pci@80000000/isa@C/serial@i2F8	<stdin>
/pci@80000000/isa@C/serial@i2F8	<stdin>
<Chang-Ming.Huang@freescale.com>	<stdin>
<Chang-Ming.Huang@freescale.com>	<stdin>
<Dipen.Dudhat@freescale.com>	<stdin>
<Gang.Liu@freescale.com>	<stdin>
<Gang.Liu@freescale.com>	<stdin>
<Jack.Lan@freescale.com>	<stdin>
<Jason.jin@freescale.com>	<stdin>
<Jason.jin@freescale.com>	<stdin>
<LeoLi@freescale.com>	<stdin>
<Minghuan.Lian@freescale.com>	<stdin>
<Minghuan.Lian@freescale.com>	<stdin>
<agraf@suse.de>	<stdin>
<agust@denx.de>	<stdin>
<alexandre.bounine@idt.com>	<stdin>
<alexandre.bounine@idt.com>	<stdin>
<alexandre.bounine@idt.com>	<stdin>
<ananth@in.ibm.com>	<stdin>
<ananth@in.ibm.com>	<stdin>
<anton@au.ibm.com>	<stdin>
<anton@au.ibm.com>	<stdin>
<anton@au.ibm.com>,	<stdin>
<anton@au.ibm.com>,	<stdin>
<anton@au.ibm.com>,	<stdin>
<anton@au.ibm.com>,	<stdin>
<anton@au.ibm.com>,	<stdin>
<anton@au.ibm.com>,	<stdin>
<anton@au.ibm.com>,	<stdin>
<anton@au.ibm.com>,	<stdin>
<anton@au.ibm.com>,	<stdin>
<anton@au.ibm.com>,	<stdin>
<anton@au.ibm.com>,	<stdin>
<anton@au.ibm.com>,	<stdin>
<anton@au.ibm.com>,	<stdin>
<anton@au.ibm.com>,	<stdin>
<anton@au.ibm.com>,	<stdin>
<anton@au.ibm.com>,	<stdin>
<anton@au.ibm.com>,	<stdin>
<anton@samba.org>	<stdin>
<anton@samba.org>	<stdin>
<anton@samba.org>	<stdin>
<anton@samba.org>	<stdin>
<ashish.kalra@freescale.com>	<stdin>
<avolkov@varma-el.com>	<stdin>
<avolkov@varma-el.com>	<stdin>
<avolkov@varma-el.com>	<stdin>
<avolkov@varma-el.com>");	<stdin>
<avorontsov@ru.mvista.com>	<stdin>
<avorontsov@ru.mvista.com>	<stdin>
<avorontsov@ru.mvista.com>	<stdin>
<avorontsov@ru.mvista.com>	<stdin>
<avorontsov@ru.mvista.com>	<stdin>
<avorontsov@ru.mvista.com>	<stdin>
<avorontsov@ru.mvista.com>	<stdin>
<avorontsov@ru.mvista.com>	<stdin>
<bcr6@cornell.edu>,	<stdin>
<benh@kernel.crashing.org>	<stdin>
<benh@kernel.crashing.org>	<stdin>
<benh@kernel.crashing.org>	<stdin>
<benh@kernel.crashing.org>	<stdin>
<benh@kernel.crashing.org>	<stdin>
<benh@kernel.crashing.org>	<stdin>
<benh@kernel.crashing.org>	<stdin>
<benh@kernel.crashing.org>	<stdin>
<benh@kernel.crashing.org>	<stdin>
<benh@kernel.crashing.org>	<stdin>
<benh@kernel.crashing.org>	<stdin>
<benh@kernel.crashing.org>	<stdin>
<benh@kernel.crashing.org>,	<stdin>
<benh@kernel.crashing.org>,	<stdin>
<benh@kernel.crashing.org>,	<stdin>
<benh@kernel.crashing.org>,	<stdin>
<benh@kernel.crashing.org>,	<stdin>
<carll@us.ibm.com>	<stdin>
<carll@us.ibm.com>	<stdin>
<cort@cs.nmt.edu>	<stdin>
<cort@cs.nmt.edu>	<stdin>
<cort@cs.nmt.edu>	<stdin>
<cort@fsmlabs.com>	<stdin>
<cort@fsmlabs.com>	<stdin>
<dale@farnsworth.org>	<stdin>
<dale@farnsworth.org>	<stdin>
<dale@farnsworth.org>	<stdin>
<dale@farnsworth.org>	<stdin>
<dale@farnsworth.org>	<stdin>
<dan@embeddedalley.com>	<stdin>
<dan@embeddedalley.com>	<stdin>
<dan@embeddedalley.com>	<stdin>
<dan@embeddedalley.com>	<stdin>
<dfarnsworth@mvista.com>	<stdin>
<dfarnsworth@mvista.com>	<stdin>
<dfarnsworth@mvista.com>	<stdin>
<dfarnsworth@mvista.com>	<stdin>
<dfarnsworth@mvista.com>	<stdin>
<dfarnsworth@mvista.com>	<stdin>
<dfarnsworth@mvista.com>");	<stdin>
<dfarnsworth@mvista.com>");	<stdin>
<dwg@au.ibm.com>,	<stdin>
<dwg@au1.ibm.com>,	<stdin>
<dwg@au1.ibm.com>,	<stdin>
<ebiederm@xmission.com>	<stdin>
<ebiederm@xmission.com>	<stdin>
<ebs@ebshome.net>	<stdin>
<egor@pasemi.com>	<stdin>
<egor@pasemi.com>,	<stdin>
<engebret@us.ibm.com>	<stdin>
<engebret@us.ibm.com>	<stdin>
<engebret@us.ibm.com>	<stdin>
<engebret@us.ibm.com>	<stdin>
<engebret@us.ibm.com>	<stdin>
<engebret@us.ibm.com>	<stdin>
<engebret@us.ibm.com>	<stdin>
<engebret@us.ibm.com>,	<stdin>
<eugene.surovegin@zultys.com>	<stdin>
<fenkes@de.ibm.com>	<stdin>
<fkan@apm.com>	<stdin>
<galak@kernel.crashing.org>	<stdin>
<galak@kernel.crashing.org>	<stdin>
<galak@kernel.crashing.org>	<stdin>
<galak@kernel.crashing.org>	<stdin>
<grant.likely@secretlab.ca>	<stdin>
<grant@lcse.umn.edu>	<stdin>
<gridish@freescale.com>	<stdin>
<gridish@freescale.com>	<stdin>
<gridish@freescale.com>	<stdin>
<gridish@freescale.com>	<stdin>
<gridish@freescale.com>	<stdin>
<gridish@freescale.com>	<stdin>
<gridish@freescale.com>	<stdin>
<gridish@freescale.com>	<stdin>
<gridish@freescale.com>	<stdin>
<hollisb@us.ibm.com>	<stdin>
<hozer@drgw.net>	<stdin>
<hs@denx.de>	<stdin>
<hs@denx.de>	<stdin>
<jeff.gibbons@appspec.com>	<stdin>
<jeff.gibbons@appspec.com>	<stdin>
<jeff.gibbons@appspec.com>	<stdin>
<jeff.gibbons@appspec.com>	<stdin>
<jeff.gibbons@appspec.com>");	<stdin>
<jochen@scram.de>	<stdin>
<johannes@sipsolutions.net>	<stdin>
<johannes@sipsolutions.net>	<stdin>
<jrigby@freescale.com>	<stdin>
<jrigby@freescale.com>	<stdin>
<jrigby@freescale.com>	<stdin>
<jrigby@freescale.com>	<stdin>
<jrigby@freescale.com>	<stdin>
<jrigby@freescale.com>,	<stdin>
<jyoung5@us.ibm.com>	<stdin>
<krafft@de.ibm.com>	<stdin>
<krafft@de.ibm.com>");	<stdin>
<leoli@freescale.com>	<stdin>
<leoli@freescale.com>	<stdin>
<leoli@freescale.com>	<stdin>
<leoli@freescale.com>	<stdin>
<leoli@freescale.com>	<stdin>
<leoli@freescale.com>	<stdin>
<linux-kernel@hansmi.ch>	<stdin>
<mahesh@linux.vnet.ibm.com>	<stdin>
<martyn.welch@ge.com>	<stdin>
<matt@ozlabs.org>,	<stdin>
<matt@ozlabs.org>,	<stdin>
<maxim@de.ibm.com>	<stdin>
<maxim@de.ibm.com>");	<stdin>
<maynardj@us.ibm.com>	<stdin>
<maynardj@us.ibm.com>	<stdin>
<maynardj@us.ibm.com>	<stdin>
<maynardj@us.ibm.com>	<stdin>
<maynardj@us.ibm.com>	<stdin>
<mgreer@mvista.com>	<stdin>
<mikejc@us.ibm.com>	<stdin>
<mingo@elte.hu>	<stdin>
<mingo@redhat.com>	<stdin>
<mochel@osdl.org>	<stdin>
<mporter@kernel.crashing.org>	<stdin>
<mporter@kernel.crashing.org>	<stdin>
<mporter@kernel.crashing.org>	<stdin>
<mporter@kernel.crashing.org>	<stdin>
<msdemlei@cl.uni-heidelberg.de>	<stdin>
<nd@bplan-gmbh.de>	<stdin>
<olof@lixom.net>	<stdin>
<olof@lixom.net>	<stdin>
<olof@lixom.net>	<stdin>
<olof@lixom.net>	<stdin>
<olof@lixom.net>	<stdin>
<olof@lixom.net>	<stdin>
<olof@lixom.net>	<stdin>
<olof@lixom.net>	<stdin>
<olof@lixom.net>");	<stdin>
<olof@lixom.net>");	<stdin>
<olof@lixom.net>,	<stdin>
<olof@lixom.net>,	<stdin>
<olof@lixom.net>,	<stdin>
<panto@intracom.gr>	<stdin>
<paulus@au.ibm.com>,	<stdin>
<paulus@au.ibm.com>,	<stdin>
<paulus@cs.anu.edu.au>	<stdin>
<pavel@ucw.cz>	<stdin>
<prasad@linux.vnet.ibm.com>	<stdin>
<rcjenn@us.ibm.com>	<stdin>
<rohit.seth@intel.com>	<stdin>
<rohit.seth@intel.com>	<stdin>
<rolandd@cisco.com>	<stdin>
<s.hauer@pengutronix.de>,	<stdin>
<schickhj@de.ibm.com>	<stdin>
<scottwood@freescale.com>	<stdin>
<scottwood@freescale.com>	<stdin>
<scottwood@freescale.com>	<stdin>
<scottwood@freescale.com>	<stdin>
<scottwood@freescale.com>	<stdin>
<scottwood@freescale.com>	<stdin>
<scottwood@freescale.com>	<stdin>
<scottwood@freescale.com>	<stdin>
<scottwood@freescale.com>	<stdin>
<scottwood@freescale.com>	<stdin>
<scottwood@freescale.com>	<stdin>
<scottwood@freescale.com>	<stdin>
<sfalco@harris.com>	<stdin>
<sl@bplan-gmbh.de>	<stdin>
<sr@denx.de>	<stdin>
<sr@denx.de>	<stdin>
<srostedt@redhat.com>	<stdin>
<sshtylyov@ru.mvista.com>	<stdin>
<sukadev@linux.vnet.ibm.com>	<stdin>
<suparna@in.ibm.com>	<stdin>
<thomas.moll@sysgo.com>	<stdin>
<thomas.moll@sysgo.com>	<stdin>
<thomas.moll@sysgo.com>	<stdin>
<tie-fei.zang@freescale.com>	<stdin>
<tie-fei.zang@freescale.com>	<stdin>
<tmarri@apm.com>	<stdin>
<tnt@246tNt.com>	<stdin>
<tnt@246tNt.com>	<stdin>
<tnt@246tNt.com>	<stdin>
<tnt@246tNt.com>	<stdin>
<tnt@246tNt.com>	<stdin>
<tnt@246tNt.com>	<stdin>
<tnt@246tNt.com>	<stdin>
<tnt@246tNt.com>	<stdin>
<tnt@246tNt.com>	<stdin>
<tnt@246tNt.com>	<stdin>
<tnt@246tNt.com>	<stdin>
<tnt@246tNt.com>	<stdin>
<tnt@246tNt.com>");	<stdin>
<tony.li@freescale.com>	<stdin>
<tony.li@freescale.com>	<stdin>
<tony.li@freescale.com>	<stdin>
<toojays@toojays.net>	<stdin>
<utz.bacher@de.ibm.com>	<stdin>
<vamsi_krishna@in.ibm.com>	<stdin>
<varun.sethi@freescale.com>	<stdin>
<vbordug@ru.mvista.com>	<stdin>
<vbordug@ru.mvista.com>	<stdin>
<vbordug@ru.mvista.com>	<stdin>
<vbordug@ru.mvista.com>	<stdin>
<vbordug@ru.mvista.com>	<stdin>
<vbordug@ru.mvista.com>	<stdin>
<vbordug@ru.mvista.com>	<stdin>
<vbordug@ru.mvista.com>	<stdin>
<vbordug@ru.mvista.com>	<stdin>
<vbordug@ru.mvista.com>	<stdin>
<vbordug@ru.mvista.com>	<stdin>
<vbordug@ru.mvista.com>	<stdin>
<vivek.mahajan@freescale.com>	<stdin>
<vivek.mahajan@freescale.com>	<stdin>
<vivek.mahajan@freescale.com>	<stdin>
<vwool@ru.mvista.com>	<stdin>
<wei.zhang@freescale.com>	<stdin>
<wei.zhang@freescale.com>	<stdin>
<wei.zhang@freescale.com>	<stdin>
<wei.zhang@freescale.com>	<stdin>
<wfarnsworth@mvista.com>	<stdin>
<wfarnsworth@mvista.com>	<stdin>
<willschm@us.ibm.com>,	<stdin>
<x.xiao@freescale.com>	<stdin>
@0x%08x	<stdin>
@0x%p	<stdin>
@0x%p,	<stdin>
@0x%p:	<stdin>
@0x%p\n",	<stdin>
@acop:	<stdin>
@acop:	<stdin>
@addr0:	<stdin>
@addr:	<stdin>
@addr_base:	<stdin>
@addr_base:	<stdin>
@addr_base:	<stdin>
@addr_base:	<stdin>
@addr_base:	<stdin>
@address:	<stdin>
@align:	<stdin>
@arch_uprobe:	<stdin>
@auprobe:	<stdin>
@balance_q:	<stdin>
@bio:	<stdin>
@bmp:	<stdin>
@brg:	<stdin>
@bridge:	<stdin>
@buf	<stdin>
@buf	<stdin>
@buf	<stdin>
@buf:	<stdin>
@buf:	<stdin>
@buffer	<stdin>
@buffer:	<stdin>
@bus:	<stdin>
@bus:	<stdin>
@bus:	<stdin>
@bus:	<stdin>
@chan:	<stdin>
@chan:	<stdin>
@chan:	<stdin>
@chan:	<stdin>
@chan:	<stdin>
@chan:	<stdin>
@chan:	<stdin>
@cmdsta:	<stdin>
@csize:	<stdin>
@curr:	<stdin>
@data:	<stdin>
@data:	<stdin>
@data:	<stdin>
@data:	<stdin>
@data:	<stdin>
@data_index:	<stdin>
@desired:	<stdin>
@desired:	<stdin>
@destid:	<stdin>
@destid:	<stdin>
@destid:	<stdin>
@dev:	<stdin>
@dev:	<stdin>
@dev:	<stdin>
@dev:	<stdin>
@dev:	<stdin>
@dev:	<stdin>
@dev:	<stdin>
@dev_id:	<stdin>
@dev_id:	<stdin>
@dev_instance:	<stdin>
@dev_instance:	<stdin>
@dev_instance:	<stdin>
@dev_instance:	<stdin>
@devfn:	<stdin>
@device,	<stdin>
@device:	<stdin>
@device:	<stdin>
@device_list:	<stdin>
@enable:	<stdin>
@end	<stdin>
@entitled:	<stdin>
@entries:	<stdin>
@entries:	<stdin>
@error_code:	<stdin>
@events:	<stdin>
@exception:	<stdin>
@exceptions:	<stdin>
@excess:	<stdin>
@fifo:	<stdin>
@fifo:	<stdin>
@flag:	<stdin>
@flag:	<stdin>
@flag:	<stdin>
@flag:	<stdin>
@flags:	<stdin>
@free:	<stdin>
@gtm:	<stdin>
@handle:	<stdin>
@handle:	<stdin>
@high:	<stdin>
@hopcount:	<stdin>
@hopcount:	<stdin>
@hose:	<stdin>
@hose:	<stdin>
@ids:	<stdin>
@index:	<stdin>
@index:	<stdin>
@index:	<stdin>
@index:	<stdin>
@index:	<stdin>
@index:	<stdin>
@intack_addr:	<stdin>
@intf:	<stdin>
@intf:	<stdin>
@io_base:	<stdin>
@irq:	<stdin>
@irq:	<stdin>
@irq:	<stdin>
@irq:	<stdin>
@irq:	<stdin>
@len:	<stdin>
@len:	<stdin>
@len:	<stdin>
@len:	<stdin>
@len:	<stdin>
@length:	<stdin>
@list:	<stdin>
@lock:	<stdin>
@log:	<stdin>
@mar:	<stdin>
@maxbufsize:	<stdin>
@mbox:	<stdin>
@mbox:	<stdin>
@mbox:	<stdin>
@mbox:	<stdin>
@mbox:	<stdin>
@mbox:	<stdin>
@mbox:	<stdin>
@min:	<stdin>
@min_size:	<stdin>
@mm	<stdin>
@mm:	<stdin>
@mm:	<stdin>
@mm:	<stdin>
@mport:	<stdin>
@mport:	<stdin>
@mport:	<stdin>
@mport:	<stdin>
@mport:	<stdin>
@mport:	<stdin>
@mport:	<stdin>
@mport:	<stdin>
@mport:	<stdin>
@mport:	<stdin>
@mport:	<stdin>
@mport:	<stdin>
@mport:	<stdin>
@mport:	<stdin>
@mport:	<stdin>
@multiplier:	<stdin>
@name:	<stdin>
@name:	<stdin>
@name:	<stdin>
@name:	<stdin>
@new_entitlement:	<stdin>
@node:	<stdin>
@node:	<stdin>
@node:	<stdin>
@node:	<stdin>
@node:	<stdin>
@node:	<stdin>
@node:	<stdin>
@node_ar:	<stdin>
@np:	<stdin>
@np:	<stdin>
@of_node:	<stdin>
@offset	<stdin>
@offset:	<stdin>
@offset:	<stdin>
@offset:	<stdin>
@offset:	<stdin>
@offset:	<stdin>
@offset:	<stdin>
@offset:	<stdin>
@offset:	<stdin>
@offset:	<stdin>
@offset:	<stdin>
@offset:	<stdin>
@offset:	<stdin>
@op	<stdin>
@op.	<stdin>
@out_size:	<stdin>
@pfn	<stdin>
@pfn:	<stdin>
@pfn:	<stdin>
@primary:	<stdin>
@psc_num:	<stdin>
@psc_num:	<stdin>
@qe_pin:	<stdin>
@qe_pin:	<stdin>
@qe_pin:	<stdin>
@queue,	<stdin>
@queue_len:	<stdin>
@queue_len:	<stdin>
@rate:	<stdin>
@rdev:	<stdin>
@reg:	<stdin>
@reg:	<stdin>
@reg:	<stdin>
@reg:	<stdin>
@reg:	<stdin>
@reg:	<stdin>
@regs:	<stdin>
@regs:	<stdin>
@regs:	<stdin>
@regs:	<stdin>
@reload:	<stdin>
@reload:	<stdin>
@req_size:	<stdin>
@rescan_existing:	<stdin>
@reserve:	<stdin>
@ring_size:	<stdin>
@root_name	<stdin>
@section_id:	<stdin>
@sector,	<stdin>
@sig:	<stdin>
@sig:	<stdin>
@sig:	<stdin>
@size:	<stdin>
@size:	<stdin>
@size:	<stdin>
@size:	<stdin>
@size:	<stdin>
@size:	<stdin>
@size:	<stdin>
@size:	<stdin>
@spare:	<stdin>
@start	<stdin>
@status:	<stdin>
@timer:	<stdin>
@tmr:	<stdin>
@tmr:	<stdin>
@tmr:	<stdin>
@tmr:	<stdin>
@tmr:	<stdin>
@total_size:	<stdin>
@tsk:	<stdin>
@tsk:	<stdin>
@tsk:	<stdin>
@tsk:	<stdin>
@tsk:	<stdin>
@tsk:	<stdin>
@tsk:	<stdin>
@tsk:	<stdin>
@tsk:	<stdin>
@tsk:	<stdin>
@type:	<stdin>
@upm:	<stdin>
@upm:	<stdin>
@usec:	<stdin>
@usec:	<stdin>
@userbuf)	<stdin>
@userbuf:	<stdin>
@val:	<stdin>
@val:	<stdin>
@val:	<stdin>
@val:	<stdin>
@val:	<stdin>
@vdev	<stdin>
@vdev:	<stdin>
@vio_dev:	<stdin>
@viodev	<stdin>
@viodev	<stdin>
@viodev:	<stdin>
@viodev:	<stdin>
@viodev:	<stdin>
@viodrv:	<stdin>
@viodrv:	<stdin>
@vnode:	<stdin>
@which	<stdin>
@which:	<stdin>
@work:	<stdin>
ADDR("/u3@0,f8000000"));	<stdin>
ADDR("/u3@0,f8000000/i2c@f8001000"));	<stdin>
ADDR("/u3@0,f8000000/mpic@f8040000"));	<stdin>
Gerhard.Wichert@pdb.siemens.de	<stdin>
STACK_FRAME_REGS_MARKER@ha;/*	<stdin>
STACK_FRAME_REGS_MARKER@l;	<stdin>
engebret@us.ibm.com	<stdin>
engebret@us.ibm.com	<stdin>
memory@XXXX)	<stdin>
nathanl@austin.ibm.com	<stdin>
of_find_node_by_path("/soc@ff000000/cpm@9c0/ethernet@a40");	<stdin>
of_find_node_by_path("/soc@ff000000/cpm@9c0/serial@a80");	<stdin>
of_find_node_by_path("/u3@0,f8000000/i2c@f8001000/cpuid@a0");	<stdin>
r0,TSR_DIS@h;	<stdin>
r10,(DBSR_IC|DBSR_BT)@h;	<stdin>
r10,(DBSR_IC|DBSR_BT)@h;	<stdin>
r10,DebugCrit@h;	<stdin>
r10,DebugDebug@h;	<stdin>
r10,KERNELBASE@h;	<stdin>
r10,KERNELBASE@h;	<stdin>
r10,msr@h;	<stdin>
r10,r10,(DBSR_IC|DBSR_BT)@h;	<stdin>
r10,r10,(DBSR_IC|DBSR_BT)@h;	<stdin>
r10,r10,DebugCrit@l;	<stdin>
r10,r10,DebugDebug@l;	<stdin>
r10,r10,KERNELBASE@l;	<stdin>
r10,r10,KERNELBASE@l;	<stdin>
r10,r10,msr@l;	<stdin>
r12,r12,sym@l	<stdin>
r12,r12,sym@l*/	<stdin>
r12,sym@ha	<stdin>
r12,sym@ha	<stdin>
r26,vector_label@l;	<stdin>
r8,level##_STACK_BASE@ha;	<stdin>
r8,level##_STACK_BASE@l(r8);	<stdin>
r8,level##_STACK_BASE@l(r8);	<stdin>
r8,r8,level##_STACK_BASE@ha;	<stdin>
reg,reg,val@ha;	<stdin>
reg,reg,val@l	<stdin>
santil@us.ibm.com	<stdin>
source@mvista.com	<stdin>
source@mvista.com	<stdin>
tie-fei.zang@freescale.com	<stdin>
willschm@us.ibm.com	<stdin>
{engebret|bergner}@us.ibm.com	<stdin>
{engebret|bergner}@us.ibm.com	<stdin>
{engebret|mikejc}@us.ibm.com	<stdin>
{engebret|mikejc}@us.ibm.com	<stdin>
{mikejc|engebret}@us.ibm.com	<stdin>
