(cernekee@gmail.com)	<stdin>
(davem@davemloft.net)	<stdin>
(davem@davemloft.net)	<stdin>
(davem@davemloft.net)	<stdin>
(davem@davemloft.net)	<stdin>
(kanoj@sgi.com)	<stdin>
(ldavies@agile.tv)	<stdin>
(ralf@gnu.org)	<stdin>
(ralf@gnu.org)	<stdin>
(ralf@gnu.org)	<stdin>
(ralf@linux-mips.org)	<stdin>
(ralf@linux-mips.org)	<stdin>
(ralf@linux-mips.org)	<stdin>
(ralf@linux-mips.org)	<stdin>
(ralf@linux-mips.org)	<stdin>
(ralf@linux-mips.org)	<stdin>
(ralf@linux-mips.org)	<stdin>
(ralf@linux-mips.org)	<stdin>
(ralf@linux-mips.org)	<stdin>
(ralf@linux-mips.org)	<stdin>
(ralf@linux-mips.org)	<stdin>
(ralf@linux-mips.org)	<stdin>
(ralf@linux-mips.org)	<stdin>
(tsbogend@alpha.franken.de)	<stdin>
<a2ebde260608230500o3407b108hc03debb9da6e62c@mail.gmail.com>	<stdin>
<apatard@mandriva.com>	<stdin>
<apatard@mandriva.com>	<stdin>
<apatard@mandriva.com>	<stdin>
<apatard@mandriva.com>	<stdin>
<apatard@mandriva.com>	<stdin>
<apatard@mandriva.com>	<stdin>
<apatard@mandriva.com>	<stdin>
<apatard@mandriva.com>	<stdin>
<apatard@mandriva.com>	<stdin>
<apatard@mandriva.com>	<stdin>
<aurelien@aurel32.net>	<stdin>
<blogic@openwrt.org>	<stdin>
<blogic@openwrt.org>	<stdin>
<blogic@openwrt.org>	<stdin>
<blogic@openwrt.org>	<stdin>
<blogic@openwrt.org>	<stdin>
<blogic@openwrt.org>	<stdin>
<chris.steel@nxp.com>	<stdin>
<chris.steel@nxp.com>	<stdin>
<daniel.j.laird@nxp.com>	<stdin>
<daniel.j.laird@nxp.com>	<stdin>
<geert@sonycom.com>	<stdin>
<ito@mlb.co.jp>	<stdin>
<jnarayanan@atheros.com>	<stdin>
<jorge@laser.satlink.net>,	<stdin>
<juhosg@openwrt.org>	<stdin>
<juhosg@openwrt.org>	<stdin>
<juhosg@openwrt.org>	<stdin>
<juhosg@openwrt.org>	<stdin>
<juhosg@openwrt.org>	<stdin>
<kaloz@openwrt.org>	<stdin>
<kaloz@openwrt.org>	<stdin>
<keguang.zhang@gmail.com>	<stdin>
<keguang.zhang@gmail.com>	<stdin>
<keguang.zhang@gmail.com>	<stdin>
<keguang.zhang@gmail.com>	<stdin>
<lars@metafoo.de>	<stdin>
<lars@metafoo.de>	<stdin>
<lars@metafoo.de>	<stdin>
<lars@metafoo.de>	<stdin>
<lars@metafoo.de>	<stdin>
<lars@metafoo.de>	<stdin>
<lars@metafoo.de>	<stdin>
<liujl@lemote.com>	<stdin>
<macro@mips.com>	<stdin>
<matsu@megasolution.jp>	<stdin>
<mingo@redhat.com>	<stdin>
<nbd@openwrt.org>	<stdin>
<nschichan@corp.free.fr>	<stdin>
<ralf@linux-mips.org>	<stdin>
<ralf@linux-mips.org>	<stdin>
<ralf@linux-mips.org>	<stdin>
<ralf@linux-mips.org>	<stdin>
<ralf@linux-mips.org>	<stdin>
<ralf@linux-mips.org>	<stdin>
<ralf@linux-mips.org>	<stdin>
<ralf@linux-mips.org>	<stdin>
<ralf@linux-mips.org>	<stdin>
<ralf@linux-mips.org>	<stdin>
<ralf@linux-mips.org>	<stdin>
<ralf@linux-mips.org>	<stdin>
<ralf@linux-mips.org>	<stdin>
<ralf@linux-mips.org>	<stdin>
<ralf@linux-mips.org>	<stdin>
<ralf@linux-mips.org>	<stdin>
<ralf@linux-mips.org>	<stdin>
<ralf@linux-mips.org>	<stdin>
<ralf@linux-mips.org>	<stdin>
<ralf@linux-mips.org>	<stdin>
<ralf@linux-mips.org>	<stdin>
<ralf@linux-mips.org>	<stdin>
<ralf@linux-mips.org>	<stdin>
<ralf@linux-mips.org>	<stdin>
<ralf@linux-mips.org>	<stdin>
<ralf@linux-mips.org>	<stdin>
<ralf@linux-mips.org>	<stdin>
<ralf@linux-mips.org>	<stdin>
<ralf@linux-mips.org>	<stdin>
<ralf@linux-mips.org>	<stdin>
<richard.liu@st.com>	<stdin>
<richard.liu@st.com>	<stdin>
<richard.liu@st.com>	<stdin>
<richard.liu@st.com>	<stdin>
<richard.liu@st.com>	<stdin>
<richard.liu@st.com>	<stdin>
<richard.liu@st.com>	<stdin>
<richard.liu@st.com>	<stdin>
<richard.liu@st.com>	<stdin>
<richard.liu@st.com>	<stdin>
<thh@lasat.com>	<stdin>
<thomas.koeller@baslerweb.com>	<stdin>
<thomas.langer@lantiq.com>	<stdin>
<wuzhangjin@gmail.com>	<stdin>
<wuzhangjin@gmail.com>	<stdin>
<wuzhangjin@gmail.com>	<stdin>
<yuasa@linux-mips.org>	<stdin>
<yuasa@linux-mips.org>	<stdin>
<yuasa@linux-mips.org>	<stdin>
<yuasa@linux-mips.org>	<stdin>
<yuasa@linux-mips.org>	<stdin>
<yuasa@linux-mips.org>	<stdin>
<yuasa@linux-mips.org>	<stdin>
<yuasa@linux-mips.org>	<stdin>
<yuasa@linux-mips.org>	<stdin>
<yuasa@linux-mips.org>	<stdin>
<yuasa@linux-mips.org>	<stdin>
@address:	<stdin>
@address:	<stdin>
@author	<stdin>
@author	<stdin>
@author	<stdin>
@brief	<stdin>
@brief	<stdin>
@brief	<stdin>
@file_name	<stdin>
@file_name	<stdin>
@file_name	<stdin>
@lock:	<stdin>
@lock:	<stdin>
@mac:	<stdin>
@map:	<stdin>
@map:	<stdin>
@nvram:	<stdin>
@offset:	<stdin>
@offset:	<stdin>
@offset:	<stdin>
@offset:	<stdin>
@size:	<stdin>
@size:	<stdin>
@size:	<stdin>
Andrew_Hughes@pmc-sierra.com	<stdin>
Andrew_Hughes@pmc-sierra.com	<stdin>
Gerhard.Wichert@pdb.siemens.de	<stdin>
carstenl@mips.com	<stdin>
carstenl@mips.com	<stdin>
carstenl@mips.com	<stdin>
carstenl@mips.com	<stdin>
carstenl@mips.com	<stdin>
carstenl@mips.com	<stdin>
carstenl@mips.com	<stdin>
chris@mips.com	<stdin>
jsun@junsun.net	<stdin>
jsun@mvista.com	<stdin>
kevink@mips.com	<stdin>
kevink@mips.com	<stdin>
kevink@mips.org	<stdin>
kevink@mips.org	<stdin>
