(alexandreb@tundra.com)	<stdin>
(benh@kernel.crashing.org)	<stdin>
(benh@kernel.crashing.org)	<stdin>
(benh@kernel.crashing.org),	<stdin>
(benh@kernel.crashing.org),	<stdin>
(cort@cs.nmt.edu)	<stdin>
(cort@cs.nmt.edu)	<stdin>
(davem@caip.rutgers.edu)	<stdin>
(davem@caip.rutgers.edu)	<stdin>
(dhowells@redhat.com)	<stdin>
(djerb@us.ibm.com)	<stdin>
(djerb@us.ibm.com)	<stdin>
(dmalek@jlc.net)	<stdin>
(dmalek@jlc.net)	<stdin>
(dmalek@jlc.net)	<stdin>
(frowand@mvista.com)	<stdin>
(gdt@linuxppc.org)	<stdin>
(jacob.pan@freescale.com)	<stdin>
(john.whitney@timesys.com)	<stdin>
(kanoj@sgi.com)	<stdin>
(kevcorry@us.ibm.com)	<stdin>
(maguilar@us.ibm.com)	<stdin>
(pmaydell@chiark.greenend.org.uk).	<stdin>
(tdyas@eden.rutgers.edu)	<stdin>
(tesch@cs.wisc.edu)	<stdin>
(trini@mvista.com)	<stdin>
.TOC.@tocbase;	<stdin>
.TOC.@tocbase;	<stdin>
.TOC.@tocbase;	<stdin>
.TOC.@tocbase;	<stdin>
.TOC.@tocbase;	<stdin>
.ftrace.tramp,\"ax\",@nobits;	<stdin>
.init.plt,\"ax\",@nobits;	<stdin>
.name,.TOC.@tocbase,0;	<stdin>
.name,@function;	<stdin>
.plt,\"ax\",@nobits;	<stdin>
.stubs,\"ax\",@nobits;	<stdin>
<Chang-Ming.Huang@freescale.com>	<stdin>
<agraf@suse.de>	<stdin>
<agraf@suse.de>	<stdin>
<agraf@suse.de>	<stdin>
<agraf@suse.de>	<stdin>
<agraf@suse.de>	<stdin>
<agraf@suse.de>	<stdin>
<ananth@in.ibm.com>	<stdin>
<ananth@in.ibm.com>	<stdin>
<anton@au.ibm.com>,	<stdin>
<anton@au.ibm.com>,	<stdin>
<avorontsov@ru.mvista.com>	<stdin>
<benh@kernel.crashing.org>	<stdin>
<benh@kernel.crashing.org>	<stdin>
<benh@kernel.crashing.org>	<stdin>
<benh@kernel.crashing.org>	<stdin>
<benh@kernel.crashing.org>	<stdin>
<benh@kernel.crashing.org>	<stdin>
<benh@kernel.crashing.org>	<stdin>
<benh@kernel.crashing.org>,	<stdin>
<benh@kernel.crashing.org>,	<stdin>
<bergner@vnet.ibm.com>,	<stdin>
<cort@cs.nmt.edu>	<stdin>
<cort@cs.nmt.edu>	<stdin>
<cort@cs.nmt.edu>	<stdin>
<cort@cs.nmt.edu>	<stdin>
<cort@cs.nmt.edu>	<stdin>
<cort@cs.nmt.edu>	<stdin>
<cort@cs.nmt.edu>	<stdin>
<cort@cs.nmt.edu>	<stdin>
<cort@fsmlabs.com>	<stdin>
<david@gibson.dropbear.id.au>.	<stdin>
<decimal@us.ibm.com>	<stdin>
<decimal@us.ibm.com>	<stdin>
<dfarnsworth@mvista.com>	<stdin>
<dipen.dudhat@freescale.com>	<stdin>
<djiang@mvista.com>	<stdin>
<dwg@au1.ibm.com>	<stdin>
<engebret@us.ibm.com>	<stdin>
<engebret@us.ibm.com>,	<stdin>
<fenkes@de.ibm.com>	<stdin>
<galak@kernel.crashing.org>	<stdin>
<grant@lcse.umn.edu>	<stdin>
<gridish@freescale.com>	<stdin>
<gridish@freescale.com>	<stdin>
<gridish@freescale.com>	<stdin>
<gridish@freescale.com>	<stdin>
<gridish@freescale.com>	<stdin>
<gridish@freescale.com>	<stdin>
<gridish@freescale.com>	<stdin>
<hollisb@us.ibm.com>	<stdin>
<hollisb@us.ibm.com>	<stdin>
<hollisb@us.ibm.com>	<stdin>
<hollisb@us.ibm.com>	<stdin>
<hollisb@us.ibm.com>	<stdin>
<hollisb@us.ibm.com>	<stdin>
<hollisb@us.ibm.com>	<stdin>
<hollisb@us.ibm.com>	<stdin>
<j.glisse@gmail.com>	<stdin>
<jack.lan@freescale.com>	<stdin>
<jrigby@freescale.com>,	<stdin>
<jwboyer@linux.vnet.ibm.com>	<stdin>
<jwboyer@linux.vnet.ibm.com>	<stdin>
<krafft@de.ibm.com>	<stdin>
<leoli@freescale.com>	<stdin>
<leoli@freescale.com>	<stdin>
<leoli@freescale.com>	<stdin>
<leoli@freescale.com>	<stdin>
<leoli@freescale.com>	<stdin>
<leoli@freescale.com>	<stdin>
<linas@linas.org>	<stdin>
<mahesh@linux.vnet.ibm.com>	<stdin>
<mgreer@mvista.com>	<stdin>
<mgreer@mvista.com>	<stdin>
<mgreer@mvista.com>	<stdin>
<mingo@redhat.com>	<stdin>
<mj@ucw.cz>	<stdin>
<mnutter@us.ibm.com>	<stdin>
<mporter@kernel.crashing.org>	<stdin>
<mporter@kernel.crashing.org>.	<stdin>
<nick.spence@freescale.com>,	<stdin>
<olof@lixom.net>,	<stdin>
<olof@lixom.net>,	<stdin>
<panto@intracom.gr>	<stdin>
<paulus@au.ibm.com>,	<stdin>
<paulus@au.ibm.com>,	<stdin>
<prasad@linux.vnet.ibm.com>	<stdin>
<schickhj@de.ibm.com>	<stdin>
<scottwood@freescale.com>	<stdin>
<scottwood@freescale.com>	<stdin>
<scottwood@freescale.com>	<stdin>
<scottwood@freescale.com>	<stdin>
<sr@denx.de>	<stdin>
<tim@cyberelk.demon.co.uk>	<stdin>
<timur@freescale.com>	<stdin>
<timur@freescale.com>	<stdin>
<timur@freescale.com>	<stdin>
<timur@freescale.com>	<stdin>
<tnt@246tNt.com>	<stdin>
<tnt@246tNt.com>	<stdin>
<tnt@246tNt.com>	<stdin>
<trini@kernel.crashing.org>	<stdin>
<trini@mvista.com>	<stdin>
<vamsi_krishna@in.ibm.com>	<stdin>
<vbordug@ru.mvista.com>	<stdin>
<vivek.mahajan@freescale.com>	<stdin>
<yur@emcraft.com>	<stdin>
<{engebret|mikejc}@us.ibm.com>	<stdin>
@PS3_LPM_RIGHTS_USE_LPM:	<stdin>
@PS3_LPM_RIGHTS_USE_TB.	<stdin>
@PS3_LPM_RIGHTS_USE_TB:	<stdin>
@PS3_LPM_RIGHTS_USE_TB:	<stdin>
@PS3_LPM_TB_TYPE_NONE:	<stdin>
@a	<stdin>
@a	<stdin>
@a	<stdin>
@a:	<stdin>
@a:	<stdin>
@a:	<stdin>
@addr	<stdin>
@addr	<stdin>
@addr	<stdin>
@addr	<stdin>
@addr:	<stdin>
@addr:	<stdin>
@address:	<stdin>
@address:	<stdin>
@address:	<stdin>
@allocated:	<stdin>
@allocs_failed:	<stdin>
@buffer	<stdin>
@buffer	<stdin>
@buffer	<stdin>
@buffer	<stdin>
@buffer.	<stdin>
@buffer.	<stdin>
@buffer:	<stdin>
@buffer:	<stdin>
@buffer:	<stdin>
@buffer:	<stdin>
@bus_addr:	<stdin>
@busno:	<stdin>
@chunk_list:	<stdin>
@condition	<stdin>
@condition	<stdin>
@condition:	<stdin>
@config:	<stdin>
@config:	<stdin>
@config:	<stdin>
@config:	<stdin>
@controller:	<stdin>
@count:	<stdin>
@count:	<stdin>
@count:	<stdin>
@count:	<stdin>
@count:	<stdin>
@count:	<stdin>
@count:	<stdin>
@count:	<stdin>
@count:	<stdin>
@count:	<stdin>
@cpu_num:	<stdin>
@csbcpb:	<stdin>
@ctrl_dev:	<stdin>
@data:	<stdin>
@decr:	<stdin>
@decr_status:	<stdin>
@delay	<stdin>
@delay:	<stdin>
@desired:	<stdin>
@destination:	<stdin>
@destination:	<stdin>
@destination:	<stdin>
@destination:	<stdin>
@dev:	<stdin>
@dev:	<stdin>
@dev:	<stdin>
@devfn:	<stdin>
@did:	<stdin>
@dtpath_addr:	<stdin>
@dtpath_addr:	<stdin>
@entitled:	<stdin>
@entry_point:	<stdin>
@event_mask:	<stdin>
@fail_fn:	<stdin>
@fail_fn:	<stdin>
@fail_fn:	<stdin>
@fail_fn:	<stdin>
@flags:	<stdin>
@flags:	<stdin>
@fpcr:	<stdin>
@gprs:	<stdin>
@handle:	<stdin>
@handle:	<stdin>
@handle:	<stdin>
@handle:	<stdin>
@handle:	<stdin>
@handle:	<stdin>
@handle:	<stdin>
@handle:	<stdin>
@handle:	<stdin>
@handle:	<stdin>
@handle:	<stdin>
@handle:	<stdin>
@handle:	<stdin>
@handle:	<stdin>
@handle:	<stdin>
@handle:	<stdin>
@handle:	<stdin>
@hcall_err:	<stdin>
@in:	<stdin>
@index:	<stdin>
@inlen:	<stdin>
@interrupt:	<stdin>
@interrupt:	<stdin>
@interrupt:	<stdin>
@interrupt:	<stdin>
@interrupt:	<stdin>
@interrupt:	<stdin>
@interrupt:	<stdin>
@interrupt:	<stdin>
@interrupt:	<stdin>
@interrupt:	<stdin>
@interrupt:	<stdin>
@ioid:	<stdin>
@ipi_offset:	<stdin>
@irq_count:	<stdin>
@irq_offset:	<stdin>
@isu_num:	<stdin>
@isu_size:	<stdin>
@l	<stdin>
@l	<stdin>
@l,	<stdin>
@l:	<stdin>
@l:	<stdin>
@len:	<stdin>
@liodn:	<stdin>
@liodn:	<stdin>
@location_code:	<stdin>
@ls:	<stdin>
@lscsa	<stdin>
@lscsa:	<stdin>
@map:	<stdin>
@map:	<stdin>
@map:	<stdin>
@map:	<stdin>
@mask:	<stdin>
@mask:	<stdin>
@mask:	<stdin>
@mask:	<stdin>
@message:	<stdin>
@mpic:	<stdin>
@msgr:	<stdin>
@msgr:	<stdin>
@msgr:	<stdin>
@msgr:	<stdin>
@msgr:	<stdin>
@msgr:	<stdin>
@msgr:	<stdin>
@msgr:	<stdin>
@msir_val:	<stdin>
@n	<stdin>
@n	<stdin>
@n	<stdin>
@n	<stdin>
@n:	<stdin>
@n:	<stdin>
@node:	<stdin>
@offset	<stdin>
@offset	<stdin>
@offset	<stdin>
@offset	<stdin>
@offset:	<stdin>
@offset:	<stdin>
@offset:	<stdin>
@opcode:	<stdin>
@opcode:	<stdin>
@opcode:	<stdin>
@opcode:	<stdin>
@out:	<stdin>
@outlen:	<stdin>
@page_size:	<stdin>
@partition:	<stdin>
@partition:	<stdin>
@partition:	<stdin>
@partition:	<stdin>
@partition_ID:	<stdin>
@pat_offset:	<stdin>
@phys_addr:	<stdin>
@phys_addr:	<stdin>
@pointer	<stdin>
@ppu_mb:	<stdin>
@ppuint_mb:	<stdin>
@priority:	<stdin>
@priority:	<stdin>
@priority:	<stdin>
@priority:	<stdin>
@priv1:	<stdin>
@priv2:	<stdin>
@prob:	<stdin>
@propname_addr:	<stdin>
@propname_addr:	<stdin>
@propvalue_addr:	<stdin>
@propvalue_addr:	<stdin>
@propvalue_len:	<stdin>
@propvalue_len:	<stdin>
@queue	<stdin>
@reg:	<stdin>
@reg:	<stdin>
@reg:	<stdin>
@reg:	<stdin>
@reg_num:	<stdin>
@region_ops:	<stdin>
@region_type:	<stdin>
@regs.	<stdin>
@regs.	<stdin>
@regs.	<stdin>
@regs.	<stdin>
@regs:	<stdin>
@regs:	<stdin>
@regs:	<stdin>
@regs:	<stdin>
@regs:	<stdin>
@regs:	<stdin>
@reserved:	<stdin>
@retbuf:	<stdin>
@retbuf:	<stdin>
@retbuf:	<stdin>
@rx_count:	<stdin>
@rx_count:	<stdin>
@senses:	<stdin>
@senses_num:	<stdin>
@sg_list	<stdin>
@sg_list:	<stdin>
@size:	<stdin>
@size:	<stdin>
@source:	<stdin>
@source:	<stdin>
@spu_chnlcnt_RW:	<stdin>
@spu_chnldata_RW:	<stdin>
@srr0:	<stdin>
@state:the	<stdin>
@status:	<stdin>
@stopped_status:	<stdin>
@suspend_time:	<stdin>
@tag_mask:	<stdin>
@target:	<stdin>
@target:	<stdin>
@threads:	<stdin>
@timeout:	<stdin>
@timeout:	<stdin>
@tx_count:	<stdin>
@tx_count:	<stdin>
@u,	<stdin>
@u.	<stdin>
@u.	<stdin>
@u.	<stdin>
@u:	<stdin>
@u:	<stdin>
@u:	<stdin>
@unit_address:	<stdin>
@upm:	<stdin>
@upm:	<stdin>
@v	<stdin>
@v	<stdin>
@v	<stdin>
@v	<stdin>
@v	<stdin>
@v	<stdin>
@v	<stdin>
@v	<stdin>
@v,	<stdin>
@v,	<stdin>
@v.	<stdin>
@v.	<stdin>
@v:	<stdin>
@v:	<stdin>
@v:	<stdin>
@v:	<stdin>
@v:	<stdin>
@v:	<stdin>
@value:	<stdin>
@vcpu:	<stdin>
@vcpu:	<stdin>
@vcpu:	<stdin>
@vcpu_mask:	<stdin>
@vector:	<stdin>
@vector:	<stdin>
GLUE(.,name),@function;	<stdin>
GLUE(.,name),@function;	<stdin>
GLUE(.,name),@function;	<stdin>
GLUE(.,name),@function;	<stdin>
GLUE(.,name),@function;	<stdin>
Gerhard.Wichert@pdb.siemens.de	<stdin>
benh@kernel.crashing.org,	<stdin>
engebret@us.ibm.com	<stdin>
name,@function;	<stdin>
name@l	<stdin>
r11,exception_marker@toc(r2);	<stdin>
r3,r3,interrupt_base_book3e@l;	<stdin>
r3,vector_offset@l;	<stdin>
r4,KERNELBASE@h;	<stdin>
rd,rs,-PAGE_OFFSET@h;	<stdin>
rd,rs,PAGE_OFFSET@h;	<stdin>
reg,(expr)@ha;	<stdin>
reg,(expr)@highest;	<stdin>
reg,name@got(r2)	<stdin>
reg,name@ha	<stdin>
reg,reg,(expr)@h;	<stdin>
reg,reg,(expr)@higher;	<stdin>
reg,reg,(expr)@l;	<stdin>
reg,reg,(expr)@l;	<stdin>
rx,VSID_MULTIPLIER_##size@h;	<stdin>
rx,rx,VSID_MULTIPLIER_##size@l;	<stdin>
santil@us.ibm.com	<stdin>
{engebret|bergner|mikejc}@us.ibm.com	<stdin>
