(davem@davemloft.net)	<stdin>
(davem@davemloft.net)	<stdin>
(davem@davemloft.net)	<stdin>
(davem@davemloft.net)	<stdin>
(davem@davemloft.net)	<stdin>
(davem@davemloft.net)	<stdin>
(davem@davemloft.net)	<stdin>
(davem@davemloft.net)	<stdin>
(davem@davemloft.net)	<stdin>
(davem@davemloft.net)	<stdin>
(davem@davemloft.net)	<stdin>
(dm@sgi.com)	<stdin>
(flo@rfc822.org)	<stdin>
(hch@lst.de)	<stdin>
(kanoj@sgi.com)	<stdin>
(kanoj@sgi.com)	<stdin>
(kanoj@sgi.com)	<stdin>
(ldavies@agile.tv)	<stdin>
(mlachwani@mvista.com)	<stdin>
(mlachwani@mvista.com)	<stdin>
(ralf@gnu.org)	<stdin>
(ralf@gnu.org)	<stdin>
(ralf@gnu.org)	<stdin>
(ralf@gnu.org)	<stdin>
(ralf@gnu.org)	<stdin>
(ralf@gnu.org)	<stdin>
(ralf@gnu.org)	<stdin>
(ralf@gnu.org)	<stdin>
(ralf@gnu.org)	<stdin>
(ralf@gnu.org)	<stdin>
(ralf@linux-mips.org)	<stdin>
(ralf@linux-mips.org)	<stdin>
(ralf@linux-mips.org)	<stdin>
(ralf@linux-mips.org)	<stdin>
(ralf@linux-mips.org)	<stdin>
(ralf@linux-mips.org)	<stdin>
(ralf@linux-mips.org)	<stdin>
(ralf@linux-mips.org)	<stdin>
(ralf@linux-mips.org)	<stdin>
(ralf@linux-mips.org)	<stdin>
(ralf@linux-mips.org)	<stdin>
(ralf@linux-mips.org)	<stdin>
(ralf@linux-mips.org)	<stdin>
(ralf@linux-mips.org)	<stdin>
(ralf@linux-mips.org)	<stdin>
(ralf@linux-mips.org)	<stdin>
(ralf@linux-mips.org)	<stdin>
(ralf@linux-mips.org)	<stdin>
(ralf@linux-mips.org)	<stdin>
(ralf@linux-mips.org)	<stdin>
(ralf@linux-mips.org)	<stdin>
(ralf@linux-mips.org)	<stdin>
(ralf@linux-mips.org)	<stdin>
(rischelp@idt.com)	<stdin>
(rischelp@idt.com)	<stdin>
(rongkai.zhan@windriver.com)	<stdin>
(tsbogend@alpha.franken.de)	<stdin>
<aurelien@aurel32.net>	<stdin>
<blogic@openwrt.org>	<stdin>
<blogic@openwrt.org>	<stdin>
<blogic@openwrt.org>	<stdin>
<blogic@openwrt.org>	<stdin>
<carstenl@mips.com>	<stdin>
<carstenl@mips.com>	<stdin>
<carstenl@mips.com>	<stdin>
<carstenl@mips.com>	<stdin>
<carstenl@mips.com>	<stdin>
<carstenl@mips.com>	<stdin>
<carstenl@mips.com>	<stdin>
<catalin.marinas@arm.com>	<stdin>
<catalin.marinas@arm.com>	<stdin>
<catalin.marinas@arm.com>	<stdin>
<catalin.marinas@arm.com>	<stdin>
<catalin.marinas@arm.com>	<stdin>
<douglas@mips.com>	<stdin>
<ejka@openwrt.org>	<stdin>
<geert@sonycom.com>	<stdin>
<geert@sonycom.com>	<stdin>
<juhosg@openwrt.org>	<stdin>
<juhosg@openwrt.org>	<stdin>
<juhosg@openwrt.org>	<stdin>
<kaloz@openwrt.org>	<stdin>
<keguang.zhang@gmail.com>	<stdin>
<keguang.zhang@gmail.com>	<stdin>
<keguang.zhang@gmail.com>	<stdin>
<keguang.zhang@gmail.com>	<stdin>
<keguang.zhang@gmail.com>	<stdin>
<keguang.zhang@gmail.com>	<stdin>
<keguang.zhang@gmail.com>	<stdin>
<keguang.zhang@gmail.com>	<stdin>
<keguang.zhang@gmail.com>	<stdin>
<macro@mips.com>	<stdin>
<macro@mips.com>	<stdin>
<macro@mips.com>	<stdin>
<macro@mips.com>	<stdin>
<macro@mips.com>	<stdin>
<macro@mips.com>	<stdin>
<macro@mips.com>	<stdin>
<marc.zyngier@arm.com>	<stdin>
<marc.zyngier@arm.com>	<stdin>
<matsu@megasolution.jp>	<stdin>
<mbizon@freebox.fr>	<stdin>
<mbizon@freebox.fr>	<stdin>
<mbizon@freebox.fr>	<stdin>
<mj@ucw.cz>	<stdin>
<mporter@mvista.com>	<stdin>
<nbd@openwrt.org>	<stdin>
<nbd@openwrt.org>	<stdin>
<philb@gnu.org>	<stdin>
<ralf@linux-mips.org>	<stdin>
<ralf@linux-mips.org>	<stdin>
<ralf@linux-mips.org>	<stdin>
<ralf@linux-mips.org>	<stdin>
<ralf@linux-mips.org>	<stdin>
<ralf@linux-mips.org>	<stdin>
<ralf@linux-mips.org>	<stdin>
<ralf@linux-mips.org>	<stdin>
<ralf@linux-mips.org>	<stdin>
<sjhill@mips.com>	<stdin>
<sjhill@mips.com>	<stdin>
<source@mvista.com>	<stdin>
<source@mvista.com>	<stdin>
<source@mvista.com>	<stdin>
<source@mvista.com>	<stdin>
<source@mvista.com>	<stdin>
<source@mvista.com>	<stdin>
<will.deacon@arm.com>	<stdin>
<will.deacon@arm.com>	<stdin>
<will.deacon@arm.com>	<stdin>
<will.deacon@arm.com>	<stdin>
<will.deacon@arm.com>	<stdin>
<will.deacon@arm.com>	<stdin>
<will.deacon@arm.com>	<stdin>
<wuzhangjin@gmail.com>	<stdin>
<wuzhangjin@gmail.com>	<stdin>
<wuzhangjin@gmail.com>	<stdin>
<xsecute@googlemail.com>	<stdin>
<yuasa@linux-mips.org>	<stdin>
<yuasa@linux-mips.org>	<stdin>
<yuasa@linux-mips.org>	<stdin>
<yuasa@linux-mips.org>	<stdin>
<yuasa@linux-mips.org>	<stdin>
<yuasa@linux-mips.org>	<stdin>
<yuasa@linux-mips.org>	<stdin>
<yuasa@linux-mips.org>	<stdin>
<yuasa@linux-mips.org>	<stdin>
@a	<stdin>
@a	<stdin>
@a	<stdin>
@a	<stdin>
@a:	<stdin>
@a:	<stdin>
@a:	<stdin>
@a:	<stdin>
@addr:	<stdin>
@addr:	<stdin>
@addr:	<stdin>
@addr:	<stdin>
@addr:	<stdin>
@addr:	<stdin>
@addr:	<stdin>
@addr:	<stdin>
@addr:	<stdin>
@addr:	<stdin>
@addr:	<stdin>
@addr:	<stdin>
@addr:	<stdin>
@addr:	<stdin>
@addr:	<stdin>
@addr:	<stdin>
@addr:	<stdin>
@addr:	<stdin>
@bus:	<stdin>
@bus:	<stdin>
@bus:	<stdin>
@bus:	<stdin>
@bus:	<stdin>
@bus:	<stdin>
@bus:	<stdin>
@cfg_offset:	<stdin>
@cfg_offset:	<stdin>
@desc:	<stdin>
@dev:	<stdin>
@dev:	<stdin>
@dev:	<stdin>
@dev:	<stdin>
@dev:	<stdin>
@dev:	<stdin>
@dev:	<stdin>
@dev:	<stdin>
@dev:	<stdin>
@dev:	<stdin>
@dev:	<stdin>
@fn:	<stdin>
@fn:	<stdin>
@fn:	<stdin>
@fn:	<stdin>
@fn:	<stdin>
@fn:	<stdin>
@fn:	<stdin>
@function;	<stdin>
@function;	<stdin>
@function;	<stdin>
@hub:	<stdin>
@hub:	<stdin>
@i	<stdin>
@i	<stdin>
@i	<stdin>
@i	<stdin>
@i	<stdin>
@i	<stdin>
@i	<stdin>
@i	<stdin>
@i	<stdin>
@i	<stdin>
@i	<stdin>
@i	<stdin>
@i	<stdin>
@i	<stdin>
@i	<stdin>
@i	<stdin>
@i	<stdin>
@i	<stdin>
@i	<stdin>
@i	<stdin>
@i.	<stdin>
@i.	<stdin>
@i.	<stdin>
@i.	<stdin>
@i.	<stdin>
@i.	<stdin>
@i.	<stdin>
@i.	<stdin>
@i.	<stdin>
@i.	<stdin>
@i:	<stdin>
@i:	<stdin>
@i:	<stdin>
@i:	<stdin>
@i:	<stdin>
@i:	<stdin>
@i:	<stdin>
@i:	<stdin>
@i:	<stdin>
@i:	<stdin>
@i:	<stdin>
@i:	<stdin>
@i:	<stdin>
@i:	<stdin>
@i:	<stdin>
@i:	<stdin>
@i:	<stdin>
@i:	<stdin>
@i:	<stdin>
@i:	<stdin>
@i:	<stdin>
@i:	<stdin>
@i:	<stdin>
@i:	<stdin>
@irq:	<stdin>
@nasid:	<stdin>
@nr	<stdin>
@nr	<stdin>
@nr	<stdin>
@nr	<stdin>
@nr:	<stdin>
@nr:	<stdin>
@nr:	<stdin>
@nr:	<stdin>
@nr:	<stdin>
@nr:	<stdin>
@nr:	<stdin>
@nr:	<stdin>
@nr:	<stdin>
@nr:	<stdin>
@nr:	<stdin>
@nr:	<stdin>
@nr:	<stdin>
@nr:	<stdin>
@nr:	<stdin>
@nr:	<stdin>
@nr:	<stdin>
@nr:	<stdin>
@pcie_port:	<stdin>
@pcie_port:	<stdin>
@pcie_port:	<stdin>
@pcie_port:	<stdin>
@pcie_port:	<stdin>
@pcie_port:	<stdin>
@pcie_port:	<stdin>
@pcie_port:	<stdin>
@pcie_port:	<stdin>
@pcie_port:	<stdin>
@pcie_port:	<stdin>
@pcie_port:	<stdin>
@pcie_port:	<stdin>
@pcie_port:	<stdin>
@pcie_port:	<stdin>
@pcie_port:	<stdin>
@pcie_port:	<stdin>
@pcie_port:	<stdin>
@pcie_port:	<stdin>
@pin:	<stdin>
@pin:	<stdin>
@pin:	<stdin>
@reg:	<stdin>
@reg:	<stdin>
@reg:	<stdin>
@reg:	<stdin>
@reg:	<stdin>
@reg:	<stdin>
@reg:	<stdin>
@size:	<stdin>
@slot:	<stdin>
@slot:	<stdin>
@slot:	<stdin>
@u.	<stdin>
@u.	<stdin>
@u.	<stdin>
@u.	<stdin>
@u:	<stdin>
@u:	<stdin>
@u:	<stdin>
@u:	<stdin>
@v	<stdin>
@v	<stdin>
@v	<stdin>
@v	<stdin>
@v	<stdin>
@v	<stdin>
@v	<stdin>
@v	<stdin>
@v	<stdin>
@v	<stdin>
@v	<stdin>
@v	<stdin>
@v	<stdin>
@v	<stdin>
@v	<stdin>
@v	<stdin>
@v	<stdin>
@v	<stdin>
@v	<stdin>
@v	<stdin>
@v	<stdin>
@v	<stdin>
@v	<stdin>
@v	<stdin>
@v	<stdin>
@v	<stdin>
@v	<stdin>
@v	<stdin>
@v	<stdin>
@v	<stdin>
@v	<stdin>
@v	<stdin>
@v	<stdin>
@v	<stdin>
@v	<stdin>
@v	<stdin>
@v	<stdin>
@v	<stdin>
@v,	<stdin>
@v,	<stdin>
@v,	<stdin>
@v,	<stdin>
@v.	<stdin>
@v.	<stdin>
@v.	<stdin>
@v.	<stdin>
@v.	<stdin>
@v.	<stdin>
@v.	<stdin>
@v.	<stdin>
@v.	<stdin>
@v.	<stdin>
@v.	<stdin>
@v.	<stdin>
@v.	<stdin>
@v.	<stdin>
@v:	<stdin>
@v:	<stdin>
@v:	<stdin>
@v:	<stdin>
@v:	<stdin>
@v:	<stdin>
@v:	<stdin>
@v:	<stdin>
@v:	<stdin>
@v:	<stdin>
@v:	<stdin>
@v:	<stdin>
@v:	<stdin>
@v:	<stdin>
@v:	<stdin>
@v:	<stdin>
@v:	<stdin>
@v:	<stdin>
@v:	<stdin>
@v:	<stdin>
@v:	<stdin>
@v:	<stdin>
@v:	<stdin>
@v:	<stdin>
@v:	<stdin>
@v:	<stdin>
@v:	<stdin>
@v:	<stdin>
@v:	<stdin>
@v:	<stdin>
@v:	<stdin>
@v:	<stdin>
@v:	<stdin>
@v:	<stdin>
@v:	<stdin>
@v:	<stdin>
@v:	<stdin>
@v:	<stdin>
@v:	<stdin>
@v:	<stdin>
@v:	<stdin>
@v:	<stdin>
@v:	<stdin>
@v:	<stdin>
@v:	<stdin>
@v:	<stdin>
@v:	<stdin>
@v:	<stdin>
@v:	<stdin>
@v:	<stdin>
@v:	<stdin>
@v:	<stdin>
@val:	<stdin>
@val:	<stdin>
@val:	<stdin>
@val:	<stdin>
@widget:	<stdin>
@word:	<stdin>
@word:	<stdin>
@word:	<stdin>
@word:	<stdin>
@word:	<stdin>
@word:	<stdin>
@xtalk_addr:	<stdin>
ahennessy@mvista.com	<stdin>
carstenl@mips.com	<stdin>
carstenl@mips.com	<stdin>
carstenl@mips.com	<stdin>
carstenl@mips.com	<stdin>
carstenl@mips.com	<stdin>
carstenl@mips.com	<stdin>
carstenl@mips.com	<stdin>
jsun@junsun.net	<stdin>
jsun@mvista.com	<stdin>
lixy@ict.ac.cn	<stdin>
lixy@ict.ac.cn	<stdin>
ppopov@mvista.com	<stdin>
ppopov@mvista.com	<stdin>
ppopov@mvista.com	<stdin>
source@embeddealley.com	<stdin>
source@mvista.com	<stdin>
source@mvista.com	<stdin>
source@mvista.com	<stdin>
source@mvista.com	<stdin>
source@mvista.com	<stdin>
source@mvista.com	<stdin>
source@mvista.com	<stdin>
source@mvista.com	<stdin>
source@mvista.com	<stdin>
source@mvista.com	<stdin>
stevel@mvista.com	<stdin>
zhangfx@lemote.com	<stdin>
zhangfx@lemote.com	<stdin>
