(dhowells@redhat.com)	<stdin>
(dhowells@redhat.com)	<stdin>
(dhowells@redhat.com)	<stdin>
(dhowells@redhat.com)	<stdin>
(dhowells@redhat.com)	<stdin>
(dhowells@redhat.com)	<stdin>
(dhowells@redhat.com)	<stdin>
(dhowells@redhat.com)	<stdin>
(dhowells@redhat.com)	<stdin>
(dhowells@redhat.com)	<stdin>
(dhowells@redhat.com)	<stdin>
(dhowells@redhat.com)	<stdin>
(dhowells@redhat.com)	<stdin>
(dhowells@redhat.com)	<stdin>
(dhowells@redhat.com)	<stdin>
(dhowells@redhat.com)	<stdin>
(dhowells@redhat.com)	<stdin>
(dhowells@redhat.com)	<stdin>
(dhowells@redhat.com)	<stdin>
(dhowells@redhat.com)	<stdin>
(dhowells@redhat.com)	<stdin>
(dhowells@redhat.com)	<stdin>
(dhowells@redhat.com)	<stdin>
(dhowells@redhat.com)	<stdin>
(dhowells@redhat.com)	<stdin>
(dhowells@redhat.com)	<stdin>
(dhowells@redhat.com)	<stdin>
(dhowells@redhat.com)	<stdin>
(dhowells@redhat.com)	<stdin>
(dhowells@redhat.com)	<stdin>
(dhowells@redhat.com)	<stdin>
(dhowells@redhat.com)	<stdin>
(dhowells@redhat.com)	<stdin>
(dhowells@redhat.com)	<stdin>
(dhowells@redhat.com)	<stdin>
(dhowells@redhat.com)	<stdin>
(dhowells@redhat.com)	<stdin>
(dhowells@redhat.com)	<stdin>
(dhowells@redhat.com)	<stdin>
(dhowells@redhat.com)	<stdin>
(dhowells@redhat.com)	<stdin>
(dhowells@redhat.com)	<stdin>
(dhowells@redhat.com)	<stdin>
(dhowells@redhat.com)	<stdin>
(dhowells@redhat.com)	<stdin>
(dhowells@redhat.com)	<stdin>
(dhowells@redhat.com)	<stdin>
(dhowells@redhat.com)	<stdin>
(dhowells@redhat.com)	<stdin>
(dhowells@redhat.com)	<stdin>
(dhowells@redhat.com)	<stdin>
(dhowells@redhat.com)	<stdin>
(dhowells@redhat.com)	<stdin>
(dhowells@redhat.com)	<stdin>
(dhowells@redhat.com)	<stdin>
(dhowells@redhat.com)	<stdin>
(dhowells@redhat.com)	<stdin>
(dhowells@redhat.com)	<stdin>
(dhowells@redhat.com)	<stdin>
(dhowells@redhat.com)	<stdin>
(dhowells@redhat.com)	<stdin>
(dhowells@redhat.com)	<stdin>
(dhowells@redhat.com)	<stdin>
(dhowells@redhat.com)	<stdin>
(dhowells@redhat.com)	<stdin>
(dhowells@redhat.com)	<stdin>
(dhowells@redhat.com)	<stdin>
(dhowells@redhat.com)	<stdin>
(dhowells@redhat.com)	<stdin>
(dhowells@redhat.com)	<stdin>
(dhowells@redhat.com)	<stdin>
(dhowells@redhat.com)	<stdin>
(dhowells@redhat.com)	<stdin>
(dhowells@redhat.com)	<stdin>
(dhowells@redhat.com)	<stdin>
(dhowells@redhat.com)	<stdin>
(dhowells@redhat.com)	<stdin>
(dhowells@redhat.com)	<stdin>
(dhowells@redhat.com)	<stdin>
(dhowells@redhat.com)	<stdin>
(dhowells@redhat.com)	<stdin>
(dhowells@redhat.com)	<stdin>
(dhowells@redhat.com)	<stdin>
(dhowells@redhat.com)	<stdin>
(dhowells@redhat.com)	<stdin>
(dhowells@redhat.com)	<stdin>
(dhowells@redhat.com)	<stdin>
(dhowells@redhat.com)	<stdin>
(dhowells@redhat.com)	<stdin>
(dhowells@redhat.com)	<stdin>
(dhowells@redhat.com)	<stdin>
(dhowells@redhat.com)	<stdin>
(dhowells@redhat.com)	<stdin>
(dhowells@redhat.com)	<stdin>
(dhowells@redhat.com)	<stdin>
(dhowells@redhat.com)	<stdin>
(dhowells@redhat.com)	<stdin>
(dhowells@redhat.com)	<stdin>
(dhowells@redhat.com)	<stdin>
(dhowells@redhat.com)	<stdin>
(dhowells@redhat.com)	<stdin>
(dhowells@redhat.com)	<stdin>
(dhowells@redhat.com)	<stdin>
(dhowells@redhat.com)	<stdin>
(msalter@redhat.com)	<stdin>
(msalter@redhat.com)	<stdin>
(msalter@redhat.com)	<stdin>
(msalter@redhat.com)	<stdin>
(msalter@redhat.com)	<stdin>
(msalter@redhat.com)	<stdin>
<andy@waldorf-gmbh.de>	<stdin>
<dhowells@redhat.com>	<stdin>
<lennox.wu@sunplusct.com>	<stdin>
<lennox.wu@sunplusct.com>	<stdin>
<liqin.chen@sunplusct.com>	<stdin>
<liqin.chen@sunplusct.com>	<stdin>
<marc@tensilica.com>	<stdin>
<mj@suse.cz>	<stdin>
<mj@suse.cz>	<stdin>
<mj@ucw.cz>	<stdin>
<piet@tensilica.com>	<stdin>
@a	<stdin>
@a	<stdin>
@a:	<stdin>
@a:	<stdin>
@cpu:	<stdin>
@cpu:	<stdin>
@cpu:	<stdin>
@cpu:	<stdin>
@cpumask:	<stdin>
@cpumask:	<stdin>
@cpumask:	<stdin>
@dev_id:	<stdin>
@dev_id:	<stdin>
@dev_id:	<stdin>
@end:	<stdin>
@end:	<stdin>
@end:	<stdin>
@end:	<stdin>
@end:	<stdin>
@end:	<stdin>
@end:	<stdin>
@end:	<stdin>
@end:	<stdin>
@func:	<stdin>
@func:	<stdin>
@i	<stdin>
@i	<stdin>
@i	<stdin>
@i	<stdin>
@i	<stdin>
@i	<stdin>
@i	<stdin>
@i	<stdin>
@i.	<stdin>
@i.	<stdin>
@i:	<stdin>
@i:	<stdin>
@i:	<stdin>
@i:	<stdin>
@i:	<stdin>
@i:	<stdin>
@i:	<stdin>
@i:	<stdin>
@i:	<stdin>
@i:	<stdin>
@info:	<stdin>
@info:	<stdin>
@irq:	<stdin>
@irq:	<stdin>
@irq:	<stdin>
@irq:	<stdin>
@irq:	<stdin>
@irq:	<stdin>
@irq:	<stdin>
@irq:	<stdin>
@irq:	<stdin>
@irq:	<stdin>
@irq:	<stdin>
@max_cpus:	<stdin>
@max_cpus:	<stdin>
@mm:	<stdin>
@mm:	<stdin>
@multiplier	<stdin>
@opr_mask:	<stdin>
@page:	<stdin>
@phy_id:	<stdin>
@size:	<stdin>
@size:	<stdin>
@size:	<stdin>
@size:	<stdin>
@start:	<stdin>
@start:	<stdin>
@start:	<stdin>
@start:	<stdin>
@start:	<stdin>
@start:	<stdin>
@start:	<stdin>
@start:	<stdin>
@start:	<stdin>
@start:	<stdin>
@start:	<stdin>
@start:	<stdin>
@start:	<stdin>
@start:	<stdin>
@start:	<stdin>
@start:	<stdin>
@start:	<stdin>
@u.	<stdin>
@u.	<stdin>
@u:	<stdin>
@u:	<stdin>
@unused:	<stdin>
@unused:	<stdin>
@unused:	<stdin>
@unused:	<stdin>
@v	<stdin>
@v	<stdin>
@v	<stdin>
@v	<stdin>
@v	<stdin>
@v	<stdin>
@v	<stdin>
@v	<stdin>
@v	<stdin>
@v	<stdin>
@v	<stdin>
@v	<stdin>
@v	<stdin>
@v	<stdin>
@v	<stdin>
@v	<stdin>
@v	<stdin>
@v	<stdin>
@v,	<stdin>
@v,	<stdin>
@v.	<stdin>
@v.	<stdin>
@v.	<stdin>
@v.	<stdin>
@v.	<stdin>
@v.	<stdin>
@v.	<stdin>
@v.	<stdin>
@v:	<stdin>
@v:	<stdin>
@v:	<stdin>
@v:	<stdin>
@v:	<stdin>
@v:	<stdin>
@v:	<stdin>
@v:	<stdin>
@v:	<stdin>
@v:	<stdin>
@v:	<stdin>
@v:	<stdin>
@v:	<stdin>
@v:	<stdin>
@v:	<stdin>
@v:	<stdin>
@v:	<stdin>
@v:	<stdin>
@v:	<stdin>
@v:	<stdin>
@v:	<stdin>
@v:	<stdin>
@v:	<stdin>
@v:	<stdin>
@v:	<stdin>
@v:	<stdin>
@va:	<stdin>
@va:	<stdin>
@vma:	<stdin>
@vma:	<stdin>
@wait:	<stdin>
@wait:	<stdin>
@word:	<stdin>
@word:	<stdin>
