(awe@aglaia-gmbh.de)	<stdin>
(awe@aglaia-gmbh.de)	<stdin>
(awe@aglaia-gmbh.de)");	<stdin>
(tonyko@lineo.ca)	<stdin>
(tonyko@lineo.ca)	<stdin>
<aidan@nicta.com.au>	<stdin>
<aidan@nicta.com.au>	<stdin>
<aidan@nicta.com.au>	<stdin>
<aidan@nicta.com.au>	<stdin>
<aidan@nicta.com.au>	<stdin>
<aidan@nicta.com.au>	<stdin>
<aidan@nicta.com.au>	<stdin>
<aidan@nicta.com.au>	<stdin>
<aidan@nicta.com.au>	<stdin>
<aidan@nicta.com.au>	<stdin>
<aidan@nicta.com.au>	<stdin>
<aidan@nicta.com.au>	<stdin>
<aidan@nicta.com.au>	<stdin>
<aidan@nicta.com.au>	<stdin>
<aidan@nicta.com.au>	<stdin>
<aidan@nicta.com.au>	<stdin>
<aidan@nicta.com.au>	<stdin>
<aidan@nicta.com.au>	<stdin>
<aidan@nicta.com.au>	<stdin>
<ben@simtec.co.uk>	<stdin>
<ben@simtec.co.uk>	<stdin>
<ben@simtec.co.uk>	<stdin>
<ben@simtec.co.uk>	<stdin>
<ben@simtec.co.uk>	<stdin>
<ben@simtec.co.uk>	<stdin>
<bvermeul@blackstar.xs4all.nl>");	<stdin>
<davidm@snapgear.com>	<stdin>
<graf.yang@analog.com>	<stdin>
<graf.yang@analog.com>	<stdin>
<hennerich@blackfin.uclinux.org>");	<stdin>
<hennerich@blackfin.uclinux.org>");	<stdin>
<jassi.brar@samsung.com>	<stdin>
<jassi.brar@samsung.com>	<stdin>
<jassi.brar@samsung.com>	<stdin>
<jassi.brar@samsung.com>	<stdin>
<jassi.brar@samsung.com>	<stdin>
<jassi.brar@samsung.com>	<stdin>
<jassi.brar@samsung.com>	<stdin>
<jassi.brar@samsung.com>	<stdin>
<jassi.brar@samsung.com>	<stdin>
<jassi.brar@samsung.com>	<stdin>
<jassi.brar@samsung.com>	<stdin>
<jassi.brar@samsung.com>	<stdin>
<jassi.brar@samsung.com>	<stdin>
<jassi.brar@samsung.com>	<stdin>
<jassi.brar@samsung.com>	<stdin>
<jassi.brar@samsung.com>	<stdin>
<jassi.brar@samsung.com>	<stdin>
<jy0922.shim@samsung.com>	<stdin>
<kyungmin.park@samsung.com>	<stdin>
<markus.t.metzger@intel.com>	<stdin>
<mmcternan@airvana.com>	<stdin>
<mmcternan@airvana.com>	<stdin>
<pzijlstr@redhat.com>	<stdin>
<rpm@xenomai.org>	<stdin>
<rpm@xenomai.org>	<stdin>
<rpm@xenomai.org>	<stdin>
<rpm@xenomai.org>	<stdin>
<tglx@linutronix.de>	<stdin>
@addr:	<stdin>
@args:	<stdin>
@i:	<stdin>
@n:	<stdin>
@regs:	<stdin>
@return:	<stdin>
@size:	<stdin>
@task:	<stdin>
__bug_table,\"a\",@progbits\n"	<stdin>
__bug_table,\"a\",@progbits\n"	<stdin>
akbar.hussain@lineo.com	<stdin>
