<andy@openmoko.org>	<stdin>
<arhuaco@freaks-unidos.net>	<stdin>
<arnaud.patard@rtp-net.org>	<stdin>
<arnaud.patard@rtp-net.org>");	<stdin>
<ben-linux@fluff.org>	<stdin>
<ben-linux@fluff.org>	<stdin>
<ben-linux@fluff.org>	<stdin>
<ben-linux@fluff.org>	<stdin>
<ben-linux@fluff.org>	<stdin>
<ben-linux@fluff.org>	<stdin>
<ben-linux@fluff.org>	<stdin>
<ben-linux@fluff.org>	<stdin>
<ben-linux@fluff.org>	<stdin>
<ben-linux@fluff.org>	<stdin>
<ben-linux@fluff.org>	<stdin>
<ben-linux@fluff.org>	<stdin>
<ben-linux@fluff.org>	<stdin>
<ben-linux@fluff.org>	<stdin>
<ben@simtec.co.uk>	<stdin>
<ben@simtec.co.uk>	<stdin>
<ben@simtec.co.uk>	<stdin>
<ben@simtec.co.uk>	<stdin>
<ben@simtec.co.uk>	<stdin>
<ben@simtec.co.uk>	<stdin>
<ben@simtec.co.uk>	<stdin>
<ben@simtec.co.uk>	<stdin>
<ben@simtec.co.uk>	<stdin>
<ben@simtec.co.uk>	<stdin>
<ben@simtec.co.uk>	<stdin>
<ben@simtec.co.uk>	<stdin>
<ben@simtec.co.uk>	<stdin>
<ben@simtec.co.uk>	<stdin>
<ben@simtec.co.uk>	<stdin>
<ben@simtec.co.uk>	<stdin>
<ben@simtec.co.uk>	<stdin>
<ben@simtec.co.uk>	<stdin>
<ben@simtec.co.uk>	<stdin>
<ben@simtec.co.uk>	<stdin>
<ben@simtec.co.uk>	<stdin>
<ben@simtec.co.uk>	<stdin>
<ben@simtec.co.uk>	<stdin>
<ben@simtec.co.uk>	<stdin>
<ben@simtec.co.uk>	<stdin>
<ben@simtec.co.uk>	<stdin>
<ben@simtec.co.uk>	<stdin>
<ben@simtec.co.uk>	<stdin>
<ben@simtec.co.uk>	<stdin>
<ben@simtec.co.uk>	<stdin>
<ben@simtec.co.uk>	<stdin>
<ben@simtec.co.uk>	<stdin>
<ben@simtec.co.uk>	<stdin>
<ben@simtec.co.uk>	<stdin>
<ben@simtec.co.uk>	<stdin>
<ben@simtec.co.uk>	<stdin>
<ben@simtec.co.uk>	<stdin>
<ben@simtec.co.uk>	<stdin>
<ben@simtec.co.uk>	<stdin>
<ben@simtec.co.uk>	<stdin>
<ben@simtec.co.uk>	<stdin>
<ben@simtec.co.uk>	<stdin>
<ben@simtec.co.uk>	<stdin>
<ben@simtec.co.uk>	<stdin>
<ben@simtec.co.uk>	<stdin>
<ben@simtec.co.uk>	<stdin>
<ben@simtec.co.uk>	<stdin>
<ben@simtec.co.uk>	<stdin>
<ben@simtec.co.uk>	<stdin>
<ben@simtec.co.uk>	<stdin>
<ben@simtec.co.uk>	<stdin>
<ben@simtec.co.uk>	<stdin>
<ben@simtec.co.uk>	<stdin>
<ben@simtec.co.uk>	<stdin>
<ben@simtec.co.uk>	<stdin>
<ben@simtec.co.uk>	<stdin>
<ben@simtec.co.uk>	<stdin>
<ben@simtec.co.uk>	<stdin>
<ben@simtec.co.uk>	<stdin>
<ben@simtec.co.uk>	<stdin>
<ben@simtec.co.uk>	<stdin>
<ben@simtec.co.uk>	<stdin>
<ben@simtec.co.uk>	<stdin>
<ben@simtec.co.uk>	<stdin>
<ben@simtec.co.uk>	<stdin>
<ben@simtec.co.uk>	<stdin>
<ben@simtec.co.uk>	<stdin>
<ben@simtec.co.uk>	<stdin>
<ben@simtec.co.uk>	<stdin>
<ben@simtec.co.uk>	<stdin>
<ben@simtec.co.uk>	<stdin>
<ben@simtec.co.uk>	<stdin>
<ben@simtec.co.uk>	<stdin>
<ben@simtec.co.uk>	<stdin>
<ben@simtec.co.uk>	<stdin>
<ben@simtec.co.uk>	<stdin>
<ben@simtec.co.uk>	<stdin>
<ben@simtec.co.uk>	<stdin>
<ben@simtec.co.uk>	<stdin>
<ben@simtec.co.uk>	<stdin>
<ben@simtec.co.uk>	<stdin>
<ben@simtec.co.uk>	<stdin>
<ben@simtec.co.uk>	<stdin>
<ben@simtec.co.uk>	<stdin>
<ben@simtec.co.uk>	<stdin>
<ben@simtec.co.uk>	<stdin>
<ben@simtec.co.uk>	<stdin>
<ben@simtec.co.uk>	<stdin>
<ben@simtec.co.uk>	<stdin>
<ben@simtec.co.uk>	<stdin>
<ben@simtec.co.uk>	<stdin>
<ben@simtec.co.uk>	<stdin>
<ben@simtec.co.uk>	<stdin>
<ben@simtec.co.uk>	<stdin>
<ben@simtec.co.uk>");	<stdin>
<ben@simtec.co.uk>,	<stdin>
<bryan.wu@canonical.com>	<stdin>
<buserror@gmail.com>	<stdin>
<buserror@gmail.com>	<stdin>
<ccross@android.com>	<stdin>
<ccross@android.com>	<stdin>
<ccross@android.com>	<stdin>
<ccross@android.com>	<stdin>
<ccross@android.com>	<stdin>
<ccross@android.com>	<stdin>
<ccross@android.com>	<stdin>
<ccross@android.com>");	<stdin>
<ccross@google.com>	<stdin>
<ccross@google.com>	<stdin>
<ccross@google.com>	<stdin>
<ccross@google.com>	<stdin>
<ccross@google.com>	<stdin>
<ccross@google.com>	<stdin>
<ccross@google.com>	<stdin>
<ccross@google.com>	<stdin>
<ccross@google.com>	<stdin>
<ccross@google.com>	<stdin>
<ccross@google.com>	<stdin>
<ccross@google.com>	<stdin>
<ccross@google.com>	<stdin>
<ccross@google.com>	<stdin>
<ccross@google.com>	<stdin>
<ccross@google.com>	<stdin>
<ccross@google.com>	<stdin>
<ccross@google.com>	<stdin>
<christer@weinigel.se>	<stdin>
<christer@weinigel.se>	<stdin>
<christer@weinigel.se>,	<stdin>
<danders@amltd.com>	<stdin>
<danders@amltd.com>	<stdin>
<daniel@caiaq.de>	<stdin>
<deepak.sikri@st.com>	<stdin>
<deepak.sikri@st.com>	<stdin>
<deepak.sikri@st.com>	<stdin>
<deepak.sikri@st.com>	<stdin>
<dima@android.com>	<stdin>
<gking@nvidia.com>	<stdin>
<gking@nvidia.com>	<stdin>
<gking@nvidia.com>	<stdin>
<gleixner@autronix.de>	<stdin>
<guillaume.gourat@nexvision.fr>	<stdin>
<guillaume.gourat@nexvision.tv>	<stdin>
<guillaume.gourat@nexvision.tv>	<stdin>
<guillaume.gourat@nexvision.tv>	<stdin>
<heiko@sntech.de>	<stdin>
<janos.dev@gmail.com>	<stdin>
<jekhor@gmail.com>	<stdin>
<jekhor@gmail.com>,	<stdin>
<jekhor@gmail.com>,	<stdin>
<jekhor@gmail.com>,	<stdin>
<jekhor@gmail.com>,	<stdin>
<jekhor@gmail.com>,	<stdin>
<jy0922.shim@samsung.com>	<stdin>
<kaloz@openwrt.org>	<stdin>
<kaloz@openwrt.org>	<stdin>
<konkers@google.com>	<stdin>
<konkers@google.com>	<stdin>
<konkers@google.com>	<stdin>
<konkers@google.com>	<stdin>
<konkers@google.com>	<stdin>
<konkers@google.com>	<stdin>
<konkers@google.com>	<stdin>
<konkers@google.com>	<stdin>
<kyungmin.park@samsung.com>	<stdin>
<laforge@openmoko.org>	<stdin>
<laforge@openmoko.org>	<stdin>
<linux@simtec.co.uk>	<stdin>
<linux@simtec.co.uk>	<stdin>
<linux@simtec.co.uk>	<stdin>
<linux@simtec.co.uk>	<stdin>
<linux@simtec.co.uk>	<stdin>
<linux@simtec.co.uk>	<stdin>
<linux@simtec.co.uk>	<stdin>
<linux@simtec.co.uk>	<stdin>
<linux@simtec.co.uk>	<stdin>
<m.szyprowski@samsung.com>	<stdin>
<marvin24@gmx.de>	<stdin>
<marvin24@gmx.de>	<stdin>
<mgherzan@gmail.com>	<stdin>
<mgherzan@gmail.com>	<stdin>
<mike@compulab.co.il>	<stdin>
<mike@compulab.co.il>	<stdin>
<paulius.zaleckas@teltonika.lt>	<stdin>
<paulius.zaleckas@teltonika.lt>	<stdin>
<paulius.zaleckas@teltonika.lt>	<stdin>
<paulius.zaleckas@teltonika.lt>	<stdin>
<paulius.zaleckas@teltonika.lt>	<stdin>
<paulius.zaleckas@teltonika.lt>	<stdin>
<paulius.zaleckas@teltonika.lt>	<stdin>
<paulius.zaleckas@teltonika.lt>	<stdin>
<paulius.zaleckas@teltonika.lt>	<stdin>
<pavel@ucw.cz>	<stdin>
<pdeschrijver@nvidia.com>	<stdin>
<pdeschrijver@nvidia.com>	<stdin>
<pdeschrijver@nvidia.com>	<stdin>
<ramaxlo@gmail.com>	<stdin>
<ramaxlo@gmail.com>	<stdin>
<sbz@spgui.org>	<stdin>
<sbz@spgui.org>	<stdin>
<shiraz.hashim@st.com>	<stdin>
<shiraz.hashim@st.com>	<stdin>
<shiraz.hashim@st.com>	<stdin>
<shiraz.hashim@st.com>	<stdin>
<stepanm@codeaurora.org>");	<stdin>
<swetland@google.com>	<stdin>
<swetland@google.com>	<stdin>
<swetland@google.com>	<stdin>
<swetland@google.com>	<stdin>
<swetland@google.com>	<stdin>
<swetland@google.com>	<stdin>
<swetland@google.com>	<stdin>
<swetland@google.com>	<stdin>
<swetland@google.com>	<stdin>
<swetland@google.com>	<stdin>
<swetland@google.com>	<stdin>
<swetland@google.com>	<stdin>
<swetland@google.com>	<stdin>
<swetland@google.com>	<stdin>
<swetland@google.com>	<stdin>
<swetland@google.com>	<stdin>
<swetland@google.com>	<stdin>
<swetland@google.com>	<stdin>
<swetland@google.com>	<stdin>
<swetland@google.com>");	<stdin>
<sylvester.nawrocki@gmail.com>	<stdin>
<tglx@linutronix.de>	<stdin>
<thomas_tsai@htc.com>	<stdin>
<viresh.linux@gmail.com>	<stdin>
<viresh.linux@gmail.com>	<stdin>
<viresh.linux@gmail.com>	<stdin>
<viresh.linux@gmail.com>	<stdin>
<viresh.linux@gmail.com>	<stdin>
<werner@openmoko.org>	<stdin>
<yauhen.kharuzhy@promwad.com>	<stdin>
<yauhen.kharuzhy@promwad.com>	<stdin>
<yauhen.kharuzhy@promwad.com>	<stdin>
<yauhen.kharuzhy@promwad.com>	<stdin>
<yauhen.kharuzhy@promwad.com>	<stdin>
<yauhen.kharuzhy@promwad.com>	<stdin>
@Author:	<stdin>
@GPIOMUX_VALID:	<stdin>
@History:	<stdin>
@History:	<stdin>
@History:	<stdin>
@TODO:	<stdin>
@active:	<stdin>
@attached_elm:	<stdin>
@base:	<stdin>
@bl_data:	<stdin>
@buf:	<stdin>
@buf_offset:	<stdin>
@buf_offset:	<stdin>
@chip:	<stdin>
@clk:	<stdin>
@cmd:	<stdin>
@cmd:	<stdin>
@cmd:	<stdin>
@cmd_buf:	<stdin>
@cmd_id:	<stdin>
@cmd_len:	<stdin>
@cmd_size:	<stdin>
@gpio_info:	<stdin>
@id:	<stdin>
@info	<stdin>
@info	<stdin>
@info:	<stdin>
@irq:	<stdin>
@is_complete:	<stdin>
@len:	<stdin>
@len:	<stdin>
@ncb	<stdin>
@num:	<stdin>
@num:	<stdin>
@ourchip:	<stdin>
@ourchip:	<stdin>
@pclk:	<stdin>
@pdev:	<stdin>
@ref:	<stdin>
@res:	<stdin>
@resp_buf:	<stdin>
@resp_hdr_offset:	<stdin>
@resp_len:	<stdin>
@resp_size:	<stdin>
@rsp:	<stdin>
@set:	<stdin>
@suspended:	<stdin>
@svc_id:	<stdin>
@timer_irq:	<stdin>
@vak:	<stdin>
S3C@2442B	<stdin>
guillaume.gourat@nexvision.fr	<stdin>
kernel@pengutronix.de	<stdin>
of_find_node_by_path("/regulators/regulator@3");	<stdin>
