(@inst,	<stdin>
(@inst,	<stdin>
(@inst,	<stdin>
(@inst,	<stdin>
(@inst,	<stdin>
(@part,	<stdin>
(@part,	<stdin>
(@part,	<stdin>
(@part,	<stdin>
(@part,	<stdin>
(@part,	<stdin>
(@part,	<stdin>
(@part,	<stdin>
(@prcm_mod,	<stdin>
(@prcm_mod,	<stdin>
(@prcm_mod,	<stdin>
(abhijitpagare@ti.com)	<stdin>
(b-cousson@ti.com)	<stdin>
(b-cousson@ti.com)	<stdin>
(b-cousson@ti.com)	<stdin>
(b-cousson@ti.com)	<stdin>
(b-cousson@ti.com)	<stdin>
(b-cousson@ti.com)	<stdin>
(b-cousson@ti.com)	<stdin>
(b-cousson@ti.com)	<stdin>
(b-cousson@ti.com)	<stdin>
(mturquette@ti.com)	<stdin>
(paul@pwsan.com)	<stdin>
(paul@pwsan.com)	<stdin>
(paul@pwsan.com)	<stdin>
(paul@pwsan.com)	<stdin>
(paul@pwsan.com)	<stdin>
(paul@pwsan.com)	<stdin>
(paul@pwsan.com)	<stdin>
(rnayak@ti.com)	<stdin>
(rnayak@ti.com)	<stdin>
(rnayak@ti.com)	<stdin>
(rnayak@ti.com)	<stdin>
(rnayak@ti.com)	<stdin>
(rnayak@ti.com)	<stdin>
(santosh.shilimkar@ti.com)	<stdin>
<Hiroshi.DOYU@nokia.com>	<stdin>
<Hiroshi.DOYU@nokia.com>	<stdin>
<Hiroshi.DOYU@nokia.com>");	<stdin>
<abhijitpagare@ti.com>	<stdin>
<alior@marvell.com>	<stdin>
<alior@marvell.com>	<stdin>
<alior@marvell.com>	<stdin>
<alior@marvell.com>	<stdin>
<alior@marvell.com>	<stdin>
<alior@marvell.com>	<stdin>
<amit.kucheria@nokia.com>	<stdin>
<amit.kucheria@nokia.com>	<stdin>
<ashwin.bihari@logicpd.com>	<stdin>
<avinashhm@ti.com>	<stdin>
<balbi@ti.com>	<stdin>
<ben.dooks@codethink.co.uk>	<stdin>
<charu@ti.com>	<stdin>
<felipe.balbi@nokia.com>	<stdin>
<gleixner@autronix.de>	<stdin>
<glonnon@ridgerun.com>	<stdin>
<glonnon@ridgerun.com>	<stdin>
<glonnon@ridgerun.com>	<stdin>
<glonnon@ridgerun.com>	<stdin>
<glonnon@ridgerun.com>	<stdin>
<glonnon@ridgerun.com>	<stdin>
<gregory.clement@free-electrons.com>	<stdin>
<gregory.clement@free-electrons.com>	<stdin>
<gregory.clement@free-electrons.com>	<stdin>
<gregory.clement@free-electrons.com>	<stdin>
<gregory.clement@free-electrons.com>	<stdin>
<gregory.clement@free-electrons.com>	<stdin>
<gregory.clement@free-electrons.com>	<stdin>
<gregory.clement@free-electrons.com>	<stdin>
<grinberg@compulab.co.il>	<stdin>
<grinberg@compulab.co.il>	<stdin>
<h-kanigeri2@ti.com>	<stdin>
<haojian.zhuang@marvell.com>	<stdin>
<haojian.zhuang@marvell.com>	<stdin>
<haojian.zhuang@marvell.com>	<stdin>
<hvaibhav@ti.com>	<stdin>
<hvaibhav@ti.com>	<stdin>
<hvaibhav@ti.com>	<stdin>
<hvaibhav@ti.com>	<stdin>
<hvaibhav@ti.com>	<stdin>
<hvaibhav@ti.com>	<stdin>
<igor.stoppa@nokia.com>	<stdin>
<igor.stoppa@nokia.com>	<stdin>
<imre.deak@nokia.com>	<stdin>
<imre.deak@nokia.com>	<stdin>
<imre.deak@nokia.com>	<stdin>
<jeremy.kerr@canonical.com>	<stdin>
<jon-hunter@ti.com>	<stdin>
<juha.yrjola@nokia.com>	<stdin>
<juha.yrjola@nokia.com>	<stdin>
<juha.yrjola@nokia.com>	<stdin>
<kanru@0xlab.org>	<stdin>
<lauri.leukkunen@nokia.com>	<stdin>
<linz@li-pro.net>	<stdin>
<linz@li-pro.net>	<stdin>
<linz@li-pro.net>	<stdin>
<manjugk@ti.com>	<stdin>
<mark.brown314@gmail.com>	<stdin>
<maxime.ripard@free-electrons.com>	<stdin>
<maxime.ripard@free-electrons.com>	<stdin>
<mike@compulab.co.il>	<stdin>
<mlc@ti.com>	<stdin>
<mlc@ti.com>	<stdin>
<nskamat@ti.com>	<stdin>
<paul.mundt@nokia.com>	<stdin>
<paul.mundt@nokia.com>	<stdin>
<paul.mundt@nokia.com>	<stdin>
<paul.mundt@nokia.com>	<stdin>
<paul.mundt@nokia.com>	<stdin>
<paul.mundt@nokia.com>	<stdin>
<paul.mundt@nokia.com>	<stdin>
<peter.barada@logicpd.com>	<stdin>
<peter.ujfalusi@ti.com>	<stdin>
<r-woodruff2@ti.com>	<stdin>
<r-woodruff2@ti.com>	<stdin>
<r-woodruff2@ti.com>	<stdin>
<r-woodruff2@ti.com>	<stdin>
<r-woodruff2@ti.com>	<stdin>
<r-woodruff2@ti.com>	<stdin>
<r-woodruff2@ti.com>	<stdin>
<r-woodruff2@ti.com>	<stdin>
<r-woodruff2@ti.com>	<stdin>
<r-woodruff2@ti.com>	<stdin>
<r-woodruff2@ti.com>	<stdin>
<r-woodruff2@ti.com>	<stdin>
<r-woodruff2@ti.com>	<stdin>
<r-woodruff2@ti.com>	<stdin>
<r-woodruff2@ti.com>	<stdin>
<r-woodruff2@ti.com>	<stdin>
<r-woodruff2@ti.com>	<stdin>
<ranjithl@ti.com>	<stdin>
<ranjithl@ti.com>	<stdin>
<rnayak@ti.com>	<stdin>
<rnayak@ti.com>	<stdin>
<rnayak@ti.com>	<stdin>
<rnayak@ti.com>	<stdin>
<rnayak@ti.com>	<stdin>
<rnayak@ti.com>	<stdin>
<rnayak@ti.com>	<stdin>
<rnayak@ti.com>	<stdin>
<rnayak@ti.com>	<stdin>
<rnayak@ti.com>	<stdin>
<rnayak@ti.com>	<stdin>
<rnayak@ti.com>	<stdin>
<rnayak@ti.com>	<stdin>
<rnayak@ti.com>	<stdin>
<rob.clark@linaro.org>	<stdin>
<s.hauer@pengutronix.de>,	<stdin>
<s.hauer@pengutronix.de>,	<stdin>
<s.hauer@pengutronix.de>,	<stdin>
<s.hauer@pengutronix.de>,	<stdin>
<s.hauer@pengutronix.de>,	<stdin>
<s.hauer@pengutronix.de>,	<stdin>
<s.hauer@pengutronix.de>,	<stdin>
<s.hauer@pengutronix.de>,	<stdin>
<s.hauer@pengutronix.de>,	<stdin>
<s.hauer@pengutronix.de>,	<stdin>
<s.hauer@pengutronix.de>,	<stdin>
<s.hauer@pengutronix.de>,	<stdin>
<s.hauer@pengutronix.de>,	<stdin>
<samuel.ortiz@nokia.com>	<stdin>
<santosh.shilimkar@ti.com>	<stdin>
<santosh.shilimkar@ti.com>	<stdin>
<santosh.shilimkar@ti.com>	<stdin>
<santosh.shilimkar@ti.com>	<stdin>
<santosh.shilimkar@ti.com>	<stdin>
<santosh.shilimkar@ti.com>	<stdin>
<santosh.shilimkar@ti.com>	<stdin>
<santosh.shilimkar@ti.com>	<stdin>
<santosh.shilimkar@ti.com>	<stdin>
<santosh.shilimkar@ti.com>	<stdin>
<santosh.shilimkar@ti.com>	<stdin>
<santosh.shilimkar@ti.com>	<stdin>
<santosh.shilimkar@ti.com>	<stdin>
<santosh.shilimkar@ti.com>	<stdin>
<santosh.shilimkar@ti.com>	<stdin>
<santosh.shilimkar@ti.com>	<stdin>
<santosh.shilimkar@ti.com>	<stdin>
<santosh.shilimkar@ti.com>	<stdin>
<santosh.shilimkar@ti.com>	<stdin>
<santosh.shilimkar@ti.com>	<stdin>
<santosh.shilimkar@ti.com>	<stdin>
<source@mvista.com>	<stdin>
<source@mvista.com>	<stdin>
<source@mvista.com>	<stdin>
<source@mvista.com>	<stdin>
<source@mvista.com>	<stdin>
<source@mvista.com>	<stdin>
<source@mvista.com>	<stdin>
<source@mvista.com>	<stdin>
<sque@ti.com>	<stdin>
<srk@ti.com>	<stdin>
<steve@sakoman.com>	<stdin>
<t-kristo@ti.com>	<stdin>
<tero.kristo@nokia.com>	<stdin>
<thara@ti.com>	<stdin>
<thara@ti.com>	<stdin>
<thara@ti.com>	<stdin>
<thara@ti.com>	<stdin>
<thara@ti.com>	<stdin>
<thara@ti.com>	<stdin>
<thara@ti.com>	<stdin>
<thara@ti.com>	<stdin>
<thara@ti.com>	<stdin>
<thara@ti.com>	<stdin>
<thara@ti.com>	<stdin>
<thara@ti.com>	<stdin>
<thara@ti.com>	<stdin>
<thomas.petazzoni@free-electrons.com>	<stdin>
<thomas.petazzoni@free-electrons.com>	<stdin>
<thomas.petazzoni@free-electrons.com>	<stdin>
<thomas.petazzoni@free-electrons.com>	<stdin>
<thomas.petazzoni@free-electrons.com>	<stdin>
<thomas.petazzoni@free-electrons.com>	<stdin>
<thomas.petazzoni@free-electrons.com>	<stdin>
<thomas.petazzoni@free-electrons.com>	<stdin>
<thomas.petazzoni@free-electrons.com>	<stdin>
<tomi.valkeinen@ti.com>	<stdin>
<tony@atomide.com>	<stdin>
<tony@atomide.com>	<stdin>
<tony@atomide.com>	<stdin>
<tony@atomide.com>	<stdin>
<tony@atomide.com>	<stdin>
<tony@atomide.com>	<stdin>
<tony@atomide.com>	<stdin>
<tony@atomide.com>	<stdin>
<vimalsingh@ti.com>	<stdin>
<vimalsingh@ti.com>	<stdin>
<viresh.linux@gmail.com>	<stdin>
<viresh.linux@gmail.com>	<stdin>
<viresh.linux@gmail.com>	<stdin>
<viresh.linux@gmail.com>	<stdin>
<viresh.linux@gmail.com>	<stdin>
<viresh.linux@gmail.com>	<stdin>
<will.deacon@arm.com>	<stdin>
<x0080970@ti.com>	<stdin>
<x0080970@ti.com>	<stdin>
<x0080970@ti.com>	<stdin>
<x0080970@ti.com>	<stdin>
<x0080970@ti.com>	<stdin>
<x0080970@ti.com>	<stdin>
<x0080970@ti.com>	<stdin>
<x0080970@ti.com>	<stdin>
<x0132446@ti.com>	<stdin>
<yehuday@marvell.com>	<stdin>
<yehuday@marvell.com>	<stdin>
<yehuday@marvell.com>	<stdin>
@_clk:	<stdin>
@_clk:	<stdin>
@_clk:	<stdin>
@_flags:	<stdin>
@_int_flags:	<stdin>
@_int_flags:	<stdin>
@_lock:	<stdin>
@_mpu_port:	<stdin>
@_mpu_rt_va:	<stdin>
@_postsetup_state:	<stdin>
@_state:	<stdin>
@_sysc_cache:	<stdin>
@actim_ctrla:	<stdin>
@actim_ctrlb:	<stdin>
@addr:	<stdin>
@arg1,	<stdin>
@autoidle	<stdin>
@autoidle:	<stdin>
@autoidle:	<stdin>
@autoidle_shift:	<stdin>
@balls:	<stdin>
@balls:	<stdin>
@bank	<stdin>
@bank	<stdin>
@bank	<stdin>
@bank.	<stdin>
@bank.	<stdin>
@bank:	<stdin>
@bank:	<stdin>
@bank:	<stdin>
@bank:	<stdin>
@bank:	<stdin>
@bank:	<stdin>
@base:	<stdin>
@board_mux:	<stdin>
@board_mux:	<stdin>
@board_mux:	<stdin>
@board_mux:	<stdin>
@board_subset:	<stdin>
@board_wkup_subset:	<stdin>
@bpads:	<stdin>
@c	<stdin>
@c	<stdin>
@c	<stdin>
@c	<stdin>
@c:	<stdin>
@c:	<stdin>
@cdoffs)	<stdin>
@cdoffs)	<stdin>
@cdoffs)	<stdin>
@cdoffs)	<stdin>
@cdoffs)	<stdin>
@cdoffs)	<stdin>
@cdoffs)	<stdin>
@cdoffs)	<stdin>
@cdoffs)	<stdin>
@cdoffs:	<stdin>
@cdoffs:	<stdin>
@cdoffs:	<stdin>
@cdoffs:	<stdin>
@cdoffs:	<stdin>
@cdoffs:	<stdin>
@cdoffs:	<stdin>
@cdoffs:	<stdin>
@cdoffs:	<stdin>
@cdoffs:	<stdin>
@cdoffs:	<stdin>
@cdoffs:	<stdin>
@cdoffs:	<stdin>
@cdoffs:	<stdin>
@cdoffs:	<stdin>
@cdoffs:	<stdin>
@cdoffs:	<stdin>
@cdoffs:	<stdin>
@cdoffs:	<stdin>
@cdoffs:	<stdin>
@cdoffs:	<stdin>
@cdoffs:	<stdin>
@cdoffs:	<stdin>
@check_txdone:	<stdin>
@class:	<stdin>
@classname	<stdin>
@classname	<stdin>
@classname	<stdin>
@classname,	<stdin>
@classname:	<stdin>
@cld	<stdin>
@cld	<stdin>
@cld	<stdin>
@cld	<stdin>
@cld	<stdin>
@cld:	<stdin>
@cld:	<stdin>
@clear_context_loss_flags_old	<stdin>
@clear_context_loss_flags_old:	<stdin>
@clear_txdone:	<stdin>
@clk	<stdin>
@clk	<stdin>
@clk	<stdin>
@clk	<stdin>
@clk	<stdin>
@clk	<stdin>
@clk	<stdin>
@clk	<stdin>
@clk	<stdin>
@clk	<stdin>
@clk	<stdin>
@clk	<stdin>
@clk	<stdin>
@clk	<stdin>
@clk	<stdin>
@clk	<stdin>
@clk	<stdin>
@clk's	<stdin>
@clk.	<stdin>
@clk:	<stdin>
@clk:	<stdin>
@clk:	<stdin>
@clk:	<stdin>
@clk:	<stdin>
@clk:	<stdin>
@clk:	<stdin>
@clk:	<stdin>
@clk:	<stdin>
@clk:	<stdin>
@clk:	<stdin>
@clk:	<stdin>
@clk:	<stdin>
@clk:	<stdin>
@clk:	<stdin>
@clk:	<stdin>
@clk:	<stdin>
@clk:	<stdin>
@clk:	<stdin>
@clk:	<stdin>
@clk:	<stdin>
@clk:	<stdin>
@clk:	<stdin>
@clk:	<stdin>
@clk:	<stdin>
@clk:	<stdin>
@clk:	<stdin>
@clk:	<stdin>
@clk:	<stdin>
@clk:	<stdin>
@clk:	<stdin>
@clk:	<stdin>
@clk:	<stdin>
@clk:	<stdin>
@clk:	<stdin>
@clk:	<stdin>
@clk:	<stdin>
@clk:	<stdin>
@clk:	<stdin>
@clk:	<stdin>
@clk:	<stdin>
@clk:	<stdin>
@clk:	<stdin>
@clk:	<stdin>
@clk:	<stdin>
@clk:	<stdin>
@clk:	<stdin>
@clk:	<stdin>
@clk:	<stdin>
@clk:	<stdin>
@clk:	<stdin>
@clk:	<stdin>
@clk:	<stdin>
@clk_names	<stdin>
@clk_names	<stdin>
@clk_names.	<stdin>
@clk_names.	<stdin>
@clk_names:	<stdin>
@clk_names:	<stdin>
@clkact_shift:	<stdin>
@clkctrl_offs:	<stdin>
@clkctrl_offs:	<stdin>
@clkctrl_offs:	<stdin>
@clkctrl_offs:	<stdin>
@clkctrl_offs:	<stdin>
@clkctrl_offs:	<stdin>
@clkctrl_offs:	<stdin>
@clkctrl_offs:	<stdin>
@clkctrl_offs:	<stdin>
@clkctrl_offs:	<stdin>
@clkctrl_offs:	<stdin>
@clkctrl_offs:	<stdin>
@clkctrl_offs:	<stdin>
@clkdm	<stdin>
@clkdm	<stdin>
@clkdm	<stdin>
@clkdm	<stdin>
@clkdm:	<stdin>
@clkdm:	<stdin>
@clkdm:	<stdin>
@clkdm:	<stdin>
@clkdm_add_sleepdep:	<stdin>
@clkdm_add_wkdep:	<stdin>
@clkdm_allow_idle:	<stdin>
@clkdm_clear_all_sleepdeps:	<stdin>
@clkdm_clear_all_wkdeps:	<stdin>
@clkdm_clk_disable:	<stdin>
@clkdm_clk_enable:	<stdin>
@clkdm_del_sleepdep:	<stdin>
@clkdm_del_wkdep:	<stdin>
@clkdm_deny_idle:	<stdin>
@clkdm_name	<stdin>
@clkdm_name	<stdin>
@clkdm_name:	<stdin>
@clkdm_offs	<stdin>
@clkdm_offs:	<stdin>
@clkdm_read_sleepdep:	<stdin>
@clkdm_read_wkdep:	<stdin>
@clkdm_sleep:	<stdin>
@clkdm_wakeup:	<stdin>
@clktrctrl_mask:	<stdin>
@clktrctrl_reg:	<stdin>
@clockact	<stdin>
@clockact	<stdin>
@clockact.	<stdin>
@clockact:	<stdin>
@clockact:	<stdin>
@cm2:	<stdin>
@cm:	<stdin>
@cm_inst	<stdin>
@cm_inst:	<stdin>
@cmd_reg_addr:	<stdin>
@common:	<stdin>
@cond	<stdin>
@cond	<stdin>
@cond	<stdin>
@cond	<stdin>
@cond:	<stdin>
@cond:	<stdin>
@cond:	<stdin>
@cond:	<stdin>
@context_lost_counter:	<stdin>
@context_offs	<stdin>
@context_offs:	<stdin>
@core_ck_name:	<stdin>
@core_ck_name:	<stdin>
@cpu	<stdin>
@cpu	<stdin>
@data	<stdin>
@data:	<stdin>
@data:	<stdin>
@data:	<stdin>
@dco:	<stdin>
@dd:	<stdin>
@dep_bit:	<stdin>
@dev	<stdin>
@dev	<stdin>
@dev	<stdin>
@dev	<stdin>
@dev's	<stdin>
@dev.	<stdin>
@dev:	<stdin>
@dev:	<stdin>
@dev:	<stdin>
@dev:	<stdin>
@dev:	<stdin>
@dev:	<stdin>
@dev:	<stdin>
@dev_attr:	<stdin>
@disable_module:	<stdin>
@div:	<stdin>
@dma.	<stdin>
@dma.	<stdin>
@dma:	<stdin>
@dma_req:	<stdin>
@dmadisable_shift:	<stdin>
@dsp_opp_table:	<stdin>
@enable:	<stdin>
@enable_module:	<stdin>
@enabled:	<stdin>
@enwkup_shift:	<stdin>
@events	<stdin>
@events.	<stdin>
@events:	<stdin>
@f:	<stdin>
@field_val:	<stdin>
@fifo_depth	<stdin>
@fifo_depth:	<stdin>
@flag:	<stdin>
@flags:	<stdin>
@flags:	<stdin>
@flags:	<stdin>
@flags:	<stdin>
@flags:	<stdin>
@flags:	<stdin>
@flags:	<stdin>
@flags:	<stdin>
@flags:	<stdin>
@flags:	<stdin>
@flags:	<stdin>
@flags:	<stdin>
@flags:	<stdin>
@flags:	<stdin>
@flags:	<stdin>
@flags:	<stdin>
@fn	<stdin>
@fn	<stdin>
@fn	<stdin>
@fn	<stdin>
@fn	<stdin>
@fn	<stdin>
@fn	<stdin>
@fn	<stdin>
@fn	<stdin>
@fn	<stdin>
@fn	<stdin>
@fn	<stdin>
@fn.	<stdin>
@fn.	<stdin>
@fn:	<stdin>
@fn:	<stdin>
@fn:	<stdin>
@fn:	<stdin>
@fn:	<stdin>
@fn:	<stdin>
@freqsel:	<stdin>
@fw:	<stdin>
@gpio:	<stdin>
@gpio:	<stdin>
@gpio:	<stdin>
@gpio:	<stdin>
@gpio:	<stdin>
@hfclkin_ck_name:	<stdin>
@hfclkin_ck_name:	<stdin>
@hmux:	<stdin>
@hw	<stdin>
@hw	<stdin>
@hw	<stdin>
@hw	<stdin>
@hw	<stdin>
@hw	<stdin>
@hw	<stdin>
@hw	<stdin>
@hw	<stdin>
@hw	<stdin>
@hw	<stdin>
@hw	<stdin>
@hw	<stdin>
@hw	<stdin>
@hw	<stdin>
@hw	<stdin>
@hw	<stdin>
@hw:	<stdin>
@hw:	<stdin>
@hw:	<stdin>
@hw:	<stdin>
@hw:	<stdin>
@hw:	<stdin>
@hw:	<stdin>
@hw:	<stdin>
@hw:	<stdin>
@hw:	<stdin>
@hw:	<stdin>
@hw:	<stdin>
@hw;	<stdin>
@hw;	<stdin>
@hw;	<stdin>
@hw;	<stdin>
@i2c_high_speed:	<stdin>
@i2c_mcode:	<stdin>
@i2c_slave_addr:	<stdin>
@i:	<stdin>
@id:	<stdin>
@id:	<stdin>
@idle:	<stdin>
@idlemode	<stdin>
@idlemode:	<stdin>
@idlemode:	<stdin>
@idlemodes:	<stdin>
@idlest:	<stdin>
@idlest:	<stdin>
@idlest_bit.	<stdin>
@idlest_bit.	<stdin>
@idlest_bit.	<stdin>
@idlest_bit:	<stdin>
@idlest_bit:	<stdin>
@idlest_bit:	<stdin>
@idlest_bit:	<stdin>
@idlest_bit:	<stdin>
@idlest_bit:	<stdin>
@idlest_bit:	<stdin>
@idlest_id,	<stdin>
@idlest_id,	<stdin>
@idlest_id,	<stdin>
@idlest_id:	<stdin>
@idlest_id:	<stdin>
@idlest_id:	<stdin>
@idlest_idle_bit,	<stdin>
@idlest_idle_bit:	<stdin>
@idlest_reg	<stdin>
@idlest_reg	<stdin>
@idlest_reg	<stdin>
@idlest_reg,	<stdin>
@idlest_reg:	<stdin>
@idlest_reg:	<stdin>
@idlest_reg:	<stdin>
@idlest_reg:	<stdin>
@idlest_reg:	<stdin>
@idlest_reg:	<stdin>
@idlest_reg:	<stdin>
@idlest_reg:	<stdin>
@idlest_reg:	<stdin>
@idlest_reg:	<stdin>
@idlest_reg_id,	<stdin>
@idlest_reg_id.	<stdin>
@idlest_reg_id:	<stdin>
@idlest_reg_id:	<stdin>
@idlest_reg_id:	<stdin>
@idlest_reg_id:	<stdin>
@idlest_shift)	<stdin>
@idlest_shift)	<stdin>
@idlest_shift)	<stdin>
@idlest_shift:	<stdin>
@idlest_shift:	<stdin>
@idlest_shift:	<stdin>
@idlest_stdby_bit	<stdin>
@idlest_stdby_bit:	<stdin>
@idlest_val:	<stdin>
@idlest_val:	<stdin>
@idlest_val:	<stdin>
@idlest_val:	<stdin>
@idlest_val:	<stdin>
@idlest_val:	<stdin>
@idlest_val:	<stdin>
@idx),	<stdin>
@idx),	<stdin>
@idx).	<stdin>
@idx).	<stdin>
@idx:	<stdin>
@idx:	<stdin>
@idx:	<stdin>
@idx:	<stdin>
@idx:	<stdin>
@ignore_lat	<stdin>
@ignore_lat	<stdin>
@ignore_lat	<stdin>
@ignore_lat	<stdin>
@ignore_lat:	<stdin>
@ignore_lat:	<stdin>
@index	<stdin>
@index	<stdin>
@index	<stdin>
@index	<stdin>
@index	<stdin>
@index	<stdin>
@index	<stdin>
@index	<stdin>
@index:	<stdin>
@index:	<stdin>
@index:	<stdin>
@index:	<stdin>
@init_oh	<stdin>
@init_oh	<stdin>
@init_oh	<stdin>
@init_oh	<stdin>
@init_oh	<stdin>
@init_oh	<stdin>
@init_oh	<stdin>
@init_oh	<stdin>
@init_oh:	<stdin>
@init_oh:	<stdin>
@inst,	<stdin>
@inst,	<stdin>
@inst,	<stdin>
@inst,	<stdin>
@inst,	<stdin>
@inst,	<stdin>
@inst,	<stdin>
@inst,	<stdin>
@inst:	<stdin>
@inst:	<stdin>
@inst:	<stdin>
@inst:	<stdin>
@inst:	<stdin>
@inst:	<stdin>
@inst:	<stdin>
@inst:	<stdin>
@inst:	<stdin>
@inst:	<stdin>
@inst:	<stdin>
@inst:	<stdin>
@inst:	<stdin>
@inst:	<stdin>
@inst:	<stdin>
@inst:	<stdin>
@inst:	<stdin>
@inst:	<stdin>
@inst:	<stdin>
@inst:	<stdin>
@inst:	<stdin>
@inst:	<stdin>
@inst:	<stdin>
@inst:	<stdin>
@inst:	<stdin>
@inst:	<stdin>
@inst:	<stdin>
@inst:	<stdin>
@inst:	<stdin>
@inst:	<stdin>
@instr:	<stdin>
@irq:	<stdin>
@irq:	<stdin>
@irq_idx.	<stdin>
@irq_idx:	<stdin>
@irq_setup:	<stdin>
@irqstatus_mpu:	<stdin>
@is_early_device:	<stdin>
@is_early_device:	<stdin>
@is_early_device:	<stdin>
@l3_opp_table	<stdin>
@l3_perm_bit:	<stdin>
@l4_fw_region:	<stdin>
@l4_prot_group:	<stdin>
@lostcontext_mask	<stdin>
@lostcontext_mask	<stdin>
@lostcontext_mask:	<stdin>
@m:	<stdin>
@m:	<stdin>
@m:	<stdin>
@main_clk	<stdin>
@main_clk:	<stdin>
@mask:	<stdin>
@mask:	<stdin>
@master	<stdin>
@master:	<stdin>
@master_cnt:	<stdin>
@masters	<stdin>
@match	<stdin>
@match	<stdin>
@midle_shift:	<stdin>
@ml	<stdin>
@ml:	<stdin>
@mode:	<stdin>
@mode:	<stdin>
@module_bit	<stdin>
@module_bit:	<stdin>
@module_offs:	<stdin>
@modulemode:	<stdin>
@mpu_ck_name:	<stdin>
@mpu_ck_name:	<stdin>
@mpu_irqs:	<stdin>
@mpu_opp_table:	<stdin>
@mpurate_ck_name	<stdin>
@mpurate_ck_name	<stdin>
@mpurate_ck_name	<stdin>
@mpurate_ck_name	<stdin>
@mpurate_ck_name:	<stdin>
@mpurate_ck_name:	<stdin>
@mr:	<stdin>
@mux:	<stdin>
@mux_offset:	<stdin>
@mux_offset:	<stdin>
@mux_value:	<stdin>
@muxmodes:	<stdin>
@muxname:	<stdin>
@muxnames:	<stdin>
@n	<stdin>
@n:	<stdin>
@n:	<stdin>
@n:	<stdin>
@n:	<stdin>
@n:	<stdin>
@n:	<stdin>
@name	<stdin>
@name	<stdin>
@name	<stdin>
@name	<stdin>
@name	<stdin>
@name	<stdin>
@name	<stdin>
@name	<stdin>
@name	<stdin>
@name	<stdin>
@name	<stdin>
@name	<stdin>
@name	<stdin>
@name	<stdin>
@name	<stdin>
@name	<stdin>
@name	<stdin>
@name	<stdin>
@name	<stdin>
@name	<stdin>
@name	<stdin>
@name.	<stdin>
@name.	<stdin>
@name:	<stdin>
@name:	<stdin>
@name:	<stdin>
@name:	<stdin>
@name:	<stdin>
@name:	<stdin>
@name:	<stdin>
@name:	<stdin>
@name:	<stdin>
@name:	<stdin>
@name:	<stdin>
@name:	<stdin>
@name:	<stdin>
@name:	<stdin>
@name:	<stdin>
@name:	<stdin>
@name:	<stdin>
@name:	<stdin>
@name:	<stdin>
@name:	<stdin>
@name:	<stdin>
@name:	<stdin>
@name:	<stdin>
@name:	<stdin>
@name:	<stdin>
@name:	<stdin>
@name:	<stdin>
@name:	<stdin>
@name:	<stdin>
@name:	<stdin>
@name:	<stdin>
@name:	<stdin>
@nargs:	<stdin>
@new_div:	<stdin>
@new_parent.	<stdin>
@new_parent:	<stdin>
@new_rate:	<stdin>
@node:	<stdin>
@node:	<stdin>
@node:	<stdin>
@node:	<stdin>
@node:	<stdin>
@nominal_volt:	<stdin>
@nr_pads:	<stdin>
@nr_pads:	<stdin>
@num_clocks:	<stdin>
@num_clocks:	<stdin>
@ocp_if:	<stdin>
@od	<stdin>
@od	<stdin>
@od	<stdin>
@od	<stdin>
@od	<stdin>
@od	<stdin>
@od.	<stdin>
@od.	<stdin>
@od.	<stdin>
@od:	<stdin>
@od:	<stdin>
@od:	<stdin>
@od:	<stdin>
@od:	<stdin>
@od:	<stdin>
@od:	<stdin>
@od:	<stdin>
@od:	<stdin>
@od:	<stdin>
@od:	<stdin>
@od:	<stdin>
@od:	<stdin>
@od:	<stdin>
@od:	<stdin>
@od:	<stdin>
@od:	<stdin>
@od:	<stdin>
@od:	<stdin>
@od:	<stdin>
@off:	<stdin>
@oh	<stdin>
@oh	<stdin>
@oh	<stdin>
@oh	<stdin>
@oh	<stdin>
@oh	<stdin>
@oh	<stdin>
@oh	<stdin>
@oh	<stdin>
@oh	<stdin>
@oh	<stdin>
@oh	<stdin>
@oh	<stdin>
@oh	<stdin>
@oh	<stdin>
@oh	<stdin>
@oh	<stdin>
@oh	<stdin>
@oh	<stdin>
@oh	<stdin>
@oh	<stdin>
@oh	<stdin>
@oh	<stdin>
@oh	<stdin>
@oh	<stdin>
@oh	<stdin>
@oh	<stdin>
@oh	<stdin>
@oh	<stdin>
@oh	<stdin>
@oh	<stdin>
@oh	<stdin>
@oh	<stdin>
@oh	<stdin>
@oh	<stdin>
@oh	<stdin>
@oh	<stdin>
@oh	<stdin>
@oh	<stdin>
@oh	<stdin>
@oh	<stdin>
@oh	<stdin>
@oh	<stdin>
@oh	<stdin>
@oh	<stdin>
@oh	<stdin>
@oh	<stdin>
@oh	<stdin>
@oh	<stdin>
@oh	<stdin>
@oh	<stdin>
@oh	<stdin>
@oh	<stdin>
@oh	<stdin>
@oh	<stdin>
@oh	<stdin>
@oh	<stdin>
@oh	<stdin>
@oh	<stdin>
@oh	<stdin>
@oh	<stdin>
@oh	<stdin>
@oh	<stdin>
@oh	<stdin>
@oh	<stdin>
@oh	<stdin>
@oh	<stdin>
@oh	<stdin>
@oh	<stdin>
@oh	<stdin>
@oh	<stdin>
@oh	<stdin>
@oh's	<stdin>
@oh's	<stdin>
@oh's	<stdin>
@oh's	<stdin>
@oh,	<stdin>
@oh,	<stdin>
@oh->mux->pads_dynamic	<stdin>
@oh.	<stdin>
@oh.	<stdin>
@oh.	<stdin>
@oh.	<stdin>
@oh.	<stdin>
@oh.	<stdin>
@oh.	<stdin>
@oh.	<stdin>
@oh.	<stdin>
@oh.	<stdin>
@oh.	<stdin>
@oh.	<stdin>
@oh.	<stdin>
@oh.	<stdin>
@oh.	<stdin>
@oh.	<stdin>
@oh.	<stdin>
@oh.	<stdin>
@oh.	<stdin>
@oh.	<stdin>
@oh.	<stdin>
@oh.	<stdin>
@oh.	<stdin>
@oh.	<stdin>
@oh.	<stdin>
@oh.	<stdin>
@oh.	<stdin>
@oh.	<stdin>
@oh.	<stdin>
@oh:	<stdin>
@oh:	<stdin>
@oh:	<stdin>
@oh:	<stdin>
@oh:	<stdin>
@oh:	<stdin>
@oh:	<stdin>
@oh:	<stdin>
@oh:	<stdin>
@oh:	<stdin>
@oh:	<stdin>
@oh:	<stdin>
@oh:	<stdin>
@oh:	<stdin>
@oh:	<stdin>
@oh:	<stdin>
@oh:	<stdin>
@oh:	<stdin>
@oh:	<stdin>
@oh:	<stdin>
@oh:	<stdin>
@oh:	<stdin>
@oh:	<stdin>
@oh:	<stdin>
@oh:	<stdin>
@oh:	<stdin>
@oh:	<stdin>
@oh:	<stdin>
@oh:	<stdin>
@oh:	<stdin>
@oh:	<stdin>
@oh:	<stdin>
@oh:	<stdin>
@oh:	<stdin>
@oh:	<stdin>
@oh:	<stdin>
@oh:	<stdin>
@oh:	<stdin>
@oh:	<stdin>
@oh:	<stdin>
@oh:	<stdin>
@oh:	<stdin>
@oh:	<stdin>
@oh:	<stdin>
@oh:	<stdin>
@oh:	<stdin>
@oh:	<stdin>
@oh:	<stdin>
@oh:	<stdin>
@oh:	<stdin>
@oh:	<stdin>
@oh:	<stdin>
@oh:	<stdin>
@oh:	<stdin>
@oh:	<stdin>
@oh:	<stdin>
@oh:	<stdin>
@oh:	<stdin>
@oh:	<stdin>
@oh:	<stdin>
@oh:	<stdin>
@oh:	<stdin>
@oh:	<stdin>
@oh:	<stdin>
@oh:	<stdin>
@oh:	<stdin>
@oh:	<stdin>
@oh:	<stdin>
@oh:	<stdin>
@oh:	<stdin>
@oh:	<stdin>
@oh:	<stdin>
@oh:	<stdin>
@oh:	<stdin>
@oh:	<stdin>
@oh:	<stdin>
@oh:	<stdin>
@oh:	<stdin>
@oh:	<stdin>
@oh:	<stdin>
@oh:	<stdin>
@oh:	<stdin>
@oh:	<stdin>
@oh:	<stdin>
@oh:	<stdin>
@oh:	<stdin>
@oh:	<stdin>
@oh:	<stdin>
@oh:	<stdin>
@oh:	<stdin>
@oh:	<stdin>
@oh:	<stdin>
@oh:	<stdin>
@oh:	<stdin>
@oh:	<stdin>
@oh:	<stdin>
@oh:	<stdin>
@oh:	<stdin>
@oh:	<stdin>
@oh:	<stdin>
@oh:	<stdin>
@oh:	<stdin>
@oh:	<stdin>
@oh:	<stdin>
@oh:	<stdin>
@oh:	<stdin>
@oh:	<stdin>
@oh:	<stdin>
@oh:	<stdin>
@oh:	<stdin>
@oh:	<stdin>
@oh:	<stdin>
@oh_name:	<stdin>
@oh_name:	<stdin>
@oh_names:	<stdin>
@oh_num:	<stdin>
@ohri.	<stdin>
@ohri.	<stdin>
@ohri.	<stdin>
@ohri.	<stdin>
@ohri.	<stdin>
@ohri.	<stdin>
@ohri.	<stdin>
@ohri.	<stdin>
@ohri.	<stdin>
@ohri:	<stdin>
@ohri:	<stdin>
@ohri:	<stdin>
@ohri:	<stdin>
@ohri:	<stdin>
@ohri:	<stdin>
@ohri:	<stdin>
@ohri:	<stdin>
@ohri:	<stdin>
@ohri:	<stdin>
@oi	<stdin>
@oi	<stdin>
@oi,	<stdin>
@oi->master	<stdin>
@oi->slave	<stdin>
@oi.	<stdin>
@oi.	<stdin>
@oi:	<stdin>
@oi:	<stdin>
@ois	<stdin>
@ois	<stdin>
@ois	<stdin>
@ois:	<stdin>
@ois:	<stdin>
@omap2xxx_pwrst,	<stdin>
@omap2xxx_pwrst:	<stdin>
@opp_def:	<stdin>
@opp_def_size:	<stdin>
@opp_id:	<stdin>
@opt_clks	<stdin>
@opt_clks:	<stdin>
@opt_clks_cnt:	<stdin>
@other_bit:	<stdin>
@other_bit:	<stdin>
@other_bit:	<stdin>
@other_reg:	<stdin>
@other_reg:	<stdin>
@other_reg:	<stdin>
@p	<stdin>
@p	<stdin>
@p,	<stdin>
@p:	<stdin>
@pa_end.	<stdin>
@pa_end:	<stdin>
@pa_end:	<stdin>
@pa_start	<stdin>
@pa_start:	<stdin>
@pa_start:	<stdin>
@pad_idx	<stdin>
@pad_idx	<stdin>
@pad_idx:	<stdin>
@pads:	<stdin>
@pads:	<stdin>
@pads_cnt:	<stdin>
@parent_rate:	<stdin>
@part:	<stdin>
@part:	<stdin>
@part:	<stdin>
@part:	<stdin>
@part:	<stdin>
@part:	<stdin>
@part:	<stdin>
@part:	<stdin>
@part:	<stdin>
@part:	<stdin>
@part:	<stdin>
@part:	<stdin>
@part:	<stdin>
@part:	<stdin>
@part:	<stdin>
@partition:	<stdin>
@partition:	<stdin>
@partition:	<stdin>
@partition:	<stdin>
@pdata	<stdin>
@pdata	<stdin>
@pdata	<stdin>
@pdata	<stdin>
@pdata:	<stdin>
@pdata:	<stdin>
@pdata:	<stdin>
@pdata:	<stdin>
@pdata_len:	<stdin>
@pdata_len:	<stdin>
@pdata_len:	<stdin>
@pdata_len:	<stdin>
@pdev	<stdin>
@pdev	<stdin>
@pdev,	<stdin>
@pdev.	<stdin>
@pdev.	<stdin>
@pdev:	<stdin>
@pdev:	<stdin>
@pdev:	<stdin>
@pdev_id:	<stdin>
@pdev_id:	<stdin>
@pdev_id:	<stdin>
@pdev_name:	<stdin>
@pdev_name:	<stdin>
@pdev_name:	<stdin>
@phys:	<stdin>
@pld	<stdin>
@pld	<stdin>
@pld	<stdin>
@pld	<stdin>
@pld	<stdin>
@pld:	<stdin>
@pld:	<stdin>
@pm_lats	<stdin>
@pm_lats	<stdin>
@pm_lats	<stdin>
@pm_lats	<stdin>
@pm_lats:	<stdin>
@pm_lats:	<stdin>
@pm_lats:	<stdin>
@pm_lats:	<stdin>
@pm_lats_cnt:	<stdin>
@pm_lats_cnt:	<stdin>
@pm_lats_cnt:	<stdin>
@pm_lats_cnt:	<stdin>
@pmic:	<stdin>
@po	<stdin>
@po:	<stdin>
@power_state:	<stdin>
@power_state:	<stdin>
@prcm:	<stdin>
@prcm_inst	<stdin>
@prcm_inst:	<stdin>
@prcm_inst:	<stdin>
@prcm_inst:	<stdin>
@prcm_mod:	<stdin>
@prcm_mod:	<stdin>
@prcm_mod:	<stdin>
@prcm_partition	<stdin>
@prcm_partition:	<stdin>
@prcm_reg_id	<stdin>
@prcm_reg_id:	<stdin>
@pre_shutdown	<stdin>
@pre_shutdown:	<stdin>
@prm:	<stdin>
@prm_mod:	<stdin>
@prm_mod:	<stdin>
@prm_mod:	<stdin>
@property	<stdin>
@property	<stdin>
@ps	<stdin>
@ps:	<stdin>
@pwrdm	<stdin>
@pwrdm	<stdin>
@pwrdm	<stdin>
@pwrdm	<stdin>
@pwrdm	<stdin>
@pwrdm	<stdin>
@pwrdm	<stdin>
@pwrdm	<stdin>
@pwrdm	<stdin>
@pwrdm's	<stdin>
@pwrdm's	<stdin>
@pwrdm's	<stdin>
@pwrdm's	<stdin>
@pwrdm's	<stdin>
@pwrdm's	<stdin>
@pwrdm's	<stdin>
@pwrdm,	<stdin>
@pwrdm,	<stdin>
@pwrdm.	<stdin>
@pwrdm.	<stdin>
@pwrdm.	<stdin>
@pwrdm.	<stdin>
@pwrdm.	<stdin>
@pwrdm.	<stdin>
@pwrdm:	<stdin>
@pwrdm:	<stdin>
@pwrdm:	<stdin>
@pwrdm:	<stdin>
@pwrdm:	<stdin>
@pwrdm:	<stdin>
@pwrdm:	<stdin>
@pwrdm:	<stdin>
@pwrdm:	<stdin>
@pwrdm:	<stdin>
@pwrdm:	<stdin>
@pwrdm:	<stdin>
@pwrdm:	<stdin>
@pwrdm:	<stdin>
@pwrdm:	<stdin>
@pwrdm:	<stdin>
@pwrdm:	<stdin>
@pwrdm:	<stdin>
@pwrdm:	<stdin>
@pwrdm:	<stdin>
@pwrdm:	<stdin>
@pwrdm:	<stdin>
@pwrdm:	<stdin>
@pwrdm:	<stdin>
@pwrdm:	<stdin>
@pwrdm:	<stdin>
@pwrdm:	<stdin>
@pwrdm:	<stdin>
@pwrdm:	<stdin>
@pwrdm:	<stdin>
@pwrdm:	<stdin>
@pwrdm_list:	<stdin>
@pwrst	<stdin>
@pwrst	<stdin>
@pwrst	<stdin>
@pwrst	<stdin>
@pwrst.	<stdin>
@pwrst:	<stdin>
@pwrst:	<stdin>
@pwrst:	<stdin>
@pwrst:	<stdin>
@r	<stdin>
@r	<stdin>
@r:	<stdin>
@r:	<stdin>
@r:	<stdin>
@rate	<stdin>
@rate:	<stdin>
@rate:	<stdin>
@rate:	<stdin>
@rate:	<stdin>
@read:	<stdin>
@read:	<stdin>
@read_reset_sources:	<stdin>
@reg:	<stdin>
@reg:	<stdin>
@reg_offset:	<stdin>
@reg_offset:	<stdin>
@reg_offset:	<stdin>
@reg_shift:	<stdin>
@req_dev:	<stdin>
@res	<stdin>
@res	<stdin>
@res	<stdin>
@res	<stdin>
@res:	<stdin>
@res:	<stdin>
@res:	<stdin>
@res:	<stdin>
@reset	<stdin>
@reset:	<stdin>
@response_lat:	<stdin>
@return	<stdin>
@rev:	<stdin>
@rev_offs:	<stdin>
@rfr_ctrl:	<stdin>
@role:	<stdin>
@rsrc.	<stdin>
@rsrc:	<stdin>
@rst_shift:	<stdin>
@rst_shift:	<stdin>
@rstctrl_offs:	<stdin>
@rstctrl_offs:	<stdin>
@rstctrl_reg:	<stdin>
@rstctrl_reg:	<stdin>
@rstctrl_reg:	<stdin>
@rstctrl_reg:	<stdin>
@rstctrl_reg:	<stdin>
@rstst_reg:	<stdin>
@rstst_reg:	<stdin>
@saved_mask	<stdin>
@saved_mask.	<stdin>
@saved_mask.	<stdin>
@saved_mask:	<stdin>
@saved_mask:	<stdin>
@scalable:	<stdin>
@scale:	<stdin>
@sd_div:	<stdin>
@sdma_reqs:	<stdin>
@sdrc_cs0:	<stdin>
@sdrc_cs1:	<stdin>
@sdrc_cs[01]:	<stdin>
@set_wake:	<stdin>
@shift:	<stdin>
@shift:	<stdin>
@shift:	<stdin>
@shift:	<stdin>
@shift:	<stdin>
@shift:	<stdin>
@shift:	<stdin>
@shift:	<stdin>
@shutdown_time:	<stdin>
@sidle_shift:	<stdin>
@size:	<stdin>
@sl.	<stdin>
@sl:	<stdin>
@slave	<stdin>
@slave:	<stdin>
@slaves	<stdin>
@slaves_cnt:	<stdin>
@sleepdep_srcs:	<stdin>
@sleepdep_usecount:	<stdin>
@slew_rate:	<stdin>
@src_clk:	<stdin>
@srst_shift:	<stdin>
@srst_udelay:	<stdin>
@st_shift:	<stdin>
@st_shift:	<stdin>
@standbymode	<stdin>
@standbymode:	<stdin>
@startup_time:	<stdin>
@state:	<stdin>
@state:	<stdin>
@std_shift:	<stdin>
@step_size:	<stdin>
@store:	<stdin>
@submodule_wkdep_bit:	<stdin>
@sys_clk:	<stdin>
@sysc:	<stdin>
@sysc_fields:	<stdin>
@sysc_flags:	<stdin>
@sysc_offs:	<stdin>
@syss_offs:	<stdin>
@t	<stdin>
@t	<stdin>
@t:	<stdin>
@t:	<stdin>
@t:	<stdin>
@target_rate.	<stdin>
@target_rate:	<stdin>
@target_rate:	<stdin>
@target_rate:	<stdin>
@target_rate:	<stdin>
@target_rate:	<stdin>
@target_volt:	<stdin>
@tbus_id	<stdin>
@tbus_id:	<stdin>
@timeout	<stdin>
@timeout	<stdin>
@timeout	<stdin>
@timeout	<stdin>
@timeout,	<stdin>
@timeout,	<stdin>
@timeout,	<stdin>
@timeout,	<stdin>
@timeout:	<stdin>
@timeout:	<stdin>
@timeout:	<stdin>
@timeout:	<stdin>
@tranxdone_status:	<stdin>
@type:	<stdin>
@usecount:	<stdin>
@user:	<stdin>
@user:	<stdin>
@user:	<stdin>
@user:	<stdin>
@uv_to_vsel:	<stdin>
@v	<stdin>
@v	<stdin>
@v	<stdin>
@v	<stdin>
@v	<stdin>
@v	<stdin>
@v	<stdin>
@v	<stdin>
@v	<stdin>
@v	<stdin>
@v	<stdin>
@v	<stdin>
@v	<stdin>
@v	<stdin>
@v:	<stdin>
@v:	<stdin>
@v:	<stdin>
@v:	<stdin>
@v:	<stdin>
@v:	<stdin>
@v:	<stdin>
@val:	<stdin>
@val:	<stdin>
@val:	<stdin>
@val:	<stdin>
@vc:	<stdin>
@vlimitto:	<stdin>
@vlimitto_timeout_shift:	<stdin>
@vlimitto_vddmax_shift:	<stdin>
@vlimitto_vddmin_shift:	<stdin>
@volt:	<stdin>
@volt_data:	<stdin>
@volt_data:	<stdin>
@volt_reg_addr:	<stdin>
@voltage:	<stdin>
@voltdm.	<stdin>
@voltdm.	<stdin>
@voltdm:	<stdin>
@voltdm:	<stdin>
@voltdm:	<stdin>
@voltdm:	<stdin>
@voltdm:	<stdin>
@voltdm:	<stdin>
@voltdm:	<stdin>
@voltdm:	<stdin>
@voltdm:	<stdin>
@voltdm:	<stdin>
@voltdm:	<stdin>
@voltdm:	<stdin>
@voltdm_list,	<stdin>
@voltdm_list:	<stdin>
@voltscale_method:	<stdin>
@voltsetup_mask:	<stdin>
@voltsetup_off_reg:	<stdin>
@voltsetup_reg:	<stdin>
@vp:	<stdin>
@vpconfig:	<stdin>
@vpconfig_errorgain_mask:	<stdin>
@vpconfig_errorgain_shift:	<stdin>
@vpconfig_erroroffset_mask:	<stdin>
@vpconfig_erroroffset_shift:	<stdin>
@vpconfig_forceupdate:	<stdin>
@vpconfig_initvdd:	<stdin>
@vpconfig_initvoltage_mask:	<stdin>
@vpconfig_initvoltage_shift:	<stdin>
@vpconfig_timeouten:	<stdin>
@vpconfig_vpenable:	<stdin>
@vpvoltage_mask:	<stdin>
@vsel_to_uv:	<stdin>
@vstatus:	<stdin>
@vstepmax_smpswaittimemax_shift:	<stdin>
@vstepmax_stepmax_shift:	<stdin>
@vstepmin:	<stdin>
@vstepmin_smpswaittimemin_shift:	<stdin>
@vstepmin_stepmin_shift:	<stdin>
@was_any_context_lost_old	<stdin>
@was_any_context_lost_old:	<stdin>
@width:	<stdin>
@wkdep_srcs:	<stdin>
@wkdep_usecount:	<stdin>
@write:	<stdin>
Kumar<viresh.linux@gmail.com>	<stdin>
Kumar<viresh.linux@gmail.com>	<stdin>
colin.king@philips.com	<stdin>
linux-omap@vger.kernel.org	<stdin>
linux-omap@vger.kernel.org	<stdin>
linux-omap@vger.kernel.org	<stdin>
linux-omap@vger.kernel.org	<stdin>
linux-omap@vger.kernel.org	<stdin>
linux-omap@vger.kernel.org	<stdin>
linux-omap@vger.kernel.org	<stdin>
linux-omap@vger.kernel.org	<stdin>
linux-omap@vger.kernel.org	<stdin>
