(kernel@pengutronix.de)	<stdin>
(kernel@pengutronix.de)	<stdin>
(ppisa@pikron.com)	<stdin>
(ppisa@pikron.com)	<stdin>
(rurality.linux@gmail.com)	<stdin>
(rurality.linux@gmail.com)	<stdin>
(shane@minirl.com)	<stdin>
(shane@minirl.com)	<stdin>
<Hiroshi.DOYU@nokia.com>	<stdin>
<andre@bluewatersys.com>	<stdin>
<bengt.g.jonsson@stericsson.com>	<stdin>
<bengt.g.jonsson@stericsson.com>	<stdin>
<bhmin@samsung.com>	<stdin>
<bhmin@samsung.com>	<stdin>
<bhmin@samsung.com>	<stdin>
<bhmin@samsung.com>	<stdin>
<bhmin@samsung.com>	<stdin>
<bhmin@samsung.com>	<stdin>
<bhmin@samsung.com>	<stdin>
<bhmin@samsung.com>	<stdin>
<bhmin@samsung.com>	<stdin>
<bhmin@samsung.com>	<stdin>
<bhmin@samsung.com>	<stdin>
<bhmin@samsung.com>	<stdin>
<bryan.wu@canonical.com>	<stdin>
<buytenh@wantstofly.org>	<stdin>
<christian.glindkamp@taskit.de>	<stdin>
<christian.glindkamp@taskit.de>	<stdin>
<christian.glindkamp@taskit.de>	<stdin>
<daniel.lezcano@linaro.org>	<stdin>
<daniel.lezcano@linaro.org>	<stdin>
<dsaxena@mvista.com>	<stdin>
<gerg@snapgear.com>	<stdin>
<gerg@snapgear.com>	<stdin>
<gerg@snapgear.com>	<stdin>
<gerg@snapgear.com>	<stdin>
<gerg@snapgear.com>	<stdin>
<ghcstop@gmail.com>	<stdin>
<glonnon@ridgerun.com>	<stdin>
<glonnon@ridgerun.com>	<stdin>
<glonnon@ridgerun.com>	<stdin>
<glonnon@ridgerun.com>	<stdin>
<glonnon@ridgerun.com>	<stdin>
<glonnon@ridgerun.com>	<stdin>
<glonnon@ridgerun.com>	<stdin>
<hanumath.prasad@stericsson.com>	<stdin>
<holzmayr@rsi-elektrotechnik.de>	<stdin>
<imre.deak@nokia.com>	<stdin>
<imre.deak@nokia.com>	<stdin>
<jassi.brar@samsung.com>	<stdin>
<jassi.brar@samsung.com>	<stdin>
<jassi.brar@samsung.com>	<stdin>
<jhnikula@gmail.com>	<stdin>
<jonas.aberg@stericsson.com>	<stdin>
<jonas.aberg@stericsson.com>.	<stdin>
<jonas.aberg@stericsson.com>.	<stdin>
<juha.yrjola@nokia.com>	<stdin>
<juha.yrjola@nokia.com>	<stdin>
<jy0922.shim@samsung.com>	<stdin>
<kgene.kim@samsung.com>	<stdin>
<kgene.kim@samsung.com>	<stdin>
<kyungmin.park@samsung.com>	<stdin>
<lauri.leukkunen@nokia.com>	<stdin>
<m.szyprowski@samsung.com>	<stdin>
<manabian@gmail.com>	<stdin>
<manjugk@ti.com>	<stdin>
<manjugk@ti.com>	<stdin>
<mcuos.com@gmail.com>	<stdin>
<mcuos.com@gmail.com>	<stdin>
<mcuos.com@gmail.com>	<stdin>
<mcuos.com@gmail.com>	<stdin>
<mcuos.com@gmail.com>	<stdin>
<mcuos.com@gmail.com>	<stdin>
<mcuos.com@gmail.com>	<stdin>
<mcuos.com@gmail.com>	<stdin>
<mcuos.com@gmail.com>	<stdin>
<mcuos.com@gmail.com>	<stdin>
<mcuos.com@gmail.com>	<stdin>
<mcuos.com@gmail.com>	<stdin>
<mcuos.com@gmail.com>	<stdin>
<mcuos.com@gmail.com>	<stdin>
<mcuos.com@gmail.com>	<stdin>
<mcuos.com@gmail.com>	<stdin>
<mcuos.com@gmail.com>	<stdin>
<mcuos.com@gmail.com>	<stdin>
<mcuos.com@gmail.com>	<stdin>
<mcuos.com@gmail.com>	<stdin>
<mcuos.com@gmail.com>	<stdin>
<mcuos.com@gmail.com>	<stdin>
<mcuos.com@gmail.com>	<stdin>
<mcuos.com@gmail.com>	<stdin>
<mcuos.com@gmail.com>	<stdin>
<mcuos.com@gmail.com>	<stdin>
<mcuos.com@gmail.com>	<stdin>
<mcuos.com@gmail.com>	<stdin>
<mcuos.com@gmail.com>	<stdin>
<mcuos.com@gmail.com>	<stdin>
<mcuos.com@gmail.com>	<stdin>
<mcuos.com@gmail.com>	<stdin>
<mcuos.com@gmail.com>	<stdin>
<mcuos.com@gmail.com>	<stdin>
<mcuos.com@gmail.com>	<stdin>
<mcuos.com@gmail.com>	<stdin>
<mcuos.com@gmail.com>	<stdin>
<mcuos.com@gmail.com>	<stdin>
<mcuos.com@gmail.com>	<stdin>
<mcuos.com@gmail.com>	<stdin>
<mcuos.com@gmail.com>	<stdin>
<mcuos.com@gmail.com>	<stdin>
<mcuos.com@gmail.com>	<stdin>
<mcuos.com@gmail.com>	<stdin>
<mcuos.com@gmail.com>	<stdin>
<mcuos.com@gmail.com>	<stdin>
<mcuos.com@gmail.com>	<stdin>
<mcuos.com@gmail.com>	<stdin>
<mcuos.com@gmail.com>	<stdin>
<mcuos.com@gmail.com>	<stdin>
<mcuos.com@gmail.com>	<stdin>
<mcuos.com@gmail.com>	<stdin>
<mcuos.com@gmail.com>	<stdin>
<mcuos.com@gmail.com>	<stdin>
<mcuos.com@gmail.com>	<stdin>
<mcuos.com@gmail.com>	<stdin>
<mian.yousaf.kaukab@stericsson.com>	<stdin>
<nico@visuaide.com>	<stdin>
<nicolas.ferre@atmel.com>	<stdin>
<nicolas.ferre@atmel.com>	<stdin>
<nicolas.ferre@atmel.com>	<stdin>
<pavel@denx.de>	<stdin>
<pavel@denx.de>	<stdin>
<pavel@denx.de>	<stdin>
<per.friden@stericsson.com>	<stdin>
<pgsellmann@portner-elektronik.at>	<stdin>
<plagnioj@jcrosoft.com>	<stdin>
<plagnioj@jcrosoft.com>	<stdin>
<plagnioj@jcrosoft.com>	<stdin>
<plagnioj@jcrosoft.com>	<stdin>
<plagnioj@jcrosoft.com>	<stdin>
<plagnioj@jcrosoft.com>	<stdin>
<plagnioj@jcrosoft.com>	<stdin>
<plyatov@gmail.com>	<stdin>
<rabin.vincent@stericsson.com>	<stdin>
<rabin.vincent@stericsson.com>	<stdin>
<rabin.vincent@stericsson.com>	<stdin>
<rabin.vincent@stericsson.com>	<stdin>
<rabin.vincent@stericsson.com>	<stdin>
<rabin.vincent@stericsson.com>	<stdin>
<rabin.vincent@stericsson.com>	<stdin>
<rabin.vincent@stericsson.com>	<stdin>
<rabin.vincent@stericsson.com>	<stdin>
<rabin.vincent@stericsson.com>	<stdin>
<rabin.vincent@stericsson.com>	<stdin>
<rabin.vincent@stericsson.com>	<stdin>
<rickard.andersson@stericsson.com>	<stdin>
<rickard.andersson@stericsson.com>	<stdin>
<samuel.ortiz@nokia.com>	<stdin>
<samuel.ortiz@nokia.com>	<stdin>
<santosh.shilimkar@ti.com>	<stdin>
<santosh.shilimkar@ti.com>	<stdin>
<santosh.shilimkar@ti.com>	<stdin>
<santosh.shilimkar@ti.com>	<stdin>
<santosh.shilimkar@ti.com>	<stdin>
<slapin@ossfans.org>	<stdin>
<sr@denx.de>	<stdin>
<srinidhi.kasagar@stericsson.com>	<stdin>
<srinidhi.kasagar@stericsson.com>	<stdin>
<srinidhi.kasagar@stericsson.com>	<stdin>
<sundar.iyer@stericsson.com>	<stdin>
<sundar.iyer@stericsson.com>	<stdin>
<tarun.kanti@ti.com>	<stdin>
<tarun.kanti@ti.com>	<stdin>
<thara@ti.com>	<stdin>
<thara@ti.com>	<stdin>
<tony.lindgren@nokia.com>	<stdin>
<tony.lindgren@nokia.com>	<stdin>
<tony.lindgren@nokia.com>	<stdin>
<tony@atomide.com>	<stdin>
<tony@atomide.com>	<stdin>
<tony@atomide.com>	<stdin>
<tony@atomide.com>	<stdin>
<varenet@parisc-linux.org>	<stdin>
<varenet@parisc-linux.org>	<stdin>
<varenet@parisc-linux.org>	<stdin>
<varenet@parisc-linux.org>	<stdin>
<viresh.linux@gmail.com>	<stdin>
@brief	<stdin>
@brief	<stdin>
@brief	<stdin>
@brief	<stdin>
@brief	<stdin>
@brief	<stdin>
@brief	<stdin>
@brief	<stdin>
@brief	<stdin>
@brief	<stdin>
@brief	<stdin>
@brief	<stdin>
@brief	<stdin>
@brief	<stdin>
@brief	<stdin>
@brief	<stdin>
@brief	<stdin>
@brief	<stdin>
@brief	<stdin>
@brief	<stdin>
@brief	<stdin>
@brief	<stdin>
@brief	<stdin>
@brief	<stdin>
@bus_id:	<stdin>
@cap:	<stdin>
@chain_id	<stdin>
@chain_id	<stdin>
@chain_mode	<stdin>
@chain_mode	<stdin>
@clkrate:	<stdin>
@errata:	<stdin>
@info:	<stdin>
@inputmask:	<stdin>
@len:	<stdin>
@mask:	<stdin>
@no_of_chans	<stdin>
@no_of_chans	<stdin>
@param	<stdin>
@param	<stdin>
@param	<stdin>
@param	<stdin>
@param	<stdin>
@param	<stdin>
@param	<stdin>
@param	<stdin>
@param	<stdin>
@param	<stdin>
@param	<stdin>
@param	<stdin>
@param	<stdin>
@param	<stdin>
@param	<stdin>
@param	<stdin>
@param	<stdin>
@param	<stdin>
@param	<stdin>
@param	<stdin>
@param	<stdin>
@param	<stdin>
@param	<stdin>
@param	<stdin>
@param	<stdin>
@param	<stdin>
@param	<stdin>
@param	<stdin>
@param	<stdin>
@param	<stdin>
@param	<stdin>
@param	<stdin>
@param	<stdin>
@param	<stdin>
@param	<stdin>
@param	<stdin>
@param	<stdin>
@param	<stdin>
@param	<stdin>
@param	<stdin>
@param	<stdin>
@param	<stdin>
@param	<stdin>
@param	<stdin>
@param	<stdin>
@param	<stdin>
@param	<stdin>
@param	<stdin>
@param	<stdin>
@param	<stdin>
@param	<stdin>
@param	<stdin>
@params	<stdin>
@params	<stdin>
@partnumber:	<stdin>
@pbase:	<stdin>
@pdev:	<stdin>
@pdev:	<stdin>
@process:	<stdin>
@reg:	<stdin>
@reg:	<stdin>
@return	<stdin>
@return	<stdin>
@return	<stdin>
@return	<stdin>
@return	<stdin>
@return	<stdin>
@return	<stdin>
@return	<stdin>
@return	<stdin>
@return	<stdin>
@return	<stdin>
@return	<stdin>
@return	<stdin>
@return	<stdin>
@return	<stdin>
@return	<stdin>
@return	<stdin>
@return	<stdin>
@return	<stdin>
@return	<stdin>
@revision:	<stdin>
@size:	<stdin>
@str:	<stdin>
@timer:	<stdin>
@timer:	<stdin>
@timer:	<stdin>
@timer:	<stdin>
@timer:	<stdin>
@value:	<stdin>
Kumar<rajeev-dlh.kumar@st.com>	<stdin>
Kumar<rajeev-dlh.kumar@st.com>	<stdin>
Kumar<rajeev-dlh.kumar@st.com>	<stdin>
Kumar<rajeev-dlh.kumar@st.com>	<stdin>
Shilimkar<santosh.shilimkar@ti.com>	<stdin>
Shilimkar<santosh.shilimkar@ti.com>	<stdin>
Shilimkar<santosh.shilimkar@ti.com>	<stdin>
eric@eukrea.com	<stdin>
eric@eukrea.com	<stdin>
kernel@pengutronix.de	<stdin>
lee@lmmrtech.com	<stdin>
pgsellmann@portner-elektronik.at	<stdin>
rmk@arm.linux.org.uk,	<stdin>
tanzilli@acmesystems.it	<stdin>
yanok@emcraft.com	<stdin>
