(dhowells@redhat.com)	<stdin>
(dhowells@redhat.com)	<stdin>
(dhowells@redhat.com).	<stdin>
(gone@us.ibm.com)	<stdin>
(jacob.jun.pan@intel.com)	<stdin>
(mathieu.desnoyers@polymtl.ca)	<stdin>
*@v	<stdin>
-johnstul@us.ibm.com	<stdin>
.brk_reservation,"aw",@nobits;	<stdin>
.brk_reservation,"aw",@nobits;	<stdin>
.brk_reservation,\"aw\",@nobits;"	<stdin>
.brk_reservation,\"aw\",@nobits;"	<stdin>
.discard,\"aw\",@progbits\n"	<stdin>
.discard,\"aw\",@progbits\n"	<stdin>
.discard,\"aw\",@progbits\n"	<stdin>
<Alan.Cox@linux.org>,	<stdin>
<Laurent.Vivier@bull.net>	<stdin>
<acme@conectiva.com.br>	<stdin>
<alan@redhat.com>	<stdin>
<andrew.grover@intel.com>	<stdin>
<andrew.grover@intel.com>	<stdin>
<avi@qumranet.com>	<stdin>
<avi@qumranet.com>	<stdin>
<colpatch@us.ibm.com>	<stdin>
<ehabkost@redhat.com>	<stdin>
<fenghua.yu@intel.com>,	<stdin>
<gareth@valinux.com>,	<stdin>
<gareth@valinux.com>,	<stdin>
<gareth@valinux.com>,	<stdin>
<hpa@linux.intel.com>	<stdin>
<hpa@linux.intel.com>	<stdin>
<james.t.kukunas@linux.intel.com>	<stdin>
<jdmason@us.ibm.com>	<stdin>
<jdmason@us.ibm.com>	<stdin>
<joerg.roedel@amd.com>	<stdin>
<jorge@laser.satlink.net>,	<stdin>
<mhiramat@redhat.com>	<stdin>
<mhiramat@redhat.com>	<stdin>
<mingo@redhat.com>	<stdin>
<mingo@redhat.com>	<stdin>
<mingo@redhat.com>	<stdin>
<mingo@redhat.com>	<stdin>
<mingo@redhat.com>	<stdin>
<mingo@redhat.com>,	<stdin>
<mj@ucw.cz>	<stdin>
<mj@ucw.cz>	<stdin>
<mochel@osdl.org>	<stdin>
<mochel@osdl.org>	<stdin>
<mochel@osdl.org>	<stdin>
<muli@il.ibm.com>	<stdin>
<muli@il.ibm.com>	<stdin>
<paul.s.diefenbaugh@intel.com>	<stdin>
<pavel@suse.cz>	<stdin>
<pavel@suse.cz>	<stdin>
<rja@sgi.com>	<stdin>
<support@numascale.com>	<stdin>
<support@numascale.com>	<stdin>
<tomita@cinet.co.jp>	<stdin>
<tomita@cinet.co.jp>	<stdin>
<tomsoft@informatik.tu-chemnitz.de>	<stdin>
<tomsoft@informatik.tu-chemnitz.de>	<stdin>
<yaniv@qumranet.com>	<stdin>
<yaniv@qumranet.com>	<stdin>
@a	<stdin>
@a	<stdin>
@a	<stdin>
@a:	<stdin>
@a:	<stdin>
@a:	<stdin>
@addr	<stdin>
@addr	<stdin>
@addr	<stdin>
@addr	<stdin>
@addr.	<stdin>
@addr.	<stdin>
@addr:	<stdin>
@addr:	<stdin>
@addr:	<stdin>
@addr:	<stdin>
@addr:	<stdin>
@addr:	<stdin>
@addr:	<stdin>
@addr:	<stdin>
@addr:	<stdin>
@addr:	<stdin>
@addr:	<stdin>
@addr:	<stdin>
@addr:	<stdin>
@addr:	<stdin>
@addr:	<stdin>
@addr:	<stdin>
@addr:	<stdin>
@addr:	<stdin>
@addr:	<stdin>
@addr:	<stdin>
@addr:	<stdin>
@addr:	<stdin>
@address:	<stdin>
@address:	<stdin>
@apic_post_init:	<stdin>
@arch_init:	<stdin>
@arch_setup:	<stdin>
@banner:	<stdin>
@base	<stdin>
@bytes:	<stdin>
@bytes:	<stdin>
@bytes:	<stdin>
@bytes:	<stdin>
@bytes:	<stdin>
@bytes:	<stdin>
@calibrate_tsc:	<stdin>
@count:	<stdin>
@count:	<stdin>
@count:	<stdin>
@count:	<stdin>
@count:	<stdin>
@count:	<stdin>
@early_percpu_clock_init:	<stdin>
@fail_fn:	<stdin>
@fail_fn:	<stdin>
@fail_fn:	<stdin>
@fail_fn:	<stdin>
@fail_fn:	<stdin>
@fail_fn:	<stdin>
@fail_fn:	<stdin>
@find_smp_config:	<stdin>
@fixup_irqs:	<stdin>
@fn	<stdin>
@fn:	<stdin>
@from:	<stdin>
@from:	<stdin>
@from:	<stdin>
@get_smp_config:	<stdin>
@get_wallclock:	<stdin>
@i	<stdin>
@i	<stdin>
@i	<stdin>
@i	<stdin>
@i	<stdin>
@i	<stdin>
@i	<stdin>
@i	<stdin>
@i	<stdin>
@i	<stdin>
@i	<stdin>
@i	<stdin>
@i	<stdin>
@i	<stdin>
@i	<stdin>
@i	<stdin>
@i	<stdin>
@i	<stdin>
@i	<stdin>
@i	<stdin>
@i	<stdin>
@i	<stdin>
@i.	<stdin>
@i.	<stdin>
@i8042_detect	<stdin>
@i:	<stdin>
@i:	<stdin>
@i:	<stdin>
@i:	<stdin>
@i:	<stdin>
@i:	<stdin>
@i:	<stdin>
@i:	<stdin>
@i:	<stdin>
@i:	<stdin>
@i:	<stdin>
@i:	<stdin>
@i:	<stdin>
@i:	<stdin>
@i:	<stdin>
@i:	<stdin>
@i:	<stdin>
@i:	<stdin>
@i:	<stdin>
@i:	<stdin>
@init:	<stdin>
@init_irq:	<stdin>
@intr_init:	<stdin>
@iommu_init:	<stdin>
@is_untracked_pat_range	<stdin>
@lock:	<stdin>
@lock:	<stdin>
@memory_setup:	<stdin>
@mpc_apic_id:	<stdin>
@mpc_oem_bus_info:	<stdin>
@mpc_oem_pci_bus:	<stdin>
@mpc_record:	<stdin>
@n	<stdin>
@n	<stdin>
@n	<stdin>
@n	<stdin>
@n	<stdin>
@n	<stdin>
@n.	<stdin>
@n:	<stdin>
@n:	<stdin>
@n:	<stdin>
@n:	<stdin>
@n:	<stdin>
@n:	<stdin>
@n:	<stdin>
@new:	<stdin>
@nmi_init	<stdin>
@nr	<stdin>
@nr	<stdin>
@nr:	<stdin>
@nr:	<stdin>
@nr:	<stdin>
@nr:	<stdin>
@nr:	<stdin>
@nr:	<stdin>
@nr:	<stdin>
@nr:	<stdin>
@nr:	<stdin>
@nr:	<stdin>
@nr:	<stdin>
@nr:	<stdin>
@nr:	<stdin>
@nr:	<stdin>
@o	<stdin>
@o:	<stdin>
@offset	<stdin>
@offset	<stdin>
@offset	<stdin>
@offset	<stdin>
@offset:	<stdin>
@offset:	<stdin>
@offset:	<stdin>
@old:	<stdin>
@pagetable_init:	<stdin>
@pagetable_reserve:	<stdin>
@pre_vector_init:	<stdin>
@probe_roms:	<stdin>
@progbits,	<stdin>
@progbits,	<stdin>
@reg:	<stdin>
@reg:	<stdin>
@regs.	<stdin>
@regs.	<stdin>
@regs.	<stdin>
@regs.	<stdin>
@regs:	<stdin>
@regs:	<stdin>
@regs:	<stdin>
@regs:	<stdin>
@regs:	<stdin>
@regs:	<stdin>
@reserve_resources:	<stdin>
@restore_sched_clock_state:	<stdin>
@save_sched_clock_state:	<stdin>
@set_wallclock:	<stdin>
@setup_ioapic_ids:	<stdin>
@setup_percpu_clockev:	<stdin>
@setup_perpcu_clockev:	<stdin>
@size:	<stdin>
@smp_read_mpc_oem:	<stdin>
@timer_init:	<stdin>
@to:	<stdin>
@to:	<stdin>
@to:	<stdin>
@trap_init:	<stdin>
@tsc_pre_init:	<stdin>
@u	<stdin>
@u.	<stdin>
@u.	<stdin>
@u.	<stdin>
@u:	<stdin>
@u:	<stdin>
@u:	<stdin>
@v	<stdin>
@v	<stdin>
@v	<stdin>
@v	<stdin>
@v	<stdin>
@v	<stdin>
@v	<stdin>
@v	<stdin>
@v	<stdin>
@v	<stdin>
@v	<stdin>
@v	<stdin>
@v	<stdin>
@v	<stdin>
@v	<stdin>
@v	<stdin>
@v	<stdin>
@v	<stdin>
@v	<stdin>
@v	<stdin>
@v	<stdin>
@v	<stdin>
@v	<stdin>
@v	<stdin>
@v	<stdin>
@v	<stdin>
@v	<stdin>
@v	<stdin>
@v	<stdin>
@v	<stdin>
@v	<stdin>
@v	<stdin>
@v	<stdin>
@v	<stdin>
@v	<stdin>
@v	<stdin>
@v	<stdin>
@v,	<stdin>
@v,	<stdin>
@v,	<stdin>
@v.	<stdin>
@v.	<stdin>
@v.	<stdin>
@v.	<stdin>
@v.	<stdin>
@v.	<stdin>
@v.	<stdin>
@v.	<stdin>
@v.	<stdin>
@v.	<stdin>
@v.	<stdin>
@v1	<stdin>
@v1:	<stdin>
@v2	<stdin>
@v2:	<stdin>
@v:	<stdin>
@v:	<stdin>
@v:	<stdin>
@v:	<stdin>
@v:	<stdin>
@v:	<stdin>
@v:	<stdin>
@v:	<stdin>
@v:	<stdin>
@v:	<stdin>
@v:	<stdin>
@v:	<stdin>
@v:	<stdin>
@v:	<stdin>
@v:	<stdin>
@v:	<stdin>
@v:	<stdin>
@v:	<stdin>
@v:	<stdin>
@v:	<stdin>
@v:	<stdin>
@v:	<stdin>
@v:	<stdin>
@v:	<stdin>
@v:	<stdin>
@v:	<stdin>
@v:	<stdin>
@v:	<stdin>
@v:	<stdin>
@v:	<stdin>
@v:	<stdin>
@v:	<stdin>
@v:	<stdin>
@v:	<stdin>
@v:	<stdin>
@v:	<stdin>
@v:	<stdin>
@v:	<stdin>
@v:	<stdin>
@v:	<stdin>
@v:	<stdin>
@v:	<stdin>
@v:	<stdin>
@v:	<stdin>
@v:	<stdin>
@val:	<stdin>
@val:	<stdin>
@val:	<stdin>
@val:	<stdin>
@val:	<stdin>
@val:	<stdin>
@wallclock_init:	<stdin>
@which	<stdin>
@word:	<stdin>
@word:	<stdin>
@word:	<stdin>
@x:	<stdin>
@x:	<stdin>
@x:	<stdin>
Gerhard.Wichert@pdb.siemens.de	<stdin>
george@mvista.com)	<stdin>
rgooch@atnf.csiro.au	<stdin>
rgooch@atnf.csiro.au	<stdin>
sqazi@google.com	<stdin>
