(aurelien.jacquiot@jaluna.com)	<stdin>
(aurelien.jacquiot@jaluna.com)	<stdin>
(aurelien.jacquiot@jaluna.com)	<stdin>
(aurelien.jacquiot@jaluna.com)	<stdin>
(aurelien.jacquiot@jaluna.com)	<stdin>
(aurelien.jacquiot@jaluna.com)	<stdin>
(msalter@redhat.com)	<stdin>
(msalter@redhat.com)	<stdin>
(msalter@redhat.com)	<stdin>
(sfr@canb.auug.org.au)	<stdin>
6000rpm@12v	<stdin>
<AMartin@nvidia.com>:	<stdin>
<Kaloz@openwrt.org>	<stdin>
<Kaloz@openwrt.org>	<stdin>
<a.zummo@towertech.it>	<stdin>
<a.zummo@towertech.it>	<stdin>
<a.zummo@towertech.it>	<stdin>
<a.zummo@towertech.it>	<stdin>
<andrew@lunn.ch>	<stdin>
<aurelien.jacquiot@ti.com>	<stdin>
<benoit.canet@gmail.com>	<stdin>
<buytenh@marvell.com>	<stdin>
<byron.bbradley@gmail.com>	<stdin>
<byron.bbradley@gmail.com>	<stdin>
<byron.bbradley@gmail.com>	<stdin>
<chohnstaedt@innominate.com>	<stdin>
<davem@davemloft.net>	<stdin>
<dhaval.vasa@einfochips.com>	<stdin>
<dhaval.vasa@einfochips.com>	<stdin>
<dhaval.vasa@einfochips.com>	<stdin>
<dsaxena@mvista.com>	<stdin>
<dsaxena@plexity.net>	<stdin>
<dsaxena@plexity.net>	<stdin>
<dsaxena@plexity.net>	<stdin>
<dsaxena@plexity.net>	<stdin>
<dsaxena@plexity.net>	<stdin>
<dsaxena@plexity.net>	<stdin>
<dsaxena@plexity.net>	<stdin>
<dsaxena@plexity.net>	<stdin>
<gerg@snapgear.com>	<stdin>
<gores@marvell.com>	<stdin>
<gxt@mprc.pku.edu.cn>	<stdin>
<gxt@mprc.pku.edu.cn>	<stdin>
<gxt@mprc.pku.edu.cn>	<stdin>
<gxt@mprc.pku.edu.cn>	<stdin>
<gxt@mprc.pku.edu.cn>	<stdin>
<gxt@mprc.pku.edu.cn>	<stdin>
<gxt@mprc.pku.edu.cn>	<stdin>
<gxt@mprc.pku.edu.cn>	<stdin>
<gxt@mprc.pku.edu.cn>	<stdin>
<gxt@mprc.pku.edu.cn>	<stdin>
<gxt@mprc.pku.edu.cn>	<stdin>
<hap9@epoch.ncsc.mil>	<stdin>
<hpa@linux.intel.com>	<stdin>
<iwamatsu@nigauri.org>	<stdin>
<iws@ovro.caltech.edu>	<stdin>
<jason@lakedaemon.net>	<stdin>
<jason@lakedaemon.net>	<stdin>
<jason@lakedaemon.net>	<stdin>
<jason@lakedaemon.net>	<stdin>
<jason@lakedaemon.net>	<stdin>
<jesse.barnes@intel.com>	<stdin>
<jhcaiced@osso.org.co>	<stdin>
<jhcaiced@osso.org.co>	<stdin>
<jhcaiced@osso.org.co>	<stdin>
<jhcaiced@osso.org.co>	<stdin>
<jm@lentin.co.uk>	<stdin>
<jonsmirl@gmail.com>	<stdin>
<josh.coombs@gmail.com>	<stdin>
<josh.coombs@gmail.com>	<stdin>
<kaloz@openwrt.org>	<stdin>
<kaloz@openwrt.org>	<stdin>
<kaloz@openwrt.org>	<stdin>
<kaloz@openwrt.org>	<stdin>
<kaloz@openwrt.org>	<stdin>
<kaloz@openwrt.org>	<stdin>
<kaloz@openwrt.org>	<stdin>
<kaloz@openwrt.org>	<stdin>
<kernel@giantshoulderinc.com>	<stdin>
<khc@pm.waw.pl>	<stdin>
<khc@pm.waw.pl>	<stdin>
<khc@pm.waw.pl>	<stdin>
<khc@pm.waw.pl>	<stdin>
<konrad.wilk@oracle.com>	<stdin>
<matthew@wil.cx>	<stdin>
<maz@misterjones.org>	<stdin>
<maz@misterjones.org>	<stdin>
<maz@misterjones.org>	<stdin>
<michael.jochum@omicron.at>	<stdin>
<michael@walle.cc>	<stdin>
<mj@ucw.cz>	<stdin>
<mj@ucw.cz>	<stdin>
<mj@ucw.cz>	<stdin>
<mj@ucw.cz>	<stdin>
<mj@ucw.cz>	<stdin>
<mj@ucw.cz>	<stdin>
<mj@ucw.cz>	<stdin>
<mj@ucw.cz>	<stdin>
<mj@ucw.cz>	<stdin>
<mlj28@cam.ac.uk>	<stdin>
<mlj28@cam.ac.uk>	<stdin>
<msalter@redhat.com>	<stdin>
<msalter@redhat.com>	<stdin>
<msalter@redhat.com>	<stdin>
<msalter@redhat.com>	<stdin>
<msalter@redhat.com>	<stdin>
<msalter@redhat.com>	<stdin>
<msalter@redhat.com>	<stdin>
<msalter@redhat.com>	<stdin>
<msalter@redhat.com>	<stdin>
<msalter@redhat.com>	<stdin>
<msalter@redhat.com>	<stdin>
<msalter@redhat.com>	<stdin>
<msalter@redhat.com>	<stdin>
<msalter@redhat.com>	<stdin>
<msalter@redhat.com>	<stdin>
<mwester@dls.net>	<stdin>
<rod@whitby.id.au>	<stdin>
<rod@whitby.id.au>	<stdin>
<rod@whitby.id.au>	<stdin>
<rod@whitby.id.au>	<stdin>
<rod@whitby.id.au>	<stdin>
<rod@whitby.id.au>	<stdin>
<rod@whitby.id.au>	<stdin>
<rod@whitby.id.au>	<stdin>
<rod@whitby.id.au>	<stdin>
<rod@whitby.id.au>	<stdin>
<rusty@rustcorp.com.au>	<stdin>
<s.peter@mpl.ch>	<stdin>
<saeed@marvell.com>	<stdin>
<saeed@marvell.com>	<stdin>
<saeed@marvell.com>	<stdin>
<sguinot@lacie.com>	<stdin>
<sguinot@lacie.com>	<stdin>
<sguinot@lacie.com>	<stdin>
<shadi@marvell.com>	<stdin>
<simon.guinot@sequanux.org>	<stdin>
<stefano.stabellini@eu.citrix.com>	<stdin>
<support@numascale.com>	<stdin>
<tbm@cyrius.com>	<stdin>
<tbm@cyrius.com>	<stdin>
<tbm@cyrius.com>	<stdin>
<tbm@cyrius.com>	<stdin>
<tbm@cyrius.com>	<stdin>
<valentin.longchamp@keymile.com>	<stdin>
@a:	<stdin>
@addr:	<stdin>
@base:	<stdin>
@base:	<stdin>
@bus	<stdin>
@bus:	<stdin>
@bus:	<stdin>
@cp:	<stdin>
@cp:	<stdin>
@daddr:	<stdin>
@dev:	<stdin>
@dev:	<stdin>
@dev:	<stdin>
@dev:	<stdin>
@dev:	<stdin>
@devfn,	<stdin>
@devfn:	<stdin>
@devfn:	<stdin>
@dma_handle:	<stdin>
@endp:	<stdin>
@endp:	<stdin>
@flags:	<stdin>
@p:	<stdin>
@paddr:	<stdin>
@pdev:	<stdin>
@pdev:	<stdin>
@queue:	<stdin>
@queue:	<stdin>
@queue:	<stdin>
@queue:	<stdin>
@queue:	<stdin>
@queue:	<stdin>
@s1:	<stdin>
@s1:	<stdin>
@s2:	<stdin>
@s2:	<stdin>
@s:	<stdin>
@s:	<stdin>
@size:	<stdin>
@size:	<stdin>
Drew@Colorado.EDU	<stdin>
\".rodata..compressed\",\"a\",@progbits\n");	<stdin>
hm@ix.de	<stdin>
mem=size@start,	<stdin>
mem=size@start,	<stdin>
