(cort@cs.nmt.edu)	<stdin>
(cort@cs.nmt.edu)	<stdin>
(dmalek@jlc.net)	<stdin>
(faith@cs.unc.edu):	<stdin>
(faith@cs.unc.edu):	<stdin>
(faith@cs.unc.edu):	<stdin>
(gdt@linuxppc.org)	<stdin>
(gdt@linuxppc.org)	<stdin>
(gdt@linuxppc.org)	<stdin>
(hari@in.ibm.com)	<stdin>
(jskov@cygnus.co.uk).	<stdin>
(jskov@cygnus.co.uk).	<stdin>
(mathieu.desnoyers@polymtl.ca)	<stdin>
(paulus@cs.anu.edu.au)	<stdin>
(paulus@cs.anu.edu.au)	<stdin>
(sfr@canb.auug.org.au)	<stdin>
(sfr@canb.auug.org.au)	<stdin>
-johnstul@us.ibm.com	<stdin>
0x%08x@0x%x\n",	<stdin>
0x%08x@CSMR	<stdin>
0x%08x@CSR	<stdin>
0x%08x@MCK\n",	<stdin>
0x%08x@PLSSR	<stdin>
0x%08x@PLSSR\n",	<stdin>
<Eddie.dong@intel.com>	<stdin>
<Eddie.dong@intel.com>	<stdin>
<Ulrich.Windl@rz.uni-regensburg.de>)	<stdin>
<Walter.Hofmann@physik.stud.uni-erlangen.de>).	<stdin>
<adaplas@gmail.com>	<stdin>
<akataria@vmware.com>	<stdin>
<alan@lxorguk.ukuu.org.uk>	<stdin>
<alan@lxorguk.ukuu.org.uk>	<stdin>
<alan@lxorguk.ukuu.org.uk>)	<stdin>
<alan@lxorguk.ukuu.org.uk>).	<stdin>
<alan@lxorguk.ukuu.org.uk>.	<stdin>
<aliguori@us.ibm.com>	<stdin>
<amit.shah@qumranet.com>	<stdin>
<andrea@suse.de>	<stdin>
<andrea@suse.de>	<stdin>
<andy_henroid@yahoo.com>	<stdin>
<andy_henroid@yahoo.com>).	<stdin>
<anton@au.ibm.com>,	<stdin>
<arjan@infradead.org>	<stdin>
<arjan@linux.intel.com>	<stdin>
<arjan@linux.intel.com>	<stdin>
<arjan@linux.intel.com>");	<stdin>
<arjan@linux.intel.com>");	<stdin>
<arjanv@redhat.com>)	<stdin>
<asit.k.mallick@intel.com>	<stdin>
<ast@domdv.de>	<stdin>
<astarikovskiy@suse.de>	<stdin>
<avi@qumranet.com>	<stdin>
<avi@qumranet.com>	<stdin>
<avi@qumranet.com>	<stdin>
<avi@qumranet.com>	<stdin>
<avi@qumranet.com>	<stdin>
<avi@qumranet.com>	<stdin>
<avi@redhat.com>	<stdin>
<barry.kasindorf@amd.com>	<stdin>
<barry.kasindorf@amd.com>	<stdin>
<benami@il.ibm.com>	<stdin>
<benh@kernel.crashing.org>,	<stdin>
<borislav@lix.polytechnique.fr>)	<stdin>
<bp@alien8.de>	<stdin>
<bp@alien8.de>	<stdin>
<cananian@alumni.princeton.edu>	<stdin>
<chen@ctpa04.mit.edu>	<stdin>
<chief@bandits.org>)	<stdin>
<cmiller@surfsouth.com>	<stdin>
<cmiller@surfsouth.com>,	<stdin>
<crutcher+kernel@datastacks.com>).	<stdin>
<dgaudet@arctic.org>.	<stdin>
<dilinger@debian.org>	<stdin>
<dor.laor@qumranet.com>	<stdin>
<dzickus@redhat.com>	<stdin>
<ebiederm@xmission.com>	<stdin>
<ebiederm@xmission.com>	<stdin>
<ebiederman@lnxi.com>	<stdin>
<echter@informatik.uni-rostock.de>	<stdin>
<eddie.dong@intel.com>	<stdin>
<fenghua.yu@intel.com>,	<stdin>
<gareth@valinux.com>,	<stdin>
<gareth@valinux.com>,	<stdin>
<gareth@valinux.com>,	<stdin>
<gareth@valinux.com>,	<stdin>
<gareth@valinux.com>,	<stdin>
<gcosta@redhat.com>,	<stdin>
<ghaskins@novell.com>	<stdin>
<gis88564@cis.nctu.edu.tw>).	<stdin>
<gleb@redhat.com>	<stdin>
<herrmann.der.user@googlemail.com>	<stdin>
<hien@us.ibm.com>,	<stdin>
<hiramatu@sdl.hitachi.co.jp>	<stdin>
<hpa@linux.intel.com>	<stdin>
<hpa@zytor.com>");	<stdin>
<jason.yeh@amd.com>	<stdin>
<jason.yeh@amd.com>	<stdin>
<jayalk@intworks.biz>	<stdin>
<jbaron@redhat.com>	<stdin>
<jdmason@kudzu.us>	<stdin>
<jdmason@kudzu.us>	<stdin>
<jdmason@us.ibm.com>	<stdin>
<jeremy@xensource.com>,	<stdin>
<jeremy@xensource.com>,	<stdin>
<jeremy@xensource.com>,	<stdin>
<jeremy@xensource.com>,	<stdin>
<jeremy@xensource.com>,	<stdin>
<jeremy@xensource.com>,	<stdin>
<jima@hal.com>).	<stdin>
<jima@hal.com>,	<stdin>
<jkenisto@us.ibm.com>	<stdin>
<jkenisto@us.ibm.com>	<stdin>
<jkenisto@us.ibm.com>	<stdin>
<john.williams@petalogix.com>	<stdin>
<john.williams@petalogix.com>	<stdin>
<john.williams@petalogix.com>	<stdin>
<jtoth@princeton.edu>);	<stdin>
<jun.nakajima@intel.com>	<stdin>
<jun.nakajima@intel.com>	<stdin>
<jwilliams@itee.uq.edu.au>	<stdin>
<jwilliams@itee.uq.edu.au>	<stdin>
<jwilliams@itee.uq.edu.au>	<stdin>
<jwilliams@itee.uq.edu.au>	<stdin>
<jwilliams@itee.uq.edu.au>	<stdin>
<jwilliams@itee.uq.edu.au>	<stdin>
<kasperd@daimi.au.dk>	<stdin>
<kasperd@daimi.au.dk>	<stdin>
<kasperd@daimi.au.dk>	<stdin>
<kasperd@daimi.au.dk>	<stdin>
<kasperd@daimi.au.dk>	<stdin>
<kiran@scalemp.com>	<stdin>
<kiran@scalemp.com>,	<stdin>
<ksrinivasan@novell.com>	<stdin>
<laslo@wodip.opole.pl>	<stdin>
<levon@movementarian.org>	<stdin>
<manfred@colorfullife.com>	<stdin>
<marc@mbsi.ca>).	<stdin>
<markus.t.metzger@intel.com>	<stdin>
<markus.t.metzger@intel.com>	<stdin>
<mhiramat@redhat.com>	<stdin>
<mhiramat@redhat.com>,	<stdin>
<miles@gnu.org>	<stdin>
<miles@gnu.org>	<stdin>
<mingo@redhat.com>	<stdin>
<mingo@redhat.com>	<stdin>
<mingo@redhat.com>	<stdin>
<mingo@redhat.com>	<stdin>
<mingo@redhat.com>	<stdin>
<mingo@redhat.com>	<stdin>
<monstr@monstr.eu>	<stdin>
<monstr@monstr.eu>	<stdin>
<monstr@monstr.eu>	<stdin>
<monstr@monstr.eu>	<stdin>
<monstr@monstr.eu>	<stdin>
<monstr@monstr.eu>	<stdin>
<monstr@monstr.eu>	<stdin>
<monstr@monstr.eu>	<stdin>
<monstr@monstr.eu>	<stdin>
<monstr@monstr.eu>	<stdin>
<monstr@monstr.eu>	<stdin>
<monstr@monstr.eu>	<stdin>
<monstr@monstr.eu>	<stdin>
<monstr@monstr.eu>	<stdin>
<monstr@monstr.eu>	<stdin>
<monstr@monstr.eu>	<stdin>
<monstr@monstr.eu>	<stdin>
<monstr@monstr.eu>	<stdin>
<monstr@monstr.eu>	<stdin>
<monstr@monstr.eu>	<stdin>
<monstr@monstr.eu>	<stdin>
<monstr@monstr.eu>	<stdin>
<monstr@monstr.eu>	<stdin>
<monstr@monstr.eu>	<stdin>
<monstr@monstr.eu>	<stdin>
<monstr@monstr.eu>	<stdin>
<monstr@monstr.eu>	<stdin>
<monstr@monstr.eu>	<stdin>
<monstr@monstr.eu>	<stdin>
<monstr@monstr.eu>	<stdin>
<monstr@monstr.eu>	<stdin>
<monstr@monstr.eu>	<stdin>
<monstr@monstr.eu>	<stdin>
<monstr@monstr.eu>	<stdin>
<monstr@monstr.eu>	<stdin>
<monstr@monstr.eu>	<stdin>
<monstr@monstr.eu>	<stdin>
<monstr@monstr.eu>	<stdin>
<monstr@monstr.eu>	<stdin>
<monstr@monstr.eu>	<stdin>
<monstr@monstr.eu>	<stdin>
<monstr@monstr.eu>	<stdin>
<monstr@monstr.eu>	<stdin>
<monstr@monstr.eu>	<stdin>
<monstr@monstr.eu>	<stdin>
<monstr@monstr.eu>	<stdin>
<monstr@monstr.eu>	<stdin>
<monstr@monstr.eu>	<stdin>
<mtosatti@redhat.com>	<stdin>
<muli@il.ibm.com>	<stdin>
<muli@il.ibm.com>	<stdin>
<neale@lowendale.com.au>	<stdin>
<nitin.a.kamble@intel.com>,	<stdin>
<paul.s.diefenbaugh@intel.com>	<stdin>
<pavel@ucw.cz>	<stdin>
<pavel@ucw.cz>	<stdin>
<peter.oruba@amd.com>	<stdin>
<prasanna@in.ibm.com>	<stdin>
<prasanna@in.ibm.com>	<stdin>
<pzijlstr@redhat.com>	<stdin>
<pzijlstr@redhat.com>	<stdin>
<rankinc@bellsouth.net>	<stdin>
<reese@isn.net>]	<stdin>
<rgooch@atnf.csiro.au>	<stdin>
<rgooch@atnf.csiro.au>	<stdin>
<richard.schaal@intel.com>	<stdin>
<rmk@arm.linux.org.uk>	<stdin>
<robert.richter@amd.com>	<stdin>
<robert.richter@amd.com>	<stdin>
<robert.richter@amd.com>	<stdin>
<robert.richter@amd.com>	<stdin>
<roland@redhat.com>	<stdin>
<ross@soi.city.ac.uk>	<stdin>
<rusty.lynch@intel.com>	<stdin>
<rusty@rustcorp.com.au>).	<stdin>
<shai@scalemp.com>	<stdin>
<shaohua.li@intel.com>	<stdin>
<sheng.yang@intel.com>	<stdin>
<simon@veritas.com>	<stdin>
<simon@veritas.com>	<stdin>
<sitta@al.unipmn.it>)	<stdin>
<skawina@geocities.com>.	<stdin>
<srostedt@redhat.com>	<stdin>
<suparna@in.ibm.com>	<stdin>
<suravee.suthikulpanit@amd.com>	<stdin>
<suravee.suthikulpanit@amd.com>	<stdin>
<teras@writeme.com>).	<stdin>
<tglx@linutronix.de>	<stdin>
<tglx@linutronix.de>	<stdin>
<tigran@aivazian.fsnet.co.uk>	<stdin>
<tigran@aivazian.fsnet.co.uk>	<stdin>
<tigran@aivazian.fsnet.co.uk>");	<stdin>
<tigran@sco.com>	<stdin>
<tigran@sco.com>	<stdin>
<tigran@sco.com>	<stdin>
<tigran@sco.com>	<stdin>
<tigran@veritas.com>	<stdin>
<tigran@veritas.com>	<stdin>
<tigran@veritas.com>	<stdin>
<tigran@veritas.com>	<stdin>
<tigran@veritas.com>	<stdin>
<tigran@veritas.com>	<stdin>
<tigran@veritas.com>	<stdin>
<tigran@veritas.com>,	<stdin>
<tmh@magenta-logic.com>	<stdin>
<vamsi_krishna@in.ibm.com>	<stdin>
<venkatesh.pallipadi@intel.com>	<stdin>
<venkatesh.pallipadi@intel.com>	<stdin>
<xela@slit.de>,	<stdin>
<xiaoguangrong@cn.fujitsu.com>	<stdin>
<yaniv@qumranet.com>	<stdin>
<yaniv@qumranet.com>	<stdin>
<yaniv@qumranet.com>	<stdin>
<yaniv@qumranet.com>	<stdin>
<yaniv@qumranet.com>	<stdin>
<yaniv@qumranet.com>	<stdin>
<ying.huang@intel.com>	<stdin>
<ying.huang@intel.com>	<stdin>
<zlatko@iskon.hr>)	<stdin>
@_call:	<stdin>
@_call:	<stdin>
@addr:	<stdin>
@addr:	<stdin>
@addr:	<stdin>
@address:	<stdin>
@address:	<stdin>
@align	<stdin>
@align:	<stdin>
@author	<stdin>
@author	<stdin>
@author	<stdin>
@author	<stdin>
@author	<stdin>
@author	<stdin>
@author	<stdin>
@author	<stdin>
@author	<stdin>
@author	<stdin>
@author	<stdin>
@author	<stdin>
@author	<stdin>
@author	<stdin>
@author	<stdin>
@author	<stdin>
@author	<stdin>
@author	<stdin>
@author	<stdin>
@author	<stdin>
@author	<stdin>
@author	<stdin>
@author	<stdin>
@bat:	<stdin>
@blank:	<stdin>
@buf	<stdin>
@buf	<stdin>
@buf:	<stdin>
@call.err.	<stdin>
@call:	<stdin>
@cpu	<stdin>
@cpu.	<stdin>
@cpu:	<stdin>
@cpu:	<stdin>
@csize:	<stdin>
@dev:	<stdin>
@device:	<stdin>
@eax:	<stdin>
@ebx_in:	<stdin>
@ecx_in:	<stdin>
@enable:	<stdin>
@enable:	<stdin>
@err	<stdin>
@err:	<stdin>
@err:	<stdin>
@event:	<stdin>
@file	<stdin>
@file	<stdin>
@file	<stdin>
@file	<stdin>
@file	<stdin>
@file	<stdin>
@file	<stdin>
@func:	<stdin>
@func:	<stdin>
@highbyte_regs	<stdin>
@hose:	<stdin>
@info:	<stdin>
@interval	<stdin>
@kvm:	<stdin>
@len:	<stdin>
@len:	<stdin>
@len:	<stdin>
@life:	<stdin>
@log:	<stdin>
@match:	<stdin>
@n:	<stdin>
@name:	<stdin>
@num:	<stdin>
@offset	<stdin>
@offset:	<stdin>
@offset:	<stdin>
@opcode:	<stdin>
@opcode:	<stdin>
@opcode:	<stdin>
@params:	<stdin>
@pfn:	<stdin>
@primary:	<stdin>
@ptr	<stdin>
@ptr	<stdin>
@ptr	<stdin>
@ptr.	<stdin>
@ptr:	<stdin>
@ptr:	<stdin>
@remark	<stdin>
@remark	<stdin>
@remark	<stdin>
@remark	<stdin>
@remark	<stdin>
@remark	<stdin>
@remark	<stdin>
@remark	<stdin>
@remark	<stdin>
@remark	<stdin>
@remark	<stdin>
@remark	<stdin>
@remark	<stdin>
@remark	<stdin>
@remark	<stdin>
@return	<stdin>
@return	<stdin>
@size	<stdin>
@size:	<stdin>
@slot:	<stdin>
@state:	<stdin>
@state:	<stdin>
@status:	<stdin>
@status:	<stdin>
@str:	<stdin>
@userbuf)	<stdin>
@userbuf:	<stdin>
@val:	<stdin>
@what:	<stdin>
@work	<stdin>
@x	<stdin>
@x	<stdin>
@x	<stdin>
@x:	<stdin>
@x:	<stdin>
Gerhard.Wichert@pdb.siemens.de	<stdin>
Gerhard.Wichert@pdb.siemens.de	<stdin>
IDENTITY[@0]	<stdin>
IDENTITY[@256]|<----/	<stdin>
[@256]	<stdin>
[@257]	<stdin>
ashok.raj@intel.com	<stdin>
billm@jacobi.maths.monash.edu.au	<stdin>
billm@jacobi.maths.monash.edu.au	<stdin>
billm@jacobi.maths.monash.edu.au	<stdin>
billm@melbpc.org.au	<stdin>
billm@melbpc.org.au	<stdin>
billm@melbpc.org.au	<stdin>
billm@melbpc.org.au	<stdin>
billm@melbpc.org.au	<stdin>
billm@suburbia.net	<stdin>
billm@suburbia.net	<stdin>
billm@suburbia.net	<stdin>
billm@suburbia.net	<stdin>
billm@suburbia.net	<stdin>
billm@suburbia.net	<stdin>
billm@suburbia.net	<stdin>
billm@suburbia.net	<stdin>
billm@suburbia.net	<stdin>
billm@suburbia.net	<stdin>
billm@suburbia.net	<stdin>
billm@suburbia.net	<stdin>
billm@suburbia.net	<stdin>
billm@suburbia.net	<stdin>
billm@suburbia.net	<stdin>
billm@suburbia.net	<stdin>
billm@suburbia.net	<stdin>
billm@suburbia.net	<stdin>
billm@vaxc.cc.monash.edu.au	<stdin>
billm@vaxc.cc.monash.edu.au	<stdin>
billm@vaxc.cc.monash.edu.au	<stdin>
billm@vaxc.cc.monash.edu.au	<stdin>
george@mvista.com)	<stdin>
hpa@transmeta.com	<stdin>
info-linux@ldcmail.amd.com	<stdin>
linux-acpi@vger.kernel.org	<stdin>
pr_cont("0x%08x@0x%lx	<stdin>
pr_emerg("0x%08x@CSR	<stdin>
