"<acme@conectiva.com.br>";	<stdin>
(andrewm@ccfadm.eeg.ccf.org)	<stdin>
(asj@cban.com)	<stdin>
(asj@cban.com)	<stdin>
(asj@cban.com)	<stdin>
(asj@cban.com)	<stdin>
(asj@cban.com)	<stdin>
(ballabio_dario@emc.com)	<stdin>
(bbraun@vix.com),	<stdin>
(bbraun@vix.com),	<stdin>
(bbraun@vix.com),	<stdin>
(bbraun@vix.com),	<stdin>
(bbraun@vix.com),	<stdin>
(bprakash@broadcom.com)	<stdin>
(bprakash@broadcom.com)	<stdin>
(bprakash@broadcom.com)	<stdin>
(bprakash@broadcom.com)	<stdin>
(bprakash@broadcom.com)	<stdin>
(bprakash@broadcom.com)	<stdin>
(brad@optilink.com),	<stdin>
(bruin@bruin@sterbbs.nl),	<stdin>
(cgoos@syskonnect.de)	<stdin>
(davem@caip.rutgers.edu)	<stdin>
(deischen@iworks.InterWorks.org):	<stdin>
(dkstevens@ucdavis.edu)	<stdin>
(dm@chelsio.com)	<stdin>
(dnewman@crl.com)	<stdin>
(drew@cs.colorado.edu)	<stdin>
(elf@netcom.com)	<stdin>
(ericy@cais.com),	<stdin>
(explorer@vix.com)	<stdin>
(explorer@vix.com)	<stdin>
(explorer@vix.com)	<stdin>
(explorer@vix.com)	<stdin>
(explorer@vix.com)	<stdin>
(faith@acm.org)	<stdin>
(jes@wildopensource.com)\n";	<stdin>
(julian@tfs.com)	<stdin>
(julian@tfs.com)	<stdin>
(kenc@sol.acs.unt.edu),	<stdin>
(kxie@chelsio.com)	<stdin>
(kxie@chelsio.com)	<stdin>
(kxie@chelsio.com)	<stdin>
(kxie@chelsio.com)	<stdin>
(kxie@chelsio.com)	<stdin>
(kxie@chelsio.com)	<stdin>
(lw_linux@hotmail.com)	<stdin>
(mailto:DL-MPTFusionLinux@lsi.com)	<stdin>
(mailto:DL-MPTFusionLinux@lsi.com)	<stdin>
(mailto:DL-MPTFusionLinux@lsi.com)	<stdin>
(mailto:DL-MPTFusionLinux@lsi.com)	<stdin>
(mailto:DL-MPTFusionLinux@lsi.com)	<stdin>
(mailto:DL-MPTFusionLinux@lsi.com)	<stdin>
(mailto:DL-MPTFusionLinux@lsi.com)	<stdin>
(mailto:DL-MPTFusionLinux@lsi.com)	<stdin>
(matt@3am-software.com).	<stdin>
(matt@3am-software.com).	<stdin>
(matt@3am-software.com).	<stdin>
(matt@3am-software.com).	<stdin>
(matt@3am-software.com).	<stdin>
(mckinley@msupa.pa.msu.edu)	<stdin>
(mckinley@msupa.pa.msu.edu)	<stdin>
(mintak@panix.com)	<stdin>
(normunds@fi.ibm.com)	<stdin>
(peri@csai.unipa.it)	<stdin>
(peri@csai.unipa.it)	<stdin>
(poirier@cs.unc.edu	<stdin>
(rice@xanth.cs.odu.edu),	<stdin>
(rranjan@chelsio.com)	<stdin>
(rranjan@chelsio.com)	<stdin>
(rranjan@chelsio.com)	<stdin>
(rranjan@chelsio.com)	<stdin>
(rsimpson@ewrcsdra.demon.co.uk)	<stdin>
(sakaria@vipunen.hit.fi),	<stdin>
(shenson@nyx10.cs.du.edu)	<stdin>
(tadavis@jps.net>	<stdin>
(tangf@eyetap.org)	<stdin>
(tec@usa1.com)	<stdin>
(tigger@petroglyph.cl.msu.edu)	<stdin>
(timofeev@granch.ru)	<stdin>
(timofeev@granch.ru)	<stdin>
(todd@wutc.wustl.edu),	<stdin>
(toy@soho.crd.ge.com).	<stdin>
(twyang@cs.uh.edu),	<stdin>
(van@helios.ee.lbl.gov),	<stdin>
*@bflags.	<stdin>
*@bflags.	<stdin>
<100136.3530@compuserve.com>	<stdin>
<74604.152@compuserve.com>	<stdin>
<95Etwl@alumni.ee.ust.hk>	<stdin>
<95Etwl@alumni.ee.ust.hk>	<stdin>
<DL-MPTFusionLinux@lsi.com>"	<stdin>
<James.Bottomley@HansenPartnership.com>	<stdin>
<James.Bottomley@steeleye.com>	<stdin>
<a_villacis@palosanto.com>	<stdin>
<a_villacis@palosanto.com>	<stdin>
<a_villacis@palosanto.com>	<stdin>
<a_villacis@palosanto.com>");	<stdin>
<a_villacis@palosanto.com>");	<stdin>
<a_villacis@palosanto.com>");	<stdin>
<achim_leubner@adaptec.com>	<stdin>
<acme@conectiva.com.br>	<stdin>
<acme@conectiva.com.br>	<stdin>
<acme@conectiva.com.br>	<stdin>
<acme@conectiva.com.br>	<stdin>
<acme@conectiva.com.br>	<stdin>
<acme@conectiva.com.br>	<stdin>
<acme@conectiva.com.br>";	<stdin>
<ad@papyrus.hamburg.com>,	<stdin>
<alan@lxorguk.ukuu.org.uk>	<stdin>
<alan@lxorguk.ukuu.org.uk>	<stdin>
<alan@lxorguk.ukuu.org.uk>	<stdin>
<alan@lxorguk.ukuu.org.uk>	<stdin>
<alan@lxorguk.ukuu.org.uk>	<stdin>
<alan@lxorguk.ukuu.org.uk>	<stdin>
<alan@lxorguk.ukuu.org.uk>	<stdin>
<andmike@linux.vnet.ibm.com>	<stdin>
<andre@suse.com>	<stdin>
<andre@suse.com>	<stdin>
<arvindkumar@vmware.com>	<stdin>
<becker@scyld.com>	<stdin>
<becker@scyld.com>	<stdin>
<becker@scyld.com>	<stdin>
<bellucda@tiscali.it>	<stdin>
<benjamin_kong@ali.com.tw>	<stdin>
<benjamin_kong@ali.com.tw>	<stdin>
<benjamin_kong@ali.com.tw>	<stdin>
<benjamin_kong@ali.com.tw>	<stdin>
<benjamin_kong@ali.com.tw>	<stdin>
<benjamin_kong@ali.com.tw>	<stdin>
<benjamin_kong@ali.com.tw>");	<stdin>
<beno@pobox.sk>	<stdin>
<beno@pobox.sk>	<stdin>
<bob.dunlop@farsite.co.uk>	<stdin>
<bob.dunlop@farsite.co.uk>	<stdin>
<bob.dunlop@farsite.co.uk>");	<stdin>
<boji.t.kannanthanam@intel.com>	<stdin>
<bprakash@broadcom.com>");	<stdin>
<bpugh@cs.pdx.edu>	<stdin>
<bpugh@cs.pdx.edu>	<stdin>
<bpugh@cs.pdx.edu>	<stdin>
<bpugh@cs.pdx.edu>	<stdin>
<bpugh@cs.pdx.edu>");	<stdin>
<bzeeb@zabbadoz.net>	<stdin>
<christian.gennerat@polytechnique.org>	<stdin>
<christian.gennerat@polytechnique.org>	<stdin>
<christian.gennerat@polytechnique.org>	<stdin>
<christian.gennerat@polytechnique.org>	<stdin>
<christian.gennerat@polytechnique.org>	<stdin>
<clear_zhang@ali.com.tw>	<stdin>
<crosser@average.org>	<stdin>
<dag@brattli.net>	<stdin>
<dag@brattli.net>	<stdin>
<dag@brattli.net>	<stdin>
<dag@brattli.net>	<stdin>
<dag@brattli.net>	<stdin>
<dag@brattli.net>	<stdin>
<dag@brattli.net>,	<stdin>
<dagb@cs.uit.no>	<stdin>
<dagb@cs.uit.no>	<stdin>
<dagb@cs.uit.no>	<stdin>
<dagb@cs.uit.no>	<stdin>
<dagb@cs.uit.no>	<stdin>
<dagb@cs.uit.no>	<stdin>
<dagb@cs.uit.no>	<stdin>
<dagb@cs.uit.no>	<stdin>
<dagb@cs.uit.no>	<stdin>
<dagb@cs.uit.no>	<stdin>
<dagb@cs.uit.no>	<stdin>
<dagb@cs.uit.no>	<stdin>
<dagb@cs.uit.no>	<stdin>
<dagb@cs.uit.no>	<stdin>
<dagb@cs.uit.no>	<stdin>
<dagb@cs.uit.no>	<stdin>
<dagb@cs.uit.no>	<stdin>
<dagb@cs.uit.no>	<stdin>
<dagb@cs.uit.no>	<stdin>
<dagb@cs.uit.no>	<stdin>
<dagb@cs.uit.no>	<stdin>
<dagb@cs.uit.no>");	<stdin>
<dagb@cs.uit.no>");	<stdin>
<dagb@cs.uit.no>");	<stdin>
<dagb@cs.uit.no>");	<stdin>
<dagb@cs.uit.no>");	<stdin>
<dagb@cs.uit.no>");	<stdin>
<dagb@cs.uit.no>");	<stdin>
<dagb@cs.uit.no>,	<stdin>
<daniela@cyclades.com>	<stdin>
<davidb-irda@rcpt.to>	<stdin>
<davidb-linux@rcpt.to>");	<stdin>
<dledford@redhat.com>	<stdin>
<dledford@redhat.com>	<stdin>
<dm@sangoma.com>	<stdin>
<dmitry_yus@yahoo.com>,	<stdin>
<domen@coderock.org>	<stdin>
<domen@coderock.org>	<stdin>
<dormouse@farsrobt.demon.co.uk>	<stdin>
<dormouse@farsrobt.demon.co.uk>	<stdin>
<dormouse@farsrobt.demon.co.uk>	<stdin>
<dormouse@farsrobt.demon.co.uk>	<stdin>
<dormouse@farsrobt.demon.co.uk>	<stdin>
<dormouse@farsrobt.demon.co.uk>	<stdin>
<dormouse@farsrobt.demon.co.uk>	<stdin>
<dormouse@farsrobt.demon.co.uk>	<stdin>
<dormouse@farsrobt.demon.co.uk>	<stdin>
<dormouse@farsrobt.demon.co.uk>	<stdin>
<dormouse@farsrobt.demon.co.uk>	<stdin>
<dormouse@farsrobt.demon.co.uk>	<stdin>
<dormouse@farsrobt.demon.co.uk>	<stdin>
<dormouse@farsrobt.demon.co.uk>	<stdin>
<dragorn@kismetwireless.net>	<stdin>
<dsd@gentoo.org>	<stdin>
<dsd@gentoo.org>	<stdin>
<dsd@gentoo.org>	<stdin>
<dsd@gentoo.org>	<stdin>
<dsd@gentoo.org>	<stdin>
<dsd@gentoo.org>	<stdin>
<dsd@gentoo.org>	<stdin>
<dsd@gentoo.org>	<stdin>
<dsd@gentoo.org>	<stdin>
<dsd@gentoo.org>	<stdin>
<egoggin@emc.com>.	<stdin>
<flamingice@sourmilk.net>	<stdin>
<flamingice@sourmilk.net>	<stdin>
<fthain@telegraphics.com.au>");	<stdin>
<g4klx@g4klx.demon.co.uk>");	<stdin>
<garloff@suse.de>	<stdin>
<genek@compuserve.com>	<stdin>
<genek@compuserve.com>	<stdin>
<genek@compuserve.com>	<stdin>
<gniibe@mri.co.jp>	<stdin>
<go@turbolinux.co.jp>	<stdin>
<graf.yang@analog.com>");	<stdin>
<graham@balance.uoregon.edu>.	<stdin>
<greearb@candelatech.com>	<stdin>
<groudier@club-internet.fr>	<stdin>
<groudier@free.fr>	<stdin>
<groudier@free.fr>	<stdin>
<groudier@free.fr>	<stdin>
<groudier@free.fr>	<stdin>
<groudier@free.fr>	<stdin>
<groudier@free.fr>	<stdin>
<groudier@free.fr>	<stdin>
<groudier@free.fr>	<stdin>
<groudier@free.fr>	<stdin>
<groudier@free.fr>	<stdin>
<groudier@free.fr>	<stdin>
<groudier@free.fr>	<stdin>
<groudier@free.fr>	<stdin>
<groudier@free.fr>	<stdin>
<gw4pts@gw4pts.ampr.org>	<stdin>
<h.vinayak@samsung.com>	<stdin>
<h.vinayak@samsung.com>	<stdin>
<h.vinayak@samsung.com>	<stdin>
<h.vinayak@samsung.com>");	<stdin>
<haiyangz@microsoft.com>	<stdin>
<haiyangz@microsoft.com>	<stdin>
<haiyangz@microsoft.com>	<stdin>
<haiyangz@microsoft.com>	<stdin>
<harald.roelle@ifi.lmu.de>	<stdin>
<hare@suse.de>	<stdin>
<hare@suse.de>");	<stdin>
<hare@suse.de>");	<stdin>
<hare@suse.de>");	<stdin>
<hch@lst.de>	<stdin>
<hch@lst.de>	<stdin>
<hiro@sanpo.t.u-tokyo.ac.jp>	<stdin>
<hjanssen@microsoft.com>	<stdin>
<hjanssen@microsoft.com>	<stdin>
<hjanssen@microsoft.com>	<stdin>
<hjanssen@microsoft.com>	<stdin>
<info@mdiehl.de>"	<stdin>
<info@mdiehl.de>");	<stdin>
<irquality@sigmatel.com>	<stdin>
<irquality@sigmatel.com>	<stdin>
<itn780@yahoo.com>");	<stdin>
<ivan@cyclades.com>	<stdin>
<james@fishsoup.dhs.org>	<stdin>
<james@fishsoup.dhs.org>	<stdin>
<james@fishsoup.dhs.org>	<stdin>
<james@fishsoup.dhs.org>	<stdin>
<james@fishsoup.dhs.org>");	<stdin>
<janfrey@web.de>	<stdin>
<janfrey@web.de>	<stdin>
<jaspreet@sangoma.com>	<stdin>
<jes@wildopensource.com>");	<stdin>
<jes@wildopensource.com>.	<stdin>
<jfisch@cs.pdx.edu>	<stdin>
<jfisch@cs.pdx.edu>	<stdin>
<jfree@caldera.com>	<stdin>
<jgarzik@pobox.com>	<stdin>
<jgarzik@pobox.com>");	<stdin>
<johannes_dinner@adaptec.com>	<stdin>
<johncavan@home.com>	<stdin>
<jongk@linux-m68k.org>	<stdin>
<jongk@linux-m68k.org>");	<stdin>
<jpirko@redhat.com>	<stdin>
<jpirko@redhat.com>	<stdin>
<jpirko@redhat.com>	<stdin>
<jpirko@redhat.com>	<stdin>
<jpirko@redhat.com>	<stdin>
<jpirko@redhat.com>");	<stdin>
<jpirko@redhat.com>");	<stdin>
<jpirko@redhat.com>");	<stdin>
<jpirko@redhat.com>");	<stdin>
<jpirko@redhat.com>");	<stdin>
<jt@hpl.hp.com>	<stdin>
<jt@hpl.hp.com>	<stdin>
<jt@hpl.hp.com>	<stdin>
<jt@hpl.hp.com>	<stdin>
<jt@hpl.hp.com>	<stdin>
<jt@hpl.hp.com>	<stdin>
<jt@hpl.hp.com>	<stdin>
<jt@hpl.hp.com>	<stdin>
<jt@hpl.hp.com>");	<stdin>
<jt@hpl.hp.com>");	<stdin>
<kaber@trash.net>	<stdin>
<kaber@trash.net>");	<stdin>
<kas@fi.muni.cz>	<stdin>
<kas@fi.muni.cz>	<stdin>
<kas@fi.muni.cz>");	<stdin>
<kas@fi.muni.cz>.	<stdin>
<kevin.curtis@farsite.co.uk>	<stdin>
<khc@pm.waw.pl>	<stdin>
<khc@pm.waw.pl>	<stdin>
<khc@pm.waw.pl>	<stdin>
<khc@pm.waw.pl>	<stdin>
<khc@pm.waw.pl>	<stdin>
<khc@pm.waw.pl>	<stdin>
<khc@pm.waw.pl>	<stdin>
<khc@pm.waw.pl>	<stdin>
<khc@pm.waw.pl>	<stdin>
<khc@pm.waw.pl>	<stdin>
<khc@pm.waw.pl>	<stdin>
<khc@pm.waw.pl>	<stdin>
<khc@pm.waw.pl>	<stdin>
<khc@pm.waw.pl>	<stdin>
<khc@pm.waw.pl>	<stdin>
<khc@pm.waw.pl>	<stdin>
<khc@pm.waw.pl>	<stdin>
<khc@pm.waw.pl>	<stdin>
<khc@pm.waw.pl>	<stdin>
<khc@pm.waw.pl>	<stdin>
<khc@pm.waw.pl>");	<stdin>
<khc@pm.waw.pl>");	<stdin>
<khc@pm.waw.pl>");	<stdin>
<khc@pm.waw.pl>");	<stdin>
<khc@pm.waw.pl>");	<stdin>
<khc@pm.waw.pl>");	<stdin>
<khc@pm.waw.pl>");	<stdin>
<khc@pm.waw.pl>");	<stdin>
<khc@pm.waw.pl>");	<stdin>
<khc@pm.waw.pl>");	<stdin>
<khc@pm.waw.pl>");	<stdin>
<khc@pm.waw.pl>");	<stdin>
<kune@deine-taler.de>	<stdin>
<kune@deine-taler.de>	<stdin>
<kune@deine-taler.de>	<stdin>
<kune@deine-taler.de>	<stdin>
<kune@deine-taler.de>	<stdin>
<kune@deine-taler.de>	<stdin>
<kune@deine-taler.de>	<stdin>
<kune@deine-taler.de>	<stdin>
<kune@deine-taler.de>	<stdin>
<kune@deine-taler.de>	<stdin>
<kuninori.morimoto.gx@renesas.com>	<stdin>
<kuninori.morimoto.gx@renesas.com>");	<stdin>
<kurt@garloff.de>	<stdin>
<kys@microsoft.com>	<stdin>
<linux@3ware.com>	<stdin>
<linux@3ware.com>	<stdin>
<linuxraid@lsi.com>	<stdin>
<linuxraid@lsi.com>	<stdin>
<lmb@suse.de>	<stdin>
<loz@holmes.demon.co.uk>	<stdin>
<loz@holmes.demon.co.uk>	<stdin>
<lstefani@yahoo.com>	<stdin>
<lstefani@yahoo.com>	<stdin>
<luben_tuikov@adaptec.com>	<stdin>
<luben_tuikov@adaptec.com>	<stdin>
<luben_tuikov@adaptec.com>	<stdin>
<lwang@actisys.com>	<stdin>
<lwang@actisys.com>	<stdin>
<macro@linux-mips.org>	<stdin>
<macro@linux-mips.org>	<stdin>
<mad@mdiehl.de>	<stdin>
<mad@mdiehl.de>	<stdin>
<mad@mdiehl.de>	<stdin>
<mad@mdiehl.de>	<stdin>
<mad@mdiehl.de>	<stdin>
<mad@mdiehl.de>	<stdin>
<mad@mdiehl.de>,	<stdin>
<marcelo@conectiva.com.br>	<stdin>
<markzzzsmith@yahoo.com.au>	<stdin>
<martin.petersen@oracle.com>	<stdin>
<maru@mobileaction.com.tw>	<stdin>
<mato@kotelna.sk>	<stdin>
<mato@kotelna.sk>	<stdin>
<mato@kotelna.sk>	<stdin>
<matthew@wil.cx>	<stdin>
<matthew@wil.cx>	<stdin>
<matthew@wil.cx>");	<stdin>
<maxk@qualcomm.com>	<stdin>
<maxk@qualcomm.com>"	<stdin>
<maz@wild-wind.fr.eu.org>,	<stdin>
<mcgrof@winlab.rutgers.edu>	<stdin>
<michaelc@cs.wisc.edu");	<stdin>
<michaelc@cs.wisc.edu>,	<stdin>
<michaelc@cs.wisc.edu>,	<stdin>
<mike.mclagan@linux.org>	<stdin>
<mike.mclagan@linux.org>	<stdin>
<mj@atrey.karlin.mff.cuni.cz>	<stdin>
<mlindner@syskonnect.de>");	<stdin>
<morimoto.kuninori@renesas.com>	<stdin>
<morimoto.kuninori@renesas.com>");	<stdin>
<mschmitz@lbl.gov>	<stdin>
<nelson@crynwr.com>	<stdin>
<nick@fedchik.org.ua>	<stdin>
<nick@fedchik.org.ua>	<stdin>
<nick@fedchik.org.ua>");	<stdin>
<novotny@ics.muni.cz>.	<stdin>
<paul.bristow@technologist.com>	<stdin>
<peri@csai.unipa.it>");	<stdin>
<post@pfrst.de>	<stdin>
<ppopov@mvista.com>");	<stdin>
<pv-drivers@vmware.com>	<stdin>
<pv-drivers@vmware.com>	<stdin>
<pv-drivers@vmware.com>	<stdin>
<pv-drivers@vmware.com>	<stdin>
<pv-drivers@vmware.com>	<stdin>
<rask@sygehus.dk>,	<stdin>
<ratbert@radiks.net>,	<stdin>
<rhirst@linuxcare.com>	<stdin>
<richard@sleepie.demon.co.uk>	<stdin>
<richard@sleepie.demon.co.uk>	<stdin>
<richard@sleepie.demon.co.uk>");	<stdin>
<rmk@arm.linux.org.uk>");	<stdin>
<romieu@cogenit.fr>");	<stdin>
<rusty@rustcorp.com.au>	<stdin>
<samuel@sortiz.org>	<stdin>
<samuel@sortiz.org>");	<stdin>
<santosh.sy@samsung.com>	<stdin>
<santosh.sy@samsung.com>	<stdin>
<santosh.sy@samsung.com>	<stdin>
<santosh.sy@samsung.com>,	<stdin>
<sda@bdit.de>	<stdin>
<se@mi.Uni-Koeln.de>	<stdin>
<se@mi.Uni-Koeln.de>	<stdin>
<se@mi.Uni-Koeln.de>	<stdin>
<se@mi.Uni-Koeln.de>	<stdin>
<se@mi.Uni-Koeln.de>	<stdin>
<se@mi.Uni-Koeln.de>	<stdin>
<se@mi.Uni-Koeln.de>	<stdin>
<se@mi.Uni-Koeln.de>	<stdin>
<se@mi.Uni-Koeln.de>	<stdin>
<se@mi.Uni-Koeln.de>	<stdin>
<se@mi.Uni-Koeln.de>	<stdin>
<se@mi.Uni-Koeln.de>	<stdin>
<se@mi.Uni-Koeln.de>	<stdin>
<se@mi.Uni-Koeln.de>	<stdin>
<sekharan@us.ibm.com>	<stdin>
<sekharan@us.ibm.com>");	<stdin>
<sekharan@us.ibm.com>");	<stdin>
<shemminger@linux-foundation.org>");	<stdin>
<shemminger@osdl.org>	<stdin>
<shemminger@osdl.org>	<stdin>
<shemminger@osdl.org>	<stdin>
<shemminger@vyatta.com>");	<stdin>
<stewart@parc.com>	<stdin>
<stewart@parc.com>	<stdin>
<stlman@poczta.fm>	<stdin>
<stlman@poczta.fm>	<stdin>
<stlman@poczta.fm>	<stdin>
<stlman@poczta.fm>	<stdin>
<tangf@eyetap.org>");	<stdin>
<thorn@daimi.aau.dk>	<stdin>
<tshimizu@ga2.so-net.ne.jp>	<stdin>
<tshimizu@ga2.so-net.ne.jp>	<stdin>
<tshimizu@ga2.so-net.ne.jp>");	<stdin>
<underley@underley.eu.org>	<stdin>
<waltje@uWalt.NL.Mugnet.ORG>	<stdin>
<waltje@uwalt.nl.mugnet.org>	<stdin>
<waltje@uwalt.nl.mugnet.org>	<stdin>
<waltje@uwalt.nl.mugnet.org>	<stdin>
<weissg@vienna.at>	<stdin>
<weissg@vienna.at>	<stdin>
<weissg@vienna.at>	<stdin>
<weissg@vienna.at>	<stdin>
<weissg@vienna.at>,	<stdin>
<wolf@cologne.de>	<stdin>
<wolf@cologne.de>	<stdin>
<wolf@cologne.de>	<stdin>
<wolf@cologne.de>	<stdin>
<wolf@cologne.de>	<stdin>
<wolf@cologne.de>	<stdin>
<wolf@cologne.de>	<stdin>
<wolf@cologne.de>	<stdin>
<wolf@cologne.de>	<stdin>
<wolf@cologne.de>	<stdin>
<wolf@cologne.de>	<stdin>
<wolf@cologne.de>	<stdin>
<wolf@cologne.de>	<stdin>
<wolf@cologne.de>	<stdin>
<zimerman@mailandnews.com>	<stdin>
@BLOCKING:	<stdin>
@DSA	<stdin>
@DSA	<stdin>
@FORCE_BIG_HAMMER:	<stdin>
@NON_BLOCKING:	<stdin>
@SCpnt:	<stdin>
@SCpnt:	<stdin>
@SCpnt:	<stdin>
@SCpnt:	<stdin>
@SCpnt:	<stdin>
@SCpnt:	<stdin>
@SCpnt:	<stdin>
@SCpnt:	<stdin>
@SCpnt:	<stdin>
@SCpnt:	<stdin>
@SOFT_RESET:	<stdin>
@TM_MUTEX_OFF:	<stdin>
@TM_MUTEX_ON:	<stdin>
@VF_ID:	<stdin>
@VF_ID:	<stdin>
@VP_ID:	<stdin>
@VP_ID:	<stdin>
@__hba:	<stdin>
@a:	<stdin>
@access_flags:	<stdin>
@ack_wait_queue	<stdin>
@ackssi:	<stdin>
@action:	<stdin>
@active_uic_cmd:	<stdin>
@adapter_type	<stdin>
@addr:	<stdin>
@aen_event_read_flag:	<stdin>
@application_flags	<stdin>
@application_flags	<stdin>
@arg	<stdin>
@arg	<stdin>
@arg	<stdin>
@arg	<stdin>
@arg	<stdin>
@arg	<stdin>
@arg	<stdin>
@arg	<stdin>
@arg	<stdin>
@arg	<stdin>
@arg	<stdin>
@arg	<stdin>
@arg	<stdin>
@arg	<stdin>
@arg	<stdin>
@arg:	<stdin>
@arg:	<stdin>
@arg:	<stdin>
@arg:	<stdin>
@argument1:	<stdin>
@argument2:	<stdin>
@argument3:	<stdin>
@asc:	<stdin>
@ascq:	<stdin>
@async:	<stdin>
@attached_handle:	<stdin>
@b:	<stdin>
@b:	<stdin>
@bars:	<stdin>
@base_add_sg_single:	<stdin>
@base_addr:	<stdin>
@base_cb_idx:	<stdin>
@base_cmds:	<stdin>
@bdev:	<stdin>
@bflags:	<stdin>
@bflags:	<stdin>
@bflags:	<stdin>
@bflags:	<stdin>
@bflagsp:	<stdin>
@bios_pg2:	<stdin>
@bios_pg3:	<stdin>
@bios_version	<stdin>
@bit:	<stdin>
@bits_to_register:	<stdin>
@block:	<stdin>
@block_exponent:	<stdin>
@block_size:	<stdin>
@blocking_handles:	<stdin>
@boot_device:	<stdin>
@boot_device:	<stdin>
@boot_device:	<stdin>
@boot_device:	<stdin>
@broadcast_aen_busy:	<stdin>
@btdh:	<stdin>
@btdh:	<stdin>
@buf	<stdin>
@buf	<stdin>
@buf	<stdin>
@buf	<stdin>
@buf	<stdin>
@buf	<stdin>
@buf	<stdin>
@buf	<stdin>
@buf	<stdin>
@buf	<stdin>
@buf	<stdin>
@buf	<stdin>
@buf	<stdin>
@buf	<stdin>
@buf	<stdin>
@buf	<stdin>
@buf	<stdin>
@buf	<stdin>
@buf	<stdin>
@buf	<stdin>
@buf	<stdin>
@buf	<stdin>
@buf	<stdin>
@buf:	<stdin>
@buffer	<stdin>
@buffer,	<stdin>
@buffer.	<stdin>
@buffer:	<stdin>
@buffer:	<stdin>
@buffer:	<stdin>
@buffer_type	<stdin>
@buffer_type	<stdin>
@buffer_type	<stdin>
@buffer_type:	<stdin>
@bus	<stdin>
@bus	<stdin>
@bus_id:	<stdin>
@busy:	<stdin>
@bytes_to_read	<stdin>
@bytes_transferred:	<stdin>
@c3cn:	<stdin>
@c3cn:	<stdin>
@c:	<stdin>
@c:	<stdin>
@c:	<stdin>
@c:	<stdin>
@c:	<stdin>
@c:	<stdin>
@c:	<stdin>
@c:	<stdin>
@c:	<stdin>
@c:	<stdin>
@c:	<stdin>
@c:	<stdin>
@c:	<stdin>
@c:	<stdin>
@c:	<stdin>
@c:	<stdin>
@c:	<stdin>
@c:	<stdin>
@c:	<stdin>
@c:	<stdin>
@c:	<stdin>
@c:	<stdin>
@c:	<stdin>
@calling_function_name:	<stdin>
@calling_function_name:	<stdin>
@cancel_pending_work:	<stdin>
@capabilities:	<stdin>
@capacity:	<stdin>
@cb_func:	<stdin>
@cb_idx:	<stdin>
@cb_idx:	<stdin>
@cb_idx:	<stdin>
@cb_idx:	<stdin>
@cb_idx:	<stdin>
@cb_idx:	<stdin>
@cdb:	<stdin>
@cdb:	<stdin>
@cdb_length:	<stdin>
@cdev	<stdin>
@cdev	<stdin>
@cdev	<stdin>
@cdev	<stdin>
@cdev	<stdin>
@cdev	<stdin>
@cdev	<stdin>
@cdev	<stdin>
@cdev	<stdin>
@cdev	<stdin>
@cdev	<stdin>
@cdev	<stdin>
@cdev	<stdin>
@cdev	<stdin>
@cdev	<stdin>
@cdev	<stdin>
@cdev	<stdin>
@cdev	<stdin>
@cdev	<stdin>
@cdev	<stdin>
@cdev	<stdin>
@cdev	<stdin>
@cdev	<stdin>
@cdev:	<stdin>
@cdev:	<stdin>
@cdev:	<stdin>
@chain:	<stdin>
@chain_buffer:	<stdin>
@chain_buffer_dma:	<stdin>
@chain_depth:	<stdin>
@chain_dma:	<stdin>
@chain_list:	<stdin>
@chain_offset_value_for_main_message:	<stdin>
@chains_needed_per_io:	<stdin>
@chan:	<stdin>
@chan:	<stdin>
@chan:	<stdin>
@chan:	<stdin>
@chan:	<stdin>
@channel,	<stdin>
@channel,	<stdin>
@channel:	<stdin>
@channel:	<stdin>
@channel:	<stdin>
@channel:	<stdin>
@channel:	<stdin>
@channel:	<stdin>
@channel:	<stdin>
@channel:	<stdin>
@chip:	<stdin>
@chip_phys:	<stdin>
@cls_session:	<stdin>
@cls_session:	<stdin>
@cmd	<stdin>
@cmd	<stdin>
@cmd	<stdin>
@cmd	<stdin>
@cmd:	<stdin>
@cmd:	<stdin>
@cmd:	<stdin>
@cmd:	<stdin>
@cmd:	<stdin>
@cmd:	<stdin>
@cmd:	<stdin>
@cmd:	<stdin>
@cmd:	<stdin>
@cmd:	<stdin>
@cmd:	<stdin>
@cmd:	<stdin>
@cmd_active:	<stdin>
@cmd_task_size:	<stdin>
@cmds_max:	<stdin>
@cnic:	<stdin>
@cnic:	<stdin>
@command:	<stdin>
@command_desc_base_addr_hi:	<stdin>
@command_desc_base_addr_lo:	<stdin>
@command_type:	<stdin>
@command_upiu:	<stdin>
@config_cb_idx:	<stdin>
@config_cmds:	<stdin>
@config_page:	<stdin>
@config_page:	<stdin>
@config_page:	<stdin>
@config_page:	<stdin>
@config_page:	<stdin>
@config_page:	<stdin>
@config_page:	<stdin>
@config_page:	<stdin>
@config_page:	<stdin>
@config_page:	<stdin>
@config_page:	<stdin>
@config_page:	<stdin>
@config_page:	<stdin>
@config_page:	<stdin>
@config_page:	<stdin>
@config_page:	<stdin>
@config_page:	<stdin>
@config_page:	<stdin>
@config_page:	<stdin>
@config_page:	<stdin>
@config_page:	<stdin>
@config_page:	<stdin>
@config_page:	<stdin>
@config_page:	<stdin>
@config_page_dma:	<stdin>
@config_page_sz:	<stdin>
@config_page_sz:	<stdin>
@configured_lun:	<stdin>
@conn:	<stdin>
@conn:	<stdin>
@conn:	<stdin>
@conn:	<stdin>
@conn:	<stdin>
@conn:	<stdin>
@conn:	<stdin>
@conn:	<stdin>
@conn_idx:	<stdin>
@context	<stdin>
@context:	<stdin>
@control:	<stdin>
@cooked:	<stdin>
@count:	<stdin>
@cpu:	<stdin>
@cpu_count:	<stdin>
@cpu_msix_table:	<stdin>
@cpu_msix_table_sz:	<stdin>
@csk:	<stdin>
@ctl_cb_idx:	<stdin>
@ctl_cmds:	<stdin>
@d:	<stdin>
@data	<stdin>
@data	<stdin>
@data:	<stdin>
@data:	<stdin>
@data:	<stdin>
@data:	<stdin>
@data:	<stdin>
@data_dma:	<stdin>
@data_in_buf_ptr	<stdin>
@data_in_size	<stdin>
@data_length:	<stdin>
@data_out_buf_ptr	<stdin>
@data_out_size	<stdin>
@data_sge_offset	<stdin>
@data_transfer_len:	<stdin>
@datalen:	<stdin>
@datalen:	<stdin>
@dcrc:	<stdin>
@dd_data_size:	<stdin>
@dd_size:	<stdin>
@delayed_tr_list:	<stdin>
@delayed_tr_volume_list:	<stdin>
@deleted:	<stdin>
@dev	<stdin>
@dev	<stdin>
@dev	<stdin>
@dev	<stdin>
@dev	<stdin>
@dev:	<stdin>
@dev:	<stdin>
@dev:	<stdin>
@dev:	<stdin>
@dev:	<stdin>
@dev:	<stdin>
@dev:	<stdin>
@dev:	<stdin>
@dev:	<stdin>
@dev:	<stdin>
@dev:	<stdin>
@dev:	<stdin>
@dev:	<stdin>
@dev:	<stdin>
@dev:	<stdin>
@dev:	<stdin>
@dev_id:	<stdin>
@device	<stdin>
@device:	<stdin>
@device:	<stdin>
@device_handle:	<stdin>
@device_handle:	<stdin>
@device_info:	<stdin>
@device_info:	<stdin>
@device_info:	<stdin>
@device_info:	<stdin>
@device_info:	<stdin>
@device_missing_delay:	<stdin>
@device_missing_delay:	<stdin>
@device_name:	<stdin>
@device_name:	<stdin>
@device_name:	<stdin>
@devid:	<stdin>
@diag_register:	<stdin>
@diagnostic_data	<stdin>
@diagnostic_flags	<stdin>
@diagnostic_flags	<stdin>
@dir:	<stdin>
@direct_io:	<stdin>
@direct_io:	<stdin>
@direct_io_enabled:	<stdin>
@direction:	<stdin>
@dma_addr:	<stdin>
@dma_addr:	<stdin>
@done:	<stdin>
@done:	<stdin>
@done:	<stdin>
@done:	<stdin>
@done:	<stdin>
@driver_added_buffer_size	<stdin>
@driver_version	<stdin>
@duplex_changed	<stdin>
@duplex_chg_out:	<stdin>
@dword0:	<stdin>
@dword1:	<stdin>
@dword2:	<stdin>
@dword3:	<stdin>
@dword_0:	<stdin>
@dword_1:	<stdin>
@dword_2:	<stdin>
@ecmd	<stdin>
@ecmd	<stdin>
@ecmd	<stdin>
@ecmd:	<stdin>
@ecmd:	<stdin>
@edev:	<stdin>
@element:	<stdin>
@element:	<stdin>
@element:	<stdin>
@element:	<stdin>
@element:	<stdin>
@enable:	<stdin>
@enabled:	<stdin>
@enclosure_handle:	<stdin>
@enclosure_handle:	<stdin>
@enclosure_logical_id:	<stdin>
@enclosure_logical_id:	<stdin>
@enclosure_logical_id:	<stdin>
@end:	<stdin>
@error:	<stdin>
@errors:	<stdin>
@errors:	<stdin>
@errors:	<stdin>
@event	<stdin>
@event:	<stdin>
@event:	<stdin>
@event:	<stdin>
@event:	<stdin>
@event:	<stdin>
@event_context:	<stdin>
@event_data	<stdin>
@event_data:	<stdin>
@event_data:	<stdin>
@event_data:	<stdin>
@event_data:	<stdin>
@event_data:	<stdin>
@event_data:	<stdin>
@event_data:	<stdin>
@event_data:	<stdin>
@event_data:	<stdin>
@event_data:	<stdin>
@event_entries	<stdin>
@event_log:	<stdin>
@event_masks:	<stdin>
@event_type:	<stdin>
@event_types	<stdin>
@event_types	<stdin>
@exp_cmdsn:	<stdin>
@expander_pg1:	<stdin>
@facts:	<stdin>
@fault_code:	<stdin>
@fault_reset_work:	<stdin>
@fault_reset_work_q:	<stdin>
@fault_reset_work_q_name:	<stdin>
@fc_lesb:	<stdin>
@fd	<stdin>
@feh_workq:	<stdin>
@file	<stdin>
@file	<stdin>
@file	<stdin>
@file	<stdin>
@filep	<stdin>
@filep	<stdin>
@fip:	<stdin>
@fip:	<stdin>
@firmware_event_name:	<stdin>
@firmware_event_thread:	<stdin>
@firmware_version	<stdin>
@first:	<stdin>
@flags	<stdin>
@flags:	<stdin>
@flags:	<stdin>
@flags:	<stdin>
@flags_length:	<stdin>
@flags_length:	<stdin>
@fn	<stdin>
@form:	<stdin>
@form:	<stdin>
@form:	<stdin>
@form:	<stdin>
@form:	<stdin>
@form:	<stdin>
@form:	<stdin>
@form:	<stdin>
@form_specific:	<stdin>
@fp:	<stdin>
@free_list:	<stdin>
@function	<stdin>
@fw_event:	<stdin>
@fw_event:	<stdin>
@fw_event:	<stdin>
@fw_event:	<stdin>
@fw_event:	<stdin>
@fw_event:	<stdin>
@fw_event:	<stdin>
@fw_event:	<stdin>
@fw_event:	<stdin>
@fw_event:	<stdin>
@fw_event:	<stdin>
@fw_event_list:	<stdin>
@fw_event_lock:	<stdin>
@fw_events_off:	<stdin>
@fwfault_debug:	<stdin>
@gfp	<stdin>
@handle	<stdin>
@handle:	<stdin>
@handle:	<stdin>
@handle:	<stdin>
@handle:	<stdin>
@handle:	<stdin>
@handle:	<stdin>
@handle:	<stdin>
@handle:	<stdin>
@handle:	<stdin>
@handle:	<stdin>
@handle:	<stdin>
@handle:	<stdin>
@handle:	<stdin>
@handle:	<stdin>
@handle:	<stdin>
@handle:	<stdin>
@handle:	<stdin>
@handle:	<stdin>
@handle:	<stdin>
@handle:	<stdin>
@handle:	<stdin>
@handle:	<stdin>
@handle:	<stdin>
@handle:	<stdin>
@handle:	<stdin>
@handle:	<stdin>
@handle:	<stdin>
@handle:	<stdin>
@handle:	<stdin>
@handle:	<stdin>
@handle:	<stdin>
@handle:	<stdin>
@handle:	<stdin>
@handle:	<stdin>
@handle:	<stdin>
@handle:	<stdin>
@handle:	<stdin>
@handle:	<stdin>
@handle:	<stdin>
@handle:	<stdin>
@handle:	<stdin>
@handle:	<stdin>
@handle:	<stdin>
@handle:	<stdin>
@handle:	<stdin>
@handle:	<stdin>
@handle:	<stdin>
@handle:	<stdin>
@handle:	<stdin>
@hard_reset:	<stdin>
@hba	<stdin>
@hba:	<stdin>
@hba:	<stdin>
@hba:	<stdin>
@hba:	<stdin>
@hba:	<stdin>
@hba:	<stdin>
@hba:	<stdin>
@hba:	<stdin>
@hba:	<stdin>
@hba:	<stdin>
@hba:	<stdin>
@hba:	<stdin>
@hba:	<stdin>
@hba:	<stdin>
@hba:	<stdin>
@hba:	<stdin>
@hba:	<stdin>
@hba:	<stdin>
@hba:	<stdin>
@hba:	<stdin>
@hba:	<stdin>
@hba:	<stdin>
@hba:	<stdin>
@hba:	<stdin>
@hba:	<stdin>
@hba:	<stdin>
@hba:	<stdin>
@hba:	<stdin>
@hba:	<stdin>
@hba:	<stdin>
@hba:	<stdin>
@hba:	<stdin>
@hba:	<stdin>
@hba:	<stdin>
@hba:	<stdin>
@hba:	<stdin>
@hba:	<stdin>
@hba:	<stdin>
@hba:	<stdin>
@hba_queue_depth:	<stdin>
@hcpu:	<stdin>
@hcrc:	<stdin>
@hdr	<stdin>
@hdr	<stdin>
@hdr	<stdin>
@hdr	<stdin>
@hdr	<stdin>
@hdr	<stdin>
@hdr	<stdin>
@hdr	<stdin>
@hdr	<stdin>
@hdr	<stdin>
@hdr	<stdin>
@hdr	<stdin>
@hdr:	<stdin>
@hdr:	<stdin>
@hdr:	<stdin>
@hdr:	<stdin>
@header	<stdin>
@header:	<stdin>
@header:	<stdin>
@header:	<stdin>
@header:	<stdin>
@header:	<stdin>
@hi_priority:	<stdin>
@hi_priority_depth:	<stdin>
@hi_priority_dma:	<stdin>
@hi_priority_smid:	<stdin>
@host:	<stdin>
@host:	<stdin>
@host:	<stdin>
@host:	<stdin>
@host:	<stdin>
@host:	<stdin>
@host:	<stdin>
@host:	<stdin>
@host:	<stdin>
@host:	<stdin>
@host:	<stdin>
@host:	<stdin>
@host:	<stdin>
@host:	<stdin>
@host:	<stdin>
@host:	<stdin>
@host:	<stdin>
@host:	<stdin>
@host:	<stdin>
@host:	<stdin>
@host:host	<stdin>
@hostdata:	<stdin>
@hostdata:	<stdin>
@hpr_free_list:	<stdin>
@hpr_lookup:	<stdin>
@hw	<stdin>
@hw_rev	<stdin>
@id	<stdin>
@id,	<stdin>
@id.	<stdin>
@id:	<stdin>
@id:	<stdin>
@id:	<stdin>
@id:	<stdin>
@id:	<stdin>
@id:	<stdin>
@id:	<stdin>
@id:	<stdin>
@id:	<stdin>
@id:	<stdin>
@id:	<stdin>
@identify:	<stdin>
@identify:	<stdin>
@ignore:	<stdin>
@ignore_loginfos:	<stdin>
@index:	<stdin>
@index:	<stdin>
@index:	<stdin>
@info:	<stdin>
@info:	<stdin>
@info:	<stdin>
@info:	<stdin>
@info:	<stdin>
@info:	<stdin>
@info:	<stdin>
@info:	<stdin>
@info:	<stdin>
@info:	<stdin>
@info:	<stdin>
@info:	<stdin>
@info:	<stdin>
@info:	<stdin>
@info:	<stdin>
@info:	<stdin>
@info:	<stdin>
@info:	<stdin>
@info:	<stdin>
@info:	<stdin>
@info:	<stdin>
@info:	<stdin>
@info:	<stdin>
@init_media:	<stdin>
@initial_cmdsn:	<stdin>
@inode	<stdin>
@input_param1:	<stdin>
@input_param2:	<stdin>
@input_param3:	<stdin>
@inq:	<stdin>
@inq_result:	<stdin>
@inq_result:	<stdin>
@inq_result;	<stdin>
@int_enable_mask:	<stdin>
@interface:	<stdin>
@internal:	<stdin>
@internal_depth:	<stdin>
@internal_dma:	<stdin>
@internal_free_list:	<stdin>
@internal_lookup:	<stdin>
@internal_smid:	<stdin>
@intr_status:	<stdin>
@io:	<stdin>
@io_index:	<stdin>
@io_missing_delay:	<stdin>
@io_missing_delay:	<stdin>
@ioc:	<stdin>
@ioc:	<stdin>
@ioc:	<stdin>
@ioc:	<stdin>
@ioc:	<stdin>
@ioc:	<stdin>
@ioc:	<stdin>
@ioc:	<stdin>
@ioc:	<stdin>
@ioc:	<stdin>
@ioc:	<stdin>
@ioc:	<stdin>
@ioc:	<stdin>
@ioc:	<stdin>
@ioc:	<stdin>
@ioc:	<stdin>
@ioc:	<stdin>
@ioc:	<stdin>
@ioc:	<stdin>
@ioc:	<stdin>
@ioc:	<stdin>
@ioc:	<stdin>
@ioc:	<stdin>
@ioc:	<stdin>
@ioc:	<stdin>
@ioc:	<stdin>
@ioc:	<stdin>
@ioc:	<stdin>
@ioc:	<stdin>
@ioc:	<stdin>
@ioc:	<stdin>
@ioc:	<stdin>
@ioc:	<stdin>
@ioc:	<stdin>
@ioc:	<stdin>
@ioc:	<stdin>
@ioc:	<stdin>
@ioc:	<stdin>
@ioc:	<stdin>
@ioc:	<stdin>
@ioc:	<stdin>
@ioc:	<stdin>
@ioc:	<stdin>
@ioc:	<stdin>
@ioc:	<stdin>
@ioc:	<stdin>
@ioc:	<stdin>
@ioc:	<stdin>
@ioc:	<stdin>
@ioc:	<stdin>
@ioc:	<stdin>
@ioc:	<stdin>
@ioc:	<stdin>
@ioc:	<stdin>
@ioc:	<stdin>
@ioc:	<stdin>
@ioc:	<stdin>
@ioc:	<stdin>
@ioc:	<stdin>
@ioc:	<stdin>
@ioc:	<stdin>
@ioc:	<stdin>
@ioc:	<stdin>
@ioc:	<stdin>
@ioc:	<stdin>
@ioc:	<stdin>
@ioc:	<stdin>
@ioc:	<stdin>
@ioc:	<stdin>
@ioc:	<stdin>
@ioc:	<stdin>
@ioc:	<stdin>
@ioc:	<stdin>
@ioc:	<stdin>
@ioc:	<stdin>
@ioc:	<stdin>
@ioc:	<stdin>
@ioc:	<stdin>
@ioc:	<stdin>
@ioc:	<stdin>
@ioc:	<stdin>
@ioc:	<stdin>
@ioc:	<stdin>
@ioc:	<stdin>
@ioc:	<stdin>
@ioc:	<stdin>
@ioc:	<stdin>
@ioc:	<stdin>
@ioc:	<stdin>
@ioc:	<stdin>
@ioc:	<stdin>
@ioc:	<stdin>
@ioc:	<stdin>
@ioc:	<stdin>
@ioc:	<stdin>
@ioc:	<stdin>
@ioc:	<stdin>
@ioc:	<stdin>
@ioc:	<stdin>
@ioc:	<stdin>
@ioc:	<stdin>
@ioc:	<stdin>
@ioc:	<stdin>
@ioc:	<stdin>
@ioc:	<stdin>
@ioc:	<stdin>
@ioc:	<stdin>
@ioc:	<stdin>
@ioc:	<stdin>
@ioc:	<stdin>
@ioc:	<stdin>
@ioc:	<stdin>
@ioc:	<stdin>
@ioc:	<stdin>
@ioc:	<stdin>
@ioc:	<stdin>
@ioc:	<stdin>
@ioc:	<stdin>
@ioc:	<stdin>
@ioc:	<stdin>
@ioc:	<stdin>
@ioc:	<stdin>
@ioc:	<stdin>
@ioc:	<stdin>
@ioc:	<stdin>
@ioc:	<stdin>
@ioc:	<stdin>
@ioc:	<stdin>
@ioc:	<stdin>
@ioc:	<stdin>
@ioc:	<stdin>
@ioc:	<stdin>
@ioc:	<stdin>
@ioc:	<stdin>
@ioc:	<stdin>
@ioc:	<stdin>
@ioc:	<stdin>
@ioc:	<stdin>
@ioc:	<stdin>
@ioc:	<stdin>
@ioc:	<stdin>
@ioc:	<stdin>
@ioc:	<stdin>
@ioc:	<stdin>
@ioc:	<stdin>
@ioc:	<stdin>
@ioc:	<stdin>
@ioc:	<stdin>
@ioc:	<stdin>
@ioc:	<stdin>
@ioc:	<stdin>
@ioc:	<stdin>
@ioc:	<stdin>
@ioc:	<stdin>
@ioc:	<stdin>
@ioc:	<stdin>
@ioc:	<stdin>
@ioc:	<stdin>
@ioc:	<stdin>
@ioc:	<stdin>
@ioc:	<stdin>
@ioc:	<stdin>
@ioc:	<stdin>
@ioc:	<stdin>
@ioc:	<stdin>
@ioc:	<stdin>
@ioc:	<stdin>
@ioc:	<stdin>
@ioc:	<stdin>
@ioc:	<stdin>
@ioc:	<stdin>
@ioc:	<stdin>
@ioc:	<stdin>
@ioc:	<stdin>
@ioc:	<stdin>
@ioc:	<stdin>
@ioc:	<stdin>
@ioc:	<stdin>
@ioc:	<stdin>
@ioc:	<stdin>
@ioc:	<stdin>
@ioc:	<stdin>
@ioc:	<stdin>
@ioc:	<stdin>
@ioc:	<stdin>
@ioc:	<stdin>
@ioc:	<stdin>
@ioc:	<stdin>
@ioc:	<stdin>
@ioc:	<stdin>
@ioc:	<stdin>
@ioc:	<stdin>
@ioc:	<stdin>
@ioc:	<stdin>
@ioc:	<stdin>
@ioc:	<stdin>
@ioc:	<stdin>
@ioc:	<stdin>
@ioc:	<stdin>
@ioc:	<stdin>
@ioc:	<stdin>
@ioc:	<stdin>
@ioc:	<stdin>
@ioc:	<stdin>
@ioc:	<stdin>
@ioc:	<stdin>
@ioc:	<stdin>
@ioc:	<stdin>
@ioc:	<stdin>
@ioc:	<stdin>
@ioc:	<stdin>
@ioc:	<stdin>
@ioc:	<stdin>
@ioc:	<stdin>
@ioc:	<stdin>
@ioc:	<stdin>
@ioc:	<stdin>
@ioc:	<stdin>
@ioc:	<stdin>
@ioc:	<stdin>
@ioc:	<stdin>
@ioc:	<stdin>
@ioc:	<stdin>
@ioc:	<stdin>
@ioc:	<stdin>
@ioc:	<stdin>
@ioc:	<stdin>
@ioc:	<stdin>
@ioc:	<stdin>
@ioc:	<stdin>
@ioc:	<stdin>
@ioc:	<stdin>
@ioc:	<stdin>
@ioc:	<stdin>
@ioc:	<stdin>
@ioc:	<stdin>
@ioc:	<stdin>
@ioc:	<stdin>
@ioc:	<stdin>
@ioc:	<stdin>
@ioc:	<stdin>
@ioc:	<stdin>
@ioc:	<stdin>
@ioc:	<stdin>
@ioc:	<stdin>
@ioc:	<stdin>
@ioc:	<stdin>
@ioc:	<stdin>
@ioc:	<stdin>
@ioc:	<stdin>
@ioc:	<stdin>
@ioc:	<stdin>
@ioc:	<stdin>
@ioc:	<stdin>
@ioc:	<stdin>
@ioc:	<stdin>
@ioc:	<stdin>
@ioc:	<stdin>
@ioc:	<stdin>
@ioc_link_reset_in_progress:	<stdin>
@ioc_number	<stdin>
@ioc_pg8:	<stdin>
@ioc_reset_in_progress_lock:	<stdin>
@ioc_state:	<stdin>
@ioc_status:	<stdin>
@ioc_status:	<stdin>
@iocpp:	<stdin>
@iounit_pg0:	<stdin>
@iounit_pg1:	<stdin>
@ir_firmware:	<stdin>
@irq:	<stdin>
@irq:	<stdin>
@irq:	<stdin>
@irqno:	<stdin>
@is:	<stdin>
@is:	<stdin>
@is_driver_loading:	<stdin>
@is_pd:	<stdin>
@is_raid:	<stdin>
@is_raid:	<stdin>
@is_raid:	<stdin>
@iscsit:	<stdin>
@issue_reset	<stdin>
@item_size.	<stdin>
@items	<stdin>
@itt:	<stdin>
@itt:	<stdin>
@karg	<stdin>
@karg	<stdin>
@kcqe:	<stdin>
@kp:	<stdin>
@kp:	<stdin>
@len:	<stdin>
@len:	<stdin>
@link_rate:	<stdin>
@link_rate:	<stdin>
@list:	<stdin>
@list:	<stdin>
@list:	<stdin>
@list:	<stdin>
@list:	<stdin>
@list:	<stdin>
@lock:	<stdin>
@log_info:	<stdin>
@log_info:	<stdin>
@logging_level:	<stdin>
@lport:	<stdin>
@lport:	<stdin>
@lport:	<stdin>
@lrb	<stdin>
@lrb	<stdin>
@lrb:	<stdin>
@lrb:	<stdin>
@lrb:	<stdin>
@lrb:	<stdin>
@lrbp	<stdin>
@lrbp:	<stdin>
@lun	<stdin>
@lun:	<stdin>
@lun:	<stdin>
@lun:	<stdin>
@lun:	<stdin>
@lun:	<stdin>
@lun:	<stdin>
@lun:	<stdin>
@lun:	<stdin>
@lun:	<stdin>
@m_type:	<stdin>
@manu_pg0:	<stdin>
@manu_pg10:	<stdin>
@mapping:	<stdin>
@mask_interrupts:	<stdin>
@max	<stdin>
@max	<stdin>
@max_cmdsn:	<stdin>
@max_data_size	<stdin>
@max_lba:	<stdin>
@max_reply_bytes	<stdin>
@max_sense_bytes	<stdin>
@max_sges_in_chain_message:	<stdin>
@max_sges_in_main_message:	<stdin>
@mem:	<stdin>
@mem:	<stdin>
@mf	<stdin>
@mf[1];	<stdin>
@mii	<stdin>
@mii:	<stdin>
@mii:	<stdin>
@mii:	<stdin>
@mii:	<stdin>
@mii:	<stdin>
@mii:	<stdin>
@mii:	<stdin>
@mii_data:	<stdin>
@mii_if:	<stdin>
@mmio_base:	<stdin>
@mode	<stdin>
@mpi_reply:	<stdin>
@mpi_reply:	<stdin>
@mpi_reply:	<stdin>
@mpi_reply:	<stdin>
@mpi_reply:	<stdin>
@mpi_reply:	<stdin>
@mpi_reply:	<stdin>
@mpi_reply:	<stdin>
@mpi_reply:	<stdin>
@mpi_reply:	<stdin>
@mpi_reply:	<stdin>
@mpi_reply:	<stdin>
@mpi_reply:	<stdin>
@mpi_reply:	<stdin>
@mpi_reply:	<stdin>
@mpi_reply:	<stdin>
@mpi_reply:	<stdin>
@mpi_reply:	<stdin>
@mpi_reply:	<stdin>
@mpi_reply:	<stdin>
@mpi_reply:	<stdin>
@mpi_reply:	<stdin>
@mpi_reply:	<stdin>
@mpi_reply:	<stdin>
@mpi_reply:	<stdin>
@mpi_reply:	<stdin>
@mpi_reply:	<stdin>
@mpi_reply:	<stdin>
@mpi_reply:	<stdin>
@mpi_reply:	<stdin>
@mpi_reply:	<stdin>
@mpi_request:	<stdin>
@mpi_request:	<stdin>
@mpi_request:	<stdin>
@mpi_request:	<stdin>
@mpi_request:	<stdin>
@mpi_request:	<stdin>
@mpt2sas_phy:	<stdin>
@mpt2sas_phy:	<stdin>
@mpt2sas_phy:	<stdin>
@mpt2sas_phy:	<stdin>
@mpt2sas_phy:	<stdin>
@mpt2sas_phy:	<stdin>
@mpt2sas_port:	<stdin>
@mpt2sas_port:	<stdin>
@mpt2sas_port:	<stdin>
@msg:	<stdin>
@msix_enable:	<stdin>
@msix_index:	<stdin>
@msix_index:	<stdin>
@msix_index:	<stdin>
@msix_index:	<stdin>
@msix_index:	<stdin>
@msix_index:	<stdin>
@msix_index:	<stdin>
@msix_index:	<stdin>
@msix_index:	<stdin>
@msix_index:	<stdin>
@msix_index:	<stdin>
@msix_index:	<stdin>
@msix_index:	<stdin>
@msix_index:	<stdin>
@msix_index:	<stdin>
@msix_index:	<stdin>
@msix_vector_count:	<stdin>
@mutex:	<stdin>
@n:	<stdin>
@name	<stdin>
@name	<stdin>
@name:	<stdin>
@name:	<stdin>
@ndelay:	<stdin>
@new:	<stdin>
@new_cqe_kcqe:	<stdin>
@nfb:	<stdin>
@no_uld_attach:	<stdin>
@npiv:	<stdin>
@ns:	<stdin>
@num_cqe:	<stdin>
@num_luns:	<stdin>
@num_pds:	<stdin>
@num_pds:	<stdin>
@num_phys:	<stdin>
@num_phys:	<stdin>
@num_phys:	<stdin>
@num_to_alloc	<stdin>
@nutmrs:	<stdin>
@nutrs:	<stdin>
@od:	<stdin>
@offset:	<stdin>
@ofld_kcqe:	<stdin>
@ofld_kcqe:	<stdin>
@ok_to_print:	<stdin>
@old:	<stdin>
@olddev:	<stdin>
@opcode:	<stdin>
@option:	<stdin>
@option:	<stdin>
@orig_dev:	<stdin>
@output_param1:	<stdin>
@output_param2:	<stdin>
@outstanding_reqs:	<stdin>
@outstanding_tasks:	<stdin>
@p:	<stdin>
@p:	<stdin>
@paddr:	<stdin>
@paddr:	<stdin>
@paddr:	<stdin>
@page:	<stdin>
@page_dma:	<stdin>
@params	<stdin>
@params:	<stdin>
@parent,	<stdin>
@parent:	<stdin>
@parent:	<stdin>
@parent:	<stdin>
@parent_dev:	<stdin>
@parent_dev:	<stdin>
@parent_dev:	<stdin>
@pci_error_recovery:	<stdin>
@pci_id	<stdin>
@pci_information	<stdin>
@pd_handle:	<stdin>
@pd_handle:	<stdin>
@pd_handles	<stdin>
@pd_handles_sz	<stdin>
@pdev	<stdin>
@pdev:	<stdin>
@pdev:	<stdin>
@pdev:	<stdin>
@pdev:	<stdin>
@pdev:	<stdin>
@pdev:	<stdin>
@pdev:	<stdin>
@pdev:	<stdin>
@pdev:	<stdin>
@pdev:	<stdin>
@pdev:	<stdin>
@pdev:	<stdin>
@pdev:	<stdin>
@pdev:	<stdin>
@pdev:	<stdin>
@pdev:	<stdin>
@pdev:	<stdin>
@pdev:	<stdin>
@pdev:	<stdin>
@pdev:	<stdin>
@pdev:	<stdin>
@pdev:	<stdin>
@pending_io_count:	<stdin>
@percent_complete:	<stdin>
@pfacts:	<stdin>
@phy:	<stdin>
@phy:	<stdin>
@phy:	<stdin>
@phy:	<stdin>
@phy:	<stdin>
@phy:	<stdin>
@phy:	<stdin>
@phy:	<stdin>
@phy:	<stdin>
@phy:	<stdin>
@phy:	<stdin>
@phy:	<stdin>
@phy:	<stdin>
@phy_belongs_to_port:	<stdin>
@phy_id:	<stdin>
@phy_list:	<stdin>
@phy_num:	<stdin>
@phy_number:	<stdin>
@phy_number:	<stdin>
@phy_number:	<stdin>
@phy_numberv:	<stdin>
@phy_pg0:	<stdin>
@phys_addr:	<stdin>
@port:	<stdin>
@port:	<stdin>
@port:	<stdin>
@port:	<stdin>
@port:	<stdin>
@port:	<stdin>
@port_enable_failed:	<stdin>
@port_id:	<stdin>
@port_list:	<stdin>
@port_number	<stdin>
@port_number	<stdin>
@port_siblings:	<stdin>
@pos:	<stdin>
@pos:	<stdin>
@prd_table:	<stdin>
@prd_table_length:	<stdin>
@prd_table_offset:	<stdin>
@product_specific	<stdin>
@product_specific	<stdin>
@ptype:	<stdin>
@ptype:	<stdin>
@q	<stdin>
@q	<stdin>
@q	<stdin>
@q	<stdin>
@q	<stdin>
@qdepth:	<stdin>
@qdepth:	<stdin>
@r2t:	<stdin>
@r:	<stdin>
@raid_device:	<stdin>
@raid_device:	<stdin>
@raid_device:	<stdin>
@raid_device:	<stdin>
@raid_device:	<stdin>
@rates:	<stdin>
@rd_desc:	<stdin>
@reason:	<stdin>
@reg:	<stdin>
@reg:	<stdin>
@reg:	<stdin>
@reg_hcs	<stdin>
@remote_identify:	<stdin>
@remote_identify:	<stdin>
@remove_host:	<stdin>
@reply:	<stdin>
@reply:	<stdin>
@reply:	<stdin>
@reply:	<stdin>
@reply:	<stdin>
@reply:	<stdin>
@reply:	<stdin>
@reply:	<stdin>
@reply:	<stdin>
@reply:	<stdin>
@reply:	<stdin>
@reply:	<stdin>
@reply:	<stdin>
@reply:	<stdin>
@reply:	<stdin>
@reply:	<stdin>
@reply:	<stdin>
@reply:	<stdin>
@reply:	<stdin>
@reply_bytes:	<stdin>
@reply_depth:	<stdin>
@reply_dma:	<stdin>
@reply_dma_pool:	<stdin>
@reply_frame_buf_ptr	<stdin>
@reply_free:	<stdin>
@reply_free_dma:	<stdin>
@reply_free_dma_pool:	<stdin>
@reply_free_host_index:	<stdin>
@reply_free_queue_depth:	<stdin>
@reply_post_free:	<stdin>
@reply_post_free:	<stdin>
@reply_post_free_dma:	<stdin>
@reply_post_host_index:	<stdin>
@reply_post_host_index:	<stdin>
@reply_post_queue_depth:	<stdin>
@reply_queue_count:	<stdin>
@reply_queue_list:	<stdin>
@reply_sz:	<stdin>
@req	<stdin>
@req:	<stdin>
@req_completion:	<stdin>
@request:	<stdin>
@request:	<stdin>
@request_bytes:	<stdin>
@request_dma:	<stdin>
@request_dma_sz:	<stdin>
@request_hdr:	<stdin>
@request_sz:	<stdin>
@requested_buffer_size	<stdin>
@rescan:	<stdin>
@rescan:	<stdin>
@rescan:	<stdin>
@rescan:	<stdin>
@reserved	<stdin>
@reserved	<stdin>
@reserved	<stdin>
@reserved:	<stdin>
@reserved:	<stdin>
@reserved:	<stdin>
@reserved:	<stdin>
@reset_phase:	<stdin>
@reset_phase:	<stdin>
@reset_phase:	<stdin>
@reset_type:	<stdin>
@reset_wq:	<stdin>
@residual_transfer_count:	<stdin>
@responding:	<stdin>
@responding:	<stdin>
@responding:	<stdin>
@response_code:	<stdin>
@response_upiu:	<stdin>
@response_upiu_length:	<stdin>
@response_upiu_offset:	<stdin>
@result:	<stdin>
@result:	<stdin>
@result:	<stdin>
@result:	<stdin>
@result:	<stdin>
@result_len:	<stdin>
@rphy:	<stdin>
@rphy:	<stdin>
@rsvd	<stdin>
@rsvd	<stdin>
@rsvd0	<stdin>
@rsvd1	<stdin>
@rsvd2	<stdin>
@rtable:	<stdin>
@rx_frame	<stdin>
@rx_hdr:	<stdin>
@rx_status	<stdin>
@s:	<stdin>
@sas_address:	<stdin>
@sas_address:	<stdin>
@sas_address:	<stdin>
@sas_address:	<stdin>
@sas_address:	<stdin>
@sas_address:	<stdin>
@sas_address:	<stdin>
@sas_address:	<stdin>
@sas_address:	<stdin>
@sas_address:	<stdin>
@sas_address:	<stdin>
@sas_address:	<stdin>
@sas_address:	<stdin>
@sas_address:	<stdin>
@sas_address:	<stdin>
@sas_address:	<stdin>
@sas_address:	<stdin>
@sas_address:	<stdin>
@sas_address:	<stdin>
@sas_address:	<stdin>
@sas_address_parent:	<stdin>
@sas_address_parent:	<stdin>
@sas_address_parent:	<stdin>
@sas_device:	<stdin>
@sas_device:	<stdin>
@sas_device:	<stdin>
@sas_device:	<stdin>
@sas_device_delete:	<stdin>
@sas_device_init_list:	<stdin>
@sas_device_list:	<stdin>
@sas_device_lock:	<stdin>
@sas_expander:	<stdin>
@sas_expander:	<stdin>
@sas_expander:	<stdin>
@sas_expander_list:	<stdin>
@sas_hba:	<stdin>
@sas_id	<stdin>
@sas_node:	<stdin>
@sas_node:	<stdin>
@sas_node:	<stdin>
@sas_node_lock:	<stdin>
@sas_port_list:	<stdin>
@sas_target:	<stdin>
@sc:	<stdin>
@sc:	<stdin>
@sc:	<stdin>
@sc_cmd:	<stdin>
@sc_cmd:	<stdin>
@sc_cmd:	<stdin>
@sc_cmd:	<stdin>
@scb:	<stdin>
@scb:	<stdin>
@scb:	<stdin>
@scb:	<stdin>
@schedule_dead_ioc_flush_running_cmds:	<stdin>
@scmd:	<stdin>
@scmd:	<stdin>
@scmd:	<stdin>
@scmd:	<stdin>
@scmd:	<stdin>
@scmd:	<stdin>
@scmd:	<stdin>
@scmd:	<stdin>
@scmd:	<stdin>
@scmd:	<stdin>
@scmd:	<stdin>
@scmd:	<stdin>
@scmd:	<stdin>
@scmd:	<stdin>
@scsi_device:	<stdin>
@scsi_device:	<stdin>
@scsi_dh	<stdin>
@scsi_dh	<stdin>
@scsi_dh	<stdin>
@scsi_dh	<stdin>
@scsi_dh	<stdin>
@scsi_dh	<stdin>
@scsi_dh	<stdin>
@scsi_dh	<stdin>
@scsi_dh.	<stdin>
@scsi_id	<stdin>
@scsi_io_cb_idx:	<stdin>
@scsi_level:	<stdin>
@scsi_lookup:	<stdin>
@scsi_lookup_lock:	<stdin>
@scsi_state:	<stdin>
@scsi_status:	<stdin>
@scsi_status:	<stdin>
@scsi_status:	<stdin>
@scsih_cb_idx:	<stdin>
@scsih_cmds:	<stdin>
@scsiio_depth:	<stdin>
@scsilun	<stdin>
@scsilun:	<stdin>
@scsilun:	<stdin>
@sdev	<stdin>
@sdev	<stdin>
@sdev	<stdin>
@sdev	<stdin>
@sdev	<stdin>
@sdev	<stdin>
@sdev.	<stdin>
@sdev:	<stdin>
@sdev:	<stdin>
@sdev:	<stdin>
@sdev:	<stdin>
@sdev:	<stdin>
@sdev:	<stdin>
@sdev:	<stdin>
@sdev:	<stdin>
@sdev:	<stdin>
@sdev:	<stdin>
@sdev:	<stdin>
@sdev:	<stdin>
@sdev:	<stdin>
@sdev:	<stdin>
@sdev:	<stdin>
@sdev:	<stdin>
@sdev:	<stdin>
@sdev:	<stdin>
@sdev:	<stdin>
@sdev:	<stdin>
@sdev:	<stdin>
@sdev:	<stdin>
@sdev:	<stdin>
@sdev:	<stdin>
@sdev:	<stdin>
@sdev:	<stdin>
@sdev:	<stdin>
@sdev:	<stdin>
@sdev:	<stdin>
@sdev:	<stdin>
@sdev:	<stdin>
@sdev:	<stdin>
@sdev:	<stdin>
@sdev:	<stdin>
@sdev:	<stdin>
@sdev:	<stdin>
@sdevp:	<stdin>
@segment:	<stdin>
@segment_id	<stdin>
@sense:	<stdin>
@sense:	<stdin>
@sense:	<stdin>
@sense_buffer:	<stdin>
@sense_buffer:	<stdin>
@sense_bufflen:	<stdin>
@sense_data:	<stdin>
@sense_data_len:	<stdin>
@sense_data_ptr	<stdin>
@sense_dma:	<stdin>
@sense_dma_pool:	<stdin>
@sense_length:	<stdin>
@serial_number:	<stdin>
@set:	<stdin>
@sg	<stdin>
@sge_size:	<stdin>
@shost,	<stdin>
@shost:	<stdin>
@shost:	<stdin>
@shost:	<stdin>
@shost:	<stdin>
@shost:	<stdin>
@shost:	<stdin>
@shost:	<stdin>
@shost:	<stdin>
@shost:	<stdin>
@shost:	<stdin>
@shost:	<stdin>
@shost_recovery:	<stdin>
@sht:	<stdin>
@size:	<stdin>
@sk:	<stdin>
@sk:	<stdin>
@skb	<stdin>
@skb	<stdin>
@skb:	<stdin>
@skb:	<stdin>
@skb:	<stdin>
@skb:	<stdin>
@skb:	<stdin>
@skb:	<stdin>
@skb:	<stdin>
@skb:	<stdin>
@skb:	<stdin>
@skb:	<stdin>
@skb:	<stdin>
@skb:	<stdin>
@skey:	<stdin>
@sleep_flag:	<stdin>
@sleep_flag:	<stdin>
@sleep_flag:	<stdin>
@sleep_flag:	<stdin>
@sleep_flag:	<stdin>
@sleep_flag:	<stdin>
@sleep_flag:	<stdin>
@sleep_flag:	<stdin>
@sleep_flag:	<stdin>
@sleep_flag:	<stdin>
@sleep_flag:	<stdin>
@sleep_flag:	<stdin>
@sleep_flag:	<stdin>
@sleep_flag:	<stdin>
@sleep_flag:	<stdin>
@sleep_flag:	<stdin>
@sleep_flag:	<stdin>
@slot:	<stdin>
@slot:	<stdin>
@slot_number:	<stdin>
@slot_number:	<stdin>
@smid:	<stdin>
@smid:	<stdin>
@smid:	<stdin>
@smid:	<stdin>
@smid:	<stdin>
@smid:	<stdin>
@smid:	<stdin>
@smid:	<stdin>
@smid:	<stdin>
@smid:	<stdin>
@smid:	<stdin>
@smid:	<stdin>
@smid:	<stdin>
@smid:	<stdin>
@smid:	<stdin>
@smid:	<stdin>
@smid:	<stdin>
@smid:	<stdin>
@smid:	<stdin>
@smid:	<stdin>
@smid:	<stdin>
@smid:	<stdin>
@smid:	<stdin>
@smid:	<stdin>
@smid:	<stdin>
@smid:	<stdin>
@smid:	<stdin>
@smid:	<stdin>
@smid:	<stdin>
@smid:	<stdin>
@smid:	<stdin>
@smid:	<stdin>
@smid:	<stdin>
@smid:	<stdin>
@smid:	<stdin>
@smid_task:	<stdin>
@starget:	<stdin>
@starget:	<stdin>
@starget:	<stdin>
@starget:	<stdin>
@starget:	<stdin>
@starget:	<stdin>
@starget:	<stdin>
@starget:	<stdin>
@starget:	<stdin>
@starget:	<stdin>
@start_scan:	<stdin>
@start_scan_failed:	<stdin>
@starting_offset	<stdin>
@stat:	<stdin>
@stat:	<stdin>
@state:	<stdin>
@state:	<stdin>
@state:	<stdin>
@state:	<stdin>
@state:	<stdin>
@state:	<stdin>
@state:	<stdin>
@stats:	<stdin>
@status	<stdin>
@status:	<stdin>
@stopped:	<stdin>
@stripe_exponent:	<stdin>
@stripe_sz:	<stdin>
@sub_system_device	<stdin>
@sub_system_vendor	<stdin>
@submitted:	<stdin>
@submitted_urbs:	<stdin>
@success	<stdin>
@sz:	<stdin>
@sz:	<stdin>
@sz:	<stdin>
@sz:	<stdin>
@sz:	<stdin>
@sz:	<stdin>
@sz:	<stdin>
@t3dev:	<stdin>
@tag_type:	<stdin>
@target:	<stdin>
@target;	<stdin>
@task:	<stdin>
@task:	<stdin>
@task:	<stdin>
@task:	<stdin>
@task:	<stdin>
@task:	<stdin>
@task:	<stdin>
@task:	<stdin>
@task:	<stdin>
@task_req_descp:	<stdin>
@task_req_upiu:	<stdin>
@task_rsp_upiu:	<stdin>
@task_tag:	<stdin>
@task_tag:	<stdin>
@tcp_conn:	<stdin>
@tgt:	<stdin>
@tgt:	<stdin>
@tgt:	<stdin>
@tgt:	<stdin>
@tgt:	<stdin>
@tgt:	<stdin>
@tid:	<stdin>
@time:	<stdin>
@timeout	<stdin>
@timeout:	<stdin>
@timeout:	<stdin>
@timeout:	<stdin>
@timeout:	<stdin>
@timeout:	<stdin>
@timeout:	<stdin>
@timeout:	<stdin>
@timeout:	<stdin>
@timeout:	<stdin>
@tlr_snoop_check:	<stdin>
@tm_busy:	<stdin>
@tm_cb_idx:	<stdin>
@tm_cmds:	<stdin>
@tm_condition:	<stdin>
@tm_request	<stdin>
@tm_tr_cb_idx	<stdin>
@tm_tr_volume_cb_idx	<stdin>
@tmp_string:	<stdin>
@total_buffer_size	<stdin>
@tracker_list:	<stdin>
@tracker_list:	<stdin>
@tracker_list:	<stdin>
@transfer_length:	<stdin>
@transport_cb_idx:	<stdin>
@transport_cmds:	<stdin>
@type:	<stdin>
@type:	<stdin>
@type:	<stdin>
@ucd_cmd_ptr:	<stdin>
@ucd_prdt_ptr:	<stdin>
@ucd_rsp_ptr:	<stdin>
@ucd_rsp_ptr:	<stdin>
@ucd_rsp_ptr:	<stdin>
@ucdl_base_addr:	<stdin>
@ucdl_dma_addr:	<stdin>
@ufshcd_state:	<stdin>
@ufshcd_tm_wait_queue:	<stdin>
@uic_command:	<stdin>
@uic_workq:	<stdin>
@unique_id	<stdin>
@unique_id	<stdin>
@unique_id	<stdin>
@unique_id	<stdin>
@unique_id	<stdin>
@upper_addr:	<stdin>
@urb:	<stdin>
@usb:	<stdin>
@usb:	<stdin>
@usb:	<stdin>
@utmrdl_base_addr:	<stdin>
@utmrdl_dma_addr:	<stdin>
@utr_descriptor_ptr:	<stdin>
@utrdl_base_addr:	<stdin>
@utrdl_dma_addr:	<stdin>
@val:	<stdin>
@val:	<stdin>
@val:	<stdin>
@valid_reply:	<stdin>
@vector:	<stdin>
@vector:	<stdin>
@vlan_id:	<stdin>
@volume_handle:	<stdin>
@volume_handle:	<stdin>
@volume_handle:	<stdin>
@volume_type:	<stdin>
@volume_type:	<stdin>
@volume_wwid:	<stdin>
@wait	<stdin>
@wait_for_discovery_to_complete:	<stdin>
@work:	<stdin>
@work:	<stdin>
@work:	<stdin>
@work:	<stdin>
@work:	<stdin>
@writeq_lock:	<stdin>
@wwid:	<stdin>
@wwid:	<stdin>
@wwid:	<stdin>
@xmit_can_sleep:	<stdin>
Bill_Simpson@um.cc.umich.edu	<stdin>
Brendeland<sjur.brandeland@stericsson.com>");	<stdin>
Daniel.Martensson@stericsson.com	<stdin>
Daniel.Martensson@stericsson.com	<stdin>
James.Bottomley@HansenPartnership.com	<stdin>
James.Bottomley@HansenPartnership.com	<stdin>
James.Bottomley@HansenPartnership.com	<stdin>
James.Bottomley@HansenPartnership.com\n");	<stdin>
K.Lentin@cs.monash.edu.au	<stdin>
Martensson<daniel.martensson@stericsson.com>");	<stdin>
Martensson<daniel.martensson@stericsson.com>");	<stdin>
ajz@cambridgebroadband.com	<stdin>
amarnath.bangalore.revanna@stericsson.com	<stdin>
amarnath.bangalore.revanna@stericsson.com,	<stdin>
becker@scyld.com,	<stdin>
brad@bradpc.gaylord.com.	<stdin>
brad@saturn.gaylord.com	<stdin>
ching@tekram.com.tw	<stdin>
daniel.martensson@stericsson.com	<stdin>
daniel.martensson@stericsson.com	<stdin>
dario.ballabio@inwind.it,	<stdin>
dario.ballabio@tiscalinet.it	<stdin>
deang@teleport.com,	<stdin>
deang@teleport.com,	<stdin>
deischen@iworks.InterWorks.org,	<stdin>
dmitry.tarnyagin@stericsson.com	<stdin>
drew@colorado.edu	<stdin>
faith@acm.org	<stdin>
faith@acm.org\n"	<stdin>
faith@acm.org\n"	<stdin>
faith@cs.unc.edu	<stdin>
faith@cs.unc.edu	<stdin>
faith@cs.unc.edu.	<stdin>
garloff@suse.de	<stdin>
gniibe@mri.co.jp\n";	<stdin>
ipslinux@adaptec.com	<stdin>
john@geolog.com	<stdin>
john@geolog.com	<stdin>
jshiffle@netcom.com	<stdin>
jshiffle@netcom.com!	<stdin>
linux-scsi@vger.kernel.org\n");	<stdin>
linux@syskonnect.de	<stdin>
linuxraid@lsi.com	<stdin>
linuxraid@lsi.com	<stdin>
mike.mclagan@linux.org";	<stdin>
mike.mclagan@linux.org";	<stdin>
mike@i-Connect.Net	<stdin>
neuffer@mail.uni-mainz.de	<stdin>
open-iscsi@googlegroups.com	<stdin>
open-iscsi@googlegroups.com	<stdin>
ppopov@mvista.com	<stdin>
romieu@cogenit.fr.	<stdin>
root@home	<stdin>
sjur.brandeland@stericsson.com	<stdin>
sjur.brandeland@stericsson.com	<stdin>
sjur.brandeland@stericsson.com	<stdin>
sjur.brandeland@stericsson.com	<stdin>
sjur.brandeland@stericsson.com	<stdin>
sjur.brandeland@stericsson.com	<stdin>
source@mvista.com	<stdin>
