"nouveau@lists.freedesktop.org"	<stdin>
<airlied@linux.ie>	<stdin>
<airlied@linux.ie>	<stdin>
<bskeggs@redhat.com>	<stdin>
<bskeggs@redhat.com>	<stdin>
<bskeggs@redhat.com>	<stdin>
<darktama@iinet.net.au>	<stdin>
<inki.dae@samsung.com>	<stdin>
<jkolb@brandeis.edu>	<stdin>
<mjg@redhat.com>	<stdin>
<mjg@redhat.com>	<stdin>
<r.spliet@student.tudelft.nl>	<stdin>
