(@0x20044)	<stdin>
(corey@world.std.com)	<stdin>
(pe1rxq@amsat.org)	<stdin>
<acme@conectiva.com.br>	<stdin>
<agx@sigxcpu.org>	<stdin>
<agx@sigxcpu.org>	<stdin>
<agx@sigxcpu.org>");	<stdin>
<alex@foogod.com>");	<stdin>
<andreas.jaggi@waterwave.ch>	<stdin>
<andreas.jaggi@waterwave.ch>	<stdin>
<andreas.jaggi@waterwave.ch>	<stdin>
<andreas.jaggi@waterwave.ch>	<stdin>
<andreas.jaggi@waterwave.ch>	<stdin>
<andreas.jaggi@waterwave.ch>	<stdin>
<andyw@pobox.com>	<stdin>
<bellucda@tiscali.it>	<stdin>
<br1@einfach.org>	<stdin>
<br1@einfach.org>	<stdin>
<buytenh@marvell.com>");	<stdin>
<chunkeey@googlemail.com>	<stdin>
<chunkeey@googlemail.com>	<stdin>
<chunkeey@googlemail.com>	<stdin>
<chunkeey@googlemail.com>	<stdin>
<chunkeey@googlemail.com>	<stdin>
<chunkeey@googlemail.com>	<stdin>
<chunkeey@googlemail.com>	<stdin>
<chunkeey@googlemail.com>	<stdin>
<chunkeey@googlemail.com>	<stdin>
<chunkeey@googlemail.com>	<stdin>
<chunkeey@googlemail.com>	<stdin>
<chunkeey@googlemail.com>	<stdin>
<chunkeey@googlemail.com>	<stdin>
<chunkeey@googlemail.com>	<stdin>
<chunkeey@googlemail.com>	<stdin>
<chunkeey@googlemail.com>	<stdin>
<chunkeey@web.de>	<stdin>
<chunkeey@web.de>	<stdin>
<chunkeey@web.de>	<stdin>
<chunkeey@web.de>	<stdin>
<chunkeey@web.de>	<stdin>
<chunkeey@web.de>	<stdin>
<chunkeey@web.de>");	<stdin>
<corey@world.std.com>");	<stdin>
<damien.bergamini@free.fr>	<stdin>
<damien.bergamini@free.fr>	<stdin>
<damien.bergamini@free.fr>	<stdin>
<dsd@gentoo.org>	<stdin>
<dsd@gentoo.org>	<stdin>
<dsd@gentoo.org>	<stdin>
<flamingice@sourmilk.net>	<stdin>
<flamingice@sourmilk.net>	<stdin>
<flamingice@sourmilk.net>	<stdin>
<flamingice@sourmilk.net>	<stdin>
<flamingice@sourmilk.net>	<stdin>
<flamingice@sourmilk.net>	<stdin>
<flamingice@sourmilk.net>	<stdin>
<flamingice@sourmilk.net>");	<stdin>
<flamingice@sourmilk.net>");	<stdin>
<hch@lst.de>	<stdin>
<hch@lst.de>	<stdin>
<hch@lst.de>	<stdin>
<j@w1.fi>	<stdin>
<j@w1.fi>	<stdin>
<j@w1.fi>	<stdin>
<j@w1.fi>	<stdin>
<j@w1.fi>	<stdin>
<j@w1.fi>	<stdin>
<jbnote@gmail.com>,	<stdin>
<jbnote@gmail.com>,	<stdin>
<jbnote@gmail.com>,	<stdin>
<jbnote@gmail.com>,	<stdin>
<jbnote@gmail.com>,	<stdin>
<jbnote@gmail.com>,	<stdin>
<jean-baptiste.note@m4x.org>,	<stdin>
<jirislaby@gmail.com>	<stdin>
<jirislaby@gmail.com>	<stdin>
<jirislaby@gmail.com>	<stdin>
<jirislaby@gmail.com>	<stdin>
<jirislaby@gmail.com>	<stdin>
<jirislaby@gmail.com>	<stdin>
<joerg.albert@gmx.de>	<stdin>
<joerg.albert@gmx.de>	<stdin>
<joerg.albert@gmx.de>");	<stdin>
<johannes@sipsolutions.net>	<stdin>
<johannes@sipsolutions.net>	<stdin>
<johannes@sipsolutions.net>	<stdin>
<johannes@sipsolutions.net>	<stdin>
<johannes@sipsolutions.net>	<stdin>
<johannes@sipsolutions.net>	<stdin>
<johannes@sipsolutions.net>	<stdin>
<johannes@sipsolutions.net>	<stdin>
<johannes@sipsolutions.net>	<stdin>
<johannes@sipsolutions.net>	<stdin>
<johannes@sipsolutions.net>	<stdin>
<johannes@sipsolutions.net>	<stdin>
<johannes@sipsolutions.net>	<stdin>
<johannes@sipsolutions.net>	<stdin>
<johannes@sipsolutions.net>	<stdin>
<johannes@sipsolutions.net>	<stdin>
<johannes@sipsolutions.net>	<stdin>
<johannes@sipsolutions.net>	<stdin>
<johannes@sipsolutions.net>	<stdin>
<johannes@sipsolutions.net>	<stdin>
<johannes@sipsolutions.net>	<stdin>
<johannes@sipsolutions.net>	<stdin>
<johannes@sipsolutions.net>	<stdin>
<johannes@sipsolutions.net>	<stdin>
<johannes@sipsolutions.net>	<stdin>
<johannes@sipsolutions.net>	<stdin>
<juhosg@openwrt.org>	<stdin>
<juhosg@openwrt.org>	<stdin>
<kalle.valo@iki.fi>	<stdin>
<kalle.valo@iki.fi>");	<stdin>
<kaloz@openwrt.org>	<stdin>
<kaloz@openwrt.org>	<stdin>
<kugelfang@gentoo.org>	<stdin>
<kugelfang@gentoo.org>	<stdin>
<kugelfang@gentoo.org>	<stdin>
<kugelfang@gentoo.org>	<stdin>
<kugelfang@gentoo.org>	<stdin>
<kugelfang@gentoo.org>	<stdin>
<kune@deine-taler.de>	<stdin>
<kune@deine-taler.de>	<stdin>
<kune@deine-taler.de>	<stdin>
<m@bues.ch>	<stdin>
<m@bues.ch>	<stdin>
<m@bues.ch>	<stdin>
<m@bues.ch>	<stdin>
<m@bues.ch>	<stdin>
<m@bues.ch>	<stdin>
<m@bues.ch>	<stdin>
<m@bues.ch>	<stdin>
<m@bues.ch>	<stdin>
<m@bues.ch>	<stdin>
<m@bues.ch>	<stdin>
<m@bues.ch>	<stdin>
<m@bues.ch>	<stdin>
<m@bues.ch>	<stdin>
<martin-langer@gmx.de>,	<stdin>
<martin-langer@gmx.de>,	<stdin>
<martin-langer@gmx.de>,	<stdin>
<martin-langer@gmx.de>,	<stdin>
<martin-langer@gmx.de>,	<stdin>
<martin-langer@gmx.de>,	<stdin>
<mcgrof@winlab.rutgers.edu>	<stdin>
<mcgrof@winlab.rutgers.edu>	<stdin>
<mcgrof@winlab.rutgers.edu>	<stdin>
<mcgrof@winlab.rutgers.edu>	<stdin>
<mentor@madwifi.org>	<stdin>
<mickflemm@gmail.com>	<stdin>
<mickflemm@gmail.com>	<stdin>
<mickflemm@gmail.com>	<stdin>
<mickflemm@gmail.com>	<stdin>
<mickflemm@gmail.com>	<stdin>
<mickflemm@gmail.com>	<stdin>
<mickflemm@gmail.com>	<stdin>
<mickflemm@gmail.com>	<stdin>
<mickflemm@gmail.com>	<stdin>
<mickflemm@gmail.com>	<stdin>
<mickflemm@gmail.com>	<stdin>
<mickflemm@gmail.com>	<stdin>
<mickflemm@gmail.com>	<stdin>
<n0_5p4m_p13453@hotmail.com>	<stdin>
<n0_5p4m_p13453@hotmail.com>");	<stdin>
<netrolller.3d@gmail.com>	<stdin>
<netrolller.3d@gmail.com>	<stdin>
<oku@masqmail.cx>");	<stdin>
<pe1rxq@amsat.org>");	<stdin>
<pontus.fuchs@gmail.com>	<stdin>
<pontus.fuchs@gmail.com>	<stdin>
<pontus.fuchs@gmail.com>	<stdin>
<proski@gnu.org>	<stdin>
<proski@gnu.org>	<stdin>
<proski@gnu.org>	<stdin>
<proski@gnu.org>");	<stdin>
<reyk@openbsd.org>	<stdin>
<reyk@openbsd.org>	<stdin>
<reyk@openbsd.org>	<stdin>
<reyk@openbsd.org>	<stdin>
<reyk@openbsd.org>	<stdin>
<reyk@openbsd.org>	<stdin>
<reyk@openbsd.org>	<stdin>
<reyk@openbsd.org>	<stdin>
<reyk@openbsd.org>	<stdin>
<reyk@openbsd.org>	<stdin>
<reyk@openbsd.org>	<stdin>
<reyk@openbsd.org>	<stdin>
<reyk@vantronix.net>	<stdin>
<sesmo@gmx.net>	<stdin>
<sesmo@gmx.net>");	<stdin>
<stefano.brivio@polimi.it>	<stdin>
<stefano.brivio@polimi.it>	<stdin>
<stefano.brivio@polimi.it>	<stdin>
<stefano.brivio@polimi.it>	<stdin>
<stefano.brivio@polimi.it>	<stdin>
<stefano.brivio@polimi.it>	<stdin>
<stefano.brivio@polimi.it>	<stdin>
<tobias.doerffel@gmail.com>	<stdin>
<tobias.doerffel@gmail.com>	<stdin>
<weongyo@freebsd.org>	<stdin>
<weongyo@freebsd.org>	<stdin>
<weongyo@freebsd.org>	<stdin>
<wil6210@qca.qualcomm.com>");	<stdin>
<zajec5@gmail.com>	<stdin>
<zajec5@gmail.com>	<stdin>
<zajec5@gmail.com>	<stdin>
<zajec5@gmail.com>	<stdin>
<zajec5@gmail.com>	<stdin>
<zajec5@gmail.com>	<stdin>
<zajec5@gmail.com>	<stdin>
<zajec5@gmail.com>	<stdin>
<zajec5@gmail.com>	<stdin>
<zajec5@gmail.com>	<stdin>
<zajec5@gmail.com>	<stdin>
@AR5K_ANTMODE_DEBUG:	<stdin>
@AR5K_ANTMODE_DEFAULT:	<stdin>
@AR5K_ANTMODE_FIXED_A:	<stdin>
@AR5K_ANTMODE_FIXED_B:	<stdin>
@AR5K_ANTMODE_MAX:	<stdin>
@AR5K_ANTMODE_SECTOR_AP:	<stdin>
@AR5K_ANTMODE_SECTOR_STA:	<stdin>
@AR5K_ANTMODE_SINGLE_AP:	<stdin>
@AR5K_AR5210:	<stdin>
@AR5K_AR5211:	<stdin>
@AR5K_AR5212:	<stdin>
@AR5K_BWMODE_10MHZ:	<stdin>
@AR5K_BWMODE_40MHZ:	<stdin>
@AR5K_BWMODE_5MHZ:	<stdin>
@AR5K_BWMODE_DEFAULT:	<stdin>
@AR5K_CALIBRATION_ANI:	<stdin>
@AR5K_CALIBRATION_FULL:	<stdin>
@AR5K_CALIBRATION_NF:	<stdin>
@AR5K_CALIBRATION_SHORT:	<stdin>
@AR5K_DMASIZE_128B:	<stdin>
@AR5K_DMASIZE_16B:	<stdin>
@AR5K_DMASIZE_256B:	<stdin>
@AR5K_DMASIZE_32B:	<stdin>
@AR5K_DMASIZE_4B:	<stdin>
@AR5K_DMASIZE_512B:	<stdin>
@AR5K_DMASIZE_64B:	<stdin>
@AR5K_DMASIZE_8B:	<stdin>
@AR5K_INT_BCN_TIMEOUT:	<stdin>
@AR5K_INT_BMISS:	<stdin>
@AR5K_INT_BNR:	<stdin>
@AR5K_INT_BRSSI:	<stdin>
@AR5K_INT_CAB_TIMEOUT:	<stdin>
@AR5K_INT_COMMON:	<stdin>
@AR5K_INT_DTIM:	<stdin>
@AR5K_INT_DTIM_SYNC:	<stdin>
@AR5K_INT_FATAL:	<stdin>
@AR5K_INT_GLOBAL:	<stdin>
@AR5K_INT_GPIO:	<stdin>
@AR5K_INT_MIB:	<stdin>
@AR5K_INT_NOCARD:	<stdin>
@AR5K_INT_QCBRORN:	<stdin>
@AR5K_INT_QCBRURN:	<stdin>
@AR5K_INT_QTRIG:	<stdin>
@AR5K_INT_RXDESC:	<stdin>
@AR5K_INT_RXEOL:	<stdin>
@AR5K_INT_RXERR:	<stdin>
@AR5K_INT_RXKCM:	<stdin>
@AR5K_INT_RXNOFRM:	<stdin>
@AR5K_INT_RXOK:	<stdin>
@AR5K_INT_RXORN:	<stdin>
@AR5K_INT_RXPHY:	<stdin>
@AR5K_INT_RX_ALL:	<stdin>
@AR5K_INT_SWBA:	<stdin>
@AR5K_INT_SWI:	<stdin>
@AR5K_INT_TIM:	<stdin>
@AR5K_INT_TXDESC:	<stdin>
@AR5K_INT_TXEOL:	<stdin>
@AR5K_INT_TXERR:	<stdin>
@AR5K_INT_TXNOFRM:	<stdin>
@AR5K_INT_TXOK:	<stdin>
@AR5K_INT_TXURN:	<stdin>
@AR5K_INT_TX_ALL:	<stdin>
@AR5K_MODE_11A:	<stdin>
@AR5K_MODE_11B:	<stdin>
@AR5K_MODE_11G:	<stdin>
@AR5K_MODE_MAX:	<stdin>
@AR5K_PKT_TYPE_ATIM:	<stdin>
@AR5K_PKT_TYPE_BEACON:	<stdin>
@AR5K_PKT_TYPE_NORMAL:	<stdin>
@AR5K_PKT_TYPE_PIFS:	<stdin>
@AR5K_PKT_TYPE_PROBE_RESP:	<stdin>
@AR5K_PKT_TYPE_PSPOLL:	<stdin>
@AR5K_PM_AUTO:	<stdin>
@AR5K_PM_AWAKE:	<stdin>
@AR5K_PM_FULL_SLEEP:	<stdin>
@AR5K_PM_NETWORK_SLEEP:	<stdin>
@AR5K_PM_UNDEFINED:	<stdin>
@AR5K_RF2316:	<stdin>
@AR5K_RF2317:	<stdin>
@AR5K_RF2413:	<stdin>
@AR5K_RF2425:	<stdin>
@AR5K_RF5110:	<stdin>
@AR5K_RF5111:	<stdin>
@AR5K_RF5112:	<stdin>
@AR5K_RF5413:	<stdin>
@AR5K_RFGAIN_ACTIVE:	<stdin>
@AR5K_RFGAIN_INACTIVE:	<stdin>
@AR5K_RFGAIN_NEED_CHANGE:	<stdin>
@AR5K_RFGAIN_READ_REQUESTED:	<stdin>
@AR5K_RX_PHY_ERROR_CCK_HEADER_CRC:	<stdin>
@AR5K_RX_PHY_ERROR_CCK_RATE_ILLEGAL:	<stdin>
@AR5K_RX_PHY_ERROR_CCK_RESTART:	<stdin>
@AR5K_RX_PHY_ERROR_CCK_SERVICE:	<stdin>
@AR5K_RX_PHY_ERROR_CCK_TIMING:	<stdin>
@AR5K_RX_PHY_ERROR_LENGTH:	<stdin>
@AR5K_RX_PHY_ERROR_OFDM_LENGTH_ILLEGAL:	<stdin>
@AR5K_RX_PHY_ERROR_OFDM_POWER_DROP:	<stdin>
@AR5K_RX_PHY_ERROR_OFDM_RATE_ILLEGAL:	<stdin>
@AR5K_RX_PHY_ERROR_OFDM_RESTART:	<stdin>
@AR5K_RX_PHY_ERROR_OFDM_SERVICE:	<stdin>
@AR5K_RX_PHY_ERROR_OFDM_SIGNAL_PARITY:	<stdin>
@AR5K_RX_PHY_ERROR_OFDM_TIMING:	<stdin>
@AR5K_RX_PHY_ERROR_PARITY:	<stdin>
@AR5K_RX_PHY_ERROR_RADAR:	<stdin>
@AR5K_RX_PHY_ERROR_RATE:	<stdin>
@AR5K_RX_PHY_ERROR_SERVICE:	<stdin>
@AR5K_RX_PHY_ERROR_TIMING:	<stdin>
@AR5K_RX_PHY_ERROR_TOR:	<stdin>
@AR5K_RX_PHY_ERROR_UNDERRUN:	<stdin>
@AR5K_TX_QUEUE_BEACON:	<stdin>
@AR5K_TX_QUEUE_CAB:	<stdin>
@AR5K_TX_QUEUE_DATA:	<stdin>
@AR5K_TX_QUEUE_ID_BEACON:	<stdin>
@AR5K_TX_QUEUE_ID_CAB:	<stdin>
@AR5K_TX_QUEUE_ID_DATA_MAX:	<stdin>
@AR5K_TX_QUEUE_ID_DATA_MIN:	<stdin>
@AR5K_TX_QUEUE_ID_NOQCU_BEACON:	<stdin>
@AR5K_TX_QUEUE_ID_NOQCU_DATA:	<stdin>
@AR5K_TX_QUEUE_ID_UAPSD:	<stdin>
@AR5K_TX_QUEUE_INACTIVE:	<stdin>
@AR5K_TX_QUEUE_UAPSD:	<stdin>
@AR5K_WME_AC_BE:	<stdin>
@AR5K_WME_AC_BK:	<stdin>
@AR5K_WME_AC_VI:	<stdin>
@AR5K_WME_AC_VO:	<stdin>
@B43_INTERFMODE_AUTOWLAN:	<stdin>
@B43_INTERFMODE_MANUALWLAN:	<stdin>
@B43_INTERFMODE_NONE:	<stdin>
@B43_INTERFMODE_NONWLAN:	<stdin>
@B43_TXPWR_IGNORE_TIME:	<stdin>
@B43_TXPWR_IGNORE_TSSI:	<stdin>
@B43_TXPWR_RES_DONE:	<stdin>
@B43_TXPWR_RES_NEED_ADJUST:	<stdin>
@BUF_AGGR:	<stdin>
@BUF_AMPDU:	<stdin>
@a2_athchan:	<stdin>
@a2_flags:	<stdin>
@a:	<stdin>
@add_pulse():	<stdin>
@add_pulse():	<stdin>
@adjust_txpower	<stdin>
@adjust_txpower:	<stdin>
@ah	<stdin>
@ah:	<stdin>
@ah:	<stdin>
@ah:	<stdin>
@ah:	<stdin>
@ah:	<stdin>
@ah:	<stdin>
@ah:	<stdin>
@ah:	<stdin>
@ah:	<stdin>
@ah:	<stdin>
@ah:	<stdin>
@ah:	<stdin>
@ah:	<stdin>
@ah:	<stdin>
@ah:	<stdin>
@ah:	<stdin>
@ah:	<stdin>
@ah:	<stdin>
@ah:	<stdin>
@ah:	<stdin>
@ah:	<stdin>
@ah:	<stdin>
@ah:	<stdin>
@ah:	<stdin>
@ah:	<stdin>
@ah:	<stdin>
@ah:	<stdin>
@ah:	<stdin>
@ah:	<stdin>
@ah:	<stdin>
@ah:	<stdin>
@ah:	<stdin>
@ah:	<stdin>
@ah:	<stdin>
@ah:	<stdin>
@ah:	<stdin>
@ah:	<stdin>
@ah:	<stdin>
@ah:	<stdin>
@ah:	<stdin>
@ah:	<stdin>
@ah:	<stdin>
@ah:	<stdin>
@ah:	<stdin>
@ah:	<stdin>
@ah:	<stdin>
@ah:	<stdin>
@ah:	<stdin>
@ah:	<stdin>
@ah:	<stdin>
@ah:	<stdin>
@ah:	<stdin>
@ah:	<stdin>
@ah:	<stdin>
@ah:	<stdin>
@ah:	<stdin>
@ah:	<stdin>
@ah:	<stdin>
@ah:	<stdin>
@ah:	<stdin>
@ah:	<stdin>
@ah:	<stdin>
@ah:	<stdin>
@ah:	<stdin>
@ah:	<stdin>
@ah:	<stdin>
@ah:	<stdin>
@ah:	<stdin>
@ah:	<stdin>
@ah:	<stdin>
@ah:	<stdin>
@ah:	<stdin>
@ah:	<stdin>
@ah:	<stdin>
@ah:	<stdin>
@ah:	<stdin>
@ah:	<stdin>
@ah:	<stdin>
@ah:	<stdin>
@ah:	<stdin>
@ah:	<stdin>
@ah:	<stdin>
@ah:	<stdin>
@ah:	<stdin>
@ah:	<stdin>
@ah:	<stdin>
@ah:	<stdin>
@ah:	<stdin>
@ah:	<stdin>
@ah:	<stdin>
@ah:	<stdin>
@ah:	<stdin>
@ah:	<stdin>
@ah:	<stdin>
@ah:	<stdin>
@ah:	<stdin>
@ah:	<stdin>
@ah:	<stdin>
@ah:	<stdin>
@ah:	<stdin>
@ah:	<stdin>
@allocate	<stdin>
@allocate:	<stdin>
@antenna_mode:	<stdin>
@antenna_mode:	<stdin>
@b0	<stdin>
@b1,	<stdin>
@b:	<stdin>
@bank:	<stdin>
@bc_tsf:	<stdin>
@bouncebuffer:	<stdin>
@brief	<stdin>
@bwinfo_discards:	<stdin>
@callback:	<stdin>
@chan:	<stdin>
@chan:	<stdin>
@chan:	<stdin>
@chan:	<stdin>
@chan:	<stdin>
@chan:	<stdin>
@chan:	<stdin>
@channel:	<stdin>
@channel:	<stdin>
@channel:	<stdin>
@channel:	<stdin>
@channel_detectors:	<stdin>
@clock:	<stdin>
@cmd:	<stdin>
@cmd:	<stdin>
@cmd:	<stdin>
@cmd:	<stdin>
@cmd:	<stdin>
@col:	<stdin>
@column:	<stdin>
@common:	<stdin>
@common:	<stdin>
@common:	<stdin>
@common:	<stdin>
@context:	<stdin>
@count:	<stdin>
@count:	<stdin>
@count_falses:	<stdin>
@coverage_class:	<stdin>
@coverage_class:	<stdin>
@ctrl_rate:	<stdin>
@cw40index:	<stdin>
@cw_req:	<stdin>
@d.addr	<stdin>
@d.addr	<stdin>
@d.addr	<stdin>
@data:	<stdin>
@datalen_discards:	<stdin>
@dc_phy_errors:	<stdin>
@deadline_ts:	<stdin>
@del_req:	<stdin>
@del_req:	<stdin>
@desc:	<stdin>
@desc:	<stdin>
@desc:	<stdin>
@desc:	<stdin>
@desc:	<stdin>
@desc:	<stdin>
@desc:	<stdin>
@desc:	<stdin>
@detectors:	<stdin>
@dev:	<stdin>
@dev:	<stdin>
@dev:	<stdin>
@dev:	<stdin>
@dev:	<stdin>
@dev:	<stdin>
@dev:	<stdin>
@domain:	<stdin>
@dot11rate:	<stdin>
@ds_data:	<stdin>
@ds_link:	<stdin>
@dur:	<stdin>
@enable:	<stdin>
@entry:	<stdin>
@entry:	<stdin>
@entry:	<stdin>
@exit():	<stdin>
@exit():	<stdin>
@exit:	<stdin>
@ext_phy_errors:	<stdin>
@fast:	<stdin>
@field:	<stdin>
@file	<stdin>
@filter0:	<stdin>
@filter1:	<stdin>
@filter:	<stdin>
@firstBit:	<stdin>
@first_ts:	<stdin>
@flag:	<stdin>
@flags:	<stdin>
@flags:	<stdin>
@flags:	<stdin>
@flags:	<stdin>
@flags:	<stdin>
@free:	<stdin>
@freq:	<stdin>
@freq:	<stdin>
@g_current:	<stdin>
@g_f_corr:	<stdin>
@g_high:	<stdin>
@g_low:	<stdin>
@g_state:	<stdin>
@g_step_idx:	<stdin>
@g_target:	<stdin>
@get_default_chan:	<stdin>
@go_default:	<stdin>
@go_step:	<stdin>
@go_steps_count:	<stdin>
@gos_gain:	<stdin>
@gos_param:	<stdin>
@hdr_len:	<stdin>
@hdr_len:	<stdin>
@head:	<stdin>
@head:	<stdin>
@ht_cap:	<stdin>
@ht_index:	<stdin>
@hw:	<stdin>
@hw_maxretry_pktcnt:	<stdin>
@increase:	<stdin>
@increase:	<stdin>
@index:	<stdin>
@ini_mode:	<stdin>
@ini_mode:	<stdin>
@ini_register:	<stdin>
@ini_regs:	<stdin>
@ini_value:	<stdin>
@init:	<stdin>
@initial_ratemax:	<stdin>
@interf_mitigation:	<stdin>
@interrupt_mask:	<stdin>
@interrupt_mask:	<stdin>
@interval:	<stdin>
@intval:	<stdin>
@intval:	<stdin>
@io_debug_num:	<stdin>
@is_set:	<stdin>
@key_index:	<stdin>
@key_index:	<stdin>
@last_pulse_ts:	<stdin>
@last_ts:	<stdin>
@last_ts:	<stdin>
@len:	<stdin>
@len:	<stdin>
@link:	<stdin>
@local:	<stdin>
@local:	<stdin>
@local:	<stdin>
@lock:	<stdin>
@mac:	<stdin>
@mactime:	<stdin>
@mask:	<stdin>
@max_count:	<stdin>
@max_pri_tolerance:	<stdin>
@max_valid_rate:	<stdin>
@mcs_start:	<stdin>
@mode:	<stdin>
@mode:	<stdin>
@mode:	<stdin>
@mode:	<stdin>
@mode_register:	<stdin>
@mode_value:	<stdin>
@modesIndex:	<stdin>
@neg_ht_rates:	<stdin>
@neg_rates:	<stdin>
@new_mask:	<stdin>
@new_mask:	<stdin>
@next_beacon:	<stdin>
@numBits:	<stdin>
@num_pri:	<stdin>
@num_radar_types:	<stdin>
@num_radar_types:	<stdin>
@op_mode:	<stdin>
@op_mode:	<stdin>
@op_mode:	<stdin>
@padsize:	<stdin>
@padsize:	<stdin>
@param	<stdin>
@param	<stdin>
@param	<stdin>
@param	<stdin>
@param0:	<stdin>
@param0:	<stdin>
@param0:	<stdin>
@param0:	<stdin>
@param0:	<stdin>
@param1:	<stdin>
@per:	<stdin>
@per_down_time:	<stdin>
@phy:	<stdin>
@phy_maskset:	<stdin>
@phy_read:	<stdin>
@phy_write:	<stdin>
@phys_addr:	<stdin>
@phys_addr:	<stdin>
@phys_addr:	<stdin>
@phys_addr:	<stdin>
@pkt_len:	<stdin>
@pkt_len:	<stdin>
@pos:	<stdin>
@ppb:	<stdin>
@ppb_thresh:	<stdin>
@prepare_hardware:	<stdin>
@prepare_structs:	<stdin>
@pri:	<stdin>
@pri_max:	<stdin>
@pri_min:	<stdin>
@pri_phy_errors:	<stdin>
@probe_interval:	<stdin>
@probe_interval:	<stdin>
@probe_rate:	<stdin>
@probe_time:	<stdin>
@pulses:	<stdin>
@pulses_detected:	<stdin>
@pulses_no_dfs:	<stdin>
@pulses_processed:	<stdin>
@pulses_total:	<stdin>
@pwork_15sec:	<stdin>
@pwork_60sec:	<stdin>
@q:	<stdin>
@qinfo:	<stdin>
@qnum:	<stdin>
@queue:	<stdin>
@queue:	<stdin>
@queue:	<stdin>
@queue:	<stdin>
@queue:	<stdin>
@queue:	<stdin>
@queue:	<stdin>
@queue:	<stdin>
@queue:	<stdin>
@queue:	<stdin>
@queue:	<stdin>
@queue:	<stdin>
@queue:	<stdin>
@queue:	<stdin>
@queue:	<stdin>
@queue:	<stdin>
@queue_info:	<stdin>
@queue_info:	<stdin>
@queue_type:	<stdin>
@radar_detected:	<stdin>
@radar_detector_specs:	<stdin>
@radar_types:	<stdin>
@radio_read:	<stdin>
@radio_write:	<stdin>
@rate:	<stdin>
@rate_cnt:	<stdin>
@rate_flags:	<stdin>
@rate_max_phy:	<stdin>
@ratecode:	<stdin>
@ratekbps:	<stdin>
@recalc_txpower	<stdin>
@recalc_txpower)	<stdin>
@recalc_txpower:	<stdin>
@reg32:	<stdin>
@reg:	<stdin>
@region:	<stdin>
@reset():	<stdin>
@resp0:	<stdin>
@return	<stdin>
@return	<stdin>
@return	<stdin>
@return	<stdin>
@rfb_bank:	<stdin>
@rfb_ctrl_register:	<stdin>
@rfb_mode_data:	<stdin>
@rfbuf:	<stdin>
@rfg_register:	<stdin>
@rfg_value:	<stdin>
@rs:	<stdin>
@rs:	<stdin>
@rs:	<stdin>
@rs:	<stdin>
@rs_antenna:	<stdin>
@rs_datalen:	<stdin>
@rs_keyix:	<stdin>
@rs_more:	<stdin>
@rs_phyerr:	<stdin>
@rs_rate:	<stdin>
@rs_rssi:	<stdin>
@rs_status:	<stdin>
@rs_tstamp:	<stdin>
@rssi:	<stdin>
@rssi_discards:	<stdin>
@rtscts_duration:	<stdin>
@rtscts_duration:	<stdin>
@rtscts_rate:	<stdin>
@rtscts_rate:	<stdin>
@rx_control_0:	<stdin>
@rx_control_1:	<stdin>
@rx_ctl:	<stdin>
@rx_stat:	<stdin>
@rx_status_0:	<stdin>
@rx_status_1:	<stdin>
@sc:	<stdin>
@sequences:	<stdin>
@set_chip:	<stdin>
@set_dfs_domain():	<stdin>
@set_rx_antenna:	<stdin>
@setup:	<stdin>
@sgi_index:	<stdin>
@shm_offset:	<stdin>
@shortpre:	<stdin>
@size:	<stdin>
@size:	<stdin>
@size:	<stdin>
@skb	<stdin>
@skip_pcu:	<stdin>
@skip_pcu:	<stdin>
@skip_pcu:	<stdin>
@sleep_duration:	<stdin>
@slot_time:	<stdin>
@software_rfkill:	<stdin>
@src	<stdin>
@src	<stdin>
@src	<stdin>
@state:	<stdin>
@struct	<stdin>
@struct	<stdin>
@struct	<stdin>
@supports_hwpctl:	<stdin>
@switch_analog:	<stdin>
@switch_channel:	<stdin>
@timeout:	<stdin>
@timeout:	<stdin>
@tqi_aifs:	<stdin>
@tqi_cbr_period:	<stdin>
@tqi_cw_max:	<stdin>
@tqi_cw_min:	<stdin>
@tqi_flags:	<stdin>
@tqi_ready_time:	<stdin>
@tqi_subtype:	<stdin>
@tqi_type:	<stdin>
@ts:	<stdin>
@ts:	<stdin>
@ts:	<stdin>
@ts:	<stdin>
@ts_antenna:	<stdin>
@ts_final_idx:	<stdin>
@ts_final_retry:	<stdin>
@ts_rssi:	<stdin>
@ts_seqnum:	<stdin>
@ts_shortretry:	<stdin>
@ts_status:	<stdin>
@ts_tstamp:	<stdin>
@ts_virtcol:	<stdin>
@tsf64:	<stdin>
@tx_control_0:	<stdin>
@tx_control_0:	<stdin>
@tx_control_1:	<stdin>
@tx_control_1:	<stdin>
@tx_control_2:	<stdin>
@tx_control_3:	<stdin>
@tx_ctl:	<stdin>
@tx_ctl:	<stdin>
@tx_power:	<stdin>
@tx_power:	<stdin>
@tx_rate0:	<stdin>
@tx_rate0:	<stdin>
@tx_rate1:	<stdin>
@tx_rate2:	<stdin>
@tx_rate3:	<stdin>
@tx_stat:	<stdin>
@tx_stat:	<stdin>
@tx_status_0:	<stdin>
@tx_status_1:	<stdin>
@tx_tries0:	<stdin>
@tx_tries0:	<stdin>
@tx_tries1:	<stdin>
@tx_tries2:	<stdin>
@tx_tries3:	<stdin>
@txq_len:Number	<stdin>
@txq_map:	<stdin>
@txq_max:	<stdin>
@txq_poll_mark:	<stdin>
@txq_stuck:	<stdin>
@type:	<stdin>
@type:	<stdin>
@type_id:	<stdin>
@ud:	<stdin>
@usec:	<stdin>
@user_ratekbps:	<stdin>
@val:	<stdin>
@val:	<stdin>
@valid_phy_ratecnt:	<stdin>
@width:	<stdin>
@width_max:	<stdin>
@width_min:	<stdin>
@window:	<stdin>
@window_size:	<stdin>
@x	<stdin>
[@b0:@b1]	<stdin>
corey@world.std.com>";	<stdin>
dahinds@users.sourceforge.net	<stdin>
james@madingley.org	<stdin>
linux-wireless@vger.kernel.org	<stdin>
