"<ilw@linux.intel.com>"	<stdin>
"<ilw@linux.intel.com>"	<stdin>
(frible@teaser.fr)	<stdin>
(fventuri@mediaone.net)\n";	<stdin>
(greg@kroah.com)	<stdin>
(pe1rxq@amsat.org)	<stdin>
(petkan@users.sourceforge.net)	<stdin>
(petkan@users.sourceforge.net)	<stdin>
(sailer@ife.ee.ethz.ch)	<stdin>
(sailer@ife.ee.ethz.ch)	<stdin>
(sailer@ife.ee.ethz.ch)	<stdin>
(sailer@ife.ee.ethz.ch)	<stdin>
(sailer@ife.ee.ethz.ch)	<stdin>
(sailer@ife.ee.ethz.ch)	<stdin>
<21cnbao@gmail.com>");	<stdin>
<Larry.FInger@lwfinger.net>");	<stdin>
<Larry.Finger@lwfinger.net>	<stdin>
<Larry.Finger@lwfinger.net>	<stdin>
<Larry.Finger@lwfinger.net>	<stdin>
<Larry.Finger@lwfinger.net>	<stdin>
<Larry.Finger@lwfinger.net>	<stdin>
<Larry.Finger@lwfinger.net>	<stdin>
<Larry.Finger@lwfinger.net>	<stdin>
<Larry.Finger@lwfinger.net>	<stdin>
<Larry.Finger@lwfinger.net>	<stdin>
<Larry.Finger@lwfinger.net>	<stdin>
<Larry.Finger@lwfinger.net>	<stdin>
<Larry.Finger@lwfinger.net>	<stdin>
<Larry.Finger@lwfinger.net>	<stdin>
<Larry.Finger@lwfinger.net>	<stdin>
<Larry.Finger@lwfinger.net>	<stdin>
<Larry.Finger@lwfinger.net>	<stdin>
<Larry.Finger@lwfinger.net>	<stdin>
<Larry.Finger@lwfinger.net>	<stdin>
<Larry.Finger@lwfinger.net>	<stdin>
<Larry.Finger@lwfinger.net>	<stdin>
<Larry.Finger@lwfinger.net>	<stdin>
<Larry.Finger@lwfinger.net>	<stdin>
<Larry.Finger@lwfinger.net>	<stdin>
<Larry.Finger@lwfinger.net>	<stdin>
<Larry.Finger@lwfinger.net>	<stdin>
<Larry.Finger@lwfinger.net>	<stdin>
<Larry.Finger@lwfinger.net>	<stdin>
<Larry.Finger@lwfinger.net>	<stdin>
<Larry.Finger@lwfinger.net>	<stdin>
<Larry.Finger@lwfinger.net>	<stdin>
<Larry.Finger@lwfinger.net>	<stdin>
<Larry.Finger@lwfinger.net>	<stdin>
<Larry.Finger@lwfinger.net>	<stdin>
<Larry.Finger@lwfinger.net>	<stdin>
<Larry.Finger@lwfinger.net>	<stdin>
<Larry.Finger@lwfinger.net>	<stdin>
<Larry.Finger@lwfinger.net>	<stdin>
<Larry.Finger@lwfinger.net>	<stdin>
<Larry.Finger@lwfinger.net>	<stdin>
<Larry.Finger@lwfinger.net>	<stdin>
<Larry.Finger@lwfinger.net>	<stdin>
<Larry.Finger@lwfinger.net>	<stdin>
<Larry.Finger@lwfinger.net>	<stdin>
<Larry.Finger@lwfinger.net>	<stdin>
<Larry.Finger@lwfinger.net>	<stdin>
<Larry.Finger@lwfinger.net>	<stdin>
<Larry.Finger@lwfinger.net>	<stdin>
<Larry.Finger@lwfinger.net>	<stdin>
<Larry.Finger@lwfinger.net>	<stdin>
<Larry.Finger@lwfinger.net>	<stdin>
<Larry.Finger@lwfinger.net>	<stdin>
<Larry.Finger@lwfinger.net>	<stdin>
<Larry.Finger@lwfinger.net>	<stdin>
<Larry.Finger@lwfinger.net>	<stdin>
<Larry.Finger@lwfinger.net>	<stdin>
<Larry.Finger@lwfinger.net>	<stdin>
<Larry.Finger@lwfinger.net>	<stdin>
<Larry.Finger@lwfinger.net>	<stdin>
<Larry.Finger@lwfinger.net>	<stdin>
<Larry.Finger@lwfinger.net>	<stdin>
<Larry.Finger@lwfinger.net>	<stdin>
<Larry.Finger@lwfinger.net>	<stdin>
<Larry.Finger@lwfinger.net>	<stdin>
<Larry.Finger@lwfinger.net>	<stdin>
<Larry.Finger@lwfinger.net>	<stdin>
<Larry.Finger@lwfinger.net>	<stdin>
<Larry.Finger@lwfinger.net>	<stdin>
<Larry.Finger@lwfinger.net>	<stdin>
<Larry.Finger@lwfinger.net>	<stdin>
<Larry.Finger@lwfinger.net>	<stdin>
<Larry.Finger@lwfinger.net>	<stdin>
<Larry.Finger@lwfinger.net>	<stdin>
<Larry.Finger@lwfinger.net>	<stdin>
<Larry.Finger@lwfinger.net>	<stdin>
<Larry.Finger@lwfinger.net>	<stdin>
<Larry.Finger@lwfinger.net>	<stdin>
<Larry.Finger@lwfinger.net>	<stdin>
<Larry.Finger@lwfinger.net>	<stdin>
<Larry.Finger@lwfinger.net>	<stdin>
<Larry.Finger@lwfinger.net>	<stdin>
<Larry.Finger@lwfinger.net>	<stdin>
<Larry.Finger@lwfinger.net>	<stdin>
<Larry.Finger@lwfinger.net>	<stdin>
<Larry.Finger@lwfinger.net>	<stdin>
<Larry.Finger@lwfinger.net>	<stdin>
<Larry.Finger@lwfinger.net>	<stdin>
<Larry.Finger@lwfinger.net>	<stdin>
<Larry.Finger@lwfinger.net>	<stdin>
<Larry.Finger@lwfinger.net>	<stdin>
<Larry.Finger@lwfinger.net>	<stdin>
<Larry.Finger@lwfinger.net>	<stdin>
<Larry.Finger@lwfinger.net>	<stdin>
<Larry.Finger@lwfinger.net>	<stdin>
<Larry.Finger@lwfinger.net>	<stdin>
<Larry.Finger@lwfinger.net>	<stdin>
<Larry.Finger@lwfinger.net>	<stdin>
<Larry.Finger@lwfinger.net>	<stdin>
<Larry.Finger@lwfinger.net>	<stdin>
<Larry.Finger@lwfinger.net>	<stdin>
<Larry.Finger@lwfinger.net>	<stdin>
<Larry.Finger@lwfinger.net>	<stdin>
<Larry.Finger@lwfinger.net>	<stdin>
<Larry.Finger@lwfinger.net>	<stdin>
<Larry.Finger@lwfinger.net>	<stdin>
<Larry.Finger@lwfinger.net>	<stdin>
<Larry.Finger@lwfinger.net>	<stdin>
<Larry.Finger@lwfinger.net>	<stdin>
<Larry.Finger@lwfinger.net>	<stdin>
<Larry.Finger@lwfinger.net>	<stdin>
<Larry.Finger@lwfinger.net>	<stdin>
<Larry.Finger@lwfinger.net>	<stdin>
<Larry.Finger@lwfinger.net>	<stdin>
<Larry.Finger@lwfinger.net>	<stdin>
<Larry.Finger@lwfinger.net>	<stdin>
<Larry.Finger@lwfinger.net>	<stdin>
<Larry.Finger@lwfinger.net>	<stdin>
<Larry.Finger@lwfinger.net>");	<stdin>
<Larry.Finger@lwfinger.net>");	<stdin>
<Larry.Finger@lwfinger.net>");	<stdin>
<Larry.Finger@lwfinger.net>");	<stdin>
<Larry.Finger@lwfinger.net>");	<stdin>
<P.B.Cheblakov@inp.nsk.su>	<stdin>
<P.B.Cheblakov@inp.nsk.su>");	<stdin>
<acme@conectiva.com.br>	<stdin>
<acme@conectiva.com.br>,"	<stdin>
<ajb@spheresystems.co.uk>	<stdin>
<ajk@comnets.uni-bremen.de>	<stdin>
<anantgole@ti.com>");	<stdin>
<anbadeol@gmail.com>");	<stdin>
<andi@lisas.de>	<stdin>
<andreas.jaggi@waterwave.ch>	<stdin>
<andreas.jaggi@waterwave.ch>	<stdin>
<andreas.jaggi@waterwave.ch>	<stdin>
<andreas.jaggi@waterwave.ch>	<stdin>
<andreas.jaggi@waterwave.ch>	<stdin>
<andreas@gaisler.com>	<stdin>
<andrey@cozybit.com>	<stdin>
<andrey@cozybit.com>	<stdin>
<andrey@cozybit.com>,	<stdin>
<arnd@arndb.de>	<stdin>
<arnd@arndb.de>");	<stdin>
<avolkov@varma-el.com>	<stdin>
<avolkov@varma-el.com>");	<stdin>
<avolkov@varma-el.com>,	<stdin>
<avolkov@varma-el.com>,	<stdin>
<avolkov@varma-el.com>,	<stdin>
<balrogg@gmail.com>	<stdin>
<becker@scyld.com>	<stdin>
<benh@kernel.crashing.org>");	<stdin>
<benh@kernel.crashing.org>)";	<stdin>
<bhupesh.sharma@st.com>	<stdin>
<bhupesh.sharma@st.com>	<stdin>
<bhupesh.sharma@st.com>	<stdin>
<bhupesh.sharma@st.com>");	<stdin>
<bhupesh.sharma@st.com>");	<stdin>
<bjd@jooz.net>	<stdin>
<bjorn@mork.no>	<stdin>
<bjorn@mork.no>	<stdin>
<bjorn@mork.no>");	<stdin>
<bjorn@mork.no>");	<stdin>
<breed@users.sourceforge.net>	<stdin>
<buytenh@wantstofly.org>");	<stdin>
<buytenh@wantstofly.org>");	<stdin>
<bystricky.juro@erd.epson.com>	<stdin>
<celston@katalix.com>,	<stdin>
<chaoming_li@realsil.com.cn>");	<stdin>
<chaoming_li@realsil.com.cn>");	<stdin>
<chaoming_li@realsil.com.cn>");	<stdin>
<chaoming_li@realsil.com.cn>");	<stdin>
<chaoming_li@realsil.com.cn>");	<stdin>
<chaoming_li@realsil.com.cn>");	<stdin>
<chripell@evolware.org>	<stdin>
<chripell@evolware.org>");	<stdin>
<colin@cozybit.com>	<stdin>
<colin@cozybit.com>	<stdin>
<colin@cozybit.com>");	<stdin>
<d.barow@option.com>	<stdin>
<dahinds@users.sourceforge.net>.	<stdin>
<dan@telent.net>");	<stdin>
<dan@telent.net>)";	<stdin>
<dhollis@davehollis.com>	<stdin>
<dhollis@davehollis.com>	<stdin>
<dhollis@davehollis.com>	<stdin>
<dhollis@davehollis.com>	<stdin>
<dhollis@davehollis.com>	<stdin>
<diego@giagio.com>	<stdin>
<diego@giagio.com>");	<stdin>
<disdos@traum404.de>	<stdin>
<disdos@traum404.de>");	<stdin>
<disdos@traum404.de>)";	<stdin>
<f.aben@option.com>	<stdin>
<federico.vaga@gmail.com>	<stdin>
<federico.vaga@gmail.com>");	<stdin>
<fventuri@mediaone.net>");	<stdin>
<gregkh@suse.de>	<stdin>
<gsuarez@smithmicro.com>");	<stdin>
<haas@ems-wuenche.com>");	<stdin>
<haas@ems-wuensche.com>	<stdin>
<haas@ems-wuensche.com>	<stdin>
<haas@ems-wuensche.com>");	<stdin>
<hans@esrac.ele.tue.nl>	<stdin>
<hermes@gibson.dropbear.id.au>	<stdin>
<hermes@gibson.dropbear.id.au>");	<stdin>
<hermes@gibson.dropbear.id.au>");	<stdin>
<hermes@gibson.dropbear.id.au>");	<stdin>
<hermes@gibson.dropbear.id.au>");	<stdin>
<hermes@gibson.dropbear.id.au>");	<stdin>
<hermes@gibson.dropbear.id.au>,	<stdin>
<hermes@gibson.dropbear.id.au>,	<stdin>
<hermes@gibson.dropbear.id.au>,	<stdin>
<hermes@gibson.dropbear.id.au>,"	<stdin>
<hjk@hansjkoch.de>	<stdin>
<hjk@hansjkoch.de>	<stdin>
<ilw@linux.intel.com>	<stdin>
<ilw@linux.intel.com>	<stdin>
<ilw@linux.intel.com>	<stdin>
<ilw@linux.intel.com>	<stdin>
<ilw@linux.intel.com>	<stdin>
<ilw@linux.intel.com>	<stdin>
<ilw@linux.intel.com>	<stdin>
<ilw@linux.intel.com>	<stdin>
<ilw@linux.intel.com>	<stdin>
<ilw@linux.intel.com>	<stdin>
<ilw@linux.intel.com>	<stdin>
<ilw@linux.intel.com>	<stdin>
<ilw@linux.intel.com>	<stdin>
<ilw@linux.intel.com>	<stdin>
<ilw@linux.intel.com>	<stdin>
<ilw@linux.intel.com>	<stdin>
<ilw@linux.intel.com>	<stdin>
<ilw@linux.intel.com>	<stdin>
<ilw@linux.intel.com>	<stdin>
<iws@ovro.caltech.edu>	<stdin>
<iws@ovro.caltech.edu>");	<stdin>
<j.dumon@option.com>	<stdin>
<j@w1.fi>	<stdin>
<jacmet@sunsite.dk>	<stdin>
<jacmet@sunsite.dk>");	<stdin>
<jamie.painter@iname.com>	<stdin>
<jamie.painter@iname.com>	<stdin>
<jamie.painter@iname.com>	<stdin>
<jamie.painter@iname.com>	<stdin>
<jlopex@gmail.com>	<stdin>
<joerg@dorchain.net>");	<stdin>
<joerg@dorchain.net>)";	<stdin>
<jreuter@yaina.de>");	<stdin>
<jreuter@yaina.de>");	<stdin>
<jt@hpl.hp.com>)";	<stdin>
<jussi.kivilinna@mbnet.fi>	<stdin>
<kernel@pengutronix.de>	<stdin>
<kernel@pengutronix.de>	<stdin>
<kernel@pengutronix.de>	<stdin>
<kernel@pengutronix.de>");	<stdin>
<kernel@pengutronix.de>,	<stdin>
<klaus.hitschler@gmx.de>	<stdin>
<klaus.hitschler@gmx.de>	<stdin>
<klaus.hitschler@gmx.de>	<stdin>
<kugelfang@gentoo.org>	<stdin>
<kugelfang@gentoo.org>	<stdin>
<kugelfang@gentoo.org>	<stdin>
<kugelfang@gentoo.org>	<stdin>
<kugelfang@gentoo.org>	<stdin>
<kurt.van.dijck@eia.be>");	<stdin>
<linux@sierrawireless.com>	<stdin>
<loz@holmes.demon.co.uk>	<stdin>
<loz@holmes.demon.co.uk>	<stdin>
<m@bues.ch>	<stdin>
<m@bues.ch>	<stdin>
<m@bues.ch>	<stdin>
<m@bues.ch>	<stdin>
<m@bues.ch>	<stdin>
<m@bues.ch>	<stdin>
<m@bues.ch>	<stdin>
<m@bues.ch>	<stdin>
<m@bues.ch>	<stdin>
<m@bues.ch>	<stdin>
<m@bues.ch>	<stdin>
<martin-langer@gmx.de>	<stdin>
<martin-langer@gmx.de>,	<stdin>
<martin-langer@gmx.de>,	<stdin>
<martin-langer@gmx.de>,	<stdin>
<martin-langer@gmx.de>,	<stdin>
<matthias.fuchs@esd.eu>");	<stdin>
<matthias.fuchs@esd.eu>,	<stdin>
<matthias.fuchs@esd.eu>,	<stdin>
<mhchen@golf.ccl.itri.org.tw>,	<stdin>
<mkl@pengutronix.de>");	<stdin>
<niemeyer@conectiva.com>	<stdin>
<niemeyer@conectiva.com>");	<stdin>
<noodles@earth.li>	<stdin>
<oliver.hartkopp@volkswagen.de>");	<stdin>
<olivier@sobrie.be>	<stdin>
<olivier@sobrie.be>");	<stdin>
<pavel@ucw.cz>	<stdin>
<pchang23@sbcglobal.net>	<stdin>
<pchang23@sbcglobal.net>	<stdin>
<pchang23@sbcglobal.net>	<stdin>
<pchang23@sbcglobal.net>	<stdin>
<pchang23@sbcglobal.net>	<stdin>
<per.dalen@cnw.se>	<stdin>
<per.dalen@cnw.se>");	<stdin>
<petkan@users.sourceforge.net>"	<stdin>
<plessing@ems-wuensche.com>	<stdin>
<plessing@ems-wuensche.com>	<stdin>
<plessing@ems-wuensche.com>	<stdin>
<plessing@ems-wuensche.com>");	<stdin>
<proski@gnu.org>	<stdin>
<proski@gnu.org>	<stdin>
<proski@gnu.org>	<stdin>
<proski@gnu.org>	<stdin>
<proski@gnu.org>	<stdin>
<proski@gnu.org>	<stdin>
<proski@gnu.org>");	<stdin>
<proski@gnu.org>,	<stdin>
<proski@gnu.org>,	<stdin>
<proski@gnu.org>,	<stdin>
<proski@gnu.org>,"	<stdin>
<proski@gnu.org>,"	<stdin>
<ralf@linux-mips.org>	<stdin>
<ralf@linux-mips.org>	<stdin>
<ralf@linux-mips.org>");	<stdin>
<ralf@linux-mips.org>");	<stdin>
<s.grosjean@peak-system.com>	<stdin>
<s.grosjean@peak-system.com>	<stdin>
<s.grosjean@peak-system.com>	<stdin>
<s.grosjean@peak-system.com>	<stdin>
<s.grosjean@peak-system.com>	<stdin>
<s.grosjean@peak-system.com>	<stdin>
<s.grosjean@peak-system.com>	<stdin>
<s.grosjean@peak-system.com>");	<stdin>
<s.grosjean@peak-system.com>");	<stdin>
<s.grosjean@peak-system.com>");	<stdin>
<s.hauer@pengutronix.de>	<stdin>
<s.hauer@pengutronix.de>	<stdin>
<s.hauer@pengutronix.de>	<stdin>
<s.hauer@pengutronix.de>");	<stdin>
<shirsch@adelphia.net>	<stdin>
<shirsch@adelphia.net>	<stdin>
<simon.kallweit@intefo.ch>	<stdin>
<simon.kallweit@intefo.ch>	<stdin>
<simon.kallweit@intefo.ch>	<stdin>
<simon@thekelleys.org.uk>	<stdin>
<socketcan@hartkopp.net>	<stdin>
<socketcan@hartkopp.net>	<stdin>
<socketcan@hartkopp.net>");	<stdin>
<spse@secret.org.uk>	<stdin>
<stefano.brivio@polimi.it>	<stdin>
<stefano.brivio@polimi.it>	<stdin>
<stefano.brivio@polimi.it>	<stdin>
<stefano.brivio@polimi.it>	<stdin>
<stefano.brivio@polimi.it>	<stdin>
<steve.glendinning@shawell.net>");	<stdin>
<thomas@x-berg.in-berlin.de>	<stdin>
<urs.thuermann@volkswagen.de>");	<stdin>
<vojtech@suse.cz>"	<stdin>
<vojtech@suse.cz>,	<stdin>
<w.sang@pengutronix.de>	<stdin>
<waltje@uWalt.NL.Mugnet.ORG>	<stdin>
<waltje@uwalt.nl.mugnet.org>	<stdin>
<waltje@uwalt.nl.mugnet.org>	<stdin>
<wg@grandegger.com>	<stdin>
<wg@grandegger.com>	<stdin>
<wg@grandegger.com>	<stdin>
<wg@grandegger.com>	<stdin>
<wg@grandegger.com>	<stdin>
<wg@grandegger.com>	<stdin>
<wg@grandegger.com>	<stdin>
<wg@grandegger.com>	<stdin>
<wg@grandegger.com>	<stdin>
<wg@grandegger.com>	<stdin>
<wg@grandegger.com>	<stdin>
<wg@grandegger.com>	<stdin>
<wg@grandegger.com>	<stdin>
<wg@grandegger.com>	<stdin>
<wg@grandegger.com>");	<stdin>
<wg@grandegger.com>");	<stdin>
<wg@grandegger.com>");	<stdin>
<wg@grandegger.com>");	<stdin>
<wg@grandegger.com>");	<stdin>
<wg@grandegger.com>");	<stdin>
<wg@grandegger.com>");	<stdin>
<wlanfae@realtek.com>	<stdin>
<wlanfae@realtek.com>	<stdin>
<wlanfae@realtek.com>	<stdin>
<wlanfae@realtek.com>	<stdin>
<wlanfae@realtek.com>	<stdin>
<wlanfae@realtek.com>	<stdin>
<wlanfae@realtek.com>	<stdin>
<wlanfae@realtek.com>	<stdin>
<wlanfae@realtek.com>	<stdin>
<wlanfae@realtek.com>	<stdin>
<wlanfae@realtek.com>	<stdin>
<wlanfae@realtek.com>	<stdin>
<wlanfae@realtek.com>	<stdin>
<wlanfae@realtek.com>	<stdin>
<wlanfae@realtek.com>	<stdin>
<wlanfae@realtek.com>	<stdin>
<wlanfae@realtek.com>	<stdin>
<wlanfae@realtek.com>	<stdin>
<wlanfae@realtek.com>	<stdin>
<wlanfae@realtek.com>	<stdin>
<wlanfae@realtek.com>	<stdin>
<wlanfae@realtek.com>	<stdin>
<wlanfae@realtek.com>	<stdin>
<wlanfae@realtek.com>	<stdin>
<wlanfae@realtek.com>	<stdin>
<wlanfae@realtek.com>	<stdin>
<wlanfae@realtek.com>	<stdin>
<wlanfae@realtek.com>	<stdin>
<wlanfae@realtek.com>	<stdin>
<wlanfae@realtek.com>	<stdin>
<wlanfae@realtek.com>	<stdin>
<wlanfae@realtek.com>	<stdin>
<wlanfae@realtek.com>	<stdin>
<wlanfae@realtek.com>	<stdin>
<wlanfae@realtek.com>	<stdin>
<wlanfae@realtek.com>	<stdin>
<wlanfae@realtek.com>	<stdin>
<wlanfae@realtek.com>	<stdin>
<wlanfae@realtek.com>	<stdin>
<wlanfae@realtek.com>	<stdin>
<wlanfae@realtek.com>	<stdin>
<wlanfae@realtek.com>	<stdin>
<wlanfae@realtek.com>	<stdin>
<wlanfae@realtek.com>	<stdin>
<wlanfae@realtek.com>	<stdin>
<wlanfae@realtek.com>	<stdin>
<wlanfae@realtek.com>	<stdin>
<wlanfae@realtek.com>	<stdin>
<wlanfae@realtek.com>	<stdin>
<wlanfae@realtek.com>	<stdin>
<wlanfae@realtek.com>	<stdin>
<wlanfae@realtek.com>	<stdin>
<wlanfae@realtek.com>	<stdin>
<wlanfae@realtek.com>	<stdin>
<wlanfae@realtek.com>	<stdin>
<wlanfae@realtek.com>	<stdin>
<wlanfae@realtek.com>	<stdin>
<wlanfae@realtek.com>	<stdin>
<wlanfae@realtek.com>	<stdin>
<wlanfae@realtek.com>	<stdin>
<wlanfae@realtek.com>	<stdin>
<wlanfae@realtek.com>	<stdin>
<wlanfae@realtek.com>	<stdin>
<wlanfae@realtek.com>	<stdin>
<wlanfae@realtek.com>	<stdin>
<wlanfae@realtek.com>	<stdin>
<wlanfae@realtek.com>	<stdin>
<wlanfae@realtek.com>	<stdin>
<wlanfae@realtek.com>	<stdin>
<wlanfae@realtek.com>	<stdin>
<wlanfae@realtek.com>	<stdin>
<wlanfae@realtek.com>	<stdin>
<wlanfae@realtek.com>	<stdin>
<wlanfae@realtek.com>	<stdin>
<wlanfae@realtek.com>	<stdin>
<wlanfae@realtek.com>	<stdin>
<wlanfae@realtek.com>	<stdin>
<wlanfae@realtek.com>	<stdin>
<wlanfae@realtek.com>	<stdin>
<wlanfae@realtek.com>	<stdin>
<wlanfae@realtek.com>	<stdin>
<wlanfae@realtek.com>	<stdin>
<wlanfae@realtek.com>	<stdin>
<wlanfae@realtek.com>	<stdin>
<wlanfae@realtek.com>	<stdin>
<wlanfae@realtek.com>	<stdin>
<wlanfae@realtek.com>	<stdin>
<wlanfae@realtek.com>	<stdin>
<wlanfae@realtek.com>	<stdin>
<wlanfae@realtek.com>	<stdin>
<wlanfae@realtek.com>	<stdin>
<wlanfae@realtek.com>	<stdin>
<wlanfae@realtek.com>	<stdin>
<wlanfae@realtek.com>	<stdin>
<wlanfae@realtek.com>	<stdin>
<wlanfae@realtek.com>	<stdin>
<wlanfae@realtek.com>	<stdin>
<wlanfae@realtek.com>	<stdin>
<wlanfae@realtek.com>	<stdin>
<wlanfae@realtek.com>	<stdin>
<wlanfae@realtek.com>	<stdin>
<wlanfae@realtek.com>	<stdin>
<wlanfae@realtek.com>	<stdin>
<wlanfae@realtek.com>	<stdin>
<wlanfae@realtek.com>	<stdin>
<wlanfae@realtek.com>	<stdin>
<wlanfae@realtek.com>	<stdin>
<wlanfae@realtek.com>	<stdin>
<wlanfae@realtek.com>	<stdin>
<wlanfae@realtek.com>	<stdin>
<wlanfae@realtek.com>	<stdin>
<wlanfae@realtek.com>	<stdin>
<wlanfae@realtek.com>	<stdin>
<wlanfae@realtek.com>	<stdin>
<wlanfae@realtek.com>	<stdin>
<wlanfae@realtek.com>	<stdin>
<wlanfae@realtek.com>	<stdin>
<wlanfae@realtek.com>	<stdin>
<wlanfae@realtek.com>	<stdin>
<wlanfae@realtek.com>	<stdin>
<wlanfae@realtek.com>	<stdin>
<wlanfae@realtek.com>");	<stdin>
<wlanfae@realtek.com>");	<stdin>
<wlanfae@realtek.com>");	<stdin>
<wlanfae@realtek.com>");	<stdin>
<wlanfae@realtek.com>");	<stdin>
<wlanfae@realtek.com>");	<stdin>
@0x%lX	<stdin>
@0x%p	<stdin>
@0x%p	<stdin>
@HWSIM_REGTEST_ALL:	<stdin>
@HWSIM_REGTEST_CUSTOM_WORLD:	<stdin>
@HWSIM_REGTEST_CUSTOM_WORLD_2:	<stdin>
@HWSIM_REGTEST_DIFF_COUNTRY:	<stdin>
@HWSIM_REGTEST_DISABLED:	<stdin>
@HWSIM_REGTEST_DRIVER_REG_ALL:	<stdin>
@HWSIM_REGTEST_DRIVER_REG_FOLLOW:	<stdin>
@HWSIM_REGTEST_STRICT_ALL:	<stdin>
@HWSIM_REGTEST_STRICT_AND_DRIVER_REG:	<stdin>
@HWSIM_REGTEST_STRICT_FOLLOW_:	<stdin>
@HWSIM_REGTEST_WORLD_ROAM:	<stdin>
@ad_info:	<stdin>
@addr:	<stdin>
@addr[ETH_ALEN]:	<stdin>
@address:	<stdin>
@aggregator's	<stdin>
@aggregator:	<stdin>
@aggregator:	<stdin>
@aggregator:	<stdin>
@aggregator:	<stdin>
@aggregator:	<stdin>
@aggregator:	<stdin>
@aggregator:	<stdin>
@aggregator:	<stdin>
@aggregator:	<stdin>
@aifsn:	<stdin>
@ant_a:	<stdin>
@ant_b:	<stdin>
@ant_c:	<stdin>
@bcast_id:	<stdin>
@bd:	<stdin>
@bd:	<stdin>
@bd_dma:	<stdin>
@beacon_time_tsf_bits:	<stdin>
@bf:	<stdin>
@bitmap0:	<stdin>
@bitmap1:	<stdin>
@block:	<stdin>
@bond's	<stdin>
@bond's	<stdin>
@bond,	<stdin>
@bond,	<stdin>
@bond.	<stdin>
@bond:	<stdin>
@bond:	<stdin>
@bond:	<stdin>
@bond:	<stdin>
@bond:	<stdin>
@bond:	<stdin>
@bond:	<stdin>
@bond:	<stdin>
@bond:	<stdin>
@bond:	<stdin>
@bond:	<stdin>
@bond:	<stdin>
@bond:	<stdin>
@bond:	<stdin>
@bond:	<stdin>
@bond:	<stdin>
@bond:	<stdin>
@bond:	<stdin>
@bond:	<stdin>
@bond_dev:	<stdin>
@bond_dev:	<stdin>
@boundary:	<stdin>
@bssid:	<stdin>
@callback:	<stdin>
@card_model:	<stdin>
@card_model:	<stdin>
@cardp:	<stdin>
@cardp:	<stdin>
@cardp:	<stdin>
@cardp:	<stdin>
@cf:	<stdin>
@ch:	<stdin>
@ch_info:	<stdin>
@channel	<stdin>
@channel:	<stdin>
@closed_fr_num	<stdin>
@closed_rb_num	<stdin>
@cmd:	<stdin>
@cmd:	<stdin>
@cmd:	<stdin>
@cmd_action:	<stdin>
@cnt:	<stdin>
@cnt:	<stdin>
@cnt:	<stdin>
@context:	<stdin>
@control:	<stdin>
@ct_kill_threshold:	<stdin>
@curlevel:	<stdin>
@curr	<stdin>
@curr	<stdin>
@curr->next	<stdin>
@curr:	<stdin>
@cw_max:	<stdin>
@cw_min:	<stdin>
@data:	<stdin>
@data:	<stdin>
@dbm:	<stdin>
@dest:	<stdin>
@dest:	<stdin>
@dev	<stdin>
@dev:	<stdin>
@dev:	<stdin>
@dev:	<stdin>
@dev:	<stdin>
@dev:	<stdin>
@dev:	<stdin>
@dev:	<stdin>
@dev_id	<stdin>
@dma_addr_cmd:	<stdin>
@dma_chnl_num:	<stdin>
@edca_txop:	<stdin>
@enable:	<stdin>
@enable:	<stdin>
@enable:	<stdin>
@extra:	<stdin>
@extra:	<stdin>
@finished_fr_num	<stdin>
@finished_rb_num	<stdin>
@flags:	<stdin>
@frame_count:	<stdin>
@free_count:	<stdin>
@fw_name_pre:	<stdin>
@fw_table:	<stdin>
@fw_table:	<stdin>
@helper:	<stdin>
@hi_n_len:	<stdin>
@ht40_channel:	<stdin>
@id:	<stdin>
@idx	<stdin>
@idx	<stdin>
@il	<stdin>
@il	<stdin>
@il	<stdin>
@il:	<stdin>
@il:	<stdin>
@il:	<stdin>
@il:	<stdin>
@il:	<stdin>
@il_priv,	<stdin>
@in_len.	<stdin>
@init:	<stdin>
@intf:	<stdin>
@intf:	<stdin>
@io:	<stdin>
@io:	<stdin>
@irq	<stdin>
@ivalue:	<stdin>
@lacp_fast:	<stdin>
@lacpdu:	<stdin>
@lacpdu:	<stdin>
@lacpdu:	<stdin>
@lacpdu:	<stdin>
@lacpdu:	<stdin>
@lacpdu:	<stdin>
@led_mode:	<stdin>
@length:	<stdin>
@link	<stdin>
@lo:	<stdin>
@mainfw:	<stdin>
@marker:	<stdin>
@marker:	<stdin>
@marker_info:	<stdin>
@max_rxq_log:	<stdin>
@max_rxq_size:	<stdin>
@max_stations:	<stdin>
@max_txq_num:	<stdin>
@max_xxx_size:	<stdin>
@maxlevel:	<stdin>
@mb:	<stdin>
@mb:	<stdin>
@mb:	<stdin>
@meta:	<stdin>
@minlevel:	<stdin>
@modify_mask:	<stdin>
@ms:	<stdin>
@n_bd	<stdin>
@n_bd	<stdin>
@nb:	<stdin>
@nb:	<stdin>
@need_update:	<stdin>
@need_update:	<stdin>
@new's	<stdin>
@new:	<stdin>
@new_slave	<stdin>
@new_slave:	<stdin>
@nf:	<stdin>
@offset:	<stdin>
@offset:	<stdin>
@oid	<stdin>
@oid:	<stdin>
@oid:	<stdin>
@out_val:	<stdin>
@p0:	<stdin>
@p0:	<stdin>
@p1:	<stdin>
@p1:	<stdin>
@p2:	<stdin>
@p2:	<stdin>
@par	<stdin>
@par	<stdin>
@par:	<stdin>
@param	<stdin>
@payload:	<stdin>
@payload:	<stdin>
@port	<stdin>
@port's	<stdin>
@port's	<stdin>
@port's	<stdin>
@port's	<stdin>
@port:	<stdin>
@port:	<stdin>
@port:	<stdin>
@port:	<stdin>
@port:	<stdin>
@port:	<stdin>
@port:	<stdin>
@port:	<stdin>
@port:	<stdin>
@port:	<stdin>
@port:	<stdin>
@port:	<stdin>
@port:	<stdin>
@port:	<stdin>
@port:	<stdin>
@port:	<stdin>
@port:	<stdin>
@port:	<stdin>
@port:	<stdin>
@port:	<stdin>
@port:	<stdin>
@port:	<stdin>
@port:	<stdin>
@port:	<stdin>
@port:	<stdin>
@port:	<stdin>
@port:	<stdin>
@port:	<stdin>
@port:	<stdin>
@port:	<stdin>
@port:	<stdin>
@port:	<stdin>
@port:	<stdin>
@pos:	<stdin>
@pos:	<stdin>
@pos:	<stdin>
@priv:	<stdin>
@priv:	<stdin>
@priv:	<stdin>
@priv:	<stdin>
@priv:	<stdin>
@priv:	<stdin>
@priv:	<stdin>
@priv:	<stdin>
@priv:	<stdin>
@priv:	<stdin>
@priv:	<stdin>
@priv:	<stdin>
@priv:	<stdin>
@priv:	<stdin>
@priv:	<stdin>
@priv:	<stdin>
@priv:	<stdin>
@priv:	<stdin>
@priv:	<stdin>
@priv:	<stdin>
@priv:	<stdin>
@priv:	<stdin>
@priv:	<stdin>
@priv:	<stdin>
@priv:	<stdin>
@priv:	<stdin>
@priv:	<stdin>
@priv:	<stdin>
@priv:	<stdin>
@priv:	<stdin>
@q:	<stdin>
@quota:	<stdin>
@rate:	<stdin>
@rate:	<stdin>
@rate_n_flags:	<stdin>
@rb_stts:	<stdin>
@rb_stts_dma:	<stdin>
@read:	<stdin>
@reg:	<stdin>
@reg:	<stdin>
@reg_comain	<stdin>
@reg_comain	<stdin>
@reply_len	<stdin>
@resp:	<stdin>
@resp:	<stdin>
@return	<stdin>
@rssi:	<stdin>
@rx_free:	<stdin>
@rx_page_order:	<stdin>
@rx_used:	<stdin>
@rx_wrt_ptr_reg:	<stdin>
@rxb:	<stdin>
@scan_antennas:	<stdin>
@scd_bc_tbls_size:	<stdin>
@scd_retry:	<stdin>
@sched_retry:	<stdin>
@size:	<stdin>
@size:	<stdin>
@size:	<stdin>
@skb:	<stdin>
@skb:	<stdin>
@skb:	<stdin>
@skb:	<stdin>
@skbs:	<stdin>
@slave	<stdin>
@slave	<stdin>
@slave	<stdin>
@slave's	<stdin>
@slave's	<stdin>
@slave's	<stdin>
@slave,	<stdin>
@slave.	<stdin>
@slave:	<stdin>
@slave:	<stdin>
@slave:	<stdin>
@slave:	<stdin>
@slave:	<stdin>
@slave:	<stdin>
@slave:	<stdin>
@slave:	<stdin>
@slave_dev:	<stdin>
@src:	<stdin>
@src:	<stdin>
@sta:	<stdin>
@sta_id:	<stdin>
@start:	<stdin>
@start:	<stdin>
@start_idx:	<stdin>
@stats:	<stdin>
@status:	<stdin>
@stop:	<stdin>
@struct	<stdin>
@sw_crypto:	<stdin>
@table:	<stdin>
@tfd_size:	<stdin>
@this	<stdin>
@this	<stdin>
@this	<stdin>
@this:	<stdin>
@tick_resolution:	<stdin>
@time_stamp:	<stdin>
@timer_type	<stdin>
@timer_type	<stdin>
@timer_type:	<stdin>
@todo	<stdin>
@todo	<stdin>
@totlen:	<stdin>
@try_count:	<stdin>
@tsf_bits	<stdin>
@tsf_bits	<stdin>
@tx/rx_chains_num:	<stdin>
@tx_fifo_id:	<stdin>
@txq	<stdin>
@txq:	<stdin>
@txq:	<stdin>
@txq_id:	<stdin>
@type:	<stdin>
@ucode_api_max	<stdin>
@ucode_api_max:	<stdin>
@ucode_api_min	<stdin>
@ucode_api_min:	<stdin>
@urb:	<stdin>
@urb:	<stdin>
@usesnr:	<stdin>
@val:	<stdin>
@val:	<stdin>
@valid_tx/rx_ant:	<stdin>
@value:	<stdin>
@value:	<stdin>
@vid:	<stdin>
@vid:	<stdin>
@vlan_id	<stdin>
@vlan_id:	<stdin>
@vlan_id:	<stdin>
@wait_for_ba:	<stdin>
@write:	<stdin>
Ignacio.Arenaza@studi.epfl.ch	<stdin>
Ignacio.Arenaza@studi.epfl.ch	<stdin>
can@3,100	<stdin>
can@3,100	<stdin>
dl1bke@db0pra.ampr.org	<stdin>
frible@teaser.fr");	<stdin>
fventuri@mediaone.net	<stdin>
hb9jnx@hb9w.che.eu");	<stdin>
hb9jnx@hb9w.che.eu");	<stdin>
hb9jnx@hb9w.che.eu");	<stdin>
hb9jnx@hb9w.che.eu");	<stdin>
hb9jnx@hb9w.che.eu");	<stdin>
jreuter@yaina.de	<stdin>
majordomo@vger.kernel.org	<stdin>
mhchen@golf.ccl.itri.org.tw	<stdin>
pisa@cmp.felk.cvut.cz	<stdin>
sailer@ife.ee.ethz.ch,	<stdin>
sailer@ife.ee.ethz.ch,	<stdin>
sailer@ife.ee.ethz.ch,	<stdin>
sailer@ife.ee.ethz.ch,	<stdin>
sailer@ife.ee.ethz.ch,	<stdin>
tadavis@lbl.gov	<stdin>
tadavis@lbl.gov	<stdin>
tadavis@lbl.gov.	<stdin>
