"dm-devel@redhat.com"	<stdin>
(abraham.manu@gmail.com)	<stdin>
(abraham.manu@gmail.com)	<stdin>
(abraham.manu@gmail.com)	<stdin>
(abraham.manu@gmail.com)	<stdin>
(abraham.manu@gmail.com)	<stdin>
(abraham.manu@gmail.com)	<stdin>
(abraham.manu@gmail.com)	<stdin>
(abraham.manu@gmail.com)	<stdin>
(abraham.manu@gmail.com)	<stdin>
(abraham.manu@gmail.com)	<stdin>
(abraham.manu@gmail.com)	<stdin>
(abraham.manu@gmail.com)	<stdin>
(abraham.manu@gmail.com)	<stdin>
(abraham.manu@gmail.com)	<stdin>
(abraham.manu@gmail.com)	<stdin>
(abraham.manu@gmail.com)	<stdin>
(abraham.manu@gmail.com)	<stdin>
(abraham.manu@gmail.com)	<stdin>
(abraham.manu@gmail.com)	<stdin>
(abraham.manu@gmail.com)	<stdin>
(abraham.manu@gmail.com)	<stdin>
(abraham.manu@gmail.com)	<stdin>
(abraham.manu@gmail.com)	<stdin>
(abraham.manu@gmail.com)	<stdin>
(abraham.manu@gmail.com)	<stdin>
(abraham.manu@gmail.com)	<stdin>
(abraham.manu@gmail.com)	<stdin>
(abraham.manu@gmail.com)	<stdin>
(abraham.manu@gmail.com)	<stdin>
(abraham.manu@gmail.com)	<stdin>
(abraham.manu@gmail.com)	<stdin>
(abraham.manu@gmail.com)	<stdin>
(abraham.manu@gmail.com)	<stdin>
(abraham.manu@gmail.com)	<stdin>
(abraham.manu@gmail.com)	<stdin>
(abraham.manu@gmail.com)	<stdin>
(abraham.manu@gmail.com)	<stdin>
(abraham.manu@gmail.com)	<stdin>
(abraham.manu@gmail.com)	<stdin>
(abraham.manu@gmail.com)	<stdin>
(abraham.manu@gmail.com)	<stdin>
(abraham.manu@gmail.com)	<stdin>
(chr.schmidt@tu-bs.de)	<stdin>
(kmalkki@cc.hut.fi)!	<stdin>
(manu@kromtek.com)	<stdin>
(manu@kromtek.com)	<stdin>
(manu@kromtek.com)	<stdin>
(manu@kromtek.com)	<stdin>
(mchehab@infradead.org)	<stdin>
(mchehab@infradead.org)	<stdin>
(mocm@metzlerbros.de)	<stdin>
(mocm@thp.uni-koeln.de)	<stdin>
(mocm@thp.uni-koeln.de)	<stdin>
(mocm@thp.uni-koeln.de)	<stdin>
(mocm@thp.uni-koeln.de)	<stdin>
(mocm@thp.uni-koeln.de)	<stdin>
(ptb@ot.uc3m.es)	<stdin>
(ptb@ot.uc3m.es)	<stdin>
(rjkm@metzlerbros.de)	<stdin>
(rjkm@thp.uni-koeln.de)	<stdin>
(rjkm@thp.uni-koeln.de)	<stdin>
(rjkm@thp.uni-koeln.de)	<stdin>
(rjkm@thp.uni-koeln.de)	<stdin>
(rjkm@thp.uni-koeln.de)	<stdin>
(rjkm@thp.uni-koeln.de)	<stdin>
(rjkm@thp.uni-koeln.de)	<stdin>
(rjkm@thp.uni-koeln.de)	<stdin>
(rubini@linux.it)	<stdin>
(sirspiritus@yandex.ru)	<stdin>
23msec@48KHz	<stdin>
<Eugene.Yudin@gmail.com>	<stdin>
<HarryH@Royal.Net>	<stdin>
<Jens.Toerring@physik.fu-berlin.de>	<stdin>
<Jens.Toerring@physik.fu-berlin.de>	<stdin>
<Jens.Toerring@physik.fu-berlin.de>	<stdin>
<Jens.Toerring@physik.fu-berlin.de>	<stdin>
<VANDROVE@vc.cvut.cz>	<stdin>
<adq@lidskialf.net>	<stdin>
<adq_dvb@lidskialf.net>	<stdin>
<adq_dvb@lidskialf.net>	<stdin>
<adrian@humboldt.co.uk	<stdin>
<alain@topaze.homeip.net>	<stdin>
<alan@fromorbit.com>	<stdin>
<alan@fromorbit.com>]	<stdin>
<aloha_cn@hotmail.com>	<stdin>
<alpha292@bremen.or.jp>	<stdin>
<alpha292@bremen.or.jp>	<stdin>
<ambx1@neo.rr.com>	<stdin>
<ambx1@neo.rr.com>	<stdin>
<ambx1@neo.rr.com>	<stdin>
<ambx1@neo.rr.com>	<stdin>
<ambx1@neo.rr.com>	<stdin>
<ambx1@neo.rr.com>	<stdin>
<ambx1@neo.rr.com>	<stdin>
<ambx1@neo.rr.com>	<stdin>
<ambx1@neo.rr.com>	<stdin>
<ambx1@neo.rr.com>	<stdin>
<ambx1@neo.rr.com>	<stdin>
<ambx1@neo.rr.com>	<stdin>
<ambx1@neo.rr.com>	<stdin>
<ambx1@neo.rr.com>	<stdin>
<ambx1@neo.rr.com>	<stdin>
<ambx1@neo.rr.com>	<stdin>
<anders.wallin@windriver.com>	<stdin>
<andmike@linux.vnet.ibm.com>	<stdin>
<andmike@linux.vnet.ibm.com>	<stdin>
<andreas.kies@windriver.com>	<stdin>
<andy@smile.org.ua>	<stdin>
<aquette@free.fr>	<stdin>
<arapov@mail.ru>	<stdin>
<attila.kondoros@chello.hu>	<stdin>
<avarakin@hotmail.com>	<stdin>
<awalls@md.metrocast.net>	<stdin>
<awalls@md.metrocast.net>	<stdin>
<awalls@md.metrocast.net>	<stdin>
<awalls@md.metrocast.net>	<stdin>
<awalls@md.metrocast.net>	<stdin>
<awalls@md.metrocast.net>	<stdin>
<awalls@md.metrocast.net>	<stdin>
<awalls@md.metrocast.net>	<stdin>
<awalls@md.metrocast.net>	<stdin>
<awalls@md.metrocast.net>	<stdin>
<awalls@md.metrocast.net>	<stdin>
<awalls@md.metrocast.net>	<stdin>
<awalls@md.metrocast.net>	<stdin>
<awalls@md.metrocast.net>	<stdin>
<awalls@md.metrocast.net>	<stdin>
<awalls@md.metrocast.net>	<stdin>
<awalls@md.metrocast.net>	<stdin>
<awalls@md.metrocast.net>	<stdin>
<awalls@md.metrocast.net>	<stdin>
<awalls@md.metrocast.net>	<stdin>
<awalls@md.metrocast.net>	<stdin>
<awalls@md.metrocast.net>	<stdin>
<awalls@md.metrocast.net>	<stdin>
<awalls@md.metrocast.net>	<stdin>
<awalls@md.metrocast.net>	<stdin>
<awalls@md.metrocast.net>	<stdin>
<awalls@md.metrocast.net>	<stdin>
<awalls@md.metrocast.net>	<stdin>
<awalls@md.metrocast.net>	<stdin>
<awalls@md.metrocast.net>	<stdin>
<awalls@md.metrocast.net>	<stdin>
<awalls@md.metrocast.net>	<stdin>
<awalls@md.metrocast.net>	<stdin>
<awalls@md.metrocast.net>	<stdin>
<awalls@md.metrocast.net>	<stdin>
<awalls@md.metrocast.net>	<stdin>
<awalls@md.metrocast.net>	<stdin>
<awalls@md.metrocast.net>	<stdin>
<awalls@md.metrocast.net>	<stdin>
<awalls@md.metrocast.net>.	<stdin>
<awold@bigfoot.com>	<stdin>
<ays14@yandex.ru>	<stdin>
<barry.scott@onelan.co.uk>	<stdin>
<bchristo@inf.ufsm.br>	<stdin>
<bchristo@inf.ufsm.br>	<stdin>
<bchristo@inf.ufsm.br>	<stdin>
<berberic@forwiss.uni-passau.de>	<stdin>
<bhalerao.1@osu.edu>	<stdin>
<bin@bash.info>	<stdin>
<bjorn.helgaas@hp.com>	<stdin>
<bjorn.helgaas@hp.com>	<stdin>
<bjorn.helgaas@hp.com>	<stdin>
<bjorn.helgaas@hp.com>	<stdin>
<bjorn.helgaas@hp.com>	<stdin>
<bjorn.helgaas@hp.com>	<stdin>
<bjorn.helgaas@hp.com>	<stdin>
<bjorn.helgaas@hp.com>	<stdin>
<bjorn.helgaas@hp.com>	<stdin>
<bogovic@bk.ru>	<stdin>
<boris@xtalk.msk.su>	<stdin>
<c.pascoe@itee.uq.edu.au>	<stdin>
<c.pascoe@itee.uq.edu.au>	<stdin>
<c.pascoe@itee.uq.edu.au>	<stdin>
<c.pascoe@itee.uq.edu.au>	<stdin>
<c.pascoe@itee.uq.edu.au>	<stdin>
<c.pascoe@itee.uq.edu.au>");	<stdin>
<c.pascoe@itee.uq.edu.au>");	<stdin>
<c.pascoe@itee.uq.edu.au>");	<stdin>
<c@groovy.org>	<stdin>
<c@groovy.org>	<stdin>
<c@groovy.org>	<stdin>
<c@groovy.org>	<stdin>
<c@groovy.org>	<stdin>
<c@groovy.org>	<stdin>
<c@groovy.org>	<stdin>
<c@groovy.org>	<stdin>
<c@groovy.org>	<stdin>
<c@groovy.org>	<stdin>
<c@groovy.org>	<stdin>
<c@groovy.org>	<stdin>
<c@groovy.org>	<stdin>
<c@groovy.org>	<stdin>
<c@groovy.org>	<stdin>
<c@groovy.org>	<stdin>
<castet.matthieu@free.fr>	<stdin>
<castet.matthieu@free.fr>	<stdin>
<chris@vislab.usyd.edu.au>	<stdin>
<christophe@saout.de>	<stdin>
<christophe@saout.de>	<stdin>
<christophe@saout.de>");	<stdin>
<christophe@saout.de>");	<stdin>
<ckunz@mail.arc.nasa.gov>	<stdin>
<claas@bigfoot.com>,	<stdin>
<clacoux@ifeelgood.org>	<stdin>
<clemens@endorphin.org>	<stdin>
<cpinkham@bc2va.org>	<stdin>
<cpinkham@bc2va.org>	<stdin>
<cpinkham@bc2va.org>	<stdin>
<cryptdragoon@gmail.com>	<stdin>
<cus@fazekas.hu>	<stdin>
<d.belimov@gmail.com>	<stdin>
<d.belimov@gmail.com>	<stdin>
<d.belimov@gmail.com>	<stdin>
<d.belimov@gmail.com>	<stdin>
<d.belimov@gmail.com>	<stdin>
<d.belimov@gmail.com>	<stdin>
<d.belimov@gmail.com>	<stdin>
<d.belimov@gmail.com>	<stdin>
<d.belimov@gmail.com>	<stdin>
<d.belimov@gmail.com>	<stdin>
<d.belimov@gmail.com>	<stdin>
<d.belimov@gmail.com>	<stdin>
<d.belimov@gmail.com>	<stdin>
<d.belimov@gmail.com>	<stdin>
<d.belimov@gmail.com>	<stdin>
<d.belimov@gmail.com>	<stdin>
<d.belimov@gmail.com>	<stdin>
<d.belimov@gmail.com>	<stdin>
<d.belimov@gmail.com>	<stdin>
<d.belimov@gmail.com>	<stdin>
<d.belimov@gmail.com>	<stdin>
<d.belimov@gmail.com>	<stdin>
<d.belimov@gmail.com>	<stdin>
<d.belimov@gmail.com>	<stdin>
<dafastidio@libero.it>	<stdin>
<dahinds@users.sourceforge.net>	<stdin>
<dan.sheridan@contact.org.uk>	<stdin>
<daniel.herrington@home.com>	<stdin>
<darekk@automex.pl>	<stdin>
<darekk@automex.pl>	<stdin>
<darekk@automex.pl>	<stdin>
<david@2gen.com>	<stdin>
<db260179@hotmail.com>	<stdin>
<debief@telemsa.com>*/	<stdin>
<deejay@westel900.net	<stdin>
<dheitmueller@kernellabs.com>	<stdin>
<dheitmueller@kernellabs.com>	<stdin>
<dheitmueller@kernellabs.com>	<stdin>
<dheitmueller@kernellabs.com>	<stdin>
<dheitmueller@kernellabs.com>	<stdin>
<dm-devel@redhat.com>");	<stdin>
<dm-devel@redhat.com>");	<stdin>
<dm-devel@redhat.com>");	<stdin>
<dm-devel@redhat.com>");	<stdin>
<dm-devel@redhat.com>");	<stdin>
<dm-devel@redhat.com>");	<stdin>
<dm-devel@redhat.com>");	<stdin>
<dm-devel@redhat.com>");	<stdin>
<dm-devel@redhat.com>");	<stdin>
<dvb@jesson.eclipse.co.uk>	<stdin>
<dylan_walkden@hotmail.com>	<stdin>
<emard@softhome.net>	<stdin>
<fedora@barber-family.id.au>	<stdin>
<geby@volny.cz>	<stdin>
<geby@volny.cz>	<stdin>
<gerald.teschl@univie.ac.at>	<stdin>
<gerald.teschl@univie.ac.at>	<stdin>
<gerald.teschl@univie.ac.at>	<stdin>
<gerald.teschl@univie.ac.at>	<stdin>
<gert.vervoort@philips.com>	<stdin>
<gianci@libero.it>	<stdin>
<gjheydon@bigfoot.com	<stdin>
<greg.wickham@grangenet.net>	<stdin>
<hannibal@megapolis.pl>	<stdin>
<harri.helmroos@pp.inet.fi>	<stdin>
<hch@infradead.org>	<stdin>
<hch@infradead.org>	<stdin>
<hch@infradead.org>	<stdin>
<hch@infradead.org>	<stdin>
<helge.jensen@slog.dk>	<stdin>
<hellfire@sedez.iq.pl>	<stdin>
<hiep.huynh@conexant.com>	<stdin>
<hiep.huynh@conexant.com>	<stdin>
<hiep.huynh@conexant.com>	<stdin>
<hiep.huynh@conexant.com>	<stdin>
<hiep.huynh@conexant.com>	<stdin>
<hiep.huynh@conexant.com>	<stdin>
<hiep.huynh@conexant.com>	<stdin>
<hiep.huynh@conexant.com>	<stdin>
<hiep.huynh@conexant.com>	<stdin>
<hiep.huynh@conexant.com>	<stdin>
<hiep.huynh@conexant.com>	<stdin>
<hiep.huynh@conexant.com>	<stdin>
<hiep.huynh@conexant.com>	<stdin>
<hiep.huynh@conexant.com>	<stdin>
<hiep.huynh@conexant.com>	<stdin>
<hiep.huynh@conexant.com>	<stdin>
<hiep.huynh@conexant.com>");	<stdin>
<hiep.huynh@conexant.com>");	<stdin>
<hiep.huynh@conexant.com>");	<stdin>
<hiep.huynh@conexant.com>");	<stdin>
<hiep.huynh@conexant.com>,	<stdin>
<hiep.huynh@conexant.com>,	<stdin>
<hiep.huynh@conexant.com>,	<stdin>
<hiep.huynh@conexant.com>,	<stdin>
<hiep.huynh@conexant.com>,	<stdin>
<hiep.huynh@conexant.com>,	<stdin>
<hiranotaka@zng.info>	<stdin>
<hiranotaka@zng.info>	<stdin>
<hiranotaka@zng.info>	<stdin>
<hiranotaka@zng.info>	<stdin>
<hiranotaka@zng.info>	<stdin>
<hiranotaka@zng.info>");	<stdin>
<holger@convergence.de>	<stdin>
<holger@convergence.de>,	<stdin>
<hpa@zytor.com>	<stdin>
<hverkuil@xs4all.nl>	<stdin>
<hverkuil@xs4all.nl>	<stdin>
<hverkuil@xs4all.nl>	<stdin>
<hverkuil@xs4all.nl>	<stdin>
<hverkuil@xs4all.nl>	<stdin>
<hverkuil@xs4all.nl>	<stdin>
<hverkuil@xs4all.nl>	<stdin>
<hverkuil@xs4all.nl>	<stdin>
<hverkuil@xs4all.nl>	<stdin>
<hverkuil@xs4all.nl>	<stdin>
<hverkuil@xs4all.nl>	<stdin>
<hverkuil@xs4all.nl>	<stdin>
<hverkuil@xs4all.nl>	<stdin>
<hverkuil@xs4all.nl>	<stdin>
<hverkuil@xs4all.nl>	<stdin>
<hverkuil@xs4all.nl>	<stdin>
<hverkuil@xs4all.nl>	<stdin>
<hverkuil@xs4all.nl>	<stdin>
<hverkuil@xs4all.nl>	<stdin>
<hverkuil@xs4all.nl>	<stdin>
<hverkuil@xs4all.nl>	<stdin>
<hverkuil@xs4all.nl>	<stdin>
<hverkuil@xs4all.nl>	<stdin>
<hverkuil@xs4all.nl>	<stdin>
<hverkuil@xs4all.nl>	<stdin>
<hverkuil@xs4all.nl>	<stdin>
<hverkuil@xs4all.nl>	<stdin>
<hverkuil@xs4all.nl>	<stdin>
<hverkuil@xs4all.nl>	<stdin>
<hverkuil@xs4all.nl>	<stdin>
<hverkuil@xs4all.nl>	<stdin>
<hverkuil@xs4all.nl>	<stdin>
<hverkuil@xs4all.nl>	<stdin>
<hverkuil@xs4all.nl>	<stdin>
<hverkuil@xs4all.nl>	<stdin>
<hverkuil@xs4all.nl>	<stdin>
<hverkuil@xs4all.nl>	<stdin>
<hverkuil@xs4all.nl>	<stdin>
<hverkuil@xs4all.nl>	<stdin>
<hverkuil@xs4all.nl>	<stdin>
<hverkuil@xs4all.nl>	<stdin>
<hverkuil@xs4all.nl>	<stdin>
<hverkuil@xs4all.nl>	<stdin>
<hverkuil@xs4all.nl>	<stdin>
<hverkuil@xs4all.nl>	<stdin>
<hverkuil@xs4all.nl>	<stdin>
<hverkuil@xs4all.nl>	<stdin>
<hverkuil@xs4all.nl>	<stdin>
<hverkuil@xs4all.nl>	<stdin>
<hverkuil@xs4all.nl>	<stdin>
<hverkuil@xs4all.nl>	<stdin>
<hverkuil@xs4all.nl>	<stdin>
<hverkuil@xs4all.nl>	<stdin>
<hverkuil@xs4all.nl>	<stdin>
<hverkuil@xs4all.nl>	<stdin>
<hverkuil@xs4all.nl>	<stdin>
<hverkuil@xs4all.nl>	<stdin>
<hverkuil@xs4all.nl>	<stdin>
<hverkuil@xs4all.nl>	<stdin>
<hverkuil@xs4all.nl>	<stdin>
<hverkuil@xs4all.nl>	<stdin>
<hverkuil@xs4all.nl>	<stdin>
<hverkuil@xs4all.nl>	<stdin>
<hverkuil@xs4all.nl>	<stdin>
<hverkuil@xs4all.nl>	<stdin>
<hverkuil@xs4all.nl>	<stdin>
<hverkuil@xs4all.nl>	<stdin>
<hverkuil@xs4all.nl>	<stdin>
<hverkuil@xs4all.nl>	<stdin>
<hverkuil@xs4all.nl>	<stdin>
<hverkuil@xs4all.nl>	<stdin>
<ian@iarmst.demon.co.uk>	<stdin>
<ian@iarmst.demon.co.uk>	<stdin>
<ian@iarmst.demon.co.uk>	<stdin>
<igk@igk.ru>	<stdin>
<igk@igk.ru>	<stdin>
<igk@igk.ru>	<stdin>
<igk@igk.ru>	<stdin>
<iguchi@tahoo.org>	<stdin>
<isely@pobox.com>	<stdin>
<jakob@ostenfeld.dk>	<stdin>
<jannik@techfak.uni-bielefeld.de>	<stdin>
<jcendan@lycos.es>	<stdin>
<jd.louw@mweb.co.za	<stdin>
<jelle@foks.us>	<stdin>
<jelle@foks.us>	<stdin>
<jelle@foks.us>");	<stdin>
<jelle@foks.us>,	<stdin>
<jkt@Helius.COM>	<stdin>
<jn@it.swin.edu.au>	<stdin>
<jolt@tuxbox.org>	<stdin>
<jolt@tuxbox.org>	<stdin>
<jolt@tuxbox.org>");	<stdin>
<jorge@dti2.net>	<stdin>
<jrwebb@qwest.net>	<stdin>
<julian.calaby@gmail.com>	<stdin>
<justin@suntiger.ee.up.ac.za>	<stdin>
<k-ueda@ct.jp.nec.com>");	<stdin>
<kai.germaschewski@gmx.de>	<stdin>
<kai.germaschewski@gmx.de>	<stdin>
<kai.germaschewski@gmx.de>	<stdin>
<kai.germaschewski@gmx.de>	<stdin>
<kraxel@bytesex.org>	<stdin>
<kraxel@bytesex.org>	<stdin>
<kraxel@bytesex.org>	<stdin>
<kraxel@bytesex.org>	<stdin>
<kraxel@bytesex.org>	<stdin>
<kraxel@bytesex.org>	<stdin>
<kraxel@bytesex.org>	<stdin>
<kraxel@bytesex.org>	<stdin>
<kraxel@bytesex.org>	<stdin>
<kraxel@bytesex.org>	<stdin>
<kraxel@bytesex.org>	<stdin>
<kraxel@bytesex.org>	<stdin>
<kraxel@bytesex.org>	<stdin>
<kraxel@bytesex.org>	<stdin>
<kraxel@bytesex.org>	<stdin>
<kraxel@bytesex.org>	<stdin>
<kraxel@bytesex.org>	<stdin>
<kraxel@bytesex.org>	<stdin>
<kraxel@bytesex.org>	<stdin>
<kraxel@bytesex.org>	<stdin>
<kraxel@bytesex.org>	<stdin>
<kraxel@bytesex.org>	<stdin>
<kraxel@bytesex.org>	<stdin>
<kraxel@bytesex.org>	<stdin>
<kraxel@bytesex.org>	<stdin>
<kraxel@bytesex.org>	<stdin>
<kraxel@bytesex.org>	<stdin>
<kraxel@bytesex.org>	<stdin>
<kraxel@bytesex.org>	<stdin>
<kraxel@bytesex.org>	<stdin>
<kraxel@bytesex.org>	<stdin>
<kraxel@bytesex.org>	<stdin>
<kraxel@bytesex.org>	<stdin>
<kraxel@bytesex.org>	<stdin>
<kraxel@bytesex.org>	<stdin>
<kraxel@bytesex.org>	<stdin>
<kraxel@goldbach.in-berlin.de>	<stdin>
<kraxel@goldbach.in-berlin.de>	<stdin>
<kraxel@goldbach.in-berlin.de>	<stdin>
<kraxel@goldbach.in-berlin.de>	<stdin>
<laredo@gnu.org>	<stdin>
<lion-simba@pridelands.ru>	<stdin>
<lion-simba@pridelands.ru>	<stdin>
<liplianin@tut.by>	<stdin>
<llc@linuxfans.org>	<stdin>
<luc@e-magic.be>	<stdin>
<maacruz@navegalia.com>	<stdin>
<maacruz@navegalia.com>	<stdin>
<marco_manenti@colman.it>	<stdin>
<markal@iname.com>	<stdin>
<masaki@btree.org>	<stdin>
<masaki@btree.org>	<stdin>
<matte.az@nospam.libero.it>	<stdin>
<mauelshagen@redhat.com>");	<stdin>
<mauro@lacy.com.ar>	<stdin>
<maz@gloups.fdn.fr>	<stdin>
<maz@gloups.fdn.fr>	<stdin>
<mchehab@infradead.org	<stdin>
<mchehab@infradead.org>	<stdin>
<mchehab@infradead.org>	<stdin>
<mchehab@infradead.org>	<stdin>
<mchehab@infradead.org>	<stdin>
<mchehab@infradead.org>	<stdin>
<mchehab@infradead.org>	<stdin>
<mchehab@infradead.org>	<stdin>
<mchehab@infradead.org>	<stdin>
<mchehab@infradead.org>");	<stdin>
<md@Linux.IT>	<stdin>
<medisoft@alohabbs.org.mx>	<stdin>
<mhenson@clarityvi.com>	<stdin>
<michael@5dot1.de>,	<stdin>
<michael@5dot1.de>,	<stdin>
<michael@mihu.de>	<stdin>
<michael@mihu.de>	<stdin>
<michael@mihu.de>	<stdin>
<michael@mihu.de>	<stdin>
<michael@mihu.de>	<stdin>
<michael@mihu.de>	<stdin>
<michael@mihu.de>	<stdin>
<michael@mihu.de>");	<stdin>
<michael@mihu.de>");	<stdin>
<michael@mihu.de>");	<stdin>
<miguel@cetuc.puc-rio.br>	<stdin>
<mike@baikov.com>	<stdin>
<miku@iki.fi>,	<stdin>
<mistert@rz.fh-augsburg.de>	<stdin>
<mistert@rz.fh-augsburg.de>	<stdin>
<mistert@rz.fh-augsburg.de>	<stdin>
<mistert@rz.fh-augsburg.de>	<stdin>
<mistert@rz.fh-augsburg.de>	<stdin>
<mistert@rz.fh-augsburg.de>	<stdin>
<mj@ucw.cz>	<stdin>
<mkrufky@m1k.net>	<stdin>
<mkrufky@m1k.net>	<stdin>
<mo_fedotov@mail.ru>	<stdin>
<mocm@thp.uni-koeln.de>	<stdin>
<moscoso@TopoLogica.com>	<stdin>
<mottus@physic.ut.ee>	<stdin>
<mpatocka@redhat.com>	<stdin>
<mpatocka@redhat.com>	<stdin>
<mpatocka@redhat.com>	<stdin>
<mpatocka@redhat.com>");	<stdin>
<mrtorrent@asu.edu>	<stdin>
<msb@chromium.org>");	<stdin>
<mschimek@gmx.at>	<stdin>
<mschimek@gmx.at>	<stdin>
<msmith@cbnco.com>	<stdin>
<neilb@cse.unsw.edu.au>	<stdin>
<neilb@cse.unsw.edu.au>.	<stdin>
<normanjonas@arcor.de>	<stdin>
<nsabbi@tiscali.it>	<stdin>
<nshmyrev@yandex.ru>	<stdin>
<nshmyrev@yandex.ru>	<stdin>
<o.endriss@gmx.de>	<stdin>
<o.endriss@gmx.de>	<stdin>
<o.endriss@gmx.de>");	<stdin>
<o.endriss@gmx.de>,	<stdin>
<obi@linuxtv.org>	<stdin>
<obi@linuxtv.org>");	<stdin>
<ognjen@logosoft.ba>	<stdin>
<ognjen@logosoft.ba>	<stdin>
<ogournet@anevia.com>	<stdin>
<oldium.pro@seznam.cz>	<stdin>
<pardo.bsso@gmail.com>	<stdin>
<pasky@ucw.cz>	<stdin>
<patrick.boettcher@desy.de>"	<stdin>
<pb@nexus.co.uk>	<stdin>
<peg00625@nifty.com>	<stdin>
<perex@perex.cz>	<stdin>
<perex@perex.cz>	<stdin>
<perex@perex.cz>	<stdin>
<perex@perex.cz>	<stdin>
<perex@perex.cz>	<stdin>
<perex@perex.cz>	<stdin>
<perex@perex.cz>	<stdin>
<perex@perex.cz>	<stdin>
<perex@perex.cz>	<stdin>
<perex@perex.cz>	<stdin>
<perex@perex.cz>");	<stdin>
<perex@perex.cz>");	<stdin>
<perex@perex.cz>");	<stdin>
<perex@perex.cz>");	<stdin>
<peter.hettkamp@htp-tel.de>	<stdin>
<peter.hettkamp@htp-tel.de>	<stdin>
<peter.hettkamp@htp-tel.de>	<stdin>
<peter.missel@onlinehome.de>	<stdin>
<peter.missel@onlinehome.de>	<stdin>
<peterd@pnd-pc.demon.co.uk>	<stdin>
<peterd@pnd-pc.demon.co.uk>	<stdin>
<peterd@pnd-pc.demon.co.uk>	<stdin>
<peterd@pnd-pc.demon.co.uk>	<stdin>
<peterd@pnd-pc.demon.co.uk>	<stdin>
<philb@gnu.org>	<stdin>
<photon38@pchome.com.tw>	<stdin>
<ptb@it.uc3m.es>	<stdin>
<pvosnova@gmail.com>	<stdin>
<pzalac@gmail.com>	<stdin>
<qgehali@uni-miskolc.hu>	<stdin>
<rdeza@unav.es>	<stdin>
<rgooch@atnf.csiro.au>	<stdin>
<ricky@osser.se>	<stdin>
<ricky@osser.se>	<stdin>
<rjkm@metzlerbros.de>	<stdin>
<rjkm@metzlerbros.de>	<stdin>
<rjkm@metzlerbros.de>	<stdin>
<rjkm@metzlerbros.de>	<stdin>
<rjkm@metzlerbros.de>	<stdin>
<rjkm@metzlerbros.de>	<stdin>
<rjkm@metzlerbros.de>	<stdin>
<rjkm@metzlerbros.de>	<stdin>
<rjkm@metzlerbros.de>	<stdin>
<rjkm@metzlerbros.de>	<stdin>
<rjkm@thp.uni-koeln.de>	<stdin>
<romka@kolos.math.uni.lodz.pl>	<stdin>
<rosterm@uni-muenster.de>	<stdin>
<salmandany@yahoo.fr>	<stdin>
<sergiofortier@yahoo.com.br>	<stdin>
<shaohua.li@intel.com>	<stdin>
<shaohua.li@intel.com>	<stdin>
<shu.lin@conexant.com>	<stdin>
<shu.lin@conexant.com>	<stdin>
<shu.lin@conexant.com>	<stdin>
<shu.lin@conexant.com>	<stdin>
<shu.lin@conexant.com>	<stdin>
<shu.lin@conexant.com>	<stdin>
<shu.lin@conexant.com>,	<stdin>
<shu.lin@conexant.com>,	<stdin>
<shu.lin@conexant.com>,	<stdin>
<shu.lin@conexant.com>,	<stdin>
<shu.lin@conexant.com>,	<stdin>
<shu.lin@conexant.com>,	<stdin>
<shu.lin@conexant.com>,	<stdin>
<shu.lin@conexant.com>,	<stdin>
<shu.lin@conexant.com>,	<stdin>
<shu.lin@conexant.com>,	<stdin>
<shu.lin@conexant.com>,	<stdin>
<shu.lin@conexant.com>,	<stdin>
<shu.lin@conexant.com>,	<stdin>
<shu.lin@conexant.com>,	<stdin>
<shu.lin@conexant.com>,	<stdin>
<shu.lin@conexant.com>,	<stdin>
<sian@big.or.jp>	<stdin>
<sian@big.or.jp>	<stdin>
<skiv@orel.ru>	<stdin>
<skiv@orel.ru>	<stdin>
<software@dspdesign.com>	<stdin>
<sorman@gmail.com>	<stdin>
<sorman@gmail.com>	<stdin>
<stelian@popies.net>	<stdin>
<stelian@popies.net>	<stdin>
<stelian@popies.net>");	<stdin>
<steve@equiinet.com>	<stdin>
<stevenrwalter@gmail.com>	<stdin>
<stoth@hauppauge.com>	<stdin>
<stoth@linuxtv.org>	<stdin>
<stoth@linuxtv.org>	<stdin>
<stoth@linuxtv.org>	<stdin>
<stoth@linuxtv.org>	<stdin>
<stoth@linuxtv.org>	<stdin>
<stoth@linuxtv.org>	<stdin>
<stoth@linuxtv.org>	<stdin>
<stoth@linuxtv.org>	<stdin>
<stoth@linuxtv.org>.	<stdin>
<surge@goliath.homeunix.org>	<stdin>
<sven@upb.de>	<stdin>
<sylvain.pasche@gmail.com>	<stdin>
<tadachi@tadachi-net.com>	<stdin>
<tadachi@tadachi-net.com>	<stdin>
<tadachi@tadachi-net.com>	<stdin>
<tcwan@cs.usm.my>	<stdin>
<temnota@kmv.ru>	<stdin>
<temnota@kmv.ru>	<stdin>
<temnota@kmv.ru>	<stdin>
<temnota@kmv.ru>	<stdin>
<temnota@kmv.ru>	<stdin>
<temnota@kmv.ru>	<stdin>
<temnota@kmv.ru>	<stdin>
<temnota@kmv.ru>	<stdin>
<temnota@kmv.ru>	<stdin>
<temnota@kmv.ru>	<stdin>
<temnota@kmv.ru>	<stdin>
<terrywu2009@gmail.com>	<stdin>
<terrywu2009@gmail.com>	<stdin>
<timothy.lee@siriushk.com>	<stdin>
<tom@lpsg.demon.co.uk>	<stdin>
<tomlohave@gmail.com>	<stdin>
<tomy@users.sourceforge.jp>	<stdin>
<tomy@users.sourceforge.jp>	<stdin>
<tomy@users.sourceforge.jp>	<stdin>
<tomy@users.sourceforge.jp>	<stdin>
<tomy@users.sourceforge.jp>	<stdin>
<tridge@valinux.com>	<stdin>
<tridge@valinux.com>	<stdin>
<v4l@cerqueira.org>	<stdin>
<v4l@cerqueira.org>	<stdin>
<vaka@newmail.ru>	<stdin>
<video4linux@haydon.net>	<stdin>
<vlad.lungu@windriver.com>	<stdin>
<vladimir@iqmedia.com>	<stdin>
<wad@chromium.org>");	<stdin>
<wbrack@mmm.com.hk>	<stdin>
<wbrack@mmm.com.hk>	<stdin>
<wojo@frokaschwei.de>	<stdin>
<xyzzy@speakeasy.org>	<stdin>
<yourst@yourst.com>	<stdin>
<yurij@naturesoft.net>	<stdin>
<yurij@naturesoft.net>	<stdin>
<yurij@naturesoft.net>	<stdin>
<zac@zacbowling.com>	<stdin>
<zolotarev_andrey@mail.ru>	<stdin>
<zyngier@ufr-info-p7.ibp.fr>	<stdin>
<zyngier@ufr-info-p7.ibp.fr>	<stdin>
<zzam@gentoo.org>	<stdin>
<zzam@gentoo.org>	<stdin>
@0x%02x",	<stdin>
@0x%02x",	<stdin>
@0x28	<stdin>
@0xb0	<stdin>
@active:	<stdin>
@adapter:	<stdin>
@bcount:	<stdin>
@bio	<stdin>
@biovec:	<stdin>
@biovec:	<stdin>
@biovec:	<stdin>
@bitmap	<stdin>
@bvm:	<stdin>
@bvm:	<stdin>
@bvm:	<stdin>
@can_block	<stdin>
@cap:	<stdin>
@capture:	<stdin>
@card:	<stdin>
@card:	<stdin>
@card:	<stdin>
@card:	<stdin>
@check_state_compute_result	<stdin>
@check_state_compute_run	<stdin>
@check_state_idle	<stdin>
@check_state_result	<stdin>
@check_state_run	<stdin>
@clink:	<stdin>
@closing:	<stdin>
@config:	<stdin>
@count:	<stdin>
@count:	<stdin>
@create	<stdin>
@ctrl:	<stdin>
@ctrl:	<stdin>
@ctrl:	<stdin>
@data	<stdin>
@data:	<stdin>
@data:	<stdin>
@data_size:	<stdin>
@decoder:	<stdin>
@dev,	<stdin>
@dev:	<stdin>
@dev:	<stdin>
@dev:	<stdin>
@dev:	<stdin>
@dev:	<stdin>
@dev:	<stdin>
@dev:	<stdin>
@dev:	<stdin>
@dev:	<stdin>
@dev:	<stdin>
@dev:	<stdin>
@dev:	<stdin>
@dev:	<stdin>
@dir:	<stdin>
@disabled:	<stdin>
@dma_spare:	<stdin>
@drv:	<stdin>
@drv:	<stdin>
@ent:	<stdin>
@error_type:	<stdin>
@event_type:	<stdin>
@events:	<stdin>
@f:	<stdin>
@f:	<stdin>
@f:	<stdin>
@f:	<stdin>
@field:	<stdin>
@file:	<stdin>
@file:	<stdin>
@file:	<stdin>
@file:	<stdin>
@file:	<stdin>
@file:	<stdin>
@file:	<stdin>
@file:	<stdin>
@file:	<stdin>
@file:	<stdin>
@file:	<stdin>
@file:	<stdin>
@file:	<stdin>
@file:	<stdin>
@file:	<stdin>
@file:	<stdin>
@file:	<stdin>
@file:	<stdin>
@file:	<stdin>
@file:	<stdin>
@file:	<stdin>
@file:	<stdin>
@file:	<stdin>
@file:	<stdin>
@file:	<stdin>
@format:	<stdin>
@from:	<stdin>
@head:	<stdin>
@i:	<stdin>
@i:	<stdin>
@id:	<stdin>
@id:	<stdin>
@id:	<stdin>
@inc_children	<stdin>
@inp:	<stdin>
@input:	<stdin>
@iomem:	<stdin>
@irq:	<stdin>
@kobj:	<stdin>
@lpi:	<stdin>
@luid:	<stdin>
@m:	<stdin>
@m:	<stdin>
@max_held_per_thread	<stdin>
@md:	<stdin>
@mem_spare:	<stdin>
@member:	<stdin>
@ms	<stdin>
@mutex:	<stdin>
@name	<stdin>
@name:	<stdin>
@name:	<stdin>
@name:	<stdin>
@nr_valid_paths:	<stdin>
@num	<stdin>
@nywhere	<stdin>
@orig	<stdin>
@orig	<stdin>
@overflow:	<stdin>
@p:	<stdin>
@p:	<stdin>
@p:	<stdin>
@p:	<stdin>
@path:	<stdin>
@pdev	<stdin>
@pdev:	<stdin>
@pdev:	<stdin>
@pdev:	<stdin>
@pdev:	<stdin>
@pin:	<stdin>
@pin:	<stdin>
@pos:	<stdin>
@ppos:	<stdin>
@priv:	<stdin>
@priv:	<stdin>
@priv:	<stdin>
@priv:	<stdin>
@priv:	<stdin>
@priv:	<stdin>
@priv:	<stdin>
@priv:	<stdin>
@priv:	<stdin>
@priv:	<stdin>
@priv:	<stdin>
@priv:	<stdin>
@priv:	<stdin>
@priv:	<stdin>
@priv:	<stdin>
@priv:	<stdin>
@priv:	<stdin>
@priv:	<stdin>
@priv:	<stdin>
@priv:	<stdin>
@pwr_name:	<stdin>
@pwr_pin:	<stdin>
@q:	<stdin>
@q:	<stdin>
@q:	<stdin>
@rdata:	<stdin>
@rdata_size:	<stdin>
@region_size:	<stdin>
@register_save_area:	<stdin>
@request	<stdin>
@request_type:	<stdin>
@reset_name:	<stdin>
@reset_pin:	<stdin>
@result	<stdin>
@result	<stdin>
@root	<stdin>
@root	<stdin>
@root	<stdin>
@rs	<stdin>
@rs	<stdin>
@set:	<stdin>
@sh	<stdin>
@size:	<stdin>
@slock:	<stdin>
@srcs	<stdin>
@started:	<stdin>
@state:	<stdin>
@std:	<stdin>
@std:	<stdin>
@std:	<stdin>
@std:	<stdin>
@superblock	<stdin>
@target	<stdin>
@target2	<stdin>
@tcount:	<stdin>
@td	<stdin>
@td	<stdin>
@td->open_count.	<stdin>
@ti:	<stdin>
@type:	<stdin>
@type:	<stdin>
@type_name	<stdin>
@type_name	<stdin>
@users:	<stdin>
@uuid:	<stdin>
@uuid:	<stdin>
@v4l2_dev:	<stdin>
@vb:	<stdin>
@vb:	<stdin>
@vb:	<stdin>
@vb_vidq:	<stdin>
@video_dev:	<stdin>
@vip:	<stdin>
@vma:	<stdin>
@vq:	<stdin>
@vq:	<stdin>
@vq:	<stdin>
@vq:	<stdin>
@wait:	<stdin>
@zero_sum_result	<stdin>
D.Heer@Phytec.de	<stdin>
D.Heer@Phytec.de	<stdin>
D.Heer@Phytec.de	<stdin>
KOMORIYA<komoriya@paken.org>	<stdin>
KOMORIYA<komoriya@paken.org>	<stdin>
KOMORIYA<komoriya@paken.org>	<stdin>
Kees.Blom@cwi.nl	<stdin>
M.Klahr@phytec.de	<stdin>
TV-@nywhere	<stdin>
TV-@nywhere",	<stdin>
TV@Anywhere	<stdin>
TV@nyware	<stdin>
TV@nywhere	<stdin>
TV@nywhere	<stdin>
TV@nywhere	<stdin>
TV@nywhere	<stdin>
TV@nywhere	<stdin>
TV@nywhere	<stdin>
TV@nywhere	<stdin>
TV@nywhere	<stdin>
andre.schwarz@matrix-vision.de	<stdin>
andre.schwarz@matrix-vision.de	<stdin>
andreas.kretschmer@web.de	<stdin>
codemaster@webgeeks.be	<stdin>
emhn@usb.ve	<stdin>
hartmut.hackmann@t-online.de*/	<stdin>
jon@gte.esi.us.es	<stdin>
linux-dvb@linuxtv.org	<stdin>
linux-media@vger.kernel.org.\n"	<stdin>
linux-media@vger.kernel.org\n");	<stdin>
luke@syseng.anu.edu.au	<stdin>
r3pek@r3pek.homelinux.org	<stdin>
tboult@eecs.lehigh.edu	<stdin>
toshii@netbsd.org	<stdin>
{"@X@0001",	<stdin>
