"<Jens.Osterkamp@de.ibm.com>");	<stdin>
(0x%llx@0x%llx)	<stdin>
(Alain.Malek@cryogen.ch)\n";	<stdin>
(Alain.Malek@cryogen.com)	<stdin>
(alexandre.bounine@tundra.com)	<stdin>
(alfred@ccac.rwth-aachen.de,	<stdin>
(andy@waldorf-gmbh.de)	<stdin>
(andy@waldorf-gmbh.de)	<stdin>
(andy@waldorf-gmbh.de)	<stdin>
(andy@waldorf-gmbh.de)	<stdin>
(becker@cesdis.gsfc.nasa.gov)\n";	<stdin>
(becker@cesdis.gsfc.nasa.gov)\n";	<stdin>
(becker@cesdis.gsfc.nasa.gov)\n";	<stdin>
(becker@cesdis.gsfc.nasa.gov)\n";	<stdin>
(becker@cesdis.gsfc.nasa.gov)\n";	<stdin>
(becker@cesdis.gsfc.nasa.gov)\n";	<stdin>
(becker@cesdis.gsfc.nasa.gov)\n";	<stdin>
(becker@cesdis.gsfc.nasa.gov)\n";	<stdin>
(becker@cesdis.gsfc.nasa.gov)\n";	<stdin>
(becker@cesdis.gsfc.nasa.gov)\n";	<stdin>
(becker@cesdis.gsfc.nasa.gov)\n";	<stdin>
(becker@scyld.com)\n";	<stdin>
(becker@scyld.com)\n";	<stdin>
(bhabbott@inhb.co.nz)	<stdin>
(bj0rn@blox.se)\n";	<stdin>
(cmhuang@sis.com.tw)	<stdin>
(davem@redhat.com)	<stdin>
(davem@redhat.com)	<stdin>
(davem@redhat.com)	<stdin>
(davem@redhat.com)	<stdin>
(deller@gmx.de)	<stdin>
(deller@gmx.de)	<stdin>
(dmalek@jlc.net)	<stdin>
(dmalek@jlc.net).	<stdin>
(dmalek@jlc.net).	<stdin>
(galak@kernel.crashing.org)	<stdin>
(gerg@snapgear.com)	<stdin>
(gerg@snapgear.com)	<stdin>
(gerg@snapgear.com)	<stdin>
(hippm@informatik.uni-tuebingen.de)	<stdin>
(hippm@informatik.uni-tuebingen.de)	<stdin>
(hippm@informatik.uni-tuebingen.de)	<stdin>
(hippm@informatik.uni-tuebingen.de)	<stdin>
(im14u2c@primenet.com)	<stdin>
(jchapman@katalix.com)	<stdin>
(jgarzik@pobox.com)	<stdin>
(jgarzik@pobox.com)	<stdin>
(jgarzik@pobox.com)");	<stdin>
(jolt@tuxbox.org)	<stdin>
(jvbest@wi.leidenuniv.nl)	<stdin>
(kong.lai@tundra.com)	<stdin>
(lcchang@sis.com.tw)	<stdin>
(lcs@sis.com.tw)	<stdin>
(manfred@colorfullife.com)	<stdin>
(mchan@broadcom.com)	<stdin>
(mchan@broadcom.com)	<stdin>
(mjacob@nas.nasa.gov).	<stdin>
(nbd@openwrt.org)	<stdin>
(nelson@crnwyr.com)	<stdin>
(ollie@sis.com.tw)	<stdin>
(ollie@sis.com.tw)	<stdin>
(p2@mind.be)	<stdin>
(phdm@macqel.be)	<stdin>
(pp@ee.oulu.fi)	<stdin>
(sammy@oh.verio.com)	<stdin>
(sammy@oh.verio.com)	<stdin>
(sammy@sammy.net)	<stdin>
(sammy@sammy.net)	<stdin>
(thockin@sun.com)	<stdin>
(tie-fei.zang@freescale.com)	<stdin>
(topi@susanna.oulu.fi)	<stdin>
(tsbogend@alpha.franken.de)	<stdin>
(tsbogend@alpha.franken.de)	<stdin>
(tsbogend@alpha.franken.de)	<stdin>
(tsbogend@bigbug.franken.de)	<stdin>
(zongxi@broadcom.com");	<stdin>
(zongxi@broadcom.com)	<stdin>
<Alan.Cox@linux.org>	<stdin>
<Austin.Donnelly@cl.cam.ac.uk>.	<stdin>
<Austin.Donnelly@cl.cam.ac.uk>.	<stdin>
<Jens.Osterkamp@de.ibm.com>	<stdin>
<Jens.Osterkamp@de.ibm.com>	<stdin>
<Jens.Osterkamp@de.ibm.com>	<stdin>
<Jens.Osterkamp@de.ibm.com>	<stdin>
<Jens.Osterkamp@de.ibm.com>	<stdin>
<LeoLi@freescale.com>	<stdin>
<Matt_Domsch@dell.com>	<stdin>
<Matt_Domsch@dell.com>	<stdin>
<Matt_Domsch@dell.com>	<stdin>
<Olav.Kvittem@uninett.no>	<stdin>
<Piete.Brooks@cl.cam.ac.uk>	<stdin>
<Zlatko.Calusic@CARNet.hr>	<stdin>
<acme@conectiva.com.br>	<stdin>
<afleming@freescale.com>	<stdin>
<afleming@freescale.com>	<stdin>
<akropel1@rochester.rr.com>	<stdin>
<akropel1@rochester.rr.com>	<stdin>
<akropel1@rochester.rr.com>	<stdin>
<akuster@mvista.com>	<stdin>
<akuster@mvista.com>	<stdin>
<alan@lxorguk.ukuu.org.uk>	<stdin>
<alan@lxorguk.ukuu.org.uk>	<stdin>
<alan@lxorguk.ukuu.org.uk>	<stdin>
<alan@lxorguk.ukuu.org.uk>	<stdin>
<anantgole@ti.com>");	<stdin>
<ard@cstmel.nl.eu.org>");	<stdin>
<ard@murphy.nl>|<ard@cstmel.hobby.nl>|<ard@cstmel.nl.eu.org>	<stdin>
<arjanv@redhat.com>");	<stdin>
<baba@beckman.uiuc.edu>.	<stdin>
<bcrl@kvack.org>");	<stdin>
<becker@scyld.com>");	<stdin>
<becker@scyld.com>");	<stdin>
<becker@scyld.com>");	<stdin>
<becker@scyld.com>");	<stdin>
<becker@scyld.com>)	<stdin>
<becker@scyld.com>)	<stdin>
<becker@scyld.com>)	<stdin>
<becker@scyld.com>\n"	<stdin>
<becker@scyld.com>\n"	<stdin>
<becker@super.org>	<stdin>
<becker@super.org>	<stdin>
<becker@super.org>	<stdin>
<belliott@accessone.com>.	<stdin>
<ben@simtec.co.uk>	<stdin>
<ben@simtec.co.uk>	<stdin>
<ben@simtec.co.uk>");	<stdin>
<benh@kernel.crashing.org>	<stdin>
<benh@kernel.crashing.org>	<stdin>
<benh@kernel.crashing.org>	<stdin>
<bhat@mundook.cs.mu.OZ.AU>	<stdin>
<bj0rn@blox.se>	<stdin>
<bj0rn@blox.se>\n";	<stdin>
<bkm@star.rl.ac.uk>.	<stdin>
<bkm@star.rl.ac.uk>.	<stdin>
<blogic@openwrt.org>	<stdin>
<blogic@openwrt.org>");	<stdin>
<caronni@nessie.cs.id.ethz.ch>	<stdin>
<ccollins@pcug.org.au>	<stdin>
<cesarb@cesarb.net>");	<stdin>
<chaithrika@ti.com>");	<stdin>
<chessman@tux.org>");	<stdin>
<chris@cosy.sbg.ac.at>.	<stdin>
<chris@zankel.net>	<stdin>
<cmetz@inner.net>.	<stdin>
<cmhuang@sis.com.tw>,	<stdin>
<cooldavid@cooldavid.org>	<stdin>
<cooldavid@cooldavid.org>	<stdin>
<cort@cs.nmt.edu>	<stdin>
<craigs@ineluki.apana.org.au>	<stdin>
<cross@gweep.lkg.dec.com>.	<stdin>
<csd@microplex.com>	<stdin>
<csd@microplex.com>	<stdin>
<csnook@redhat.com>	<stdin>
<csnook@redhat.com>	<stdin>
<csnook@redhat.com>	<stdin>
<csnook@redhat.com>	<stdin>
<csnook@redhat.com>	<stdin>
<csnook@redhat.com>	<stdin>
<csnook@redhat.com>	<stdin>
<csnook@redhat.com>");	<stdin>
<csnook@redhat.com>,	<stdin>
<cyril@ti.com>");	<stdin>
<dahinds@users.sourceforge.net>");	<stdin>
<dahinds@users.sourceforge.net>");	<stdin>
<dan@embeddededge.com>	<stdin>
<davej@suse.de>	<stdin>
<delchini@lpnp09.in2p3.fr>	<stdin>
<dfarnsworth@mvista.com>	<stdin>
<dfarnsworth@mvista.com>	<stdin>
<dg@emlix.com>	<stdin>
<dhd@debian.org>	<stdin>
<dhd@debian.org>	<stdin>
<dhd@debian.org>	<stdin>
<dhd@debian.org>:	<stdin>
<e1000-devel@lists.sourceforge.net>	<stdin>
<e1000-devel@lists.sourceforge.net>	<stdin>
<e1000-devel@lists.sourceforge.net>	<stdin>
<e1000-devel@lists.sourceforge.net>	<stdin>
<e1000-devel@lists.sourceforge.net>	<stdin>
<e1000-devel@lists.sourceforge.net>	<stdin>
<e1000-devel@lists.sourceforge.net>	<stdin>
<e1000-devel@lists.sourceforge.net>	<stdin>
<e1000-devel@lists.sourceforge.net>	<stdin>
<e1000-devel@lists.sourceforge.net>	<stdin>
<e1000-devel@lists.sourceforge.net>	<stdin>
<e1000-devel@lists.sourceforge.net>	<stdin>
<e1000-devel@lists.sourceforge.net>	<stdin>
<e1000-devel@lists.sourceforge.net>	<stdin>
<e1000-devel@lists.sourceforge.net>	<stdin>
<e1000-devel@lists.sourceforge.net>	<stdin>
<e1000-devel@lists.sourceforge.net>	<stdin>
<e1000-devel@lists.sourceforge.net>	<stdin>
<e1000-devel@lists.sourceforge.net>	<stdin>
<e1000-devel@lists.sourceforge.net>	<stdin>
<e1000-devel@lists.sourceforge.net>	<stdin>
<e1000-devel@lists.sourceforge.net>	<stdin>
<e1000-devel@lists.sourceforge.net>	<stdin>
<e1000-devel@lists.sourceforge.net>	<stdin>
<e1000-devel@lists.sourceforge.net>	<stdin>
<e1000-devel@lists.sourceforge.net>	<stdin>
<e1000-devel@lists.sourceforge.net>	<stdin>
<e1000-devel@lists.sourceforge.net>	<stdin>
<e1000-devel@lists.sourceforge.net>	<stdin>
<e1000-devel@lists.sourceforge.net>	<stdin>
<e1000-devel@lists.sourceforge.net>	<stdin>
<e1000-devel@lists.sourceforge.net>	<stdin>
<e1000-devel@lists.sourceforge.net>	<stdin>
<e1000-devel@lists.sourceforge.net>	<stdin>
<e1000-devel@lists.sourceforge.net>	<stdin>
<e1000-devel@lists.sourceforge.net>	<stdin>
<e1000-devel@lists.sourceforge.net>	<stdin>
<e1000-devel@lists.sourceforge.net>	<stdin>
<e1000-devel@lists.sourceforge.net>	<stdin>
<e1000-devel@lists.sourceforge.net>	<stdin>
<e1000-devel@lists.sourceforge.net>	<stdin>
<e1000-devel@lists.sourceforge.net>	<stdin>
<e1000-devel@lists.sourceforge.net>	<stdin>
<e1000-devel@lists.sourceforge.net>	<stdin>
<e1000-devel@lists.sourceforge.net>	<stdin>
<e1000-devel@lists.sourceforge.net>	<stdin>
<e1000-devel@lists.sourceforge.net>	<stdin>
<e1000-devel@lists.sourceforge.net>	<stdin>
<e1000-devel@lists.sourceforge.net>	<stdin>
<e1000-devel@lists.sourceforge.net>	<stdin>
<e1000-devel@lists.sourceforge.net>	<stdin>
<e1000-devel@lists.sourceforge.net>	<stdin>
<e1000-devel@lists.sourceforge.net>	<stdin>
<e1000-devel@lists.sourceforge.net>	<stdin>
<e1000-devel@lists.sourceforge.net>	<stdin>
<e1000-devel@lists.sourceforge.net>	<stdin>
<e1000-devel@lists.sourceforge.net>	<stdin>
<e1000-devel@lists.sourceforge.net>	<stdin>
<e1000-devel@lists.sourceforge.net>	<stdin>
<e1000-devel@lists.sourceforge.net>	<stdin>
<e1000-devel@lists.sourceforge.net>	<stdin>
<e1000-devel@lists.sourceforge.net>	<stdin>
<e1000-devel@lists.sourceforge.net>	<stdin>
<e1000-devel@lists.sourceforge.net>	<stdin>
<e1000-devel@lists.sourceforge.net>	<stdin>
<e1000-devel@lists.sourceforge.net>	<stdin>
<e1000-devel@lists.sourceforge.net>	<stdin>
<e1000-devel@lists.sourceforge.net>	<stdin>
<e1000-devel@lists.sourceforge.net>	<stdin>
<e1000-devel@lists.sourceforge.net>	<stdin>
<e1000-devel@lists.sourceforge.net>	<stdin>
<e1000-devel@lists.sourceforge.net>	<stdin>
<e1000-devel@lists.sourceforge.net>	<stdin>
<e1000-devel@lists.sourceforge.net>	<stdin>
<e1000-devel@lists.sourceforge.net>	<stdin>
<e1000-devel@lists.sourceforge.net>	<stdin>
<e1000-devel@lists.sourceforge.net>	<stdin>
<e1000-devel@lists.sourceforge.net>	<stdin>
<e1000-devel@lists.sourceforge.net>	<stdin>
<e1000-devel@lists.sourceforge.net>	<stdin>
<e1000-devel@lists.sourceforge.net>	<stdin>
<e1000-devel@lists.sourceforge.net>	<stdin>
<e1000-devel@lists.sourceforge.net>	<stdin>
<e1000-devel@lists.sourceforge.net>	<stdin>
<e1000-devel@lists.sourceforge.net>	<stdin>
<e1000-devel@lists.sourceforge.net>	<stdin>
<e1000-devel@lists.sourceforge.net>	<stdin>
<e1000-devel@lists.sourceforge.net>	<stdin>
<e1000-devel@lists.sourceforge.net>	<stdin>
<e1000-devel@lists.sourceforge.net>	<stdin>
<e1000-devel@lists.sourceforge.net>	<stdin>
<e1000-devel@lists.sourceforge.net>	<stdin>
<e1000-devel@lists.sourceforge.net>	<stdin>
<e1000-devel@lists.sourceforge.net>	<stdin>
<e1000-devel@lists.sourceforge.net>	<stdin>
<e1000-devel@lists.sourceforge.net>");	<stdin>
<earl@exis.net>.	<stdin>
<ebs@ebshome.net>	<stdin>
<ebs@ebshome.net>	<stdin>
<ebs@ebshome.net>	<stdin>
<ecd@skynet.be>.	<stdin>
<eilong@broadcom.com>	<stdin>
<eilong@broadcom.com>	<stdin>
<eilong@broadcom.com>	<stdin>
<eilong@broadcom.com>	<stdin>
<eilong@broadcom.com>	<stdin>
<eilong@broadcom.com>	<stdin>
<eilong@broadcom.com>	<stdin>
<eilong@broadcom.com>	<stdin>
<eilong@broadcom.com>	<stdin>
<eilong@broadcom.com>	<stdin>
<eilong@broadcom.com>	<stdin>
<eilong@broadcom.com>	<stdin>
<eilong@broadcom.com>	<stdin>
<eilong@broadcom.com>	<stdin>
<eirik@netcom.com>.	<stdin>
<ejka@imfi.kspu.ru>");	<stdin>
<eugene.surovegin@zultys.com>	<stdin>
<eugene.surovegin@zultys.com>	<stdin>
<eugene.surovegin@zultys.com>	<stdin>
<france@handhelds.org>	<stdin>
<g.thomas@opengroup.org>.	<stdin>
<g.thomas@opengroup.org>.	<stdin>
<geert@linux-m68k.org>	<stdin>
<geert@linux-m68k.org>	<stdin>
<gerg@uclinux.org>	<stdin>
<gerg@uclinux.org>");	<stdin>
<gerg@uclinux.org>";	<stdin>
<gridish@freescale.com>	<stdin>
<gridish@freescale.com>	<stdin>
<heiko@colossus.escape.de>.	<stdin>
<heiko@colossus.escape.de>.	<stdin>
<help@myri.com>	<stdin>
<hfhsu@sis.com.tw>	<stdin>
<jaggy@purplet.demon.co.uk>.	<stdin>
<jal@cs.brown.edu>.	<stdin>
<jari@markkus2.fimr.fi>	<stdin>
<jari@markkus2.fimr.fi>	<stdin>
<jcliburn@gmail.com>	<stdin>
<jcliburn@gmail.com>	<stdin>
<jcliburn@gmail.com>	<stdin>
<jcliburn@gmail.com>	<stdin>
<jcliburn@gmail.com>	<stdin>
<jcliburn@gmail.com>");	<stdin>
<jeff@router.patch.net>:	<stdin>
<jeremy@suite.sw.oz.au>	<stdin>
<jestabro@amt.tay1.dec.com>	<stdin>
<jestabro@ant.tay1.dec.com>.	<stdin>
<jgarzik@pobox.com>	<stdin>
<jgarzik@pobox.com>	<stdin>
<jgarzik@pobox.com>	<stdin>
<jgarzik@pobox.com>	<stdin>
<jgarzik@pobox.com>	<stdin>
<jgarzik@pobox.com>");	<stdin>
<jie.yang@atheros.com>	<stdin>
<jie.yang@atheros.com>");	<stdin>
<jlaiho@ichaos.nullnet.fi>	<stdin>
<jo@ice.dillingen.baynet.de>.	<stdin>
<joakim.tjernlund@lumentis.se>	<stdin>
<john.wright@hp.com>.	<stdin>
<jos@xos.nl>	<stdin>
<kchea@yahoo.com>	<stdin>
<kenneth@bbs.sas.ntu.ac.sg>.	<stdin>
<kevin.wells@nxp.com>	<stdin>
<kevin.wells@nxp.com>");	<stdin>
<khc@pm.waw.pl>	<stdin>
<kmliu@sis.com>	<stdin>
<kmliu@sis.com>,	<stdin>
<koen.gadeyne@barco.com>	<stdin>
<kong.lai@tundra.com).	<stdin>
<kopper@rtsg.mot.com>	<stdin>
<laforge@gnumonks.org>	<stdin>
<lanconelli.claudio@eptar.com>	<stdin>
<lanconelli.claudio@eptar.com>");	<stdin>
<leoli@freescale.com>	<stdin>
<leoli@freescale.com>	<stdin>
<linux.nics@intel.com>	<stdin>
<linux.nics@intel.com>	<stdin>
<linux.nics@intel.com>	<stdin>
<linux.nics@intel.com>	<stdin>
<linux.nics@intel.com>	<stdin>
<linux.nics@intel.com>	<stdin>
<linux.nics@intel.com>	<stdin>
<linux.nics@intel.com>	<stdin>
<linux.nics@intel.com>	<stdin>
<linux.nics@intel.com>	<stdin>
<linux.nics@intel.com>	<stdin>
<linux.nics@intel.com>	<stdin>
<linux.nics@intel.com>	<stdin>
<linux.nics@intel.com>	<stdin>
<linux.nics@intel.com>	<stdin>
<linux.nics@intel.com>	<stdin>
<linux.nics@intel.com>	<stdin>
<linux.nics@intel.com>	<stdin>
<linux.nics@intel.com>	<stdin>
<linux.nics@intel.com>	<stdin>
<linux.nics@intel.com>	<stdin>
<linux.nics@intel.com>	<stdin>
<linux.nics@intel.com>	<stdin>
<linux.nics@intel.com>	<stdin>
<linux.nics@intel.com>	<stdin>
<linux.nics@intel.com>	<stdin>
<linux.nics@intel.com>	<stdin>
<linux.nics@intel.com>	<stdin>
<linux.nics@intel.com>	<stdin>
<linux.nics@intel.com>	<stdin>
<linux.nics@intel.com>	<stdin>
<linux.nics@intel.com>	<stdin>
<linux.nics@intel.com>	<stdin>
<linux.nics@intel.com>	<stdin>
<linux.nics@intel.com>	<stdin>
<linux.nics@intel.com>	<stdin>
<linux.nics@intel.com>	<stdin>
<linux.nics@intel.com>	<stdin>
<linux.nics@intel.com>	<stdin>
<linux.nics@intel.com>	<stdin>
<linux.nics@intel.com>");	<stdin>
<linux.nics@intel.com>");	<stdin>
<linux.nics@intel.com>");	<stdin>
<linux.nics@intel.com>");	<stdin>
<linux.nics@intel.com>");	<stdin>
<linux.nics@intel.com>");	<stdin>
<lma@varesearch.com>	<stdin>
<m@bues.ch>	<stdin>
<maartenb@hpkuipc.cern.ch>.	<stdin>
<manabe@Roy.dsl.tutics.ac.jp>	<stdin>
<marc@linux-xtensa.org>	<stdin>
<marcelo@conectiva.com.br>	<stdin>
<markb@ordern.demon.co.uk>	<stdin>
<martin@bruli.net>	<stdin>
<matteo.vit@dave.eu>");	<stdin>
<maz@wild-wind.fr.eu.org>	<stdin>
<mbizon@freebox.fr>	<stdin>
<mbizon@freebox.fr>");	<stdin>
<mchan@broadcom.com>	<stdin>
<mchan@broadcom.com>	<stdin>
<mchan@broadcom.com>");	<stdin>
<michael@compurex.com>.	<stdin>
<michael@metaparadigm.com>	<stdin>
<mjacob@feral.com>	<stdin>
<mjacob@feral.com>.	<stdin>
<mjacob@feral.com>.	<stdin>
<mjacob@feral.com>.	<stdin>
<mlapsley@ndirect.co.uk>.	<stdin>
<mmporter@home.com>.	<stdin>
<mporter@eng.mcd.mot.com>	<stdin>
<mporter@kernel.crashing.org>	<stdin>
<msink@permonline.ru>	<stdin>
<msink@permonline.ru>	<stdin>
<msink@permonline.ru>");	<stdin>
<msink@permonline.ru>");	<stdin>
<mufasa@sis.com.tw>	<stdin>
<mugunthanvnm@ti.com>");	<stdin>
<nhorman@redhat.com>	<stdin>
<nic-devel@qualcomm.com>");	<stdin>
<niles@axp745gsfc.nasa.gov>	<stdin>
<ollie@sis.com.tw>");	<stdin>
<orava@nether.tky.hut.fi>.	<stdin>
<os2@kpi.kharkov.ua>	<stdin>
<oskar@scara.com>	<stdin>
<oskar@scara.com>");	<stdin>
<panto@intracom.gr>	<stdin>
<panto@intracom.gr>	<stdin>
<panto@intracom.gr>	<stdin>
<panto@intracom.gr>	<stdin>
<panto@intracom.gr>	<stdin>
<panto@intracom.gr>	<stdin>
<panto@intracom.gr>");	<stdin>
<parmee@postecss.ncrfran.france.ncr.com>	<stdin>
<paubert@iram.es>	<stdin>
<paubert@iram.es>.	<stdin>
<paubert@iram.es>.	<stdin>
<paubert@iram.es>.	<stdin>
<paubert@iram.es>.	<stdin>
<phil@tazenda.demon.co.uk>	<stdin>
<philb@gnu.org>	<stdin>
<psheer@icon.co.za>	<stdin>
<redhat@cococo.net>.	<stdin>
<richard@sleepie.demon.co.uk>	<stdin>
<richard@sleepie.demon.co.uk>	<stdin>
<richard@sleepie.demon.co.uk>	<stdin>
<richardcochran@gmail.com>	<stdin>
<richardcochran@gmail.com>	<stdin>
<richardcochran@gmail.com>	<stdin>
<richardcochran@gmail.com>");	<stdin>
<rl@hellgate.ch>	<stdin>
<robin@intercore.com	<stdin>
<romieu@fr.zoreil.com>	<stdin>
<romieu@fr.zoreil.com>");	<stdin>
<ron.mercer@qlogic.com>	<stdin>
<ron.mercer@qlogic.com>");	<stdin>
<s.hauer@pengutronix.de>	<stdin>
<sandeep.kumar@freescale.com>	<stdin>
<sandeep.kumar@freescale.com>	<stdin>
<sandeep.kumar@freescale.com>	<stdin>
<sandeep.kumar@freescale.com>	<stdin>
<sandeep.kumar@freescale.com>	<stdin>
<stigge@antcom.de>	<stdin>
<stigge@antcom.de>");	<stdin>
<timur@freescale.com>	<stdin>
<tnt@246tNt.com>	<stdin>
<tnt@246tNt.com>	<stdin>
<torben.mathiasen@compaq.com>	<stdin>
<tori@unhappy.mine.nu>	<stdin>
<tori@unhappy.mine.nu>	<stdin>
<tori@unhappy.mine.nu>	<stdin>
<tridge@nimbus.anu.edu.au>	<stdin>
<utz.bacher@de.ibm.com>	<stdin>
<utz.bacher@de.ibm.com>	<stdin>
<utz.bacher@de.ibm.com>	<stdin>
<utz.bacher@de.ibm.com>	<stdin>
<utz.bacher@de.ibm.com>	<stdin>
<utz.bacher@de.ibm.com>	<stdin>
<vbordug@ru.mvista.com>	<stdin>
<vbordug@ru.mvista.com>	<stdin>
<vbordug@ru.mvista.com>	<stdin>
<vbordug@ru.mvista.com>	<stdin>
<vbordug@ru.mvista.com>	<stdin>
<vbordug@ru.mvista.com>	<stdin>
<vda@port.imtp.ilyichevsk.odessa.ua>	<stdin>
<venza@brownhat.org>	<stdin>
<vladz@broadcom.com>	<stdin>
<vladz@broadcom.com>	<stdin>
<vladz@broadcom.com>	<stdin>
<vojtech@suse.cz>	<stdin>
<xiong.huang@atheros.com>	<stdin>
<xiong.huang@atheros.com>	<stdin>
<xiong.huang@atheros.com>	<stdin>
<xiong.huang@atheros.com>,	<stdin>
<xiong.huang@atheros.com>,	<stdin>
<xiong.huang@atheros.com>,	<stdin>
<yanok@emcraft.com>	<stdin>
<yanok@emcraft.com>,	<stdin>
<ysato@users.sourceforge.jp>	<stdin>
@a:	<stdin>
@a:	<stdin>
@action:	<stdin>
@active:	<stdin>
@active:	<stdin>
@active:	<stdin>
@active:	<stdin>
@active:	<stdin>
@active:	<stdin>
@active:	<stdin>
@active:	<stdin>
@active:	<stdin>
@active:	<stdin>
@active:	<stdin>
@active:	<stdin>
@active:	<stdin>
@adapter	<stdin>
@adapter	<stdin>
@adapter	<stdin>
@adapter:	<stdin>
@adapter:	<stdin>
@adapter:	<stdin>
@adapter:	<stdin>
@adapter:	<stdin>
@adapter:	<stdin>
@adapter:	<stdin>
@adapter:	<stdin>
@adapter:	<stdin>
@adapter:	<stdin>
@adapter:	<stdin>
@adapter:	<stdin>
@adapter:	<stdin>
@adapter:	<stdin>
@adapter:	<stdin>
@adapter:	<stdin>
@adapter:	<stdin>
@adapter:	<stdin>
@adapter:	<stdin>
@adapter:	<stdin>
@adapter:	<stdin>
@adapter:	<stdin>
@adapter:	<stdin>
@adapter:	<stdin>
@adapter:	<stdin>
@adapter:	<stdin>
@adapter:	<stdin>
@adapter:	<stdin>
@adapter:	<stdin>
@adapter:	<stdin>
@adapter:	<stdin>
@adapter:	<stdin>
@adapter:	<stdin>
@adapter:	<stdin>
@adapter:	<stdin>
@adapter:	<stdin>
@adapter:	<stdin>
@adapter:	<stdin>
@adapter:	<stdin>
@adapter:	<stdin>
@adapter:	<stdin>
@adapter:	<stdin>
@adapter:	<stdin>
@adapter:	<stdin>
@adapter:	<stdin>
@adapter:	<stdin>
@adapter:	<stdin>
@adapter:	<stdin>
@adapter:	<stdin>
@adapter:	<stdin>
@adapter:	<stdin>
@adapter:	<stdin>
@adapter:	<stdin>
@adapter:	<stdin>
@adapter:	<stdin>
@adapter:	<stdin>
@adapter:	<stdin>
@adapter:	<stdin>
@adapter:	<stdin>
@adapter:	<stdin>
@adapter:	<stdin>
@adapter:	<stdin>
@adapter:	<stdin>
@adapter:	<stdin>
@adapter:	<stdin>
@adapter:	<stdin>
@adapter:	<stdin>
@adapter:	<stdin>
@adapter:	<stdin>
@adapter:	<stdin>
@adapter:	<stdin>
@adapter:	<stdin>
@adapter:	<stdin>
@adapter:	<stdin>
@adapter:	<stdin>
@adapter:	<stdin>
@adapter:	<stdin>
@adapter:	<stdin>
@adapter:	<stdin>
@adapter:	<stdin>
@adapter:	<stdin>
@adapter:	<stdin>
@adapter:	<stdin>
@adapter:	<stdin>
@adapter:	<stdin>
@adapter:	<stdin>
@adapter:	<stdin>
@adapter:	<stdin>
@adapter:	<stdin>
@adapter:	<stdin>
@adapter:	<stdin>
@adapter:	<stdin>
@adapter:	<stdin>
@adapter:	<stdin>
@adapter:	<stdin>
@adapter:	<stdin>
@adapter:	<stdin>
@adapter:	<stdin>
@adapter:	<stdin>
@adapter:	<stdin>
@adapter:	<stdin>
@adapter:	<stdin>
@adapter:	<stdin>
@adapter:	<stdin>
@adapter:	<stdin>
@adapter:	<stdin>
@adapter:	<stdin>
@adapter:	<stdin>
@adapter:	<stdin>
@adapter:	<stdin>
@adapter:	<stdin>
@adapter:	<stdin>
@adapter:	<stdin>
@adapter:	<stdin>
@adapter:	<stdin>
@adapter:	<stdin>
@adapter:	<stdin>
@adapter:	<stdin>
@adapter:	<stdin>
@adapter:	<stdin>
@adapter:	<stdin>
@adapter:	<stdin>
@adapter:	<stdin>
@adapter:	<stdin>
@adapter:	<stdin>
@adapter:	<stdin>
@adapter:	<stdin>
@adapter:	<stdin>
@adapter:	<stdin>
@adapter:	<stdin>
@adapter:	<stdin>
@adapter:	<stdin>
@adapter:	<stdin>
@adapter:	<stdin>
@adapter:	<stdin>
@adapter:	<stdin>
@adapter:	<stdin>
@adapter:	<stdin>
@adapter:	<stdin>
@adapter:	<stdin>
@adapter:	<stdin>
@adapter:	<stdin>
@adapter:	<stdin>
@adapter:	<stdin>
@adapter:	<stdin>
@adapter:	<stdin>
@adapter:	<stdin>
@adapter:	<stdin>
@adapter:	<stdin>
@adapter:	<stdin>
@adapter:	<stdin>
@adapter:	<stdin>
@adapter:	<stdin>
@adapter:	<stdin>
@adapter:	<stdin>
@adapter:	<stdin>
@adapter:	<stdin>
@adapter:	<stdin>
@adapter:	<stdin>
@adapter:	<stdin>
@adapter:	<stdin>
@adapter:	<stdin>
@adapter:	<stdin>
@adapter:	<stdin>
@adapter:	<stdin>
@adapter:	<stdin>
@adapter:	<stdin>
@adapter:	<stdin>
@adapter:	<stdin>
@adapter:	<stdin>
@adapter:	<stdin>
@adapter:	<stdin>
@adapter:	<stdin>
@adapter:	<stdin>
@adapter:	<stdin>
@adapter:	<stdin>
@adapter:	<stdin>
@adapter:	<stdin>
@adapter:	<stdin>
@adapter:	<stdin>
@adapter:	<stdin>
@adapter:	<stdin>
@adapter:	<stdin>
@adapter:	<stdin>
@adapter:	<stdin>
@adapter:	<stdin>
@adapter:	<stdin>
@adapter:	<stdin>
@adapter:	<stdin>
@adapter:	<stdin>
@adapter:	<stdin>
@adapter:	<stdin>
@adapter:	<stdin>
@adapter:	<stdin>
@adapter:	<stdin>
@adapter:	<stdin>
@adapter:	<stdin>
@adapter:	<stdin>
@adapter:	<stdin>
@adapter:	<stdin>
@adapter:	<stdin>
@adapter:	<stdin>
@adapter:	<stdin>
@adapter:	<stdin>
@adapter:	<stdin>
@adapter:	<stdin>
@adapter:	<stdin>
@adapter:	<stdin>
@adapter:	<stdin>
@adapter:	<stdin>
@adapter:	<stdin>
@adapter:	<stdin>
@adapter:	<stdin>
@adapter:	<stdin>
@adapter:	<stdin>
@adapter:	<stdin>
@adapter:	<stdin>
@adapter:	<stdin>
@adapter:	<stdin>
@adapter:	<stdin>
@adapter:	<stdin>
@adapter:	<stdin>
@adapter:	<stdin>
@adapter:	<stdin>
@adapter:	<stdin>
@adapter:	<stdin>
@adapter:	<stdin>
@adapter:	<stdin>
@adapter:	<stdin>
@adapter:	<stdin>
@adapter:	<stdin>
@adapter:	<stdin>
@adapter:	<stdin>
@adapter:	<stdin>
@adapter:	<stdin>
@adapter:	<stdin>
@adapter:	<stdin>
@adapter:	<stdin>
@adapter:	<stdin>
@adapter:	<stdin>
@adapter:	<stdin>
@adapter:	<stdin>
@adapter:	<stdin>
@adapter:	<stdin>
@adapter:	<stdin>
@adapter:	<stdin>
@adapter:	<stdin>
@adapter:	<stdin>
@adapter:	<stdin>
@adapter:	<stdin>
@adapter:	<stdin>
@adapter:	<stdin>
@adapter:	<stdin>
@adapter:	<stdin>
@adapter:	<stdin>
@adapter:	<stdin>
@adapter:	<stdin>
@adapter:	<stdin>
@adapter:	<stdin>
@adapter:	<stdin>
@adapter:	<stdin>
@adapter:	<stdin>
@adapter:	<stdin>
@adapter:	<stdin>
@adapter:	<stdin>
@adapter:	<stdin>
@adapter:	<stdin>
@adapter:	<stdin>
@adapter:	<stdin>
@adapter:	<stdin>
@adapter:	<stdin>
@adapter:	<stdin>
@adapter:	<stdin>
@adapter:	<stdin>
@adapter:	<stdin>
@adapter:	<stdin>
@adapter:	<stdin>
@adapter:	<stdin>
@add:	<stdin>
@add:	<stdin>
@addr:	<stdin>
@addr:	<stdin>
@addr:	<stdin>
@addr:	<stdin>
@addr:	<stdin>
@addr:	<stdin>
@addr:	<stdin>
@addr:	<stdin>
@addr:	<stdin>
@addr:	<stdin>
@addr:	<stdin>
@addr:	<stdin>
@addr:	<stdin>
@addr:	<stdin>
@addr:	<stdin>
@address:	<stdin>
@address:	<stdin>
@adv_asm:	<stdin>
@adv_reg:	<stdin>
@adv_sym:	<stdin>
@atr_input:	<stdin>
@autoneg:	<stdin>
@autoneg:	<stdin>
@autoneg:	<stdin>
@autoneg:	<stdin>
@autoneg:	<stdin>
@autoneg:	<stdin>
@autoneg:	<stdin>
@autoneg:	<stdin>
@autoneg:	<stdin>
@autoneg:	<stdin>
@autoneg_wait_to_complete:	<stdin>
@autoneg_wait_to_complete:	<stdin>
@autoneg_wait_to_complete:	<stdin>
@autoneg_wait_to_complete:	<stdin>
@autoneg_wait_to_complete:	<stdin>
@autoneg_wait_to_complete:	<stdin>
@autoneg_wait_to_complete:	<stdin>
@autoneg_wait_to_complete:	<stdin>
@bank:	<stdin>
@bank:	<stdin>
@base:	<stdin>
@bp	<stdin>
@bp	<stdin>
@bp:	<stdin>
@bp:	<stdin>
@bp:	<stdin>
@bp:	<stdin>
@bp:	<stdin>
@bp:	<stdin>
@bp:	<stdin>
@bp:	<stdin>
@bp:	<stdin>
@bp:	<stdin>
@bp:	<stdin>
@bp:	<stdin>
@bp:	<stdin>
@bp:	<stdin>
@bp:	<stdin>
@bp:	<stdin>
@bp:	<stdin>
@bp:	<stdin>
@bp:	<stdin>
@bp:	<stdin>
@bp:	<stdin>
@bp:	<stdin>
@bp:	<stdin>
@bp:	<stdin>
@bp:	<stdin>
@bp:	<stdin>
@bp:	<stdin>
@bp:	<stdin>
@bp:	<stdin>
@bp:	<stdin>
@bp:	<stdin>
@bp:	<stdin>
@bp:	<stdin>
@bp:	<stdin>
@bp:	<stdin>
@bp:	<stdin>
@bp:	<stdin>
@bp:	<stdin>
@bp:	<stdin>
@bp:	<stdin>
@bp:	<stdin>
@bp:	<stdin>
@bp:	<stdin>
@bp:	<stdin>
@bp:	<stdin>
@bp:	<stdin>
@bp:	<stdin>
@bp:	<stdin>
@bp:	<stdin>
@bp:	<stdin>
@bp:	<stdin>
@bp:	<stdin>
@bp:	<stdin>
@bp:	<stdin>
@bp:	<stdin>
@bp:	<stdin>
@bp:	<stdin>
@bp:	<stdin>
@bp:	<stdin>
@bp:	<stdin>
@bp:	<stdin>
@bp:	<stdin>
@bp:	<stdin>
@bp:	<stdin>
@bp:	<stdin>
@bp:	<stdin>
@bp:	<stdin>
@bp:	<stdin>
@bp:	<stdin>
@bp:	<stdin>
@bp:	<stdin>
@bp:	<stdin>
@bp:	<stdin>
@bp:	<stdin>
@bp:	<stdin>
@bp:	<stdin>
@bp:	<stdin>
@bp:	<stdin>
@bp:	<stdin>
@bp:	<stdin>
@bp:	<stdin>
@bp:	<stdin>
@bp:	<stdin>
@bp:	<stdin>
@bp:	<stdin>
@bp:	<stdin>
@bp:	<stdin>
@bp:	<stdin>
@bp:	<stdin>
@bp:	<stdin>
@bp:	<stdin>
@bp:	<stdin>
@bp:	<stdin>
@bp:	<stdin>
@bp:	<stdin>
@bp:	<stdin>
@bp:	<stdin>
@bp:	<stdin>
@bp:	<stdin>
@bp:	<stdin>
@bp:	<stdin>
@bp:	<stdin>
@bp:	<stdin>
@bp:	<stdin>
@bp:	<stdin>
@bp:	<stdin>
@bp:	<stdin>
@bp:	<stdin>
@bp:	<stdin>
@bp:	<stdin>
@bp:	<stdin>
@bp:	<stdin>
@bp:	<stdin>
@bp:	<stdin>
@bp:	<stdin>
@bp:	<stdin>
@bp:	<stdin>
@bp:	<stdin>
@bp:	<stdin>
@bp:	<stdin>
@bp:	<stdin>
@bp:	<stdin>
@bp:	<stdin>
@bp:	<stdin>
@bp:	<stdin>
@bp:	<stdin>
@bp:	<stdin>
@bp:	<stdin>
@bp:	<stdin>
@bp:	<stdin>
@bp:	<stdin>
@brutal:	<stdin>
@budget:	<stdin>
@budget:	<stdin>
@budget:	<stdin>
@budget:	<stdin>
@budget:	<stdin>
@budget:	<stdin>
@budget:	<stdin>
@budget:	<stdin>
@buffer:	<stdin>
@buffer:	<stdin>
@buffer:	<stdin>
@buffer:	<stdin>
@buffer:	<stdin>
@buffer:	<stdin>
@buffer:	<stdin>
@buffer:	<stdin>
@buffer:	<stdin>
@build:	<stdin>
@bwg_id:	<stdin>
@bwg_id:	<stdin>
@bwg_id:	<stdin>
@bwg_id:	<stdin>
@byte:	<stdin>
@byte_offset:	<stdin>
@byte_offset:	<stdin>
@byte_offset:	<stdin>
@byte_offset:	<stdin>
@byte_offset:	<stdin>
@bytes:	<stdin>
@bytes:	<stdin>
@bytes:	<stdin>
@cam_offset:	<stdin>
@cam_offset:	<stdin>
@cam_offset:	<stdin>
@card:	<stdin>
@card:	<stdin>
@card:	<stdin>
@card:	<stdin>
@card:	<stdin>
@card:	<stdin>
@card:	<stdin>
@card:	<stdin>
@card:	<stdin>
@card:	<stdin>
@card:	<stdin>
@card:	<stdin>
@card:	<stdin>
@card:	<stdin>
@card:	<stdin>
@card:	<stdin>
@card:	<stdin>
@card:	<stdin>
@card:	<stdin>
@card:	<stdin>
@card:	<stdin>
@card:	<stdin>
@card:	<stdin>
@card:	<stdin>
@card:	<stdin>
@card:	<stdin>
@card:	<stdin>
@card:	<stdin>
@card:	<stdin>
@card:	<stdin>
@card:	<stdin>
@card:	<stdin>
@card:	<stdin>
@card:	<stdin>
@card:	<stdin>
@card:	<stdin>
@card:	<stdin>
@card:	<stdin>
@card:	<stdin>
@card:	<stdin>
@card:	<stdin>
@card:	<stdin>
@card:	<stdin>
@card:	<stdin>
@card:	<stdin>
@card:	<stdin>
@card:	<stdin>
@card:	<stdin>
@card:	<stdin>
@card:	<stdin>
@card:	<stdin>
@cb_tx_nc:	<stdin>
@cc:	<stdin>
@cc:	<stdin>
@ch:	<stdin>
@ch:	<stdin>
@ch:	<stdin>
@ch:	<stdin>
@chain:	<stdin>
@chain:	<stdin>
@chain:	<stdin>
@chain:	<stdin>
@channels:	<stdin>
@channels:	<stdin>
@checksum_val:	<stdin>
@checksum_val:	<stdin>
@cid:	<stdin>
@cid:	<stdin>
@cid:	<stdin>
@cl_id:	<stdin>
@cleaned_count:	<stdin>
@cleaned_count:	<stdin>
@cleaned_count:	<stdin>
@cleaned_count:	<stdin>
@cmd:	<stdin>
@cmd:	<stdin>
@cmd:	<stdin>
@cmd:	<stdin>
@cmd:	<stdin>
@cmd:	<stdin>
@cmd:	<stdin>
@cmd:	<stdin>
@cmd:	<stdin>
@cmd:	<stdin>
@cmd:	<stdin>
@cmd:	<stdin>
@cmd:	<stdin>
@cmd:	<stdin>
@cmd:	<stdin>
@cmd:	<stdin>
@cmd:	<stdin>
@cmd:	<stdin>
@cmd:	<stdin>
@cmd:	<stdin>
@cmd_type:	<stdin>
@cmd_type:	<stdin>
@cnt:	<stdin>
@coal	<stdin>
@coal	<stdin>
@command:	<stdin>
@command:	<stdin>
@common:	<stdin>
@config_hash:	<stdin>
@cont:	<stdin>
@context:	<stdin>
@context:	<stdin>
@count:	<stdin>
@count:	<stdin>
@count:	<stdin>
@count:	<stdin>
@count:	<stdin>
@count:	<stdin>
@count:	<stdin>
@count:	<stdin>
@count:	<stdin>
@count:	<stdin>
@count:	<stdin>
@count:	<stdin>
@cqe:	<stdin>
@credit:	<stdin>
@csum:	<stdin>
@csum:	<stdin>
@csum:	<stdin>
@ctrl:	<stdin>
@ctrl:	<stdin>
@cur_rx:	<stdin>
@cur_tx:	<stdin>
@cxt:	<stdin>
@d0_state:	<stdin>
@data:	<stdin>
@data:	<stdin>
@data:	<stdin>
@data:	<stdin>
@data:	<stdin>
@data:	<stdin>
@data:	<stdin>
@data:	<stdin>
@data:	<stdin>
@data:	<stdin>
@data:	<stdin>
@data:	<stdin>
@data:	<stdin>
@data:	<stdin>
@data:	<stdin>
@data:	<stdin>
@data:	<stdin>
@data:	<stdin>
@data:	<stdin>
@data:	<stdin>
@data:	<stdin>
@data:	<stdin>
@data:	<stdin>
@data:	<stdin>
@data:	<stdin>
@data:	<stdin>
@data:	<stdin>
@data:	<stdin>
@data:	<stdin>
@data:	<stdin>
@data:	<stdin>
@data:	<stdin>
@data:	<stdin>
@data:	<stdin>
@data:	<stdin>
@data:	<stdin>
@data:	<stdin>
@data:	<stdin>
@data:	<stdin>
@data:	<stdin>
@data:	<stdin>
@data:	<stdin>
@data:	<stdin>
@data:	<stdin>
@data:	<stdin>
@data:	<stdin>
@data:	<stdin>
@data:	<stdin>
@data:	<stdin>
@data:	<stdin>
@data:	<stdin>
@data:	<stdin>
@data:	<stdin>
@data:	<stdin>
@data:	<stdin>
@data:	<stdin>
@data:	<stdin>
@data:	<stdin>
@data:	<stdin>
@data:	<stdin>
@data:	<stdin>
@data:	<stdin>
@data:	<stdin>
@data:	<stdin>
@data:	<stdin>
@data:	<stdin>
@data:	<stdin>
@data:	<stdin>
@data:	<stdin>
@data:	<stdin>
@data:	<stdin>
@data:	<stdin>
@data:	<stdin>
@data:	<stdin>
@data:	<stdin>
@data:	<stdin>
@data:	<stdin>
@data:	<stdin>
@data:	<stdin>
@data:	<stdin>
@data:	<stdin>
@data:	<stdin>
@data:	<stdin>
@data:	<stdin>
@data:	<stdin>
@data:	<stdin>
@data:	<stdin>
@data:	<stdin>
@data:	<stdin>
@data:	<stdin>
@data:	<stdin>
@data:	<stdin>
@data:	<stdin>
@data:	<stdin>
@data:	<stdin>
@data:	<stdin>
@data:	<stdin>
@data:	<stdin>
@data:	<stdin>
@data:	<stdin>
@data:	<stdin>
@data:	<stdin>
@data:	<stdin>
@data:	<stdin>
@data:	<stdin>
@data:	<stdin>
@data:	<stdin>
@data:	<stdin>
@data:	<stdin>
@data:	<stdin>
@data:	<stdin>
@data:	<stdin>
@data:	<stdin>
@data:	<stdin>
@data:	<stdin>
@data:	<stdin>
@data:	<stdin>
@data:	<stdin>
@data:	<stdin>
@data:	<stdin>
@data:	<stdin>
@data:	<stdin>
@data:	<stdin>
@data:	<stdin>
@data:	<stdin>
@data:	<stdin>
@data:	<stdin>
@data:	<stdin>
@data:	<stdin>
@data:	<stdin>
@data:	<stdin>
@data:	<stdin>
@data:	<stdin>
@data:	<stdin>
@data:	<stdin>
@data:	<stdin>
@data:	<stdin>
@data:	<stdin>
@data:	<stdin>
@data:	<stdin>
@data:	<stdin>
@data:	<stdin>
@data:	<stdin>
@data_hi:	<stdin>
@data_lo:	<stdin>
@data_offset:	<stdin>
@data_size:	<stdin>
@dcb_config:	<stdin>
@dcb_config:	<stdin>
@dcb_config:	<stdin>
@dcb_config:	<stdin>
@dcb_config:	<stdin>
@dcb_config:	<stdin>
@dcb_config:	<stdin>
@ddp:	<stdin>
@def:	<stdin>
@def:	<stdin>
@delta:	<stdin>
@delta:	<stdin>
@delta:	<stdin>
@descr:	<stdin>
@descr:	<stdin>
@descr:	<stdin>
@descr:	<stdin>
@descr:	<stdin>
@descr:	<stdin>
@descr:	<stdin>
@descr:	<stdin>
@descr:	<stdin>
@descr:	<stdin>
@descr:	<stdin>
@descr_in:	<stdin>
@dev:	<stdin>
@dev:	<stdin>
@dev:	<stdin>
@dev:	<stdin>
@dev:	<stdin>
@dev:	<stdin>
@dev:	<stdin>
@dev:	<stdin>
@dev:	<stdin>
@dev:	<stdin>
@dev:	<stdin>
@dev:	<stdin>
@dev:	<stdin>
@dev:	<stdin>
@dev:	<stdin>
@dev:	<stdin>
@dev:	<stdin>
@dev:	<stdin>
@dev:	<stdin>
@dev:	<stdin>
@dev:	<stdin>
@dev:	<stdin>
@dev:	<stdin>
@dev:	<stdin>
@dev:	<stdin>
@dev:	<stdin>
@dev:	<stdin>
@dev:	<stdin>
@dev:	<stdin>
@dev:	<stdin>
@dev:	<stdin>
@dev:	<stdin>
@dev:	<stdin>
@dev:	<stdin>
@dev:	<stdin>
@dev:	<stdin>
@dev:	<stdin>
@dev:	<stdin>
@dev:	<stdin>
@dev:	<stdin>
@dev:	<stdin>
@dev:	<stdin>
@dev:	<stdin>
@dev:	<stdin>
@dev:	<stdin>
@dev:	<stdin>
@dev:	<stdin>
@dev:	<stdin>
@dev:	<stdin>
@dev:	<stdin>
@dev:	<stdin>
@dev:	<stdin>
@dev:	<stdin>
@dev_id:	<stdin>
@dev_id:	<stdin>
@dev_id:	<stdin>
@dev_instance:	<stdin>
@dev_instance:	<stdin>
@dev_instance:	<stdin>
@dev_instance:	<stdin>
@device_caps:	<stdin>
@device_id:	<stdin>
@device_type:	<stdin>
@devname:	<stdin>
@direction:	<stdin>
@direction:	<stdin>
@direction:	<stdin>
@dirty_tx:	<stdin>
@disable_hw:	<stdin>
@downshift:	<stdin>
@drv:	<stdin>
@drv:	<stdin>
@drv:	<stdin>
@drv:	<stdin>
@drv:	<stdin>
@drv:	<stdin>
@drv:	<stdin>
@duplex	<stdin>
@duplex:	<stdin>
@duplex:	<stdin>
@duplex:	<stdin>
@duplex:	<stdin>
@duplex:	<stdin>
@duplex:	<stdin>
@duplex:	<stdin>
@duplex:	<stdin>
@duplex:	<stdin>
@duplex:	<stdin>
@duplex:	<stdin>
@duplex:	<stdin>
@ecmd:	<stdin>
@ecmd:	<stdin>
@ee_reg:	<stdin>
@ee_reg:	<stdin>
@ee_reg:	<stdin>
@eec:	<stdin>
@eecd:	<stdin>
@eecd:	<stdin>
@eecd:	<stdin>
@eecd:	<stdin>
@eecd:	<stdin>
@eecd:	<stdin>
@eecd:	<stdin>
@eeprom_data:	<stdin>
@eeprom_data:	<stdin>
@eeprom_data:	<stdin>
@eicr:	<stdin>
@elem:	<stdin>
@elem:	<stdin>
@elem:	<stdin>
@elem:	<stdin>
@elem:	<stdin>
@elem:	<stdin>
@elem:	<stdin>
@enable:	<stdin>
@enable:	<stdin>
@enable:	<stdin>
@enable:	<stdin>
@enable:	<stdin>
@enable:	<stdin>
@enable:	<stdin>
@enable_addr:	<stdin>
@ent:	<stdin>
@ent:	<stdin>
@ent:	<stdin>
@ent:	<stdin>
@ent:	<stdin>
@ent:	<stdin>
@ent:	<stdin>
@ent:	<stdin>
@ent:	<stdin>
@ent:	<stdin>
@ent:	<stdin>
@ent:	<stdin>
@ent:	<stdin>
@ets_cfg:	<stdin>
@ets_offset:	<stdin>
@exe_chunk:	<stdin>
@exe_len:	<stdin>
@exec:	<stdin>
@fdirctrl:	<stdin>
@fdirctrl:	<stdin>
@fdirctrl:	<stdin>
@filp:	<stdin>
@filp:	<stdin>
@filp:	<stdin>
@filp:	<stdin>
@firmware_ptr:	<stdin>
@firmware_version:	<stdin>
@firmware_version:	<stdin>
@first:	<stdin>
@flag:	<stdin>
@flags:	<stdin>
@fp	<stdin>
@fp:	<stdin>
@fp:	<stdin>
@fp:	<stdin>
@fp:	<stdin>
@frame_len:	<stdin>
@from:	<stdin>
@fw_hi:	<stdin>
@fw_hi:	<stdin>
@fw_lo:	<stdin>
@fw_lo:	<stdin>
@fw_mid:	<stdin>
@fw_mid:	<stdin>
@fw_vers:	<stdin>
@gate:	<stdin>
@get:	<stdin>
@get_tbipa:	<stdin>
@global:	<stdin>
@grp:	<stdin>
@grp_id:	<stdin>
@hash_value:	<stdin>
@hash_value:	<stdin>
@hdr:	<stdin>
@hdr:	<stdin>
@hdr:	<stdin>
@hdr:	<stdin>
@hdr_len:	<stdin>
@headroom:	<stdin>
@hw:	<stdin>
@hw:	<stdin>
@hw:	<stdin>
@hw:	<stdin>
@hw:	<stdin>
@hw:	<stdin>
@hw:	<stdin>
@hw:	<stdin>
@hw:	<stdin>
@hw:	<stdin>
@hw:	<stdin>
@hw:	<stdin>
@hw:	<stdin>
@hw:	<stdin>
@hw:	<stdin>
@hw:	<stdin>
@hw:	<stdin>
@hw:	<stdin>
@hw:	<stdin>
@hw:	<stdin>
@hw:	<stdin>
@hw:	<stdin>
@hw:	<stdin>
@hw:	<stdin>
@hw:	<stdin>
@hw:	<stdin>
@hw:	<stdin>
@hw:	<stdin>
@hw:	<stdin>
@hw:	<stdin>
@hw:	<stdin>
@hw:	<stdin>
@hw:	<stdin>
@hw:	<stdin>
@hw:	<stdin>
@hw:	<stdin>
@hw:	<stdin>
@hw:	<stdin>
@hw:	<stdin>
@hw:	<stdin>
@hw:	<stdin>
@hw:	<stdin>
@hw:	<stdin>
@hw:	<stdin>
@hw:	<stdin>
@hw:	<stdin>
@hw:	<stdin>
@hw:	<stdin>
@hw:	<stdin>
@hw:	<stdin>
@hw:	<stdin>
@hw:	<stdin>
@hw:	<stdin>
@hw:	<stdin>
@hw:	<stdin>
@hw:	<stdin>
@hw:	<stdin>
@hw:	<stdin>
@hw:	<stdin>
@hw:	<stdin>
@hw:	<stdin>
@hw:	<stdin>
@hw:	<stdin>
@hw:	<stdin>
@hw:	<stdin>
@hw:	<stdin>
@hw:	<stdin>
@hw:	<stdin>
@hw:	<stdin>
@hw:	<stdin>
@hw:	<stdin>
@hw:	<stdin>
@hw:	<stdin>
@hw:	<stdin>
@hw:	<stdin>
@hw:	<stdin>
@hw:	<stdin>
@hw:	<stdin>
@hw:	<stdin>
@hw:	<stdin>
@hw:	<stdin>
@hw:	<stdin>
@hw:	<stdin>
@hw:	<stdin>
@hw:	<stdin>
@hw:	<stdin>
@hw:	<stdin>
@hw:	<stdin>
@hw:	<stdin>
@hw:	<stdin>
@hw:	<stdin>
@hw:	<stdin>
@hw:	<stdin>
@hw:	<stdin>
@hw:	<stdin>
@hw:	<stdin>
@hw:	<stdin>
@hw:	<stdin>
@hw:	<stdin>
@hw:	<stdin>
@hw:	<stdin>
@hw:	<stdin>
@hw:	<stdin>
@hw:	<stdin>
@hw:	<stdin>
@hw:	<stdin>
@hw:	<stdin>
@hw:	<stdin>
@hw:	<stdin>
@hw:	<stdin>
@hw:	<stdin>
@hw:	<stdin>
@hw:	<stdin>
@hw:	<stdin>
@hw:	<stdin>
@hw:	<stdin>
@hw:	<stdin>
@hw:	<stdin>
@hw:	<stdin>
@hw:	<stdin>
@hw:	<stdin>
@hw:	<stdin>
@hw:	<stdin>
@hw:	<stdin>
@hw:	<stdin>
@hw:	<stdin>
@hw:	<stdin>
@hw:	<stdin>
@hw:	<stdin>
@hw:	<stdin>
@hw:	<stdin>
@hw:	<stdin>
@hw:	<stdin>
@hw:	<stdin>
@hw:	<stdin>
@hw:	<stdin>
@hw:	<stdin>
@hw:	<stdin>
@hw:	<stdin>
@hw:	<stdin>
@hw:	<stdin>
@hw:	<stdin>
@hw:	<stdin>
@hw:	<stdin>
@hw:	<stdin>
@hw:	<stdin>
@hw:	<stdin>
@hw:	<stdin>
@hw:	<stdin>
@hw:	<stdin>
@hw:	<stdin>
@hw:	<stdin>
@hw:	<stdin>
@hw:	<stdin>
@hw:	<stdin>
@hw:	<stdin>
@hw:	<stdin>
@hw:	<stdin>
@hw:	<stdin>
@hw:	<stdin>
@hw:	<stdin>
@hw:	<stdin>
@hw:	<stdin>
@hw:	<stdin>
@hw:	<stdin>
@hw:	<stdin>
@hw:	<stdin>
@hw:	<stdin>
@hw:	<stdin>
@hw:	<stdin>
@hw:	<stdin>
@hw:	<stdin>
@hw:	<stdin>
@hw:	<stdin>
@hw:	<stdin>
@hw:	<stdin>
@hw:	<stdin>
@hw:	<stdin>
@hw:	<stdin>
@hw:	<stdin>
@hw:	<stdin>
@hw:	<stdin>
@hw:	<stdin>
@hw:	<stdin>
@hw:	<stdin>
@hw:	<stdin>
@hw:	<stdin>
@hw:	<stdin>
@hw:	<stdin>
@hw:	<stdin>
@hw:	<stdin>
@hw:	<stdin>
@hw:	<stdin>
@hw:	<stdin>
@hw:	<stdin>
@hw:	<stdin>
@hw:	<stdin>
@hw:	<stdin>
@hw:	<stdin>
@hw:	<stdin>
@hw:	<stdin>
@hw:	<stdin>
@hw:	<stdin>
@hw:	<stdin>
@hw:	<stdin>
@hw:	<stdin>
@hw:	<stdin>
@hw:	<stdin>
@hw:	<stdin>
@hw:	<stdin>
@hw:	<stdin>
@hw:	<stdin>
@hw:	<stdin>
@hw:	<stdin>
@hw:	<stdin>
@hw:	<stdin>
@hw:	<stdin>
@hw:	<stdin>
@hw:	<stdin>
@hw:	<stdin>
@hw:	<stdin>
@hw:	<stdin>
@hw:	<stdin>
@hw:	<stdin>
@hw:	<stdin>
@hw:	<stdin>
@hw:	<stdin>
@hw:	<stdin>
@hw:	<stdin>
@hw:	<stdin>
@hw:	<stdin>
@hw:	<stdin>
@hw:	<stdin>
@hw:	<stdin>
@hw:	<stdin>
@hw:	<stdin>
@hw:	<stdin>
@hw:	<stdin>
@hw:	<stdin>
@hw:	<stdin>
@hw:	<stdin>
@hw:	<stdin>
@hw:	<stdin>
@hw:	<stdin>
@hw:	<stdin>
@hw:	<stdin>
@hw:	<stdin>
@hw:	<stdin>
@hw:	<stdin>
@hw:	<stdin>
@hw:	<stdin>
@hw:	<stdin>
@hw:	<stdin>
@hw:	<stdin>
@hw:	<stdin>
@hw:	<stdin>
@hw:	<stdin>
@hw:	<stdin>
@hw:	<stdin>
@hw:	<stdin>
@hw:	<stdin>
@hw:	<stdin>
@hw:	<stdin>
@hw:	<stdin>
@hw:	<stdin>
@hw:	<stdin>
@hw:	<stdin>
@hw:	<stdin>
@hw:	<stdin>
@hw:	<stdin>
@hw:	<stdin>
@hw:	<stdin>
@hw:	<stdin>
@hw:	<stdin>
@hw:	<stdin>
@hw:	<stdin>
@hw:	<stdin>
@hw:	<stdin>
@hw:	<stdin>
@hw:	<stdin>
@hw:	<stdin>
@hw:	<stdin>
@hw:	<stdin>
@hw:	<stdin>
@hw:	<stdin>
@hw:	<stdin>
@hw:	<stdin>
@hw:	<stdin>
@hw:	<stdin>
@hw:	<stdin>
@hw:	<stdin>
@hw:	<stdin>
@hw:	<stdin>
@hw:	<stdin>
@hw:	<stdin>
@hw:	<stdin>
@hw:	<stdin>
@hw:	<stdin>
@hw:	<stdin>
@hw:	<stdin>
@hw:	<stdin>
@hw:	<stdin>
@hw:	<stdin>
@hw:	<stdin>
@hw:	<stdin>
@hw:	<stdin>
@hw:	<stdin>
@hw:	<stdin>
@hw:	<stdin>
@hw:	<stdin>
@hw:	<stdin>
@hw:	<stdin>
@hw:	<stdin>
@hw:	<stdin>
@hw:	<stdin>
@hw:	<stdin>
@hw:	<stdin>
@hw:	<stdin>
@hw:	<stdin>
@hw:	<stdin>
@hw:	<stdin>
@hw:	<stdin>
@hw:	<stdin>
@hw:	<stdin>
@hw:	<stdin>
@hw:	<stdin>
@hw:	<stdin>
@hw:	<stdin>
@hw:	<stdin>
@hw:	<stdin>
@hw:	<stdin>
@hw:	<stdin>
@hw:	<stdin>
@hw:	<stdin>
@hw:	<stdin>
@hw:	<stdin>
@hw:	<stdin>
@hw:	<stdin>
@hw:	<stdin>
@hw:	<stdin>
@hw:	<stdin>
@hw:	<stdin>
@hw:	<stdin>
@hw:	<stdin>
@hw:	<stdin>
@hw:	<stdin>
@hw:	<stdin>
@hw:	<stdin>
@hw:	<stdin>
@hw:	<stdin>
@hw:	<stdin>
@hw:	<stdin>
@hw:	<stdin>
@hw:	<stdin>
@hw:	<stdin>
@hw:	<stdin>
@hw:	<stdin>
@hw:	<stdin>
@hw:	<stdin>
@hw:	<stdin>
@hw:	<stdin>
@hw:	<stdin>
@hw:	<stdin>
@hw:	<stdin>
@hw:	<stdin>
@hw:	<stdin>
@hw:	<stdin>
@hw:	<stdin>
@hw:	<stdin>
@hw:	<stdin>
@hw:	<stdin>
@hw:	<stdin>
@hw:	<stdin>
@hw:	<stdin>
@hw:	<stdin>
@hw:	<stdin>
@hw:	<stdin>
@hw:	<stdin>
@hw:	<stdin>
@hw:	<stdin>
@hw:	<stdin>
@hw:	<stdin>
@hw:	<stdin>
@hw:	<stdin>
@hw:	<stdin>
@hw:	<stdin>
@hw:	<stdin>
@hw:	<stdin>
@hw:	<stdin>
@hw:	<stdin>
@hw:	<stdin>
@hw:	<stdin>
@hw:	<stdin>
@hw:	<stdin>
@hw:	<stdin>
@hw:	<stdin>
@hw:	<stdin>
@hw:	<stdin>
@hw:	<stdin>
@hw:	<stdin>
@hw:	<stdin>
@hw:	<stdin>
@hw:	<stdin>
@hw:	<stdin>
@hw:	<stdin>
@hw:	<stdin>
@hw:	<stdin>
@hw:	<stdin>
@hw:	<stdin>
@hw:	<stdin>
@hw:	<stdin>
@hw:	<stdin>
@hw:	<stdin>
@hw:	<stdin>
@hw:	<stdin>
@hw:	<stdin>
@hw:	<stdin>
@hw:	<stdin>
@hw:	<stdin>
@hw:	<stdin>
@hw:	<stdin>
@hw:	<stdin>
@hw:	<stdin>
@hw:	<stdin>
@hw:	<stdin>
@hw:	<stdin>
@hw:	<stdin>
@hw:	<stdin>
@hw:	<stdin>
@hw:	<stdin>
@hw:	<stdin>
@hw:	<stdin>
@hw:	<stdin>
@hw:	<stdin>
@hw:	<stdin>
@hw:	<stdin>
@hw:	<stdin>
@hw:	<stdin>
@hw:	<stdin>
@hw:	<stdin>
@hw:	<stdin>
@hw:	<stdin>
@hw:	<stdin>
@hw:	<stdin>
@hw:	<stdin>
@hw:	<stdin>
@hw:	<stdin>
@hw:	<stdin>
@hw:	<stdin>
@hw:	<stdin>
@hw:	<stdin>
@hw:	<stdin>
@hw:	<stdin>
@hw:	<stdin>
@hw:	<stdin>
@hw:	<stdin>
@hw:	<stdin>
@hw:	<stdin>
@hw:	<stdin>
@hw:	<stdin>
@hw:	<stdin>
@hw:	<stdin>
@hw:	<stdin>
@hw:	<stdin>
@hw:	<stdin>
@hw:	<stdin>
@hw:	<stdin>
@hw:	<stdin>
@hw:	<stdin>
@hw:	<stdin>
@hw:	<stdin>
@hw:	<stdin>
@hw:	<stdin>
@hw:	<stdin>
@hw:	<stdin>
@hw:	<stdin>
@hw:	<stdin>
@hw:	<stdin>
@hw:	<stdin>
@hw:	<stdin>
@hw:	<stdin>
@hw:	<stdin>
@hw:	<stdin>
@hw:	<stdin>
@hw:	<stdin>
@hw:	<stdin>
@hw:	<stdin>
@hw:	<stdin>
@hw:	<stdin>
@hw:	<stdin>
@hw:	<stdin>
@hw:	<stdin>
@hw:	<stdin>
@hw:	<stdin>
@hw:	<stdin>
@hw:	<stdin>
@hw:	<stdin>
@hw:	<stdin>
@hw:	<stdin>
@hw:	<stdin>
@hw:	<stdin>
@hw:	<stdin>
@hw:	<stdin>
@hw:	<stdin>
@hw:	<stdin>
@hw:	<stdin>
@hw:	<stdin>
@hw:	<stdin>
@hw:	<stdin>
@hw:	<stdin>
@hw:	<stdin>
@hw:	<stdin>
@hw:	<stdin>
@hw:	<stdin>
@hw:	<stdin>
@hw:	<stdin>
@hw:	<stdin>
@hw:	<stdin>
@hw:	<stdin>
@hw:	<stdin>
@hw:	<stdin>
@hw:	<stdin>
@hw:	<stdin>
@hw:	<stdin>
@hw:	<stdin>
@hw:	<stdin>
@hw:	<stdin>
@hw:	<stdin>
@hw:	<stdin>
@hw:	<stdin>
@hw:	<stdin>
@hw:	<stdin>
@hw:	<stdin>
@hw:	<stdin>
@hw:	<stdin>
@hw:	<stdin>
@hw:	<stdin>
@hw:	<stdin>
@hw:	<stdin>
@hw:	<stdin>
@hw:	<stdin>
@hw:	<stdin>
@hw:	<stdin>
@hw:	<stdin>
@hw:	<stdin>
@hw:	<stdin>
@hw:	<stdin>
@hw:	<stdin>
@hw:	<stdin>
@hw:	<stdin>
@hw:	<stdin>
@hw:	<stdin>
@hw:	<stdin>
@hw:	<stdin>
@hw:	<stdin>
@hw:	<stdin>
@hw:	<stdin>
@hw:	<stdin>
@hw:	<stdin>
@hw:	<stdin>
@hw:	<stdin>
@hw:	<stdin>
@hw:	<stdin>
@hw:	<stdin>
@hw:	<stdin>
@hw:	<stdin>
@hw:	<stdin>
@hw:	<stdin>
@hw:	<stdin>
@hw:	<stdin>
@hw:	<stdin>
@hw:	<stdin>
@hw:	<stdin>
@hw:	<stdin>
@hw:	<stdin>
@hw:	<stdin>
@hw:	<stdin>
@hw:	<stdin>
@hw:	<stdin>
@hw:	<stdin>
@hw:	<stdin>
@hw:	<stdin>
@hw:	<stdin>
@hw:	<stdin>
@hw:	<stdin>
@hw:	<stdin>
@hw:	<stdin>
@hw:	<stdin>
@hw:	<stdin>
@hw:	<stdin>
@hw:	<stdin>
@hw:	<stdin>
@hw:	<stdin>
@hw:	<stdin>
@hw:	<stdin>
@hw:	<stdin>
@hw:	<stdin>
@hw:	<stdin>
@hw:	<stdin>
@hw:	<stdin>
@hw:	<stdin>
@hw:	<stdin>
@hw:	<stdin>
@hw:	<stdin>
@hw:	<stdin>
@hw:	<stdin>
@hw:	<stdin>
@hw:	<stdin>
@hw:	<stdin>
@hw:	<stdin>
@hw:	<stdin>
@hw:	<stdin>
@hw:	<stdin>
@hw:	<stdin>
@hw:	<stdin>
@hw:	<stdin>
@hw:	<stdin>
@hw:	<stdin>
@hw:	<stdin>
@hw:	<stdin>
@hw:	<stdin>
@hw:	<stdin>
@hw:	<stdin>
@hw:	<stdin>
@hw:	<stdin>
@hw:	<stdin>
@hw:	<stdin>
@hw:	<stdin>
@hw:	<stdin>
@hw:	<stdin>
@hw:	<stdin>
@hw:	<stdin>
@hw:	<stdin>
@hw:	<stdin>
@hw:	<stdin>
@hw:	<stdin>
@hw:	<stdin>
@hw:	<stdin>
@hw:	<stdin>
@hw:	<stdin>
@hw:	<stdin>
@hw:	<stdin>
@hw:	<stdin>
@hw:	<stdin>
@hw:	<stdin>
@hw:	<stdin>
@hw:	<stdin>
@hw:	<stdin>
@hw:	<stdin>
@hw:	<stdin>
@hw:	<stdin>
@hw:	<stdin>
@hw:	<stdin>
@hw:	<stdin>
@hw:	<stdin>
@hw:	<stdin>
@hw:	<stdin>
@hw:	<stdin>
@hw:	<stdin>
@hw:	<stdin>
@hw:	<stdin>
@hw:	<stdin>
@hw:	<stdin>
@hw:	<stdin>
@hw:	<stdin>
@hw:	<stdin>
@hw:	<stdin>
@hw:	<stdin>
@hw:	<stdin>
@hw:	<stdin>
@hw:	<stdin>
@hw:	<stdin>
@hw:	<stdin>
@hw:	<stdin>
@hw:	<stdin>
@hw:	<stdin>
@hw:	<stdin>
@hw:	<stdin>
@hw:	<stdin>
@hw:	<stdin>
@hw:	<stdin>
@hw:	<stdin>
@hw:	<stdin>
@hw:	<stdin>
@hw:	<stdin>
@hw:	<stdin>
@hw:	<stdin>
@hw:	<stdin>
@hw:	<stdin>
@hw:	<stdin>
@hw:	<stdin>
@hw:	<stdin>
@hw:	<stdin>
@hw:	<stdin>
@hw:	<stdin>
@hw:	<stdin>
@hw:	<stdin>
@hw:	<stdin>
@hw:	<stdin>
@hw:	<stdin>
@hw:	<stdin>
@hw:	<stdin>
@hw:	<stdin>
@hw:	<stdin>
@hw:	<stdin>
@hw:	<stdin>
@hw:	<stdin>
@hw:	<stdin>
@hw:	<stdin>
@hw:	<stdin>
@hw:	<stdin>
@hw:	<stdin>
@hw:	<stdin>
@hw:	<stdin>
@hw:	<stdin>
@hw:	<stdin>
@hw:	<stdin>
@hw:	<stdin>
@hw:	<stdin>
@hw:	<stdin>
@hw:	<stdin>
@hw:	<stdin>
@hw:	<stdin>
@hw:	<stdin>
@hw:	<stdin>
@hw:	<stdin>
@hw:	<stdin>
@hw:	<stdin>
@hw:	<stdin>
@hw:	<stdin>
@hw:	<stdin>
@hw:	<stdin>
@hw:	<stdin>
@hw:	<stdin>
@hw:	<stdin>
@hw:	<stdin>
@hw:	<stdin>
@hw:	<stdin>
@hw:	<stdin>
@hw:	<stdin>
@hw:	<stdin>
@hw:	<stdin>
@hw:	<stdin>
@hw:	<stdin>
@hw:	<stdin>
@hw:	<stdin>
@hw:	<stdin>
@hw:	<stdin>
@hw:	<stdin>
@hw:	<stdin>
@hw:	<stdin>
@hw:	<stdin>
@hw:	<stdin>
@hw:	<stdin>
@hw:	<stdin>
@hw:	<stdin>
@hw:	<stdin>
@hw:	<stdin>
@hw:	<stdin>
@hw:	<stdin>
@hw:	<stdin>
@hw:	<stdin>
@hw:	<stdin>
@hw:	<stdin>
@hw:	<stdin>
@hw:	<stdin>
@hw:	<stdin>
@hw:	<stdin>
@hw:	<stdin>
@hw:	<stdin>
@hw:	<stdin>
@hw:	<stdin>
@hw:	<stdin>
@hw:	<stdin>
@hw:	<stdin>
@hw:	<stdin>
@hw:	<stdin>
@hw:	<stdin>
@hw:	<stdin>
@hw:	<stdin>
@hw:	<stdin>
@hw:	<stdin>
@hw:	<stdin>
@hw:	<stdin>
@hw:	<stdin>
@hw:	<stdin>
@hw:	<stdin>
@hw:	<stdin>
@hw:	<stdin>
@hw:	<stdin>
@hw:	<stdin>
@hw:	<stdin>
@hw:	<stdin>
@hw:	<stdin>
@hw:	<stdin>
@hw:	<stdin>
@hw:	<stdin>
@hw:	<stdin>
@hw:	<stdin>
@hw:	<stdin>
@hw:	<stdin>
@hw:	<stdin>
@hw:	<stdin>
@hwtstamp:	<stdin>
@hwtstamps:	<stdin>
@i2cctl:	<stdin>
@i2cctl:	<stdin>
@i2cctl:	<stdin>
@i2cctl:	<stdin>
@id:	<stdin>
@id:	<stdin>
@idtype	<stdin>
@idx:	<stdin>
@idx:	<stdin>
@idx:	<stdin>
@idx:	<stdin>
@idx:	<stdin>
@ifr:	<stdin>
@ifr:	<stdin>
@ifreq:	<stdin>
@ifreq:	<stdin>
@ifreq:	<stdin>
@ifreq:	<stdin>
@ifreq:	<stdin>
@ifreq:	<stdin>
@ifreq:	<stdin>
@ifrq:	<stdin>
@igu_sb_id:	<stdin>
@ind_table:	<stdin>
@ind_table:	<stdin>
@index:	<stdin>
@index:	<stdin>
@index:	<stdin>
@index:	<stdin>
@index:	<stdin>
@index:	<stdin>
@index:	<stdin>
@index:	<stdin>
@index:	<stdin>
@index:	<stdin>
@index:	<stdin>
@index:	<stdin>
@index:	<stdin>
@index:	<stdin>
@index:	<stdin>
@index:	<stdin>
@index:	<stdin>
@index:	<stdin>
@index:	<stdin>
@index:	<stdin>
@index:	<stdin>
@index:	<stdin>
@index:	<stdin>
@info	<stdin>
@info:	<stdin>
@info:	<stdin>
@info:	<stdin>
@init_params:	<stdin>
@input:	<stdin>
@input_mask:	<stdin>
@input_mask:	<stdin>
@int_name_er:	<stdin>
@int_name_rx:	<stdin>
@int_name_tx:	<stdin>
@interruptError:	<stdin>
@interruptReceive:	<stdin>
@interruptTransmit:	<stdin>
@invm_ver:	<stdin>
@ioaddr:	<stdin>
@ioaddr:	<stdin>
@ioaddr:	<stdin>
@ioaddr:	<stdin>
@ioaddr:	<stdin>
@irq:	<stdin>
@irq:	<stdin>
@irq:	<stdin>
@irq:	<stdin>
@irq:	<stdin>
@irq:	<stdin>
@irq:	<stdin>
@irq:	<stdin>
@irq:	<stdin>
@irq:	<stdin>
@irq:	<stdin>
@irq:	<stdin>
@irq:	<stdin>
@irq:	<stdin>
@irq:	<stdin>
@irq:	<stdin>
@irq:	<stdin>
@irq:	<stdin>
@irq:	<stdin>
@irq:	<stdin>
@irq:	<stdin>
@irq:	<stdin>
@irq:	<stdin>
@irq:	<stdin>
@is_serdes:	<stdin>
@iterations:	<stdin>
@iterations:	<stdin>
@itr:	<stdin>
@itr:	<stdin>
@itr_setting:	<stdin>
@itr_setting:	<stdin>
@itr_setting:	<stdin>
@ixgbe_dcb_config:	<stdin>
@keep_link:	<stdin>
@keep_link:	<stdin>
@keep_link:	<stdin>
@last:	<stdin>
@leading:	<stdin>
@leading:	<stdin>
@len:	<stdin>
@len:	<stdin>
@len:	<stdin>
@len_on_bd:	<stdin>
@length:	<stdin>
@length:	<stdin>
@length:	<stdin>
@length:	<stdin>
@length:	<stdin>
@link:	<stdin>
@link_speed:	<stdin>
@link_up:	<stdin>
@link_up:	<stdin>
@link_up:	<stdin>
@link_up_wait_to_complete:	<stdin>
@link_up_wait_to_complete:	<stdin>
@list_offset:	<stdin>
@load_code:	<stdin>
@load_mode:	<stdin>
@location	<stdin>
@location:	<stdin>
@location:	<stdin>
@location:	<stdin>
@locked:	<stdin>
@locked:	<stdin>
@locked:	<stdin>
@locked:	<stdin>
@locked:	<stdin>
@locked:	<stdin>
@lp_asm:	<stdin>
@lp_reg:	<stdin>
@lp_sym:	<stdin>
@mac:	<stdin>
@mac:	<stdin>
@mac:	<stdin>
@mac_addr:	<stdin>
@mac_addr:	<stdin>
@mac_addr:	<stdin>
@mac_addr:	<stdin>
@mac_addr:	<stdin>
@mac_addr:	<stdin>
@mac_addr:	<stdin>
@mac_addr:	<stdin>
@mac_obj:	<stdin>
@mac_type:	<stdin>
@mac_type:	<stdin>
@magic_val:	<stdin>
@magic_val:	<stdin>
@maj:	<stdin>
@map:	<stdin>
@mask:	<stdin>
@mask:	<stdin>
@mask:	<stdin>
@mask:	<stdin>
@mask:	<stdin>
@mask:	<stdin>
@mask:	<stdin>
@mask:	<stdin>
@mask:	<stdin>
@mask:	<stdin>
@mask:	<stdin>
@mask:	<stdin>
@mask:	<stdin>
@mask:	<stdin>
@mask:	<stdin>
@mask:	<stdin>
@mask:	<stdin>
@mask_pattern:	<stdin>
@match:	<stdin>
@max:	<stdin>
@max:	<stdin>
@max:	<stdin>
@max:	<stdin>
@max:	<stdin>
@max_len:	<stdin>
@max_len:	<stdin>
@max_length:	<stdin>
@max_size:	<stdin>
@max_size:	<stdin>
@mbx_id:	<stdin>
@mbx_id:	<stdin>
@mbx_id:	<stdin>
@mbx_id:	<stdin>
@mbx_id:	<stdin>
@mbx_id:	<stdin>
@mbx_id:	<stdin>
@mbx_id:	<stdin>
@mbx_id:	<stdin>
@mbx_id:	<stdin>
@mbx_id:	<stdin>
@mbx_id:	<stdin>
@mbx_id:	<stdin>
@mbx_id:	<stdin>
@mbx_id:	<stdin>
@mbx_id:	<stdin>
@mbx_id:	<stdin>
@mbx_id:	<stdin>
@mc_addr:	<stdin>
@mc_addr:	<stdin>
@mc_addr:	<stdin>
@mc_addr:	<stdin>
@mc_addr:	<stdin>
@mc_addr:	<stdin>
@mc_addr_count:	<stdin>
@mc_addr_count:	<stdin>
@mc_addr_count:	<stdin>
@mc_addr_count:	<stdin>
@mc_addr_list:	<stdin>
@mc_addr_list:	<stdin>
@mc_addr_list:	<stdin>
@mc_addr_list:	<stdin>
@mdc_mdio_access:	<stdin>
@mf_cfg:	<stdin>
@mii_id:	<stdin>
@mii_id:	<stdin>
@mii_offset:	<stdin>
@mii_phy:	<stdin>
@mii_reg:	<stdin>
@mii_status:	<stdin>
@mii_status:	<stdin>
@min:	<stdin>
@min:	<stdin>
@min_length:	<stdin>
@msg:	<stdin>
@msg:	<stdin>
@msg:	<stdin>
@msg:	<stdin>
@msg:	<stdin>
@msg:	<stdin>
@msg:	<stdin>
@msg:	<stdin>
@msg:	<stdin>
@msg:	<stdin>
@msg:	<stdin>
@msg:	<stdin>
@msg:	<stdin>
@msg:	<stdin>
@msg:	<stdin>
@msg:	<stdin>
@msg:	<stdin>
@msg:	<stdin>
@msg:	<stdin>
@msg:	<stdin>
@msix_vector:	<stdin>
@msix_vector:	<stdin>
@msix_vector:	<stdin>
@name:	<stdin>
@name:	<stdin>
@napi:	<stdin>
@napi:	<stdin>
@napi:	<stdin>
@napi:	<stdin>
@napi:	<stdin>
@napi:	<stdin>
@napi:	<stdin>
@napi:	<stdin>
@ndev	<stdin>
@ndev	<stdin>
@ndev:	<stdin>
@ndev:	<stdin>
@ndev:	<stdin>
@ndev:	<stdin>
@ndev:	<stdin>
@ndev:	<stdin>
@ndev:	<stdin>
@ndev:	<stdin>
@ndev:	<stdin>
@ndev:	<stdin>
@ndev:	<stdin>
@ndev:	<stdin>
@ndev:	<stdin>
@ndev:	<stdin>
@ndev:	<stdin>
@ndev:	<stdin>
@negotiation:	<stdin>
@net_dev	<stdin>
@net_dev->dev_addr	<stdin>
@net_dev->dev_addr	<stdin>
@net_dev->dev_addr	<stdin>
@net_dev->dev_addr	<stdin>
@net_dev->dev_addr.	<stdin>
@net_dev->perm_addr.	<stdin>
@net_dev->perm_addr.	<stdin>
@net_dev->perm_addr.	<stdin>
@net_dev->perm_addr.	<stdin>
@net_dev:	<stdin>
@net_dev:	<stdin>
@net_dev:	<stdin>
@net_dev:	<stdin>
@net_dev:	<stdin>
@net_dev:	<stdin>
@net_dev:	<stdin>
@net_dev:	<stdin>
@net_dev:	<stdin>
@net_dev:	<stdin>
@net_dev:	<stdin>
@net_dev:	<stdin>
@net_dev:	<stdin>
@net_dev:	<stdin>
@net_dev:	<stdin>
@net_dev:	<stdin>
@net_dev:	<stdin>
@net_dev:	<stdin>
@net_dev:	<stdin>
@net_dev:	<stdin>
@net_dev:	<stdin>
@net_dev:	<stdin>
@net_dev:	<stdin>
@net_dev:	<stdin>
@net_dev:	<stdin>
@net_dev:	<stdin>
@net_dev:	<stdin>
@netdev	<stdin>
@netdev	<stdin>
@netdev	<stdin>
@netdev:	<stdin>
@netdev:	<stdin>
@netdev:	<stdin>
@netdev:	<stdin>
@netdev:	<stdin>
@netdev:	<stdin>
@netdev:	<stdin>
@netdev:	<stdin>
@netdev:	<stdin>
@netdev:	<stdin>
@netdev:	<stdin>
@netdev:	<stdin>
@netdev:	<stdin>
@netdev:	<stdin>
@netdev:	<stdin>
@netdev:	<stdin>
@netdev:	<stdin>
@netdev:	<stdin>
@netdev:	<stdin>
@netdev:	<stdin>
@netdev:	<stdin>
@netdev:	<stdin>
@netdev:	<stdin>
@netdev:	<stdin>
@netdev:	<stdin>
@netdev:	<stdin>
@netdev:	<stdin>
@netdev:	<stdin>
@netdev:	<stdin>
@netdev:	<stdin>
@netdev:	<stdin>
@netdev:	<stdin>
@netdev:	<stdin>
@netdev:	<stdin>
@netdev:	<stdin>
@netdev:	<stdin>
@netdev:	<stdin>
@netdev:	<stdin>
@netdev:	<stdin>
@netdev:	<stdin>
@netdev:	<stdin>
@netdev:	<stdin>
@netdev:	<stdin>
@netdev:	<stdin>
@netdev:	<stdin>
@netdev:	<stdin>
@netdev:	<stdin>
@netdev:	<stdin>
@netdev:	<stdin>
@netdev:	<stdin>
@netdev:	<stdin>
@netdev:	<stdin>
@netdev:	<stdin>
@netdev:	<stdin>
@netdev:	<stdin>
@netdev:	<stdin>
@netdev:	<stdin>
@netdev:	<stdin>
@netdev:	<stdin>
@netdev:	<stdin>
@netdev:	<stdin>
@netdev:	<stdin>
@netdev:	<stdin>
@netdev:	<stdin>
@netdev:	<stdin>
@netdev:	<stdin>
@netdev:	<stdin>
@netdev:	<stdin>
@netdev:	<stdin>
@netdev:	<stdin>
@netdev:	<stdin>
@netdev:	<stdin>
@netdev:	<stdin>
@netdev:	<stdin>
@netdev:	<stdin>
@netdev:	<stdin>
@netdev:	<stdin>
@netdev:	<stdin>
@netdev:	<stdin>
@netdev:	<stdin>
@netdev:	<stdin>
@netdev:	<stdin>
@netdev:	<stdin>
@netdev:	<stdin>
@netdev:	<stdin>
@netdev:	<stdin>
@netdev:	<stdin>
@netdev:	<stdin>
@netdev:	<stdin>
@netdev:	<stdin>
@netdev:	<stdin>
@netdev:	<stdin>
@netdev:	<stdin>
@netdev:	<stdin>
@netdev:	<stdin>
@netdev:	<stdin>
@netdev:	<stdin>
@netdev:	<stdin>
@netdev:	<stdin>
@netdev:	<stdin>
@netdev:	<stdin>
@netdev:	<stdin>
@netdev:	<stdin>
@netdev:	<stdin>
@netdev:	<stdin>
@netdev:	<stdin>
@netdev:	<stdin>
@netdev:	<stdin>
@netdev:	<stdin>
@netdev:	<stdin>
@netdev:	<stdin>
@netdev:	<stdin>
@netdev:	<stdin>
@netdev:	<stdin>
@netdev:	<stdin>
@netdev:	<stdin>
@netdev:	<stdin>
@netdev:	<stdin>
@netdev:	<stdin>
@netdev:	<stdin>
@netdev:	<stdin>
@netdev:	<stdin>
@netdev:	<stdin>
@new_mtu:	<stdin>
@new_mtu:	<stdin>
@new_mtu:	<stdin>
@new_mtu:	<stdin>
@new_mtu:	<stdin>
@new_mtu:	<stdin>
@new_mtu:	<stdin>
@new_mtu:	<stdin>
@new_mtu:	<stdin>
@new_mtu:	<stdin>
@new_mtu:	<stdin>
@new_mtu:	<stdin>
@new_mtu:	<stdin>
@new_mtu:	<stdin>
@new_mtu:	<stdin>
@no:	<stdin>
@no_snoop:	<stdin>
@num_pb:	<stdin>
@num_txbdfree:	<stdin>
@nvecs:	<stdin>
@o:	<stdin>
@o:	<stdin>
@o:	<stdin>
@o:	<stdin>
@o:	<stdin>
@o:	<stdin>
@o:	<stdin>
@o:	<stdin>
@o:	<stdin>
@o:	<stdin>
@o:	<stdin>
@o:	<stdin>
@o:	<stdin>
@o:	<stdin>
@o:	<stdin>
@o:	<stdin>
@o:	<stdin>
@o:	<stdin>
@o:	<stdin>
@o:	<stdin>
@o:	<stdin>
@o:	<stdin>
@obj:	<stdin>
@offset:	<stdin>
@offset:	<stdin>
@offset:	<stdin>
@offset:	<stdin>
@offset:	<stdin>
@offset:	<stdin>
@offset:	<stdin>
@offset:	<stdin>
@offset:	<stdin>
@offset:	<stdin>
@offset:	<stdin>
@offset:	<stdin>
@offset:	<stdin>
@offset:	<stdin>
@offset:	<stdin>
@offset:	<stdin>
@offset:	<stdin>
@offset:	<stdin>
@offset:	<stdin>
@offset:	<stdin>
@offset:	<stdin>
@offset:	<stdin>
@offset:	<stdin>
@offset:	<stdin>
@offset:	<stdin>
@offset:	<stdin>
@offset:	<stdin>
@offset:	<stdin>
@offset:	<stdin>
@offset:	<stdin>
@offset:	<stdin>
@offset:	<stdin>
@offset:	<stdin>
@offset:	<stdin>
@offset:	<stdin>
@offset:	<stdin>
@offset:	<stdin>
@offset:	<stdin>
@offset:	<stdin>
@offset:	<stdin>
@offset:	<stdin>
@offset:	<stdin>
@offset:	<stdin>
@offset:	<stdin>
@offset:	<stdin>
@offset:	<stdin>
@offset:	<stdin>
@offset:	<stdin>
@offset:	<stdin>
@offset:	<stdin>
@offset:	<stdin>
@offset:	<stdin>
@offset:	<stdin>
@offset:	<stdin>
@offset:	<stdin>
@offset:	<stdin>
@offset:	<stdin>
@offset:	<stdin>
@offset:	<stdin>
@offset:	<stdin>
@offset:	<stdin>
@offset:	<stdin>
@offset:	<stdin>
@offset:	<stdin>
@offset:	<stdin>
@offset:	<stdin>
@offset:	<stdin>
@offset:	<stdin>
@offset:	<stdin>
@offset:	<stdin>
@offset:	<stdin>
@offset:	<stdin>
@offset:	<stdin>
@offset:	<stdin>
@offset:	<stdin>
@offset:	<stdin>
@offset:	<stdin>
@offset:	<stdin>
@offset:	<stdin>
@offset:	<stdin>
@offset:	<stdin>
@offset:	<stdin>
@offset:	<stdin>
@offset:	<stdin>
@offset:	<stdin>
@offset:	<stdin>
@offset:	<stdin>
@offset:	<stdin>
@offset:	<stdin>
@offset:	<stdin>
@offset:	<stdin>
@offset:	<stdin>
@offset:	<stdin>
@offset:	<stdin>
@offset:	<stdin>
@offset:	<stdin>
@offset:	<stdin>
@old_buff:	<stdin>
@old_buff:	<stdin>
@on:	<stdin>
@on:	<stdin>
@op:	<stdin>
@opcode:	<stdin>
@opt:	<stdin>
@opt:	<stdin>
@optimize:	<stdin>
@opts:	<stdin>
@owner:	<stdin>
@p	<stdin>
@p:	<stdin>
@p:	<stdin>
@p:	<stdin>
@p:	<stdin>
@p:	<stdin>
@p:	<stdin>
@p:	<stdin>
@p:	<stdin>
@p:	<stdin>
@p:	<stdin>
@p:	<stdin>
@p:	<stdin>
@p:	<stdin>
@p:	<stdin>
@p:	<stdin>
@p:	<stdin>
@p:	<stdin>
@p:	<stdin>
@p:	<stdin>
@p:	<stdin>
@packets:	<stdin>
@packets:	<stdin>
@packets:	<stdin>
@page:	<stdin>
@page:	<stdin>
@page:	<stdin>
@page_set:	<stdin>
@param	<stdin>
@param	<stdin>
@param	<stdin>
@param	<stdin>
@param	<stdin>
@param	<stdin>
@param	<stdin>
@param	<stdin>
@param	<stdin>
@param	<stdin>
@param	<stdin>
@param	<stdin>
@param	<stdin>
@param	<stdin>
@param	<stdin>
@param	<stdin>
@param	<stdin>
@param	<stdin>
@param	<stdin>
@param:	<stdin>
@params:	<stdin>
@params:	<stdin>
@params:	<stdin>
@params:	<stdin>
@params:	<stdin>
@params:	<stdin>
@params:	<stdin>
@params:	<stdin>
@parsing_data:	<stdin>
@parsing_flags:	<stdin>
@part_num:	<stdin>
@part_num_size:	<stdin>
@pattern:	<stdin>
@pb:	<stdin>
@pb:	<stdin>
@pba_num:	<stdin>
@pba_num:	<stdin>
@pba_num_size:	<stdin>
@pba_num_size:	<stdin>
@pbd:	<stdin>
@pbd:	<stdin>
@pci_dev.	<stdin>
@pci_dev:	<stdin>
@pci_dev:	<stdin>
@pci_dev:	<stdin>
@pci_dev:	<stdin>
@pci_dev:	<stdin>
@pci_dev:	<stdin>
@pci_id:	<stdin>
@pdev	<stdin>
@pdev	<stdin>
@pdev:	<stdin>
@pdev:	<stdin>
@pdev:	<stdin>
@pdev:	<stdin>
@pdev:	<stdin>
@pdev:	<stdin>
@pdev:	<stdin>
@pdev:	<stdin>
@pdev:	<stdin>
@pdev:	<stdin>
@pdev:	<stdin>
@pdev:	<stdin>
@pdev:	<stdin>
@pdev:	<stdin>
@pdev:	<stdin>
@pdev:	<stdin>
@pdev:	<stdin>
@pdev:	<stdin>
@pdev:	<stdin>
@pdev:	<stdin>
@pdev:	<stdin>
@pdev:	<stdin>
@pdev:	<stdin>
@pdev:	<stdin>
@pdev:	<stdin>
@pdev:	<stdin>
@pdev:	<stdin>
@pdev:	<stdin>
@pdev:	<stdin>
@pdev:	<stdin>
@pdev:	<stdin>
@pdev:	<stdin>
@pdev:	<stdin>
@pdev:	<stdin>
@pdev:	<stdin>
@pdev:	<stdin>
@pdev:	<stdin>
@pdev:	<stdin>
@pdev:	<stdin>
@pdev:	<stdin>
@pdev:	<stdin>
@pdev:	<stdin>
@pdev:	<stdin>
@pdev:	<stdin>
@pdev:	<stdin>
@pdev:	<stdin>
@pdev:	<stdin>
@pdev:	<stdin>
@pdev:	<stdin>
@pdev:	<stdin>
@pdev:	<stdin>
@pdev:	<stdin>
@pdev:	<stdin>
@pdev:	<stdin>
@pdev:	<stdin>
@pdev:	<stdin>
@pdev:	<stdin>
@pdev:	<stdin>
@pdev:	<stdin>
@pdev:	<stdin>
@pdev:	<stdin>
@pdev:	<stdin>
@pdev:	<stdin>
@pdev:	<stdin>
@pdev:	<stdin>
@pdev:	<stdin>
@pdev:	<stdin>
@pdev:	<stdin>
@pdev:	<stdin>
@pdev:	<stdin>
@pf:	<stdin>
@pf:	<stdin>
@pf:	<stdin>
@pf:	<stdin>
@pfc_en:	<stdin>
@pfc_en:	<stdin>
@phy	<stdin>
@phy_addr:	<stdin>
@phy_addr:	<stdin>
@phy_ctrl:	<stdin>
@phy_ctrl:	<stdin>
@phy_data:	<stdin>
@phy_data:	<stdin>
@phy_id:	<stdin>
@phy_id:	<stdin>
@phy_id:	<stdin>
@phy_info:	<stdin>
@phy_info:	<stdin>
@phy_info:	<stdin>
@phy_reg:	<stdin>
@phy_reg:	<stdin>
@pkt_size:	<stdin>
@pkt_size:	<stdin>
@polarity:	<stdin>
@port:	<stdin>
@ppb:	<stdin>
@ppb:	<stdin>
@ppos:	<stdin>
@ppos:	<stdin>
@ppos:	<stdin>
@ppos:	<stdin>
@ppos:	<stdin>
@print:	<stdin>
@prio_tc:	<stdin>
@prio_type:	<stdin>
@prio_type:	<stdin>
@prio_type:	<stdin>
@prio_type:	<stdin>
@priv:	<stdin>
@priv:	<stdin>
@priv:	<stdin>
@priv:	<stdin>
@priv:	<stdin>
@priv:	<stdin>
@priv:	<stdin>
@priv:	<stdin>
@priv:	<stdin>
@priv:	<stdin>
@priv:	<stdin>
@priv:	<stdin>
@priv:	<stdin>
@ptp:	<stdin>
@ptp:	<stdin>
@ptp:	<stdin>
@ptp:	<stdin>
@ptp:	<stdin>
@ptp:	<stdin>
@ptp:	<stdin>
@ptp:	<stdin>
@ptp:	<stdin>
@ptp:	<stdin>
@ptr:	<stdin>
@ptr:	<stdin>
@q_vector:	<stdin>
@q_vector:	<stdin>
@q_vector:	<stdin>
@q_vector:	<stdin>
@q_vector:	<stdin>
@q_vector:	<stdin>
@q_vector:	<stdin>
@q_vector:	<stdin>
@q_vector:	<stdin>
@q_vector:	<stdin>
@q_vector:	<stdin>
@q_vector:	<stdin>
@q_vector:	<stdin>
@q_vector:	<stdin>
@q_vector:	<stdin>
@qindex:	<stdin>
@qindex:	<stdin>
@qo:	<stdin>
@qo:	<stdin>
@qo:	<stdin>
@qo:	<stdin>
@queue:	<stdin>
@queue:	<stdin>
@queue:	<stdin>
@ramrod_flags:	<stdin>
@ramrod_flags:	<stdin>
@ramrod_flags:	<stdin>
@ramrod_flags:	<stdin>
@ramrod_flags:	<stdin>
@rar:	<stdin>
@rar:	<stdin>
@rar:	<stdin>
@rar:	<stdin>
@rar_count:	<stdin>
@rar_count:	<stdin>
@rar_count:	<stdin>
@rar_count:	<stdin>
@rar_used_count:	<stdin>
@rar_used_count:	<stdin>
@rd:	<stdin>
@rd:	<stdin>
@rdata_idx:	<stdin>
@rdata_idx:	<stdin>
@re:	<stdin>
@read:	<stdin>
@read:	<stdin>
@refill:	<stdin>
@refill:	<stdin>
@refill:	<stdin>
@refill:	<stdin>
@reg:	<stdin>
@reg:	<stdin>
@reg:	<stdin>
@reg:	<stdin>
@reg:	<stdin>
@reg:	<stdin>
@reg:	<stdin>
@reg:	<stdin>
@reg:	<stdin>
@reg_addr:	<stdin>
@reg_addr:	<stdin>
@reg_addr:	<stdin>
@reg_addr:	<stdin>
@reginfo:	<stdin>
@reginfo:	<stdin>
@regs:	<stdin>
@regs:	<stdin>
@regs:	<stdin>
@regs:	<stdin>
@regs:	<stdin>
@regs:	<stdin>
@regs:	<stdin>
@regs:	<stdin>
@regs:	<stdin>
@regs:	<stdin>
@regval:	<stdin>
@regval:	<stdin>
@resource:	<stdin>
@resource:	<stdin>
@restore:	<stdin>
@restore:	<stdin>
@return	<stdin>
@return	<stdin>
@return	<stdin>
@return	<stdin>
@return	<stdin>
@return	<stdin>
@return	<stdin>
@return	<stdin>
@return	<stdin>
@return	<stdin>
@return	<stdin>
@return	<stdin>
@return	<stdin>
@return	<stdin>
@returns	<stdin>
@returns	<stdin>
@revision:	<stdin>
@revision:	<stdin>
@ring:	<stdin>
@ring:	<stdin>
@ring:	<stdin>
@ring:	<stdin>
@ring:	<stdin>
@ring:	<stdin>
@ring_container:	<stdin>
@ring_container:	<stdin>
@ring_container:	<stdin>
@rp:	<stdin>
@rq:	<stdin>
@rq:	<stdin>
@rq:	<stdin>
@rq:	<stdin>
@rr_cqe:	<stdin>
@rss_obj:	<stdin>
@rule_cnt:	<stdin>
@rule_idx:	<stdin>
@rule_idx:	<stdin>
@rx_accept_flags:	<stdin>
@rx_bd_base:	<stdin>
@rx_buffer:	<stdin>
@rx_buffer:	<stdin>
@rx_desc:	<stdin>
@rx_desc:	<stdin>
@rx_desc:	<stdin>
@rx_desc:	<stdin>
@rx_desc:	<stdin>
@rx_desc:	<stdin>
@rx_desc:	<stdin>
@rx_desc:	<stdin>
@rx_desc:	<stdin>
@rx_desc:	<stdin>
@rx_desc:	<stdin>
@rx_desc:	<stdin>
@rx_desc:	<stdin>
@rx_desc:	<stdin>
@rx_desc:	<stdin>
@rx_mode_flags:	<stdin>
@rx_ring:	<stdin>
@rx_ring:	<stdin>
@rx_ring:	<stdin>
@rx_ring:	<stdin>
@rx_ring:	<stdin>
@rx_ring:	<stdin>
@rx_ring:	<stdin>
@rx_ring:	<stdin>
@rx_ring:	<stdin>
@rx_ring:	<stdin>
@rx_ring:	<stdin>
@rx_ring:	<stdin>
@rx_ring:	<stdin>
@rx_ring:	<stdin>
@rx_ring:	<stdin>
@rx_ring:	<stdin>
@rx_ring:	<stdin>
@rx_ring:	<stdin>
@rx_ring:	<stdin>
@rx_ring:	<stdin>
@rx_ring:	<stdin>
@rx_ring:	<stdin>
@rx_ring:	<stdin>
@rx_ring:	<stdin>
@rx_ring:	<stdin>
@rx_ring:	<stdin>
@rx_ring:	<stdin>
@rx_ring:	<stdin>
@rx_ring:	<stdin>
@rx_ring:	<stdin>
@rx_ring:	<stdin>
@rx_ring:	<stdin>
@rx_ring:	<stdin>
@rx_ring:	<stdin>
@rx_ring:	<stdin>
@rx_ring:	<stdin>
@rx_ring:	<stdin>
@rx_ring:	<stdin>
@rx_ring:	<stdin>
@rx_ring:	<stdin>
@rx_ring:	<stdin>
@rx_ring:	<stdin>
@rx_ring:	<stdin>
@rx_ring:	<stdin>
@rx_ring:	<stdin>
@rx_ring_size:	<stdin>
@rx_skb:	<stdin>
@rx_skbuff:	<stdin>
@rxcoalescing:	<stdin>
@rxdr:	<stdin>
@rxic:	<stdin>
@rxlock:	<stdin>
@rxr_count:	<stdin>
@rxr_count:	<stdin>
@rxr_idx:	<stdin>
@rxr_idx:	<stdin>
@san_mac_addr:	<stdin>
@san_mac_offset:	<stdin>
@segment:	<stdin>
@set:	<stdin>
@set:	<stdin>
@set:	<stdin>
@set:	<stdin>
@set:	<stdin>
@set:	<stdin>
@sgc:	<stdin>
@sgc:	<stdin>
@sgc:	<stdin>
@sgl:	<stdin>
@sgl:	<stdin>
@sgl:	<stdin>
@size:	<stdin>
@size:	<stdin>
@size:	<stdin>
@size:	<stdin>
@size:	<stdin>
@size:	<stdin>
@size:	<stdin>
@size:	<stdin>
@size:	<stdin>
@size:	<stdin>
@size:	<stdin>
@size:	<stdin>
@size:	<stdin>
@size:	<stdin>
@size:	<stdin>
@size:	<stdin>
@size:	<stdin>
@size:	<stdin>
@size:	<stdin>
@size:	<stdin>
@size:	<stdin>
@size:	<stdin>
@size:	<stdin>
@sk_buff:	<stdin>
@sk_buff:	<stdin>
@sk_buff:	<stdin>
@sk_buff:	<stdin>
@skb:	<stdin>
@skb:	<stdin>
@skb:	<stdin>
@skb:	<stdin>
@skb:	<stdin>
@skb:	<stdin>
@skb:	<stdin>
@skb:	<stdin>
@skb:	<stdin>
@skb:	<stdin>
@skb:	<stdin>
@skb:	<stdin>
@skb:	<stdin>
@skb:	<stdin>
@skb:	<stdin>
@skb:	<stdin>
@skb:	<stdin>
@skb:	<stdin>
@skb:	<stdin>
@skb:	<stdin>
@skb:	<stdin>
@skb:	<stdin>
@skb:	<stdin>
@skb:	<stdin>
@skb:	<stdin>
@skb:	<stdin>
@skb:	<stdin>
@skb:	<stdin>
@skb:	<stdin>
@skb:	<stdin>
@skb:	<stdin>
@skb:	<stdin>
@skb:	<stdin>
@skb:	<stdin>
@skb:	<stdin>
@skb:	<stdin>
@skb:	<stdin>
@skb:	<stdin>
@skb:	<stdin>
@skb_currx:	<stdin>
@skb_curtx:	<stdin>
@skb_dirtytx:the	<stdin>
@sp:	<stdin>
@speed	<stdin>
@speed	<stdin>
@speed:	<stdin>
@speed:	<stdin>
@speed:	<stdin>
@speed:	<stdin>
@speed:	<stdin>
@speed:	<stdin>
@speed:	<stdin>
@speed:	<stdin>
@speed:	<stdin>
@speed:	<stdin>
@speed:	<stdin>
@speed:	<stdin>
@speed:	<stdin>
@speed:	<stdin>
@speed:	<stdin>
@speed:	<stdin>
@speed:	<stdin>
@speed:	<stdin>
@speed:	<stdin>
@speed:	<stdin>
@speed:	<stdin>
@speed:	<stdin>
@start:	<stdin>
@start_bin:	<stdin>
@start_cnt:	<stdin>
@start_descr:	<stdin>
@start_descr:	<stdin>
@start_idx:	<stdin>
@startp:	<stdin>
@startp:	<stdin>
@state:	<stdin>
@state:	<stdin>
@state:	<stdin>
@state:	<stdin>
@state:	<stdin>
@state:	<stdin>
@state:	<stdin>
@state:	<stdin>
@state:	<stdin>
@state:	<stdin>
@state:	<stdin>
@state:	<stdin>
@state:	<stdin>
@state:	<stdin>
@state:	<stdin>
@state:	<stdin>
@state:	<stdin>
@state_p:	<stdin>
@stats:	<stdin>
@stats:	<stdin>
@stats:	<stdin>
@stats:	<stdin>
@status:	<stdin>
@status:	<stdin>
@status:	<stdin>
@status:	<stdin>
@status:	<stdin>
@status:	<stdin>
@status_err:	<stdin>
@status_err:	<stdin>
@status_err:	<stdin>
@status_err:	<stdin>
@status_reg:	<stdin>
@stop:	<stdin>
@strategy:	<stdin>
@stream:	<stdin>
@sub:	<stdin>
@subdev_id:	<stdin>
@success:	<stdin>
@success:	<stdin>
@sum:	<stdin>
@systim:	<stdin>
@tc:	<stdin>
@tc:	<stdin>
@tc:	<stdin>
@tdinfo:	<stdin>
@timeout:	<stdin>
@to:	<stdin>
@total_collisions:	<stdin>
@tp:	<stdin>
@ts:	<stdin>
@ts:	<stdin>
@ts:	<stdin>
@ts:	<stdin>
@tx_accept_flags:	<stdin>
@tx_bd_base:	<stdin>
@tx_packets:	<stdin>
@tx_ring:	<stdin>
@tx_ring:	<stdin>
@tx_ring:	<stdin>
@tx_ring:	<stdin>
@tx_ring:	<stdin>
@tx_ring:	<stdin>
@tx_ring:	<stdin>
@tx_ring:	<stdin>
@tx_ring:	<stdin>
@tx_ring:	<stdin>
@tx_ring:	<stdin>
@tx_ring:	<stdin>
@tx_ring:	<stdin>
@tx_ring:	<stdin>
@tx_ring:	<stdin>
@tx_ring:	<stdin>
@tx_ring:	<stdin>
@tx_ring:	<stdin>
@tx_ring:	<stdin>
@tx_ring:	<stdin>
@tx_ring:	<stdin>
@tx_ring:	<stdin>
@tx_ring_size:	<stdin>
@tx_skbuff:skb	<stdin>
@txcoalescing:	<stdin>
@txcount:	<stdin>
@txdr:	<stdin>
@txic:	<stdin>
@txlock:	<stdin>
@txr_count:	<stdin>
@txr_count:	<stdin>
@txr_idx:	<stdin>
@txr_idx:	<stdin>
@txtime:	<stdin>
@type:	<stdin>
@type:	<stdin>
@type:	<stdin>
@type:	<stdin>
@type:	<stdin>
@type:	<stdin>
@u:	<stdin>
@u:	<stdin>
@ucc_configure:	<stdin>
@unload_mode:	<stdin>
@unload_mode:	<stdin>
@unload_mode:	<stdin>
@update:	<stdin>
@usec_interval:	<stdin>
@usec_interval:	<stdin>
@v:	<stdin>
@v:	<stdin>
@v_count:	<stdin>
@v_count:	<stdin>
@v_idx:	<stdin>
@v_idx:	<stdin>
@v_idx:	<stdin>
@v_idx:	<stdin>
@va:	<stdin>
@val:	<stdin>
@val:	<stdin>
@val:	<stdin>
@val:	<stdin>
@val:	<stdin>
@val:	<stdin>
@val:	<stdin>
@validate:	<stdin>
@value	<stdin>
@value:	<stdin>
@value:	<stdin>
@value:	<stdin>
@value:	<stdin>
@value:	<stdin>
@value:	<stdin>
@value:	<stdin>
@value:	<stdin>
@vf_number:	<stdin>
@vf_number:	<stdin>
@vf_number:	<stdin>
@vf_number:	<stdin>
@vf_number:	<stdin>
@vf_number:	<stdin>
@vf_number:	<stdin>
@vf_number:	<stdin>
@vf_number:	<stdin>
@vf_number:	<stdin>
@vf_number:	<stdin>
@vf_number:	<stdin>
@vid:	<stdin>
@vid:	<stdin>
@vid:	<stdin>
@vind:	<stdin>
@vind:	<stdin>
@vlan:	<stdin>
@vlan:	<stdin>
@vlan:	<stdin>
@vlan:	<stdin>
@vlan:	<stdin>
@vlan:	<stdin>
@vlan_mac_flags:	<stdin>
@vlan_on:	<stdin>
@vlan_on:	<stdin>
@vmdq:	<stdin>
@vmdq:	<stdin>
@vmdq:	<stdin>
@vmdq:	<stdin>
@vmdq:	<stdin>
@vmdq:	<stdin>
@vptr	<stdin>
@vptr:	<stdin>
@vptr:	<stdin>
@vptr:	<stdin>
@vptr:	<stdin>
@vptr:	<stdin>
@vptr:	<stdin>
@vptr:	<stdin>
@vptr:	<stdin>
@vptr:	<stdin>
@vptr:	<stdin>
@vptr:	<stdin>
@vptr:	<stdin>
@vptr:	<stdin>
@vptr:	<stdin>
@vptr:	<stdin>
@vptr:	<stdin>
@vptr:	<stdin>
@vptr:	<stdin>
@vptr:	<stdin>
@vptr:	<stdin>
@vptr:	<stdin>
@vptr:	<stdin>
@vptr:	<stdin>
@vptr:	<stdin>
@vptr:	<stdin>
@vptr:	<stdin>
@vptr:	<stdin>
@vptr:	<stdin>
@vptr:	<stdin>
@vptr:	<stdin>
@vptr:	<stdin>
@vptr:	<stdin>
@vptr;	<stdin>
@wait_for_comp:	<stdin>
@weight:	<stdin>
@weight:	<stdin>
@wol:	<stdin>
@words:	<stdin>
@words:	<stdin>
@words:	<stdin>
@words:	<stdin>
@words:	<stdin>
@words:	<stdin>
@words:	<stdin>
@words:	<stdin>
@words:	<stdin>
@words:	<stdin>
@words:	<stdin>
@words:	<stdin>
@words:	<stdin>
@words:	<stdin>
@words:	<stdin>
@words:	<stdin>
@words:	<stdin>
@words:	<stdin>
@words:	<stdin>
@words:	<stdin>
@words:	<stdin>
@words:	<stdin>
@words:	<stdin>
@words:	<stdin>
@words:	<stdin>
@words:	<stdin>
@work:	<stdin>
@work:	<stdin>
@work:	<stdin>
@work:	<stdin>
@work:	<stdin>
@work:	<stdin>
@work:	<stdin>
@work:	<stdin>
@work:	<stdin>
@work:	<stdin>
@work_done:	<stdin>
@work_done:	<stdin>
@work_to_do:	<stdin>
@work_to_do:	<stdin>
@wwn	<stdin>
@wwn:	<stdin>
@wwnn_prefix:	<stdin>
@wwpn_prefix:	<stdin>
@xid:	<stdin>
@xid:	<stdin>
@xid:	<stdin>
@xid:	<stdin>
@xmit_type:	<stdin>
@xmit_type:	<stdin>
@xmit_type:	<stdin>
@zero_stats	<stdin>
A.G.deWijn@phys.uu.nl	<stdin>
Ethernet@WireSpeed	<stdin>
Peng.<edward_peng@dlink.com.tw>	<stdin>
Peng.<edward_peng@dlink.com.tw>	<stdin>
Timer/Retry@Half-Dup	<stdin>
aeb@cwi.nl	<stdin>
ahennessy@mvista.com	<stdin>
alfred.arnold@lancom.de)	<stdin>
andi@lisas.de	<stdin>
bart@etpmod.phys.tue.nl	<stdin>
becker@scyld.com	<stdin>
becker@scyld.com	<stdin>
becker@scyld.com,	<stdin>
becker@scyld.com,	<stdin>
becker@scyld.com,	<stdin>
becker@scyld.com,	<stdin>
becker@scyld.com,	<stdin>
becker@scyld.com,	<stdin>
becker@scyld.com,	<stdin>
becker@scyld.com,	<stdin>
becker@scyld.com,	<stdin>
becker@scyld.com,	<stdin>
becker@scyld.com,	<stdin>
becker@scyld.com,	<stdin>
becker@scyld.com,	<stdin>
becker@scyld.com,	<stdin>
becker@scyld.com,	<stdin>
becker@scyld.com,	<stdin>
becker@scyld.com,	<stdin>
becker@scyld.com,	<stdin>
becker@scyld.com,	<stdin>
becker@scyld.com,	<stdin>
becker@scyld.com,	<stdin>
bj0rn@blox.se	<stdin>
craig_rich@sundanceti.com	<stdin>
dahinds@users.sourceforge.net	<stdin>
dahinds@users.sourceforge.net	<stdin>
davies@maniac.ultranet.com.	<stdin>
davies@maniac.ultranet.com.	<stdin>
davies@maniac.ultranet.com\n";	<stdin>
davies@maniac.ultranet.com\n";	<stdin>
davies@wanton.lkg.dec.com	<stdin>
davies@wanton.lkg.dec.com	<stdin>
ethernet@wirespeed	<stdin>
glee@ardnassak.math.clemson.edu.	<stdin>
help@myri.com");	<stdin>
janpascal@vanbest.org	<stdin>
jesse@icplus.com.tw	<stdin>
krus@diku.dk.	<stdin>
linux-ns83820@kvack.org.	<stdin>
mdc_clk=%dHz(mdc_div=%d)@sclk=%dMHz)\n",	<stdin>
metapirat<metapirat@gmx.de>	<stdin>
peer.chen@uli.com.tw");	<stdin>
phdm@macqel.be.	<stdin>
rayk@knightsmanor.org	<stdin>
rayk@knightsmanor.org	<stdin>
rjohnson@analogic.com	<stdin>
rjohnson@analogic.com	<stdin>
sammy@oh.verio.com:	<stdin>
scott.feldman@intel.com.	<stdin>
scott.wood@timesys.com	<stdin>
sorbica@icplus.com.tw	<stdin>
sten_wang@davicom.com.tw	<stdin>
sten_wang@davicom.com.tw");	<stdin>
tsbogend@alpha.franken.de\n";	<stdin>
william@asix.com.tw.	<stdin>
