"@P@0001",	<stdin>
"@P@0020",	<stdin>
"@P@1001",	<stdin>
"@P@2001",	<stdin>
"eric.piel@tremplin-utc.net\n");	<stdin>
(anders@anduras.de)	<stdin>
(b-cousson@ti.com)	<stdin>
(cpad@jan-steinhoff	<stdin>
(davem@davemloft.net)	<stdin>
(downey@zymeta.com)	<stdin>
(frank@scirocco-5v-turbo.de)	<stdin>
(frank@scirocco-5v-turbo.de)	<stdin>
(greg@kroah.com)	<stdin>
(greg@kroah.com)	<stdin>
(johannes@sipsolutions.net)	<stdin>
(johannes@sipsolutions.net)	<stdin>
(linux-kernel@hansmi.ch)	<stdin>
(linux-kernel@hansmi.ch)	<stdin>
(nicolas@boichat.ch)	<stdin>
(nicolas@boichat.ch)	<stdin>
(petero2@telia.com)	<stdin>
(petero2@telia.com)	<stdin>
(rob@inpharmatica	<stdin>
(robert@and.nl)	<stdin>
(ron@debian.org)	<stdin>
(ron@debian.org)	<stdin>
(rydberg@euromail.se)	<stdin>
(scott.shawcroft@gmail.com)	<stdin>
(stelian@popies.net)	<stdin>
(stelian@popies.net)	<stdin>
<21cnbao@gmail.com>");	<stdin>
<21cnbao@gmail.com>");	<stdin>
<21cnbao@gmail.com>");	<stdin>
<21cnbao@gmail.com>");	<stdin>
<Henk.Vergonet@gmail.com>	<stdin>
<Henk.Vergonet@gmail.com>	<stdin>
<Nancy.Chen@freescale.com>,	<stdin>
<Oliver.Schwartz@gmx.de>,	<stdin>
<Richard.Zidlicky@stud.informatik.uni-erlangen.de>	<stdin>
<a.zummo@towertech.it>	<stdin>
<a.zummo@towertech.it>");	<stdin>
<aaro.koskinen@iki.fi>");	<stdin>
<abach@stofanet.dk>	<stdin>
<abach@stofanet.dk>	<stdin>
<adam.buchbinder@gmail.com>	<stdin>
<adrian@mcmen.demon.co.uk>");	<stdin>
<adrian@mcmen.demon.co.uk>");	<stdin>
<aeh@db.org>	<stdin>
<alan@linux.intel.com>	<stdin>
<alex.perry@ieee.org>	<stdin>
<alex@onefishtwo.ca>	<stdin>
<aliguori@us.ibm.com>	<stdin>
<amaloche@codeaurora.org>");	<stdin>
<aneesh@ti.com>	<stdin>
<anilkumar@ti.com>");	<stdin>
<anssi.hannula@gmail.com>	<stdin>
<anssi.hannula@gmail.com>	<stdin>
<anssi.hannula@gmail.com>");	<stdin>
<anssi.hannula@gmail.com>)	<stdin>
<aris@cathedrallabs.org>	<stdin>
<arjan@opmeer.net>	<stdin>
<arjan@opmeer.net>	<stdin>
<armbru@redhat.com>	<stdin>
<arnaud.patard@rtp-net.org>	<stdin>
<arndt@quelltext.com>	<stdin>
<axel.lin@gmail.com>");	<stdin>
<balajirrao@openmoko.org>	<stdin>
<balajirrao@openmoko.org>	<stdin>
<balajirrao@openmoko.org>");	<stdin>
<balajirrao@openmoko.org>");	<stdin>
<basilisk@foobox.net>	<stdin>
<bengt.g.jonsson@stericsson.com>	<stdin>
<bengt.g.jonsson@stericsson.com>	<stdin>
<bengt.g.jonsson@stericsson.com>	<stdin>
<bengt.jonsson@stericsson.com>	<stdin>
<bero@arklinux.org>	<stdin>
<bero@arklinux.org>	<stdin>
<binary1230@yahoo.com>	<stdin>
<blackhawk@ivanhawkes.com>	<stdin>
<bri@calyx.com>");	<stdin>
<bri@calyx.com>");	<stdin>
<bri@calyx.com>");	<stdin>
<bri@calyx.com>");	<stdin>
<broonie@opensource.wolfsonmicro.com>	<stdin>
<broonie@opensource.wolfsonmicro.com>	<stdin>
<broonie@opensource.wolfsonmicro.com>	<stdin>
<broonie@opensource.wolfsonmicro.com>	<stdin>
<broonie@opensource.wolfsonmicro.com>	<stdin>
<broonie@opensource.wolfsonmicro.com>	<stdin>
<broonie@opensource.wolfsonmicro.com>	<stdin>
<broonie@opensource.wolfsonmicro.com>	<stdin>
<broonie@opensource.wolfsonmicro.com>	<stdin>
<broonie@opensource.wolfsonmicro.com>	<stdin>
<broonie@opensource.wolfsonmicro.com>	<stdin>
<broonie@opensource.wolfsonmicro.com>	<stdin>
<broonie@opensource.wolfsonmicro.com>	<stdin>
<broonie@opensource.wolfsonmicro.com>	<stdin>
<broonie@opensource.wolfsonmicro.com>");	<stdin>
<broonie@opensource.wolfsonmicro.com>");	<stdin>
<broonie@opensource.wolfsonmicro.com>");	<stdin>
<broonie@opensource.wolfsonmicro.com>");	<stdin>
<broonie@opensource.wolfsonmicro.com>");	<stdin>
<broonie@opensource.wolfsonmicro.com>");	<stdin>
<broonie@opensource.wolfsonmicro.com>");	<stdin>
<broonie@opensource.wolfsonmicro.com>");	<stdin>
<broonie@opensource.wolfsonmicro.com>");	<stdin>
<bwheadley@earthlink.net>	<stdin>
<cananian@alumni.priceton.edu>	<stdin>
<canetl@esiee.fr>	<stdin>
<canetl@esiee.fr>,	<stdin>
<chf.fritz@googlemail.com>	<stdin>
<chris@crud.net>	<stdin>
<chudson@kionix.com>	<stdin>
<chudson@kionix.com>");	<stdin>
<clifford@clifford.at>	<stdin>
<clifford@clifford.at>	<stdin>
<corvus@gnu.org>	<stdin>
<corvus@gnu.org>	<stdin>
<courtney.cavin@sonyericsson.com>	<stdin>
<courtney.cavin@sonyericsson.com>");	<stdin>
<cpad@jan-steinhoff.de>");	<stdin>
<daniel@caiaq.de>	<stdin>
<daniel@caiaq.de>,	<stdin>
<davem@davemloft.net>");	<stdin>
<dbaryshkov@gmail.com>");	<stdin>
<dchen@diasemi.com>	<stdin>
<dchen@diasemi.com>	<stdin>
<dchen@diasemi.com>	<stdin>
<dchen@diasemi.com>	<stdin>
<dchen@diasemi.com>");	<stdin>
<dchen@diasemi.com>");	<stdin>
<dchen@diasemi.com>");	<stdin>
<dchen@diasemi.com>");	<stdin>
<debackex@esiee.fr>	<stdin>
<deller@gmx.de>	<stdin>
<deller@gmx.de>");	<stdin>
<dg77.kim@samsung.com>	<stdin>
<dg77.kim@samsung.com>");	<stdin>
<dilinger@debian.org>	<stdin>
<dm-devel@redhat.com>");	<stdin>
<dm-devel@redhat.com>");	<stdin>
<dm-devel@redhat.com>");	<stdin>
<downey@zymeta.com>"	<stdin>
<drwyrm@gmail.com>	<stdin>
<drwyrm@gmail.com>");	<stdin>
<dtor@mail.ru>	<stdin>
<dtor@mail.ru>	<stdin>
<dtor@mail.ru>	<stdin>
<dtor@mail.ru>	<stdin>
<dtor@mail.ru>	<stdin>
<dtor@mail.ru>	<stdin>
<dtor@mail.ru>	<stdin>
<dtor@mail.ru>");	<stdin>
<dtor@mail.ru>");	<stdin>
<dtor@mail.ru>");	<stdin>
<edouard.tisserant@wanadoo.fr>	<stdin>
<edouard.tisserant@wanadoo.fr>"	<stdin>
<egger@suse.de>	<stdin>
<egger@suse.de>	<stdin>
<egtvedt@samfundet.no>");	<stdin>
<egtvedt@samfundet.no>");	<stdin>
<eric.miao@marvell.com>"	<stdin>
<eric@yhbt.net>	<stdin>
<evanchsa@gmail.com>	<stdin>
<evanchsa@gmail.com>	<stdin>
<ext-jari.vanhala@nokia.com>	<stdin>
<ext-javi.vanhala@nokia.com>	<stdin>
<ext-roger.quadros@nokia.com>	<stdin>
<ext-roger.quadros@nokia.com>	<stdin>
<fabien.marteau@armadeus.com>	<stdin>
<fabien.marteau@armadeus.com>");	<stdin>
<felipe.balbi@nokia.com>	<stdin>
<felipe.balbi@nokia.com>	<stdin>
<felipe.balbi@nokia.com>	<stdin>
<felipe.balbi@nokia.com>	<stdin>
<felipe.balbi@nokia.com>");	<stdin>
<flepied@mandrakesoft.com>	<stdin>
<franz@caos.at>,	<stdin>
<g.liakhovetski@gmx.de>	<stdin>
<g.liakhovetski@gmx.de>");	<stdin>
<gg@slimlogic.co.uk>	<stdin>
<gg@slimlogic.co.uk>	<stdin>
<gg@slimlogic.co.uk>	<stdin>
<gg@slimlogic.co.uk>");	<stdin>
<gg@slimlogic.co.uk>");	<stdin>
<gkmarty@gmail.com>	<stdin>
<grinberg@compulab.co.il>	<stdin>
<gxt@mprc.pku.edu.cn>	<stdin>
<haojian.zhuang@marvell.com>	<stdin>
<haojian.zhuang@marvell.com>	<stdin>
<haojian.zhuang@marvell.com>	<stdin>
<haojian.zhuang@marvell.com>	<stdin>
<haojian.zhuang@marvell.com>	<stdin>
<haojian.zhuang@marvell.com>	<stdin>
<haojian.zhuang@marvell.com>");	<stdin>
<haojian.zhuang@marvell.com>");	<stdin>
<haojian.zhuang@marvell.com>");	<stdin>
<haojian.zhuang@marvell.com>");	<stdin>
<haojian.zhuang@marvell.com>");	<stdin>
<hdoyu@nvidia.com>");	<stdin>
<hdoyu@nvidia.com>");	<stdin>
<heiko@sntech.de>	<stdin>
<heiko@sntech.de>	<stdin>
<heiko@sntech.de>");	<stdin>
<heiko@sntech.de>");	<stdin>
<hemanthv@ti.com>	<stdin>
<hemanthv@ti.com>	<stdin>
<hemanthv@ti.com>	<stdin>
<hemanthv@ti.com>");	<stdin>
<hemanthv@ti.com>");	<stdin>
<hennerich@blackfin.uclinux.org>");	<stdin>
<hennerich@blackfin.uclinux.org>");	<stdin>
<hennerich@blackfin.uclinux.org>");	<stdin>
<hennerich@blackfin.uclinux.org>");	<stdin>
<hennerich@blackfin.uclinux.org>");	<stdin>
<hennerich@blackfin.uclinux.org>");	<stdin>
<hennerich@blackfin.uclinux.org>");	<stdin>
<hennerich@blackfin.uclinux.org>");	<stdin>
<hennerich@blackfin.uclinux.org>");	<stdin>
<hennerich@blackfin.uclinux.org>");	<stdin>
<hennerich@blackfin.uclinux.org>");	<stdin>
<hennerich@blackfin.uclinux.org>");	<stdin>
<hennerich@blackfin.uclinux.org>");	<stdin>
<hennerich@blackfin.uclinux.org>");	<stdin>
<hennerich@blackfin.uclinux.org>");	<stdin>
<henrik.saari@nokia.com>	<stdin>
<henrik.saari@nokia.com>	<stdin>
<honza@jikos.cz>	<stdin>
<ilya.muromec@gmail.com>	<stdin>
<ilya.muromec@gmail.com>");	<stdin>
<jack.yoo@maxim-ic.com>	<stdin>
<jack.yoo@maxim-ic.com>");	<stdin>
<jasonparekh@gmail.com>	<stdin>
<jbglaw@lug-owl.de>	<stdin>
<jbglaw@lug-owl.de>");	<stdin>
<jedu@slimlogic.co.uk>	<stdin>
<jedu@slimlogic.co.uk>	<stdin>
<jhovold@gmail.com>	<stdin>
<jhovold@gmail.com>	<stdin>
<jhovold@gmail.com>");	<stdin>
<jic23@kernel.org>");	<stdin>
<jic23@kernel.org>");	<stdin>
<jinyoungp@nvidia.com>	<stdin>
<jinyoungp@nvidia.com>");	<stdin>
<jochen@penguin-breeder.org>	<stdin>
<johann.deneux@gmail.com>	<stdin>
<johann.deneux@gmail.com>	<stdin>
<johann.deneux@gmail.com>	<stdin>
<johann.deneux@gmail.com>	<stdin>
<johann.deneux@gmail.com>	<stdin>
<johann.deneux@gmail.com>	<stdin>
<johann.deneux@gmail.com>");	<stdin>
<jonas.aberg@stericsson.com>	<stdin>
<jonghwa3.lee@samsung.com>	<stdin>
<jorge.candelaria@ti.com>	<stdin>
<jorge.candelaria@ti.com>");	<stdin>
<joseph_lai@wistron.com>	<stdin>
<josh@joshisanerd.com>"	<stdin>
<juhosg@openwrt.org>	<stdin>
<kall@compass.com>	<stdin>
<kenan.esau@conan.de>	<stdin>
<kyungmin.park@samsung.com>	<stdin>
<kyungmin.park@samsung.com>");	<stdin>
<lars@metafoo.de>	<stdin>
<lars@metafoo.de>	<stdin>
<lars@metafoo.de>	<stdin>
<lars@metafoo.de>	<stdin>
<lars@metafoo.de>	<stdin>
<lars@metafoo.de>	<stdin>
<lars@metafoo.de>	<stdin>
<lars@metafoo.de>	<stdin>
<lars@metafoo.de>	<stdin>
<lars@metafoo.de>");	<stdin>
<lars@metafoo.de>");	<stdin>
<lars@metafoo.de>");	<stdin>
<lars@metafoo.de>");	<stdin>
<lars@metafoo.de>");	<stdin>
<lars@metafoo.de>");	<stdin>
<lars@metafoo.de>");	<stdin>
<lars@metafoo.de>");	<stdin>
<lars@metafoo.de>");	<stdin>
<lars@metafoo.de>");	<stdin>
<lars@metafoo.de>");	<stdin>
<lars@metafoo.de>");	<stdin>
<lars@metafoo.de>");	<stdin>
<lars@metafoo.de>");	<stdin>
<lars@metafoo.de>");	<stdin>
<ldewangan@nvidia.com>	<stdin>
<ldewangan@nvidia.com>	<stdin>
<ldewangan@nvidia.com>	<stdin>
<ldewangan@nvidia.com>	<stdin>
<ldewangan@nvidia.com>	<stdin>
<ldewangan@nvidia.com>");	<stdin>
<ldewangan@nvidia.com>");	<stdin>
<ldewangan@nvidia.com>");	<stdin>
<ldewangan@nvidia.com>");	<stdin>
<ldewangan@nvidia.com>");	<stdin>
<linus.walleij@linaro.org>	<stdin>
<linus.walleij@linaro.org>");	<stdin>
<linus.walleij@stericsson.com>	<stdin>
<linux@dadeos.co.uk>	<stdin>
<lost.distance@yahoo.com>	<stdin>
<lost.distance@yahoo.com>");	<stdin>
<lrg@slimlogic.co.uk>	<stdin>
<m.szyprowski@samsung.com>	<stdin>
<m.szyprowski@samsung.com>	<stdin>
<m.szyprowski@samsung.com>");	<stdin>
<macro@ds2.pg.gda.pl>	<stdin>
<magi@slimlogic.co.uk>	<stdin>
<magi@slimlogic.co.uk>");	<stdin>
<maramaopercheseimorto@gmail.com>	<stdin>
<maramaopercheseimorto@gmail.com>	<stdin>
<marek.vasut@gmail.com>	<stdin>
<marek.vasut@gmail.com>");	<stdin>
<marteaut@esiee.fr>	<stdin>
<mattias.wallin@stericsson.com>	<stdin>
<mattias.wallin@stericsson.com>");	<stdin>
<maxime.ripard@free-electrons.com>");	<stdin>
<merker@linuxtag.org>	<stdin>
<mfr@bmx-chemnitz.de>	<stdin>
<mfr@bmx-chemnitz.de>"	<stdin>
<micah@navi.cx>)	<stdin>
<mike@compulab.co.il>	<stdin>
<mike@compulab.co.il>	<stdin>
<mike@compulab.co.il>	<stdin>
<mike@compulab.co.il>");	<stdin>
<mike@compulab.co.il>");	<stdin>
<mike@compulab.co.il>");	<stdin>
<milo.kim@ti.com>	<stdin>
<milo.kim@ti.com>	<stdin>
<milo.kim@ti.com>	<stdin>
<milo.kim@ti.com>	<stdin>
<misael.lopez@ti.com>	<stdin>
<misael.lopez@ti.com>");	<stdin>
<mitr@volny.cz>	<stdin>
<mitr@volny.cz>	<stdin>
<mitr@volny.cz>");	<stdin>
<myungjoo.ham@samsung.com>	<stdin>
<myungjoo.ham@samsung.com>");	<stdin>
<myungjoo.ham@samsung.com>");	<stdin>
<myungjoo.ham@smasung.com>	<stdin>
<n0-1@freewrt.org>	<stdin>
<n0-1@freewrt.org>");	<stdin>
<neilb@cse.unsw.edu.au>	<stdin>
<neilb@cse.unsw.edu.au>	<stdin>
<nunojpg@gmail.com>	<stdin>
<olof@lixom.net>	<stdin>
<oskar.andero@sonyericsson.com>	<stdin>
<panagiotis.issaris@mech.kuleuven.ac.be>	<stdin>
<paul.liu@linaro.org>");	<stdin>
<pawel.moll@arm.com>");	<stdin>
<peter.de-schrijver@nokia.com>	<stdin>
<peter.de-schrijver@nokia.com>	<stdin>
<peter.de-schrijver@nokia.com>");	<stdin>
<petero2@telia.com>	<stdin>
<petero2@telia.com>	<stdin>
<petero2@telia.com>	<stdin>
<petero2@telia.com>	<stdin>
<pingc@wacom.com>	<stdin>
<pmeerw@pmeerw.net>	<stdin>
<pmeerw@pmeerw.net>	<stdin>
<pmeerw@pmeerw.net>	<stdin>
<pmeerw@pmeerw.net>");	<stdin>
<pmeerw@pmeerw.net>");	<stdin>
<pmeerw@pmeerw.net>");	<stdin>
<poeschel@lemonage.de>	<stdin>
<poeschel@lemonage.de>");	<stdin>
<popovec@fei.tuke.sk>");	<stdin>
<prumpf@tux.org>	<stdin>
<psokolov@synopsys.com>	<stdin>
<psokolov@synopsys.com>");	<stdin>
<rachna@ti.com>");	<stdin>
<riddlebox@freesurf.ch>	<stdin>
<rmk@arm.linux.org.uk>");	<stdin>
<rmk@arm.linux.org.uk>");	<stdin>
<rmk@arm.linux.org.uk>");	<stdin>
<rmk@arm.uk.linux.org>	<stdin>
<rnayak@ti.com>	<stdin>
<rob@inpharmatica.co.uk>,	<stdin>
<ron@debian.org>,	<stdin>
<rpurdie@rpsys.net>");	<stdin>
<rufus-kernel@hackish.org>	<stdin>
<rz@linux-m68k.org>");	<stdin>
<s.hauer@pengutronix.de>	<stdin>
<s.hauer@pengutronix.de>	<stdin>
<s.hauer@pengutronix.de>");	<stdin>
<sam.mosel@computer.org>	<stdin>
<sam.mosel@computer.org>	<stdin>
<santosh.shilimkar@ti.com>	<stdin>
<sbkim73@samsung.com>");	<stdin>
<sbkim73@samsung.com>");	<stdin>
<schmitz@biophys.uni-duesseldorf.de>");	<stdin>
<sebastian_kapfer@gmx.net>	<stdin>
<shemminger@linux-foundation.org>	<stdin>
<shemminger@linux-foundation.org>");	<stdin>
<sjackman@gmail.com>	<stdin>
<sjackman@gmail.com>	<stdin>
<srinivas.pandruvada@intel.com>");	<stdin>
<srinivas.pandruvada@intel.com>");	<stdin>
<srinivas.pandruvada@intel.com>");	<stdin>
<srinivas.pandruvada@intel.com>");	<stdin>
<srinivas.pandruvada@intel.com>");	<stdin>
<srinivas.pandruvada@intel.com>");	<stdin>
<steve@toth.demon.co.uk>,	<stdin>
<stigge@antcom.de>	<stdin>
<stigge@antcom.de>	<stdin>
<stigge@antcom.de>");	<stdin>
<sundar.iyer@stericsson.com>	<stdin>
<sundar.iyer@stericsson.com>	<stdin>
<sundar.iyer@stericsson.com>	<stdin>
<sundar.iyer@stericsson.com>	<stdin>
<sundar.iyer@stericsson.com>");	<stdin>
<sundar.iyer@stericsson.com>");	<stdin>
<svoltz@numericable.fr>	<stdin>
<syrjala@sci.fi>	<stdin>
<syrjala@sci.fi>");	<stdin>
<thierry.reding@avionic-design.de>");	<stdin>
<thomas@wytron.com.tw>	<stdin>
<thomas@wytron.com.tw>");	<stdin>
<tiwai@suse.de>	<stdin>
<tiwai@suse.de>");	<stdin>
<tsbogend@alpha.franken.de>	<stdin>
<tsoni@codeaurora.org>");	<stdin>
<varenet@parisc-linux.org>	<stdin>
<varenet@parisc-linux.org>,	<stdin>
<vbyravarasu@nvidia.com>");	<stdin>
<vivien.chappelier@linux-mips.org");	<stdin>
<vojtech@suse.cz>	<stdin>
<vojtech@suse.cz>	<stdin>
<vojtech@suse.cz>	<stdin>
<vojtech@suse.cz>	<stdin>
<vojtech@suse.cz>	<stdin>
<vojtech@suse.cz>	<stdin>
<vojtech@suse.cz>	<stdin>
<vojtech@suse.cz>	<stdin>
<vojtech@suse.cz>");	<stdin>
<vojtech@suse.cz>");	<stdin>
<vojtech@ucw.cz>	<stdin>
<vojtech@ucw.cz>	<stdin>
<vojtech@ucw.cz>	<stdin>
<vojtech@ucw.cz>	<stdin>
<vojtech@ucw.cz>	<stdin>
<vojtech@ucw.cz>	<stdin>
<vojtech@ucw.cz>	<stdin>
<vojtech@ucw.cz>"	<stdin>
<vojtech@ucw.cz>");	<stdin>
<vojtech@ucw.cz>");	<stdin>
<vojtech@ucw.cz>");	<stdin>
<vojtech@ucw.cz>");	<stdin>
<vojtech@ucw.cz>");	<stdin>
<vojtech@ucw.cz>");	<stdin>
<vojtech@ucw.cz>");	<stdin>
<vojtech@ucw.cz>");	<stdin>
<vojtech@ucw.cz>");	<stdin>
<vojtech@ucw.cz>");	<stdin>
<vojtech@ucw.cz>");	<stdin>
<vojtech@ucw.cz>");	<stdin>
<vojtech@ucw.cz>");	<stdin>
<vojtech@ucw.cz>");	<stdin>
<vojtech@ucw.cz>");	<stdin>
<vojtech@ucw.cz>");	<stdin>
<vojtech@ucw.cz>");	<stdin>
<vojtech@ucw.cz>");	<stdin>
<vojtech@ucw.cz>");	<stdin>
<vojtech@ucw.cz>");	<stdin>
<vojtech@ucw.cz>");	<stdin>
<vojtech@ucw.cz>");	<stdin>
<vojtech@ucw.cz>");	<stdin>
<vojtech@ucw.cz>");	<stdin>
<vojtech@ucw.cz>");	<stdin>
<vojtech@ucw.cz>");	<stdin>
<vojtech@ucw.cz>");	<stdin>
<vojtech@ucw.cz>");	<stdin>
<vojtech@ucw.cz>");	<stdin>
<vojtech@ucw.cz>");	<stdin>
<vojtech@ucw.cz>");	<stdin>
<vojtech@ucw.cz>");	<stdin>
<vojtech@ucw.cz>");	<stdin>
<vojtech@ucw.cz>");	<stdin>
<vojtech@ucw.cz>");	<stdin>
<vojtech@ucw.cz>");	<stdin>
<vojtech@ucw.cz>,	<stdin>
<vojtech@ucw.cz>,	<stdin>
<vojtech@ucw.cz>,	<stdin>
<vojtech@ucw.cz>,	<stdin>
<vojtech@ucw.cz>,	<stdin>
<vojtech@ucw.cz>,	<stdin>
<vojtech@ucw.cz>,	<stdin>
<vojtech@ucw.cz>,	<stdin>
<vojtech@ucw.cz>,	<stdin>
<vojtech@ucw.cz>,	<stdin>
<vojtech@ucw.cz>,	<stdin>
<vojtech@ucw.cz>,	<stdin>
<vojtech@ucw.cz>,	<stdin>
<vojtech@ucw.cz>,	<stdin>
<vojtech@ucw.cz>,	<stdin>
<vojtech@ucw.cz>,	<stdin>
<vojtech@ucw.cz>,	<stdin>
<vojtech@ucw.cz>,	<stdin>
<vojtech@ucw.cz>,	<stdin>
<vojtech@ucw.cz>,	<stdin>
<vojtech@ucw.cz>,	<stdin>
<vojtech@ucw.cz>,	<stdin>
<vojtech@ucw.cz>,	<stdin>
<vojtech@ucw.cz>,	<stdin>
<vojtech@ucw.cz>,	<stdin>
<vojtech@ucw.cz>,	<stdin>
<vojtech@ucw.cz>,	<stdin>
<vojtech@ucw.cz>,	<stdin>
<vojtech@ucw.cz>,	<stdin>
<vojtech@ucw.cz>,	<stdin>
<vojtech@ucw.cz>,	<stdin>
<vojtech@ucw.cz>,	<stdin>
<vojtech@ucw.cz>,	<stdin>
<vojtech@ucw.cz>,	<stdin>
<vojtech@ucw.cz>,	<stdin>
<vojtech@ucw.cz>,	<stdin>
<vojtech@ucw.cz>,	<stdin>
<vojtech@ucw.cz>,	<stdin>
<vojtech@ucw.cz>\n",	<stdin>
<vojtech@ucw.cz>\n",	<stdin>
<weixing@hanwang.com.cn>	<stdin>
<weixing@hanwang.com.cn>"	<stdin>
<will@sowerbutts.com>	<stdin>
<woong.byun@samsung.com>");	<stdin>
<woong.byun@smasung.com>	<stdin>
<xu.zhang@bosch-sensortec.com>");	<stdin>
<yaoyong@marvell.com>	<stdin>
<yaoyong@marvell.com>");	<stdin>
<yfzhang@marvell.com>	<stdin>
<yfzhang@marvell.com>");	<stdin>
<yong.shen@linaro.org>	<stdin>
<yong.shen@linaro.org>	<stdin>
<yong.shen@linaro.org>	<stdin>
<yong.shen@linaro.org>	<stdin>
<yong.shen@linaro.org>");	<stdin>
<yong.shen@linaro.org>");	<stdin>
<yuasa@linux-mips.org>	<stdin>
<yuasa@linux-mips.org>");	<stdin>
<zhouqiao@marvell.com>	<stdin>
<zhouqiao@marvell.com>");	<stdin>
@2.1V	<stdin>
@3.1V	<stdin>
@ATP_STATUS_BASE_UPDATE:	<stdin>
@ATP_STATUS_BUTTON:	<stdin>
@ATP_STATUS_FROM_RESET:	<stdin>
@ab8500:	<stdin>
@active:	<stdin>
@active:	<stdin>
@addressing	<stdin>
@adis:	<stdin>
@adis:	<stdin>
@adis:	<stdin>
@adis:	<stdin>
@adis:	<stdin>
@adis:	<stdin>
@adis:	<stdin>
@adis:	<stdin>
@adis:	<stdin>
@adis:	<stdin>
@allow:	<stdin>
@autorelease:	<stdin>
@autorelease:	<stdin>
@base:	<stdin>
@bit:	<stdin>
@bits:	<stdin>
@buffer:	<stdin>
@buffer:	<stdin>
@byte:	<stdin>
@c:	<stdin>
@calib_shift:	<stdin>
@cb:	<stdin>
@chan:	<stdin>
@chan:	<stdin>
@channel	<stdin>
@channel:	<stdin>
@channel:	<stdin>
@channel:	<stdin>
@channel:	<stdin>
@channel_template:	<stdin>
@channel_template:	<stdin>
@channel_template:	<stdin>
@channels:	<stdin>
@channels:	<stdin>
@channels:	<stdin>
@channels:	<stdin>
@channels_per_group:	<stdin>
@chip_info:	<stdin>
@chip_info:	<stdin>
@chip_info:	<stdin>
@chip_info:	<stdin>
@chip_info:	<stdin>
@chip_info:	<stdin>
@chip_info:	<stdin>
@chip_info:	<stdin>
@chip_info:	<stdin>
@chip_info:	<stdin>
@chip_info:	<stdin>
@client:	<stdin>
@client:	<stdin>
@client:	<stdin>
@client:	<stdin>
@client:	<stdin>
@client:	<stdin>
@code:	<stdin>
@code:	<stdin>
@code:	<stdin>
@cols:	<stdin>
@comm:	<stdin>
@conf:	<stdin>
@config:	<stdin>
@configbyte:	<stdin>
@constraints:	<stdin>
@consumer_dev_name:	<stdin>
@consumers:	<stdin>
@consumers:	<stdin>
@consumers:	<stdin>
@consumers:	<stdin>
@consumers:	<stdin>
@consumers:	<stdin>
@coords:	<stdin>
@count:	<stdin>
@ctrl:	<stdin>
@ctrl:	<stdin>
@ctrl:	<stdin>
@curr_regs:	<stdin>
@current_mode:	<stdin>
@current_range:	<stdin>
@dac_cache:	<stdin>
@dac_cache:	<stdin>
@data:	<stdin>
@data:	<stdin>
@data:	<stdin>
@data:	<stdin>
@data:	<stdin>
@data:	<stdin>
@data:	<stdin>
@data:	<stdin>
@data:	<stdin>
@data:	<stdin>
@data:	<stdin>
@data:	<stdin>
@data:	<stdin>
@data:	<stdin>
@data:	<stdin>
@debugfs_root:	<stdin>
@default_mode:	<stdin>
@delay:	<stdin>
@desc:	<stdin>
@desc:	<stdin>
@det_events:	<stdin>
@dev->ffbit	<stdin>
@dev:	<stdin>
@dev:	<stdin>
@dev:	<stdin>
@dev:	<stdin>
@dev:	<stdin>
@dev:	<stdin>
@dev:	<stdin>
@dev:	<stdin>
@dev:	<stdin>
@dev:	<stdin>
@dev:	<stdin>
@dev:	<stdin>
@dev:	<stdin>
@dev:	<stdin>
@dev:	<stdin>
@dev:	<stdin>
@dev:	<stdin>
@dev:	<stdin>
@dev:	<stdin>
@dev:	<stdin>
@dev:	<stdin>
@dev:	<stdin>
@dev:	<stdin>
@dev:	<stdin>
@dev:	<stdin>
@dev:	<stdin>
@dev:	<stdin>
@dev:	<stdin>
@dev:	<stdin>
@dev:	<stdin>
@dev:	<stdin>
@dev:	<stdin>
@dev:	<stdin>
@dev:	<stdin>
@dev:	<stdin>
@dev:	<stdin>
@dev:	<stdin>
@dev:	<stdin>
@dev:	<stdin>
@dev:	<stdin>
@dev_attr_list:	<stdin>
@device:	<stdin>
@device_type:	<stdin>
@drvdata:	<stdin>
@duplicate:	<stdin>
@effect:	<stdin>
@effect:	<stdin>
@effect_id:	<stdin>
@enable:	<stdin>
@enable:	<stdin>
@enable:	<stdin>
@epod_id:	<stdin>
@error_mask:	<stdin>
@event:	<stdin>
@fault_mask:	<stdin>
@file:	<stdin>
@file:	<stdin>
@flags:	<stdin>
@flags:	<stdin>
@fract:	<stdin>
@fract_mult:	<stdin>
@from:	<stdin>
@get_lin_comp:	<stdin>
@group:	<stdin>
@has_ctrl:	<stdin>
@has_sdo:	<stdin>
@has_voltage_out:	<stdin>
@id:	<stdin>
@id:	<stdin>
@id:	<stdin>
@id:	<stdin>
@id:	<stdin>
@indio_dev:	<stdin>
@indio_dev:	<stdin>
@indio_dev:	<stdin>
@indio_dev:	<stdin>
@indio_dev:	<stdin>
@indio_dev:	<stdin>
@indio_dev:	<stdin>
@indio_dev:	<stdin>
@indio_dev:	<stdin>
@indio_dev:	<stdin>
@indio_dev:	<stdin>
@indio_dev:	<stdin>
@indio_dev:	<stdin>
@indio_dev:	<stdin>
@indio_dev:	<stdin>
@indio_dev:	<stdin>
@indio_dev:	<stdin>
@indio_dev:	<stdin>
@info:	<stdin>
@info:	<stdin>
@inmate	<stdin>
@inmate	<stdin>
@inmates	<stdin>
@input:	<stdin>
@input:	<stdin>
@input_dev:	<stdin>
@input_dev:	<stdin>
@int_vref:	<stdin>
@int_vref:	<stdin>
@int_vref_mv:	<stdin>
@int_vref_mv:	<stdin>
@int_vref_mv:	<stdin>
@int_vref_mv:	<stdin>
@int_vref_mv:	<stdin>
@integer:	<stdin>
@internal_vref:	<stdin>
@irq:	<stdin>
@irq_dbf:	<stdin>
@irq_dbr:	<stdin>
@is_enabled:	<stdin>
@is_ramret:	<stdin>
@ke:	<stdin>
@key:	<stdin>
@key_press_irq:	<stdin>
@keycode:	<stdin>
@keymap	<stdin>
@keymap:	<stdin>
@keymap:	<stdin>
@keymap_data	<stdin>
@keymap_data:	<stdin>
@keymap_name	<stdin>
@keymap_name	<stdin>
@keymap_name:	<stdin>
@l:	<stdin>
@length:	<stdin>
@length:	<stdin>
@level:	<stdin>
@mask:	<stdin>
@mask_high:	<stdin>
@mask_low:	<stdin>
@match:	<stdin>
@matches:	<stdin>
@max_effects:	<stdin>
@max_uA:	<stdin>
@max_uV:	<stdin>
@max_uV:	<stdin>
@max_uV:	<stdin>
@max_uV:	<stdin>
@min_uA:	<stdin>
@min_uV:	<stdin>
@min_uV:	<stdin>
@min_uV:	<stdin>
@min_uV:	<stdin>
@mode:	<stdin>
@mode:	<stdin>
@mode_list:	<stdin>
@modemask:	<stdin>
@monitor_on:	<stdin>
@monitor_speed:	<stdin>
@ms:	<stdin>
@n:	<stdin>
@name:	<stdin>
@nb:	<stdin>
@nb:	<stdin>
@new_selector:	<stdin>
@new_uV:	<stdin>
@node	<stdin>
@node:	<stdin>
@node:	<stdin>
@np:	<stdin>
@np_ddr:	<stdin>
@np_ddr:	<stdin>
@nr_cells	<stdin>
@nr_frequencies:	<stdin>
@num_channels:	<stdin>
@num_channels:	<stdin>
@num_channels:	<stdin>
@num_channels:	<stdin>
@num_channels:	<stdin>
@num_channels:	<stdin>
@num_consumers:	<stdin>
@num_consumers:	<stdin>
@num_consumers:	<stdin>
@num_consumers:	<stdin>
@num_consumers:	<stdin>
@num_consumers:	<stdin>
@num_matches:	<stdin>
@num_pos:	<stdin>
@num_slots:	<stdin>
@num_supplies:	<stdin>
@num_vrefs:	<stdin>
@of_dev:	<stdin>
@of_dev:	<stdin>
@old_selector:	<stdin>
@old_uV:	<stdin>
@on:	<stdin>
@operating_point:	<stdin>
@param	<stdin>
@param	<stdin>
@param	<stdin>
@param	<stdin>
@param	<stdin>
@param	<stdin>
@param	<stdin>
@param	<stdin>
@plat_data:	<stdin>
@platform_device:	<stdin>
@play_effect	<stdin>
@play_effect:	<stdin>
@plfdata:	<stdin>
@pollfunc_bh:	<stdin>
@pollfunc_th:	<stdin>
@pos:	<stdin>
@pserio:	<stdin>
@pserio:	<stdin>
@pserio:	<stdin>
@pwr_down:	<stdin>
@pwr_down:	<stdin>
@pwr_down:	<stdin>
@pwr_down_mask	<stdin>
@pwr_down_mask	<stdin>
@pwr_down_mask:	<stdin>
@pwr_down_mode	<stdin>
@pwr_down_mode	<stdin>
@pwr_down_mode	<stdin>
@pwr_down_mode:	<stdin>
@pwr_down_mode:	<stdin>
@rdev:	<stdin>
@rdev:	<stdin>
@rdev:	<stdin>
@rdev:	<stdin>
@rdev:	<stdin>
@rdev:	<stdin>
@rdev:	<stdin>
@rdev:	<stdin>
@rdev:	<stdin>
@rdev:	<stdin>
@rdev:	<stdin>
@rdev:	<stdin>
@rdev:	<stdin>
@rdev:	<stdin>
@rdev:	<stdin>
@rdev:	<stdin>
@rdev:	<stdin>
@rdev:	<stdin>
@rdev:	<stdin>
@rdev:	<stdin>
@reg:	<stdin>
@reg:	<stdin>
@reg:	<stdin>
@reg:	<stdin>
@reg:	<stdin>
@reg:	<stdin>
@reg:	<stdin>
@reg:	<stdin>
@reg:	<stdin>
@reg:	<stdin>
@reg_vdd:	<stdin>
@reg_vib_drv:	<stdin>
@reg_vss:	<stdin>
@regmap:	<stdin>
@regreg:	<stdin>
@regs_cache:	<stdin>
@regulator:	<stdin>
@regulator:	<stdin>
@regulator:	<stdin>
@regulator:	<stdin>
@regulator:	<stdin>
@regulator:	<stdin>
@regulator:	<stdin>
@regulator:	<stdin>
@regulator:	<stdin>
@regulator:	<stdin>
@regulator:	<stdin>
@regulator:	<stdin>
@regulator:	<stdin>
@regulator:	<stdin>
@regulator:	<stdin>
@regulator:	<stdin>
@regulator:	<stdin>
@regulator:	<stdin>
@regulator:	<stdin>
@regulator:	<stdin>
@regulator:	<stdin>
@regulator:	<stdin>
@regulator:	<stdin>
@regulator:	<stdin>
@regulator:	<stdin>
@regulator_desc:	<stdin>
@regulator_dev:	<stdin>
@regulator_set_voltage(),	<stdin>
@requestedmask:	<stdin>
@return	<stdin>
@return	<stdin>
@return	<stdin>
@return	<stdin>
@return	<stdin>
@return:	<stdin>
@return:	<stdin>
@rows:	<stdin>
@sel:	<stdin>
@selector:	<stdin>
@selector:	<stdin>
@selector:	<stdin>
@sensor:	<stdin>
@setup:	<stdin>
@setup_ops:	<stdin>
@setupbyte:	<stdin>
@shared_vref:	<stdin>
@sigma_delta:	<stdin>
@sigma_delta:	<stdin>
@sigma_delta:	<stdin>
@sigma_delta:	<stdin>
@sigma_delta:	<stdin>
@size:	<stdin>
@size:	<stdin>
@slots:	<stdin>
@speed:	<stdin>
@spi:	<stdin>
@spi:	<stdin>
@spi:	<stdin>
@spi:	<stdin>
@spi:	<stdin>
@spi:	<stdin>
@spi:	<stdin>
@spi:	<stdin>
@spi:	<stdin>
@state:	<stdin>
@str:	<stdin>
@supplies:	<stdin>
@supply:	<stdin>
@supply:	<stdin>
@supply_rdev:	<stdin>
@temperature_level:	<stdin>
@thresh_high:	<stdin>
@thresh_low:	<stdin>
@to:	<stdin>
@tool_type:	<stdin>
@trig:	<stdin>
@trigger_handler:	<stdin>
@type:	<stdin>
@uA_load:	<stdin>
@update_bank:	<stdin>
@update_mask:	<stdin>
@update_reg:	<stdin>
@update_val_enable:	<stdin>
@us:	<stdin>
@us:	<stdin>
@us:	<stdin>
@use_count:	<stdin>
@use_internal_vref:	<stdin>
@uv:	<stdin>
@val:	<stdin>
@val:	<stdin>
@val:	<stdin>
@val:	<stdin>
@val:	<stdin>
@val:	<stdin>
@value	<stdin>
@value.	<stdin>
@value:	<stdin>
@value:	<stdin>
@value:	<stdin>
@vib:	<stdin>
@vib:	<stdin>
@vib:	<stdin>
@vib_input_dev:	<stdin>
@voltage_bank:	<stdin>
@voltage_mask:	<stdin>
@voltage_reg:	<stdin>
@voltage_shift:	<stdin>
@vref:	<stdin>
@vref_mv:	<stdin>
@vref_mv:	<stdin>
@vref_mv:	<stdin>
@vref_mv:	<stdin>
@vref_mv:	<stdin>
@vref_neg_mv:	<stdin>
@vref_reg:	<stdin>
@vref_reg:	<stdin>
@vref_reg:	<stdin>
@vref_reg:	<stdin>
@vref_reg:	<stdin>
@wait:	<stdin>
@work:	<stdin>
@work:	<stdin>
@write:	<stdin>
@write:	<stdin>
daniel@gimpelevich.san-francisco.ca.us	<stdin>
jroberson@gtcocalcomp.com	<stdin>
july@nat.bg	<stdin>
linux@wolfsonmicro.com	<stdin>
shill@gtcocalcomp.com	<stdin>
vojtech@ucw.cz\n",	<stdin>
