"<laurent.pinchart@ideasonboard.com>"	<stdin>
"<linux-media@vger.kernel.org>.\n",	<stdin>
"<luca.risolia@studio.unibo.it>"	<stdin>
(640x480@7.5	<stdin>
(ademol@dibcom.fr)	<stdin>
(ademol@dibcom.fr)	<stdin>
(aet@rasterburn.org)	<stdin>
(alannisota@gmail.com)	<stdin>
(alannisota@gmail.com)	<stdin>
(alannisota@gmail.com)	<stdin>
(alannisota@gmail.com)	<stdin>
(anders.blomdell@control.lth.se)	<stdin>
(c.pascoe@itee.uq.edu.au)	<stdin>
(ccheney@cheney.cx),	<stdin>
(david.cohen@indt.org.br)	<stdin>
(dh1pa@amsat.org)	<stdin>
(eric_sandeen@bigfoot.com)	<stdin>
(g.marco@freenet.de)	<stdin>
(galexand@acm.org)	<stdin>
(genpix@genpix-electronics.com)	<stdin>
(genpix@genpix-electronics.com)	<stdin>
(greg@kroah.com)	<stdin>
(j@jannau.net)	<stdin>
(j@jannau.net)	<stdin>
(j@jannau.net)	<stdin>
(j@jannau.net)	<stdin>
(j@jannau.net)	<stdin>
(jburks@wavicle.org),	<stdin>
(jtyner@cs.ucr.edu),	<stdin>
(kjsisson@bellsouth.net)	<stdin>
(lafeuil@gmail.com)	<stdin>
(laurent.pinchart@ideasonboard.com)	<stdin>
(laurent.pinchart@ideasonboard.com)	<stdin>
(laurent.pinchart@ideasonboard.com)	<stdin>
(laurent.pinchart@ideasonboard.com)	<stdin>
(laurent.pinchart@ideasonboard.com)	<stdin>
(laurent.pinchart@ideasonboard.com)	<stdin>
(laurent.pinchart@ideasonboard.com)	<stdin>
(laurent.pinchart@ideasonboard.com)	<stdin>
(liplianin@me.by)	<stdin>
(luc@saillard.org)	<stdin>
(luc@saillard.org)	<stdin>
(luc@saillard.org)	<stdin>
(luc@saillard.org)	<stdin>
(luc@saillard.org)	<stdin>
(luc@saillard.org)	<stdin>
(luc@saillard.org)	<stdin>
(luc@saillard.org)	<stdin>
(luc@saillard.org)	<stdin>
(luc@saillard.org)	<stdin>
(luc@saillard.org)	<stdin>
(luc@saillard.org)	<stdin>
(luc@saillard.org)	<stdin>
(luc@saillard.org)	<stdin>
(luca@ventoso.org)	<stdin>
(luca@ventoso.org)	<stdin>
(luca@ventoso.org)	<stdin>
(luca@ventoso.org)	<stdin>
(mchehab@infradead.org),	<stdin>
(mchehab@redhat.com)	<stdin>
(mkrufky@kernellabs.com)	<stdin>
(mkrufky@kernellabs.com)	<stdin>
(mkrufky@linuxtv.org)	<stdin>
(mocm@thp.uni-koeln.de)	<stdin>
(monroe@pobox.com)	<stdin>
(patrick.boettcher@desy.de)	<stdin>
(patrick.boettcher@desy.de)	<stdin>
(patrick.boettcher@desy.de)	<stdin>
(patrick.boettcher@desy.de)	<stdin>
(patrick.boettcher@desy.de)	<stdin>
(patrick.boettcher@desy.de)	<stdin>
(patrick.boettcher@desy.de)	<stdin>
(patrick.boettcher@desy.de)	<stdin>
(patrick.boettcher@desy.de)	<stdin>
(patrick.boettcher@desy.de)	<stdin>
(patrick.boettcher@desy.de)	<stdin>
(patrick.boettcher@desy.de)	<stdin>
(patrick.boettcher@desy.de)	<stdin>
(patrick.boettcher@desy.de)	<stdin>
(patrick.boettcher@desy.de)	<stdin>
(patrick.boettcher@desy.de)	<stdin>
(patrick.boettcher@desy.de)	<stdin>
(patrick.boettcher@desy.de)	<stdin>
(patrick.boettcher@desy.de)	<stdin>
(patrick.boettcher@desy.de)	<stdin>
(patrick.boettcher@desy.de)	<stdin>
(patrick.boettcher@desy.de)	<stdin>
(patrick.boettcher@desy.de)	<stdin>
(patrick.boettcher@desy.de)	<stdin>
(patrick.boettcher@desy.de)	<stdin>
(patrick.boettcher@desy.de)	<stdin>
(pavel@ucw.cz),	<stdin>
(pe1rxq@amsat.org)	<stdin>
(rjkm@thp.uni-koeln.de)	<stdin>
(skalamandra@poczta.onet.pl)	<stdin>
(tomimo@ncircle.nullnet.fi)	<stdin>
(tomimo@ncircle.nullnet.fi)	<stdin>
(tomimo@ncircle.nullnet.fi)	<stdin>
(tvboxspy@gmail.com)	<stdin>
(tvboxspy@gmail.com)	<stdin>
(uris@siano-ms.com)");	<stdin>
(vandebo@uclink.berkeley.edu)	<stdin>
(vandebo@uclink.berkeley.edu)	<stdin>
320x240@10fps)	<stdin>
640x480@30	<stdin>
640x480@30fps	<stdin>
<Adams.xu@azwave.com.cn>");	<stdin>
<Andre.Weidemann@web.de>");	<stdin>
<DwaineGarden@rogers.com>"	<stdin>
<Henry.wang@AzureWave.com>	<stdin>
<Henry.wang@AzureWave.com>");	<stdin>
<Serge.A.S@tochka.ru>");	<stdin>
<adams.xu@azwave.com.cn>	<stdin>
<aet@rasterburn.org>");	<stdin>
<alannisota@gamil.com>");	<stdin>
<anders.blomdell@control.lth.se>");	<stdin>
<aoanla@yahoo.com>	<stdin>
<aurel@gnuage.org>	<stdin>
<awalls@md.metrocast.net>	<stdin>
<bear24rw@gmail.com>	<stdin>
<bradlch@hotmail.com>	<stdin>
<brijohn@gmail.com>	<stdin>
<brijohn@gmail.com>,	<stdin>
<bwallac1@san.rr.com>	<stdin>
<c.pascoe@itee.uq.edu.au>");	<stdin>
<claudio@conectiva.com>	<stdin>
<comabug@gmail.com>");	<stdin>
<contact@i-nz.net>	<stdin>
<corbet@lwn.net>	<stdin>
<cpbotha@ieee.org>	<stdin>
<crope@iki.fi>	<stdin>
<crope@iki.fi>	<stdin>
<crope@iki.fi>	<stdin>
<crope@iki.fi>	<stdin>
<crope@iki.fi>	<stdin>
<crope@iki.fi>	<stdin>
<crope@iki.fi>	<stdin>
<crope@iki.fi>	<stdin>
<crope@iki.fi>	<stdin>
<crope@iki.fi>	<stdin>
<crope@iki.fi>	<stdin>
<crope@iki.fi>	<stdin>
<crope@iki.fi>	<stdin>
<crope@iki.fi>	<stdin>
<crope@iki.fi>	<stdin>
<crope@iki.fi>	<stdin>
<crope@iki.fi>	<stdin>
<crope@iki.fi>	<stdin>
<crope@iki.fi>	<stdin>
<crope@iki.fi>	<stdin>
<crope@iki.fi>	<stdin>
<crope@iki.fi>	<stdin>
<crope@iki.fi>");	<stdin>
<crope@iki.fi>");	<stdin>
<crope@iki.fi>");	<stdin>
<crope@iki.fi>");	<stdin>
<crope@iki.fi>");	<stdin>
<crope@iki.fi>");	<stdin>
<crope@iki.fi>");	<stdin>
<crope@iki.fi>");	<stdin>
<crope@iki.fi>");	<stdin>
<daniel-gl@gmx.net>	<stdin>
<daniel@qanu.de>	<stdin>
<daniel@qanu.de>	<stdin>
<daniel@qanu.de>	<stdin>
<darekk@automex.pl>	<stdin>
<david.cohen@indt.org.br>	<stdin>
<dkuhlen@gmx.net>	<stdin>
<dkuhlen@gmx.net>");	<stdin>
<dongsoo45.kim@samsung.com>	<stdin>
<dperks@ibm.net>	<stdin>
<dwainegarden@rogers.com>	<stdin>
<dwainegarden@rogers.com>	<stdin>
<dwainegarden@rogers.com>	<stdin>
<elyk03@gmail.com>	<stdin>
<elyk03@gmail.com>,"	<stdin>
<eric_sandeen@bigfoot.com>	<stdin>
<eric_sandeen@bigfoot.com>");	<stdin>
<erodrig_97@yahoo.com>	<stdin>
<frank@zago.net>");	<stdin>
<g.liakhovetski@gmx.de>	<stdin>
<g.liakhovetski@gmx.de>	<stdin>
<g.liakhovetski@gmx.de>");	<stdin>
<hans.verkuil@cisco.com>");	<stdin>
<hdegoede@redhat.com>	<stdin>
<hdegoede@redhat.com>	<stdin>
<hdegoede@redhat.com>	<stdin>
<hdegoede@redhat.com>	<stdin>
<hdegoede@redhat.com>	<stdin>
<hdegoede@redhat.com>	<stdin>
<hdegoede@redhat.com>	<stdin>
<hdegoede@redhat.com>	<stdin>
<hdegoede@redhat.com>	<stdin>
<hdegoede@redhat.com>	<stdin>
<hdegoede@redhat.com>	<stdin>
<hdegoede@redhat.com>	<stdin>
<hdegoede@redhat.com>	<stdin>
<hdegoede@redhat.com>	<stdin>
<hdegoede@redhat.com>	<stdin>
<hdegoede@redhat.com>");	<stdin>
<hdegoede@redhat.com>");	<stdin>
<hdegoede@redhat.com>");	<stdin>
<hdegoede@redhat.com>");	<stdin>
<hdegoede@redhat.com>");	<stdin>
<hdegoede@redhat.com>");	<stdin>
<hechtb@gmail.com>");	<stdin>
<holger@convergence.de>	<stdin>
<holger@convergence.de>	<stdin>
<holger@convergence.de>	<stdin>
<holger@convergence.de>");	<stdin>
<holger@qanu.de>	<stdin>
<holger@qanu.de>	<stdin>
<holger@qanu.de>	<stdin>
<hvaibhav@ti.com>	<stdin>
<hverkuil@xs4all.nl>	<stdin>
<hverkuil@xs4all.nl>	<stdin>
<hverkuil@xs4all.nl>	<stdin>
<hverkuil@xs4all.nl>	<stdin>
<isely@pobox.com>	<stdin>
<isely@pobox.com>	<stdin>
<isely@pobox.com>	<stdin>
<isely@pobox.com>	<stdin>
<isely@pobox.com>	<stdin>
<isely@pobox.com>	<stdin>
<isely@pobox.com>	<stdin>
<isely@pobox.com>	<stdin>
<isely@pobox.com>	<stdin>
<isely@pobox.com>	<stdin>
<isely@pobox.com>	<stdin>
<isely@pobox.com>	<stdin>
<isely@pobox.com>	<stdin>
<isely@pobox.com>	<stdin>
<isely@pobox.com>	<stdin>
<isely@pobox.com>	<stdin>
<isely@pobox.com>	<stdin>
<isely@pobox.com>	<stdin>
<isely@pobox.com>	<stdin>
<isely@pobox.com>	<stdin>
<isely@pobox.com>	<stdin>
<isely@pobox.com>	<stdin>
<isely@pobox.com>	<stdin>
<isely@pobox.com>	<stdin>
<isely@pobox.com>	<stdin>
<isely@pobox.com>	<stdin>
<isely@pobox.com>	<stdin>
<isely@pobox.com>	<stdin>
<isely@pobox.com>	<stdin>
<isely@pobox.com>	<stdin>
<isely@pobox.com>	<stdin>
<isely@pobox.com>	<stdin>
<isely@pobox.com>	<stdin>
<isely@pobox.com>	<stdin>
<isely@pobox.com>	<stdin>
<isely@pobox.com>	<stdin>
<isely@pobox.com>	<stdin>
<isely@pobox.com>	<stdin>
<isely@pobox.com>	<stdin>
<isely@pobox.com>	<stdin>
<isely@pobox.com>	<stdin>
<isely@pobox.com>	<stdin>
<isely@pobox.com>	<stdin>
<isely@pobox.com>	<stdin>
<isely@pobox.com>"	<stdin>
<isely@pobox.com>"	<stdin>
<j.w.r.degoede@hhs.nl>	<stdin>
<javier.martin@vista-silicon.com>	<stdin>
<jim@jtan.com>	<stdin>
<jim@jtan.com>	<stdin>
<jim@jtan.com>	<stdin>
<jim@jtan.com>	<stdin>
<jisom@ematic.com>	<stdin>
<joerg@heckenbach-aw.de>	<stdin>
<joerg@heckenbach-aw.de>	<stdin>
<joerg@heckenbach-aw.de>	<stdin>
<joerg@heckenbach-aw.de>	<stdin>
<joerg@heckenbach-aw.de>	<stdin>
<joerg@heckenbach-aw.de>,	<stdin>
<johannes@erdfelt.com>	<stdin>
<kangyong@telegent.com>	<stdin>
<kazz-0@mail.goo.ne.jp>	<stdin>
<kernel@pengutronix.de>	<stdin>
<kernel@pengutronix.de>	<stdin>
<keyson@users.sourceforge.net>	<stdin>
<kilgota@auburn,edu>	<stdin>
<kilgota@auburn.edu>	<stdin>
<kilgota@auburn.edu>	<stdin>
<kilgota@auburn.edu>	<stdin>
<kilgota@auburn.edu>	<stdin>
<kilgota@auburn.edu>");	<stdin>
<kilgota@auburn.edu>");	<stdin>
<kilgota@auburn.edu>");	<stdin>
<kilgota@auburn.edu>");	<stdin>
<kraxel@bytesex.org>	<stdin>
<kraxel@goldbach.in-berlin.de>	<stdin>
<laurent.pinchart@ideasonboard.com>	<stdin>
<laurent.pinchart@ideasonboard.com>	<stdin>
<laurent.pinchart@ideasonboard.com>	<stdin>
<laurent.pinchart@ideasonboard.com>	<stdin>
<laurent.pinchart@ideasonboard.com>");	<stdin>
<laurent.pinchart@ideasonboard.com>");	<stdin>
<le_costantino@pixartargentina.com.ar>");	<stdin>
<lg@denx.de>	<stdin>
<lg@denx.de>");	<stdin>
<lg@jfm.bc.ca>	<stdin>
<linux-dvb@giblets.org>	<stdin>
<linux-dvb@giblets.org>	<stdin>
<linux-dvb@giblets.org>	<stdin>
<linux-dvb@giblets.org>");	<stdin>
<linux@baker-net.org.uk>,	<stdin>
<luc@saillard.org>");	<stdin>
<luc@saillard.org>.	<stdin>
<luc@saillard.org>.	<stdin>
<luc@saillard.org>.	<stdin>
<luc@saillard.org>.	<stdin>
<luc@saillard.org>.	<stdin>
<luc@saillard.org>.	<stdin>
<luc@saillard.org>.	<stdin>
<luc@saillard.org>.	<stdin>
<luc@saillard.org>.	<stdin>
<luc@saillard.org>.	<stdin>
<luc@saillard.org>.	<stdin>
<luc@saillard.org>.	<stdin>
<luc@saillard.org>.	<stdin>
<luc@saillard.org>.	<stdin>
<luc@saillard.org>.	<stdin>
<luca.risolia@studio.unibo.it>	<stdin>
<luca.risolia@studio.unibo.it>	<stdin>
<luca.risolia@studio.unibo.it>	<stdin>
<luca.risolia@studio.unibo.it>	<stdin>
<luca.risolia@studio.unibo.it>	<stdin>
<luca.risolia@studio.unibo.it>	<stdin>
<luca.risolia@studio.unibo.it>	<stdin>
<luca.risolia@studio.unibo.it>	<stdin>
<luca.risolia@studio.unibo.it>	<stdin>
<luca.risolia@studio.unibo.it>	<stdin>
<luca.risolia@studio.unibo.it>	<stdin>
<luca.risolia@studio.unibo.it>	<stdin>
<luca.risolia@studio.unibo.it>	<stdin>
<luca.risolia@studio.unibo.it>	<stdin>
<luca.risolia@studio.unibo.it>	<stdin>
<luca.risolia@studio.unibo.it>	<stdin>
<luca.risolia@studio.unibo.it>	<stdin>
<luca.risolia@studio.unibo.it>	<stdin>
<luca.risolia@studio.unibo.it>",	<stdin>
<luca.risolia@studio.unibo.it>",	<stdin>
<luca.risolia@studio.unibo.it>",	<stdin>
<luca.risolia@studio.unibo.it>",	<stdin>
<luca.risolia@studio.unibo.it>",	<stdin>
<luca.risolia@studio.unibo.it>",	<stdin>
<luca.risolia@studio.unibo.it>",	<stdin>
<luca.risolia@studio.unibo.it>",	<stdin>
<luca.risolia@studio.unibo.it>",	<stdin>
<luca.risolia@studio.unibo.it>",	<stdin>
<luca.risolia@studio.unibo.it>",	<stdin>
<luca.risolia@studio.unibo.it>",	<stdin>
<luca@ventoso.org>");	<stdin>
<luca@ventoso.org>");	<stdin>
<m5602@x3ng.com.br>	<stdin>
<m5602@x3ng.com.br>	<stdin>
<m5602@x3ng.com.br>	<stdin>
<m5602@x3ng.com.br>	<stdin>
<m5602@x3ng.com.br>	<stdin>
<m5602@x3ng.com.br>	<stdin>
<m5602@x3ng.com.br>	<stdin>
<m5602@x3ng.com.br>	<stdin>
<m5602@x3ng.com.br>	<stdin>
<m5602@x3ng.com.br>	<stdin>
<m5602@x3ng.com.br>	<stdin>
<m5602@x3ng.com.br>	<stdin>
<m5602@x3ng.com.br>	<stdin>
<m5602@x3ng.com.br>	<stdin>
<m5602@x3ng.com.br>	<stdin>
<majortrips@gmail.com>	<stdin>
<majortrips@gmail.com>	<stdin>
<maramaopercheseimorto@gmail.com>	<stdin>
<marbugge@cisco.com>");	<stdin>
<marek.vasut@gmail.com>	<stdin>
<max@linuxmedialabs.com>	<stdin>
<mchehab@infradead.org>	<stdin>
<mchehab@infradead.org>	<stdin>
<mchehab@infradead.org>	<stdin>
<mchehab@infradead.org>	<stdin>
<mchehab@infradead.org>	<stdin>
<mchehab@infradead.org>	<stdin>
<mchehab@infradead.org>	<stdin>
<mchehab@infradead.org>	<stdin>
<mchehab@infradead.org>	<stdin>
<mchehab@infradead.org>	<stdin>
<mchehab@redhat.com>	<stdin>
<mchehab@redhat.com>	<stdin>
<mchehab@redhat.com>	<stdin>
<mchehab@redhat.com>");	<stdin>
<mchehab@redhat.com>");	<stdin>
<mchehab@redhat.com>");	<stdin>
<mchehab@redhat.com>");	<stdin>
<medaglia@undl.org.br>	<stdin>
<michael@mihu.de>	<stdin>
<michael@mihu.de>");	<stdin>
<michel.ludwig@gmail.com>	<stdin>
<michel.ludwig@gmail.com>	<stdin>
<michel.ludwig@gmail.com>	<stdin>
<michel.ludwig@gmail.com>	<stdin>
<michel.ludwig@gmail.com>	<stdin>
<microdia@googlegroups.com>	<stdin>
<microdia@googlegroups.com>");	<stdin>
<mirsev@cicese.mx>	<stdin>
<mkrufky@kernellabs.com>	<stdin>
<mkrufky@kernellabs.com>	<stdin>
<mkrufky@kernellabs.com>	<stdin>
<mkrufky@kernellabs.com>	<stdin>
<mkrufky@kernellabs.com>	<stdin>
<mkrufky@kernellabs.com>	<stdin>
<mkrufky@kernellabs.com>	<stdin>
<mkrufky@kernellabs.com>	<stdin>
<mkrufky@kernellabs.com>	<stdin>
<mkrufky@kernellabs.com>	<stdin>
<mkrufky@kernellabs.com>	<stdin>
<mkrufky@kernellabs.com>");	<stdin>
<mkrufky@kernellabs.com>");	<stdin>
<mkrufky@kernellabs.com>");	<stdin>
<mkrufky@linuxtv.org>	<stdin>
<mkrufky@linuxtv.org>	<stdin>
<mkrufky@linuxtv.org>");	<stdin>
<moinejf@free.fr>	<stdin>
<moinejf@free.fr>");	<stdin>
<morimoto.kuninori@renesas.com>	<stdin>
<morimoto.kuninori@renesas.com>	<stdin>
<mschimek@gmx.at>	<stdin>
<mschimek@gmx.at>");	<stdin>
<mxhaard@users.sourceforge.net>");	<stdin>
<mxhaard@users.sourceforge.net>");	<stdin>
<mxhaard@users.sourceforge.net>");	<stdin>
<mxhaard@users.sourceforge.net>");	<stdin>
<mxhaard@users.sourceforge.net>");	<stdin>
<mxhaard@users.sourceforge.net>");	<stdin>
<mxhaard@users.sourceforge.net>");	<stdin>
<mxhaard@users.sourceforge.net>");	<stdin>
<mxhaard@users.sourceforge.net>");	<stdin>
<nick@nick-andrew.net>	<stdin>
<nm127@freemail.hu>	<stdin>
<nm127@freemail.hu>	<stdin>
<nm127@freemail.hu>	<stdin>
<o.lorin@laposte.net>	<stdin>
<o.lorin@laposte.net>	<stdin>
<o.lorin@laposte.net>");	<stdin>
<olawlor@acm.org>	<stdin>
<ospite@studenti.unina.it>	<stdin>
<ospite@studenti.unina.it>	<stdin>
<ospite@studenti.unina.it>	<stdin>
<ospite@studenti.unina.it>");	<stdin>
<ospite@studenti.unina.it>");	<stdin>
<p.beutner@gmx.net>	<stdin>
<patrick.boettcher@desy.de>	<stdin>
<patrick.boettcher@desy.de>	<stdin>
<patrick.boettcher@desy.de>	<stdin>
<patrick.boettcher@desy.de>	<stdin>
<patrick.boettcher@desy.de>	<stdin>
<patrick.boettcher@desy.de>	<stdin>
<patrick.boettcher@desy.de>	<stdin>
<patrick.boettcher@desy.de>"	<stdin>
<patrick.boettcher@desy.de>");	<stdin>
<patrick.boettcher@desy.de>");	<stdin>
<patrick.boettcher@desy.de>");	<stdin>
<patrick.boettcher@desy.de>");	<stdin>
<patrick.boettcher@desy.de>");	<stdin>
<patrick.boettcher@desy.de>");	<stdin>
<patrick.boettcher@desy.de>");	<stdin>
<patrick.boettcher@desy.de>");	<stdin>
<patrick.boettcher@desy.de>");	<stdin>
<patrick.boettcher@desy.de>");	<stdin>
<patrick.boettcher@desy.de>");	<stdin>
<patrick.boettcher@desy.de>");	<stdin>
<patrick.boettcher@desy.de>");	<stdin>
<pb@linuxtv.de>	<stdin>
<pb@linuxtv.org>	<stdin>
<pboettcher@dibcom.fr>");	<stdin>
<pboettcher@kernellabs.com>");	<stdin>
<rbultje@ronald.bitfreak.net>	<stdin>
<riverful.kim@samsung.com>.	<stdin>
<rjkm@metzlerbros.de>	<stdin>
<rjkm@metzlerbros.de>	<stdin>
<robert.jarzmik@free.fr>	<stdin>
<robert.jarzmik@free.fr>	<stdin>
<royale@zerezo.com>	<stdin>
<royale@zerezo.com>	<stdin>
<royale@zerezo.com>	<stdin>
<s.nawrocki@samsung.com>	<stdin>
<s.nawrocki@samsung.com>	<stdin>
<s.nawrocki@samsung.com>");	<stdin>
<s.nawrocki@samsung.com>");	<stdin>
<sakari.ailus@iki.fi>	<stdin>
<sakari.ailus@iki.fi>	<stdin>
<sakari.ailus@iki.fi>	<stdin>
<sakari.ailus@iki.fi>	<stdin>
<sakari.ailus@iki.fi>	<stdin>
<sakari.ailus@iki.fi>	<stdin>
<sakari.ailus@iki.fi>	<stdin>
<sakari.ailus@iki.fi>	<stdin>
<sakari.ailus@iki.fi>	<stdin>
<sakari.ailus@iki.fi>	<stdin>
<sakari.ailus@iki.fi>	<stdin>
<sakari.ailus@iki.fi>");	<stdin>
<sakari.ailus@nokia.com>	<stdin>
<sakari.ailus@nokia.com>");	<stdin>
<samr7@cs.washington.edu>	<stdin>
<samr7@cs.washington.edu>");	<stdin>
<santiago.nunez@ridgerun.com>	<stdin>
<santiago.nunez@ridgerun.com>");	<stdin>
<scherr@net4you.net>	<stdin>
<shijie8@gmail.com>	<stdin>
<slts@free.fr>	<stdin>
<slts@free.fr>	<stdin>
<slts@free.fr>	<stdin>
<slts@free.fr>	<stdin>
<slts@free.fr>	<stdin>
<slts@free.fr>	<stdin>
<slts@free.fr>	<stdin>
<slts@free.fr>	<stdin>
<slts@free.fr>	<stdin>
<slts@free.fr>	<stdin>
<slts@free.fr>	<stdin>
<slts@free.fr>	<stdin>
<slts@free.fr>	<stdin>
<slts@free.fr>	<stdin>
<slts@free.fr>	<stdin>
<slts@free.fr>	<stdin>
<slts@free.fr>	<stdin>
<spse@secret.org.uk>	<stdin>
<stefan.ringel@arcor.de>	<stdin>
<tadachi@tadachi-net.com>	<stdin>
<thierry.merle@free.fr>	<stdin>
<thomas.mair86@googlemail.com>	<stdin>
<thomas.mair86@googlemail.com>");	<stdin>
<thomas@kaiser-linux.li>	<stdin>
<thomas@kaiser-linux.li>	<stdin>
<tmbinc@elitedvb.net>	<stdin>
<tmbinc@elitedvb.net>	<stdin>
<tmbinc@elitedvb.net>	<stdin>
<tnt@246tNt.com>	<stdin>
<toots@rastageeks.org>	<stdin>
<tskd2@yahoo.co.jp>	<stdin>
<tskd2@yahoo.co.jp>	<stdin>
<tskd2@yahoo.co.jp>	<stdin>
<tskd2@yahoo.co.jp>");	<stdin>
<tuukkat76@gmail.com>	<stdin>
<tvboxspy@gmail.com>");	<stdin>
<tvboxspy@gmail.com>");	<stdin>
<xbzhang@telegent.com>	<stdin>
<zyziii@telegent.com>	<stdin>
@0x%02x",	<stdin>
@0x%02x",	<stdin>
@adapter:	<stdin>
@adapter_nr:	<stdin>
@addr:	<stdin>
@addr:	<stdin>
@allowed_protos:	<stdin>
@allowed_protos:	<stdin>
@assist_current:	<stdin>
@bInterfaceNumber:	<stdin>
@buf_list:	<stdin>
@buf_list:	<stdin>
@buf_num:	<stdin>
@buf_num:	<stdin>
@buf_size:	<stdin>
@buf_size:	<stdin>
@bulk_mode:	<stdin>
@bulk_mode:	<stdin>
@bus_type:	<stdin>
@c:	<stdin>
@c:	<stdin>
@caps:	<stdin>
@caps:	<stdin>
@change_protocol:	<stdin>
@change_protocol:	<stdin>
@chip:	<stdin>
@code:	<stdin>
@cold_ids:	<stdin>
@count:	<stdin>
@ctrl:	<stdin>
@demux:	<stdin>
@demux:	<stdin>
@desc:	<stdin>
@devices	<stdin>
@devices:	<stdin>
@dma_addr:	<stdin>
@dma_addr:	<stdin>
@dmxdev:	<stdin>
@dmxdev:	<stdin>
@download_firmware:	<stdin>
@download_firmware:	<stdin>
@driver_name:	<stdin>
@driver_type:	<stdin>
@driver_type:	<stdin>
@dst:	<stdin>
@dv_preset:	<stdin>
@dvb_adap:	<stdin>
@dvb_adap:	<stdin>
@dvb_frontend:	<stdin>
@dvb_net:	<stdin>
@dvb_net:	<stdin>
@enable:	<stdin>
@endpoint:	<stdin>
@err:	<stdin>
@err:	<stdin>
@exit:	<stdin>
@f:	<stdin>
@fe:	<stdin>
@fe_init:	<stdin>
@fe_init:	<stdin>
@fe_sleep:	<stdin>
@fe_sleep:	<stdin>
@feed_count:	<stdin>
@feedcount:	<stdin>
@firmware:	<stdin>
@firmware:	<stdin>
@flash:	<stdin>
@flash:	<stdin>
@flash:	<stdin>
@flash:	<stdin>
@flash_current:	<stdin>
@frontend_attach:	<stdin>
@frontend_attach:	<stdin>
@frontend_ctrl:	<stdin>
@frontend_ctrl:	<stdin>
@generic_bulk_ctrl_delay:	<stdin>
@generic_bulk_ctrl_endpoint:	<stdin>
@generic_bulk_ctrl_endpoint:	<stdin>
@generic_bulk_ctrl_endpoint_response:	<stdin>
@generic_bulk_ctrl_endpoint_response:	<stdin>
@get_adapter_count:	<stdin>
@get_rc_config:	<stdin>
@get_stream_config:	<stdin>
@i2c_adap:	<stdin>
@i2c_adap:	<stdin>
@i2c_algo:	<stdin>
@i2c_algo:	<stdin>
@i2c_mutex:	<stdin>
@i2c_mutex:	<stdin>
@id:	<stdin>
@id:	<stdin>
@id:	<stdin>
@identify_state:	<stdin>
@identify_state:	<stdin>
@index:	<stdin>
@indicator_current:	<stdin>
@init:	<stdin>
@input_dev:	<stdin>
@interval:	<stdin>
@intf:	<stdin>
@last_event:	<stdin>
@last_state:	<stdin>
@led_mode:	<stdin>
@limits:	<stdin>
@map_name:	<stdin>
@max_feed_count:	<stdin>
@max_feed_count:	<stdin>
@mode:	<stdin>
@name:	<stdin>
@name:	<stdin>
@name:	<stdin>
@nlanes:	<stdin>
@no_reconnect:	<stdin>
@num_adapters:	<stdin>
@num_device_descs:	<stdin>
@num_frontends:	<stdin>
@on:	<stdin>
@owner:	<stdin>
@owner:	<stdin>
@param	<stdin>
@pdata:	<stdin>
@pid_filter:	<stdin>
@pid_filter:	<stdin>
@pid_filter_count:	<stdin>
@pid_filter_count:	<stdin>
@pid_filter_ctrl:	<stdin>
@pid_filter_ctrl:	<stdin>
@pid_filtering:	<stdin>
@pid_filtering:	<stdin>
@pll_addr:	<stdin>
@pll_desc:	<stdin>
@pll_init:	<stdin>
@post_poweron:	<stdin>
@post_streamon:	<stdin>
@power_count:	<stdin>
@power_ctrl:	<stdin>
@power_ctrl:	<stdin>
@power_lock:	<stdin>
@powered:	<stdin>
@powered:	<stdin>
@pre_streamon:	<stdin>
@preset:	<stdin>
@priv:	<stdin>
@priv:	<stdin>
@probe_work:	<stdin>
@props:	<stdin>
@props:	<stdin>
@props:	<stdin>
@props:	<stdin>
@protocol:	<stdin>
@qpreset:	<stdin>
@query:	<stdin>
@rc:	<stdin>
@rc:	<stdin>
@rc_codes:	<stdin>
@rc_dev:	<stdin>
@rc_dev:	<stdin>
@rc_interval:	<stdin>
@rc_interval:	<stdin>
@rc_map:	<stdin>
@rc_map:	<stdin>
@rc_map_size:	<stdin>
@rc_map_table.	<stdin>
@rc_map_table:	<stdin>
@rc_query:	<stdin>
@rc_query:	<stdin>
@rc_query_work:	<stdin>
@rc_query_work:	<stdin>
@read_config:	<stdin>
@read_mac_address:	<stdin>
@read_mac_address:	<stdin>
@reg:	<stdin>
@reg:	<stdin>
@reg:	<stdin>
@reg:	<stdin>
@regs:	<stdin>
@return	<stdin>
@sd:	<stdin>
@sd:	<stdin>
@sd:	<stdin>
@sd:	<stdin>
@sd:	<stdin>
@sd:	<stdin>
@sd:	<stdin>
@sd:	<stdin>
@sd:	<stdin>
@sd:	<stdin>
@sd:	<stdin>
@sd:	<stdin>
@sd:	<stdin>
@sd:	<stdin>
@sd:	<stdin>
@sd:	<stdin>
@size_of_priv:	<stdin>
@size_of_priv:	<stdin>
@state:	<stdin>
@stream:	<stdin>
@stream:	<stdin>
@stream:	<stdin>
@stream:	<stdin>
@streaming_ctrl:	<stdin>
@streaming_ctrl:	<stdin>
@strobe:	<stdin>
@strobe_source:	<stdin>
@subdev:	<stdin>
@suspend_resume_active:	<stdin>
@sync_mutex:	<stdin>
@timeout:	<stdin>
@ts_type:	<stdin>
@tuner_attach:	<stdin>
@tuner_attach:	<stdin>
@tuner_pass_ctrl:	<stdin>
@type:	<stdin>
@typedef	<stdin>
@udev:	<stdin>
@udev:	<stdin>
@urbs_initialized:	<stdin>
@urbs_initialized:	<stdin>
@urbs_submitted:	<stdin>
@urbs_submitted:	<stdin>
@usb_ctrl:	<stdin>
@usb_mutex:	<stdin>
@usb_mutex:	<stdin>
@val:	<stdin>
@val:	<stdin>
@value:	<stdin>
@warm_ids:	<stdin>
Spyc@m	<stdin>
Spyc@m	<stdin>
dh1pa@amsat.org");	<stdin>
g.marco@freenet.de");	<stdin>
linux-media@vger.kernel.org	<stdin>
liplianin@me.by");	<stdin>
mxhaard@magic.fr	<stdin>
mxhaard@magic.fr	<stdin>
mxhaard@magic.fr	<stdin>
mxhaard@magic.fr	<stdin>
mxhaard@magic.fr	<stdin>
mxhaard@magic.fr	<stdin>
mxhaard@magic.fr	<stdin>
qq@kuku.eu.org	<stdin>
takeshi87@o2.pl	<stdin>
thomas@kaiser-linux.li	<stdin>
thomas@kaiser-linux.li	<stdin>
thomas@kaiser-linux.li	<stdin>
thomas@kaiser-linux.li");	<stdin>
thomas@kaiser-linux.li");	<stdin>
