"@R3@D0@K1\r",	<stdin>
"dlbuf@0x%06lx	<stdin>
"linux390@de.ibm.com!\n",	<stdin>
(Alan_Altmark@us.ibm.com)	<stdin>
(adlung@de.ibm.com)	<stdin>
(adlung@de.ibm.com)	<stdin>
(adlung@de.ibm.com)	<stdin>
(arndb@de.ibm.com)	<stdin>
(arndb@de.ibm.com)	<stdin>
(arndb@de.ibm.com)	<stdin>
(arndb@de.ibm.com)	<stdin>
(arndb@de.ibm.com)	<stdin>
(arndb@de.ibm.com)	<stdin>
(arndb@de.ibm.com)	<stdin>
(barrow_dj@yahoo.com)	<stdin>
(belindat@us.ibm.com)	<stdin>
(belindat@us.ibm.com)	<stdin>
(belindat@us.ibm.com)	<stdin>
(belindat@us.ibm.com)	<stdin>
(belindat@us.ibm.com)	<stdin>
(cornelia.huck@de.ibm.com)	<stdin>
(cornelia.huck@de.ibm.com)	<stdin>
(cornelia.huck@de.ibm.com)	<stdin>
(cornelia.huck@de.ibm.com)	<stdin>
(cornelia.huck@de.ibm.com)	<stdin>
(cornelia.huck@de.ibm.com)	<stdin>
(cornelia.huck@de.ibm.com)	<stdin>
(cornelia.huck@de.ibm.com)	<stdin>
(cornelia.huck@de.ibm.com)	<stdin>
(cornelia.huck@de.ibm.com)	<stdin>
(cornelia.huck@de.ibm.com)	<stdin>
(cotte@de.ibm.com,holzheu@de.ibm.com)");	<stdin>
(djbarrow@de.ibm.com,barrow_dj@yahoo.com)	<stdin>
(edrossma@us.ibm.com)	<stdin>
(edrossma@us.ibm.com)	<stdin>
(edrossma@us.ibm.com)	<stdin>
(edrossma@us.ibm.com)	<stdin>
(edrossma@us.ibm.com)	<stdin>
(edrossma@us.ibm.com)	<stdin>
(edrossma@us.ibm.com)	<stdin>
(edrossma@us.ibm.com)	<stdin>
(edrossma@us.ibm.com)	<stdin>
(edrossma@us.ibm.com)	<stdin>
(edrossma@us.ibm.com)	<stdin>
(edrossma@us.ibm.com)	<stdin>
(edrossma@us.ibm.com)	<stdin>
(edrossma@us.ibm.com)	<stdin>
(edrossma@us.ibm.com)	<stdin>
(edrossma@us.ibm.com)	<stdin>
(elfert@de.ibm.com,	<stdin>
(felfert@millenux.com)	<stdin>
(felfert@millenux.com)	<stdin>
(felfert@millenux.com)	<stdin>
(felfert@millenux.com)	<stdin>
(felfert@millenux.com)");	<stdin>
(felfert@millenux.com)");	<stdin>
(hd@linux.vnet.ibm.com)	<stdin>
(jang@linux.vnet.ibm.com)	<stdin>
(jang@linux.vnet.ibm.com)	<stdin>
(ptiedem@de.ibm.com)	<stdin>
(ptiedem@de.ibm.com)	<stdin>
(ptiedem@de.ibm.com)	<stdin>
(ptiedem@de.ibm.com)	<stdin>
(ptiedem@de.ibm.com)	<stdin>
(ptiedem@de.ibm.com)	<stdin>
(ptiedem@de.ibm.com)	<stdin>
(ptiedem@de.ibm.com)	<stdin>
(ptiedem@de.ibm.com)	<stdin>
(richtera@us.ibm.com)	<stdin>
(richtera@us.ibm.com)	<stdin>
(richtera@us.ibm.com)	<stdin>
(richtera@us.ibm.com)	<stdin>
(richtera@us.ibm.com)	<stdin>
(roehrig@de.ibm.com)	<stdin>
(roehrig@de.ibm.com)	<stdin>
(roehrig@de.ibm.com)	<stdin>
(roehrig@de.ibm.com)	<stdin>
(roehrig@de.ibm.com)	<stdin>
(roehrig@de.ibm.com)	<stdin>
(roehrig@de.ibm.com)	<stdin>
(roehrig@de.ibm.com)	<stdin>
(roehrig@de.ibm.com)	<stdin>
(roehrig@de.ibm.com)	<stdin>
(roehrig@de.ibm.com)	<stdin>
(roehrig@de.ibm.com)	<stdin>
(roehrig@de.ibm.com)	<stdin>
(roehrig@de.ibm.com)	<stdin>
(roehrig@de.ibm.com)	<stdin>
(roehrig@de.ibm.com)	<stdin>
(roehrig@de.ibm.com)	<stdin>
(sailer@ife.ee.ethz.ch)	<stdin>
(schwidefsky@de.ibm.com)	<stdin>
(schwidefsky@de.ibm.com)	<stdin>
(schwidefsky@de.ibm.com)	<stdin>
(schwidefsky@de.ibm.com)	<stdin>
(schwidefsky@de.ibm.com)	<stdin>
(schwidefsky@de.ibm.com)	<stdin>
(schwidefsky@de.ibm.com)	<stdin>
(schwidefsky@de.ibm.com)	<stdin>
(schwidefsky@de.ibm.com)	<stdin>
(schwidefsky@de.ibm.com)");	<stdin>
(schwidefsky@de.ibm.com),	<stdin>
(schwidefsky@de.ibm.com),	<stdin>
(ursula.braun@de.ibm.com)	<stdin>
(wein@de.ibm.com)");	<stdin>
(wel@de.ibm.com)	<stdin>
(xenia@us.ibm.com)\n"	<stdin>
0x%x@0x%x\n",	<stdin>
0x%x@0x%x\n",	<stdin>
0x%x@0x%x\n",	<stdin>
<Cotte@de.ibm.com>	<stdin>
<Cotte@de.ibm.com>	<stdin>
<Cotte@de.ibm.com>	<stdin>
<Cotte@de.ibm.com>	<stdin>
<Cotte@de.ibm.com>	<stdin>
<Cotte@de.ibm.com>	<stdin>
<Cotte@de.ibm.com>	<stdin>
<Holger.Smolinski@de.ibm.com>	<stdin>
<Holger.Smolinski@de.ibm.com>	<stdin>
<Holger.Smolinski@de.ibm.com>	<stdin>
<Holger.Smolinski@de.ibm.com>	<stdin>
<Holger.Smolinski@de.ibm.com>	<stdin>
<Holger.Smolinski@de.ibm.com>	<stdin>
<Holger.Smolinski@de.ibm.com>	<stdin>
<Holger.Smolinski@de.ibm.com>	<stdin>
<Holger.Smolinski@de.ibm.com>	<stdin>
<Holger.Smolinski@de.ibm.com>	<stdin>
<Holger.Smolinski@de.ibm.com>	<stdin>
<Holger.Smolinski@de.ibm.com>	<stdin>
<Holger.Smolinski@de.ibm.com>	<stdin>
<Holger.Smolinski@de.ibm.com>	<stdin>
<Holger.Smolinski@de.ibm.com>");	<stdin>
<Horst.Hummel@de.ibm.com>	<stdin>
<Horst.Hummel@de.ibm.com>	<stdin>
<Horst.Hummel@de.ibm.com>	<stdin>
<Horst.Hummel@de.ibm.com>	<stdin>
<Horst.Hummel@de.ibm.com>	<stdin>
<Horst.Hummel@de.ibm.com>	<stdin>
<Horst.Hummel@de.ibm.com>	<stdin>
<Horst.Hummel@de.ibm.com>	<stdin>
<Horst.Hummel@de.ibm.com>	<stdin>
<Horst.Hummel@de.ibm.com>	<stdin>
<Linux390@de.ibm.com>	<stdin>
<Linux390@de.ibm.com>	<stdin>
<Linux390@de.ibm.com>	<stdin>
<Linux390@de.ibm.com>	<stdin>
<Linux390@de.ibm.com>	<stdin>
<Linux390@de.ibm.com>	<stdin>
<Linux390@de.ibm.com>	<stdin>
<Linux390@de.ibm.com>	<stdin>
<Linux390@de.ibm.com>	<stdin>
<Linux390@de.ibm.com>	<stdin>
<Linux390@de.ibm.com>	<stdin>
<Linux390@de.ibm.com>	<stdin>
<Linux390@de.ibm.com>	<stdin>
<Linux390@de.ibm.com>	<stdin>
<Melissa.Howland@us.ibm.com>	<stdin>
<Melissa.Howland@us.ibm.com>");	<stdin>
<Peter.Oberparleiter@de.ibm.com>	<stdin>
<adlung@de.ibm.com>	<stdin>
<adlung@de.ibm.com>,	<stdin>
<adrian@mcmen.demon.co.uk>");	<stdin>
<alex.williamson@redhat.com>	<stdin>
<alex.williamson@redhat.com>	<stdin>
<alex.williamson@redhat.com>	<stdin>
<alex.williamson@redhat.com>	<stdin>
<alex.williamson@redhat.com>	<stdin>
<alex.williamson@redhat.com>	<stdin>
<alex.williamson@redhat.com>	<stdin>
<alex.williamson@redhat.com>"	<stdin>
<alex.williamson@redhat.com>"	<stdin>
<alex.williamson@redhat.com>"	<stdin>
<andersee@debian.org>	<stdin>
<andersee@debian.org>	<stdin>
<andersee@debian.org>	<stdin>
<andersee@debian.org>	<stdin>
<andersee@debian.org>	<stdin>
<andersen@xmission.com>	<stdin>
<andrew.d.henroid@intel.com>	<stdin>
<andrew.d.henroid@intel.com>");	<stdin>
<andrewtv@usa.net>	<stdin>
<appro@fy.chalmers.se>	<stdin>
<appro@fy.chalmers.se>	<stdin>
<arndb@de.ibm.com>	<stdin>
<arndb@de.ibm.com>	<stdin>
<arndb@de.ibm.com>");	<stdin>
<arndb@de.ibm.com>");	<stdin>
<axboe@image.dk>	<stdin>
<axboe@image.dk>	<stdin>
<axboe@image.dk>	<stdin>
<axboe@image.dk>	<stdin>
<axboe@image.dk>	<stdin>
<axboe@image.dk>	<stdin>
<axboe@image.dk>	<stdin>
<axboe@image.dk>	<stdin>
<axboe@image.dk>	<stdin>
<axboe@image.dk>	<stdin>
<axboe@image.dk>	<stdin>
<axboe@image.dk>	<stdin>
<axboe@image.dk>	<stdin>
<axboe@image.dk>	<stdin>
<axboe@image.dk>	<stdin>
<axboe@suse.de>	<stdin>
<axboe@suse.de>	<stdin>
<axboe@suse.de>	<stdin>
<axboe@suse.de>	<stdin>
<axboe@suse.de>	<stdin>
<axboe@suse.de>	<stdin>
<axboe@suse.de>	<stdin>
<beattiem@uk.ibm.com>	<stdin>
<beattiem@uk.ibm.com>	<stdin>
<bernhardloos@googlemail.com>	<stdin>
<borntraeger@de.ibm.com>	<stdin>
<borntraeger@de.ibm.com>	<stdin>
<brueckner@linux.vnet.ibm.com>	<stdin>
<brueckner@linux.vnet.ibm.com>");	<stdin>
<buhrow@lothlorien.nfbcal.org>	<stdin>
<cborntra@de.ibm.com>	<stdin>
<ch@hpl.hp.com>/<ch@murgatroid.com>	<stdin>
<chris@cloudnet.com>	<stdin>
<collin@mulliner.org>	<stdin>
<cornelia.huck@de.ibm.com>	<stdin>
<cornelia.huck@de.ibm.com>	<stdin>
<cornelia.huck@de.ibm.com>	<stdin>
<cornelia.huck@de.ibm.com>	<stdin>
<cornelia.huck@de.ibm.com>	<stdin>
<cornelia.huck@de.ibm.com>	<stdin>
<cornelia.huck@de.ibm.com>	<stdin>
<cornelia.huck@de.ibm.com>	<stdin>
<cornelia.huck@de.ibm.com>	<stdin>
<cornelia.huck@de.ibm.com>	<stdin>
<cornelia.huck@de.ibm.com>	<stdin>
<cornelia.huck@de.ibm.com>	<stdin>
<cornelia.huck@de.ibm.com>	<stdin>
<cornelia.huck@de.ibm.com>,	<stdin>
<cotte@de.ibm.com>	<stdin>
<cotte@de.ibm.com>	<stdin>
<cotte@de.ibm.com>	<stdin>
<cotte@de.ibm.com>	<stdin>
<cotte@de.ibm.com>	<stdin>
<cotte@de.ibm.com>	<stdin>
<cotte@de.ibm.com>	<stdin>
<cstotts@blue.weeg.uiowa.edu>.	<stdin>
<david575@golden.net>	<stdin>
<david@tm.tno.nl>	<stdin>
<djbarrow@de.ibm.com,barrow_dj@yahoo.com>	<stdin>
<dmorriso@cse.buffalo.edu>	<stdin>
<dwmw2@infradead.org>	<stdin>
<dwmw2@infradead.org>	<stdin>
<dwmw2@infradead.org>");	<stdin>
<dwmw2@infradead.org>");	<stdin>
<dwmw2@infradead.org>");	<stdin>
<dwmw2@infradead.org>");	<stdin>
<eauth@softsys.co.at>	<stdin>
<ebrower@resilience.com>	<stdin>
<ebrower@resilience.com>");	<stdin>
<ejka@openwrt.org>	<stdin>
<elfert@de.ibm.com>	<stdin>
<elfert@de.ibm.com>	<stdin>
<felfert@millenux.com>	<stdin>
<felfert@millenux.com>	<stdin>
<felix.beck@de.ibm.com>	<stdin>
<felix.beck@de.ibm.com>	<stdin>
<fpavlic@de.ibm.com>	<stdin>
<fpavlic@de.ibm.com>");	<stdin>
<fpavlic@de.ibm.com>,	<stdin>
<fpavlic@de.ibm.com>,	<stdin>
<fpavlic@de.ibm.com>,	<stdin>
<fpavlic@de.ibm.com>,	<stdin>
<fpavlic@de.ibm.com>,	<stdin>
<fpavlic@de.ibm.com>,	<stdin>
<fpavlic@de.ibm.com>,	<stdin>
<fpavlic@de.ibm.com>,	<stdin>
<fpavlic@de.ibm.com>,	<stdin>
<frank.blaschka@de.ibm.com>	<stdin>
<frank.blaschka@de.ibm.com>	<stdin>
<frank.blaschka@de.ibm.com>	<stdin>
<frank.blaschka@de.ibm.com>	<stdin>
<frank.blaschka@de.ibm.com>	<stdin>
<frank.blaschka@de.ibm.com>	<stdin>
<frank.blaschka@de.ibm.com>	<stdin>
<frank.blaschka@de.ibm.com>	<stdin>
<frank.blaschka@de.ibm.com>	<stdin>
<frank.blaschka@de.ibm.com>");	<stdin>
<frank.blaschka@de.ibm.com>");	<stdin>
<frank.blaschka@de.ibm.com>");	<stdin>
<geert@linux-m68k.org>	<stdin>
<gerald.schaefer@de.ibm.com>	<stdin>
<geraldsc@de.ibm.com>");	<stdin>
<giometti@linux.it>	<stdin>
<grant@torque.net>	<stdin>
<greg@kroah.com>	<stdin>
<hans@linux.vnet.ibm.com>	<stdin>
<hans@linux.vnet.ibm.com>");	<stdin>
<hauke@hauke-m.de>	<stdin>
<hauke@hauke-m.de>	<stdin>
<hauke@hauke-m.de>	<stdin>
<hauke@hauke-m.de>	<stdin>
<hauke@hauke-m.de>	<stdin>
<hauke@hauke-m.de>	<stdin>
<hauke@hauke-m.de>	<stdin>
<hd@linux.vnet.ibm.com>	<stdin>
<hd@linux.vnet.ibm.com>	<stdin>
<hd@linux.vnet.ibm.com>	<stdin>
<hd@linux.vnet.ibm.com>	<stdin>
<hd@linux.vnet.ibm.com>	<stdin>
<hd@linux.vnet.ibm.com>	<stdin>
<hd@linux.vnet.ibm.com>	<stdin>
<hd@linux.vnet.ibm.com>	<stdin>
<hd@linux.vnet.ibm.com>	<stdin>
<hd@linux.vnet.ibm.com>	<stdin>
<hd@linux.vnet.ibm.com>	<stdin>
<hd@linux.vnet.ibm.com>	<stdin>
<hd@linux.vnet.ibm.com>	<stdin>
<hegewald@de.ibm.com>	<stdin>
<heiko.carstens@de.ibm.com>	<stdin>
<heiko.carstens@de.ibm.com>,	<stdin>
<heiko.carstens@de.ibm.com>,	<stdin>
<hirofuchi@users.sourceforge.net>"	<stdin>
<hirofuchi@users.sourceforge.net>"	<stdin>
<hislop_nigel@emc.com>	<stdin>
<holzheu@de.ibm.com>	<stdin>
<holzheu@de.ibm.com>	<stdin>
<holzheu@de.ibm.com>	<stdin>
<holzheu@de.ibm.com>	<stdin>
<holzheu@de.ibm.com>	<stdin>
<holzheu@de.ibm.com>	<stdin>
<holzheu@de.ibm.com>	<stdin>
<holzheu@de.ibm.com>	<stdin>
<hpenner@de.ibm.com>	<stdin>
<hpenner@de.ibm.com>	<stdin>
<hpenner@de.ibm.com>	<stdin>
<huba@softcell.hu>.	<stdin>
<iimura@jp.ibm.com>	<stdin>
<info@crossnet.co.jp>	<stdin>
<info@crossnet.co.jp>	<stdin>
<jang@linux.vnet.ibm.com>	<stdin>
<jang@linux.vnet.ibm.com>	<stdin>
<jang@linux.vnet.ibm.com>	<stdin>
<jang@linux.vnet.ibm.com>	<stdin>
<jang@linux.vnet.ibm.com>");	<stdin>
<joern@wh.fh-wedel.de>	<stdin>
<joern@wh.fh-wedel.de>	<stdin>
<kaos@ocs.com.au>	<stdin>
<kirk@braille.uwo.ca>	<stdin>
<kirk@braille.uwo.ca>	<stdin>
<kirk@braille.uwo.ca>	<stdin>
<kirk@braille.uwo.ca>	<stdin>
<kirk@braille.uwo.ca>	<stdin>
<kirk@braille.uwo.ca>	<stdin>
<kirk@braille.uwo.ca>	<stdin>
<kirk@braille.uwo.ca>	<stdin>
<kirk@braille.uwo.ca>	<stdin>
<kirk@braille.uwo.ca>	<stdin>
<kirk@braille.uwo.ca>	<stdin>
<kirk@braille.uwo.ca>	<stdin>
<kirk@braille.uwo.ca>	<stdin>
<kirk@braille.uwo.ca>");	<stdin>
<kirk@braille.uwo.ca>");	<stdin>
<kirk@braille.uwo.ca>");	<stdin>
<kirk@braille.uwo.ca>");	<stdin>
<kirk@braille.uwo.ca>");	<stdin>
<kirk@braille.uwo.ca>");	<stdin>
<kirk@braille.uwo.ca>");	<stdin>
<kirk@braille.uwo.ca>");	<stdin>
<kirk@braille.uwo.ca>");	<stdin>
<kirk@braille.uwo.ca>");	<stdin>
<kirk@braille.uwo.ca>");	<stdin>
<kirk@braille.uwo.ca>");	<stdin>
<kirk@braille.uwo.ca>");	<stdin>
<len.brown@intel.com>	<stdin>
<len.brown@intel.com>");	<stdin>
<linux@arcom.com>	<stdin>
<m@bues.ch>	<stdin>
<m@bues.ch>	<stdin>
<m@bues.ch>	<stdin>
<m@bues.ch>	<stdin>
<mb@bu3sch.de>	<stdin>
<mernst@de.ibm.com>	<stdin>
<mernst@de.ibm.com>	<stdin>
<mernst@de.ibm.com>	<stdin>
<mernst@de.ibm.com>");	<stdin>
<mfm@muteddisk.com>	<stdin>
<mfm@muteddisk.com>	<stdin>
<mfm@muteddisk.com>	<stdin>
<mfm@muteddisk.com>	<stdin>
<mfm@muteddisk.com>	<stdin>
<mfm@muteddisk.com>	<stdin>
<mfm@muteddisk.com>	<stdin>
<mfm@muteddisk.com>	<stdin>
<mfm@muteddisk.com>	<stdin>
<mfm@muteddisk.com>	<stdin>
<mfm@muteddisk.com>	<stdin>
<mfm@muteddisk.com>	<stdin>
<mfm@muteddisk.com>	<stdin>
<mj@atrey.karlin.mff.cuni.cz>	<stdin>
<mj@ucw.cz>	<stdin>
<mpeschke@de.ibm.com>	<stdin>
<mpeschke@de.ibm.com>	<stdin>
<mpeschke@de.ibm.com>	<stdin>
<mpeschke@de.ibm.com>	<stdin>
<mpeschke@de.ibm.com>	<stdin>
<mpeschke@de.ibm.com>	<stdin>
<mpeschke@de.ibm.com>	<stdin>
<mpeschke@de.ibm.com>	<stdin>
<mpeschke@de.ibm.com>	<stdin>
<mpeschke@de.ibm.com>,	<stdin>
<munzert@de.ibm.com>	<stdin>
<munzert@de.ibm.com>	<stdin>
<mwprice@us.ibm.com>	<stdin>
<ngoanh@de.ibm.com>	<stdin>
<ngoanh@de.ibm.com>	<stdin>
<ngoanh@de.ibm.com>	<stdin>
<ngoanh@de.ibm.com>	<stdin>
<ngoanh@de.ibm.com>	<stdin>
<ngoanh@de.ibm.com>	<stdin>
<ngoanh@de.ibm.com>	<stdin>
<nico@cam.org>	<stdin>
<nico@fluxnic.net>	<stdin>
<nico@fluxnic.net>	<stdin>
<nkrishna@us.ibm.com>	<stdin>
<nkukard@lbsd.net>	<stdin>
<peter.oberparleiter@de.ibm.com>	<stdin>
<peter.oberparleiter@de.ibm.com>	<stdin>
<peter.oberparleiter@de.ibm.com>	<stdin>
<peter.oberparleiter@de.ibm.com>	<stdin>
<peter.oberparleiter@de.ibm.com>	<stdin>
<peter.oberparleiter@de.ibm.com>	<stdin>
<peter.oberparleiter@de.ibm.com>	<stdin>
<peter.oberparleiter@de.ibm.com>	<stdin>
<peter.oberparleiter@de.ibm.com>	<stdin>
<peter.oberparleiter@de.ibm.com>	<stdin>
<peter.oberparleiter@de.ibm.com>	<stdin>
<peter.oberparleiter@de.ibm.com>	<stdin>
<peter.oberparleiter@de.ibm.com>	<stdin>
<ptiedem@de.ibm.com>");	<stdin>
<richtera@us.ibm.com>	<stdin>
<richtera@us.ibm.com>");	<stdin>
<rsharman@pobox.com>.	<stdin>
<rwuerthn@de.ibm.com>	<stdin>
<rwuerthn@de.ibm.com>	<stdin>
<rwuerthn@de.ibm.com>	<stdin>
<rwuerthn@de.ibm.com>	<stdin>
<rwuerthn@de.ibm.com>	<stdin>
<rwuerthn@de.ibm.com>	<stdin>
<rwuerthn@de.ibm.com>	<stdin>
<rwuerthn@de.ibm.com>	<stdin>
<rwuerthn@de.ibm.com>	<stdin>
<rwuerthn@de.ibm.com>	<stdin>
<samuel.thibault@ens-lyon.org>	<stdin>
<samuel.thibault@ens-lyon.org>");	<stdin>
<schwidefsky@de.ibm.com>	<stdin>
<schwidefsky@de.ibm.com>	<stdin>
<schwidefsky@de.ibm.com>	<stdin>
<schwidefsky@de.ibm.com>	<stdin>
<schwidefsky@de.ibm.com>	<stdin>
<schwidefsky@de.ibm.com>	<stdin>
<schwidefsky@de.ibm.com>	<stdin>
<schwidefsky@de.ibm.com>	<stdin>
<schwidefsky@de.ibm.com>	<stdin>
<schwidefsky@de.ibm.com>	<stdin>
<schwidefsky@de.ibm.com>	<stdin>
<schwidefsky@de.ibm.com>	<stdin>
<schwidefsky@de.ibm.com>	<stdin>
<schwidefsky@de.ibm.com>	<stdin>
<schwidefsky@de.ibm.com>	<stdin>
<schwidefsky@de.ibm.com>	<stdin>
<schwidefsky@de.ibm.com>	<stdin>
<schwidefsky@de.ibm.com>	<stdin>
<schwidefsky@de.ibm.com>	<stdin>
<schwidefsky@de.ibm.com>	<stdin>
<schwidefsky@de.ibm.com>	<stdin>
<schwidefsky@de.ibm.com>	<stdin>
<schwidefsky@de.ibm.com>	<stdin>
<schwidefsky@de.ibm.com>	<stdin>
<schwidefsky@de.ibm.com>	<stdin>
<schwidefsky@de.ibm.com>	<stdin>
<schwidefsky@de.ibm.com>	<stdin>
<schwidefsky@de.ibm.com>	<stdin>
<schwidefsky@de.ibm.com>	<stdin>
<schwidefsky@de.ibm.com>	<stdin>
<schwidefsky@de.ibm.com>	<stdin>
<schwidefsky@de.ibm.com>	<stdin>
<schwidefsky@de.ibm.com>	<stdin>
<schwidefsky@de.ibm.com>	<stdin>
<schwidefsky@de.ibm.com>	<stdin>
<schwidefsky@de.ibm.com>	<stdin>
<schwidefsky@de.ibm.com>	<stdin>
<schwidefsky@de.ibm.com>	<stdin>
<schwidefsky@de.ibm.com>	<stdin>
<schwidefsky@de.ibm.com>	<stdin>
<schwidefsky@de.ibm.com>	<stdin>
<schwidefsky@de.ibm.com>	<stdin>
<schwidefsky@de.ibm.com>	<stdin>
<schwidefsky@de.ibm.com>	<stdin>
<schwidefsky@de.ibm.com>	<stdin>
<schwidefsky@de.ibm.com>	<stdin>
<schwidefsky@de.ibm.com>	<stdin>
<schwidefsky@de.ibm.com>	<stdin>
<schwidefsky@de.ibm.com>	<stdin>
<schwidefsky@de.ibm.com>	<stdin>
<schwidefsky@de.ibm.com>	<stdin>
<schwidefsky@de.ibm.com>	<stdin>
<schwidefsky@de.ibm.com>	<stdin>
<schwidefsky@de.ibm.com>,	<stdin>
<sebott@linux.vnet.ibm.com>	<stdin>
<sebott@linux.vnet.ibm.com>	<stdin>
<sebott@linux.vnet.ibm.com>	<stdin>
<sebott@linux.vnet.ibm.com>	<stdin>
<sebott@linux.vnet.ibm.com>	<stdin>
<sebott@linux.vnet.ibm.com>	<stdin>
<sebott@linux.vnet.ibm.com>	<stdin>
<shbader@de.ibm.com>	<stdin>
<shbader@de.ibm.com>	<stdin>
<shbader@de.ibm.com>	<stdin>
<shbader@de.ibm.com>	<stdin>
<shbader@de.ibm.com>	<stdin>
<shbader@de.ibm.com>	<stdin>
<shbader@de.ibm.com>	<stdin>
<shbader@de.ibm.com>");	<stdin>
<source@mvista.com>	<stdin>
<tori@prosolvia.se>	<stdin>
<tspat@de.ibm.com>,	<stdin>
<tspat@de.ibm.com>,	<stdin>
<tspat@de.ibm.com>,	<stdin>
<tspat@de.ibm.com>,	<stdin>
<tspat@de.ibm.com>,	<stdin>
<tspat@de.ibm.com>,	<stdin>
<tspat@de.ibm.com>,	<stdin>
<tspat@de.ibm.com>,	<stdin>
<tspat@de.ibm.com>,	<stdin>
<utz.bacher@de.ibm.com>	<stdin>
<utz.bacher@de.ibm.com>	<stdin>
<utz.bacher@de.ibm.com>	<stdin>
<utz.bacher@de.ibm.com>,	<stdin>
<utz.bacher@de.ibm.com>,	<stdin>
<utz.bacher@de.ibm.com>,	<stdin>
<utz.bacher@de.ibm.com>,	<stdin>
<utz.bacher@de.ibm.com>,	<stdin>
<utz.bacher@de.ibm.com>,	<stdin>
<utz.bacher@de.ibm.com>,	<stdin>
<utz.bacher@de.ibm.com>,"\	<stdin>
<venkatesh.pallipadi@intel.com>	<stdin>
<wein@de.ibm.com>	<stdin>
<wein@de.ibm.com>	<stdin>
<wein@de.ibm.com>	<stdin>
<xenia@us.ibm.com>	<stdin>
@0x%06x\n",	<stdin>
@0x%06x\n",	<stdin>
@0x%06x\n",	<stdin>
@0x%x,	<stdin>
@0x%x,	<stdin>
@1000	<stdin>
@1000	<stdin>
@A1A	<stdin>
@CMF_AUTODETECT:	<stdin>
@CMF_BASIC:	<stdin>
@CMF_EXTENDED:	<stdin>
@ZFCP_DBF_HBA_BIT:	<stdin>
@ZFCP_DBF_HBA_RES:	<stdin>
@ZFCP_DBF_HBA_USS:	<stdin>
@ZFCP_DBF_REC_RUN:	<stdin>
@ZFCP_DBF_REC_TRIG:	<stdin>
@ZFCP_DBF_SAN_ELS:	<stdin>
@ZFCP_DBF_SAN_REQ:	<stdin>
@ZFCP_DBF_SAN_RES:	<stdin>
@ZFCP_DBF_SCSI_CMND:	<stdin>
@ZFCP_FC_WKA_PORT_CLOSING:	<stdin>
@ZFCP_FC_WKA_PORT_OFFLINE:	<stdin>
@ZFCP_FC_WKA_PORT_ONLINE:	<stdin>
@ZFCP_FC_WKA_PORT_OPENING:	<stdin>
@actual_length:	<stdin>
@actual_length:	<stdin>
@adapter:	<stdin>
@adapter:	<stdin>
@adapter:	<stdin>
@adapter:	<stdin>
@adapter:	<stdin>
@adapter:	<stdin>
@adapter:	<stdin>
@adapter:	<stdin>
@adapter:	<stdin>
@adapter:	<stdin>
@adapter:	<stdin>
@adapter:	<stdin>
@adapter:	<stdin>
@adapter:	<stdin>
@adapter:	<stdin>
@adapter:	<stdin>
@adapter:	<stdin>
@adapter:	<stdin>
@adapter:	<stdin>
@adapter:	<stdin>
@adapter:	<stdin>
@adapter:	<stdin>
@adapter:	<stdin>
@adapter:	<stdin>
@adapter:	<stdin>
@adapter:	<stdin>
@adapter:	<stdin>
@adapter:	<stdin>
@adapter:	<stdin>
@adapter:	<stdin>
@adapter_status:	<stdin>
@addr:	<stdin>
@addr:	<stdin>
@addr:	<stdin>
@addr:	<stdin>
@align:	<stdin>
@alloc	<stdin>
@alloc:	<stdin>
@alsi:	<stdin>
@ap_dev:	<stdin>
@ap_dev:	<stdin>
@ap_dev:	<stdin>
@ap_dev:	<stdin>
@ap_dev:	<stdin>
@ap_dev:	<stdin>
@ap_dev:	<stdin>
@ap_dev:	<stdin>
@ap_dev:	<stdin>
@ap_dev:	<stdin>
@ap_dev:	<stdin>
@ap_dev:	<stdin>
@ap_dev:	<stdin>
@ap_dev:	<stdin>
@ap_dev:	<stdin>
@ap_dev:	<stdin>
@ap_dev:	<stdin>
@ap_dev:	<stdin>
@ap_dev:	<stdin>
@ap_dev:	<stdin>
@ap_dev:	<stdin>
@ap_dev:	<stdin>
@ap_msg:	<stdin>
@ap_msg:	<stdin>
@ap_msg:	<stdin>
@ap_msg:	<stdin>
@ap_msg:	<stdin>
@ap_msg:	<stdin>
@area:	<stdin>
@arg:	<stdin>
@as:	<stdin>
@ascq:	<stdin>
@auto_ack:	<stdin>
@base:	<stdin>
@base:	<stdin>
@bb:	<stdin>
@bottom:	<stdin>
@buf.	<stdin>
@buf1:	<stdin>
@buf2:	<stdin>
@buf:	<stdin>
@buf:	<stdin>
@buf:	<stdin>
@buf:	<stdin>
@buffer:	<stdin>
@buffer:	<stdin>
@bufnr:	<stdin>
@bufnr:	<stdin>
@bufnr:	<stdin>
@bufnr:	<stdin>
@bus_id.	<stdin>
@bus_id:	<stdin>
@callback:	<stdin>
@callflags:	<stdin>
@callflags:	<stdin>
@callflags:	<stdin>
@cancel:	<stdin>
@ccw_device:	<stdin>
@cd,	<stdin>
@cd,	<stdin>
@cd:	<stdin>
@cd:	<stdin>
@cd_count	<stdin>
@cd_count	<stdin>
@cd_count:	<stdin>
@cd_count:	<stdin>
@cdev	<stdin>
@cdev	<stdin>
@cdev	<stdin>
@cdev	<stdin>
@cdev	<stdin>
@cdev	<stdin>
@cdev's	<stdin>
@cdev's	<stdin>
@cdev's	<stdin>
@cdev's	<stdin>
@cdev's	<stdin>
@cdev's	<stdin>
@cdev's	<stdin>
@cdev,	<stdin>
@cdev,	<stdin>
@cdev.	<stdin>
@cdev:	<stdin>
@cdev:	<stdin>
@cdev:	<stdin>
@cdev:	<stdin>
@cdev:	<stdin>
@cdev:	<stdin>
@cdev:	<stdin>
@cdev:	<stdin>
@cdev:	<stdin>
@cdev:	<stdin>
@cdev:	<stdin>
@cdev:	<stdin>
@cdev:	<stdin>
@cdev:	<stdin>
@cdev:	<stdin>
@cdev:	<stdin>
@cdev:	<stdin>
@cdev:	<stdin>
@cdev:	<stdin>
@cdev:	<stdin>
@cdev:	<stdin>
@cdev:	<stdin>
@cdev:	<stdin>
@cdev:	<stdin>
@cdev:	<stdin>
@cdev:	<stdin>
@cdev:	<stdin>
@cdev:	<stdin>
@cdev:	<stdin>
@cdev:	<stdin>
@cdev:	<stdin>
@cdev:	<stdin>
@cdev:	<stdin>
@cdev:	<stdin>
@cdev:	<stdin>
@cdev:	<stdin>
@cdev:	<stdin>
@cdev:	<stdin>
@cdev:	<stdin>
@cdev:	<stdin>
@cdev:	<stdin>
@cdev:	<stdin>
@cdev:	<stdin>
@cdev:	<stdin>
@cdev:	<stdin>
@cdev:	<stdin>
@cdev:	<stdin>
@cdev:	<stdin>
@cdev:	<stdin>
@cdev:	<stdin>
@cdev:	<stdin>
@cdev:	<stdin>
@cdev:	<stdin>
@cdev:	<stdin>
@cdev:	<stdin>
@cdev:	<stdin>
@cdev:	<stdin>
@cdev:	<stdin>
@cdev:	<stdin>
@cdriver:	<stdin>
@cdriver:	<stdin>
@cdriver:	<stdin>
@cdriver:	<stdin>
@cdrv	<stdin>
@cdrv:	<stdin>
@cdrv:	<stdin>
@cdrv:	<stdin>
@check:	<stdin>
@chp_event:	<stdin>
@chpid	<stdin>
@chpid	<stdin>
@chpid	<stdin>
@chpid:	<stdin>
@chpid:	<stdin>
@chpid:	<stdin>
@chpid:	<stdin>
@chpid:	<stdin>
@chpid:	<stdin>
@chsc_area:	<stdin>
@clear:	<stdin>
@clear:	<stdin>
@clear:	<stdin>
@clear:	<stdin>
@clear:	<stdin>
@clear:	<stdin>
@clear_mask:	<stdin>
@clear_mask:	<stdin>
@cmd,	<stdin>
@cmd,	<stdin>
@cmd:	<stdin>
@cmd:	<stdin>
@code:	<stdin>
@command:	<stdin>
@command:	<stdin>
@command:	<stdin>
@complete:	<stdin>
@completion:	<stdin>
@completion_wq:	<stdin>
@configure	<stdin>
@conn:	<stdin>
@control_file:	<stdin>
@control_unit_queuing_time:	<stdin>
@control_unit_queuing_time:	<stdin>
@count	<stdin>
@count	<stdin>
@count:	<stdin>
@count:	<stdin>
@count:	<stdin>
@count:	<stdin>
@count:	<stdin>
@count:	<stdin>
@count:	<stdin>
@count:	<stdin>
@count:	<stdin>
@count:	<stdin>
@count:	<stdin>
@count:	<stdin>
@count:	<stdin>
@count:	<stdin>
@counter:	<stdin>
@cp:	<stdin>
@cpa:	<stdin>
@cpa:	<stdin>
@cpa:	<stdin>
@cpa:	<stdin>
@cpu:	<stdin>
@crt:	<stdin>
@crt:	<stdin>
@crt:	<stdin>
@crt:	<stdin>
@crt:	<stdin>
@crt:	<stdin>
@crt:	<stdin>
@crt:	<stdin>
@crw0:	<stdin>
@crw1:	<stdin>
@ct:	<stdin>
@ct:	<stdin>
@ct_els:	<stdin>
@ct_hdr:	<stdin>
@ct_hdr:	<stdin>
@ct_hdr:	<stdin>
@ct_hdr:	<stdin>
@ct_hdr:	<stdin>
@ct_hdr:	<stdin>
@d_id:	<stdin>
@d_id:	<stdin>
@d_id:	<stdin>
@d_id:	<stdin>
@d_id:	<stdin>
@data:	<stdin>
@data:	<stdin>
@data:	<stdin>
@data:	<stdin>
@data:	<stdin>
@data:	<stdin>
@data:	<stdin>
@data:	<stdin>
@data:	<stdin>
@data:	<stdin>
@data:	<stdin>
@data:	<stdin>
@data:	<stdin>
@data:	<stdin>
@data:	<stdin>
@data:	<stdin>
@data:	<stdin>
@data:	<stdin>
@data:	<stdin>
@dest	<stdin>
@dest:	<stdin>
@dev:	<stdin>
@dev:	<stdin>
@dev:	<stdin>
@dev:	<stdin>
@dev:	<stdin>
@dev:	<stdin>
@dev:	<stdin>
@dev:	<stdin>
@dev:	<stdin>
@dev:	<stdin>
@dev:	<stdin>
@dev:	<stdin>
@dev:	<stdin>
@dev_id.	<stdin>
@dev_id:	<stdin>
@dev_id:	<stdin>
@device_active_only_time:	<stdin>
@device_active_only_time:	<stdin>
@device_busy_time:	<stdin>
@device_connect_time:	<stdin>
@device_connect_time:	<stdin>
@device_disconnect_time:	<stdin>
@device_disconnect_time:	<stdin>
@device_type:	<stdin>
@device_type:	<stdin>
@devid	<stdin>
@devid:	<stdin>
@devid:	<stdin>
@devid:	<stdin>
@devno:	<stdin>
@diag:	<stdin>
@direction:	<stdin>
@direction:	<stdin>
@domain	<stdin>
@done:	<stdin>
@drc:	<stdin>
@drv:	<stdin>
@drv:	<stdin>
@drv:	<stdin>
@drv:	<stdin>
@drv:	<stdin>
@drv_data:	<stdin>
@ds:	<stdin>
@dummy:	<stdin>
@els:	<stdin>
@env:	<stdin>
@ep:	<stdin>
@ep:	<stdin>
@erp:	<stdin>
@erp_action:	<stdin>
@erp_action:	<stdin>
@erp_action:	<stdin>
@erp_action:	<stdin>
@erp_action:	<stdin>
@erp_action:	<stdin>
@erp_action:	<stdin>
@erp_action:	<stdin>
@erp_action:	<stdin>
@erp_counter:	<stdin>
@error:	<stdin>
@error_count:	<stdin>
@error_count:	<stdin>
@event:	<stdin>
@event:	<stdin>
@event:	<stdin>
@event_code:	<stdin>
@event_data:	<stdin>
@expires.	<stdin>
@expires.	<stdin>
@expires:	<stdin>
@expires:	<stdin>
@expires:	<stdin>
@expires:	<stdin>
@fc:	<stdin>
@fcp:	<stdin>
@fcp_lun:	<stdin>
@fcp_lun:	<stdin>
@fcp_lun:	<stdin>
@fcp_lun:	<stdin>
@fcp_rsp:	<stdin>
@fcp_rsp_info:	<stdin>
@fi:	<stdin>
@filter:	<stdin>
@flag:	<stdin>
@flags	<stdin>
@flags	<stdin>
@flags	<stdin>
@flags	<stdin>
@flags,	<stdin>
@flags,	<stdin>
@flags:	<stdin>
@flags:	<stdin>
@flags:	<stdin>
@flags:	<stdin>
@flags:	<stdin>
@flags:	<stdin>
@flags:	<stdin>
@flags:	<stdin>
@flags:	<stdin>
@flags:	<stdin>
@flags:	<stdin>
@flags:	<stdin>
@flags:	<stdin>
@flags:	<stdin>
@free:	<stdin>
@freeze	<stdin>
@freeze:	<stdin>
@fsf:	<stdin>
@fsf_cfdc:	<stdin>
@fsf_cmd:	<stdin>
@fsf_command:	<stdin>
@fsf_req	<stdin>
@fsf_req:	<stdin>
@fsf_req:	<stdin>
@fsf_req:	<stdin>
@fsf_req:	<stdin>
@fsf_req:	<stdin>
@fsf_req:	<stdin>
@fsf_req:	<stdin>
@fsf_req_id:	<stdin>
@fsf_req_id:	<stdin>
@fsf_req_id:	<stdin>
@fsf_req_id:	<stdin>
@fsf_req_id:	<stdin>
@fsf_req_status:	<stdin>
@fsf_rsp:	<stdin>
@fsf_seq_no:	<stdin>
@fsf_status:	<stdin>
@fsf_status:	<stdin>
@fsf_status_qual:	<stdin>
@fsf_status_qual:	<stdin>
@function_pending_time:	<stdin>
@function_pending_time:	<stdin>
@functions:	<stdin>
@gdev:	<stdin>
@gdev:	<stdin>
@gdrv:	<stdin>
@gid_pn:	<stdin>
@gid_pn:	<stdin>
@gpn_ft:	<stdin>
@grp:	<stdin>
@gspn:	<stdin>
@gspn:	<stdin>
@handle:	<stdin>
@handler:	<stdin>
@handler:	<stdin>
@handler:	<stdin>
@handler:	<stdin>
@handler_data:	<stdin>
@hba:	<stdin>
@hba_buf:	<stdin>
@hba_lock:	<stdin>
@host_scribble:	<stdin>
@how:	<stdin>
@id	<stdin>
@id:	<stdin>
@id:	<stdin>
@id:	<stdin>
@id:	<stdin>
@id:	<stdin>
@id:	<stdin>
@id:	<stdin>
@id:	<stdin>
@id:	<stdin>
@id:	<stdin>
@id:	<stdin>
@id:	<stdin>
@ids:	<stdin>
@ids:	<stdin>
@ind:	<stdin>
@ind:	<stdin>
@ind:	<stdin>
@index:	<stdin>
@index:	<stdin>
@info	<stdin>
@info:	<stdin>
@init_data:	<stdin>
@init_data:	<stdin>
@initial_command_response_time:	<stdin>
@int_enabled:	<stdin>
@interface:	<stdin>
@interval:	<stdin>
@interval:	<stdin>
@intparm:	<stdin>
@intparm:	<stdin>
@intparm:	<stdin>
@intparm:	<stdin>
@intparm:	<stdin>
@intparm:	<stdin>
@intparm:	<stdin>
@intparm:	<stdin>
@intparm:	<stdin>
@intparm:	<stdin>
@intparm:	<stdin>
@intrg:	<stdin>
@intrg:	<stdin>
@intrg_max_tidaws:	<stdin>
@intrg_max_tidaws:	<stdin>
@intrg_tcw:	<stdin>
@irq:	<stdin>
@isc	<stdin>
@isc	<stdin>
@isc,	<stdin>
@isc,	<stdin>
@isc.	<stdin>
@isc:	<stdin>
@isc:	<stdin>
@isc:	<stdin>
@isc:	<stdin>
@issued:	<stdin>
@itcw:	<stdin>
@itcw:	<stdin>
@itcw:	<stdin>
@itcw:	<stdin>
@itcw:	<stdin>
@key:	<stdin>
@key:	<stdin>
@key:	<stdin>
@key:	<stdin>
@key:	<stdin>
@latencies:	<stdin>
@len:	<stdin>
@len:	<stdin>
@length:	<stdin>
@length:	<stdin>
@length:	<stdin>
@length:	<stdin>
@length:	<stdin>
@length:	<stdin>
@list	<stdin>
@list:	<stdin>
@list:	<stdin>
@list:	<stdin>
@list:	<stdin>
@list:	<stdin>
@list:	<stdin>
@list:	<stdin>
@list_lock:	<stdin>
@lock:	<stdin>
@lock:	<stdin>
@lpm	<stdin>
@lpm	<stdin>
@lpm	<stdin>
@lpm	<stdin>
@lpm	<stdin>
@lpm	<stdin>
@lpm	<stdin>
@lpm	<stdin>
@lpm:	<stdin>
@lpm:	<stdin>
@lpm:	<stdin>
@lpm:	<stdin>
@lpm:	<stdin>
@lpm:	<stdin>
@lpm:	<stdin>
@lpm:	<stdin>
@lpm:	<stdin>
@lpm:	<stdin>
@lpm:	<stdin>
@lun:	<stdin>
@lun:	<stdin>
@lun_handle:	<stdin>
@lun_status:	<stdin>
@mask	<stdin>
@mask:	<stdin>
@mask:	<stdin>
@mask:	<stdin>
@mask:	<stdin>
@mask:	<stdin>
@mask:	<stdin>
@mask:	<stdin>
@mask:	<stdin>
@mask:	<stdin>
@mask:	<stdin>
@max_sbals:	<stdin>
@max_sbals:	<stdin>
@max_tidaws:	<stdin>
@max_tidaws:	<stdin>
@maxretries:	<stdin>
@mem	<stdin>
@mem:	<stdin>
@mex:	<stdin>
@mex:	<stdin>
@mex:	<stdin>
@mex:	<stdin>
@mex:	<stdin>
@mex:	<stdin>
@mex:	<stdin>
@mex:	<stdin>
@mex:	<stdin>
@mex:	<stdin>
@mex:	<stdin>
@mode:	<stdin>
@ms:	<stdin>
@msg:	<stdin>
@msg:	<stdin>
@msg:	<stdin>
@msg:	<stdin>
@msg:	<stdin>
@msg:	<stdin>
@mutex:	<stdin>
@name:	<stdin>
@name:	<stdin>
@need:	<stdin>
@need:	<stdin>
@new_mtu:	<stdin>
@nr:	<stdin>
@nr:	<stdin>
@nr:	<stdin>
@nr_blks	<stdin>
@num_channels:	<stdin>
@num_devices:	<stdin>
@num_tidaws:	<stdin>
@num_tidaws:	<stdin>
@number_of_packets:	<stdin>
@number_of_packets:	<stdin>
@number_of_packets:	<stdin>
@number_of_packets:	<stdin>
@on:	<stdin>
@op:	<stdin>
@overflow:	<stdin>
@p:	<stdin>
@p:	<stdin>
@p:	<stdin>
@pad2:	<stdin>
@pad:	<stdin>
@param	<stdin>
@param	<stdin>
@param	<stdin>
@param	<stdin>
@param	<stdin>
@param	<stdin>
@param	<stdin>
@param	<stdin>
@param	<stdin>
@param	<stdin>
@param	<stdin>
@param	<stdin>
@param	<stdin>
@param	<stdin>
@param	<stdin>
@param	<stdin>
@param	<stdin>
@param	<stdin>
@param	<stdin>
@param	<stdin>
@param	<stdin>
@param	<stdin>
@param	<stdin>
@param	<stdin>
@param	<stdin>
@param	<stdin>
@param	<stdin>
@param	<stdin>
@param	<stdin>
@param	<stdin>
@param	<stdin>
@param	<stdin>
@param	<stdin>
@param	<stdin>
@param	<stdin>
@param	<stdin>
@param	<stdin>
@param	<stdin>
@param	<stdin>
@param	<stdin>
@param	<stdin>
@param	<stdin>
@param	<stdin>
@param	<stdin>
@param	<stdin>
@param	<stdin>
@param	<stdin>
@param	<stdin>
@param	<stdin>
@parent.	<stdin>
@parent:	<stdin>
@pay:	<stdin>
@pay_buf:	<stdin>
@pay_lock:	<stdin>
@payload:	<stdin>
@payloads:	<stdin>
@pl:	<stdin>
@pl_len:	<stdin>
@pl_len:	<stdin>
@plogi:	<stdin>
@pool:	<stdin>
@pool:	<stdin>
@port:	<stdin>
@port:	<stdin>
@port:	<stdin>
@port:	<stdin>
@port:	<stdin>
@port:	<stdin>
@port:	<stdin>
@port:	<stdin>
@port:	<stdin>
@port:	<stdin>
@port:	<stdin>
@port:	<stdin>
@port:	<stdin>
@port:	<stdin>
@port:	<stdin>
@port:	<stdin>
@port:	<stdin>
@port:	<stdin>
@port_status:	<stdin>
@prepare	<stdin>
@prepare:	<stdin>
@probe:	<stdin>
@process:	<stdin>
@process:	<stdin>
@prot_status:	<stdin>
@prot_status_qual:	<stdin>
@pskb:	<stdin>
@psmid:	<stdin>
@psmid:	<stdin>
@q:	<stdin>
@q:	<stdin>
@q:	<stdin>
@q:	<stdin>
@q_nr:	<stdin>
@q_rec:	<stdin>
@q_req:	<stdin>
@q_req:	<stdin>
@q_req:	<stdin>
@q_req:	<stdin>
@q_req:	<stdin>
@q_req:	<stdin>
@q_req:	<stdin>
@q_req:	<stdin>
@q_req:	<stdin>
@qdio:	<stdin>
@qdio:	<stdin>
@qdio:	<stdin>
@qdio:	<stdin>
@qdio:	<stdin>
@qdio:	<stdin>
@qdio:	<stdin>
@qdio:	<stdin>
@qdio:	<stdin>
@qdio:	<stdin>
@qdio:	<stdin>
@qdio:	<stdin>
@qdio:	<stdin>
@qdio:	<stdin>
@qdio_outb_usage:	<stdin>
@qdio_req:	<stdin>
@qid:	<stdin>
@qid:	<stdin>
@qid:	<stdin>
@qid:	<stdin>
@qid:	<stdin>
@qid:	<stdin>
@qid:	<stdin>
@qid:	<stdin>
@qid:	<stdin>
@qtcb:	<stdin>
@qual:	<stdin>
@qual:	<stdin>
@qual:	<stdin>
@queue_depth:	<stdin>
@queue_depth:	<stdin>
@queue_designator:	<stdin>
@queue_empty:	<stdin>
@queue_full:	<stdin>
@r:	<stdin>
@read:	<stdin>
@readall:	<stdin>
@ready:	<stdin>
@rec:	<stdin>
@rec_buf:	<stdin>
@rec_lock:	<stdin>
@rec_status:	<stdin>
@rec_step:	<stdin>
@ref:	<stdin>
@refcount:	<stdin>
@remove:	<stdin>
@replies_waiting:	<stdin>
@reply:	<stdin>
@reply:	<stdin>
@reply:	<stdin>
@reply:	<stdin>
@reply:	<stdin>
@reply:	<stdin>
@reply:	<stdin>
@reply:	<stdin>
@reply:	<stdin>
@req:	<stdin>
@req:	<stdin>
@req:	<stdin>
@req:	<stdin>
@req:	<stdin>
@req:	<stdin>
@req:	<stdin>
@req_flags:	<stdin>
@req_id:	<stdin>
@req_id:	<stdin>
@req_id:	<stdin>
@req_id:	<stdin>
@req_id:	<stdin>
@req_issued:	<stdin>
@req_q:	<stdin>
@req_q_free:	<stdin>
@req_q_full:	<stdin>
@req_q_idx:	<stdin>
@req_q_lock:	<stdin>
@req_q_time:	<stdin>
@req_q_util:	<stdin>
@req_q_wq:	<stdin>
@request:	<stdin>
@res_q:	<stdin>
@reserved:	<stdin>
@reserved:	<stdin>
@reset:	<stdin>
@resp:	<stdin>
@response.	<stdin>
@response:	<stdin>
@response_conde:	<stdin>
@restore:	<stdin>
@retries:	<stdin>
@return	<stdin>
@return	<stdin>
@return	<stdin>
@return	<stdin>
@return	<stdin>
@return	<stdin>
@return	<stdin>
@return	<stdin>
@return	<stdin>
@return	<stdin>
@return	<stdin>
@returns	<stdin>
@returns	<stdin>
@returns	<stdin>
@rhport	<stdin>
@rhport:	<stdin>
@rl:	<stdin>
@rl:	<stdin>
@rl:	<stdin>
@rl:	<stdin>
@rl:	<stdin>
@rl:	<stdin>
@rport:	<stdin>
@rsc:	<stdin>
@rsc:	<stdin>
@rspn:	<stdin>
@running:	<stdin>
@sa:	<stdin>
@sa_off:	<stdin>
@sac:	<stdin>
@sample_count:	<stdin>
@sample_count:	<stdin>
@san:	<stdin>
@san_buf:	<stdin>
@san_lock:	<stdin>
@sbal_first:	<stdin>
@sbal_idx:	<stdin>
@sbal_last:	<stdin>
@sbal_limit:	<stdin>
@sbal_number:	<stdin>
@sbal_response:	<stdin>
@sbale_curr:	<stdin>
@sbtype:	<stdin>
@sbtype:	<stdin>
@sc:	<stdin>
@sch	<stdin>
@sch:	<stdin>
@sch:	<stdin>
@sch:	<stdin>
@sch:	<stdin>
@sch:	<stdin>
@sch:	<stdin>
@sch:	<stdin>
@sch:	<stdin>
@sch:	<stdin>
@sch:	<stdin>
@sch_event:	<stdin>
@schib:	<stdin>
@schid	<stdin>
@schid:	<stdin>
@schid:	<stdin>
@schid:	<stdin>
@scm_area:	<stdin>
@scmd:	<stdin>
@scmd:	<stdin>
@scmd:	<stdin>
@scmd:	<stdin>
@scmdrv:	<stdin>
@scmdrv:	<stdin>
@scmnd:	<stdin>
@scmnd:	<stdin>
@scmnd:	<stdin>
@scount:	<stdin>
@scsi:	<stdin>
@scsi:	<stdin>
@scsi:	<stdin>
@scsi_allowed:	<stdin>
@scsi_buf:	<stdin>
@scsi_cmnd:	<stdin>
@scsi_id:	<stdin>
@scsi_lock:	<stdin>
@scsi_lun:	<stdin>
@scsi_opcode:	<stdin>
@scsi_result:	<stdin>
@scsi_retries:	<stdin>
@scsi_work:	<stdin>
@sdev:	<stdin>
@sdev:	<stdin>
@sdev:	<stdin>
@sdev:	<stdin>
@sdev:	<stdin>
@sdev:	<stdin>
@sdev:	<stdin>
@sdev:	<stdin>
@sdev:	<stdin>
@sdev:	<stdin>
@sdev:	<stdin>
@senseid:	<stdin>
@seq_no:	<stdin>
@seqnum:	<stdin>
@seqnum:	<stdin>
@seqnum:	<stdin>
@seqnum:	<stdin>
@set:	<stdin>
@set:	<stdin>
@set_mask:	<stdin>
@settle:	<stdin>
@setup:	<stdin>
@setup:	<stdin>
@sg:	<stdin>
@sg:	<stdin>
@sg:	<stdin>
@sg:	<stdin>
@sg:	<stdin>
@sg:	<stdin>
@sg_req:	<stdin>
@sg_rsp:	<stdin>
@shutdown:	<stdin>
@signature:	<stdin>
@singlepath:	<stdin>
@size:	<stdin>
@size:	<stdin>
@sockfd:	<stdin>
@special:	<stdin>
@speed.	<stdin>
@speed:	<stdin>
@sprom_callback:	<stdin>
@src:	<stdin>
@ssch_rsch_count:	<stdin>
@ssch_rsch_count:	<stdin>
@start:	<stdin>
@start:	<stdin>
@start_blk:	<stdin>
@start_frame:	<stdin>
@start_frame:	<stdin>
@start_frame:	<stdin>
@start_frame:	<stdin>
@stat_lock:	<stdin>
@state:	<stdin>
@state:	<stdin>
@status:	<stdin>
@status:	<stdin>
@status:	<stdin>
@status:	<stdin>
@status:	<stdin>
@status:	<stdin>
@status:	<stdin>
@status:	<stdin>
@status:	<stdin>
@status_subtype:	<stdin>
@status_type:	<stdin>
@subchannel_type:	<stdin>
@tag:	<stdin>
@tag:	<stdin>
@tag:	<stdin>
@tag:	<stdin>
@tag:	<stdin>
@tag:	<stdin>
@tag:	<stdin>
@tag:	<stdin>
@tag:	<stdin>
@tag:	<stdin>
@tag:	<stdin>
@tag:	<stdin>
@tag:	<stdin>
@tag:	<stdin>
@tag:	<stdin>
@tag:	<stdin>
@tag:	<stdin>
@tccb:	<stdin>
@tccb:	<stdin>
@tccb:	<stdin>
@tccb_size.	<stdin>
@tccb_size:	<stdin>
@tcw:	<stdin>
@tcw:	<stdin>
@tcw:	<stdin>
@tcw:	<stdin>
@tcw:	<stdin>
@tcw:	<stdin>
@tcw:	<stdin>
@tcw:	<stdin>
@tcw:	<stdin>
@tcw:	<stdin>
@tcw:	<stdin>
@tcw:	<stdin>
@tcw:	<stdin>
@tcw:	<stdin>
@tcw:	<stdin>
@tcw:	<stdin>
@thaw:	<stdin>
@timeout:	<stdin>
@timer:	<stdin>
@tm:	<stdin>
@tm_flags:	<stdin>
@todo	<stdin>
@todo	<stdin>
@todo:	<stdin>
@todo:	<stdin>
@token:	<stdin>
@transfer_buffer_length:	<stdin>
@transfer_buffer_length:	<stdin>
@transfer_flags:	<stdin>
@transfer_flags:	<stdin>
@ts:	<stdin>
@tsb:	<stdin>
@tsb:	<stdin>
@u.run:	<stdin>
@u.trig:	<stdin>
@u:	<stdin>
@u:	<stdin>
@u:	<stdin>
@u:	<stdin>
@unit:	<stdin>
@unit:	<stdin>
@unit:	<stdin>
@unused:	<stdin>
@urb:	<stdin>
@use_tidal	<stdin>
@use_tidal	<stdin>
@use_tidal:	<stdin>
@use_tidal:	<stdin>
@w:	<stdin>
@want:	<stdin>
@want:	<stdin>
@wka_port:	<stdin>
@wka_port:	<stdin>
@work:	<stdin>
@work:	<stdin>
@work:	<stdin>
@work:	<stdin>
@work:	<stdin>
@wwpn:	<stdin>
@wwpn:	<stdin>
@wwpn:	<stdin>
@xcRB:	<stdin>
@xcRB:	<stdin>
@xcRB:	<stdin>
@zdev:	<stdin>
@zdev:	<stdin>
@zdev:	<stdin>
@zdev:	<stdin>
@zdev:	<stdin>
@zdev:	<stdin>
@zdev:	<stdin>
@zdev:	<stdin>
@zdev:	<stdin>
@zdev:	<stdin>
@zdev:	<stdin>
@zdev:	<stdin>
@zdev:	<stdin>
@zdev:	<stdin>
@zdev:	<stdin>
@zdev:	<stdin>
@zdev:	<stdin>
@zdev:	<stdin>
@zdev:	<stdin>
@zdev:	<stdin>
@zdev:	<stdin>
@zdev:	<stdin>
@zdev:	<stdin>
@zdev:	<stdin>
@zdev:	<stdin>
@zdev:	<stdin>
@zdev:	<stdin>
@zdev:	<stdin>
@zreq:	<stdin>
@zreq:	<stdin>
@zreq:	<stdin>
@zreq:	<stdin>
@zreq:	<stdin>
@zreq:	<stdin>
buendgen@de.ibm.com	<stdin>
david575@rogers.com	<stdin>
david575@rogers.com	<stdin>
david575@rogers.com	<stdin>
david575@rogers.com	<stdin>
david575@rogers.com	<stdin>
david575@rogers.com	<stdin>
david575@rogers.com	<stdin>
david575@rogers.com	<stdin>
david575@rogers.com	<stdin>
david575@rogers.com	<stdin>
david575@rogers.com	<stdin>
david575@rogers.com	<stdin>
felfert@millenux.com)	<stdin>
info@linux-wlan.com	<stdin>
info@linux-wlan.com	<stdin>
info@linux-wlan.com	<stdin>
info@linux-wlan.com	<stdin>
info@linux-wlan.com	<stdin>
info@linux-wlan.com	<stdin>
info@linux-wlan.com	<stdin>
info@linux-wlan.com	<stdin>
info@linux-wlan.com	<stdin>
info@linux-wlan.com	<stdin>
info@linux-wlan.com	<stdin>
info@linux-wlan.com	<stdin>
info@linux-wlan.com	<stdin>
info@linux-wlan.com	<stdin>
info@linux-wlan.com	<stdin>
info@linux-wlan.com	<stdin>
info@linux-wlan.com	<stdin>
info@linux-wlan.com	<stdin>
info@linux-wlan.com	<stdin>
info@linux-wlan.com	<stdin>
info@linux-wlan.com	<stdin>
info@linux-wlan.com	<stdin>
lenb@kernel.org\n",	<stdin>
linux-pci@vger.kernel.org	<stdin>
linux390@de.ibm.com");	<stdin>
pugs@cisco.com	<stdin>
pugs@cisco.com	<stdin>
pugs@cisco.com	<stdin>
pugs@cisco.com	<stdin>
pugs@cisco.com	<stdin>
pugs@cisco.com	<stdin>
pugs@cisco.com	<stdin>
{"@A%x",	<stdin>
{"@F%x",	<stdin>
{"@V%d",	<stdin>
{"@W%d",	<stdin>
