(640x480@60Hz)	<stdin>
(SGowdy@lbl.gov)	<stdin>
(SGowdy@lbl.gov)	<stdin>
(Till@Harbaum.org)	<stdin>
(Till@Harbaum.org)	<stdin>
(adam@yggdrasil.com),	<stdin>
(aeb@cwi.nl)	<stdin>
(autophile@starband.net)	<stdin>
(autophile@starband.net)	<stdin>
(bhards@bigpond.net.au)	<stdin>
(bjorn@haxx.se)	<stdin>
(bjorn@haxx.se)	<stdin>
(bjorn@haxx.se)	<stdin>
(bock@tfh-berlin.de)	<stdin>
(bock@tfh-berlin.de)"	<stdin>
(brad@heeltoe.com)	<stdin>
(castet.matthieu@free.fr)	<stdin>
(david@csse.uwa.edu.au)	<stdin>
(david@csse.uwa.edu.au)	<stdin>
(david@csse.uwa.edu.au)	<stdin>
(david@csse.uwa.edu.au)	<stdin>
(dmalek@jlc.net).	<stdin>
(dnelson@jump.net)	<stdin>
(dwm@austin.ibm.com)	<stdin>
(felipe_alfaro@linuxmail.org)	<stdin>
(greg-usb@electricrain.com)	<stdin>
(greg-usb@electricrain.com)	<stdin>
(greg@kroah.com)	<stdin>
(greg@kroah.com)	<stdin>
(greg@kroah.com)	<stdin>
(greg@kroah.com)	<stdin>
(greg@kroah.com)	<stdin>
(greg@kroah.com)	<stdin>
(greg@kroah.com)	<stdin>
(greg@kroah.com)	<stdin>
(htoa@gmx.net)	<stdin>
(js@joergschneider.com)	<stdin>
(js@joergschneider.com)	<stdin>
(linux-kernel@hansmi.ch)	<stdin>
(mayfield+datafab@sackheads.org)	<stdin>
(mayfield+usb@sackheads.org)	<stdin>
(mdharm-usb@one-eyed-alien.net)	<stdin>
(mdharm-usb@one-eyed-alien.net)	<stdin>
(mdharm-usb@one-eyed-alien.net)	<stdin>
(mdharm-usb@one-eyed-alien.net)	<stdin>
(mdharm-usb@one-eyed-alien.net)	<stdin>
(mdharm-usb@one-eyed-alien.net)	<stdin>
(mdharm-usb@one-eyed-alien.net)	<stdin>
(mdharm-usb@one-eyed-alien.net)	<stdin>
(mdharm-usb@one-eyed-alien.net)	<stdin>
(michael@linuxspecific.com)	<stdin>
(michael@linuxspecific.com)	<stdin>
(michael@linuxspecific.com)	<stdin>
(miquel@df.uba.ar)	<stdin>
(miquel@df.uba.ar)	<stdin>
(oliver@neukum.org)	<stdin>
(sailer@ife.ee.ethz.ch)	<stdin>
(stern@rowland.harvard.edu)	<stdin>
(stern@rowland.org)	<stdin>
(support@in-system.com)	<stdin>
(t.sailer@alumni.ethz.ch)	<stdin>
(tapio.laxstrom@iptime.fi)	<stdin>
(tapio.laxstrom@iptime.fi)	<stdin>
(tmbinc@gmx.net),	<stdin>
(tomoki.sekiyama@gmail.com)	<stdin>
(usb-storage@davidb.org)	<stdin>
(usb-storage@davidb.org)	<stdin>
(usb-storage@davidb.org)	<stdin>
(wei_wang@realsil.com.cn)	<stdin>
(wei_wang@realsil.com.cn)	<stdin>
*(tony.olech@elandigitalsystems.com)	<stdin>
1152x864@60	<stdin>
1152x864@60	<stdin>
320x200@60	<stdin>
640x400@60	<stdin>
720/768x576@60	<stdin>
720x480@60	<stdin>
720x576@60	<stdin>
768@576@60	<stdin>
848x480@60	<stdin>
856x480@60	<stdin>
960x540@60	<stdin>
960x600@60	<stdin>
<Andries.Brouwer@cwi.nl>	<stdin>
<Chang-Ming.Huang@freescale.com>	<stdin>
<Hendryk.Pfeiffer@gmx.de>	<stdin>
<Hiroshi.DOYU@nokia.com>	<stdin>
<Hiroshi.DOYU@nokia.com>	<stdin>
<Hiroshi.DOYU@nokia.com>	<stdin>
<Hiroshi.DOYU@nokia.com>	<stdin>
<Hiroshi.DOYU@nokia.com>");	<stdin>
<Hiroshi.DOYU@nokia.com>");	<stdin>
<Hiroshi.DOYU@nokia.com>,	<stdin>
<Hiroshi.DOYU@nokia.com>,	<stdin>
<James@superbug.demon.co.uk>	<stdin>
<Jon.Hart@web.de>	<stdin>
<Martin.Reising@natural-computing.de>	<stdin>
<Rene@Castberg.org>	<stdin>
<Till@Harbaum.org>");	<stdin>
<Vivian.Bregier@imag.fr>	<stdin>
<Xiangzhen.Ye@csr.com>");	<stdin>
<Zhiwu.Song@csr.com>,	<stdin>
<a.penning@luon.net>	<stdin>
<a.r.welter@gmx.de>	<stdin>
<aaro.koskinen@iki.fi>");	<stdin>
<aderesch@fs.tum.de>	<stdin>
<adi1981@epf.pl>	<stdin>
<adminimus@gmail.com>	<stdin>
<adrian@humboldt.co.uk>");	<stdin>
<advidgsf@sourceforge.net>	<stdin>
<aeb@cwi.nl>,	<stdin>
<ajay.gupta@ti.com>");	<stdin>
<ajay.gupta@ti.com>");	<stdin>
<akuster@mvista.com>	<stdin>
<akuster@mvista.com>	<stdin>
<alex.butcher@assursys.co.uk>	<stdin>
<alex@corcoles.net>	<stdin>
<alexander@all-2.com>	<stdin>
<amalysh@web.de>	<stdin>
<amalysh@web.de>");	<stdin>
<amn3s1a@ono.com>	<stdin>
<andre@linux-ide.org>	<stdin>
<andre@linux-ide.org>	<stdin>
<andre@linux-ide.org>	<stdin>
<andre@linux-ide.org>	<stdin>
<andreas@gaisler.com>	<stdin>
<andrew.simmons@gmail.com>	<stdin>
<andrew@lunn.ch>	<stdin>
<andrew@sanpeople.com>	<stdin>
<anil.s.keshavamurthy@intel.com>	<stdin>
<anil.s.keshavamurthy@intel.com>	<stdin>
<anil.s.keshavamurthy@intel.com>	<stdin>
<antoine.mairesse@free.fr>	<stdin>
<aquynh@gmail.com>	<stdin>
<ashley@compsoc.man.ac.uk>	<stdin>
<ashok.raj@intel.com>	<stdin>
<ashok.raj@intel.com>	<stdin>
<atomenergie@t-online.de>	<stdin>
<autophile@starband.net>");	<stdin>
<autophile@starband.net>");	<stdin>
<av.tikhomirov@samsung.com>	<stdin>
<av.tikhomirov@samsung.com>");	<stdin>
<avi@argo.co.il>	<stdin>
<avorontsov@ru.mvista.com>	<stdin>
<avvisi@spalletti.it>	<stdin>
<balbi@ti.com>");	<stdin>
<balbi@ti.com>");	<stdin>
<balbi@ti.com>");	<stdin>
<balbi@ti.com>");	<stdin>
<balbi@ti.com>");	<stdin>
<balbi@ti.com>,	<stdin>
<balbi@ti.com>,	<stdin>
<balbi@ti.com>,	<stdin>
<balbi@ti.com>,	<stdin>
<balbi@ti.com>,	<stdin>
<balbi@ti.com>,	<stdin>
<balbi@ti.com>,	<stdin>
<balbi@ti.com>,	<stdin>
<bardur@scientician.net>	<stdin>
<baruch@tkos.co.il>");	<stdin>
<baruch@tkos.co.il>");	<stdin>
<ben-Y5A6D6n0/KfQXOPxS62xeg@public.gmane.org>.	<stdin>
<ben@pc-doctor.com>	<stdin>
<ben@pc-doctor.com>	<stdin>
<ben@pc-doctor.com>	<stdin>
<ben@simtec.co.uk>	<stdin>
<ben@simtec.co.uk>	<stdin>
<ben@simtec.co.uk>");	<stdin>
<ben@simtec.co.uk>");	<stdin>
<benh@kernel.crashing.org>	<stdin>
<benh@kernel.crashing.org>	<stdin>
<benh@kernel.crashing.org>");	<stdin>
<benny@hostmobility.com>	<stdin>
<bigeasy@linutronix.de>	<stdin>
<bigeasy@linutronix.de>	<stdin>
<bigeasy@linutronix.de>	<stdin>
<bigeasy@linutronix.de>	<stdin>
<bigeasy@linutronix.de>	<stdin>
<bigeasy@linutronix.de>	<stdin>
<bigeasy@linutronix.de>	<stdin>
<bigeasy@linutronix.de>	<stdin>
<bigeasy@linutronix.de>");	<stdin>
<binbinsh@gmail.com>	<stdin>
<bjorn@haxx.se>");	<stdin>
<bkuschak@yahoo.com>	<stdin>
<bkuschak@yahoo.com>	<stdin>
<bmatheny@purdue.edu>	<stdin>
<bohdan.linda@gmail.com>	<stdin>
<carlos@kenati.com>	<stdin>
<castet.matthieu@free.fr>");	<stdin>
<ccross@android.com>	<stdin>
<chb@muc.de>	<stdin>
<christian@leber.de>	<stdin>
<const@tltsu.ru>	<stdin>
<cooloney@kernel.org>");	<stdin>
<crane.cai@amd.com>	<stdin>
<crane.cai@amd.com>");	<stdin>
<d13f00l@gmail.com>	<stdin>
<dahinds@users.sourceforge.net>");	<stdin>
<dahinds@users.sourceforge.net>.	<stdin>
<dan.eaton@rocketlogix.com>	<stdin>
<dan.eaton@rocketlogix.com>");	<stdin>
<dan@embeddededge.com>	<stdin>
<daniel.kuku@gmail.com>	<stdin>
<darsen@micro.ee.nthu.edu.tw>	<stdin>
<dave@awk.cz>	<stdin>
<davem@redhat.com>	<stdin>
<david@2gen.com>	<stdin>
<davidgsf@sourceforge.net>	<stdin>
<davidgsf@sourceforge.net>	<stdin>
<dbaryshkov@gmail.com>	<stdin>
<dbrownell@users.sourceforge.net>	<stdin>
<dcbw@redhat.com>	<stdin>
<dcbw@redhat.com>	<stdin>
<dcbw@redhat.com>	<stdin>
<dchatenay@hotmail.com>	<stdin>
<dfo@antex.ru>	<stdin>
<dkovalev@ru.mvista.com>	<stdin>
<dlopo@chipidea.mips.com>");	<stdin>
<dlopo@chipidea.mips.com>");	<stdin>
<dlopo@chipidea.mips.com>");	<stdin>
<dpunktnpunkt@web.de>	<stdin>
<dsaxena@plexity.net>,	<stdin>
<dsd@gentoo.org>	<stdin>
<dsd@gentoo.org>	<stdin>
<dsd@gentoo.org>	<stdin>
<dsd@gentoo.org>	<stdin>
<dsd@gentoo.org>");	<stdin>
<dsd@gentoo.org>,	<stdin>
<dustbln@gmx.de>	<stdin>
<dvdkhlng@gmx.de>:	<stdin>
<dwmw2@infradead.org>	<stdin>
<ebiederm@xmission.com>	<stdin>
<ebs@ebshome.net>	<stdin>
<ebs@ebshome.net>	<stdin>
<ecd@skynet.be>	<stdin>
<echtler@fs.tum.de>	<stdin>
<echtler@fs.tum.de>"	<stdin>
<eero@ping-viini.org>	<stdin>
<einarthered@gmail.com>	<stdin>
<erik@rigtorp.com>	<stdin>
<erkki@linux.nu>	<stdin>
<ernisv@gmail.com>	<stdin>
<erth7411@student.uu.se>	<stdin>
<eugene.surovegin@zultys.com>	<stdin>
<eugene.surovegin@zultys.com>	<stdin>
<evas@forthnet.gr>	<stdin>
<f.aben@option.com>	<stdin>
<f.venturi@tdnet.it>	<stdin>
<fabien.cosse@wanadoo.fr>*/	<stdin>
<felipe.balbi@nokia.com>	<stdin>
<felix@derklecks.de>	<stdin>
<fello@libero.it>	<stdin>
<fenghua.yu@intel.com>	<stdin>
<filibard@libero.it>	<stdin>
<fjc@thingy.apana.org.au>	<stdin>
<frafore@tiscali.it>	<stdin>
<frankie@cse.unsw.edu.au>	<stdin>
<frederic.marchal@wowcompany.com>	<stdin>
<frodol@dds.nl>	<stdin>
<frodol@dds.nl>	<stdin>
<frodol@dds.nl>	<stdin>
<frodol@dds.nl>	<stdin>
<frodol@dds.nl>	<stdin>
<frodol@dds.nl>	<stdin>
<frodol@dds.nl>	<stdin>
<frodol@dds.nl>	<stdin>
<frodol@dds.nl>	<stdin>
<frodol@dds.nl>	<stdin>
<frodol@dds.nl>	<stdin>
<frodol@dds.nl>	<stdin>
<frodol@dds.nl>	<stdin>
<frodol@dds.nl>	<stdin>
<frodol@dds.nl>");	<stdin>
<frodol@dds.nl>,	<stdin>
<frodol@dds.nl>,	<stdin>
<frodol@dds.nl>,	<stdin>
<frodol@dds.nl>,	<stdin>
<frodol@dds.nl>,	<stdin>
<frodol@dds.nl>,	<stdin>
<frodol@dds.nl>,	<stdin>
<frodol@dds.nl>,	<stdin>
<fuerst@in.tum.de>	<stdin>
<g.toth@e-biz.lu>	<stdin>
<g.toth@e-biz.lu>");	<stdin>
<galak@kernel.crashing.org>	<stdin>
<galak@kernel.crashing.org>	<stdin>
<ganesanr@netlogicmicro.com>");	<stdin>
<garabik@kassiopeia.juls.savba.sk>	<stdin>
<geert@linux-m68k.org>	<stdin>
<geert@linux-m68k.org>");	<stdin>
<giometti@enneenne.com>	<stdin>
<giometti@linux.it>	<stdin>
<giometti@linux.it>	<stdin>
<giometti@linux.it>	<stdin>
<giometti@linux.it>");	<stdin>
<giometti@linux.it>");	<stdin>
<greg@kroah.com>	<stdin>
<greg@kroah.com>	<stdin>
<gregkh@suse.de>	<stdin>
<gregkh@suse.de>	<stdin>
<gregkh@suse.de>	<stdin>
<gregkh@suse.de>	<stdin>
<gregkh@suse.de>	<stdin>
<gridish@freescale.com>	<stdin>
<grundler@parisc-linux.org>	<stdin>
<guenter.roeck@ericsson.com>	<stdin>
<gxt@mprc.pku.edu.cn>	<stdin>
<hanno@gmx.de>	<stdin>
<harrisonmetz@gmail.com>	<stdin>
<harrisonmetz@gmail.com>"	<stdin>
<hb@spacetec.no>");	<stdin>
<hb@spacetec.no>");	<stdin>
<hdegoede@redhat.com>	<stdin>
<hdoyu@nvidia.com>");	<stdin>
<hdoyu@nvidia.com>");	<stdin>
<hfvogt@arcor.de>,	<stdin>
<hfvogt@gmx.net>");	<stdin>
<honkkis@gmail.com>	<stdin>
<huananhu@huawei.com>	<stdin>
<hwahl@hwahl.de>*/	<stdin>
<icampbell@arcom.com>");	<stdin>
<icampbell@arcom.com>,	<stdin>
<idasilva@mvista.com>	<stdin>
<idasilva@mvista.com>	<stdin>
<imre.deak@nokia.com>	<stdin>
<inaky.perez-gonzalez@intel.com>	<stdin>
<inaky.perez-gonzalez@intel.com>	<stdin>
<inaky.perez-gonzalez@intel.com>	<stdin>
<inaky.perez-gonzalez@intel.com>	<stdin>
<inaky.perez-gonzalez@intel.com>	<stdin>
<inaky.perez-gonzalez@intel.com>	<stdin>
<inaky.perez-gonzalez@intel.com>	<stdin>
<inaky.perez-gonzalez@intel.com>	<stdin>
<inaky.perez-gonzalez@intel.com>	<stdin>
<inaky.perez-gonzalez@intel.com>	<stdin>
<inaky.perez-gonzalez@intel.com>	<stdin>
<inaky.perez-gonzalez@intel.com>	<stdin>
<inaky.perez-gonzalez@intel.com>	<stdin>
<inaky.perez-gonzalez@intel.com>	<stdin>
<inaky.perez-gonzalez@intel.com>");	<stdin>
<inaky.perez-gonzalez@intel.com>");	<stdin>
<inaky.perez-gonzalez@intel.com>");	<stdin>
<info@emlix.com>	<stdin>
<info@eurotech.it>	<stdin>
<info@eurotech.it>	<stdin>
<info@eurotech.it>	<stdin>
<ink@jurassic.park.msu.ru>	<stdin>
<j.dumon@option.com>	<stdin>
<jacmet@sunsite.dk>	<stdin>
<jacmet@sunsite.dk>");	<stdin>
<jaco@kroon.co.za>	<stdin>
<jacob.jun.pan@intel.com>	<stdin>
<jacob.jun.pan@intel.com>");	<stdin>
<jacob.lars@googlemail.com>	<stdin>
<jason.wessel@windriver.com>	<stdin>
<jb@nanthrax.net>	<stdin>
<jdfeddema@gmail.com>	<stdin>
<jens.taprogge@taprogge.org>	<stdin>
<jhovold@gmail.com>	<stdin>
<jirislaby@gmail.com>	<stdin>
<jochen@scram.de>	<stdin>
<jochen@scram.de>");	<stdin>
<joerg.roedel@amd.com>	<stdin>
<joerg.roedel@amd.com>	<stdin>
<joerg.roedel@amd.com>	<stdin>
<joerg.roedel@amd.com>	<stdin>
<joerg.roedel@amd.com>	<stdin>
<joerg.roedel@amd.com>	<stdin>
<joerg.roedel@amd.com>	<stdin>
<joerg.roedel@amd.com>");	<stdin>
<joerg.roedel@amd.com>\n");	<stdin>
<johann.cardon@free.fr>	<stdin>
<johannes@erdfelt.com>	<stdin>
<johannes@sipsolutions.de>,	<stdin>
<jonas.aberg@stericsson.com>	<stdin>
<joris@struyve.be>	<stdin>
<josef.reisinger@netcologne.de>	<stdin>
<juha.yrjola@solidboot.com>	<stdin>
<jwoithe@just42.net>	<stdin>
<k.mueller@intershop.de>	<stdin>
<keith@mcs.st-and.ac.uk>	<stdin>
<keith@mcs.st-and.ac.uk>");	<stdin>
<kerecsen@bigfoot.com>	<stdin>
<kernel@nn7.de>	<stdin>
<kernel@zut.de>	<stdin>
<khali@linux-fr.org>	<stdin>
<khali@linux-fr.org>	<stdin>
<khali@linux-fr.org>	<stdin>
<khali@linux-fr.org>	<stdin>
<khali@linux-fr.org>	<stdin>
<khali@linux-fr.org>	<stdin>
<khali@linux-fr.org>	<stdin>
<khali@linux-fr.org>	<stdin>
<khali@linux-fr.org>	<stdin>
<khali@linux-fr.org>	<stdin>
<khali@linux-fr.org>	<stdin>
<khali@linux-fr.org>	<stdin>
<khali@linux-fr.org>");	<stdin>
<khali@linux-fr.org>");	<stdin>
<khali@linux-fr.org>");	<stdin>
<khali@linux-fr.org>");	<stdin>
<khali@linux-fr.org>");	<stdin>
<khali@linux-fr.org>");	<stdin>
<khali@linux-fr.org>");	<stdin>
<khali@linux-fr.org>");	<stdin>
<khali@linux-fr.org>.	<stdin>
<khalid@gonehiking.org>	<stdin>
<kilgota@auburn.edu>.	<stdin>
<kilgota@auburn.edu>.	<stdin>
<killean@shaw.ca>	<stdin>
<klloyd@sierrawireless.com>	<stdin>
<kmalkki@cc.hut.fi>	<stdin>
<kmalkki@cc.hut.fi>	<stdin>
<kmalkki@cc.hut.fi>	<stdin>
<kmalkki@cc.hut.fi>	<stdin>
<kmalkki@cc.hut.fi>	<stdin>
<kmalkki@cc.hut.fi>	<stdin>
<kmalkki@cc.hut.fi>	<stdin>
<kmalkki@cc.hut.fi>	<stdin>
<kmalkki@cc.hut.fi>");	<stdin>
<kmalkki@cc.hut.fi>,	<stdin>
<kmalkki@cc.hut.fi>,	<stdin>
<kmalkki@cc.hut.fi>,	<stdin>
<kmalkki@cc.hut.fi>.	<stdin>
<kolrabi@kolrabi.de>	<stdin>
<kotrla@ceb.cz>	<stdin>
<kpc-usbdev@gelato.uiuc.edu>	<stdin>
<kriston@airmail.net>	<stdin>
<kuninori.morimoto.gx@renesas.com>	<stdin>
<kuninori.morimoto.gx@renesas.com>	<stdin>
<kuninori.morimoto.gx@renesas.com>	<stdin>
<kuninori.morimoto.gx@renesas.com>	<stdin>
<kuninori.morimoto.gx@renesas.com>	<stdin>
<kuninori.morimoto.gx@renesas.com>	<stdin>
<kuninori.morimoto.gx@renesas.com>	<stdin>
<kuninori.morimoto.gx@renesas.com>	<stdin>
<kuninori.morimoto.gx@renesas.com>	<stdin>
<kuninori.morimoto.gx@renesas.com>	<stdin>
<kuninori.morimoto.gx@renesas.com>	<stdin>
<kuninori.morimoto.gx@renesas.com>");	<stdin>
<kuninori.morimoto.gx@renesas.com>");	<stdin>
<ledest@gmail.com>	<stdin>
<leo.duran@amd.com>	<stdin>
<leo.duran@amd.com>	<stdin>
<leo.duran@amd.com>	<stdin>
<linus.walleij@stericsson.com>	<stdin>
<linus.walleij@stericsson.com>");	<stdin>
<linux-usb@vger.kernel.org>	<stdin>
<linux@prisktech.co.nz>	<stdin>
<linux@rainbow-software.org>	<stdin>
<linux@roeck-us.net>");	<stdin>
<linux@roeck-us.net>");	<stdin>
<linux@sierrawireless.com>	<stdin>
<lkml@kcore.org>	<stdin>
<lornoss@gmail.com>	<stdin>
<luc@saillard.org>)	<stdin>
<lucht@codemercs.com>	<stdin>
<lucht@codemercs.com>"	<stdin>
<luciano@eurotux.com>	<stdin>
<mahadri-usb@drigon.com>	<stdin>
<malborn@deandra.homeip.net>	<stdin>
<mano@roarinelk.homelinux.net>");	<stdin>
<manuel.osdoba@tu-ilmenau.de>	<stdin>
<marekm@amelek.gda.pl>.	<stdin>
<marex@denx.de>	<stdin>
<marex@denx.de>");	<stdin>
<mariorettig@web.de>	<stdin>
<martijn.hijdra@gmail.com>	<stdin>
<massimiliano.ghilardi@gmail.com>	<stdin>
<mate@fiit.stuba.sk>	<stdin>
<matthew@bytemark.co.uk>	<stdin>
<mayfield+datafab@sackheads.org>");	<stdin>
<mayfield+usb@sackheads.org>");	<stdin>
<maz@wild-wind.fr.eu.org>	<stdin>
<maz@wild-wind.fr.eu.org>	<stdin>
<maz@wild-wind.fr.eu.org>	<stdin>
<mbailey@littlefeet-inc.com>	<stdin>
<mcclosk@ucsc.edu>	<stdin>
<mcuos.com-Re5JQEeQqe8AvxtiuMwx3w@public.gmane.org>	<stdin>
<mcuos.com-Re5JQEeQqe8AvxtiuMwx3w@public.gmane.org>");	<stdin>
<mdsxyz123@yahoo.com>	<stdin>
<mdsxyz123@yahoo.com>	<stdin>
<mdsxyz123@yahoo.com>	<stdin>
<mdsxyz123@yahoo.com>	<stdin>
<mdsxyz123@yahoo.com>	<stdin>
<mdsxyz123@yahoo.com>	<stdin>
<mdsxyz123@yahoo.com>");	<stdin>
<mdsxyz123@yahoo.com>,	<stdin>
<mdsxyz123@yahoo.com>,	<stdin>
<me@bobcopeland.com>	<stdin>
<me@bobcopeland.com>,	<stdin>
<merlin@merlin.org>	<stdin>
<merlin@merlin.org>");	<stdin>
<mfombuena@ya.com>	<stdin>
<mgreer@mvista.com>	<stdin>
<mgreer@mvista.com>");	<stdin>
<mhoffman@lightlink.com>	<stdin>
<mhoffman@lightlink.com>	<stdin>
<mhoffman@lightlink.com>");	<stdin>
<mhoffman@lightlink.com>");	<stdin>
<mhund@ld-didactic.de>	<stdin>
<mhund@ld-didactic.de>");	<stdin>
<mian.yousaf.kaukab@stericsson.com>	<stdin>
<mian.yousaf.kaukab@stericsson.com>	<stdin>
<mian.yousaf.kaukab@stericsson.com>");	<stdin>
<michael.lawnick.ext@nsn.com>	<stdin>
<michael.lawnick.ext@nsn.com>	<stdin>
<michael.lawnick.ext@nsn.com>");	<stdin>
<michael@linuxspecific.com>	<stdin>
<michael@stattmann.com>	<stdin>
<michele.alzetta@aliceposta.it>	<stdin>
<micro_flyer@hotmail.com>	<stdin>
<mihnea@zulu.ro>	<stdin>
<miquel@df.uba.ar>"	<stdin>
<mj@ucw.cz>,	<stdin>
<mjg@redhat.com>	<stdin>
<mjg@redhat.com>	<stdin>
<mjg@redhat.com>");	<stdin>
<mlau@msc-ge.com>	<stdin>
<mlau@msc-ge.com>	<stdin>
<mlord@pobox.com>	<stdin>
<mlotek@foobar.pl>	<stdin>
<mporter@kernel.crashing.org>	<stdin>
<mporter@kernel.crashing.org>	<stdin>
<mporter@mvista.com>	<stdin>
<mporter@mvista.com>	<stdin>
<msdemlei@cl.uni-heidelberg.de>	<stdin>
<n.sillik@temple.edu>	<stdin>
<n.sillik@temple.edu>	<stdin>
<n.sillik@temple.edu>");	<stdin>
<n.voss@weinmann.de>	<stdin>
<n.voss@weinmann.de>");	<stdin>
<namjae.jeon@samsung.com>	<stdin>
<namjae.jeon@samsung.com>	<stdin>
<nathan@lexi.com>	<stdin>
<nayak@obs-nice.fr>	<stdin>
<nbowler@elliptictech.com>	<stdin>
<niftimusmaximus@lycos.com>	<stdin>
<nm@ti.com>	<stdin>
<numlock@freesurf.ch>	<stdin>
<olh@suse.de>	<stdin>
<olh@suse.de>	<stdin>
<olh@suse.de>	<stdin>
<oliva@lsd.ic.unicamp.br>	<stdin>
<oliver@neukum.name>	<stdin>
<oliver@neukum.name>	<stdin>
<olof@lixom.net>");	<stdin>
<orgads@gmail.com>	<stdin>
<ortylp@3miasto.net>	<stdin>
<oskar@scara.com>	<stdin>
<oskar@scara.com>	<stdin>
<paschal@rcsis.com>	<stdin>
<patrick@dreker.de>,	<stdin>
<paul.hartman+linux@gmail.com>	<stdin>
<pavel@ucw.cz>	<stdin>
<pavel@ucw.cz>	<stdin>
<pavel@ucw.cz>	<stdin>
<perini.davide@dpsoftware.org>	<stdin>
<peter.korsgaard@barco.com>	<stdin>
<peter.korsgaard@barco.com>");	<stdin>
<peter.marks@turner.com>	<stdin>
<peterb@logicpd.com>	<stdin>
<phil@ipom.com>	<stdin>
<phil@ipom.com>	<stdin>
<phil@netroedge.com>	<stdin>
<phil@netroedge.com>	<stdin>
<phil@netroedge.com>	<stdin>
<phil@netroedge.com>	<stdin>
<phil@netroedge.com>	<stdin>
<phil@netroedge.com>");	<stdin>
<phil@netroedge.com>,	<stdin>
<phil@netroedge.com>,	<stdin>
<phil@netroedge.com>,	<stdin>
<phil@netroedge.com>,	<stdin>
<phil@netroedge.com>,	<stdin>
<phil@stimpy.netroedge.com>	<stdin>
<phil@stimpy.netroedge.com>	<stdin>
<philipp@void.at>	<stdin>
<philipp@void.at>	<stdin>
<phillipinda@hotmail.com>	<stdin>
<poeschel@lemonage.de>	<stdin>
<poeschel@lemonage.de>");	<stdin>
<poulot@chorus.fr>	<stdin>
<praveen.nadahally@stericsson.com>	<stdin>
<pterjan@mandriva.com>	<stdin>
<quadrispro@ubuntu.com>	<stdin>
<r.marek@assembler.cz>	<stdin>
<r.schedel@yahoo.de>	<stdin>
<r.schtz@t-online.de>	<stdin>
<ragupathy.rajaram@stericsson.com>	<stdin>
<raszilki@yandex.ru>	<stdin>
<rauchwolke@gmx.net>	<stdin>
<ravibabu@ti.com>");	<stdin>
<rbrito@ime.usp.br>	<stdin>
<rbultje@ronald.bitfreak.net>	<stdin>
<rdunlap@xenotime.net>	<stdin>
<reimer@doe.carleton.ca>	<stdin>
<relan@bk.ru>	<stdin>
<ricardo@dattatec.com>	<stdin>
<richard.zhao@freescale.com>");	<stdin>
<richard.zhao@freescale.com>");	<stdin>
<rls@vectordb.com>	<stdin>
<rob@mars.trion.com>	<stdin>
<robert@spitzenpfeil.org>	<stdin>
<roman@hodek.net>	<stdin>
<rperini@email.it>	<stdin>
<rquesada@roqz.net>	<stdin>
<rs_kernel@yahoo.com>	<stdin>
<s.doyon@videotron.ca>	<stdin>
<sachin.verma@st.com>	<stdin>
<sailer@ife.ee.ethz.ch>	<stdin>
<sailer@ife.ee.ethz.ch>	<stdin>
<sailer@ife.ee.ethz.ch>.	<stdin>
<sam@zoy.org>	<stdin>
<sbenni@gmx.de>	<stdin>
<scarletpimpernal@hotmail.com>	<stdin>
<sdalton@videotron.ca>	<stdin>
<sean@bruenor.org>	<stdin>
<sebastian_kapfer@gmx.net>	<stdin>
<shaohua.li@intel.com>	<stdin>
<shaohua.li@intel.com>	<stdin>
<simeonov_2000@yahoo.com>	<stdin>
<simon@tk.uni-linz.ac.at>");	<stdin>
<simon@tk.uni-linz.ac.at>");	<stdin>
<simon@tk.uni-linz.ac.at>");	<stdin>
<simon@whattf.com>	<stdin>
<sjhill@realitydiluted.com>");	<stdin>
<smaclennan@pikatech.com>	<stdin>
<sonic.zhang@analog.com>	<stdin>
<source@mvista.com>	<stdin>
<source@mvista.com>	<stdin>
<source@mvista.com>	<stdin>
<source@mvista.com>	<stdin>
<source@mvista.com>	<stdin>
<source@mvista.com>	<stdin>
<source@mvista.com>");	<stdin>
<srinidhi.kasagar@stericsson.com>	<stdin>
<sshtylyov@ru.mvista.com>");	<stdin>
<starblue@sourceforge.net>"	<stdin>
<starblue@users.sourceforge.net>	<stdin>
<starblue@users.sourceforge.net>	<stdin>
<starblue@users.sourceforge.net>	<stdin>
<starblue@users.sourceforge.net>	<stdin>
<starblue@users.sourceforge.net>	<stdin>
<starblue@users.sourceforge.net>	<stdin>
<starblue@users.sourceforge.net>	<stdin>
<starblue@users.sourceforge.net>	<stdin>
<starblue@users.sourceforge.net>	<stdin>
<starblue@users.sourceforge.net>	<stdin>
<starblue@users.sourceforge.net>	<stdin>
<starblue@users.sourceforge.net>	<stdin>
<stepanm@codeaurora.org>");	<stdin>
<stepanm@codeaurora.org>");	<stdin>
<stephan.walter@epfl.ch>	<stdin>
<stephane.galles@free.fr>	<stdin>
<stephen.rousset@rocketlogix.com>	<stdin>
<stern@rowland.harvard.edu>	<stdin>
<stern@rowland.harvard.edu>	<stdin>
<stern@rowland.harvard.edu>)	<stdin>
<stern@rowland.harvard.edu>,	<stdin>
<stern@rowland.org>	<stdin>
<stern@rowland.org>	<stdin>
<stern@rowland.org>	<stdin>
<stern@rowland.org>	<stdin>
<stern@rowland.org>	<stdin>
<stern@rowland.org>	<stdin>
<stewart@wetlogic.net>	<stdin>
<stuber@loria.fr>	<stdin>
<sumedhaswamy@gmail.com>	<stdin>
<sven-linux@anderson.de>	<stdin>
<sven-usbst@geggus.net>	<stdin>
<swarren@nvidia.com>");	<stdin>
<tbartdev@gmx-topmail.de>	<stdin>
<thesolutor@gmail.com>	<stdin>
<thomas@plx.com>,	<stdin>
<thomas@winischhofer.net>	<stdin>
<thomas@winischhofer.net>	<stdin>
<thomas@winischhofer.net>	<stdin>
<thomas@winischhofer.net>	<stdin>
<thomas@winischhofer.net>	<stdin>
<thomas@winischhofer.net>	<stdin>
<thomas@winischhofer.net>");	<stdin>
<tomoya.rohm@gmail.com>");	<stdin>
<tony@atomide.com>	<stdin>
<tony@atomide.com>	<stdin>
<tony@atomide.com>	<stdin>
<tony@atomide.com>	<stdin>
<tony@atomide.com>	<stdin>
<tritol@trilogic.cz>	<stdin>
<ttkspam@free.fr>	<stdin>
<usb-storage@davidb.org>	<stdin>
<usb-storage@davidb.org>");	<stdin>
<usb-storage@lists.one-eyed-alien.net>	<stdin>
<usbdev@sm04.de>	<stdin>
<vdovikin@jscc.ru>	<stdin>
<vitb@kernel.crashing.org>	<stdin>
<vitty@altlinux.ru>	<stdin>
<vojtech@suse.cz>	<stdin>
<vojtech@suse.cz>	<stdin>
<vojtech@suse.cz>");	<stdin>
<vwool@ru.mvista.com>	<stdin>
<w.sang@pengutronix.de>");	<stdin>
<w.sang@pengutronix.de>");	<stdin>
<w.sang@pengutronix.de>");	<stdin>
<waschk@telos.de>	<stdin>
<wei_wang@realsil.com.cn>");	<stdin>
<weissg@vienna.at>	<stdin>
<wingel@nano-system.com>	<stdin>
<wingel@nano-system.com>	<stdin>
<wingel@nano-system.com>");	<stdin>
<wingel@nano-system.com>");	<stdin>
<wrar@altlinux.org>	<stdin>
<x0khasim@ti.com>	<stdin>
<yestyle@gmail.com>	<stdin>
<yhlu.kernel@gmail.com>	<stdin>
<zaitcev@redhat.com>	<stdin>
<zaitcev@redhat.com>	<stdin>
<zaitcev@redhat.com>,	<stdin>
<zaitcev@yahoo.com>,	<stdin>
<zaitcev@yahoo.com>,	<stdin>
<zeitoun@gmail.com>	<stdin>
<zheng.ba@intel.com>");	<stdin>
@MSG_END_CONTINUE:	<stdin>
@MSG_END_REPEAT_START:	<stdin>
@MSG_END_STOP:	<stdin>
@__hcd:	<stdin>
@_nw:	<stdin>
@a	<stdin>
@a	<stdin>
@a:	<stdin>
@abort:	<stdin>
@abort_source:	<stdin>
@abs:	<stdin>
@actual_len:	<stdin>
@actual_length:	<stdin>
@actual_length:	<stdin>
@adap:	<stdin>
@adap:	<stdin>
@adap:	<stdin>
@adap:	<stdin>
@adap:	<stdin>
@adap:	<stdin>
@adap:	<stdin>
@adap:	<stdin>
@adap:	<stdin>
@adap:	<stdin>
@adap:	<stdin>
@adap:	<stdin>
@adap:	<stdin>
@adap:	<stdin>
@adap:	<stdin>
@adap:	<stdin>
@adap:	<stdin>
@adap:	<stdin>
@adap:	<stdin>
@adap:	<stdin>
@adap:	<stdin>
@adap:	<stdin>
@adap:	<stdin>
@adap:	<stdin>
@adap:	<stdin>
@adap:	<stdin>
@adap:	<stdin>
@adap:	<stdin>
@adap:	<stdin>
@adap:	<stdin>
@adap:	<stdin>
@adapter:	<stdin>
@adapter:	<stdin>
@adapter:	<stdin>
@adapter:	<stdin>
@adapter:	<stdin>
@adapter:	<stdin>
@adapter:	<stdin>
@adapter:	<stdin>
@adapter:	<stdin>
@adapter:	<stdin>
@adapter:	<stdin>
@adapter:	<stdin>
@addr:	<stdin>
@addr:	<stdin>
@addr:	<stdin>
@addr:	<stdin>
@addr:	<stdin>
@addr:	<stdin>
@addr:	<stdin>
@addr:	<stdin>
@addr:	<stdin>
@addr:	<stdin>
@addr:	<stdin>
@addr:	<stdin>
@addr:	<stdin>
@addr:	<stdin>
@addr:	<stdin>
@addr:	<stdin>
@addr:	<stdin>
@address:	<stdin>
@address:	<stdin>
@adev:	<stdin>
@adjust_channel_params:	<stdin>
@alt_num:	<stdin>
@alt_num:	<stdin>
@alternate:	<stdin>
@altnum:	<stdin>
@altnum:	<stdin>
@anchor:	<stdin>
@anchor:	<stdin>
@anchor:	<stdin>
@anchor:	<stdin>
@anchor:	<stdin>
@anchor:	<stdin>
@anchor:	<stdin>
@anchor:	<stdin>
@anchor:	<stdin>
@ara:	<stdin>
@arg:	<stdin>
@b:	<stdin>
@b:	<stdin>
@base	<stdin>
@base	<stdin>
@base:	<stdin>
@base:	<stdin>
@base:	<stdin>
@base:	<stdin>
@bit:	<stdin>
@blen:	<stdin>
@bos,	<stdin>
@bos:	<stdin>
@bph:	<stdin>
@bpl:	<stdin>
@buf:	<stdin>
@buf:	<stdin>
@buf:	<stdin>
@buf:	<stdin>
@buf:	<stdin>
@buf:	<stdin>
@buf:	<stdin>
@buf:	<stdin>
@buf:	<stdin>
@buf:	<stdin>
@buf:	<stdin>
@buf:	<stdin>
@buf:	<stdin>
@buf:	<stdin>
@buffer:	<stdin>
@bufsize:	<stdin>
@bus:	<stdin>
@bus:	<stdin>
@bus:	<stdin>
@bus:	<stdin>
@bus:	<stdin>
@bus:	<stdin>
@bus:	<stdin>
@bus:	<stdin>
@bus:	<stdin>
@bus_clk_rate:	<stdin>
@bus_name:	<stdin>
@bus_name:	<stdin>
@busno:	<stdin>
@busnum:	<stdin>
@busy:	<stdin>
@busy_slot:	<stdin>
@bytecount:	<stdin>
@bytes	<stdin>
@bytes:	<stdin>
@c:	<stdin>
@cap:	<stdin>
@cfg:	<stdin>
@ch:	<stdin>
@ch_num:	<stdin>
@change	<stdin>
@channel_abort:	<stdin>
@channel_alloc:	<stdin>
@channel_release:	<stdin>
@chid	<stdin>
@ci13xxx_ep:	<stdin>
@ci:	<stdin>
@ci:	<stdin>
@ci:	<stdin>
@ci:	<stdin>
@ci:	<stdin>
@ci:	<stdin>
@ci:	<stdin>
@ci:	<stdin>
@ci:	<stdin>
@ci:	<stdin>
@class_driver:	<stdin>
@class_driver:	<stdin>
@cli:	<stdin>
@client:	<stdin>
@client:	<stdin>
@client:	<stdin>
@client:	<stdin>
@client:	<stdin>
@client:	<stdin>
@client:	<stdin>
@client:	<stdin>
@client:	<stdin>
@client:	<stdin>
@client:	<stdin>
@client:	<stdin>
@client:	<stdin>
@client:	<stdin>
@clk:	<stdin>
@clk:	<stdin>
@clk:	<stdin>
@cmd:	<stdin>
@cmd:	<stdin>
@cmd:	<stdin>
@cmd_complete:	<stdin>
@cmd_complete:	<stdin>
@cmd_complete:	<stdin>
@cmd_err:	<stdin>
@cmd_err:	<stdin>
@cmd_err:	<stdin>
@cmd_event:	<stdin>
@cmd_issue_lock:	<stdin>
@command:	<stdin>
@command:	<stdin>
@command:	<stdin>
@command:	<stdin>
@command:	<stdin>
@command:	<stdin>
@command:	<stdin>
@command:	<stdin>
@complete:	<stdin>
@config:	<stdin>
@config:	<stdin>
@config:	<stdin>
@configuration	<stdin>
@configuration	<stdin>
@configuration:	<stdin>
@cont_id:	<stdin>
@count:	<stdin>
@count:	<stdin>
@count:	<stdin>
@count:	<stdin>
@cr:	<stdin>
@crs	<stdin>
@ctrl:	<stdin>
@ctrl_req:	<stdin>
@ctrl_req_addr:	<stdin>
@cur_alt:	<stdin>
@current_trb:	<stdin>
@current_uf:	<stdin>
@d:	<stdin>
@d:	<stdin>
@da	<stdin>
@da	<stdin>
@da	<stdin>
@da,	<stdin>
@da,	<stdin>
@da.	<stdin>
@da:	<stdin>
@da:	<stdin>
@da:	<stdin>
@da:	<stdin>
@da:	<stdin>
@da:	<stdin>
@da:	<stdin>
@da:	<stdin>
@data:	<stdin>
@data:	<stdin>
@data:	<stdin>
@data:	<stdin>
@data:	<stdin>
@data:	<stdin>
@data:	<stdin>
@data:	<stdin>
@data:	<stdin>
@data:	<stdin>
@data:	<stdin>
@data:	<stdin>
@data:	<stdin>
@data:	<stdin>
@data:	<stdin>
@data:	<stdin>
@data:	<stdin>
@dep:	<stdin>
@dep:	<stdin>
@dep:	<stdin>
@dep:	<stdin>
@depevt:	<stdin>
@desc:	<stdin>
@desc:	<stdin>
@descr's	<stdin>
@desired_mode:	<stdin>
@dev	<stdin>
@dev	<stdin>
@dev	<stdin>
@dev	<stdin>
@dev:	<stdin>
@dev:	<stdin>
@dev:	<stdin>
@dev:	<stdin>
@dev:	<stdin>
@dev:	<stdin>
@dev:	<stdin>
@dev:	<stdin>
@dev:	<stdin>
@dev:	<stdin>
@dev:	<stdin>
@dev:	<stdin>
@dev:	<stdin>
@dev:	<stdin>
@dev:	<stdin>
@dev:	<stdin>
@dev:	<stdin>
@dev:	<stdin>
@dev:	<stdin>
@dev:	<stdin>
@dev:	<stdin>
@dev:	<stdin>
@dev:	<stdin>
@dev:	<stdin>
@dev:	<stdin>
@dev:	<stdin>
@dev:	<stdin>
@dev:	<stdin>
@dev:	<stdin>
@dev:	<stdin>
@dev:	<stdin>
@dev:	<stdin>
@dev:	<stdin>
@dev:	<stdin>
@dev:	<stdin>
@dev:	<stdin>
@dev:	<stdin>
@dev:	<stdin>
@dev:	<stdin>
@dev:	<stdin>
@dev:	<stdin>
@dev:	<stdin>
@dev:	<stdin>
@dev:	<stdin>
@dev:	<stdin>
@dev:	<stdin>
@dev:	<stdin>
@dev:	<stdin>
@dev:	<stdin>
@dev:	<stdin>
@dev:	<stdin>
@dev:	<stdin>
@dev:	<stdin>
@dev:	<stdin>
@dev:	<stdin>
@dev:	<stdin>
@dev:	<stdin>
@dev:	<stdin>
@dev:	<stdin>
@dev:	<stdin>
@dev:	<stdin>
@dev:	<stdin>
@dev:	<stdin>
@dev:	<stdin>
@dev:	<stdin>
@dev:	<stdin>
@dev:	<stdin>
@dev:	<stdin>
@dev:	<stdin>
@dev:	<stdin>
@dev:	<stdin>
@dev:	<stdin>
@dev:	<stdin>
@dev:	<stdin>
@dev:	<stdin>
@dev:	<stdin>
@dev:	<stdin>
@dev:	<stdin>
@dev:	<stdin>
@dev:	<stdin>
@dev:	<stdin>
@dev:	<stdin>
@dev:	<stdin>
@dev:	<stdin>
@dev:	<stdin>
@dev:	<stdin>
@dev:	<stdin>
@dev:	<stdin>
@dev:	<stdin>
@dev:	<stdin>
@dev:	<stdin>
@dev:	<stdin>
@dev_addr:	<stdin>
@dev_id:	<stdin>
@dev_info	<stdin>
@device_event:	<stdin>
@device_event:	<stdin>
@device_for_each_child(),	<stdin>
@device_for_each_child(),	<stdin>
@devt:	<stdin>
@dir:	<stdin>
@dir:	<stdin>
@dir:	<stdin>
@dir:	<stdin>
@dir:	<stdin>
@dir:	<stdin>
@dir:	<stdin>
@dir:	<stdin>
@direction:	<stdin>
@div_clk:	<stdin>
@dma:	<stdin>
@dma:	<stdin>
@dma:	<stdin>
@dma:	<stdin>
@dma:	<stdin>
@dma:	<stdin>
@dma:	<stdin>
@dma_addr:	<stdin>
@dn:	<stdin>
@dn:	<stdin>
@dnc->cdid	<stdin>
@domain:	<stdin>
@domain:	<stdin>
@domain:	<stdin>
@done:	<stdin>
@drive:	<stdin>
@drive:	<stdin>
@drive:	<stdin>
@drive:	<stdin>
@drive:	<stdin>
@drive:	<stdin>
@drive:	<stdin>
@drive:	<stdin>
@drive:	<stdin>
@drive:	<stdin>
@drive:	<stdin>
@drive:	<stdin>
@drive:	<stdin>
@drive:	<stdin>
@drive:	<stdin>
@drive:	<stdin>
@drive:	<stdin>
@drive:	<stdin>
@drive:	<stdin>
@drive:	<stdin>
@drive:	<stdin>
@drive:	<stdin>
@drive:	<stdin>
@drive:	<stdin>
@drive:	<stdin>
@drive:	<stdin>
@drive:	<stdin>
@drive:	<stdin>
@drive:	<stdin>
@drive:	<stdin>
@driver:	<stdin>
@driver:	<stdin>
@driver:	<stdin>
@driver:	<stdin>
@driver:	<stdin>
@driver:	<stdin>
@driver:	<stdin>
@driver:	<stdin>
@driver:	<stdin>
@drv:	<stdin>
@drv:	<stdin>
@dwc:	<stdin>
@dwc:	<stdin>
@dwc:	<stdin>
@dwc:	<stdin>
@dwc:	<stdin>
@dwc:	<stdin>
@dwc:	<stdin>
@e:	<stdin>
@e:	<stdin>
@enable:	<stdin>
@endpoint:	<stdin>
@endpoint_event:	<stdin>
@endpoint_number:	<stdin>
@eop_reg:	<stdin>
@eop_reg:	<stdin>
@ep0_bounce:	<stdin>
@ep0_bounce_addr:	<stdin>
@ep0_bounced:	<stdin>
@ep0_dir:	<stdin>
@ep0_expect_in:	<stdin>
@ep0_next_event:	<stdin>
@ep0_trb:	<stdin>
@ep0_trb:	<stdin>
@ep0_usb_req:	<stdin>
@ep0in:	<stdin>
@ep0out:	<stdin>
@ep0state:	<stdin>
@ep:	<stdin>
@ep:	<stdin>
@ep:	<stdin>
@ep:	<stdin>
@ep:	<stdin>
@ep:	<stdin>
@ep:	<stdin>
@epaddr:	<stdin>
@epaddr:	<stdin>
@eps:	<stdin>
@eps:	<stdin>
@event:	<stdin>
@event:	<stdin>
@event_buffer_list:	<stdin>
@event_info:	<stdin>
@exit:	<stdin>
@ext_offset	<stdin>
@ext_offset	<stdin>
@extra:	<stdin>
@extra:	<stdin>
@fast_clk:	<stdin>
@fault_addr:	<stdin>
@first:	<stdin>
@first:	<stdin>
@flags:	<stdin>
@flags:	<stdin>
@flags:	<stdin>
@flags:	<stdin>
@flags:	<stdin>
@flags:	<stdin>
@flags:	<stdin>
@flags:	<stdin>
@fn:	<stdin>
@free_slot:	<stdin>
@from:	<stdin>
@gadget:	<stdin>
@gadget:	<stdin>
@gadget:	<stdin>
@gadget:	<stdin>
@gadget:	<stdin>
@gadget:	<stdin>
@gadget_driver:	<stdin>
@gevt:	<stdin>
@glue:	<stdin>
@glue:	<stdin>
@group:	<stdin>
@group:	<stdin>
@group:	<stdin>
@group:	<stdin>
@group:	<stdin>
@group:	<stdin>
@group:	<stdin>
@group:	<stdin>
@group:	<stdin>
@gtf_address	<stdin>
@gtf_address	<stdin>
@gtf_address:	<stdin>
@gtf_address:	<stdin>
@gtf_length	<stdin>
@gtf_length:	<stdin>
@gtf_length:	<stdin>
@handle:	<stdin>
@handle:	<stdin>
@handler:	<stdin>
@has_continue_xfer_support:	<stdin>
@hcd:	<stdin>
@hcd:	<stdin>
@hcd:	<stdin>
@hcd:	<stdin>
@hcd:	<stdin>
@hcd:	<stdin>
@hcd:	<stdin>
@hcd:	<stdin>
@hcd:	<stdin>
@hcd:	<stdin>
@hcd:	<stdin>
@hcd:	<stdin>
@hcd:	<stdin>
@hdev:	<stdin>
@hdev:	<stdin>
@hdev:	<stdin>
@hdev:	<stdin>
@hdev:	<stdin>
@hdev:	<stdin>
@host:	<stdin>
@host:	<stdin>
@host:	<stdin>
@host:	<stdin>
@host:	<stdin>
@hpi:	<stdin>
@hub	<stdin>
@hw:	<stdin>
@hw_bank:	<stdin>
@hw_ep_max:	<stdin>
@hwahc	<stdin>
@hwahc	<stdin>
@hwif:	<stdin>
@hwif:	<stdin>
@hwif:	<stdin>
@hwif:	<stdin>
@hwif:	<stdin>
@hwif:	<stdin>
@hwif:	<stdin>
@hwif:	<stdin>
@hwif:	<stdin>
@hwif:	<stdin>
@hwif:	<stdin>
@hwif:	<stdin>
@hwif:	<stdin>
@hwif:	<stdin>
@hwif:	<stdin>
@hwif:	<stdin>
@hwparams0	<stdin>
@hwparams1	<stdin>
@hwparams2	<stdin>
@hwparams3	<stdin>
@hwparams4	<stdin>
@hwparams5	<stdin>
@hwparams6	<stdin>
@hwparams7	<stdin>
@hwparams8	<stdin>
@hwparams:	<stdin>
@i2c:	<stdin>
@i2c:	<stdin>
@i2c:	<stdin>
@i2c:	<stdin>
@i2c:	<stdin>
@i2c:	<stdin>
@i2c:	<stdin>
@i2c:	<stdin>
@i2c:	<stdin>
@i2c:	<stdin>
@i2c:	<stdin>
@i2c_adap:	<stdin>
@i2c_adap:	<stdin>
@i2c_adap:	<stdin>
@i2c_adap:	<stdin>
@i2c_add_adapter	<stdin>
@i2c_add_numbered_adapter.	<stdin>
@id	<stdin>
@id:	<stdin>
@id:	<stdin>
@id:	<stdin>
@id:	<stdin>
@id:	<stdin>
@id:	<stdin>
@id:	<stdin>
@id:	<stdin>
@idx:	<stdin>
@idx:	<stdin>
@idx:	<stdin>
@idx:	<stdin>
@iface	<stdin>
@iface	<stdin>
@iface:	<stdin>
@iface:	<stdin>
@iface:	<stdin>
@iface:	<stdin>
@iface:	<stdin>
@iface_num:	<stdin>
@iface_num:	<stdin>
@ifnum:	<stdin>
@ifnum:	<stdin>
@index:	<stdin>
@index:	<stdin>
@index:	<stdin>
@index:	<stdin>
@index:	<stdin>
@index:	<stdin>
@index:	<stdin>
@index:	<stdin>
@info:	<stdin>
@info:	<stdin>
@init	<stdin>
@init:	<stdin>
@int:	<stdin>
@interface:	<stdin>
@interface:	<stdin>
@interface:	<stdin>
@interface:	<stdin>
@interval:	<stdin>
@interval:	<stdin>
@intf	<stdin>
@intf	<stdin>
@intf	<stdin>
@intf	<stdin>
@intf's	<stdin>
@intf's	<stdin>
@intf's	<stdin>
@intf's	<stdin>
@intf's	<stdin>
@intf's	<stdin>
@intf's	<stdin>
@intf's	<stdin>
@intf's	<stdin>
@intf->dev.sem.	<stdin>
@intf->dev.sem.	<stdin>
@intf:	<stdin>
@intf:	<stdin>
@intf:	<stdin>
@intf:	<stdin>
@intf:	<stdin>
@intf:	<stdin>
@intf:	<stdin>
@intf:	<stdin>
@intf:	<stdin>
@intf:	<stdin>
@intf:	<stdin>
@intf:	<stdin>
@intf:	<stdin>
@intf:	<stdin>
@intf:	<stdin>
@intf:	<stdin>
@intf:	<stdin>
@io:	<stdin>
@io:	<stdin>
@io:	<stdin>
@iommu:	<stdin>
@iommu_data:	<stdin>
@iommu_dev:	<stdin>
@iopgd:	<stdin>
@iova:	<stdin>
@iovad:	<stdin>
@iovad:	<stdin>
@iovad:	<stdin>
@iovad:	<stdin>
@iovad:	<stdin>
@iovad:	<stdin>
@irq:	<stdin>
@irq:	<stdin>
@irq:	<stdin>
@irq:	<stdin>
@irq:	<stdin>
@irq:	<stdin>
@irq:	<stdin>
@irq:	<stdin>
@irq:	<stdin>
@irq:	<stdin>
@irq:	<stdin>
@irqflags:	<stdin>
@irqnum:	<stdin>
@is_ctrl:	<stdin>
@is_dvc:	<stdin>
@is_in:	<stdin>
@is_in:	<stdin>
@is_in:	<stdin>
@is_in:	<stdin>
@is_in:	<stdin>
@is_in:	<stdin>
@is_input:	<stdin>
@is_otg:	<stdin>
@is_selfpowered:	<stdin>
@is_suspended:	<stdin>
@iso_packets:	<stdin>
@isoc:	<stdin>
@isoch_delay:	<stdin>
@itype	<stdin>
@itype	<stdin>
@itype:	<stdin>
@key.	<stdin>
@key:	<stdin>
@langid:	<stdin>
@last:	<stdin>
@last:	<stdin>
@len	<stdin>
@len:	<stdin>
@len:	<stdin>
@len:	<stdin>
@len:	<stdin>
@len:	<stdin>
@len:	<stdin>
@len:	<stdin>
@length:	<stdin>
@length:	<stdin>
@length:	<stdin>
@length:	<stdin>
@length:	<stdin>
@length:	<stdin>
@length:	<stdin>
@limit_pfn:	<stdin>
@link_state:	<stdin>
@list:	<stdin>
@lock:	<stdin>
@lock:	<stdin>
@lock:	<stdin>
@lock:	<stdin>
@lock:	<stdin>
@lock:	<stdin>
@lock:	<stdin>
@lock:	<stdin>
@lpm:	<stdin>
@mEp:	<stdin>
@mEp:	<stdin>
@mEp:	<stdin>
@mEp:	<stdin>
@mask/@value	<stdin>
@mask:	<stdin>
@mask:	<stdin>
@mask:	<stdin>
@mask:	<stdin>
@mask:	<stdin>
@mask:	<stdin>
@max_len:	<stdin>
@maximum_speed:	<stdin>
@maxpacket:	<stdin>
@mem:	<stdin>
@mem_flags:	<stdin>
@mem_flags:	<stdin>
@mem_flags:	<stdin>
@mem_flags:	<stdin>
@mem_flags:	<stdin>
@mem_flags:	<stdin>
@mem_flags:	<stdin>
@mic:	<stdin>
@minor:	<stdin>
@minor:	<stdin>
@mmcie_add	<stdin>
@mmcie_rm	<stdin>
@mmcies_max	<stdin>
@mod_name:	<stdin>
@mode:	<stdin>
@mode:	<stdin>
@mode:	<stdin>
@mode:	<stdin>
@mode:	<stdin>
@mode:	<stdin>
@mode_wanted:	<stdin>
@mode_wanted:	<stdin>
@msg:	<stdin>
@msg:	<stdin>
@msg:	<stdin>
@msg_buf:	<stdin>
@msg_buf_remaining:	<stdin>
@msg_complete:	<stdin>
@msg_err:	<stdin>
@msg_err:	<stdin>
@msg_index:	<stdin>
@msg_len:	<stdin>
@msg_read:	<stdin>
@msg_read_idx:	<stdin>
@msg_write_idx:	<stdin>
@msgs:	<stdin>
@msgs:	<stdin>
@msgs:	<stdin>
@msgs:	<stdin>
@msgs:	<stdin>
@msgs:	<stdin>
@msgs:	<stdin>
@msgs:	<stdin>
@msgs_num:	<stdin>
@musb:	<stdin>
@mutex	<stdin>
@mutex.	<stdin>
@n:	<stdin>
@n:	<stdin>
@n:	<stdin>
@n:	<stdin>
@n:	<stdin>
@n:	<stdin>
@n:	<stdin>
@nIrq:	<stdin>
@n_hw_ents:	<stdin>
@n_hw_ents:	<stdin>
@n_hw_ents:	<stdin>
@n_hw_ents:	<stdin>
@name:	<stdin>
@name:	<stdin>
@name:	<stdin>
@name:	<stdin>
@name:	<stdin>
@name:	<stdin>
@name:	<stdin>
@name:	<stdin>
@name:	<stdin>
@name:	<stdin>
@nb:	<stdin>
@nb:	<stdin>
@nb:	<stdin>
@nb:	<stdin>
@needs_fifo_resize:	<stdin>
@nents:	<stdin>
@nents:	<stdin>
@nents:	<stdin>
@nep_*	<stdin>
@new_alt:	<stdin>
@new_config:	<stdin>
@new_driver:	<stdin>
@new_state:	<stdin>
@new_udriver:	<stdin>
@nmsgs:	<stdin>
@num:	<stdin>
@num:	<stdin>
@num:	<stdin>
@num:	<stdin>
@num:	<stdin>
@num:	<stdin>
@num:	<stdin>
@num:	<stdin>
@num:	<stdin>
@num:	<stdin>
@num:	<stdin>
@num:	<stdin>
@num:	<stdin>
@num:	<stdin>
@num_eps:	<stdin>
@num_eps:	<stdin>
@num_event_buffers:	<stdin>
@num_msgs:	<stdin>
@num_streams:	<stdin>
@number:	<stdin>
@number:	<stdin>
@obj:	<stdin>
@obj:	<stdin>
@obj:	<stdin>
@obj:	<stdin>
@obj:	<stdin>
@obj:	<stdin>
@obj:	<stdin>
@obj:	<stdin>
@obj:	<stdin>
@on:	<stdin>
@on:	<stdin>
@one_bit:	<stdin>
@one_bit:	<stdin>
@one_bit:	<stdin>
@onepacket:	<stdin>
@op:	<stdin>
@operation:	<stdin>
@ops:	<stdin>
@ops:	<stdin>
@ops:	<stdin>
@owner:	<stdin>
@owner:	<stdin>
@p1:	<stdin>
@p2:	<stdin>
@pData:	<stdin>
@p_adapter_info:	<stdin>
@param	<stdin>
@param	<stdin>
@param	<stdin>
@param	<stdin>
@param	<stdin>
@param	<stdin>
@param	<stdin>
@param	<stdin>
@param	<stdin>
@parameters:	<stdin>
@parent:	<stdin>
@parent:	<stdin>
@pch_adapter:	<stdin>
@pch_base_address:	<stdin>
@pch_buff_mode_en:	<stdin>
@pch_data:	<stdin>
@pch_event_flag:	<stdin>
@pch_i2c_suspended:	<stdin>
@pch_i2c_xfer_in_progress:	<stdin>
@pcidevfn:	<stdin>
@pdata:	<stdin>
@pdev:	<stdin>
@pdev:	<stdin>
@pdev:	<stdin>
@pdev:	<stdin>
@pdev:	<stdin>
@period:	<stdin>
@pfn:	<stdin>
@pfn:	<stdin>
@pfn_hi:-	<stdin>
@pfn_lo:	<stdin>
@pgtable:	<stdin>
@pgtable_base:	<stdin>
@phy_port_number:	<stdin>
@phys:	<stdin>
@phys_addr:	<stdin>
@pipe:	<stdin>
@pipe:	<stdin>
@pipe:	<stdin>
@pipe:	<stdin>
@pipe:	<stdin>
@pkt_hdr	<stdin>
@platdata:	<stdin>
@platform:	<stdin>
@pmsg:	<stdin>
@port	<stdin>
@port	<stdin>
@port1.	<stdin>
@port1:	<stdin>
@port1:	<stdin>
@port1:	<stdin>
@port1:	<stdin>
@port1:	<stdin>
@port1:	<stdin>
@port_idx	<stdin>
@port_index:	<stdin>
@port_num:	<stdin>
@portnum:	<stdin>
@portnum:	<stdin>
@ports_max	<stdin>
@ppgd:	<stdin>
@ppte:	<stdin>
@pr_cdid:	<stdin>
@prefix:	<stdin>
@primary_hcd:	<stdin>
@priv:	<stdin>
@private_data:	<stdin>
@private_data:	<stdin>
@protocol:	<stdin>
@ptr:	<stdin>
@ptr:	<stdin>
@qh:	<stdin>
@qh_pool:	<stdin>
@queue:	<stdin>
@raw:	<stdin>
@read_write:	<stdin>
@reg:	<stdin>
@reg:	<stdin>
@reg:	<stdin>
@reg:	<stdin>
@reg:	<stdin>
@regmap:	<stdin>
@regs:	<stdin>
@regs:	<stdin>
@regs_size:	<stdin>
@release:	<stdin>
@remote_wakeup:	<stdin>
@repeat_cnt:	<stdin>
@req:	<stdin>
@req:	<stdin>
@req:	<stdin>
@req:	<stdin>
@req:	<stdin>
@req:	<stdin>
@req:	<stdin>
@req:	<stdin>
@req_mode:	<stdin>
@req_queued:	<stdin>
@request:	<stdin>
@request_list:	<stdin>
@requesttype:	<stdin>
@reserved11_10:	<stdin>
@reserved15_12:	<stdin>
@reserved31_12:	<stdin>
@reserved31_24:	<stdin>
@reset_ep:	<stdin>
@reset_eps:	<stdin>
@reset_hardware	<stdin>
@reset_hardware:	<stdin>
@reset_hardware:	<stdin>
@reset_ws	<stdin>
@resize_fifos:	<stdin>
@resource_index:	<stdin>
@result:	<stdin>
@ret	<stdin>
@return	<stdin>
@return	<stdin>
@returns	<stdin>
@returns	<stdin>
@returns	<stdin>
@returns	<stdin>
@returns	<stdin>
@returns	<stdin>
@returns	<stdin>
@returns	<stdin>
@returns:	<stdin>
@returns:	<stdin>
@revision:	<stdin>
@rhdev	<stdin>
@rhdev:	<stdin>
@role:	<stdin>
@roles:	<stdin>
@root:	<stdin>
@rsv:	<stdin>
@rw	<stdin>
@rw:	<stdin>
@rx:	<stdin>
@rx_buf:	<stdin>
@rx_buf:	<stdin>
@rx_buf_len:	<stdin>
@rx_buf_len:	<stdin>
@rx_fifo_depth:	<stdin>
@rx_msg:	<stdin>
@rx_pos:	<stdin>
@s:	<stdin>
@segs_available	<stdin>
@set_gtk:	<stdin>
@set_mode:	<stdin>
@set_ptk:	<stdin>
@set_vbus:	<stdin>
@setaddr:	<stdin>
@setup:	<stdin>
@setup:	<stdin>
@setup_buf:	<stdin>
@setup_packet_pending:	<stdin>
@sg:	<stdin>
@sg:	<stdin>
@sg:	<stdin>
@sg:	<stdin>
@sg:	<stdin>
@sg:	<stdin>
@sg:	<stdin>
@sgt	<stdin>
@sgt	<stdin>
@sgt:	<stdin>
@sie:	<stdin>
@sie_num:	<stdin>
@size	<stdin>
@size:	<stdin>
@size:	<stdin>
@size:	<stdin>
@size:	<stdin>
@size:	<stdin>
@size:	<stdin>
@size:	<stdin>
@size:	<stdin>
@size:	<stdin>
@size:	<stdin>
@size:	<stdin>
@size:	<stdin>
@size:	<stdin>
@size:	<stdin>
@size:	<stdin>
@size:	<stdin>
@size:	<stdin>
@size_aligned:	<stdin>
@skip_ep0:	<stdin>
@slave_addr:	<stdin>
@slave_adr:	<stdin>
@speed:	<stdin>
@speed:	<stdin>
@speed:	<stdin>
@speed:	<stdin>
@start	<stdin>
@start:	<stdin>
@start_config_issued:	<stdin>
@starting:	<stdin>
@state:	<stdin>
@state:	<stdin>
@status	<stdin>
@status	<stdin>
@status:	<stdin>
@status:	<stdin>
@status:	<stdin>
@status:	<stdin>
@status:	<stdin>
@status:	<stdin>
@status:	<stdin>
@status:	<stdin>
@status:	<stdin>
@status:	<stdin>
@status:	<stdin>
@status:	<stdin>
@status:	<stdin>
@status:	<stdin>
@status:	<stdin>
@status:	<stdin>
@status:	<stdin>
@stop	<stdin>
@stop:	<stdin>
@stop:	<stdin>
@stream_capable:	<stdin>
@suspended:	<stdin>
@target:	<stdin>
@target:	<stdin>
@target:	<stdin>
@td:	<stdin>
@td:	<stdin>
@td_pool:	<stdin>
@td_pool:	<stdin>
@test_mode:	<stdin>
@tfm_aes:	<stdin>
@tfm_cbc:	<stdin>
@three_stage_setup:	<stdin>
@timeout:	<stdin>
@timeout:	<stdin>
@timeout:	<stdin>
@timeout:	<stdin>
@timeout:	<stdin>
@timing:	<stdin>
@timing:	<stdin>
@timing:	<stdin>
@to:	<stdin>
@token:	<stdin>
@transceiver:	<stdin>
@trb_pool	<stdin>
@trb_pool:	<stdin>
@trb_pool_dma:	<stdin>
@trl:	<stdin>
@trust_timeout	<stdin>
@try_ilde:	<stdin>
@tx_buf:	<stdin>
@tx_buf_len:	<stdin>
@tx_fifo_depth:	<stdin>
@tx_msg:	<stdin>
@tx_pos:	<stdin>
@type:	<stdin>
@type:	<stdin>
@type:	<stdin>
@type:	<stdin>
@type:	<stdin>
@type:	<stdin>
@type:	<stdin>
@type:	<stdin>
@u1pel:	<stdin>
@u1sel:	<stdin>
@u1u2:	<stdin>
@u2pel:	<stdin>
@u2sel:	<stdin>
@udev	<stdin>
@udev	<stdin>
@udev	<stdin>
@udev	<stdin>
@udev	<stdin>
@udev	<stdin>
@udev	<stdin>
@udev	<stdin>
@udev	<stdin>
@udev	<stdin>
@udev's	<stdin>
@udev's	<stdin>
@udev's	<stdin>
@udev's	<stdin>
@udev's	<stdin>
@udev's	<stdin>
@udev's	<stdin>
@udev's	<stdin>
@udev's	<stdin>
@udev's	<stdin>
@udev's	<stdin>
@udev's	<stdin>
@udev's	<stdin>
@udev's	<stdin>
@udev's	<stdin>
@udev->reset_resume	<stdin>
@udev->reset_resume	<stdin>
@udev.	<stdin>
@udev.	<stdin>
@udev.	<stdin>
@udev:	<stdin>
@udev:	<stdin>
@udev:	<stdin>
@udev:	<stdin>
@udev:	<stdin>
@udev:	<stdin>
@udev:	<stdin>
@udev:	<stdin>
@udev:	<stdin>
@udev:	<stdin>
@udev:	<stdin>
@udev:	<stdin>
@udev:	<stdin>
@udev:	<stdin>
@udev:	<stdin>
@udev:	<stdin>
@udev:	<stdin>
@udev:	<stdin>
@udev:	<stdin>
@udev:	<stdin>
@udev:	<stdin>
@udev:	<stdin>
@udriver:	<stdin>
@urb	<stdin>
@urb	<stdin>
@urb	<stdin>
@urb	<stdin>
@urb	<stdin>
@urb	<stdin>
@urb	<stdin>
@urb	<stdin>
@urb	<stdin>
@urb->status	<stdin>
@urb->unlinked.	<stdin>
@urb:	<stdin>
@urb:	<stdin>
@urb:	<stdin>
@urb:	<stdin>
@urb:	<stdin>
@urb:	<stdin>
@urb:	<stdin>
@urb:	<stdin>
@urb:	<stdin>
@urb:	<stdin>
@urb:	<stdin>
@urb:	<stdin>
@urb:	<stdin>
@urb:	<stdin>
@urb:	<stdin>
@urb:	<stdin>
@urb:	<stdin>
@urb:	<stdin>
@urb:	<stdin>
@urb:	<stdin>
@urb:	<stdin>
@urb:	<stdin>
@urb:	<stdin>
@usb2_phy:	<stdin>
@usb3_phy:	<stdin>
@usb_bus	<stdin>
@usb_bus	<stdin>
@usb_dev	<stdin>
@usb_dev	<stdin>
@usb_dev	<stdin>
@usb_dev	<stdin>
@usb_dev	<stdin>
@usb_dev	<stdin>
@usb_dev	<stdin>
@usb_dev	<stdin>
@usb_dev's	<stdin>
@usb_dev->bus	<stdin>
@usb_dev:	<stdin>
@usb_dev:	<stdin>
@usb_dev:	<stdin>
@usb_dev:	<stdin>
@usb_dev:	<stdin>
@usb_dev:	<stdin>
@usb_dev:	<stdin>
@usb_dev;	<stdin>
@usb_hcd	<stdin>
@usb_hcd	<stdin>
@usb_hcd	<stdin>
@usec:	<stdin>
@va:	<stdin>
@va:	<stdin>
@val:	<stdin>
@value:	<stdin>
@value:	<stdin>
@value:	<stdin>
@value:	<stdin>
@value:	<stdin>
@value:	<stdin>
@value:	<stdin>
@values:	<stdin>
@values:	<stdin>
@vbus_active:	<stdin>
@vbus_status:	<stdin>
@virtbase:	<stdin>
@wa	<stdin>
@wa	<stdin>
@wa	<stdin>
@wa	<stdin>
@wa	<stdin>
@wa's	<stdin>
@wa,	<stdin>
@wa->nep_buffer,	<stdin>
@wa->nep_buffer_size).	<stdin>
@wa:	<stdin>
@wa:	<stdin>
@wa:	<stdin>
@wa:	<stdin>
@wa_descr	<stdin>
@wait:	<stdin>
@wedge:	<stdin>
@work:	<stdin>
@work:	<stdin>
@work:	<stdin>
@wq:	<stdin>
@wuie	<stdin>
@wuie	<stdin>
@wuie:	<stdin>
@wusb_cap_descr:	<stdin>
@wusb_dev:	<stdin>
@wusb_dev:	<stdin>
@wusb_dev:	<stdin>
@wusb_dev:	<stdin>
@wusbhc	<stdin>
@wusbhc	<stdin>
@wusbhc	<stdin>
@wusbhc	<stdin>
@wusbhc	<stdin>
@wusbhc	<stdin>
@wusbhc	<stdin>
@wusbhc	<stdin>
@wusbhc	<stdin>
@wusbhc	<stdin>
@wusbhc	<stdin>
@wusbhc	<stdin>
@wusbhc	<stdin>
@wusbhc	<stdin>
@wusbhc	<stdin>
@wusbhc	<stdin>
@wusbhc	<stdin>
@wusbhc	<stdin>
@wusbhc	<stdin>
@wusbhc's	<stdin>
@wusbhc->ca_list	<stdin>
@wusbhc->mmcie	<stdin>
@wusbhc->mutex	<stdin>
@wusbhc->mutex	<stdin>
@wusbhc->mutex	<stdin>
@wusbhc->mutex	<stdin>
@wusbhc->mutex	<stdin>
@wusbhc->mutex	<stdin>
@wusbhc->mutex	<stdin>
@wusbhc->mutex	<stdin>
@wusbhc->mutex	<stdin>
@wusbhc->mutex	<stdin>
@wusbhc->mutex	<stdin>
@wusbhc->mutex	<stdin>
@wusbhc->mutex	<stdin>
@wusbhc->mutex	<stdin>
@wusbhc->mutex	<stdin>
@wusbhc->mutex	<stdin>
@wusbhc->mutex.	<stdin>
@wusbhc->port;	<stdin>
@wusbhc->port[index]	<stdin>
@wusbhc:	<stdin>
@wusbhc:	<stdin>
@wusbhc:	<stdin>
@wusbhc:	<stdin>
@wusbhc:	<stdin>
@wusbhc:	<stdin>
@wusbhc:	<stdin>
@wusbhc:	<stdin>
@wusbhc:	<stdin>
@wusbhc:	<stdin>
@wusbhc:	<stdin>
@wusbhc:	<stdin>
@wusbhc:	<stdin>
@wusbhc:	<stdin>
@wusbhc:	<stdin>
@x:	<stdin>
@xfer_bytes:	<stdin>
@xfer_complete:	<stdin>
@xfer_delayed_list:	<stdin>
@xfer_list:	<stdin>
@xhci:	<stdin>
@zdma:	<stdin>
@zptr:	<stdin>
A.Hartgers@stud.tue.nl,	<stdin>
Andries.Brouwer@cwi.nl	<stdin>
Bailey<mbailey@littlefeet-inc.com>	<stdin>
JZDQC@CUNYVM.CUNY.edu,	<stdin>
MODULE_AUTHOR("info@mocean-labs.com");	<stdin>
Olech(tony.olech@elandigitalsystems.com)	<stdin>
Olech(tony.olech@elandigitalsystems.com)	<stdin>
abramov@cecmow.enet.dec.com	<stdin>
abramov@cecmow.enet.dec.com,	<stdin>
adrian@humboldt.co.uk.	<stdin>
andrey.arapov@gmail.com	<stdin>
bardj@utopia.ppp.sn.no,	<stdin>
bart@gaga.tue.nl,	<stdin>
bbol001@cs.auckland.ac.nz,	<stdin>
bellucda@tiscali.it	<stdin>
car.busse@gmx.de	<stdin>
chrisc@dbass.demon.co.uk,	<stdin>
dalecki@namu26.Num.Math.Uni-Goettingen.de,	<stdin>
derekn@vw.ece.cmu.edu,	<stdin>
florian@btp2x3.phy.uni-bayreuth.de,	<stdin>
flynn@dei.unipd.it,	<stdin>
gadio@netvision.net.il,	<stdin>
godzilla@futuris.net,	<stdin>
greg@kroah.com"	<stdin>
hzoli@cs.elte.hu,	<stdin>
idasilva@mvista.com	<stdin>
ism@tardis.ed.ac.uk,	<stdin>
j@pobox.com,	<stdin>
jkemp1@mises.uni-paderborn.de,	<stdin>
jtoppe@hiwaay.net,	<stdin>
kerouac@ssnet.com,	<stdin>
liug@mama.indstate.edu,	<stdin>
mack@cray.com	<stdin>
meskes@informatik.rwth-aachen.de,	<stdin>
michael.lawnick.ext@nsn.com	<stdin>
mlord@pobox.com	<stdin>
peter@udgaard.isgtec.com,	<stdin>
phil@tazenda.demon.co.uk,	<stdin>
roadcapw@cfw.com,	<stdin>
s0033las@sun10.vsz.bme.hu,	<stdin>
sam@zoy.org"	<stdin>
schaffer@tam.cornell.edu,	<stdin>
sjd@slip.net	<stdin>
sjd@slip.net,	<stdin>
stern@rowland.harvard.edu	<stdin>
steve@ei.org,	<stdin>
t.sailer@alumni.ethz.ch"	<stdin>
tony.olech@elandigitalsystems.com	<stdin>
ulrpeg@bigcomm.gun.de,	<stdin>
wim@geeks.nl	<stdin>
zaitcev@yahoo.com.	<stdin>
