"cpufreq@vger.kernel.org"	<stdin>
(berne.hebark@stericsson.com))	<stdin>
(davem@davemloft.net)");	<stdin>
(davem@davemloft.net)");	<stdin>
(dorchain@mpi-sb.mpg.de)	<stdin>
(duncan.sands@free.fr)	<stdin>
(gbaldauf@ix.netcom.com)	<stdin>
(greg@kroah.com)	<stdin>
(joakim.xx.bech@stericsson.com)	<stdin>
(oliver@neukum.name)	<stdin>
(rpurdie@rpsys.net)	<stdin>
(sailer@ife.ee.ethz.ch)	<stdin>
(sailer@ife.ee.ethz.ch)	<stdin>
(shujuan.chen@stericsson.com)	<stdin>
(steve@icarus.com)	<stdin>
0x287@83Mhz	<stdin>
<DZShen@Winbond.com.tw>");	<stdin>
<DZShen@Winbond.com.tw>,	<stdin>
<HaraldWelte@viatech.com>");	<stdin>
<Mingkai.hu@freescale.com>	<stdin>
<Mingkai.hu@freescale.com>");	<stdin>
<Philip.Blundell@pobox.com>	<stdin>
<a.zummo@towertech.it>	<stdin>
<a.zummo@towertech.it>");	<stdin>
<adrien.demarez@bolloretelecom.eu>	<stdin>
<alex@alexdalton.org>	<stdin>
<alex@alexdalton.org>");	<stdin>
<alex@digriz.org.uk>	<stdin>
<alex@digriz.org.uk>	<stdin>
<alex@digriz.org.uk>	<stdin>
<alex@digriz.org.uk>");	<stdin>
<alexander.stein@systec-electronic.com>	<stdin>
<alexander.stein@systec-electronic.com>");	<stdin>
<alexey.y.starikovskiy@intel.com>");	<stdin>
<alistair@devzero.co.uk>	<stdin>
<amarsh@sdf.lonestar.org>	<stdin>
<ambx1@neo.rr.com>	<stdin>
<anders@anduras.de>,	<stdin>
<andre.prendel@gmx.de>	<stdin>
<andre.prendel@gmx.de>	<stdin>
<andre.prendel@gmx.de>");	<stdin>
<andreas.westin@stericsson.com>	<stdin>
<andreas.westin@stericsson.com>	<stdin>
<andrew.grover@intel.com>	<stdin>
<anish.singh@samsung.com>	<stdin>
<arjanv@redhat.com>	<stdin>
<arnaud.giersch@free.fr>	<stdin>
<arnaud.giersch@free.fr>");	<stdin>
<ashok.raj@intel.com>	<stdin>
<aurelien@aurel32.net>	<stdin>
<aurelien@aurel32.net>	<stdin>
<aurelien@aurel32.net>	<stdin>
<aurelien@aurel32.net>	<stdin>
<aurelien@aurel32.net>");	<stdin>
<aurelien@aurel32.net>");	<stdin>
<ben@simtec.co.uk>	<stdin>
<ben@simtec.co.uk>	<stdin>
<ben@simtec.co.uk>");	<stdin>
<ben@simtec.co.uk>");	<stdin>
<benh@kernel.crashing.org>	<stdin>
<berne.herbark@stericsson.com>	<stdin>
<berne.herbark@stericsson.com>	<stdin>
<berne.herbark@stericsson.com>	<stdin>
<berne.herbark@stericsson.com>	<stdin>
<berne.herbark@stericsson.com>	<stdin>
<berne.herbark@stericsson.com>	<stdin>
<berne.herbark@stericsson.com>	<stdin>
<berne.herbark@stericsson.com>	<stdin>
<bert@sophis.be>	<stdin>
<bezaur@gmail.com>	<stdin>
<bezaur@gmail.com>");	<stdin>
<bobd@stanford.edu>	<stdin>
<bobd@stanford.edu>");	<stdin>
<bootc@bootc.net>	<stdin>
<broonie@opensource.wolfsonmicro.com>");	<stdin>
<broonie@opensource.wolfsonmicro.com>");	<stdin>
<broonie@opensource.wolfsonmicro.com>");	<stdin>
<bug-track@fisher-privat.net>	<stdin>
<bug-track@fisher-privat.net>	<stdin>
<bug-track@fisher-privat.net>	<stdin>
<campbell@tirian.che.curtin.edu.au>	<stdin>
<campbell@tirian.che.curtin.edu.au>	<stdin>
<carsten@sol.wohnheim.uni-ulm.de>	<stdin>
<castet.matthieu@free.fr>	<stdin>
<cbe@osadl.org>	<stdin>
<chohnstaedt@innominate.com>	<stdin>
<chohnstaedt@innominate.com>");	<stdin>
<claus.gindhart@kontron.com>	<stdin>
<clemens@ladisch.de>	<stdin>
<clemens@ladisch.de>");	<stdin>
<clemy@clemy.org>	<stdin>
<corentin.labbe@geomatys.fr>	<stdin>
<corentin.labbe@geomatys.fr>");	<stdin>
<cw00.choi@samsung.com>	<stdin>
<cw00.choi@samsung.com>");	<stdin>
<dahinds@users.sourceforge.net>");	<stdin>
<dahinds@users.sourceforge.net>.	<stdin>
<damien.bergamini@free.fr>.	<stdin>
<dan.eaton@rocketlogix.com>	<stdin>
<daniel.blueman@gmail.com>	<stdin>
<darkside@chello.nl>	<stdin>
<darkside@chello.nl>)	<stdin>
<darkside@chello.nl>.)	<stdin>
<davej@redhat.com>	<stdin>
<davej@redhat.com>	<stdin>
<davej@redhat.com>");	<stdin>
<davej@redhat.com>");	<stdin>
<davej@redhat.com>,	<stdin>
<davej@redhat.com>,	<stdin>
<davem@davemloft.net>	<stdin>
<davem@davemloft.net>	<stdin>
<davem@davemloft.net>	<stdin>
<david.c.hubbard@gmail.com>	<stdin>
<david.george@ska.ac.za>	<stdin>
<david.george@ska.ac.za>");	<stdin>
<dchen@diasemi.com>	<stdin>
<dchen@diasemi.com>	<stdin>
<dchen@diasemi.com>");	<stdin>
<dchen@diasemi.com>");	<stdin>
<deepak.sikri@st.com>	<stdin>
<deepak.sikri@st.com>");	<stdin>
<deller@gmx.de>	<stdin>
<deller@gmx.de>	<stdin>
<deller@gmx.de>");	<stdin>
<denis.m.sadykov@intel.com>	<stdin>
<dg77.kim@samsung.com>	<stdin>
<dg77.kim@samsung.com>	<stdin>
<dg77.kim@samsung.com>");	<stdin>
<dg77.kim@samsung.com>");	<stdin>
<djwong@us.ibm.com>	<stdin>
<djwong@us.ibm.com>	<stdin>
<djwong@us.ibm.com>	<stdin>
<djwong@us.ibm.com>	<stdin>
<djwong@us.ibm.com>	<stdin>
<djwong@us.ibm.com>	<stdin>
<djwong@us.ibm.com>");	<stdin>
<djwong@us.ibm.com>");	<stdin>
<djwong@us.ibm.com>");	<stdin>
<djwong@us.ibm.com>");	<stdin>
<djwong@us.ibm.com>");	<stdin>
<djwong@us.ibm.com>");	<stdin>
<dmitry.kasatkin@nokia.com>	<stdin>
<dmitry.kasatkin@nokia.com>	<stdin>
<drewie@freemail.hu>	<stdin>
<drewie@freemail.hu>");	<stdin>
<drewie@freemail.hu>.	<stdin>
<duncan.sands@free.fr>"	<stdin>
<duncan.sands@free.fr>"	<stdin>
<ecd@skynet.be>	<stdin>
<eibach@gdsys.de>	<stdin>
<eibach@gdsys.de>");	<stdin>
<elpa.rizzo@gmail.com>	<stdin>
<elpa.rizzo@gmail.com>");	<stdin>
<eric.miao@marvell.com>	<stdin>
<eric.miao@marvell.com>");	<stdin>
<ericb@aspsys.com>	<stdin>
<fizban@tin.it>	<stdin>
<frmb2@ukc.ac.uk>,	<stdin>
<frodol@dds.nl>	<stdin>
<frodol@dds.nl>	<stdin>
<frodol@dds.nl>	<stdin>
<frodol@dds.nl>	<stdin>
<frodol@dds.nl>	<stdin>
<frodol@dds.nl>	<stdin>
<frodol@dds.nl>	<stdin>
<frodol@dds.nl>	<stdin>
<frodol@dds.nl>	<stdin>
<frodol@dds.nl>	<stdin>
<frodol@dds.nl>	<stdin>
<frodol@dds.nl>	<stdin>
<frodol@dds.nl>	<stdin>
<frodol@dds.nl>	<stdin>
<frodol@dds.nl>	<stdin>
<frodol@dds.nl>");	<stdin>
<frodol@dds.nl>,	<stdin>
<frodol@dds.nl>,	<stdin>
<frodol@dds.nl>,	<stdin>
<frodol@dds.nl>,	<stdin>
<frodol@dds.nl>,	<stdin>
<frodol@dds.nl>,	<stdin>
<frodol@dds.nl>,	<stdin>
<frodol@dds.nl>,	<stdin>
<frodol@dds.nl>,	<stdin>
<frodol@dds.nl>,	<stdin>
<frodol@dds.nl>.	<stdin>
<gcoady.lk@gmail.com>	<stdin>
<gcoady.lk@gmail.com>	<stdin>
<george.joseph@fairview5.com>	<stdin>
<gorlik@yahoo.com>	<stdin>
<grant@torque.net>	<stdin>
<grant@torque.net>	<stdin>
<grant@torque.net>	<stdin>
<grant@torque.net>	<stdin>
<grant@torque.net>	<stdin>
<grant@torque.net>	<stdin>
<guillaume.ligneul@gmail.com>	<stdin>
<guillaume.ligneul@gmail.com>");	<stdin>
<guillaume.roguez@savoirfairelinux.com>	<stdin>
<gwu@esoft.com>	<stdin>
<hans@edgington.nl>	<stdin>
<hdegoede@redhat.com>	<stdin>
<hdegoede@redhat.com>	<stdin>
<hdegoede@redhat.com>	<stdin>
<hdegoede@redhat.com>	<stdin>
<hdegoede@redhat.com>	<stdin>
<hdegoede@redhat.com>	<stdin>
<hdegoede@redhat.com>	<stdin>
<hdegoede@redhat.com>	<stdin>
<hdegoede@redhat.com>	<stdin>
<hdegoede@redhat.com>	<stdin>
<hdegoede@redhat.com>");	<stdin>
<hdegoede@redhat.com>");	<stdin>
<hdegoede@redhat.com>");	<stdin>
<hdegoede@redhat.com>");	<stdin>
<hdegoede@redhat.com>");	<stdin>
<hdegoede@redhat.com>");	<stdin>
<hdegoede@redhat.com>");	<stdin>
<hdegoede@redhat.com>");	<stdin>
<hechangqing@semptian.com>	<stdin>
<heiko@sntech.de>	<stdin>
<hej@odn.de>	<stdin>
<herbert@gondor.apana.org.au>	<stdin>
<herrmann.der.user@googlemail.com>	<stdin>
<herrmann.der.user@googlemail.com>	<stdin>
<herrmann.der.user@googlemail.com>");	<stdin>
<hglinux@gunnet.org>	<stdin>
<hglinux@gunnet.org>");	<stdin>
<hjk@hansjkoch.de>	<stdin>
<hjk@hansjkoch.de>	<stdin>
<hjk@hansjkoch.de>	<stdin>
<hjk@hansjkoch.de>");	<stdin>
<holtmann@mac.com>	<stdin>
<hvr@gnu.org>	<stdin>
<hvr@gnu.org>");	<stdin>
<ipaton0@gmail.com>	<stdin>
<ipaton0@gmail.com>");	<stdin>
<iws@ovro.caltech.edu>	<stdin>
<iws@ovro.caltech.edu>	<stdin>
<iws@ovro.caltech.edu>	<stdin>
<iws@ovro.caltech.edu>");	<stdin>
<iws@ovro.caltech.edu>");	<stdin>
<j-keerthy@ti.com>	<stdin>
<j.teh@iname.com>	<stdin>
<j.teh@iname.com>)	<stdin>
<jacob.shin@amd.com>	<stdin>
<james@evilpenguin.com>	<stdin>
<jeremy.laine@bolloretelecom.eu>	<stdin>
<jeremy@goop.org>	<stdin>
<jeremy@goop.org>");	<stdin>
<jerome.oufella@savoirfairelinux.com>	<stdin>
<jgarzik@pobox.com>	<stdin>
<jhsiao@amcc.com>	<stdin>
<jhsiao@amcc.com>	<stdin>
<jhsiao@amcc.com>	<stdin>
<jhsiao@amcc.com>	<stdin>
<jhsiao@amcc.com>	<stdin>
<jhsiao@amcc.com>	<stdin>
<jhsiao@amcc.com>");	<stdin>
<jic23@cam.ac.uk>	<stdin>
<jj@chaosbits.net>	<stdin>
<joakim.xx.bech@stericsson.com>	<stdin>
<joakim.xx.bech@stericsson.com>	<stdin>
<joakim.xx.bech@stericsson.com>	<stdin>
<joakim.xx.bech@stericsson.com>	<stdin>
<joakim.xx.bech@stericsson.com>	<stdin>
<joakim.xx.bech@stericsson.com>	<stdin>
<joakim.xx.bech@stericsson.com>	<stdin>
<joakim.xx.bech@stericsson.com>	<stdin>
<jochen@scram.de>	<stdin>
<joerg@dorchain.net>	<stdin>
<joerg@dorchain.net>	<stdin>
<joerg@dorchain.net>");	<stdin>
<joerg@dorchain.net>");	<stdin>
<john.morris@spirentcom.com>	<stdin>
<johnpol@2ka.mipt.ru>	<stdin>
<johnpol@2ka.mipt.ru>	<stdin>
<johnpol@2ka.mipt.ru>");	<stdin>
<jonas.aberg@stericsson.com>	<stdin>
<jonas.linde@stericsson.com>	<stdin>
<jonas.linde@stericsson.com>	<stdin>
<jonas.linde@stericsson.com>	<stdin>
<jonas.linde@stericsson.com>	<stdin>
<jonas.linde@stericsson.com>	<stdin>
<jonas.linde@stericsson.com>	<stdin>
<jonas.linde@stericsson.com>	<stdin>
<jordan@cosmicpenguin.net>	<stdin>
<jthiessen@penguincomputing.com>	<stdin>
<jthiessen@penguincomputing.com>	<stdin>
<jthiessen@penguincomputing.com>");	<stdin>
<jthiessen@penguincomputing.com>");	<stdin>
<juergh@gmail.com>	<stdin>
<juergh@gmail.com>	<stdin>
<juergh@gmail.com>");	<stdin>
<juergh@gmail.com>");	<stdin>
<jun.nakajima@intel.com>	<stdin>
<jun.nakajima@intel.com>	<stdin>
<jun.nakajima@intel.com>	<stdin>
<jun.nakajima@intel.com>	<stdin>
<kaiwan@designergraphix.com>	<stdin>
<kalhan.trisal@intel.com");	<stdin>
<kernel@savoirfairelinux.com>");	<stdin>
<kevlo@kevlo.org>	<stdin>
<khali@linux-fr.org>	<stdin>
<khali@linux-fr.org>	<stdin>
<khali@linux-fr.org>	<stdin>
<khali@linux-fr.org>	<stdin>
<khali@linux-fr.org>	<stdin>
<khali@linux-fr.org>	<stdin>
<khali@linux-fr.org>	<stdin>
<khali@linux-fr.org>	<stdin>
<khali@linux-fr.org>	<stdin>
<khali@linux-fr.org>	<stdin>
<khali@linux-fr.org>	<stdin>
<khali@linux-fr.org>	<stdin>
<khali@linux-fr.org>	<stdin>
<khali@linux-fr.org>	<stdin>
<khali@linux-fr.org>	<stdin>
<khali@linux-fr.org>	<stdin>
<khali@linux-fr.org>	<stdin>
<khali@linux-fr.org>	<stdin>
<khali@linux-fr.org>	<stdin>
<khali@linux-fr.org>	<stdin>
<khali@linux-fr.org>	<stdin>
<khali@linux-fr.org>	<stdin>
<khali@linux-fr.org>	<stdin>
<khali@linux-fr.org>	<stdin>
<khali@linux-fr.org>	<stdin>
<khali@linux-fr.org>	<stdin>
<khali@linux-fr.org>	<stdin>
<khali@linux-fr.org>	<stdin>
<khali@linux-fr.org>	<stdin>
<khali@linux-fr.org>	<stdin>
<khali@linux-fr.org>	<stdin>
<khali@linux-fr.org>");	<stdin>
<khali@linux-fr.org>");	<stdin>
<khali@linux-fr.org>");	<stdin>
<khali@linux-fr.org>");	<stdin>
<khali@linux-fr.org>");	<stdin>
<khali@linux-fr.org>");	<stdin>
<khali@linux-fr.org>");	<stdin>
<khali@linux-fr.org>");	<stdin>
<khali@linux-fr.org>");	<stdin>
<khali@linux-fr.org>");	<stdin>
<khali@linux-fr.org>");	<stdin>
<khali@linux-fr.org>");	<stdin>
<khali@linux-fr.org>");	<stdin>
<khali@linux-fr.org>");	<stdin>
<khali@linux-fr.org>.	<stdin>
<khali@linux-fr>");	<stdin>
<kim.phillips@freescale.com>");	<stdin>
<kmalkki@cc.hut.fi>	<stdin>
<kmalkki@cc.hut.fi>	<stdin>
<kmalkki@cc.hut.fi>	<stdin>
<kmalkki@cc.hut.fi>,	<stdin>
<kmalkki@cc.hut.fi>,	<stdin>
<kmalkki@cc.hut.fi>,	<stdin>
<kmalkki@cc.hut.fi>,	<stdin>
<knaack.h@gmx.de>	<stdin>
<kronos.it@gmail.com>	<stdin>
<krzysztof.h1@wp.pl>	<stdin>
<krzysztof.h1@wp.pl>");	<stdin>
<l-felten@ti.com>	<stdin>
<l-felten@ti.com>");	<stdin>
<l.fu@pengutronix.de>");	<stdin>
<lars@metafoo.de>	<stdin>
<lars@metafoo.de>");	<stdin>
<linux-m68k@lists.linux-m68k.org>!";	<stdin>
<linux@arm.uk.linux.org>	<stdin>
<linux@arm.uk.linux.org>	<stdin>
<linux@brodo.de>	<stdin>
<linux@brodo.de>	<stdin>
<linux@brodo.de>	<stdin>
<linux@brodo.de>	<stdin>
<linux@brodo.de>	<stdin>
<linux@brodo.de>	<stdin>
<linux@brodo.de>	<stdin>
<linux@brodo.de>	<stdin>
<linux@brodo.de>	<stdin>
<linux@brodo.de>	<stdin>
<linux@brodo.de>	<stdin>
<linux@brodo.de>");	<stdin>
<linux@brodo.de>");	<stdin>
<linux@brodo.de>");	<stdin>
<linux@brodo.de>");	<stdin>
<linux@brodo.de>");	<stdin>
<linux@brodo.de>");	<stdin>
<linux@brodo.de>");	<stdin>
<linux@brodo.de>,	<stdin>
<linux@brodo.de>\n");	<stdin>
<linux@rick.claranet.de>	<stdin>
<linux@rick.claranet.de>");	<stdin>
<linux@roeck-us.net>");	<stdin>
<linux@roeck-us.net>");	<stdin>
<linux@roeck-us.net>");	<stdin>
<linux@roeck-us.net>");	<stdin>
<lockwood@android.com>	<stdin>
<lockwood@android.com>	<stdin>
<lockwood@android.com>");	<stdin>
<lockwood@android.com>");	<stdin>
<maartendeprez@users.sourceforge.net>	<stdin>
<maartendeprez@users.sourceforge.net>");	<stdin>
<marc.pignat@hevs.ch>	<stdin>
<margitsw@t-online.de>	<stdin>
<margitsw@t-online.de>	<stdin>
<margitsw@t-online.de>,	<stdin>
<mark.langsdorf@amd.com>");	<stdin>
<martin.persson@stericsson.com>	<stdin>
<mdsxyz123@yahoo.com>	<stdin>
<mdsxyz123@yahoo.com>	<stdin>
<mdsxyz123@yahoo.com>	<stdin>
<mdsxyz123@yahoo.com>	<stdin>
<mdsxyz123@yahoo.com>	<stdin>
<mdsxyz123@yahoo.com>	<stdin>
<mdsxyz123@yahoo.com>	<stdin>
<mdsxyz123@yahoo.com>	<stdin>
<mdsxyz123@yahoo.com>	<stdin>
<mdsxyz123@yahoo.com>	<stdin>
<mdsxyz123@yahoo.com>");	<stdin>
<mdsxyz123@yahoo.com>");	<stdin>
<mdsxyz123@yahoo.com>");	<stdin>
<mdsxyz123@yahoo.com>,	<stdin>
<mhoffman@lightlink.com>	<stdin>
<mhoffman@lightlink.com>	<stdin>
<mhoffman@lightlink.com>	<stdin>
<mhoffman@lightlink.com>	<stdin>
<mhoffman@lightlink.com>	<stdin>
<mhoffman@lightlink.com>");	<stdin>
<mhoffman@lightlink.com>");	<stdin>
<mhoffman@lightlink.com>");	<stdin>
<mhoffman@lightlink.com>,	<stdin>
<michal@logix.cz>	<stdin>
<michal@logix.cz>	<stdin>
<michiel@grendelproject.nl>	<stdin>
<michiel@grendelproject.nl>,	<stdin>
<mirage@kaotik.org>	<stdin>
<miura@da-cha.org>	<stdin>
<miura@da-cha.org>	<stdin>
<miura@da-cha.org>	<stdin>
<miura@da-cha.org>	<stdin>
<miura@da-cha.org>");	<stdin>
<mjg@redhat.com>	<stdin>
<mkn@teraport.de,	<stdin>
<msdemlei@cl.uni-heidelberg.de>	<stdin>
<myungjoo.ham@samsung.com>	<stdin>
<myungjoo.ham@samsung.com>	<stdin>
<myungjoo.ham@samsung.com>	<stdin>
<myungjoo.ham@samsung.com>	<stdin>
<myungjoo.ham@samsung.com>");	<stdin>
<myungjoo.ham@samsung.com>");	<stdin>
<myungjoo.ham@samsung.com>");	<stdin>
<nab@kernel.org>	<stdin>
<nab@kernel.org>	<stdin>
<nab@kernel.org>	<stdin>
<nab@kernel.org>	<stdin>
<nab@kernel.org>	<stdin>
<nab@kernel.org>	<stdin>
<nab@kernel.org>	<stdin>
<nab@kernel.org>	<stdin>
<nab@kernel.org>	<stdin>
<nab@kernel.org>	<stdin>
<nab@kernel.org>	<stdin>
<nab@kernel.org>	<stdin>
<nab@linux-iscsi.org>	<stdin>
<nab@linux-iscsi.org>	<stdin>
<nab@linux-iscsi.org>	<stdin>
<nab@linux-iscsi.org>	<stdin>
<nab@linux-iscsi.org>	<stdin>
<nab@linux-iscsi.org>	<stdin>
<nab@linux-iscsi.org>	<stdin>
<nab@linux-iscsi.org>	<stdin>
<nab@linux-iscsi.org>	<stdin>
<nab@linux-iscsi.org>	<stdin>
<nab@linux-iscsi.org>	<stdin>
<nab@risingtidesystems.com>	<stdin>
<nab@risingtidesystems.com>");	<stdin>
<nagananda.chumbalkar@hp.com>	<stdin>
<nanhai.zou@intel.com>");	<stdin>
<nanhai.zou@intel.com>.	<stdin>
<nicolas@boichat.ch>	<stdin>
<nicolas@eukrea.com>	<stdin>
<nicolas@eukrea.com>	<stdin>
<nicolas@eukrea.com>	<stdin>
<niklas.hernaeus@stericsson.com>	<stdin>
<niklas.hernaeus@stericsson.com>	<stdin>
<niklas.hernaeus@stericsson.com>	<stdin>
<niklas.hernaeus@stericsson.com>	<stdin>
<niklas.hernaeus@stericsson.com>	<stdin>
<niklas.hernaeus@stericsson.com>	<stdin>
<niklas.hernaeus@stericsson.com>	<stdin>
<niklas.hernaeus@stericsson.com>	<stdin>
<nuppla@gmx.at>	<stdin>
<padraig@antefacto.com>	<stdin>
<paul.devriendt@amd.com>	<stdin>
<paul.s.diefenbaugh@intel.com>	<stdin>
<pavel@ucw.cz>	<stdin>
<pawel.moll@arm.com>");	<stdin>
<per.dalen@appeartv.com>");	<stdin>
<per.dalen@appeartv.com>");	<stdin>
<phil@netroedge.com>	<stdin>
<phil@netroedge.com>	<stdin>
<phil@netroedge.com>	<stdin>
<phil@netroedge.com>	<stdin>
<phil@netroedge.com>	<stdin>
<phil@netroedge.com>");	<stdin>
<phil@netroedge.com>");	<stdin>
<phil@netroedge.com>,	<stdin>
<phil@netroedge.com>,	<stdin>
<phil@netroedge.com>,	<stdin>
<phil@netroedge.com>,	<stdin>
<phil@netroedge.com>,	<stdin>
<philb@gnu.org>	<stdin>
<philb@gnu.org>	<stdin>
<philb@gnu.org>	<stdin>
<philb@gnu.org>	<stdin>
<philb@gnu.org>	<stdin>
<philb@gnu.org>	<stdin>
<philb@gnu.org>	<stdin>
<pmaydell@chiark.greenend.org.uk>	<stdin>
<ppokorny@penguincomputing.com>	<stdin>
<ppokorny@penguincomputing.com>	<stdin>
<ppokorny@penguincomputing.com>	<stdin>
<ppokorny@penguincomputing.com>,	<stdin>
<ppokorny@penguincomputing.com>,	<stdin>
<pthomas8589@gmail.com>	<stdin>
<pthomas8589@gmail.com>");	<stdin>
<r.marek@assembler.cz>	<stdin>
<r.marek@assembler.cz>	<stdin>
<r.marek@assembler.cz>	<stdin>
<r.marek@assembler.cz>	<stdin>
<r.marek@assembler.cz>	<stdin>
<r.marek@assembler.cz>	<stdin>
<r.marek@assembler.cz>	<stdin>
<r.marek@assembler.cz>");	<stdin>
<r.marek@assembler.cz>");	<stdin>
<r.marek@assembler.cz>");	<stdin>
<r.schwebel@pengutronix.de>	<stdin>
<r.schwebel@pengutronix.de>,	<stdin>
<rafalbilski@interia.pl>");	<stdin>
<rcj@linux.vnet.ibm.com>	<stdin>
<rcj@linux.vnet.ibm.com>");	<stdin>
<renau@acm.org>	<stdin>
<renau@acm.org>	<stdin>
<renau@acm.org>	<stdin>
<renau@acm.org>	<stdin>
<renau@acm.org>	<stdin>
<renau@acm.org>	<stdin>
<richliu@poorman.org>	<stdin>
<rmk@arm.linux.org.uk>");	<stdin>
<rml@novell.com>	<stdin>
<rnissl@gmx.de>	<stdin>
<rydberg@euromail.se>	<stdin>
<s.hauer@pengutronix.de>	<stdin>
<schuchmann@schleissheimer.de>	<stdin>
<schwab@issan.informatik.uni-dortmund.de>	<stdin>
<se.witt@gmx.net>	<stdin>
<se.witt@gmx.net>");	<stdin>
<se.witt@gmx.net>");	<stdin>
<sean@mess.org>	<stdin>
<sean@mess.org>");	<stdin>
<sebastian@breakpoint.cc>");	<stdin>
<sfking@fdwdc.com>	<stdin>
<sfking@fdwdc.com>");	<stdin>
<sguinot@lacie.com>	<stdin>
<sguinot@lacie.com>");	<stdin>
<shadow@dementia.org>	<stdin>
<shardy@redhat.com>	<stdin>
<shardy@redhat.com>");	<stdin>
<shawn.guo@linaro.org>");	<stdin>
<shujuan.chen@stericsson.com>	<stdin>
<shujuan.chen@stericsson.com>	<stdin>
<shujuan.chen@stericsson.com>	<stdin>
<shujuan.chen@stericsson.com>	<stdin>
<shujuan.chen@stericsson.com>	<stdin>
<shujuan.chen@stericsson.com>	<stdin>
<shujuan.chen@stericsson.com>	<stdin>
<shujuan.chen@stericsson.com>	<stdin>
<sjenning@linux.vnet.ibm.com>	<stdin>
<smaclennan@pikatech.com>	<stdin>
<sonic.zhang@analog.com>	<stdin>
<sonic.zhang@analog.com>");	<stdin>
<sonic.zhang@analog.com>");	<stdin>
<sonic_amiga@rambler.ru>	<stdin>
<stefan@desire.ch>	<stdin>
<stephen.rousset@rocketlogix.com>	<stdin>
<steve.glendinning@shawell.net>");	<stdin>
<stf_xl@wp.pl>	<stdin>
<stigge@antcom.de>	<stdin>
<stigge@antcom.de>	<stdin>
<stigge@antcom.de>");	<stdin>
<stigge@antcom.de>");	<stdin>
<sundar.iyer@stericsson.com>	<stdin>
<sven@geggus.net>	<stdin>
<sven@geggus.net>");	<stdin>
<thilo.cestonaro.external@fujitsu-siemens.com>	<stdin>
<tim@cyberelk.demon.co.uk>	<stdin>
<tim@cyberelk.demon.co.uk>	<stdin>
<tim@cyberelk.demon.co.uk>	<stdin>
<tim@cyberelk.demon.co.uk>	<stdin>
<tim@cyberelk.demon.co.uk>	<stdin>
<tim@cyberelk.demon.co.uk>	<stdin>
<tim@cyberelk.demon.co.uk>	<stdin>
<tim@cyberelk.demon.co.uk>	<stdin>
<tim@cyberelk.demon.co.uk>	<stdin>
<tomaz.mertelj@guest.arnes.si>	<stdin>
<tomaz.mertelj@guest.arnes.si>");	<stdin>
<tony@atomide.com>	<stdin>
<twaugh@redhat.com>	<stdin>
<twaugh@redhat.com>");	<stdin>
<uandersen@mayah.com>	<stdin>
<urs.fleisch@sensirion.com>	<stdin>
<urs.fleisch@sensirion.com>	<stdin>
<urs.fleisch@sensirion.com>");	<stdin>
<venkatesh.pallipadi@intel.com>");	<stdin>
<venkatesh.pallipadi@intel.com>.	<stdin>
<venkatesh.pallipadi@intel.com>.	<stdin>
<venkatesh.pallipadi@intel.com>.	<stdin>
<venkatesh.pallipadi@intel.com>.	<stdin>
<venkatesh.pallipadi@intel.com>.	<stdin>
<viresh.kumar@linaro.org>	<stdin>
<viresh.kumar@linaro.org>	<stdin>
<vivien.didelot@savoirfairelinux.com>	<stdin>
<vivien.didelot@savoirfairelinux.com>	<stdin>
<vt8231@hiddenengine.co.uk>	<stdin>
<vt8231@hiddenengine.co.uk>");	<stdin>
<vzapolskiy@gmail.com>");	<stdin>
<w.sang@pengutronix.de>");	<stdin>
<xyzzy@speakeasy.org>	<stdin>
<yoder1@us.ibm.com>	<stdin>
<yoder1@us.ibm.com>	<stdin>
<yoder1@us.ibm.com>	<stdin>
<yoder1@us.ibm.com>	<stdin>
<yoder1@us.ibm.com>	<stdin>
<yoder1@us.ibm.com>	<stdin>
<yoder1@us.ibm.com>	<stdin>
<yoder1@us.ibm.com>	<stdin>
<yoder1@us.ibm.com>	<stdin>
<yoder1@us.ibm.com>	<stdin>
<yoder1@us.ibm.com>");	<stdin>
<zany@triq.net>	<stdin>
<zany@triq.net>	<stdin>
<zany@triq.net>");	<stdin>
<zwane@commfireservices.com>	<stdin>
<zwane@commfireservices.com>	<stdin>
<zwane@commfireservices.com>	<stdin>
<zwane@commfireservices.com>");	<stdin>
@...:	<stdin>
@...:	<stdin>
@0xffe01000	<stdin>
@0xffe04000	<stdin>
@100	<stdin>
@200	<stdin>
@500	<stdin>
@600	<stdin>
@7d0	<stdin>
@800	<stdin>
@HASH_ALGO_SHA1:	<stdin>
@HASH_ALGO_SHA2:	<stdin>
@HASH_DATA_16_BITS:	<stdin>
@HASH_DATA_1_BITS:	<stdin>
@HASH_DATA_32_BITS:	<stdin>
@HASH_DATA_8_BITS:	<stdin>
@HASH_DEVICE_ID_0:	<stdin>
@HASH_DEVICE_ID_1:	<stdin>
@HASH_OPER_MODE_HASH:	<stdin>
@HASH_OPER_MODE_HMAC:	<stdin>
@PARPORT_IP32_IRQ_FWD:	<stdin>
@PARPORT_IP32_IRQ_HERE:	<stdin>
@ack_kref:	<stdin>
@action:	<stdin>
@adc_conditions	<stdin>
@addr:	<stdin>
@algodir:	<stdin>
@algomode:	<stdin>
@algorithm:	<stdin>
@algorithm:	<stdin>
@aligned:	<stdin>
@areq:	<stdin>
@areq:	<stdin>
@assoc_chained:	<stdin>
@assoc_chained:	<stdin>
@assoc_nents:	<stdin>
@assoc_nents:	<stdin>
@attr:	<stdin>
@attr:	<stdin>
@attr:	<stdin>
@attr:	<stdin>
@attr:	<stdin>
@attr:	<stdin>
@attr:	<stdin>
@attr:	<stdin>
@attr:	<stdin>
@attr:	<stdin>
@attr:	<stdin>
@attr:	<stdin>
@attr_size:	<stdin>
@b:	<stdin>
@b:	<stdin>
@base,	<stdin>
@base.	<stdin>
@base:	<stdin>
@base:	<stdin>
@base:	<stdin>
@base:	<stdin>
@base:	<stdin>
@base_hi.	<stdin>
@base_hi:	<stdin>
@best_i:	<stdin>
@bit_index:	<stdin>
@blocksize:	<stdin>
@buf	<stdin>
@buf	<stdin>
@buf	<stdin>
@buf	<stdin>
@buf	<stdin>
@buf	<stdin>
@buf	<stdin>
@buf	<stdin>
@buf	<stdin>
@buf	<stdin>
@buf	<stdin>
@buf	<stdin>
@buf	<stdin>
@buf	<stdin>
@buf:	<stdin>
@buf:	<stdin>
@buf:	<stdin>
@buf:	<stdin>
@buf:	<stdin>
@buf:	<stdin>
@buf:	<stdin>
@buf:	<stdin>
@buf:	<stdin>
@buf:	<stdin>
@buf:	<stdin>
@buf:	<stdin>
@buf:	<stdin>
@buf:	<stdin>
@buf:	<stdin>
@buf:	<stdin>
@buf:	<stdin>
@buf:	<stdin>
@buf:	<stdin>
@buf:	<stdin>
@buf:	<stdin>
@buf:	<stdin>
@buf:	<stdin>
@buf:	<stdin>
@buffer	<stdin>
@buffer	<stdin>
@buffer	<stdin>
@buffer	<stdin>
@buffer:	<stdin>
@buffer:	<stdin>
@buffer:	<stdin>
@buflen:	<stdin>
@byte:	<stdin>
@byte:	<stdin>
@c:	<stdin>
@c:	<stdin>
@c:	<stdin>
@caam_id	<stdin>
@cable_name:	<stdin>
@cable_name:	<stdin>
@cable_name:	<stdin>
@cable_name:	<stdin>
@cable_names	<stdin>
@cable_state:	<stdin>
@cable_state:	<stdin>
@callback:	<stdin>
@callback:	<stdin>
@cbk:	<stdin>
@cdb:	<stdin>
@cdb:	<stdin>
@cellid0:	<stdin>
@cellid1:	<stdin>
@cellid2:	<stdin>
@cellid3:	<stdin>
@cfg:	<stdin>
@cfg_mem2hash:	<stdin>
@ch:	<stdin>
@chained:	<stdin>
@chan	<stdin>
@chan_mem2hash:	<stdin>
@channel	<stdin>
@channel:	<stdin>
@channel:	<stdin>
@checksum_ok:	<stdin>
@checksumming:	<stdin>
@client:	<stdin>
@client:	<stdin>
@client:	<stdin>
@client:	<stdin>
@client:	<stdin>
@client:	<stdin>
@client:	<stdin>
@clk:	<stdin>
@clk:	<stdin>
@cmd:	<stdin>
@cmd:	<stdin>
@cmd:	<stdin>
@cmd:	<stdin>
@cnfgA:	<stdin>
@cnfgB:	<stdin>
@command:	<stdin>
@complete:	<stdin>
@config:	<stdin>
@config:	<stdin>
@config:	<stdin>
@context:	<stdin>
@context:	<stdin>
@control_register:	<stdin>
@copy_back:	<stdin>
@count:	<stdin>
@count:	<stdin>
@cpu:	<stdin>
@cpu:	<stdin>
@cpu:	<stdin>
@cpu:	<stdin>
@cpu:	<stdin>
@cpu:	<stdin>
@cpu:	<stdin>
@cpu_core_id:	<stdin>
@cr	<stdin>
@cr:	<stdin>
@cr:	<stdin>
@cryp_config:	<stdin>
@cryp_crypen:	<stdin>
@cryp_unused1	<stdin>
@cryp_unused2	<stdin>
@crypt_len:	<stdin>
@csdatain:	<stdin>
@csdatain:	<stdin>
@csfull:	<stdin>
@csfull:	<stdin>
@csr[52]:	<stdin>
@csrx:	<stdin>
@ctrl_bytes:	<stdin>
@ctrldev:	<stdin>
@ctx:	<stdin>
@ctx:	<stdin>
@ctx:	<stdin>
@ctx:	<stdin>
@ctx:	<stdin>
@ctx:	<stdin>
@ctx_lock:	<stdin>
@ctx_lock:	<stdin>
@current_ctx:	<stdin>
@current_ctx:	<stdin>
@d1:	<stdin>
@d:	<stdin>
@d:	<stdin>
@data:	<stdin>
@data:	<stdin>
@data:	<stdin>
@data:	<stdin>
@data:	<stdin>
@data:	<stdin>
@data:	<stdin>
@data:	<stdin>
@data:	<stdin>
@data:	<stdin>
@data:	<stdin>
@data:	<stdin>
@data:	<stdin>
@data:	<stdin>
@data:	<stdin>
@data:	<stdin>
@data:	<stdin>
@data:	<stdin>
@data_dir:	<stdin>
@data_dir:	<stdin>
@data_format:	<stdin>
@data_length:	<stdin>
@data_length:	<stdin>
@datalen:	<stdin>
@datasize:	<stdin>
@dcr:	<stdin>
@dcr_cache:	<stdin>
@dcr_writable:	<stdin>
@desc:	<stdin>
@desc:	<stdin>
@desc:	<stdin>
@desc:	<stdin>
@desc:	<stdin>
@desc:	<stdin>
@desc:	<stdin>
@desc:	<stdin>
@dev	<stdin>
@dev	<stdin>
@dev:	<stdin>
@dev:	<stdin>
@dev:	<stdin>
@dev:	<stdin>
@dev:	<stdin>
@dev:	<stdin>
@dev:	<stdin>
@dev:	<stdin>
@dev:	<stdin>
@dev:	<stdin>
@dev:	<stdin>
@dev:	<stdin>
@dev:	<stdin>
@dev:	<stdin>
@dev:	<stdin>
@dev:	<stdin>
@dev:	<stdin>
@dev:	<stdin>
@dev:	<stdin>
@dev:	<stdin>
@dev:	<stdin>
@dev:	<stdin>
@dev:	<stdin>
@dev:	<stdin>
@dev:	<stdin>
@dev:	<stdin>
@dev:	<stdin>
@dev:	<stdin>
@dev:	<stdin>
@dev:	<stdin>
@dev:	<stdin>
@dev:	<stdin>
@dev:	<stdin>
@dev:	<stdin>
@dev_ctx:	<stdin>
@dev_id:	<stdin>
@dev_id:	<stdin>
@devdata	<stdin>
@devdata	<stdin>
@devdata	<stdin>
@devdata	<stdin>
@devdata	<stdin>
@device:	<stdin>
@device:	<stdin>
@device_allocation:	<stdin>
@device_allocation:	<stdin>
@device_data:	<stdin>
@device_data:	<stdin>
@device_data:	<stdin>
@device_data:	<stdin>
@device_data:	<stdin>
@device_data:	<stdin>
@device_data:	<stdin>
@device_data:	<stdin>
@device_data:	<stdin>
@device_data:	<stdin>
@device_data:	<stdin>
@device_data:	<stdin>
@device_data:	<stdin>
@device_data:	<stdin>
@device_data:	<stdin>
@device_data:	<stdin>
@device_data:	<stdin>
@device_data:	<stdin>
@device_data:	<stdin>
@device_data:	<stdin>
@device_data:	<stdin>
@device_data:	<stdin>
@device_data:	<stdin>
@device_data:	<stdin>
@device_data:	<stdin>
@device_data:	<stdin>
@device_data:	<stdin>
@device_data:	<stdin>
@device_data:	<stdin>
@device_list:	<stdin>
@device_list:	<stdin>
@device_state:	<stdin>
@device_state:	<stdin>
@devnum	<stdin>
@devnum:	<stdin>
@digest:	<stdin>
@digestsize:	<stdin>
@din	<stdin>
@din:	<stdin>
@din:	<stdin>
@din_reg:	<stdin>
@din_size	<stdin>
@dir:	<stdin>
@dir:	<stdin>
@dma	<stdin>
@dma:	<stdin>
@dma:	<stdin>
@dma:	<stdin>
@dma_desc:	<stdin>
@dma_len:	<stdin>
@dma_link_tbl:	<stdin>
@dma_mode:	<stdin>
@dma_req:	<stdin>
@dmacr	<stdin>
@dmacr:	<stdin>
@dout	<stdin>
@dout:	<stdin>
@dout_size	<stdin>
@driver_data:	<stdin>
@drv	<stdin>
@drv:	<stdin>
@drv:	<stdin>
@drv:	<stdin>
@drv:	<stdin>
@drv:	<stdin>
@dsr:	<stdin>
@dst:	<stdin>
@dst_chained:	<stdin>
@dst_chained:	<stdin>
@dst_chained:	<stdin>
@dst_dma:	<stdin>
@dst_nents:	<stdin>
@dst_nents:	<stdin>
@dst_nents:	<stdin>
@dst_sg_it:	<stdin>
@dst_start:	<stdin>
@ecpAFifo:	<stdin>
@ecr:	<stdin>
@edev	<stdin>
@edev	<stdin>
@edev	<stdin>
@edev	<stdin>
@edev	<stdin>
@edev:	<stdin>
@edev:	<stdin>
@edev:	<stdin>
@edev:	<stdin>
@edev:	<stdin>
@edev:	<stdin>
@edev:	<stdin>
@edev:	<stdin>
@edev:	<stdin>
@edev:	<stdin>
@edev:	<stdin>
@end_addr	<stdin>
@eppAddr:	<stdin>
@eppData0:	<stdin>
@eppData1:	<stdin>
@eppData2:	<stdin>
@eppData3:	<stdin>
@eppreg:	<stdin>
@eppreg:	<stdin>
@event:	<stdin>
@expire:	<stdin>
@extcon_name:	<stdin>
@extcon_name:	<stdin>
@fabric_context:	<stdin>
@fc:	<stdin>
@features:	<stdin>
@fifo:	<stdin>
@fifo_depth:	<stdin>
@file	<stdin>
@flags	<stdin>
@flags:	<stdin>
@flags:	<stdin>
@flags:	<stdin>
@flags:	<stdin>
@flags:	<stdin>
@flags:	<stdin>
@flags:	<stdin>
@flags:	<stdin>
@flags:	<stdin>
@flags:	<stdin>
@flags:	<stdin>
@flags:	<stdin>
@fmt:	<stdin>
@fmt:	<stdin>
@freq:	<stdin>
@freq:	<stdin>
@fsb:	<stdin>
@fsb:	<stdin>
@function:	<stdin>
@gfp:	<stdin>
@giv	<stdin>
@handle	<stdin>
@handle:	<stdin>
@handler	<stdin>
@handling_delay	<stdin>
@hash_ctx:	<stdin>
@high:	<stdin>
@high_freq:	<stdin>
@high_word:	<stdin>
@humidity:	<stdin>
@humidity:	<stdin>
@hw_desc:	<stdin>
@hw_desc:	<stdin>
@hw_desc:	<stdin>
@hw_nbytes:	<stdin>
@hw_processed_bytes:	<stdin>
@hwmon:	<stdin>
@hwmon_dev:	<stdin>
@hwmon_dev:	<stdin>
@hwmon_dev:	<stdin>
@hwmon_dev:	<stdin>
@hwmon_dev:	<stdin>
@hx:	<stdin>
@id:	<stdin>
@id:	<stdin>
@ids:	<stdin>
@ignored:	<stdin>
@imsc	<stdin>
@imsc:	<stdin>
@in:	<stdin>
@in:	<stdin>
@in:	<stdin>
@inactivity:	<stdin>
@incr:	<stdin>
@indata:	<stdin>
@index:	<stdin>
@index:	<stdin>
@index:	<stdin>
@index_bytes:	<stdin>
@index_bytes:	<stdin>
@init_value_left	<stdin>
@init_value_right	<stdin>
@init_vect_0_l	<stdin>
@init_vect_0_l:	<stdin>
@init_vect_0_r	<stdin>
@init_vect_0_r:	<stdin>
@init_vect_1_l	<stdin>
@init_vect_1_l:	<stdin>
@init_vect_1_r	<stdin>
@init_vect_1_r:	<stdin>
@init_vector_index:	<stdin>
@init_vector_value:	<stdin>
@inlen:	<stdin>
@inlen:	<stdin>
@interrupt_handled:	<stdin>
@irq	<stdin>
@irq,	<stdin>
@irq:	<stdin>
@irq:	<stdin>
@irq:	<stdin>
@irq:	<stdin>
@irq_complete:	<stdin>
@irq_func	<stdin>
@irq_func,	<stdin>
@irq_func.	<stdin>
@irq_func:	<stdin>
@irq_mode:	<stdin>
@irq_on:	<stdin>
@is_pkg_data:	<stdin>
@itcr	<stdin>
@itcr:	<stdin>
@itip	<stdin>
@itip:	<stdin>
@itop	<stdin>
@itop:	<stdin>
@iv:	<stdin>
@iv:	<stdin>
@iv_dma:	<stdin>
@iv_dma:	<stdin>
@iv_dma:	<stdin>
@key:	<stdin>
@key:	<stdin>
@key[CRYP_MAX_KEY_SIZE]:	<stdin>
@key_1_l	<stdin>
@key_1_l:	<stdin>
@key_1_r	<stdin>
@key_1_r:	<stdin>
@key_2_l	<stdin>
@key_2_l:	<stdin>
@key_2_r	<stdin>
@key_2_r:	<stdin>
@key_3_l	<stdin>
@key_3_l:	<stdin>
@key_3_r	<stdin>
@key_3_r:	<stdin>
@key_4_l	<stdin>
@key_4_l:	<stdin>
@key_4_r	<stdin>
@key_4_r:	<stdin>
@key_reg_index:	<stdin>
@key_value:	<stdin>
@keylen:	<stdin>
@keylen:	<stdin>
@keylen:	<stdin>
@keysize:	<stdin>
@kf	<stdin>
@kf,	<stdin>
@kf:	<stdin>
@last_measurement:	<stdin>
@last_status:	<stdin>
@last_update:	<stdin>
@last_update:	<stdin>
@last_updated:	<stdin>
@left:	<stdin>
@len	<stdin>
@len	<stdin>
@len	<stdin>
@len	<stdin>
@len	<stdin>
@len	<stdin>
@len:	<stdin>
@len:	<stdin>
@len:	<stdin>
@len:	<stdin>
@len:	<stdin>
@len:	<stdin>
@len:	<stdin>
@len:	<stdin>
@len:	<stdin>
@len:	<stdin>
@len:	<stdin>
@len:	<stdin>
@len:	<stdin>
@len:	<stdin>
@len:	<stdin>
@length:	<stdin>
@limit	<stdin>
@limit:	<stdin>
@limit:	<stdin>
@link_tbl:	<stdin>
@list:	<stdin>
@list:	<stdin>
@list_node:	<stdin>
@list_node:	<stdin>
@lock:	<stdin>
@lock:	<stdin>
@lock:	<stdin>
@lock:	<stdin>
@lock:	<stdin>
@low:	<stdin>
@low_freq:	<stdin>
@low_word:	<stdin>
@m:	<stdin>
@mask	<stdin>
@mask	<stdin>
@mask,	<stdin>
@mask,	<stdin>
@mask:	<stdin>
@mask:	<stdin>
@mask:	<stdin>
@mask:	<stdin>
@mask:	<stdin>
@mask:	<stdin>
@mask:	<stdin>
@may_sleep:	<stdin>
@measurements_valid:	<stdin>
@message:	<stdin>
@message:	<stdin>
@message:	<stdin>
@mis	<stdin>
@mode	<stdin>
@mode.	<stdin>
@mode:	<stdin>
@mode:	<stdin>
@mode:	<stdin>
@mode:	<stdin>
@mults_index	<stdin>
@name	<stdin>
@name:	<stdin>
@name:	<stdin>
@name:	<stdin>
@nb:	<stdin>
@nb:	<stdin>
@nb:	<stdin>
@nb:	<stdin>
@nb:	<stdin>
@nb:	<stdin>
@nb:	<stdin>
@nbytes:	<stdin>
@nents:	<stdin>
@nents:	<stdin>
@new_freq:	<stdin>
@new_prop	<stdin>
@new_prop:	<stdin>
@new_rate:	<stdin>
@new_state:	<stdin>
@next:	<stdin>
@notifier	<stdin>
@np:	<stdin>
@num_cables	<stdin>
@num_conditions	<stdin>
@number:	<stdin>
@nx_ctx:	<stdin>
@nx_ctx:	<stdin>
@nx_ctx:	<stdin>
@nx_ctx:	<stdin>
@nx_dst:	<stdin>
@obj:	<stdin>
@obj:	<stdin>
@old_freq:	<stdin>
@op:	<stdin>
@oper_mode:	<stdin>
@ops	<stdin>
@ops:	<stdin>
@out	<stdin>
@out	<stdin>
@out:	<stdin>
@out:	<stdin>
@outdata:	<stdin>
@outlen	<stdin>
@outlen	<stdin>
@outlen	<stdin>
@outlen	<stdin>
@outlen	<stdin>
@outlen	<stdin>
@outlen.	<stdin>
@outlen:	<stdin>
@outlen:	<stdin>
@outlen:	<stdin>
@p->modes	<stdin>
@p:	<stdin>
@p:	<stdin>
@p:	<stdin>
@p:	<stdin>
@p:	<stdin>
@p:	<stdin>
@p:	<stdin>
@p:	<stdin>
@p:	<stdin>
@p:	<stdin>
@p:	<stdin>
@p:	<stdin>
@p:	<stdin>
@p:	<stdin>
@p:	<stdin>
@p:	<stdin>
@p:	<stdin>
@p:	<stdin>
@p:	<stdin>
@p:	<stdin>
@p:	<stdin>
@p:	<stdin>
@p:	<stdin>
@p:	<stdin>
@p:	<stdin>
@p:	<stdin>
@p:	<stdin>
@p:	<stdin>
@p:	<stdin>
@p:	<stdin>
@p:	<stdin>
@p:	<stdin>
@p:	<stdin>
@p:	<stdin>
@p:	<stdin>
@p:	<stdin>
@p:	<stdin>
@p:	<stdin>
@p:	<stdin>
@p:	<stdin>
@p:	<stdin>
@p:	<stdin>
@p:	<stdin>
@p:	<stdin>
@p_protect_config:	<stdin>
@padding0:	<stdin>
@padding1:	<stdin>
@padding2:	<stdin>
@parport_unregister_device	<stdin>
@pcellId0	<stdin>
@pcellId1	<stdin>
@pcellId2	<stdin>
@pcellId3	<stdin>
@pdata.	<stdin>
@pdata:	<stdin>
@pdata:	<stdin>
@pdev:	<stdin>
@pdev:	<stdin>
@pdev:	<stdin>
@pdev:	<stdin>
@periphId0	<stdin>
@periphId1	<stdin>
@periphId2	<stdin>
@periphId3	<stdin>
@periphid0:	<stdin>
@periphid1:	<stdin>
@periphid2:	<stdin>
@periphid3:	<stdin>
@pf	<stdin>
@pf,	<stdin>
@pf:	<stdin>
@pll:	<stdin>
@pll:	<stdin>
@pm_event	<stdin>
@policy:	<stdin>
@policy:	<stdin>
@policy:	<stdin>
@policy:	<stdin>
@policy:	<stdin>
@policy:	<stdin>
@policy:	<stdin>
@policy:	<stdin>
@policy:	<stdin>
@policy:	<stdin>
@policy:	<stdin>
@policy:	<stdin>
@policy:	<stdin>
@policy:	<stdin>
@policy:	<stdin>
@policy:	<stdin>
@port	<stdin>
@port	<stdin>
@port:	<stdin>
@port:	<stdin>
@port:	<stdin>
@port:	<stdin>
@port:	<stdin>
@port:	<stdin>
@port:	<stdin>
@port:	<stdin>
@port:	<stdin>
@port:	<stdin>
@port:	<stdin>
@power_state:	<stdin>
@power_state:	<stdin>
@power_state_lock:	<stdin>
@power_state_spinlock:	<stdin>
@power_status:	<stdin>
@privilege_access:	<stdin>
@prop	<stdin>
@prop	<stdin>
@prop	<stdin>
@props:	<stdin>
@pword:	<stdin>
@pwr_regulator:	<stdin>
@rdata:	<stdin>
@readIntrThreshold:	<stdin>
@read_data:	<stdin>
@read_lock:	<stdin>
@read_work:	<stdin>
@recovery:	<stdin>
@reg:	<stdin>
@regs:	<stdin>
@regs:	<stdin>
@regshift:	<stdin>
@regulator:	<stdin>
@relation:	<stdin>
@relation:	<stdin>
@relation:	<stdin>
@relation:	<stdin>
@relation:	<stdin>
@req:	<stdin>
@req:	<stdin>
@req:	<stdin>
@req:	<stdin>
@req:	<stdin>
@req:	<stdin>
@restore_dev_ctx:	<stdin>
@restore_dev_state:	<stdin>
@restore_device_state:	<stdin>
@result	<stdin>
@result	<stdin>
@result:	<stdin>
@result:	<stdin>
@ris	<stdin>
@rspp:	<stdin>
@s:	<stdin>
@s:	<stdin>
@s:	<stdin>
@save_device_state:	<stdin>
@scale:	<stdin>
@se_cmd:	<stdin>
@se_cmd:	<stdin>
@se_cmd:	<stdin>
@se_cmd:	<stdin>
@se_cmd:	<stdin>
@se_sess:	<stdin>
@se_sess:	<stdin>
@se_sess:	<stdin>
@se_sess:	<stdin>
@se_sess:	<stdin>
@se_sess:	<stdin>
@se_sess:	<stdin>
@sec4_sg:	<stdin>
@sec4_sg_bytes:	<stdin>
@sec4_sg_bytes:	<stdin>
@sec4_sg_bytes:	<stdin>
@sec4_sg_dma:	<stdin>
@sec4_sg_dma:	<stdin>
@sec4_sg_dma:	<stdin>
@secure_access:	<stdin>
@sense:	<stdin>
@sense:	<stdin>
@sense:	<stdin>
@sg:	<stdin>
@sg:	<stdin>
@sg:	<stdin>
@sg_dst_left:	<stdin>
@sg_head	<stdin>
@sg_head:	<stdin>
@sg_len:	<stdin>
@sg_src	<stdin>
@sg_src	<stdin>
@sg_src:	<stdin>
@sg_src_left:	<stdin>
@sgl:	<stdin>
@sgl:	<stdin>
@sgl_bidi:	<stdin>
@sgl_bidi_count:	<stdin>
@sgl_count:	<stdin>
@sglen:	<stdin>
@sgmax	<stdin>
@sgmax:	<stdin>
@show_ecp_config	<stdin>
@show_ecp_config:	<stdin>
@size:	<stdin>
@skip:	<stdin>
@spp:	<stdin>
@spp_len:	<stdin>
@src:	<stdin>
@src_chained:	<stdin>
@src_chained:	<stdin>
@src_chained:	<stdin>
@src_len:	<stdin>
@src_nents:	<stdin>
@src_nents:	<stdin>
@src_nents:	<stdin>
@src_nents:	<stdin>
@src_sg_it:	<stdin>
@src_start:	<stdin>
@start	<stdin>
@start:	<stdin>
@start_addr	<stdin>
@start_addr	<stdin>
@start_addr:	<stdin>
@state:	<stdin>
@state:	<stdin>
@state:	<stdin>
@state:	<stdin>
@state:	<stdin>
@state:	<stdin>
@state:	<stdin>
@state:	<stdin>
@state:	<stdin>
@status	<stdin>
@status:	<stdin>
@status:	<stdin>
@status_reg:	<stdin>
@status_valid:	<stdin>
@str:	<stdin>
@str:	<stdin>
@str_reg:	<stdin>
@supply_uV:	<stdin>
@supply_uV_valid:	<stdin>
@tag:	<stdin>
@target_freq:	<stdin>
@target_freq:	<stdin>
@target_freq:	<stdin>
@target_freq:	<stdin>
@target_freq:	<stdin>
@task_addr:	<stdin>
@task_addr:	<stdin>
@temp_cr:	<stdin>
@temperature:	<stdin>
@temperature:	<stdin>
@tfm:	<stdin>
@ticks:	<stdin>
@ticks:	<stdin>
@ticks:	<stdin>
@ticks:	<stdin>
@timeout	<stdin>
@timeout	<stdin>
@timeout:	<stdin>
@timeout:	<stdin>
@timeout_msecs:	<stdin>
@tm_type:	<stdin>
@unpacked_lun:	<stdin>
@unpacked_lun:	<stdin>
@unpacked_lun:	<stdin>
@update:	<stdin>
@update_supply_work:	<stdin>
@updated:	<stdin>
@updated:	<stdin>
@usec:	<stdin>
@v	<stdin>
@val,	<stdin>
@val,	<stdin>
@val:	<stdin>
@val:	<stdin>
@val:	<stdin>
@val:	<stdin>
@val_humid:	<stdin>
@val_status:	<stdin>
@val_temp:	<stdin>
@valid:	<stdin>
@valid:	<stdin>
@valid:	<stdin>
@value:	<stdin>
@vdd:	<stdin>
@verbose_probing	<stdin>
@verbose_probing:	<stdin>
@virq:	<stdin>
@wait_for_tasks:	<stdin>
@wait_queue:	<stdin>
@writeIntrThreshold:	<stdin>
@write_data:	<stdin>
@wrkmem:	<stdin>
@wrkmem:	<stdin>
@zero_digest:	<stdin>
@zero_hash:	<stdin>
@zero_hash_size:	<stdin>
MODULE_AUTHOR("nab@Linux-iSCSI.org");	<stdin>
MODULE_AUTHOR("nab@Linux-iSCSI.org");	<stdin>
MODULE_AUTHOR("nab@Linux-iSCSI.org");	<stdin>
MODULE_AUTHOR("nab@Linux-iSCSI.org");	<stdin>
Rich.Liu@ite.com.tw\n");	<stdin>
carsten@sol.wohnheim.uni-ulm.de	<stdin>
knobi@knobisoft.de>	<stdin>
of_find_node_by_path("/cpus/cpu@0");	<stdin>
of_find_node_by_path("/cpus/cpu@0");	<stdin>
stephen.robinson@zen.co.uk)	<stdin>
