"@@@0001"	<stdin>
"@@@0001"	<stdin>
"@@@0001"	<stdin>
"@@@0001"	<stdin>
"@@@0001"	<stdin>
"@@@0020"	<stdin>
"@@@0020"	<stdin>
"@@@0968"	<stdin>
"@@@1001"	<stdin>
"@@@2001"	<stdin>
"@@@2001"	<stdin>
"@H@0001"	<stdin>
"@H@0001"	<stdin>
"@H@0001"	<stdin>
"@H@0001"	<stdin>
"@H@0001"	<stdin>
"@H@0001"	<stdin>
"@H@0020"	<stdin>
"@H@1001"	<stdin>
"@H@2001"	<stdin>
"@H@2001"	<stdin>
"@X@0001"	<stdin>
"@X@0001"	<stdin>
"@X@0001"	<stdin>
"@X@0001"	<stdin>
"@X@0001"	<stdin>
"@X@0020"	<stdin>
"@X@0020"	<stdin>
"@X@1001"	<stdin>
"@X@2001"	<stdin>
"@X@2001"	<stdin>
"A@@0001"	<stdin>
(alan@lxorguk.ukuu.org.uk)	<stdin>
(alan@lxorguk.ukuu.org.uk)	<stdin>
(audio@crystal.cirrus.com).	<stdin>
(fizban@tin.it)	<stdin>
(fokkensr@vertis.nl)	<stdin>
(fokkensr@vertis.nl)	<stdin>
(fokkensr@vertis.nl)!	<stdin>
(marte@informatik.uni-muenchen.de)	<stdin>
(michael@duck.syd.de)	<stdin>
(ola.o.lilja@stericsson.com)	<stdin>
(patb@corel.ca)	<stdin>
(ralf@linux-mips.org)	<stdin>
(rmk@arm.linux.org.uk)	<stdin>
(sailer@ife.ee.ethz.ch)	<stdin>
(sailer@ife.ee.ethz.ch)	<stdin>
(twoller@crystal.cirrus.com)	<stdin>
<James@superbug.demon.co.uk>	<stdin>
<Olaf_Giesbrecht@yahoo.de>	<stdin>
<abramo@alsa-project.org>	<stdin>
<abramo@alsa-project.org>	<stdin>
<abramo@alsa-project.org>	<stdin>
<abramo@alsa-project.org>	<stdin>
<abramo@alsa-project.org>	<stdin>
<abramo@alsa-project.org>	<stdin>
<abramo@alsa-project.org>");	<stdin>
<abramo@alsa-project.org>");	<stdin>
<abramo@alsa-project.org>");	<stdin>
<abramo@alsa-project.org>");	<stdin>
<acme@conectiva.com.br>	<stdin>
<acme@conectiva.com.br>	<stdin>
<acme@conectiva.com.br>	<stdin>
<alan@lxorguk.ukuu.org.uk>	<stdin>
<andrewtv@usa.net>");	<stdin>
<andrewtv@usa.net>");	<stdin>
<andrewtv@usa.net>");	<stdin>
<andrewtv@usa.net>");	<stdin>
<apatard@mandriva.com>	<stdin>
<apatard@mandriva.com>	<stdin>
<apatard@mandriva.com>	<stdin>
<apatard@mandriva.com>	<stdin>
<arnaud.patard@rtp-net.org>	<stdin>
<arnaud.patard@rtp-net.org>	<stdin>
<arnaud.patard@rtp-net.org>	<stdin>
<arnaud.patard@rtp-net.org>	<stdin>
<arnaud.patard@rtp-net.org>");	<stdin>
<arnaud.patard@rtp-net.org>");	<stdin>
<arnaud.patard@rtp-net.org>");	<stdin>
<arnaud.patard@rtp-net.org>");	<stdin>
<barbcode@xmen.cis.fordham.edu>	<stdin>
<barbcode@xmen.cis.fordham.edu>	<stdin>
<barbcode@xmen.cis.fordham.edu>	<stdin>
<bin@bash.info>	<stdin>
<bkz@linux-ide.org>	<stdin>
<bkz@linux-ide.org>	<stdin>
<bkz@linux-ide.org>	<stdin>
<broonie@opensource.wolfsonmicro.com>	<stdin>
<broonie@opensource.wolfsonmicro.com>");	<stdin>
<cananian@alumni.princeton.edu>	<stdin>
<carlos@kenati.com>	<stdin>
<carlos@kenati.com>	<stdin>
<carlos@kenati.com>	<stdin>
<carlos@kenati.com>");	<stdin>
<charles@cooper-street.com>	<stdin>
<charles@cooper-street.com>");	<stdin>
<chhellwig@infradead.org>	<stdin>
<clemens@ladisch.de>	<stdin>
<clemens@ladisch.de>	<stdin>
<clemens@ladisch.de>	<stdin>
<clemens@ladisch.de>	<stdin>
<clemens@ladisch.de>");	<stdin>
<clemens@ladisch.de>");	<stdin>
<clemens@ladisch.de>");	<stdin>
<dafastidio@libero.it>	<stdin>
<dafastidio@libero.it>	<stdin>
<dafastidio@libero.it>	<stdin>
<dafastidio@libero.it>	<stdin>
<dafastidio@libero.it>	<stdin>
<dafastidio@libero.it>	<stdin>
<dafastidio@libero.it>");	<stdin>
<dafastidio@libero.it>");	<stdin>
<dafastidio@libero.it>");	<stdin>
<dafastidio@libero.it>");	<stdin>
<dumas@linux.eu.org>	<stdin>
<emillo@libero.it>	<stdin>
<fishbach@pool.informatik.rwth-aachen.de>	<stdin>
<fishbach@pool.informatik.rwth-aachen.de>,	<stdin>
<fizban@tin.it>");	<stdin>
<fmandarino@endrelia.com>	<stdin>
<fmandarino@endrelia.com>	<stdin>
<fmandarino@endrelia.com>	<stdin>
<fmandarino@endrelia.com>	<stdin>
<fvdpol@coil.demon.nl>	<stdin>
<fvdpol@coil.demon.nl>	<stdin>
<fvdpol@coil.demon.nl>	<stdin>
<fvdpol@coil.demon.nl>	<stdin>
<fvdpol@coil.demon.nl>	<stdin>
<fvdpol@coil.demon.nl>	<stdin>
<fvdpol@coil.demon.nl>	<stdin>
<fvdpol@coil.demon.nl>	<stdin>
<fvdpol@coil.demon.nl>	<stdin>
<fvdpol@coil.demon.nl>	<stdin>
<fvdpol@coil.demon.nl>	<stdin>
<fvdpol@coil.demon.nl>	<stdin>
<fvdpol@coil.demon.nl>	<stdin>
<fvdpol@coil.demon.nl>	<stdin>
<fvdpol@coil.demon.nl>	<stdin>
<fvdpol@coil.demon.nl>	<stdin>
<fvdpol@coil.demon.nl>	<stdin>
<fvdpol@coil.demon.nl>	<stdin>
<fvdpol@coil.demon.nl>	<stdin>
<fvdpol@coil.demon.nl>	<stdin>
<fvdpol@coil.demon.nl>,	<stdin>
<fvdpol@coil.demon.nl>,	<stdin>
<g.liakhovetski@gmx.de>	<stdin>
<g.liakhovetski@gmx.de>	<stdin>
<g.liakhovetski@gmx.de>	<stdin>
<g.liakhovetski@gmx.de>	<stdin>
<g.liakhovetski@gmx.de>");	<stdin>
<galatalt@stuy.edu>	<stdin>
<gbritton@CapAccess.org>.	<stdin>
<gdm@gedamo.demon.co.uk>	<stdin>
<gdm@gedamo.demon.co.uk>	<stdin>
<gstalusan@uwaterloo.ca>	<stdin>
<gstalusan@uwaterloo.ca>");	<stdin>
<iwai@ww.uni-erlangen.de>	<stdin>
<jgarzik@pobox.com>	<stdin>
<jgarzik@pobox.com>	<stdin>
<johannes@sipsolutions.net>	<stdin>
<johannes@sipsolutions.net>	<stdin>
<johannes@sipsolutions.net>	<stdin>
<johannes@sipsolutions.net>	<stdin>
<johannes@sipsolutions.net>	<stdin>
<johannes@sipsolutions.net>	<stdin>
<johannes@sipsolutions.net>	<stdin>
<johannes@sipsolutions.net>	<stdin>
<johannes@sipsolutions.net>	<stdin>
<johannes@sipsolutions.net>	<stdin>
<johannes@sipsolutions.net>	<stdin>
<johannes@sipsolutions.net>	<stdin>
<johannes@sipsolutions.net>	<stdin>
<johannes@sipsolutions.net>	<stdin>
<johannes@sipsolutions.net>	<stdin>
<johannes@sipsolutions.net>	<stdin>
<johannes@sipsolutions.net>	<stdin>
<johannes@sipsolutions.net>	<stdin>
<johannes@sipsolutions.net>");	<stdin>
<johannes@sipsolutions.net>");	<stdin>
<johannes@sipsolutions.net>");	<stdin>
<johannes@sipsolutions.net>");	<stdin>
<johannes@sipsolutions.net>");	<stdin>
<johannes@sipsolutions.net>");	<stdin>
<johannes@sipsolutions.net>");	<stdin>
<jwoithe@just42.net>:	<stdin>
<kbob@sgi.com>");	<stdin>
<knan@mo.himolde.no>	<stdin>
<kristoffer.karlsson@stericsson.com>	<stdin>
<krzysztof.h1@wp.pl>	<stdin>
<krzysztof.h1@wp.pl>	<stdin>
<krzysztof.h1@wp.pl>");	<stdin>
<kuninori.morimoto.gx@renesas.com>	<stdin>
<kuninori.morimoto.gx@renesas.com>");	<stdin>
<kxp@atl.hp.com>	<stdin>
<ladis@linux-mips.org>	<stdin>
<ladis@linux-mips.org>,	<stdin>
<linux@rainbow-software.org>");	<stdin>
<lrg@slimlogic.co.uk>	<stdin>
<lrg@slimlogic.co.uk>	<stdin>
<mano@roarinelk.homelinux.net>	<stdin>
<mano@roarinelk.homelinux.net>	<stdin>
<mano@roarinelk.homelinux.net>	<stdin>
<mano@roarinelk.homelinux.net>	<stdin>
<mano@roarinelk.homelinux.net>");	<stdin>
<mano@roarinelk.homelinux.net>");	<stdin>
<mano@roarinelk.homelinux.net>");	<stdin>
<mano@roarinelk.homelinux.net>");	<stdin>
<martin-langer@gmx.de>	<stdin>
<martin-langer@gmx.de>");	<stdin>
<morimoto.kuninori@renesas.com>	<stdin>
<morimoto.kuninori@renesas.com>");	<stdin>
<ola.o.lilja@stericsson.com>	<stdin>
<ola.o.lilja@stericsson.com>,	<stdin>
<ola.o.lilja@stericsson.com>,	<stdin>
<ola.o.lilja@stericsson.com>,	<stdin>
<ola.o.lilja@stericsson.com>,	<stdin>
<ola.o.lilja@stericsson.com>,	<stdin>
<ola.o.lilja@stericsson.com>,	<stdin>
<ola.o.lilja@stericsson.com>,	<stdin>
<paul@laufernet.com>	<stdin>
<paul@laufernet.com>	<stdin>
<pbd@op.net>	<stdin>
<pbd@op.net>	<stdin>
<pbd@op.net>");	<stdin>
<perex@perex.cz>	<stdin>
<perex@perex.cz>	<stdin>
<perex@perex.cz>	<stdin>
<perex@perex.cz>	<stdin>
<perex@perex.cz>	<stdin>
<perex@perex.cz>	<stdin>
<perex@perex.cz>	<stdin>
<perex@perex.cz>	<stdin>
<perex@perex.cz>	<stdin>
<perex@perex.cz>	<stdin>
<perex@perex.cz>	<stdin>
<perex@perex.cz>	<stdin>
<perex@perex.cz>	<stdin>
<perex@perex.cz>	<stdin>
<perex@perex.cz>	<stdin>
<perex@perex.cz>	<stdin>
<perex@perex.cz>	<stdin>
<perex@perex.cz>	<stdin>
<perex@perex.cz>	<stdin>
<perex@perex.cz>	<stdin>
<perex@perex.cz>	<stdin>
<perex@perex.cz>	<stdin>
<perex@perex.cz>	<stdin>
<perex@perex.cz>	<stdin>
<perex@perex.cz>	<stdin>
<perex@perex.cz>	<stdin>
<perex@perex.cz>	<stdin>
<perex@perex.cz>	<stdin>
<perex@perex.cz>	<stdin>
<perex@perex.cz>	<stdin>
<perex@perex.cz>	<stdin>
<perex@perex.cz>	<stdin>
<perex@perex.cz>	<stdin>
<perex@perex.cz>	<stdin>
<perex@perex.cz>	<stdin>
<perex@perex.cz>	<stdin>
<perex@perex.cz>	<stdin>
<perex@perex.cz>	<stdin>
<perex@perex.cz>	<stdin>
<perex@perex.cz>	<stdin>
<perex@perex.cz>	<stdin>
<perex@perex.cz>	<stdin>
<perex@perex.cz>	<stdin>
<perex@perex.cz>	<stdin>
<perex@perex.cz>	<stdin>
<perex@perex.cz>	<stdin>
<perex@perex.cz>	<stdin>
<perex@perex.cz>	<stdin>
<perex@perex.cz>	<stdin>
<perex@perex.cz>	<stdin>
<perex@perex.cz>	<stdin>
<perex@perex.cz>	<stdin>
<perex@perex.cz>	<stdin>
<perex@perex.cz>	<stdin>
<perex@perex.cz>	<stdin>
<perex@perex.cz>	<stdin>
<perex@perex.cz>	<stdin>
<perex@perex.cz>	<stdin>
<perex@perex.cz>	<stdin>
<perex@perex.cz>	<stdin>
<perex@perex.cz>	<stdin>
<perex@perex.cz>	<stdin>
<perex@perex.cz>	<stdin>
<perex@perex.cz>	<stdin>
<perex@perex.cz>	<stdin>
<perex@perex.cz>	<stdin>
<perex@perex.cz>	<stdin>
<perex@perex.cz>	<stdin>
<perex@perex.cz>	<stdin>
<perex@perex.cz>	<stdin>
<perex@perex.cz>	<stdin>
<perex@perex.cz>	<stdin>
<perex@perex.cz>");	<stdin>
<perex@perex.cz>");	<stdin>
<perex@perex.cz>");	<stdin>
<perex@perex.cz>");	<stdin>
<perex@perex.cz>");	<stdin>
<perex@perex.cz>");	<stdin>
<perex@perex.cz>");	<stdin>
<perex@perex.cz>");	<stdin>
<perex@perex.cz>");	<stdin>
<perex@perex.cz>");	<stdin>
<perex@perex.cz>");	<stdin>
<perex@perex.cz>");	<stdin>
<perex@perex.cz>");	<stdin>
<perex@perex.cz>");	<stdin>
<perex@perex.cz>");	<stdin>
<perex@perex.cz>");	<stdin>
<perex@perex.cz>");	<stdin>
<perex@perex.cz>");	<stdin>
<perex@perex.cz>");	<stdin>
<perex@perex.cz>");	<stdin>
<perex@perex.cz>");	<stdin>
<perex@perex.cz>");	<stdin>
<perex@perex.cz>,	<stdin>
<perex@perex.cz>,	<stdin>
<perex@perex.cz>,	<stdin>
<perex@perex.cz>,	<stdin>
<perex@perex.cz>,	<stdin>
<perex@perex.cz>,	<stdin>
<perex@perex.cz>\n");	<stdin>
<pierre-louis.bossart@linux.intel.com>	<stdin>
<rainer.wiesner@01019freenet.de>	<stdin>
<rankinc@zipworld.com.au>	<stdin>
<rankinc@zipworld.com.au>	<stdin>
<richard@openedhand.com>	<stdin>
<rmk@arm.linux.org.uk>	<stdin>
<rmk@arm.linux.org.uk>	<stdin>
<roger.xr.nilsson@stericsson.com>	<stdin>
<roger.xr.nilsson@stericsson.com>	<stdin>
<roger.xr.nilsson@stericsson.com>	<stdin>
<roger.xr.nilsson@stericsson.com>	<stdin>
<roger.xr.nilsson@stericsson.com>,	<stdin>
<sandeep.kaushik@st.com>	<stdin>
<sedji.gaouaou@atmel.com>	<stdin>
<sedji.gaouaou@atmel.com>	<stdin>
<sedji.gaouaou@atmel.com>	<stdin>
<sedji.gaouaou@atmel.com>	<stdin>
<sedji.gaouaou@atmel.com>	<stdin>
<sedji.gaouaou@atmel.com>");	<stdin>
<sedji.gaouaou@atmel.com>");	<stdin>
<sjg95@unixfe.rl.ac.uk>	<stdin>
<slapin@ossfans.org>	<stdin>
<slapin@ossfans.org>");	<stdin>
<stas@esc.kharkov.com>	<stdin>
<stas@esc.kharkov.com>	<stdin>
<steve@parabola.demon.co.uk>	<stdin>
<steve@parabola.demon.co.uk>	<stdin>
<tiwai@suse.de>	<stdin>
<tiwai@suse.de>	<stdin>
<tiwai@suse.de>	<stdin>
<tiwai@suse.de>	<stdin>
<tiwai@suse.de>	<stdin>
<tiwai@suse.de>	<stdin>
<tiwai@suse.de>	<stdin>
<tiwai@suse.de>	<stdin>
<tiwai@suse.de>	<stdin>
<tiwai@suse.de>	<stdin>
<tiwai@suse.de>	<stdin>
<tiwai@suse.de>	<stdin>
<tiwai@suse.de>	<stdin>
<tiwai@suse.de>	<stdin>
<tiwai@suse.de>	<stdin>
<tiwai@suse.de>	<stdin>
<tiwai@suse.de>	<stdin>
<tiwai@suse.de>	<stdin>
<tiwai@suse.de>	<stdin>
<tiwai@suse.de>	<stdin>
<tiwai@suse.de>	<stdin>
<tiwai@suse.de>	<stdin>
<tiwai@suse.de>	<stdin>
<tiwai@suse.de>	<stdin>
<tiwai@suse.de>	<stdin>
<tiwai@suse.de>	<stdin>
<tiwai@suse.de>	<stdin>
<tiwai@suse.de>	<stdin>
<tiwai@suse.de>	<stdin>
<tiwai@suse.de>	<stdin>
<tiwai@suse.de>	<stdin>
<tiwai@suse.de>	<stdin>
<tiwai@suse.de>	<stdin>
<tiwai@suse.de>	<stdin>
<tiwai@suse.de>	<stdin>
<tiwai@suse.de>	<stdin>
<tiwai@suse.de>	<stdin>
<tiwai@suse.de>	<stdin>
<tiwai@suse.de>	<stdin>
<tiwai@suse.de>	<stdin>
<tiwai@suse.de>	<stdin>
<tiwai@suse.de>	<stdin>
<tiwai@suse.de>	<stdin>
<tiwai@suse.de>");	<stdin>
<tiwai@suse.de>");	<stdin>
<tiwai@suse.de>");	<stdin>
<tiwai@suse.de>");	<stdin>
<tiwai@suse.de>");	<stdin>
<tiwai@suse.de>");	<stdin>
<tiwai@suse.de>,	<stdin>
<tiwai@suse.de>,	<stdin>
<tiwai@suse.de>,	<stdin>
<tiwai@suse.de>,	<stdin>
<tiwai@suse.de>,	<stdin>
<tj.trevelyan@gmail.com>	<stdin>
<torsten.schenk@zoho.com>	<stdin>
<tsbogend@alpha.fanken.de>	<stdin>
<tsbogend@alpha.franken.de>	<stdin>
<tsbogend@alpha.franken.de>	<stdin>
<ulfc@bun.falkenberg.se>	<stdin>
<uros@kss-loka.si>	<stdin>
<uros@kss-loka.si>	<stdin>
<uros@kss-loka.si>	<stdin>
<uros@kss-loka.si>	<stdin>
<uros@kss-loka.si>");	<stdin>
<uros@kss-loka.si>");	<stdin>
<vinod.koul@linux.intel.com>	<stdin>
<vinod.koul@linux.intel.com>");	<stdin>
<vivien.chappelier@linux-mips.org>	<stdin>
<vivien.chappelier@linux-mips.org>	<stdin>
<vivien.chappelier@linux-mips.org>");	<stdin>
<vladimir.michl@upol.cz>	<stdin>
<vladimir.michl@upol.cz>	<stdin>
<voice.shen@atmel.com>	<stdin>
<voice.shen@atmel.com>");	<stdin>
@_template:	<stdin>
@a:	<stdin>
@a:	<stdin>
@a:	<stdin>
@access:	<stdin>
@access:	<stdin>
@access:	<stdin>
@active:	<stdin>
@active:	<stdin>
@active:	<stdin>
@add_on_replace:	<stdin>
@add_on_replace:	<stdin>
@add_on_replace:	<stdin>
@addr:	<stdin>
@addr_bits:	<stdin>
@alts:	<stdin>
@arg:	<stdin>
@b:	<stdin>
@b:	<stdin>
@b:	<stdin>
@base_rate:	<stdin>
@best:	<stdin>
@buffer:	<stdin>
@buffer:	<stdin>
@buffer:	<stdin>
@buffer:	<stdin>
@buffer:	<stdin>
@c:	<stdin>
@c:	<stdin>
@c:	<stdin>
@can_sleep:	<stdin>
@capture_count:	<stdin>
@capture_count:	<stdin>
@capture_count:	<stdin>
@capture_count:	<stdin>
@card:	<stdin>
@card:	<stdin>
@card:	<stdin>
@card:	<stdin>
@card:	<stdin>
@card:	<stdin>
@card:	<stdin>
@card:	<stdin>
@card:	<stdin>
@card:	<stdin>
@card:	<stdin>
@card:	<stdin>
@card:	<stdin>
@card:	<stdin>
@card:	<stdin>
@card:	<stdin>
@card:	<stdin>
@card:	<stdin>
@card:	<stdin>
@card:	<stdin>
@card:	<stdin>
@card:	<stdin>
@card:	<stdin>
@card:	<stdin>
@card:	<stdin>
@card:	<stdin>
@card:	<stdin>
@card:	<stdin>
@card:	<stdin>
@card:	<stdin>
@card:	<stdin>
@card:	<stdin>
@card:	<stdin>
@card:	<stdin>
@card:	<stdin>
@card:	<stdin>
@card:	<stdin>
@card:	<stdin>
@card:	<stdin>
@card:	<stdin>
@card:	<stdin>
@card:	<stdin>
@card:	<stdin>
@card:	<stdin>
@card:	<stdin>
@card:	<stdin>
@card:	<stdin>
@card:	<stdin>
@card:	<stdin>
@card:	<stdin>
@card:	<stdin>
@card:	<stdin>
@card:	<stdin>
@card:	<stdin>
@card:	<stdin>
@card:	<stdin>
@card_ret:	<stdin>
@channels:	<stdin>
@channels:	<stdin>
@channels:	<stdin>
@channels:	<stdin>
@chip:	<stdin>
@chmap:	<stdin>
@clk_id:	<stdin>
@clk_id:	<stdin>
@cmd:	<stdin>
@codec:	<stdin>
@codec:	<stdin>
@codec:	<stdin>
@codec:	<stdin>
@codec:	<stdin>
@codec:	<stdin>
@codec:	<stdin>
@codec:	<stdin>
@codec:	<stdin>
@codec:	<stdin>
@codec:	<stdin>
@codec:	<stdin>
@codec:	<stdin>
@codec:	<stdin>
@codec:	<stdin>
@component:	<stdin>
@compr:	<stdin>
@cond:	<stdin>
@cond:	<stdin>
@cond:	<stdin>
@cond:	<stdin>
@cond:	<stdin>
@cond:	<stdin>
@cond:	<stdin>
@control:	<stdin>
@control:	<stdin>
@control:	<stdin>
@control:	<stdin>
@controls:	<stdin>
@controls:	<stdin>
@controls:	<stdin>
@controls:	<stdin>
@count:	<stdin>
@count:	<stdin>
@count:	<stdin>
@count:	<stdin>
@count:	<stdin>
@count:	<stdin>
@count:	<stdin>
@count:	<stdin>
@count:	<stdin>
@dai:	<stdin>
@dai:	<stdin>
@dai:	<stdin>
@dai:	<stdin>
@dai:	<stdin>
@dai:	<stdin>
@dai:	<stdin>
@dai:	<stdin>
@dai:	<stdin>
@dai:	<stdin>
@dai:	<stdin>
@dai:	<stdin>
@dai:	<stdin>
@data:	<stdin>
@data:	<stdin>
@data:	<stdin>
@data:	<stdin>
@data_bits:	<stdin>
@denp:	<stdin>
@denp:	<stdin>
@dep:	<stdin>
@dest:	<stdin>
@dev:	<stdin>
@dev:	<stdin>
@device:	<stdin>
@device:	<stdin>
@device:	<stdin>
@device:	<stdin>
@device:	<stdin>
@device:	<stdin>
@device:	<stdin>
@device:	<stdin>
@device:	<stdin>
@device:	<stdin>
@device:	<stdin>
@device:	<stdin>
@device_data:	<stdin>
@device_data:	<stdin>
@device_data:	<stdin>
@device_data:	<stdin>
@device_data:	<stdin>
@device_data:	<stdin>
@device_data:	<stdin>
@device_data:	<stdin>
@dir:	<stdin>
@dir:	<stdin>
@dir:	<stdin>
@dir:	<stdin>
@dir:	<stdin>
@dir:	<stdin>
@dir:	<stdin>
@dir:	<stdin>
@dir:	<stdin>
@dir:	<stdin>
@dir:	<stdin>
@direction:	<stdin>
@direction:	<stdin>
@dirn:	<stdin>
@div:	<stdin>
@div_id:	<stdin>
@dma:	<stdin>
@dma:	<stdin>
@dma:	<stdin>
@dmab:	<stdin>
@dmab:	<stdin>
@dmab:	<stdin>
@dmab:	<stdin>
@dmab:	<stdin>
@dst:	<stdin>
@dst:	<stdin>
@dst_id:	<stdin>
@dst_id:	<stdin>
@dst_id:	<stdin>
@entry:	<stdin>
@entry:	<stdin>
@entryp:	<stdin>
@ep:	<stdin>
@ep:	<stdin>
@ep:	<stdin>
@ep:	<stdin>
@ep:	<stdin>
@ep:	<stdin>
@ep:	<stdin>
@ep_num:	<stdin>
@extra_size:	<stdin>
@f_ops:	<stdin>
@file:	<stdin>
@file:	<stdin>
@file:	<stdin>
@file:	<stdin>
@file:	<stdin>
@file:	<stdin>
@fmt:	<stdin>
@fmt:	<stdin>
@fmt:	<stdin>
@fn:	<stdin>
@format:	<stdin>
@format:	<stdin>
@format:	<stdin>
@format:	<stdin>
@format:	<stdin>
@format:	<stdin>
@format:	<stdin>
@format:	<stdin>
@format:	<stdin>
@format:	<stdin>
@fp:	<stdin>
@freq:	<stdin>
@freq:	<stdin>
@freq_in:	<stdin>
@freq_in:	<stdin>
@freq_out:	<stdin>
@freq_out:	<stdin>
@func:	<stdin>
@gfp_flags:	<stdin>
@hook:	<stdin>
@hw:	<stdin>
@i:	<stdin>
@i:	<stdin>
@i:	<stdin>
@i:	<stdin>
@id:	<stdin>
@id:	<stdin>
@id:	<stdin>
@id:	<stdin>
@id:	<stdin>
@id:	<stdin>
@id:	<stdin>
@id:	<stdin>
@id:	<stdin>
@id:	<stdin>
@id:	<stdin>
@id:	<stdin>
@id:	<stdin>
@id:	<stdin>
@id:	<stdin>
@id:	<stdin>
@id:	<stdin>
@id:	<stdin>
@id:	<stdin>
@id:	<stdin>
@id:	<stdin>
@idx:	<stdin>
@info	<stdin>
@info	<stdin>
@info	<stdin>
@info->access.	<stdin>
@info->access.	<stdin>
@info->access.	<stdin>
@info:	<stdin>
@info:	<stdin>
@info:	<stdin>
@info_ret:	<stdin>
@input_count:	<stdin>
@items:	<stdin>
@items:	<stdin>
@items:	<stdin>
@jack:	<stdin>
@jack:	<stdin>
@jack:	<stdin>
@jjack:	<stdin>
@k:	<stdin>
@k:	<stdin>
@kcontrol	<stdin>
@kcontrol:	<stdin>
@kcontrol:	<stdin>
@kcontrol:	<stdin>
@kcontrol:	<stdin>
@kcontrol:	<stdin>
@kcontrol:	<stdin>
@kcontrol:	<stdin>
@kcontrol:	<stdin>
@kcontrol:	<stdin>
@kcontrol:	<stdin>
@kcontrol:	<stdin>
@kcontrol:	<stdin>
@kcontrol:	<stdin>
@kcontrol:	<stdin>
@kcontrol:	<stdin>
@kcontrol:	<stdin>
@kcontrol:	<stdin>
@kcontrol:	<stdin>
@kcontrol:	<stdin>
@kcontrol:	<stdin>
@kcontrol:	<stdin>
@kcontrol:	<stdin>
@kcontrol:	<stdin>
@kcontrol:	<stdin>
@kcontrol:	<stdin>
@kcontrol:	<stdin>
@kcontrol:	<stdin>
@kcontrol:	<stdin>
@kcontrol:	<stdin>
@kcontrol:	<stdin>
@kcontrol:	<stdin>
@kcontrol:	<stdin>
@kcontrol:	<stdin>
@kcontrol:	<stdin>
@kcontrol:	<stdin>
@kcontrol:	<stdin>
@kcontrol:	<stdin>
@keytype:	<stdin>
@l:	<stdin>
@len:	<stdin>
@len:	<stdin>
@line:	<stdin>
@list:	<stdin>
@list:	<stdin>
@list:	<stdin>
@long_name:	<stdin>
@mask:	<stdin>
@mask:	<stdin>
@mask:	<stdin>
@mask:	<stdin>
@mask:	<stdin>
@mask:	<stdin>
@max:	<stdin>
@max:	<stdin>
@max:	<stdin>
@max:	<stdin>
@max_channels:	<stdin>
@min:	<stdin>
@minor:	<stdin>
@mode:	<stdin>
@module:	<stdin>
@module:	<stdin>
@msbits:	<stdin>
@mute:	<stdin>
@name:	<stdin>
@name:	<stdin>
@name:	<stdin>
@name:	<stdin>
@name:	<stdin>
@name:	<stdin>
@name:	<stdin>
@names	<stdin>
@names	<stdin>
@names	<stdin>
@names:	<stdin>
@names:	<stdin>
@names:	<stdin>
@ncontrol:	<stdin>
@ncontrol:	<stdin>
@ncontrol:	<stdin>
@nid:	<stdin>
@num:	<stdin>
@num_controls:	<stdin>
@num_controls:	<stdin>
@num_controls:	<stdin>
@num_controls:	<stdin>
@numid:	<stdin>
@numid:	<stdin>
@numid:	<stdin>
@nump:	<stdin>
@nump:	<stdin>
@offset:	<stdin>
@offset:	<stdin>
@ops:	<stdin>
@ops:	<stdin>
@ops:	<stdin>
@ops:	<stdin>
@ops:	<stdin>
@output_count:	<stdin>
@params	<stdin>
@params	<stdin>
@params	<stdin>
@params	<stdin>
@params.	<stdin>
@params.	<stdin>
@params:	<stdin>
@params:	<stdin>
@params:	<stdin>
@params:	<stdin>
@params:	<stdin>
@params:	<stdin>
@params:	<stdin>
@params:	<stdin>
@params:	<stdin>
@params:	<stdin>
@parent:	<stdin>
@parent:	<stdin>
@parent:	<stdin>
@pci:	<stdin>
@pcm:	<stdin>
@pcm:	<stdin>
@pcm:	<stdin>
@pcm:	<stdin>
@pcm:	<stdin>
@pcm:	<stdin>
@pcm:	<stdin>
@pcm:	<stdin>
@pcm:	<stdin>
@pcm:	<stdin>
@pcm:	<stdin>
@pcm:	<stdin>
@pcm:	<stdin>
@pcm:	<stdin>
@pcm_format:	<stdin>
@period_bytes:	<stdin>
@platform:	<stdin>
@platform:	<stdin>
@platform:	<stdin>
@playback_count:	<stdin>
@playback_count:	<stdin>
@playback_count:	<stdin>
@playback_count:	<stdin>
@pll_id:	<stdin>
@pll_id:	<stdin>
@power_state:	<stdin>
@prefix:	<stdin>
@private:	<stdin>
@private_data:	<stdin>
@private_data:	<stdin>
@private_data:	<stdin>
@private_data:	<stdin>
@private_data:	<stdin>
@private_value:	<stdin>
@ptr:	<stdin>
@r:	<stdin>
@r:	<stdin>
@rate:	<stdin>
@rate:	<stdin>
@rate_bit:	<stdin>
@rats:	<stdin>
@rats:	<stdin>
@rats_count:	<stdin>
@rats_count:	<stdin>
@reg:	<stdin>
@reg:	<stdin>
@reg:	<stdin>
@reg:	<stdin>
@reg:	<stdin>
@reg:	<stdin>
@rhwdep:	<stdin>
@rmidi:	<stdin>
@rpcm:	<stdin>
@rpcm:	<stdin>
@rpcm:	<stdin>
@rpcm:	<stdin>
@rrawmidi:	<stdin>
@runtime:	<stdin>
@runtime:	<stdin>
@runtime:	<stdin>
@runtime:	<stdin>
@runtime:	<stdin>
@runtime:	<stdin>
@runtime:	<stdin>
@runtime:	<stdin>
@runtime:	<stdin>
@runtime:	<stdin>
@runtime:	<stdin>
@runtime:	<stdin>
@runtime:	<stdin>
@rx_mask:	<stdin>
@rx_num:	<stdin>
@rx_slot:	<stdin>
@samples:	<stdin>
@samples:	<stdin>
@sender:	<stdin>
@size:	<stdin>
@size:	<stdin>
@size:	<stdin>
@size:	<stdin>
@size:	<stdin>
@size:	<stdin>
@size:	<stdin>
@size:	<stdin>
@size:	<stdin>
@slot_width:	<stdin>
@slots:	<stdin>
@soc_card:	<stdin>
@source:	<stdin>
@source:	<stdin>
@source:	<stdin>
@src:	<stdin>
@src:	<stdin>
@src:	<stdin>
@src_id:	<stdin>
@src_id:	<stdin>
@src_id:	<stdin>
@state:	<stdin>
@status:	<stdin>
@step:	<stdin>
@stream:	<stdin>
@stream:	<stdin>
@stream:	<stdin>
@stream:	<stdin>
@substream:	<stdin>
@substream:	<stdin>
@substream:	<stdin>
@substream:	<stdin>
@substream:	<stdin>
@substream:	<stdin>
@substream:	<stdin>
@substream:	<stdin>
@substream:	<stdin>
@substream:	<stdin>
@substream:	<stdin>
@substream:	<stdin>
@substream:	<stdin>
@substream:	<stdin>
@substream:	<stdin>
@substream:	<stdin>
@substream:	<stdin>
@substream:	<stdin>
@substream:	<stdin>
@substream:	<stdin>
@substream:	<stdin>
@substream_count:	<stdin>
@substream_count:	<stdin>
@sync_ep:	<stdin>
@tlv	<stdin>
@tlv:	<stdin>
@tristate:	<stdin>
@tx_mask:	<stdin>
@tx_num:	<stdin>
@tx_slot:	<stdin>
@type:	<stdin>
@type:	<stdin>
@type:	<stdin>
@type:	<stdin>
@type:	<stdin>
@type:	<stdin>
@type:	<stdin>
@type:	<stdin>
@type:	<stdin>
@type:	<stdin>
@type:	<stdin>
@type:	<stdin>
@ucontrol:	<stdin>
@ucontrol:	<stdin>
@ucontrol:	<stdin>
@ucontrol:	<stdin>
@ucontrol:	<stdin>
@ucontrol:	<stdin>
@ucontrol:	<stdin>
@ucontrol:	<stdin>
@ucontrol:	<stdin>
@ucontrol:	<stdin>
@ucontrol:	<stdin>
@ucontrol:	<stdin>
@ucontrol:	<stdin>
@ucontrol:	<stdin>
@ucontrol:	<stdin>
@uinfo:	<stdin>
@uinfo:	<stdin>
@uinfo:	<stdin>
@uinfo:	<stdin>
@uinfo:	<stdin>
@uinfo:	<stdin>
@uinfo:	<stdin>
@uinfo:	<stdin>
@urb:	<stdin>
@v:	<stdin>
@val:	<stdin>
@val:	<stdin>
@val:	<stdin>
@value:	<stdin>
@value:	<stdin>
@value:	<stdin>
@var	<stdin>
@var	<stdin>
@var	<stdin>
@var	<stdin>
@var:	<stdin>
@var:	<stdin>
@var:	<stdin>
@var:	<stdin>
@var:	<stdin>
@var:	<stdin>
@var:	<stdin>
@var:	<stdin>
@var:	<stdin>
@var:	<stdin>
@var:	<stdin>
@var:	<stdin>
@var:	<stdin>
@var:	<stdin>
@var:	<stdin>
@var:	<stdin>
@var:	<stdin>
@var:	<stdin>
@var:	<stdin>
@vendor:	<stdin>
@width:	<stdin>
@xid:	<stdin>
A@@0001,	<stdin>
MODULE_SUPPORTED_DEVICE("{{C-Media,CMI8330,isapnp:{CMI0001,@@@0001,@X@0001}}}");	<stdin>
andy@guildsoftware.com	<stdin>
annabellesgarden@yahoo.de	<stdin>
ctm@ardi.com	<stdin>
fokkensr@vertis.nl	<stdin>
hooft@chem.ruu.nl	<stdin>
lrg@slimlogic.co.uk");	<stdin>
marco@driq.home.usn.nl:	<stdin>
sedji.gaouaou@atmel.com,	<stdin>
zezo@inet.bg	<stdin>
{.id="@@@0001"},	<stdin>
{.id="@@@0001"},	<stdin>
{.id="@@@0001"},	<stdin>
{.id="@@@0001"},	<stdin>
{.id="@@@0020"},	<stdin>
{.id="@@@1001"},	<stdin>
{.id="@@@2001"},	<stdin>
{.id="@@@2001"},	<stdin>
{.id="@H@0001"},	<stdin>
{.id="@H@0001"},	<stdin>
{.id="@H@0001"},	<stdin>
{.id="@H@0001"},	<stdin>
{.id="@H@0001"},	<stdin>
{.id="@H@0001"},	<stdin>
{.id="@H@0001"},	<stdin>
{.id="@H@0001"},	<stdin>
{.id="@X@0001"},	<stdin>
{.id="@X@0001"},	<stdin>
{.id="@X@0001"},	<stdin>
{.id="@X@0001"},	<stdin>
{.id="@X@0030"},	<stdin>
{.id="@X@1001"},	<stdin>
{.id="@X@2001"},	<stdin>
{.id="@X@2001"},	<stdin>
