"640x480@60";	<stdin>
"640x480@60";	<stdin>
"<giometti@linux.it>\n",	<stdin>
'*@reg	<stdin>
'648x480-8@60'");	<stdin>
'648x480-8@60'");	<stdin>
(@neep_urb)	<stdin>
(@rc->neh_lock	<stdin>
(core@ggi-project.org)	<stdin>
(core@ggi-project.org)	<stdin>
(davem@davemloft.net)	<stdin>
(davem@davemloft.net)	<stdin>
(feng.tang@intel.com)	<stdin>
(jacob.jun.pan@intel.com)	<stdin>
(jakub@redhat.com)	<stdin>
(jds@kom.auc.dk)	<stdin>
(jds@kom.auc.dk)	<stdin>
(jj@ultra.linux.cz)	<stdin>
(jj@ultra.linux.cz)	<stdin>
(joel@wam.umd.edu).	<stdin>
(jsk@mojave.stanford.edu)	<stdin>
(lethal@chaoticdreams.org)	<stdin>
(miguel@nuclecu.unam.mx)	<stdin>
(nardinoc@CS.UniBO.IT)	<stdin>
(ran@krazynet.com)	<stdin>
(sizif@botik.yaroslavl.su).	<stdin>
(solomon_chiu@htc.com)	<stdin>
(tsbogend@alpha.franken.de)	<stdin>
(ulfc@engr.sgi.com)	<stdin>
(ulfc@thepuffingruop.com)	<stdin>
(wjr@cs.cornell.edu)	<stdin>
(wjr@cs.cornell.edu)	<stdin>
<Kim.Heino@bluegiga.com>");	<stdin>
<a.zummo@towertech.it>	<stdin>
<a.zummo@towertech.it>	<stdin>
<a.zummo@towertech.it>	<stdin>
<a.zummo@towertech.it>	<stdin>
<a.zummo@towertech.it>	<stdin>
<a.zummo@towertech.it>	<stdin>
<a.zummo@towertech.it>	<stdin>
<a.zummo@towertech.it>	<stdin>
<a.zummo@towertech.it>	<stdin>
<a.zummo@towertech.it>	<stdin>
<a.zummo@towertech.it>	<stdin>
<a.zummo@towertech.it>	<stdin>
<a.zummo@towertech.it>	<stdin>
<a.zummo@towertech.it>	<stdin>
<a.zummo@towertech.it>");	<stdin>
<a.zummo@towertech.it>");	<stdin>
<a.zummo@towertech.it>");	<stdin>
<a.zummo@towertech.it>");	<stdin>
<a.zummo@towertech.it>");	<stdin>
<a.zummo@towertech.it>");	<stdin>
<a.zummo@towertech.it>");	<stdin>
<a.zummo@towertech.it>,	<stdin>
<a.zummo@towertech.it>.	<stdin>
<ab@mycable.de>	<stdin>
<ab@mycable.de>");	<stdin>
<adaplas@pol.net>	<stdin>
<adaplas@pol.net>	<stdin>
<adaplas@pol.net>	<stdin>
<adaplas@pol.net>	<stdin>
<adaplas@pol.net>	<stdin>
<adaplas@pol.net>	<stdin>
<adaplas@pol.net>	<stdin>
<adaplas@pol.net>	<stdin>
<adaplas@pol.net>	<stdin>
<adaplas@pol.net>");	<stdin>
<adaplas@pol.net>");	<stdin>
<adaplas@pol.net>");	<stdin>
<adaplas@pol.net>");	<stdin>
<adaplas@pol.net>");	<stdin>
<adaplas@pol.net>");	<stdin>
<adaplas@pol.net>");	<stdin>
<aghayal@codeaurora.org>");	<stdin>
<ajapted@netspace.net.au>	<stdin>
<ajoshi@shell.unixbox.com>	<stdin>
<ajoshi@shell.unixbox.com>	<stdin>
<alanh@fairlite.demon.co.uk>	<stdin>
<alchark@gmail.com>	<stdin>
<alchark@gmail.com>	<stdin>
<alchark@gmail.com>");	<stdin>
<aletes.xgr@gmail.com>	<stdin>
<aletes.xgr@gmail.com>");	<stdin>
<andrew.christian@hp.com>	<stdin>
<andy.sharp@lsi.com>	<stdin>
<andy.sharp@lsi.com>");	<stdin>
<anemo@mba.ocn.ne.jp>	<stdin>
<anemo@mba.ocn.ne.jp>	<stdin>
<anemo@mba.ocn.ne.jp>	<stdin>
<anemo@mba.ocn.ne.jp>	<stdin>
<anemo@mba.ocn.ne.jp>	<stdin>
<anemo@mba.ocn.ne.jp>");	<stdin>
<anemo@mba.ocn.ne.jp>");	<stdin>
<anemo@mba.ocn.ne.jp>");	<stdin>
<anemo@mba.ocn.ne.jp>");	<stdin>
<angelo.castello@st.com>");	<stdin>
<archit@ti.com>	<stdin>
<archit@ti.com>	<stdin>
<archit@ti.com>	<stdin>
<archit@ti.com>	<stdin>
<arun.murthy@stericsson.com>	<stdin>
<arun.murthy@stericsson.com>");	<stdin>
<balajirrao@openmoko.org>	<stdin>
<balajirrao@openmoko.org>");	<stdin>
<barryn@pobox.com>.	<stdin>
<baruch@tkos.co.il>");	<stdin>
<bcasavan@sgi.com>	<stdin>
<ben-linux@fluff.org>	<stdin>
<ben@simtec.co.uk>	<stdin>
<ben@simtec.co.uk>	<stdin>
<ben@simtec.co.uk>");	<stdin>
<ben@simtec.co.uk>,	<stdin>
<benoit@android.com>	<stdin>
<blogic@openwrt.org>	<stdin>
<brad@neruo.com>	<stdin>
<brad@neruo.com>	<stdin>
<brad@neruo.com>	<stdin>
<brad@neruo.com>	<stdin>
<broonie@opensource.wolfsonmicro.com>	<stdin>
<broonie@opensource.wolfsonmicro.com>	<stdin>
<broonie@opensource.wolfsonmicro.com>");	<stdin>
<broonie@opensource.wolfsonmicro.com>");	<stdin>
<broonie@opensource.wolfsonmicro.com>");	<stdin>
<buytenh@marvell.com>	<stdin>
<byron.bbradley@gmail.com>");	<stdin>
<ccross@android.com>	<stdin>
<chripell@fsfe.org>	<stdin>
<chrisv@cyberswitching.com>	<stdin>
<chrisv@cyberswitching.com>");	<stdin>
<cih@coventive.com>	<stdin>
<cmahapatra@ti.com>	<stdin>
<costabel@wanadoo.fr>	<stdin>
<crosser@average.org>	<stdin>
<dajun.chen@diasemi.com>	<stdin>
<dajun.chen@diasemi.com>	<stdin>
<dale@farnsworth.org>	<stdin>
<dale@farnsworth.org>");	<stdin>
<damm@opensource.se>");	<stdin>
<dan@debian.org>	<stdin>
<daniel@caiaq.de>	<stdin>
<daniel@caiaq.de>");	<stdin>
<dannf@hp.com>	<stdin>
<dannf@hp.com>");	<stdin>
<davem@davemloft.net>	<stdin>
<davem@davemloft.net>	<stdin>
<davem@davemloft.net>	<stdin>
<davem@davemloft.net>");	<stdin>
<davem@davemloft.net>");	<stdin>
<davem@davemloft.net>");	<stdin>
<davem@davemloft.net>");	<stdin>
<dchen@diasemi.com>");	<stdin>
<dchen@diasemi.com>");	<stdin>
<deller@gmx.de>	<stdin>
<deller@gmx.de>	<stdin>
<deller@gmx.de>	<stdin>
<deller@gmx.de>,	<stdin>
<denzzzhome@yahoo.com>");	<stdin>
<dhd@debian.org>	<stdin>
<dhobsong@igel.co.jp>	<stdin>
<domen.puncer@telargo.com>	<stdin>
<dpervushin@embeddedalley.com>	<stdin>
<drwyrm@gmail.com>	<stdin>
<dsaxena@plexity.net");	<stdin>
<dsaxena@plexity.net>	<stdin>
<dsaxena@plexity.net>	<stdin>
<edward@debian.org>	<stdin>
<eric.miao@marvell.com>	<stdin>
<eric.miao@marvell.com>	<stdin>
<g.liakhovetski@gmx.de>	<stdin>
<g.liakhovetski@gmx.de>");	<stdin>
<gdavis@mvista.com>	<stdin>
<gdavis@mvista.com>	<stdin>
<geert@linux-m68k.org>");	<stdin>
<geert@linux-m68k.org>");	<stdin>
<giometti@linux.it>	<stdin>
<giometti@linux.it>	<stdin>
<giometti@linux.it>	<stdin>
<giometti@linux.it>	<stdin>
<giometti@linux.it>	<stdin>
<giometti@linux.it>");	<stdin>
<giometti@linux.it>");	<stdin>
<giometti@linux.it>");	<stdin>
<gmzhuo@gmail.com>	<stdin>
<gmzhuo@gmail.com>");	<stdin>
<gregory.hermant@calao-systems.com>	<stdin>
<gregory.hermant@calao-systems.com>");	<stdin>
<guillaume.thouvenin@bull.net>	<stdin>
<gwan@marvell.com>");	<stdin>
<gxt@mprc.pku.edu.cn>	<stdin>
<gxt@mprc.pku.edu.cn>	<stdin>
<hanumath.prasad@stericsson.com>	<stdin>
<haojian.zhuang@marvell.com>	<stdin>
<haojian.zhuang@marvell.com>	<stdin>
<haojian.zhuang@marvell.com>");	<stdin>
<haojian.zhuang@marvell.com>");	<stdin>
<hcegtvedt@atmel.com>");	<stdin>
<hdoyu@nvidia.com>	<stdin>
<hdoyu@nvidia.com>");	<stdin>
<heiko@sntech.de>	<stdin>
<heiko@sntech.de>	<stdin>
<heiko@sntech.de>");	<stdin>
<heiko@sntech.de>");	<stdin>
<hemanthv@ti.com>	<stdin>
<hsweeten@visionengravers.com");	<stdin>
<hsweeten@visionengravers.com>	<stdin>
<hvr@gnu.org>	<stdin>
<hvr@gnu.org>");	<stdin>
<inaky.perez-gonzalez@intel.com>	<stdin>
<inaky.perez-gonzalez@intel.com>	<stdin>
<inaky.perez-gonzalez@intel.com>	<stdin>
<inaky.perez-gonzalez@intel.com>	<stdin>
<inaky.perez-gonzalez@intel.com>	<stdin>
<inaky.perez-gonzalez@intel.com>	<stdin>
<inaky.perez-gonzalez@intel.com>	<stdin>
<inaky.perez-gonzalez@intel.com>	<stdin>
<inaky.perez-gonzalez@intel.com>	<stdin>
<inaky.perez-gonzalez@intel.com>	<stdin>
<inaky.perez-gonzalez@intel.com>	<stdin>
<inaky.perez-gonzalez@intel.com>	<stdin>
<inaky.perez-gonzalez@intel.com>	<stdin>
<inaky.perez-gonzalez@intel.com>	<stdin>
<inaky.perez-gonzalez@intel.com>	<stdin>
<inaky.perez-gonzalez@intel.com>	<stdin>
<inaky.perez-gonzalez@intel.com>	<stdin>
<inaky.perez-gonzalez@intel.com>	<stdin>
<inaky.perez-gonzalez@intel.com>	<stdin>
<inaky.perez-gonzalez@intel.com>	<stdin>
<inaky.perez-gonzalez@intel.com>	<stdin>
<inaky.perez-gonzalez@intel.com>	<stdin>
<inaky.perez-gonzalez@intel.com>");	<stdin>
<inaky.perez-gonzalez@intel.com>");	<stdin>
<inaky.perez-gonzalez@intel.com>");	<stdin>
<inaky.perez-gonzalez@intel.com>");	<stdin>
<inaky.perez-gonzalez@intel.com>");	<stdin>
<iwamatsu@nigauri.org>");	<stdin>
<jacheng@nvidia.com>	<stdin>
<jack.lan@freescale.com>	<stdin>
<james.wylder@motorola.com>	<stdin>
<jamesnuss@nanometrics.ca>	<stdin>
<jamesnuss@nanometrics.ca>");	<stdin>
<jayalk@intworks.biz>	<stdin>
<jcrigby@gmail.com>");	<stdin>
<jgarzik@pobox.com>	<stdin>
<jgarzik@pobox.com>");	<stdin>
<jgarzik@pobox.com>,	<stdin>
<jgarzik@pobox.com>,	<stdin>
<jgarzik@pobox.com>,	<stdin>
<jgarzik@pobox.com>,	<stdin>
<jmayo@nvidia.com>");	<stdin>
<jongk@linux-m68k.org>,	<stdin>
<jpaana@s2.org>	<stdin>
<jsimmons@users.sf.net>");	<stdin>
<jsimmons@users.sf.net>");	<stdin>
<juha.yrjola@nokia.com>	<stdin>
<juhosg@openwrt.org>	<stdin>
<juhosg@openwrt.org>");	<stdin>
<jy0922.shim@samsung.com>	<stdin>
<jy0922.shim@samsung.com>");	<stdin>
<kernel@pengutronix.de>");	<stdin>
<kosmo@semihalf.com>");	<stdin>
<krzysztof.h1@wp.pl>	<stdin>
<kyle@mcmartin.ca>	<stdin>
<kyle@mcmartin.ca>");	<stdin>
<lars@metafoo.de>	<stdin>
<lars@metafoo.de>	<stdin>
<lars@metafoo.de>");	<stdin>
<lars@metafoo.de>");	<stdin>
<lasaine@lvk.cs.msu.su>	<stdin>
<lasaine@lvk.cs.msu.su>	<stdin>
<lasaine@lvk.cs.msu.su>	<stdin>
<lasaine@lvk.cs.msu.su>	<stdin>
<lasaine@lvk.cs.msu.su>");	<stdin>
<lasaine@lvk.cs.msu.su>");	<stdin>
<ldewangan@nvidia.com>	<stdin>
<ldewangan@nvidia.com>");	<stdin>
<lenehan@twibble.org>,	<stdin>
<lethal@linux-sh.org>");	<stdin>
<lethal@linux-sh.org>,	<stdin>
<linus.walleij@stericsson.com>	<stdin>
<linus.walleij@stericsson.com>	<stdin>
<linus.walleij@stericsson.com>	<stdin>
<linus.walleij@stericsson.com>");	<stdin>
<linus.walleij@stericsson.com>");	<stdin>
<linux-kernel@hansmi.ch>	<stdin>
<linux@prisktech.co.nz>	<stdin>
<linux@prisktech.co.nz>");	<stdin>
<luther@dpt-info.u-strasbg.fr>	<stdin>
<mano@roarinelk.homelinux.net>	<stdin>
<manuel.lauss@gmail.com>");	<stdin>
<marek.vasut@gmail.com>	<stdin>
<martyn.welch@ge.com");	<stdin>
<martyn.welch@ge.com>	<stdin>
<martyn.welch@ge.com>	<stdin>
<martyn.welch@ge.com>");	<stdin>
<maxime.ripard@free-electrons.com>");	<stdin>
<mcuos.com@gmail.com>	<stdin>
<mcuos.com@gmail.com>");	<stdin>
<mgreer@mvista.com>	<stdin>
<mgreer@mvista.com>.	<stdin>
<mian.yousaf.kaukab@stericsson.com>	<stdin>
<middelin@polyware.iaf.nl>	<stdin>
<miguel.aguilar@ridgerun.com>	<stdin>
<miguel.aguilar@ridgerun.com>");	<stdin>
<miguel.gaio@efixo.com>	<stdin>
<miguel.gaio@efixo.com>");	<stdin>
<mike@compulab.co.il>	<stdin>
<mike@compulab.co.il>	<stdin>
<mike@compulab.co.il>");	<stdin>
<mitja.horvat@guest.arnes.si>	<stdin>
<mj@ucw.cz>	<stdin>
<mj@ucw.cz>	<stdin>
<mj@ucw.cz>	<stdin>
<mj@ucw.cz>,	<stdin>
<mj@ucw.cz>,	<stdin>
<mj@ucw.cz>,	<stdin>
<mk7.kang@samsung.com>	<stdin>
<mk7.kang@samsung.com>");	<stdin>
<mpfj@mimc.co.uk>	<stdin>
<mpfj@mimc.co.uk>");	<stdin>
<mst@redhat.com>	<stdin>
<mst@redhat.com>	<stdin>
<mst@redhat.com>	<stdin>
<mythripk@ti.com>	<stdin>
<mythripk@ti.com>	<stdin>
<mythripk@ti.com>	<stdin>
<n.voss@weinmann.de>");	<stdin>
<nab@risingtidesystems.com>	<stdin>
<nico@fluxnic.net>	<stdin>
<nicolas.ferre@atmel.com>");	<stdin>
<nils@kernelconcepts.de>	<stdin>
<njun@marvell.com>	<stdin>
<paul@crapouillou.net>	<stdin>
<peter.anvin@linux.org>	<stdin>
<peter.hartley@sigmatel.com>	<stdin>
<peter.ujfalusi@ti.com>	<stdin>
<peter.ujfalusi@ti.com>	<stdin>
<peter.ujfalusi@ti.com>");	<stdin>
<peter.ujfalusi@ti.com>");	<stdin>
<pfg@sgi.com>	<stdin>
<philb@gnu.org>	<stdin>
<pmironchik@optifacio.net>	<stdin>
<pmironchik@optifacio.net>,	<stdin>
<prumpf@tux.org>	<stdin>
<prumpf@tux.org>	<stdin>
<prumpf@tux.org>	<stdin>
<prumpf@tux.org>	<stdin>
<prumpf@tux.org>	<stdin>
<rabin.vincent@stericsson.com>	<stdin>
<rajeev-dlh.kumar@st.com>");	<stdin>
<raph@8d.com>	<stdin>
<raph@8d.com>	<stdin>
<rasm@fe.up.pt>	<stdin>
<rasm@fe.up.pt>");	<stdin>
<rda@emcraft.com>	<stdin>
<reinette.chatre@intel.com>	<stdin>
<reinette.chatre@intel.com>	<stdin>
<richardcochran@gmail.com>");	<stdin>
<richardcochran@gmail.com>");	<stdin>
<rmk@arm.linux.org.uk>	<stdin>
<rmk@arm.linux.org.uk>");	<stdin>
<robert.jarzmik@free.fr>");	<stdin>
<romain@dolbeau.org>.	<stdin>
<roman.fietze@telemotive.de>	<stdin>
<rongkai.zhan@windriver.com>	<stdin>
<rongkai.zhan@windriver.com>");	<stdin>
<rpurdie@rpsys.net>	<stdin>
<rpurdie@rpsys.net>");	<stdin>
<rvinson@mvista.com>,	<stdin>
<rz@linux-m68k.org>	<stdin>
<s.hauer@pengutronix.de");	<stdin>
<s.hauer@pengutronix.de>	<stdin>
<s.hauer@pengutronix.de>");	<stdin>
<s.hauer@pengutronix.de>");	<stdin>
<s.hauer@pengutronix.de>,	<stdin>
<saeed@marvell.com>");	<stdin>
<santiago@crfreenet.org>	<stdin>
<santiago@crfreenet.org>");	<stdin>
<santosh.shilimkar@ti.com>	<stdin>
<scottwood@freescale.com>");	<stdin>
<sgt20@cam.ac.uk>	<stdin>
<shawn.guo@linaro.org>");	<stdin>
<shiraz.hashim@st.com>	<stdin>
<shiraz.hashim@st.com>	<stdin>
<shiraz.hashim@st.com>");	<stdin>
<shiraz.hashim@st.com>");	<stdin>
<sjb@salix.demon.co.uk>,	<stdin>
<skylark@linux-mips.org>	<stdin>
<skylark@linux-mips.org>");	<stdin>
<slapin@ossfans.org>");	<stdin>
<source@mvista.com>	<stdin>
<source@mvista.com>	<stdin>
<source@mvista.com>	<stdin>
<source@mvista.com>	<stdin>
<source@mvista.com>	<stdin>
<sposelenov@emcraft.com>	<stdin>
<srikanth.srinivasan@freescale.com>");	<stdin>
<stefanha@linux.vnet.ibm.com>	<stdin>
<svens@stackframe.org>	<stdin>
<taki@igel.co.jp>	<stdin>
<thierry.reding@avionic-design.de>");	<stdin>
<thierry.reding@avionic-design.de>");	<stdin>
<thomas.hommel@ge.com>	<stdin>
<thomas.hommel@ge.com>");	<stdin>
<tomi.valkeinen@nokia.com>	<stdin>
<tomi.valkeinen@nokia.com>	<stdin>
<tomi.valkeinen@nokia.com>	<stdin>
<tomi.valkeinen@nokia.com>	<stdin>
<tomi.valkeinen@nokia.com>	<stdin>
<tomi.valkeinen@nokia.com>	<stdin>
<tomi.valkeinen@nokia.com>	<stdin>
<tomi.valkeinen@nokia.com>	<stdin>
<tomi.valkeinen@nokia.com>	<stdin>
<tomi.valkeinen@nokia.com>	<stdin>
<tomi.valkeinen@nokia.com>	<stdin>
<tomi.valkeinen@nokia.com>	<stdin>
<tomi.valkeinen@nokia.com>	<stdin>
<tomi.valkeinen@nokia.com>	<stdin>
<tomi.valkeinen@nokia.com>	<stdin>
<tomi.valkeinen@nokia.com>	<stdin>
<tomi.valkeinen@nokia.com>	<stdin>
<tomi.valkeinen@nokia.com>	<stdin>
<tomi.valkeinen@nokia.com>");	<stdin>
<tomi.valkeinen@nokia.com>");	<stdin>
<tomi.valkeinen@ti.com>	<stdin>
<tomi.valkeinen@ti.com>	<stdin>
<tomi.valkeinen@ti.com>	<stdin>
<tr@newtec.dk>	<stdin>
<tsbogend@alpha.franken.de>	<stdin>
<tsbogend@alpha.franken.de>	<stdin>
<tsbogend@alpha.franken.de>");	<stdin>
<tsbogend@alpha.franken.de>");	<stdin>
<tsbogend@alpha.franken.de>");	<stdin>
<tsbogend@alpha.franken.de>");	<stdin>
<tshimizu818@gmail.com>");	<stdin>
<vapier@gentoo.org>");	<stdin>
<vbyravarasu@nvidia.com>	<stdin>
<vbyravarasu@nvidia.com>	<stdin>
<vbyravarasu@nvidia.com>");	<stdin>
<vbyravarasu@nvidia.com>");	<stdin>
<viresh.kumar@linaro.com>");	<stdin>
<virupax.sadashivpetimath@stericsson.com>	<stdin>
<virupax.sadashivpetimath@stericsson.com>");	<stdin>
<w.sang@pengutronix.de>");	<stdin>
<wellsk40@gmail.com");	<stdin>
<wg@grandegger.com>	<stdin>
<wg@grandegger.com>	<stdin>
<wg@grandegger.com>");	<stdin>
<yuasa@linux-mips.org>	<stdin>
<yuasa@linux-mips.org>");	<stdin>
<zbr@ioremap.net>	<stdin>
<zbr@ioremap.net>	<stdin>
<zbr@ioremap.net>");	<stdin>
<zhouqiao@marvell.com>	<stdin>
<zhouqiao@marvell.com>");	<stdin>
<zhzhl555@gmail.com>	<stdin>
<zhzhl555@gmail.com>");	<stdin>
@_addr:	<stdin>
@_addr:	<stdin>
@_data	<stdin>
@_data:	<stdin>
@_data_size:	<stdin>
@_event_size:	<stdin>
@_event_size:	<stdin>
@_new_size:	<stdin>
@addr	<stdin>
@addr	<stdin>
@addr	<stdin>
@addr	<stdin>
@addr	<stdin>
@addr	<stdin>
@addr:	<stdin>
@alarm_rw_base:	<stdin>
@alm:	<stdin>
@alm:	<stdin>
@arg:	<stdin>
@arg:	<stdin>
@array:	<stdin>
@array:	<stdin>
@array:	<stdin>
@baAddr:	<stdin>
@bank:	<stdin>
@bank:	<stdin>
@base	<stdin>
@base	<stdin>
@base	<stdin>
@base	<stdin>
@base:	<stdin>
@base:	<stdin>
@base:	<stdin>
@base:	<stdin>
@base:	<stdin>
@base_addr_c:	<stdin>
@base_addr_y:	<stdin>
@bce:	<stdin>
@be:	<stdin>
@bf:	<stdin>
@bg:	<stdin>
@bind_args:	<stdin>
@blue:	<stdin>
@blue:	<stdin>
@blue:	<stdin>
@blue:	<stdin>
@bmOperationType:	<stdin>
@bmp_itr:	<stdin>
@bpst_offset:	<stdin>
@bpst_offset:	<stdin>
@buf	<stdin>
@buf,	<stdin>
@buf.	<stdin>
@buf:	<stdin>
@buf:	<stdin>
@buf:	<stdin>
@buf_size.	<stdin>
@buf_size.	<stdin>
@buf_size:	<stdin>
@buf_size:	<stdin>
@buf_size:	<stdin>
@buf_size:	<stdin>
@buf_size:	<stdin>
@buf_size:	<stdin>
@buf_size:	<stdin>
@buffer:	<stdin>
@buffer:	<stdin>
@buffer_size:number	<stdin>
@busid:	<stdin>
@cache_unit:	<stdin>
@callback:	<stdin>
@cb:	<stdin>
@cb:	<stdin>
@cb:	<stdin>
@cfg:	<stdin>
@cfg:	<stdin>
@cfg:	<stdin>
@channel:	<stdin>
@channel:	<stdin>
@channel:	<stdin>
@chip:	<stdin>
@chip:	<stdin>
@chip:	<stdin>
@chip:	<stdin>
@chip:	<stdin>
@chip:	<stdin>
@chip:	<stdin>
@chip:	<stdin>
@chip:	<stdin>
@chip:	<stdin>
@chip:	<stdin>
@chip:	<stdin>
@chip:	<stdin>
@chip:	<stdin>
@chip:	<stdin>
@chip:	<stdin>
@chip:	<stdin>
@chip:	<stdin>
@chip:	<stdin>
@chip:	<stdin>
@clk:	<stdin>
@clk:	<stdin>
@clockwatch:	<stdin>
@cmd	<stdin>
@cmd	<stdin>
@cmd	<stdin>
@cmd.	<stdin>
@cmd.	<stdin>
@cmd.	<stdin>
@cmd:	<stdin>
@cmd:	<stdin>
@cmd:	<stdin>
@cmd:	<stdin>
@cmd:	<stdin>
@cmd:	<stdin>
@cmd:	<stdin>
@cmd:	<stdin>
@cmd:	<stdin>
@cmd:	<stdin>
@cmd_buf	<stdin>
@cmd_complete	<stdin>
@cmd_name:	<stdin>
@cmd_name:	<stdin>
@cmd_name:	<stdin>
@cmd_name:	<stdin>
@cmd_size:	<stdin>
@cmd_size:	<stdin>
@cmd_size:	<stdin>
@cmd_size:	<stdin>
@cmd_size:	<stdin>
@cmd_size:	<stdin>
@cmode:	<stdin>
@cmode:	<stdin>
@code:	<stdin>
@con:	<stdin>
@context:	<stdin>
@core_size:	<stdin>
@count:	<stdin>
@cs_enable_mask:	<stdin>
@cs_enable_shift:	<stdin>
@cs_value_bit:	<stdin>
@ctrl_reg:	<stdin>
@ctrl_reg_lock:	<stdin>
@current_reg:	<stdin>
@cursor:	<stdin>
@data:	<stdin>
@data:	<stdin>
@data:	<stdin>
@data:	<stdin>
@data:	<stdin>
@data:	<stdin>
@data:	<stdin>
@datalen	<stdin>
@debounce	<stdin>
@debounce:	<stdin>
@debounce:	<stdin>
@default_bpp:	<stdin>
@default_params:	<stdin>
@den:	<stdin>
@dev:	<stdin>
@dev:	<stdin>
@dev:	<stdin>
@dev:	<stdin>
@dev:	<stdin>
@dev:	<stdin>
@dev:	<stdin>
@dev:	<stdin>
@dev:	<stdin>
@dev:	<stdin>
@dev:	<stdin>
@dev:	<stdin>
@dev:	<stdin>
@devaddr:	<stdin>
@devaddr:	<stdin>
@direction_may_change:	<stdin>
@do_wait:	<stdin>
@drp_ie:	<stdin>
@drp_ie:	<stdin>
@drv:	<stdin>
@drv:	<stdin>
@dsr:	<stdin>
@element_id:	<stdin>
@enabled:	<stdin>
@entry	<stdin>
@error:	<stdin>
@event:	<stdin>
@event:	<stdin>
@event_size:	<stdin>
@events:	<stdin>
@evt->rc	<stdin>
@evt->rc	<stdin>
@evt:	<stdin>
@evt:	<stdin>
@evt:	<stdin>
@evt:	<stdin>
@evt:	<stdin>
@evt_buf	<stdin>
@expected_event:	<stdin>
@expected_event:	<stdin>
@expected_event:	<stdin>
@expected_event:	<stdin>
@expected_type:	<stdin>
@expected_type:	<stdin>
@expected_type:	<stdin>
@expected_type:	<stdin>
@f:	<stdin>
@fg:	<stdin>
@file:	<stdin>
@file:	<stdin>
@file:	<stdin>
@file:	<stdin>
@flags:	<stdin>
@font_h:	<stdin>
@font_w:	<stdin>
@freq:	<stdin>
@function	<stdin>
@function.	<stdin>
@function:	<stdin>
@fw_name:	<stdin>
@fw_name:	<stdin>
@fw_name:	<stdin>
@fw_tag:	<stdin>
@gc:	<stdin>
@gc:	<stdin>
@gpio	<stdin>
@gpio	<stdin>
@gpio	<stdin>
@gpio:	<stdin>
@gpio:	<stdin>
@gpio:	<stdin>
@gpio:	<stdin>
@gpio:	<stdin>
@gpio:	<stdin>
@gpio:	<stdin>
@gpio:	<stdin>
@gpio:	<stdin>
@gpio:	<stdin>
@gpio:	<stdin>
@gpio:	<stdin>
@gpio:	<stdin>
@gpio:	<stdin>
@gpio:	<stdin>
@gpio:	<stdin>
@gpio_offset:	<stdin>
@grandpa_dev	<stdin>
@green:	<stdin>
@green:	<stdin>
@green:	<stdin>
@green:	<stdin>
@h	<stdin>
@h:	<stdin>
@handler:	<stdin>
@hdr->next	<stdin>
@hdr:	<stdin>
@hdr:	<stdin>
@header:	<stdin>
@header:	<stdin>
@header:	<stdin>
@header:	<stdin>
@header:	<stdin>
@header:	<stdin>
@header:	<stdin>
@header:	<stdin>
@header:	<stdin>
@hits:	<stdin>
@hw_rev	<stdin>
@hwarc:	<stdin>
@i1480's	<stdin>
@i1480:	<stdin>
@i1480:	<stdin>
@i1480:	<stdin>
@i1480:	<stdin>
@i1480:	<stdin>
@i1480:	<stdin>
@i1480:	<stdin>
@i1480:	<stdin>
@i1480:	<stdin>
@i1480:	<stdin>
@i1480:	<stdin>
@icbs:	<stdin>
@id:	<stdin>
@ies:	<stdin>
@ies:	<stdin>
@image:	<stdin>
@index:	<stdin>
@info:	<stdin>
@info:	<stdin>
@info:	<stdin>
@info:	<stdin>
@info:	<stdin>
@info:	<stdin>
@info:	<stdin>
@info:	<stdin>
@info:	<stdin>
@info:	<stdin>
@info:	<stdin>
@info:	<stdin>
@info:	<stdin>
@inode:	<stdin>
@inode:	<stdin>
@inode:	<stdin>
@ioaddr:	<stdin>
@iovcount	<stdin>
@irq:	<stdin>
@irq:	<stdin>
@irq_lock:	<stdin>
@irqflags:	<stdin>
@itr:	<stdin>
@jiffies_refresh:	<stdin>
@label:	<stdin>
@last_off:	<stdin>
@len	<stdin>
@len	<stdin>
@len	<stdin>
@len:	<stdin>
@len:	<stdin>
@len:	<stdin>
@lock:	<stdin>
@log	<stdin>
@log_num	<stdin>
@mas:	<stdin>
@mas:	<stdin>
@mas:	<stdin>
@mas:	<stdin>
@mas:	<stdin>
@mask	<stdin>
@mask:	<stdin>
@match	<stdin>
@max_interval:	<stdin>
@max_mas:	<stdin>
@max_ms	<stdin>
@memory_address:	<stdin>
@memory_address:	<stdin>
@meram:	<stdin>
@min_mas:	<stdin>
@mm_gc:	<stdin>
@mmio_base:	<stdin>
@mode_option.	<stdin>
@mode_option:	<stdin>
@n:	<stdin>
@name.	<stdin>
@name:	<stdin>
@name:	<stdin>
@name:	<stdin>
@name:	<stdin>
@name:	<stdin>
@neh	<stdin>
@neh	<stdin>
@neh's	<stdin>
@neh's	<stdin>
@neh->extra_size	<stdin>
@neh->ptr	<stdin>
@neh->ptr	<stdin>
@neh:	<stdin>
@neh:	<stdin>
@neh:	<stdin>
@neh:	<stdin>
@neh:	<stdin>
@new	<stdin>
@new_size:	<stdin>
@new_size:	<stdin>
@new_size:	<stdin>
@new_size:	<stdin>
@newidx.	<stdin>
@newidx:	<stdin>
@ngpio:	<stdin>
@nom:	<stdin>
@npins:	<stdin>
@nr_chips:	<stdin>
@num:	<stdin>
@num:	<stdin>
@num:	<stdin>
@off:	<stdin>
@off:	<stdin>
@off:	<stdin>
@off:	<stdin>
@off:	<stdin>
@off:	<stdin>
@offset:	<stdin>
@offset:	<stdin>
@offset:	<stdin>
@ops:	<stdin>
@pal:	<stdin>
@pal:	<stdin>
@pal:	<stdin>
@pal:	<stdin>
@pal:	<stdin>
@pal:	<stdin>
@pal_priv:	<stdin>
@pal_priv:	<stdin>
@pan_y_offset:	<stdin>
@par:	<stdin>
@par:	<stdin>
@par:	<stdin>
@param	<stdin>
@param	<stdin>
@parent:	<stdin>
@parent:	<stdin>
@parent:	<stdin>
@parent:	<stdin>
@parent_dev	<stdin>
@parent_rc:	<stdin>
@pdev:	<stdin>
@perip_cfg:	<stdin>
@phdr:	<stdin>
@pin_offset:	<stdin>
@pinctrl_name:	<stdin>
@pitch:	<stdin>
@pixelformat:	<stdin>
@pol.net>	<stdin>
@pol.net>	<stdin>
@pol.net>	<stdin>
@pol.net>	<stdin>
@pol.net>	<stdin>
@pol.net>	<stdin>
@pol.net>	<stdin>
@pol.net>	<stdin>
@pol.net>	<stdin>
@pool:	<stdin>
@ppos:	<stdin>
@pps:	<stdin>
@pps:	<stdin>
@pps:	<stdin>
@pps:	<stdin>
@pps:	<stdin>
@prd:	<stdin>
@preply:	<stdin>
@preply:	<stdin>
@prescale_div:	<stdin>
@priv:	<stdin>
@private:	<stdin>
@private:	<stdin>
@product:	<stdin>
@ptr	<stdin>
@ptr	<stdin>
@ptr:	<stdin>
@quota	<stdin>
@rc	<stdin>
@rc	<stdin>
@rc	<stdin>
@rc	<stdin>
@rc	<stdin>
@rc	<stdin>
@rc's	<stdin>
@rc's	<stdin>
@rc's	<stdin>
@rc's	<stdin>
@rc's	<stdin>
@rc's	<stdin>
@rc's	<stdin>
@rc->ctx_roll	<stdin>
@rc->neh_lock	<stdin>
@rc->neh_lock	<stdin>
@rc.	<stdin>
@rc:	<stdin>
@rc:	<stdin>
@rc:	<stdin>
@rc:	<stdin>
@rc:	<stdin>
@rc:	<stdin>
@rc:	<stdin>
@rc:	<stdin>
@rc:	<stdin>
@rc:	<stdin>
@rc:	<stdin>
@rc:	<stdin>
@rc:	<stdin>
@rc:	<stdin>
@rc:	<stdin>
@rc:	<stdin>
@rc:	<stdin>
@rc:	<stdin>
@rc:	<stdin>
@rc:	<stdin>
@rc:	<stdin>
@rc:	<stdin>
@rc:	<stdin>
@rc:	<stdin>
@rc:	<stdin>
@rc:	<stdin>
@rc:	<stdin>
@rc:	<stdin>
@rc:	<stdin>
@rc:	<stdin>
@rc:	<stdin>
@rc:	<stdin>
@rc:	<stdin>
@rc:	<stdin>
@rc:	<stdin>
@rc:	<stdin>
@rc:	<stdin>
@rc:	<stdin>
@rc:	<stdin>
@rc:	<stdin>
@rc:	<stdin>
@rceb	<stdin>
@rceb	<stdin>
@rceb	<stdin>
@rceb:	<stdin>
@rceb:	<stdin>
@rceb:	<stdin>
@rceb:	<stdin>
@rceb:	<stdin>
@rceb:	<stdin>
@rceb_size:	<stdin>
@rceb_size:	<stdin>
@rd_buffer.	<stdin>
@read	<stdin>
@rect:	<stdin>
@red:	<stdin>
@red:	<stdin>
@red:	<stdin>
@red:	<stdin>
@reg_class:	<stdin>
@region:	<stdin>
@regno:	<stdin>
@regno:	<stdin>
@regnum.	<stdin>
@regnum.	<stdin>
@regnum:	<stdin>
@regnum:	<stdin>
@regs.	<stdin>
@regs.	<stdin>
@regs:	<stdin>
@regs:	<stdin>
@regs:	<stdin>
@regs:	<stdin>
@reply's	<stdin>
@reply:	<stdin>
@reply:	<stdin>
@reply:	<stdin>
@reply:	<stdin>
@reply_size:	<stdin>
@reply_size:	<stdin>
@reply_size:	<stdin>
@reply_size;	<stdin>
@result'.	<stdin>
@return	<stdin>
@return	<stdin>
@returns	<stdin>
@returns	<stdin>
@returns	<stdin>
@returns	<stdin>
@returns	<stdin>
@returns	<stdin>
@returns	<stdin>
@returns	<stdin>
@returns	<stdin>
@returns	<stdin>
@returns:	<stdin>
@returns:	<stdin>
@returns:	<stdin>
@returns:	<stdin>
@returns:	<stdin>
@returns:	<stdin>
@returns:	<stdin>
@returns:	<stdin>
@returns:	<stdin>
@returns:	<stdin>
@returns:	<stdin>
@returns:	<stdin>
@returns:	<stdin>
@returns:	<stdin>
@returns:	<stdin>
@returns:	<stdin>
@returns:	<stdin>
@returns:	<stdin>
@returns:	<stdin>
@returns:	<stdin>
@returns:	<stdin>
@rqst_prescaler:	<stdin>
@rsv's	<stdin>
@rsv:	<stdin>
@rsv:	<stdin>
@rsv:	<stdin>
@rsv:	<stdin>
@rsv:	<stdin>
@rsv:	<stdin>
@rsv:	<stdin>
@rtc	<stdin>
@rtc	<stdin>
@rtc	<stdin>
@rtc:	<stdin>
@rtc:	<stdin>
@rtc:	<stdin>
@rtc:	<stdin>
@rtc:	<stdin>
@rtc:	<stdin>
@rtc:	<stdin>
@rtc_alarm_irq:	<stdin>
@rtc_base:	<stdin>
@rtc_dev:	<stdin>
@rtc_read_base:	<stdin>
@rtc_write_base:	<stdin>
@sa	<stdin>
@sa	<stdin>
@sa	<stdin>
@sense:	<stdin>
@setup	<stdin>
@sinfo:	<stdin>
@size:	<stdin>
@size:	<stdin>
@size:	<stdin>
@size:	<stdin>
@size:	<stdin>
@size:	<stdin>
@size:	<stdin>
@size:	<stdin>
@size:	<stdin>
@size:	<stdin>
@size:	<stdin>
@size:	<stdin>
@size:	<stdin>
@size:	<stdin>
@src:	<stdin>
@srcaddr:	<stdin>
@st_weekday:	<stdin>
@start:	<stdin>
@state:	<stdin>
@sw_enable_bit:	<stdin>
@task:	<stdin>
@task:	<stdin>
@tb_clk_div:	<stdin>
@tc3589x_gpio:	<stdin>
@this:	<stdin>
@timer	<stdin>
@timer	<stdin>
@timer	<stdin>
@timer:	<stdin>
@timer:	<stdin>
@tm:	<stdin>
@tm:	<stdin>
@transp:	<stdin>
@transp:	<stdin>
@ts:	<stdin>
@ts:	<stdin>
@ts_jiffies:	<stdin>
@ts_jiffies:	<stdin>
@type:	<stdin>
@type:	<stdin>
@type:	<stdin>
@type:	<stdin>
@type:	<stdin>
@umc:	<stdin>
@umc:	<stdin>
@umc:	<stdin>
@umc:	<stdin>
@umc_drv:	<stdin>
@umc_drv:	<stdin>
@unit	<stdin>
@unit:	<stdin>
@unused:	<stdin>
@use_count:	<stdin>
@used_icb:	<stdin>
@user:	<stdin>
@uwb_dev:	<stdin>
@uwb_evt->buffer.	<stdin>
@uwb_rc:	<stdin>
@uwb_rc:	<stdin>
@uwb_rc:	<stdin>
@uwb_rc:	<stdin>
@val:	<stdin>
@val:	<stdin>
@value:	<stdin>
@value:	<stdin>
@value:	<stdin>
@value:	<stdin>
@var:	<stdin>
@var:	<stdin>
@var:	<stdin>
@var:	<stdin>
@var:	<stdin>
@var:	<stdin>
@var:	<stdin>
@vendor:	<stdin>
@vmode:	<stdin>
@vmode:	<stdin>
@vq	<stdin>
@w	<stdin>
@w:	<stdin>
@wa	<stdin>
@wait_init_done	<stdin>
@whcrc:	<stdin>
@whcrc:	<stdin>
@work:	<stdin>
@write	<stdin>
@write_mutex:	<stdin>
@write_wait:	<stdin>
@xres:	<stdin>
@yres:	<stdin>
Chen<wzch@marvell.com>	<stdin>
Kumar<rajeev-dlh.kumar@st.com>	<stdin>
MODULE_AUTHOR("roman.fietze@telemotive.de");	<stdin>
[carter@compsci.bristol.ac.uk]	<stdin>
[carter@compsci.bristol.ac.uk]	<stdin>
kernel@pengutronix.de	<stdin>
linux@wolfsonmicro.com	<stdin>
